%!PS-Adobe-2.0 EPSF-2.0
%%BoundingBox:  0 0 567 354
%%Title: results/ZL_MB-SSd_Background_test/c_corrMatrix_RooExpandedFitResult_afterFit.eps: c_corrMatrix_RooExpandedFitResult_afterFit
%%Creator: ROOT Version 6.04/16
%%CreationDate: Mon May 18 20:32:01 2020
%%DocumentNeededResources: ProcSet (FontSetInit)
%%EndComments
%%BeginProlog
80 dict begin
/s {stroke} def /l {lineto} def /m {moveto} def /t {translate} def
/r {rotate} def /rl {roll}  def /R {repeat} def
/d {rlineto} def /rm {rmoveto} def /gr {grestore} def /f {eofill} def
/c {setrgbcolor} def /black {0 setgray} def /sd {setdash} def
/cl {closepath} def /sf {scalefont setfont} def /lw {setlinewidth} def
/box {m dup 0 exch d exch 0 d 0 exch neg d cl} def
/NC{systemdict begin initclip end}def/C{NC box clip newpath}def
/bl {box s} def /bf {gsave box gsave f grestore 1 lw [] 0 sd s grestore} def /Y { 0 exch d} def /X { 0 d} def 
/K {{pop pop 0 moveto} exch kshow} bind def
/ita {/ang 15 def gsave [1 0 ang dup sin exch cos div 1 0 0] concat} def 
/mp {newpath /y exch def /x exch def} def
/side {[w .77 mul w .23 mul] .385 w mul sd w 0 l currentpoint t -144 r} def
/mr {mp x y w2 0 360 arc} def /m24 {mr s} def /m20 {mr f} def
/mb {mp x y w2 add m w2 neg 0 d 0 w neg d w 0 d 0 w d cl} def
/mt {mp x y w2 add m w2 neg w neg d w 0 d cl} def
/m21 {mb f} def /m25 {mb s} def /m22 {mt f} def /m26{mt s} def
/m23 {mp x y w2 sub m w2 w d w neg 0 d cl f} def
/m27 {mp x y w2 add m w3 neg w2 neg d w3 w2 neg d w3 w2 d cl s} def
/m28 {mp x w2 sub y w2 sub w3 add m w3 0 d  0 w3 neg d w3 0 d 0 w3 d w3 0 d  0 w3 d w3 neg 0 d 0 w3 d w3 neg 0 d 0 w3 neg d w3 neg 0 d cl s } def
/m29 {mp gsave x w2 sub y w2 add w3 sub m currentpoint t 4 {side} repeat cl fill gr} def
/m30 {mp gsave x w2 sub y w2 add w3 sub m currentpoint t 4 {side} repeat cl s gr} def
/m31 {mp x y w2 sub m 0 w d x w2 sub y m w 0 d x w2 sub y w2 add m w w neg d x w2 sub y w2 sub m w w d s} def
/m32 {mp x y w2 sub m w2 w d w neg 0 d cl s} def
/m33 {mp x y w2 add m w3 neg w2 neg d w3 w2 neg d w3 w2 d cl f} def
/m34 {mp x w2 sub y w2 sub w3 add m w3 0 d  0 w3 neg d w3 0 d 0 w3 d w3 0 d  0 w3 d w3 neg 0 d 0 w3 d w3 neg 0 d 0 w3 neg d w3 neg 0 d cl f } def
/m2 {mp x y w2 sub m 0 w d x w2 sub y m w 0 d s} def
/m5 {mp x w2 sub y w2 sub m w w d x w2 sub y w2 add m w w neg d s} def
%%IncludeResource: ProcSet (FontSetInit)
%%IncludeResource: font Times-Roman
%%IncludeResource: font Times-Italic
%%IncludeResource: font Times-Bold
%%IncludeResource: font Times-BoldItalic
%%IncludeResource: font Helvetica
%%IncludeResource: font Helvetica-Oblique
%%IncludeResource: font Helvetica-Bold
%%IncludeResource: font Helvetica-BoldOblique
%%IncludeResource: font Courier
%%IncludeResource: font Courier-Oblique
%%IncludeResource: font Courier-Bold
%%IncludeResource: font Courier-BoldOblique
%%IncludeResource: font Symbol
%%IncludeResource: font ZapfDingbats
/reEncode {exch findfont dup length dict begin {1 index /FID eq  {pop pop} {def} ifelse } forall /Encoding exch def currentdict end dup /FontName get exch definefont pop } def [/Times-Bold /Times-Italic /Times-BoldItalic /Helvetica /Helvetica-Oblique
 /Helvetica-Bold /Helvetica-BoldOblique /Courier /Courier-Oblique /Courier-Bold /Courier-BoldOblique /Times-Roman /AvantGarde-Book /AvantGarde-BookOblique /AvantGarde-Demi /AvantGarde-DemiOblique /Bookman-Demi /Bookman-DemiItalic /Bookman-Light
 /Bookman-LightItalic /Helvetica-Narrow /Helvetica-Narrow-Bold /Helvetica-Narrow-BoldOblique /Helvetica-Narrow-Oblique /NewCenturySchlbk-Roman /NewCenturySchlbk-Bold /NewCenturySchlbk-BoldItalic /NewCenturySchlbk-Italic /Palatino-Bold
 /Palatino-BoldItalic /Palatino-Italic /Palatino-Roman ] {ISOLatin1Encoding reEncode } forall
%%EndProlog
%%BeginSetup
%%EndSetup
newpath  gsave  .25 .25 scale  gsave  0 0 t black[  ] 0 sd 3 lw 1 1 1 c 2268 1415 0 0 bf black 1 1 1 c 1565 1132 408 142 bf black 1565 1132 408 142 bl 1 1 1 c 1565 1132 408 142 bf black 1565 1132 408 142 bl 1 1 1 c 0.0941176 0.145098 0.384314 c 98 70
 408 142 bf 0.105882 0.443137 0.603922 c 98 70 506 142 bf 0.0509804 0 0.231373 c 98 70 604 142 bf 0.0718137 0.0335784 0.320588 c 97 70 702 142 bf 98 70 799 142 bf 0.0446078 0 0.204289 c 98 70 897 142 bf 0.0718137 0.0335784 0.320588 c 98 70 995 142 bf
 0.0446078 0 0.204289 c 98 70 1093 142 bf 0.0509804 0 0.231373 c 97 70 1191 142 bf 0.0718137 0.0335784 0.320588 c 98 70 1288 142 bf 98 70 1386 142 bf 0.107353 0.769485 0.807721 c 98 70 1484 142 bf 0.102941 0.512255 0.648039 c 98 70 1582 142 bf
 0.118627 0.258456 0.479289 c 97 70 1680 142 bf 0.107353 0.769485 0.807721 c 98 70 1777 142 bf 0.113235 0.859191 0.862132 c 98 70 1875 142 bf 0.0829657 0.0893382 0.352451 c 98 71 408 212 bf 0.102941 0.512255 0.648039 c 98 71 506 212 bf 0.0509804 0
 0.231373 c 98 71 604 212 bf 0.0718137 0.0335784 0.320588 c 97 71 702 212 bf 98 71 799 212 bf 0.0446078 0 0.204289 c 98 71 897 212 bf 0.0718137 0.0335784 0.320588 c 98 71 995 212 bf 0.0509804 0 0.231373 c 98 71 1093 212 bf 0.0446078 0 0.204289 c 97
 71 1191 212 bf 0.0718137 0.0335784 0.320588 c 98 71 1288 212 bf 98 71 1386 212 bf 0.10098 0.672304 0.748775 c 98 71 1484 212 bf 0.105882 0.443137 0.603922 c 98 71 1582 212 bf 0.118627 0.258456 0.479289 c 97 71 1680 212 bf 0.113235 0.859191 0.862132
 c 98 71 1777 212 bf 0.107353 0.769485 0.807721 c 98 71 1875 212 bf 0.106863 0.204044 0.433701 c 98 71 408 283 bf 98 71 506 283 bf 0.0637255 0.00637255 0.291912 c 98 71 604 283 bf 97 71 702 283 bf 0.0829657 0.0893382 0.352451 c 98 71 799 283 bf
 0.0573529 0.00318627 0.261642 c 98 71 897 283 bf 0.0718137 0.0335784 0.320588 c 98 71 995 283 bf 0.0637255 0.00637255 0.291912 c 98 71 1093 283 bf 0.0573529 0.00318627 0.261642 c 97 71 1191 283 bf 0.0718137 0.0335784 0.320588 c 98 71 1288 283 bf 98
 71 1386 283 bf 0.118627 0.258456 0.479289 c 98 71 1484 283 bf 98 71 1582 283 bf 0.113235 0.859191 0.862132 c 97 71 1680 283 bf 0.118627 0.258456 0.479289 c 98 71 1777 283 bf 98 71 1875 283 bf 0.106863 0.204044 0.433701 c 98 71 408 354 bf 0.113848
 0.381005 0.564093 c 98 71 506 354 bf 0.0573529 0.00318627 0.261642 c 98 71 604 354 bf 0.0718137 0.0335784 0.320588 c 97 71 702 354 bf 0.106863 0.204044 0.433701 c 98 71 799 354 bf 0.0509804 0 0.231373 c 98 71 897 354 bf 0.0718137 0.0335784 0.320588
 c 98 71 995 354 bf 0.0509804 0 0.231373 c 98 71 1093 354 bf 0.0573529 0.00318627 0.261642 c 97 71 1191 354 bf 0.0718137 0.0335784 0.320588 c 98 71 1288 354 bf 0.0829657 0.0893382 0.352451 c 98 71 1386 354 bf 0.0997549 0.587132 0.695833 c 98 71 1484
 354 bf 0.113235 0.859191 0.862132 c 98 71 1582 354 bf 0.118627 0.258456 0.479289 c 97 71 1680 354 bf 0.105882 0.443137 0.603922 c 98 71 1777 354 bf 0.102941 0.512255 0.648039 c 98 71 1875 354 bf 0.0829657 0.0893382 0.352451 c 98 70 408 425 bf
 0.105882 0.443137 0.603922 c 98 70 506 425 bf 0.0446078 0 0.204289 c 98 70 604 425 bf 0.0718137 0.0335784 0.320588 c 97 70 702 425 bf 0.0941176 0.145098 0.384314 c 98 70 799 425 bf 0.0446078 0 0.204289 c 98 70 897 425 bf 0.0718137 0.0335784 0.320588
 c 98 70 995 425 bf 0.0509804 0 0.231373 c 98 70 1093 425 bf 97 70 1191 425 bf 0.0718137 0.0335784 0.320588 c 98 70 1288 425 bf 98 70 1386 425 bf 0.113235 0.859191 0.862132 c 98 70 1484 425 bf 0.0997549 0.587132 0.695833 c 98 70 1582 425 bf 0.118627
 0.258456 0.479289 c 97 70 1680 425 bf 0.10098 0.672304 0.748775 c 98 70 1777 425 bf 0.107353 0.769485 0.807721 c 98 70 1875 425 bf 0.0637255 0.00637255 0.291912 c 98 71 408 495 bf 0.0718137 0.0335784 0.320588 c 98 71 506 495 bf 0.0829657 0.0893382
 0.352451 c 98 71 604 495 bf 0.0718137 0.0335784 0.320588 c 97 71 702 495 bf 0.121814 0.318873 0.524265 c 98 71 799 495 bf 0.0718137 0.0335784 0.320588 c 98 71 897 495 bf 0.0387255 0 0.179289 c 98 71 995 495 bf 0.0718137 0.0335784 0.320588 c 98 71
 1093 495 bf 0.0637255 0.00637255 0.291912 c 97 71 1191 495 bf 0.0829657 0.0893382 0.352451 c 98 71 1288 495 bf 0.113235 0.859191 0.862132 c 98 71 1386 495 bf 0.0718137 0.0335784 0.320588 c 98 71 1484 495 bf 0.0829657 0.0893382 0.352451 c 98 71 1582
 495 bf 0.0718137 0.0335784 0.320588 c 97 71 1680 495 bf 98 71 1777 495 bf 98 71 1875 495 bf 0.0829657 0.0893382 0.352451 c 98 71 408 566 bf 0.0718137 0.0335784 0.320588 c 98 71 506 566 bf 98 71 604 566 bf 0.0136622 0 0.131056 c 97 71 702 566 bf
 0.0829657 0.0893382 0.352451 c 98 71 799 566 bf 0.0718137 0.0335784 0.320588 c 98 71 897 566 bf 98 71 995 566 bf 98 71 1093 566 bf 0.0829657 0.0893382 0.352451 c 97 71 1191 566 bf 0.113235 0.859191 0.862132 c 98 71 1288 566 bf 0.0829657 0.0893382
 0.352451 c 98 71 1386 566 bf 0.0718137 0.0335784 0.320588 c 98 71 1484 566 bf 98 71 1582 566 bf 97 71 1680 566 bf 98 71 1777 566 bf 98 71 1875 566 bf 0.0573529 0.00318627 0.261642 c 98 71 408 637 bf 98 71 506 637 bf 0.0941176 0.145098 0.384314 c 98
 71 604 637 bf 0.0718137 0.0335784 0.320588 c 97 71 702 637 bf 0.0941176 0.145098 0.384314 c 98 71 799 637 bf 0.106863 0.204044 0.433701 c 98 71 897 637 bf 0.0829657 0.0893382 0.352451 c 98 71 995 637 bf 0.0718137 0.0335784 0.320588 c 98 71 1093 637
 bf 0.113235 0.859191 0.862132 c 97 71 1191 637 bf 0.0829657 0.0893382 0.352451 c 98 71 1288 637 bf 0.0637255 0.00637255 0.291912 c 98 71 1386 637 bf 0.0509804 0 0.231373 c 98 71 1484 637 bf 0.0573529 0.00318627 0.261642 c 98 71 1582 637 bf 97 71
 1680 637 bf 0.0446078 0 0.204289 c 98 71 1777 637 bf 0.0509804 0 0.231373 c 98 71 1875 637 bf 0.0637255 0.00637255 0.291912 c 98 70 408 708 bf 0.0573529 0.00318627 0.261642 c 98 70 506 708 bf 0.0718137 0.0335784 0.320588 c 98 70 604 708 bf 97 70 702
 708 bf 98 70 799 708 bf 0.0573529 0.00318627 0.261642 c 98 70 897 708 bf 0.0718137 0.0335784 0.320588 c 98 70 995 708 bf 0.113235 0.859191 0.862132 c 98 70 1093 708 bf 0.0718137 0.0335784 0.320588 c 97 70 1191 708 bf 98 70 1288 708 bf 98 70 1386 708
 bf 0.0509804 0 0.231373 c 98 70 1484 708 bf 98 70 1582 708 bf 0.0637255 0.00637255 0.291912 c 97 70 1680 708 bf 0.0509804 0 0.231373 c 98 70 1777 708 bf 0.0446078 0 0.204289 c 98 70 1875 708 bf 0.0718137 0.0335784 0.320588 c 98 71 408 778 bf 98 71
 506 778 bf 98 71 604 778 bf 97 71 702 778 bf 98 71 799 778 bf 98 71 897 778 bf 0.113235 0.859191 0.862132 c 98 71 995 778 bf 0.0718137 0.0335784 0.320588 c 98 71 1093 778 bf 0.0829657 0.0893382 0.352451 c 97 71 1191 778 bf 0.0718137 0.0335784
 0.320588 c 98 71 1288 778 bf 0.0387255 0 0.179289 c 98 71 1386 778 bf 0.0718137 0.0335784 0.320588 c 98 71 1484 778 bf 98 71 1582 778 bf 97 71 1680 778 bf 98 71 1777 778 bf 98 71 1875 778 bf 98 71 408 849 bf 0.0509804 0 0.231373 c 98 71 506 849 bf
 0.0718137 0.0335784 0.320588 c 98 71 604 849 bf 97 71 702 849 bf 98 71 799 849 bf 0.113235 0.859191 0.862132 c 98 71 897 849 bf 0.0718137 0.0335784 0.320588 c 98 71 995 849 bf 0.0573529 0.00318627 0.261642 c 98 71 1093 849 bf 0.106863 0.204044
 0.433701 c 97 71 1191 849 bf 0.0718137 0.0335784 0.320588 c 98 71 1288 849 bf 98 71 1386 849 bf 0.0446078 0 0.204289 c 98 71 1484 849 bf 0.0509804 0 0.231373 c 98 71 1582 849 bf 0.0573529 0.00318627 0.261642 c 97 71 1680 849 bf 0.0446078 0 0.204289
 c 98 71 1777 849 bf 98 71 1875 849 bf 0.0637255 0.00637255 0.291912 c 98 71 408 920 bf 0.0718137 0.0335784 0.320588 c 98 71 506 920 bf 0.0637255 0.00637255 0.291912 c 98 71 604 920 bf 97 71 702 920 bf 0.113235 0.859191 0.862132 c 98 71 799 920 bf
 0.0718137 0.0335784 0.320588 c 98 71 897 920 bf 98 71 995 920 bf 98 71 1093 920 bf 0.0941176 0.145098 0.384314 c 97 71 1191 920 bf 0.0829657 0.0893382 0.352451 c 98 71 1288 920 bf 0.121814 0.318873 0.524265 c 98 71 1386 920 bf 0.0941176 0.145098
 0.384314 c 98 71 1484 920 bf 0.106863 0.204044 0.433701 c 98 71 1582 920 bf 0.0829657 0.0893382 0.352451 c 97 71 1680 920 bf 0.0718137 0.0335784 0.320588 c 98 71 1777 920 bf 98 71 1875 920 bf 0.0573529 0.00318627 0.261642 c 98 71 408 991 bf
 0.0718137 0.0335784 0.320588 c 98 71 506 991 bf 98 71 604 991 bf 0.113235 0.859191 0.862132 c 97 71 702 991 bf 0.0637255 0.00637255 0.291912 c 98 71 799 991 bf 0.0718137 0.0335784 0.320588 c 98 71 897 991 bf 98 71 995 991 bf 98 71 1093 991 bf 97 71
 1191 991 bf 0.0136622 0 0.131056 c 98 71 1288 991 bf 0.0718137 0.0335784 0.320588 c 98 71 1386 991 bf 98 71 1484 991 bf 98 71 1582 991 bf 0.0637255 0.00637255 0.291912 c 97 71 1680 991 bf 0.0718137 0.0335784 0.320588 c 98 71 1777 991 bf 98 71 1875
 991 bf 0.028463 0 0.15408 c 98 70 408 1062 bf 0.0941176 0.145098 0.384314 c 98 70 506 1062 bf 0.113235 0.859191 0.862132 c 98 70 604 1062 bf 0.0718137 0.0335784 0.320588 c 97 70 702 1062 bf 0.0637255 0.00637255 0.291912 c 98 70 799 1062 bf 0.0718137
 0.0335784 0.320588 c 98 70 897 1062 bf 98 70 995 1062 bf 98 70 1093 1062 bf 0.0941176 0.145098 0.384314 c 97 70 1191 1062 bf 0.0718137 0.0335784 0.320588 c 98 70 1288 1062 bf 0.0829657 0.0893382 0.352451 c 98 70 1386 1062 bf 0.0446078 0 0.204289 c
 98 70 1484 1062 bf 0.0573529 0.00318627 0.261642 c 98 70 1582 1062 bf 0.0637255 0.00637255 0.291912 c 97 70 1680 1062 bf 0.0509804 0 0.231373 c 98 70 1777 1062 bf 98 70 1875 1062 bf 0.0718137 0.0335784 0.320588 c 98 71 408 1132 bf 0.113235 0.859191
 0.862132 c 98 71 506 1132 bf 0.0941176 0.145098 0.384314 c 98 71 604 1132 bf 0.0718137 0.0335784 0.320588 c 97 71 702 1132 bf 98 71 799 1132 bf 0.0509804 0 0.231373 c 98 71 897 1132 bf 0.0718137 0.0335784 0.320588 c 98 71 995 1132 bf 0.0573529
 0.00318627 0.261642 c 98 71 1093 1132 bf 97 71 1191 1132 bf 0.0718137 0.0335784 0.320588 c 98 71 1288 1132 bf 98 71 1386 1132 bf 0.105882 0.443137 0.603922 c 98 71 1484 1132 bf 0.113848 0.381005 0.564093 c 98 71 1582 1132 bf 0.106863 0.204044
 0.433701 c 97 71 1680 1132 bf 0.102941 0.512255 0.648039 c 98 71 1777 1132 bf 0.105882 0.443137 0.603922 c 98 71 1875 1132 bf 0.113235 0.859191 0.862132 c 98 71 408 1203 bf 0.0718137 0.0335784 0.320588 c 98 71 506 1203 bf 0.028463 0 0.15408 c 98 71
 604 1203 bf 0.0573529 0.00318627 0.261642 c 97 71 702 1203 bf 0.0637255 0.00637255 0.291912 c 98 71 799 1203 bf 0.0718137 0.0335784 0.320588 c 98 71 897 1203 bf 98 71 995 1203 bf 0.0637255 0.00637255 0.291912 c 98 71 1093 1203 bf 0.0573529
 0.00318627 0.261642 c 97 71 1191 1203 bf 0.0829657 0.0893382 0.352451 c 98 71 1288 1203 bf 0.0637255 0.00637255 0.291912 c 98 71 1386 1203 bf 0.0829657 0.0893382 0.352451 c 98 71 1484 1203 bf 0.106863 0.204044 0.433701 c 98 71 1582 1203 bf 97 71
 1680 1203 bf 0.0829657 0.0893382 0.352451 c 98 71 1777 1203 bf 0.0941176 0.145098 0.384314 c 98 71 1875 1203 bf 0.0136622 0 0.131056 c 102 56 1984 142 bf 0.028463 0 0.15408 c 102 57 1984 198 bf 0.0387255 0 0.179289 c 102 56 1984 255 bf 0.0446078 0
 0.204289 c 102 57 1984 311 bf 0.0509804 0 0.231373 c 102 57 1984 368 bf 0.0573529 0.00318627 0.261642 c 102 56 1984 425 bf 0.0637255 0.00637255 0.291912 c 102 57 1984 481 bf 0.0718137 0.0335784 0.320588 c 102 56 1984 538 bf 0.0829657 0.0893382
 0.352451 c 102 57 1984 594 bf 0.0941176 0.145098 0.384314 c 102 57 1984 651 bf 0.106863 0.204044 0.433701 c 102 56 1984 708 bf 0.118627 0.258456 0.479289 c 102 57 1984 764 bf 0.121814 0.318873 0.524265 c 102 57 1984 821 bf 0.113848 0.381005 0.564093
 c 102 56 1984 878 bf 0.105882 0.443137 0.603922 c 102 57 1984 934 bf 0.102941 0.512255 0.648039 c 102 56 1984 991 bf 0.0997549 0.587132 0.695833 c 102 57 1984 1047 bf 0.10098 0.672304 0.748775 c 102 57 1984 1104 bf 0.107353 0.769485 0.807721 c 102
 56 1984 1161 bf 0.113235 0.859191 0.862132 c 102 57 1984 1217 bf black 2086 142 m 1132 Y s 2032 270 m 54 X s 2032 413 m 54 X s 2032 557 m 54 X s 2032 700 m 54 X s 2032 844 m 54 X s 2032 987 m 54 X s 2032 1130 m 54 X s 2032 1274 m 54 X s 2032 270 m
 54 X s
 gsave  2268 1415 0 0 C 2119.33 251.123 t 0 r /Helvetica findfont 45.6587 sf 0 0 m (0.4) show NC gr 
 gsave  2268 1415 0 0 C 2096.5 251.123 t 0 r /Symbol findfont 45.6587 sf 0 0 m (-) show NC gr 
 gsave  2268 1415 0 0 C 2119.33 395.709 t 0 r /Helvetica findfont 45.6587 sf 0 0 m (0.2) show NC gr 
 gsave  2268 1415 0 0 C 2096.5 395.709 t 0 r /Symbol findfont 45.6587 sf 0 0 m (-) show NC gr 
 gsave  2268 1415 0 0 C 2096.5 540.295 t 0 r /Helvetica findfont 45.6587 sf 0 0 m (0) show NC gr 
 gsave  2268 1415 0 0 C 2096.5 684.881 t 0 r /Helvetica findfont 45.6587 sf 0 0 m (0.2) show NC gr 
 gsave  2268 1415 0 0 C 2096.5 825.662 t 0 r /Helvetica findfont 45.6587 sf 0 0 m (0.4) show NC gr 
 gsave  2268 1415 0 0 C 2096.5 970.248 t 0 r /Helvetica findfont 45.6587 sf 0 0 m (0.6) show NC gr 
 gsave  2268 1415 0 0 C 2096.5 1114.83 t 0 r /Helvetica findfont 45.6587 sf 0 0 m (0.8) show NC gr 
 gsave  2268 1415 0 0 C 2096.5 1255.61 t 0 r /Helvetica findfont 45.6587 sf 0 0 m (1) show NC gr  1 1 1 c black 408 142 m 1565 X s
 gsave  2268 1415 0 0 C 464.197 -140.781 t 90 r /Helvetica findfont 22.8294 sf 0 0 m (alpha_JET_EffectiveNP_2) show NC gr 
 gsave  2268 1415 0 0 C 559.319 -201.659 t 90 r /Helvetica findfont 22.8294 sf 0 0 m (alpha_JET_Flavor_Composition) show NC gr 
 gsave  2268 1415 0 0 C 658.247 -175.025 t 90 r /Helvetica findfont 22.8294 sf 0 0 m (alpha_JET_Flavor_Response) show NC gr 
 gsave  2268 1415 0 0 C 757.174 -216.879 t 90 r /Helvetica findfont 22.8294 sf 0 0 m (alpha_JET_SingleParticle_HighPt) show NC gr 
 gsave  2268 1415 0 0 C 852.296 -76.0979 t 90 r /Helvetica findfont 22.8294 sf 0 0 m (alpha_TheoWScale) show NC gr 
 gsave  2268 1415 0 0 C 951.223 -68.4881 t 90 r /Helvetica findfont 22.8294 sf 0 0 m (alpha_TheoZScale) show NC gr 
 gsave  2268 1415 0 0 C 1050.15 -273.952 t 90 r /Helvetica findfont 22.8294 sf 0 0 m (gamma_stat_CRT_2_1000_cuts_bin_0) show NC gr 
 gsave  2268 1415 0 0 C 1149.08 -273.952 t 90 r /Helvetica findfont 22.8294 sf 0 0 m (gamma_stat_CRY_4_1600_cuts_bin_0) show NC gr 
 gsave  2268 1415 0 0 C 1244.2 -91.3174 t 90 r /Helvetica findfont 22.8294 sf 0 0 m (mu_Multijets_2_1000) show NC gr 
 gsave  2268 1415 0 0 C 1343.13 -91.3174 t 90 r /Helvetica findfont 22.8294 sf 0 0 m (mu_Multijets_2_4000) show NC gr 
 gsave  2268 1415 0 0 C 1442.05 -49.4636 t 90 r /Helvetica findfont 22.8294 sf 0 0 m (mu_Top_2_1000) show NC gr 
 gsave  2268 1415 0 0 C 1537.18 -49.4636 t 90 r /Helvetica findfont 22.8294 sf 0 0 m (mu_Top_4_1000) show NC gr 
 gsave  2268 1415 0 0 C 1636.1 -49.4636 t 90 r /Helvetica findfont 22.8294 sf 0 0 m (mu_Top_4_1600) show NC gr 
 gsave  2268 1415 0 0 C 1735.03 -49.4636 t 90 r /Helvetica findfont 22.8294 sf 0 0 m (mu_Top_4_2200) show NC gr 
 gsave  2268 1415 0 0 C 1830.15 -3.80489 t 90 r /Helvetica findfont 22.8294 sf 0 0 m (mu_Wjets_4) show NC gr 
 gsave  2268 1415 0 0 C 1929.08 3.80489 t 90 r /Helvetica findfont 22.8294 sf 0 0 m (mu_Zjets_4) show NC gr  408 171 m -29 Y s 506 171 m -29 Y s 604 171 m -29 Y s 702 171 m -29 Y s 799 171 m -29 Y s 897 171 m -29 Y s 995 171 m -29 Y s 1093 171 m -29
 Y s 1191 171 m -29 Y s 1288 171 m -29 Y s 1386 171 m -29 Y s 1484 171 m -29 Y s 1582 171 m -29 Y s 1680 171 m -29 Y s 1777 171 m -29 Y s 1875 171 m -29 Y s 1973 171 m -29 Y s 408 142 m 1132 Y s
 gsave  2268 1415 0 0 C 262.538 171.22 t 0 r /Helvetica findfont 22.8294 sf 0 0 m (mu_Zjets_4) show NC gr 
 gsave  2268 1415 0 0 C 254.928 243.513 t 0 r /Helvetica findfont 22.8294 sf 0 0 m (mu_Wjets_4) show NC gr 
 gsave  2268 1415 0 0 C 209.269 312.001 t 0 r /Helvetica findfont 22.8294 sf 0 0 m (mu_Top_4_2200) show NC gr 
 gsave  2268 1415 0 0 C 209.269 384.294 t 0 r /Helvetica findfont 22.8294 sf 0 0 m (mu_Top_4_1600) show NC gr 
 gsave  2268 1415 0 0 C 209.269 452.782 t 0 r /Helvetica findfont 22.8294 sf 0 0 m (mu_Top_4_1000) show NC gr 
 gsave  2268 1415 0 0 C 209.269 525.075 t 0 r /Helvetica findfont 22.8294 sf 0 0 m (mu_Top_2_1000) show NC gr 
 gsave  2268 1415 0 0 C 167.415 597.368 t 0 r /Helvetica findfont 22.8294 sf 0 0 m (mu_Multijets_2_4000) show NC gr 
 gsave  2268 1415 0 0 C 167.415 665.856 t 0 r /Helvetica findfont 22.8294 sf 0 0 m (mu_Multijets_2_1000) show NC gr 
 gsave  2268 1415 0 0 C -15.2196 738.149 t 0 r /Helvetica findfont 22.8294 sf 0 0 m (gamma_stat_CRY_4_1600_cuts_bin_0) show NC gr 
 gsave  2268 1415 0 0 C -15.2196 806.637 t 0 r /Helvetica findfont 22.8294 sf 0 0 m (gamma_stat_CRT_2_1000_cuts_bin_0) show NC gr 
 gsave  2268 1415 0 0 C 190.245 878.93 t 0 r /Helvetica findfont 22.8294 sf 0 0 m (alpha_TheoZScale) show NC gr 
 gsave  2268 1415 0 0 C 182.635 951.223 t 0 r /Helvetica findfont 22.8294 sf 0 0 m (alpha_TheoWScale) show NC gr 
 gsave  2268 1415 0 0 C 41.8538 1019.71 t 0 r /Helvetica findfont 22.8294 sf 0 0 m (alpha_JET_SingleParticle_HighPt) show NC gr 
 gsave  2268 1415 0 0 C 83.7077 1092 t 0 r /Helvetica findfont 22.8294 sf 0 0 m (alpha_JET_Flavor_Response) show NC gr 
 gsave  2268 1415 0 0 C 57.0734 1160.49 t 0 r /Helvetica findfont 22.8294 sf 0 0 m (alpha_JET_Flavor_Composition) show NC gr 
 gsave  2268 1415 0 0 C 117.952 1232.79 t 0 r /Helvetica findfont 22.8294 sf 0 0 m (alpha_JET_EffectiveNP_2) show NC gr  463 142 m -55 X s 463 212 m -55 X s 463 283 m -55 X s 463 354 m -55 X s 463 425 m -55 X s 463 495 m -55 X s 463 566 m -55 X s 463
 637 m -55 X s 463 708 m -55 X s 463 778 m -55 X s 463 849 m -55 X s 463 920 m -55 X s 463 991 m -55 X s 463 1062 m -55 X s 463 1132 m -55 X s 463 1203 m -55 X s 463 1274 m -55 X s 1 1 1 c black 1 1 1 c
 gsave  2268 1415 0 0 C 448.977 175.025 t 0 r /Helvetica-Bold findfont 7.60979 sf 0 0 m (0.14) show NC gr  black 1 1 1 c
 gsave  2268 1415 0 0 C 544.1 175.025 t 0 r /Helvetica-Bold findfont 7.60979 sf 0 0 m (0.60) show NC gr  black 1 1 1 c
 gsave  2268 1415 0 0 C 639.222 175.025 t 0 r /Helvetica-Bold findfont 7.60979 sf 0 0 m (\2550.24) show NC gr  black 1 1 1 c
 gsave  2268 1415 0 0 C 741.954 175.025 t 0 r /Helvetica-Bold findfont 7.60979 sf 0 0 m (0.01) show NC gr  black 1 1 1 c
 gsave  2268 1415 0 0 C 837.077 175.025 t 0 r /Helvetica-Bold findfont 7.60979 sf 0 0 m (0.04) show NC gr  black 1 1 1 c
 gsave  2268 1415 0 0 C 932.199 175.025 t 0 r /Helvetica-Bold findfont 7.60979 sf 0 0 m (\2550.32) show NC gr  black 1 1 1 c
 gsave  2268 1415 0 0 C 1031.13 175.025 t 0 r /Helvetica-Bold findfont 7.60979 sf 0 0 m (\2550.01) show NC gr  black 1 1 1 c
 gsave  2268 1415 0 0 C 1130.05 175.025 t 0 r /Helvetica-Bold findfont 7.60979 sf 0 0 m (\2550.30) show NC gr  black 1 1 1 c
 gsave  2268 1415 0 0 C 1225.18 175.025 t 0 r /Helvetica-Bold findfont 7.60979 sf 0 0 m (\2550.25) show NC gr  black 1 1 1 c
 gsave  2268 1415 0 0 C 1327.91 175.025 t 0 r /Helvetica-Bold findfont 7.60979 sf 0 0 m (0.05) show NC gr  black 1 1 1 c
 gsave  2268 1415 0 0 C 1426.84 175.025 t 0 r /Helvetica-Bold findfont 7.60979 sf 0 0 m (0.00) show NC gr  black 1 1 1 c
 gsave  2268 1415 0 0 C 1521.96 175.025 t 0 r /Helvetica-Bold findfont 7.60979 sf 0 0 m (0.90) show NC gr  black 1 1 1 c
 gsave  2268 1415 0 0 C 1620.88 175.025 t 0 r /Helvetica-Bold findfont 7.60979 sf 0 0 m (0.68) show NC gr  black 1 1 1 c
 gsave  2268 1415 0 0 C 1719.81 175.025 t 0 r /Helvetica-Bold findfont 7.60979 sf 0 0 m (0.33) show NC gr  black 1 1 1 c
 gsave  2268 1415 0 0 C 1814.93 175.025 t 0 r /Helvetica-Bold findfont 7.60979 sf 0 0 m (0.88) show NC gr  black 1 1 1 c
 gsave  2268 1415 0 0 C 1913.86 175.025 t 0 r /Helvetica-Bold findfont 7.60979 sf 0 0 m (1.00) show NC gr  black 1 1 1 c
 gsave  2268 1415 0 0 C 448.977 247.318 t 0 r /Helvetica-Bold findfont 7.60979 sf 0 0 m (0.13) show NC gr  black 1 1 1 c
 gsave  2268 1415 0 0 C 544.1 247.318 t 0 r /Helvetica-Bold findfont 7.60979 sf 0 0 m (0.65) show NC gr  black 1 1 1 c
 gsave  2268 1415 0 0 C 639.222 247.318 t 0 r /Helvetica-Bold findfont 7.60979 sf 0 0 m (\2550.22) show NC gr  black 1 1 1 c
 gsave  2268 1415 0 0 C 741.954 247.318 t 0 r /Helvetica-Bold findfont 7.60979 sf 0 0 m (0.02) show NC gr  black 1 1 1 c
 gsave  2268 1415 0 0 C 837.077 247.318 t 0 r /Helvetica-Bold findfont 7.60979 sf 0 0 m (0.01) show NC gr  black 1 1 1 c
 gsave  2268 1415 0 0 C 932.199 247.318 t 0 r /Helvetica-Bold findfont 7.60979 sf 0 0 m (\2550.30) show NC gr  black 1 1 1 c
 gsave  2268 1415 0 0 C 1031.13 247.318 t 0 r /Helvetica-Bold findfont 7.60979 sf 0 0 m (\2550.01) show NC gr  black 1 1 1 c
 gsave  2268 1415 0 0 C 1130.05 247.318 t 0 r /Helvetica-Bold findfont 7.60979 sf 0 0 m (\2550.24) show NC gr  black 1 1 1 c
 gsave  2268 1415 0 0 C 1225.18 247.318 t 0 r /Helvetica-Bold findfont 7.60979 sf 0 0 m (\2550.31) show NC gr  black 1 1 1 c
 gsave  2268 1415 0 0 C 1324.1 247.318 t 0 r /Helvetica-Bold findfont 7.60979 sf 0 0 m (\2550.02) show NC gr  black 1 1 1 c
 gsave  2268 1415 0 0 C 1423.03 247.318 t 0 r /Helvetica-Bold findfont 7.60979 sf 0 0 m (\2550.02) show NC gr  black 1 1 1 c
 gsave  2268 1415 0 0 C 1521.96 247.318 t 0 r /Helvetica-Bold findfont 7.60979 sf 0 0 m (0.82) show NC gr  black 1 1 1 c
 gsave  2268 1415 0 0 C 1620.88 247.318 t 0 r /Helvetica-Bold findfont 7.60979 sf 0 0 m (0.59) show NC gr  black 1 1 1 c
 gsave  2268 1415 0 0 C 1719.81 247.318 t 0 r /Helvetica-Bold findfont 7.60979 sf 0 0 m (0.29) show NC gr  black 1 1 1 c
 gsave  2268 1415 0 0 C 1814.93 247.318 t 0 r /Helvetica-Bold findfont 7.60979 sf 0 0 m (1.00) show NC gr  black 1 1 1 c
 gsave  2268 1415 0 0 C 1913.86 247.318 t 0 r /Helvetica-Bold findfont 7.60979 sf 0 0 m (0.88) show NC gr  black 1 1 1 c
 gsave  2268 1415 0 0 C 448.977 315.806 t 0 r /Helvetica-Bold findfont 7.60979 sf 0 0 m (0.25) show NC gr  black 1 1 1 c
 gsave  2268 1415 0 0 C 544.1 315.806 t 0 r /Helvetica-Bold findfont 7.60979 sf 0 0 m (0.24) show NC gr  black 1 1 1 c
 gsave  2268 1415 0 0 C 639.222 315.806 t 0 r /Helvetica-Bold findfont 7.60979 sf 0 0 m (\2550.07) show NC gr  black 1 1 1 c
 gsave  2268 1415 0 0 C 738.149 315.806 t 0 r /Helvetica-Bold findfont 7.60979 sf 0 0 m (\2550.05) show NC gr  black 1 1 1 c
 gsave  2268 1415 0 0 C 837.077 315.806 t 0 r /Helvetica-Bold findfont 7.60979 sf 0 0 m (0.11) show NC gr  black 1 1 1 c
 gsave  2268 1415 0 0 C 932.199 315.806 t 0 r /Helvetica-Bold findfont 7.60979 sf 0 0 m (\2550.11) show NC gr  black 1 1 1 c
 gsave  2268 1415 0 0 C 1034.93 315.806 t 0 r /Helvetica-Bold findfont 7.60979 sf 0 0 m (0.00) show NC gr  black 1 1 1 c
 gsave  2268 1415 0 0 C 1130.05 315.806 t 0 r /Helvetica-Bold findfont 7.60979 sf 0 0 m (\2550.10) show NC gr  black 1 1 1 c
 gsave  2268 1415 0 0 C 1225.18 315.806 t 0 r /Helvetica-Bold findfont 7.60979 sf 0 0 m (\2550.13) show NC gr  black 1 1 1 c
 gsave  2268 1415 0 0 C 1327.91 315.806 t 0 r /Helvetica-Bold findfont 7.60979 sf 0 0 m (0.02) show NC gr  black 1 1 1 c
 gsave  2268 1415 0 0 C 1426.84 315.806 t 0 r /Helvetica-Bold findfont 7.60979 sf 0 0 m (0.03) show NC gr  black 1 1 1 c
 gsave  2268 1415 0 0 C 1521.96 315.806 t 0 r /Helvetica-Bold findfont 7.60979 sf 0 0 m (0.36) show NC gr  black 1 1 1 c
 gsave  2268 1415 0 0 C 1620.88 315.806 t 0 r /Helvetica-Bold findfont 7.60979 sf 0 0 m (0.36) show NC gr  black 1 1 1 c
 gsave  2268 1415 0 0 C 1719.81 315.806 t 0 r /Helvetica-Bold findfont 7.60979 sf 0 0 m (1.00) show NC gr  black 1 1 1 c
 gsave  2268 1415 0 0 C 1814.93 315.806 t 0 r /Helvetica-Bold findfont 7.60979 sf 0 0 m (0.29) show NC gr  black 1 1 1 c
 gsave  2268 1415 0 0 C 1913.86 315.806 t 0 r /Helvetica-Bold findfont 7.60979 sf 0 0 m (0.33) show NC gr  black 1 1 1 c
 gsave  2268 1415 0 0 C 448.977 388.099 t 0 r /Helvetica-Bold findfont 7.60979 sf 0 0 m (0.21) show NC gr  black 1 1 1 c
 gsave  2268 1415 0 0 C 544.1 388.099 t 0 r /Helvetica-Bold findfont 7.60979 sf 0 0 m (0.47) show NC gr  black 1 1 1 c
 gsave  2268 1415 0 0 C 639.222 388.099 t 0 r /Helvetica-Bold findfont 7.60979 sf 0 0 m (\2550.11) show NC gr  black 1 1 1 c
 gsave  2268 1415 0 0 C 738.149 388.099 t 0 r /Helvetica-Bold findfont 7.60979 sf 0 0 m (\2550.01) show NC gr  black 1 1 1 c
 gsave  2268 1415 0 0 C 837.077 388.099 t 0 r /Helvetica-Bold findfont 7.60979 sf 0 0 m (0.21) show NC gr  black 1 1 1 c
 gsave  2268 1415 0 0 C 932.199 388.099 t 0 r /Helvetica-Bold findfont 7.60979 sf 0 0 m (\2550.23) show NC gr  black 1 1 1 c
 gsave  2268 1415 0 0 C 1031.13 388.099 t 0 r /Helvetica-Bold findfont 7.60979 sf 0 0 m (\2550.00) show NC gr  black 1 1 1 c
 gsave  2268 1415 0 0 C 1130.05 388.099 t 0 r /Helvetica-Bold findfont 7.60979 sf 0 0 m (\2550.19) show NC gr  black 1 1 1 c
 gsave  2268 1415 0 0 C 1225.18 388.099 t 0 r /Helvetica-Bold findfont 7.60979 sf 0 0 m (\2550.16) show NC gr  black 1 1 1 c
 gsave  2268 1415 0 0 C 1327.91 388.099 t 0 r /Helvetica-Bold findfont 7.60979 sf 0 0 m (0.05) show NC gr  black 1 1 1 c
 gsave  2268 1415 0 0 C 1426.84 388.099 t 0 r /Helvetica-Bold findfont 7.60979 sf 0 0 m (0.07) show NC gr  black 1 1 1 c
 gsave  2268 1415 0 0 C 1521.96 388.099 t 0 r /Helvetica-Bold findfont 7.60979 sf 0 0 m (0.73) show NC gr  black 1 1 1 c
 gsave  2268 1415 0 0 C 1620.88 388.099 t 0 r /Helvetica-Bold findfont 7.60979 sf 0 0 m (1.00) show NC gr  black 1 1 1 c
 gsave  2268 1415 0 0 C 1719.81 388.099 t 0 r /Helvetica-Bold findfont 7.60979 sf 0 0 m (0.36) show NC gr  black 1 1 1 c
 gsave  2268 1415 0 0 C 1814.93 388.099 t 0 r /Helvetica-Bold findfont 7.60979 sf 0 0 m (0.59) show NC gr  black 1 1 1 c
 gsave  2268 1415 0 0 C 1913.86 388.099 t 0 r /Helvetica-Bold findfont 7.60979 sf 0 0 m (0.68) show NC gr  black 1 1 1 c
 gsave  2268 1415 0 0 C 448.977 456.587 t 0 r /Helvetica-Bold findfont 7.60979 sf 0 0 m (0.10) show NC gr  black 1 1 1 c
 gsave  2268 1415 0 0 C 544.1 456.587 t 0 r /Helvetica-Bold findfont 7.60979 sf 0 0 m (0.55) show NC gr  black 1 1 1 c
 gsave  2268 1415 0 0 C 639.222 456.587 t 0 r /Helvetica-Bold findfont 7.60979 sf 0 0 m (\2550.28) show NC gr  black 1 1 1 c
 gsave  2268 1415 0 0 C 741.954 456.587 t 0 r /Helvetica-Bold findfont 7.60979 sf 0 0 m (0.02) show NC gr  black 1 1 1 c
 gsave  2268 1415 0 0 C 837.077 456.587 t 0 r /Helvetica-Bold findfont 7.60979 sf 0 0 m (0.19) show NC gr  black 1 1 1 c
 gsave  2268 1415 0 0 C 932.199 456.587 t 0 r /Helvetica-Bold findfont 7.60979 sf 0 0 m (\2550.30) show NC gr  black 1 1 1 c
 gsave  2268 1415 0 0 C 1031.13 456.587 t 0 r /Helvetica-Bold findfont 7.60979 sf 0 0 m (\2550.01) show NC gr  black 1 1 1 c
 gsave  2268 1415 0 0 C 1130.05 456.587 t 0 r /Helvetica-Bold findfont 7.60979 sf 0 0 m (\2550.23) show NC gr  black 1 1 1 c
 gsave  2268 1415 0 0 C 1225.18 456.587 t 0 r /Helvetica-Bold findfont 7.60979 sf 0 0 m (\2550.22) show NC gr  black 1 1 1 c
 gsave  2268 1415 0 0 C 1327.91 456.587 t 0 r /Helvetica-Bold findfont 7.60979 sf 0 0 m (0.03) show NC gr  black 1 1 1 c
 gsave  2268 1415 0 0 C 1426.84 456.587 t 0 r /Helvetica-Bold findfont 7.60979 sf 0 0 m (0.05) show NC gr  black 1 1 1 c
 gsave  2268 1415 0 0 C 1521.96 456.587 t 0 r /Helvetica-Bold findfont 7.60979 sf 0 0 m (1.00) show NC gr  black 1 1 1 c
 gsave  2268 1415 0 0 C 1620.88 456.587 t 0 r /Helvetica-Bold findfont 7.60979 sf 0 0 m (0.73) show NC gr  black 1 1 1 c
 gsave  2268 1415 0 0 C 1719.81 456.587 t 0 r /Helvetica-Bold findfont 7.60979 sf 0 0 m (0.36) show NC gr  black 1 1 1 c
 gsave  2268 1415 0 0 C 1814.93 456.587 t 0 r /Helvetica-Bold findfont 7.60979 sf 0 0 m (0.82) show NC gr  black 1 1 1 c
 gsave  2268 1415 0 0 C 1913.86 456.587 t 0 r /Helvetica-Bold findfont 7.60979 sf 0 0 m (0.90) show NC gr  black 1 1 1 c
 gsave  2268 1415 0 0 C 445.173 528.88 t 0 r /Helvetica-Bold findfont 7.60979 sf 0 0 m (\2550.09) show NC gr  black 1 1 1 c
 gsave  2268 1415 0 0 C 540.295 528.88 t 0 r /Helvetica-Bold findfont 7.60979 sf 0 0 m (\2550.00) show NC gr  black 1 1 1 c
 gsave  2268 1415 0 0 C 643.027 528.88 t 0 r /Helvetica-Bold findfont 7.60979 sf 0 0 m (0.09) show NC gr  black 1 1 1 c
 gsave  2268 1415 0 0 C 738.149 528.88 t 0 r /Helvetica-Bold findfont 7.60979 sf 0 0 m (\2550.00) show NC gr  black 1 1 1 c
 gsave  2268 1415 0 0 C 837.077 528.88 t 0 r /Helvetica-Bold findfont 7.60979 sf 0 0 m (0.40) show NC gr  black 1 1 1 c
 gsave  2268 1415 0 0 C 936.004 528.88 t 0 r /Helvetica-Bold findfont 7.60979 sf 0 0 m (0.00) show NC gr  black 1 1 1 c
 gsave  2268 1415 0 0 C 1031.13 528.88 t 0 r /Helvetica-Bold findfont 7.60979 sf 0 0 m (\2550.40) show NC gr  black 1 1 1 c
 gsave  2268 1415 0 0 C 1130.05 528.88 t 0 r /Helvetica-Bold findfont 7.60979 sf 0 0 m (\2550.01) show NC gr  black 1 1 1 c
 gsave  2268 1415 0 0 C 1225.18 528.88 t 0 r /Helvetica-Bold findfont 7.60979 sf 0 0 m (\2550.03) show NC gr  black 1 1 1 c
 gsave  2268 1415 0 0 C 1327.91 528.88 t 0 r /Helvetica-Bold findfont 7.60979 sf 0 0 m (0.05) show NC gr  black 1 1 1 c
 gsave  2268 1415 0 0 C 1426.84 528.88 t 0 r /Helvetica-Bold findfont 7.60979 sf 0 0 m (1.00) show NC gr  black 1 1 1 c
 gsave  2268 1415 0 0 C 1521.96 528.88 t 0 r /Helvetica-Bold findfont 7.60979 sf 0 0 m (0.05) show NC gr  black 1 1 1 c
 gsave  2268 1415 0 0 C 1620.88 528.88 t 0 r /Helvetica-Bold findfont 7.60979 sf 0 0 m (0.07) show NC gr  black 1 1 1 c
 gsave  2268 1415 0 0 C 1719.81 528.88 t 0 r /Helvetica-Bold findfont 7.60979 sf 0 0 m (0.03) show NC gr  black 1 1 1 c
 gsave  2268 1415 0 0 C 1811.13 528.88 t 0 r /Helvetica-Bold findfont 7.60979 sf 0 0 m (\2550.02) show NC gr  black 1 1 1 c
 gsave  2268 1415 0 0 C 1913.86 528.88 t 0 r /Helvetica-Bold findfont 7.60979 sf 0 0 m (0.00) show NC gr  black 1 1 1 c
 gsave  2268 1415 0 0 C 448.977 601.173 t 0 r /Helvetica-Bold findfont 7.60979 sf 0 0 m (0.06) show NC gr  black 1 1 1 c
 gsave  2268 1415 0 0 C 544.1 601.173 t 0 r /Helvetica-Bold findfont 7.60979 sf 0 0 m (0.00) show NC gr  black 1 1 1 c
 gsave  2268 1415 0 0 C 643.027 601.173 t 0 r /Helvetica-Bold findfont 7.60979 sf 0 0 m (0.01) show NC gr  black 1 1 1 c
 gsave  2268 1415 0 0 C 738.149 601.173 t 0 r /Helvetica-Bold findfont 7.60979 sf 0 0 m (\2550.58) show NC gr  black 1 1 1 c
 gsave  2268 1415 0 0 C 837.077 601.173 t 0 r /Helvetica-Bold findfont 7.60979 sf 0 0 m (0.07) show NC gr  black 1 1 1 c
 gsave  2268 1415 0 0 C 936.004 601.173 t 0 r /Helvetica-Bold findfont 7.60979 sf 0 0 m (0.04) show NC gr  black 1 1 1 c
 gsave  2268 1415 0 0 C 1034.93 601.173 t 0 r /Helvetica-Bold findfont 7.60979 sf 0 0 m (0.00) show NC gr  black 1 1 1 c
 gsave  2268 1415 0 0 C 1130.05 601.173 t 0 r /Helvetica-Bold findfont 7.60979 sf 0 0 m (\2550.01) show NC gr  black 1 1 1 c
 gsave  2268 1415 0 0 C 1228.98 601.173 t 0 r /Helvetica-Bold findfont 7.60979 sf 0 0 m (0.12) show NC gr  black 1 1 1 c
 gsave  2268 1415 0 0 C 1327.91 601.173 t 0 r /Helvetica-Bold findfont 7.60979 sf 0 0 m (1.00) show NC gr  black 1 1 1 c
 gsave  2268 1415 0 0 C 1426.84 601.173 t 0 r /Helvetica-Bold findfont 7.60979 sf 0 0 m (0.05) show NC gr  black 1 1 1 c
 gsave  2268 1415 0 0 C 1521.96 601.173 t 0 r /Helvetica-Bold findfont 7.60979 sf 0 0 m (0.03) show NC gr  black 1 1 1 c
 gsave  2268 1415 0 0 C 1620.88 601.173 t 0 r /Helvetica-Bold findfont 7.60979 sf 0 0 m (0.05) show NC gr  black 1 1 1 c
 gsave  2268 1415 0 0 C 1719.81 601.173 t 0 r /Helvetica-Bold findfont 7.60979 sf 0 0 m (0.02) show NC gr  black 1 1 1 c
 gsave  2268 1415 0 0 C 1811.13 601.173 t 0 r /Helvetica-Bold findfont 7.60979 sf 0 0 m (\2550.02) show NC gr  black 1 1 1 c
 gsave  2268 1415 0 0 C 1913.86 601.173 t 0 r /Helvetica-Bold findfont 7.60979 sf 0 0 m (0.05) show NC gr  black 1 1 1 c
 gsave  2268 1415 0 0 C 445.173 669.661 t 0 r /Helvetica-Bold findfont 7.60979 sf 0 0 m (\2550.15) show NC gr  black 1 1 1 c
 gsave  2268 1415 0 0 C 540.295 669.661 t 0 r /Helvetica-Bold findfont 7.60979 sf 0 0 m (\2550.18) show NC gr  black 1 1 1 c
 gsave  2268 1415 0 0 C 643.027 669.661 t 0 r /Helvetica-Bold findfont 7.60979 sf 0 0 m (0.14) show NC gr  black 1 1 1 c
 gsave  2268 1415 0 0 C 741.954 669.661 t 0 r /Helvetica-Bold findfont 7.60979 sf 0 0 m (0.04) show NC gr  black 1 1 1 c
 gsave  2268 1415 0 0 C 837.077 669.661 t 0 r /Helvetica-Bold findfont 7.60979 sf 0 0 m (0.14) show NC gr  black 1 1 1 c
 gsave  2268 1415 0 0 C 936.004 669.661 t 0 r /Helvetica-Bold findfont 7.60979 sf 0 0 m (0.27) show NC gr  black 1 1 1 c
 gsave  2268 1415 0 0 C 1034.93 669.661 t 0 r /Helvetica-Bold findfont 7.60979 sf 0 0 m (0.07) show NC gr  black 1 1 1 c
 gsave  2268 1415 0 0 C 1133.86 669.661 t 0 r /Helvetica-Bold findfont 7.60979 sf 0 0 m (0.04) show NC gr  black 1 1 1 c
 gsave  2268 1415 0 0 C 1228.98 669.661 t 0 r /Helvetica-Bold findfont 7.60979 sf 0 0 m (1.00) show NC gr  black 1 1 1 c
 gsave  2268 1415 0 0 C 1327.91 669.661 t 0 r /Helvetica-Bold findfont 7.60979 sf 0 0 m (0.12) show NC gr  black 1 1 1 c
 gsave  2268 1415 0 0 C 1423.03 669.661 t 0 r /Helvetica-Bold findfont 7.60979 sf 0 0 m (\2550.03) show NC gr  black 1 1 1 c
 gsave  2268 1415 0 0 C 1518.15 669.661 t 0 r /Helvetica-Bold findfont 7.60979 sf 0 0 m (\2550.22) show NC gr  black 1 1 1 c
 gsave  2268 1415 0 0 C 1617.08 669.661 t 0 r /Helvetica-Bold findfont 7.60979 sf 0 0 m (\2550.16) show NC gr  black 1 1 1 c
 gsave  2268 1415 0 0 C 1716.01 669.661 t 0 r /Helvetica-Bold findfont 7.60979 sf 0 0 m (\2550.13) show NC gr  black 1 1 1 c
 gsave  2268 1415 0 0 C 1811.13 669.661 t 0 r /Helvetica-Bold findfont 7.60979 sf 0 0 m (\2550.31) show NC gr  black 1 1 1 c
 gsave  2268 1415 0 0 C 1910.06 669.661 t 0 r /Helvetica-Bold findfont 7.60979 sf 0 0 m (\2550.25) show NC gr  black 1 1 1 c
 gsave  2268 1415 0 0 C 445.173 741.954 t 0 r /Helvetica-Bold findfont 7.60979 sf 0 0 m (\2550.05) show NC gr  black 1 1 1 c
 gsave  2268 1415 0 0 C 540.295 741.954 t 0 r /Helvetica-Bold findfont 7.60979 sf 0 0 m (\2550.17) show NC gr  black 1 1 1 c
 gsave  2268 1415 0 0 C 643.027 741.954 t 0 r /Helvetica-Bold findfont 7.60979 sf 0 0 m (0.00) show NC gr  black 1 1 1 c
 gsave  2268 1415 0 0 C 741.954 741.954 t 0 r /Helvetica-Bold findfont 7.60979 sf 0 0 m (0.01) show NC gr  black 1 1 1 c
 gsave  2268 1415 0 0 C 833.272 741.954 t 0 r /Helvetica-Bold findfont 7.60979 sf 0 0 m (\2550.00) show NC gr  black 1 1 1 c
 gsave  2268 1415 0 0 C 932.199 741.954 t 0 r /Helvetica-Bold findfont 7.60979 sf 0 0 m (\2550.11) show NC gr  black 1 1 1 c
 gsave  2268 1415 0 0 C 1034.93 741.954 t 0 r /Helvetica-Bold findfont 7.60979 sf 0 0 m (0.00) show NC gr  black 1 1 1 c
 gsave  2268 1415 0 0 C 1133.86 741.954 t 0 r /Helvetica-Bold findfont 7.60979 sf 0 0 m (1.00) show NC gr  black 1 1 1 c
 gsave  2268 1415 0 0 C 1228.98 741.954 t 0 r /Helvetica-Bold findfont 7.60979 sf 0 0 m (0.04) show NC gr  black 1 1 1 c
 gsave  2268 1415 0 0 C 1324.1 741.954 t 0 r /Helvetica-Bold findfont 7.60979 sf 0 0 m (\2550.01) show NC gr  black 1 1 1 c
 gsave  2268 1415 0 0 C 1423.03 741.954 t 0 r /Helvetica-Bold findfont 7.60979 sf 0 0 m (\2550.01) show NC gr  black 1 1 1 c
 gsave  2268 1415 0 0 C 1518.15 741.954 t 0 r /Helvetica-Bold findfont 7.60979 sf 0 0 m (\2550.23) show NC gr  black 1 1 1 c
 gsave  2268 1415 0 0 C 1617.08 741.954 t 0 r /Helvetica-Bold findfont 7.60979 sf 0 0 m (\2550.19) show NC gr  black 1 1 1 c
 gsave  2268 1415 0 0 C 1716.01 741.954 t 0 r /Helvetica-Bold findfont 7.60979 sf 0 0 m (\2550.10) show NC gr  black 1 1 1 c
 gsave  2268 1415 0 0 C 1811.13 741.954 t 0 r /Helvetica-Bold findfont 7.60979 sf 0 0 m (\2550.24) show NC gr  black 1 1 1 c
 gsave  2268 1415 0 0 C 1910.06 741.954 t 0 r /Helvetica-Bold findfont 7.60979 sf 0 0 m (\2550.30) show NC gr  black 1 1 1 c
 gsave  2268 1415 0 0 C 448.977 810.442 t 0 r /Helvetica-Bold findfont 7.60979 sf 0 0 m (0.01) show NC gr  black 1 1 1 c
 gsave  2268 1415 0 0 C 540.295 810.442 t 0 r /Helvetica-Bold findfont 7.60979 sf 0 0 m (\2550.00) show NC gr  black 1 1 1 c
 gsave  2268 1415 0 0 C 643.027 810.442 t 0 r /Helvetica-Bold findfont 7.60979 sf 0 0 m (0.01) show NC gr  black 1 1 1 c
 gsave  2268 1415 0 0 C 738.149 810.442 t 0 r /Helvetica-Bold findfont 7.60979 sf 0 0 m (\2550.00) show NC gr  black 1 1 1 c
 gsave  2268 1415 0 0 C 837.077 810.442 t 0 r /Helvetica-Bold findfont 7.60979 sf 0 0 m (0.00) show NC gr  black 1 1 1 c
 gsave  2268 1415 0 0 C 936.004 810.442 t 0 r /Helvetica-Bold findfont 7.60979 sf 0 0 m (0.00) show NC gr  black 1 1 1 c
 gsave  2268 1415 0 0 C 1034.93 810.442 t 0 r /Helvetica-Bold findfont 7.60979 sf 0 0 m (1.00) show NC gr  black 1 1 1 c
 gsave  2268 1415 0 0 C 1133.86 810.442 t 0 r /Helvetica-Bold findfont 7.60979 sf 0 0 m (0.00) show NC gr  black 1 1 1 c
 gsave  2268 1415 0 0 C 1228.98 810.442 t 0 r /Helvetica-Bold findfont 7.60979 sf 0 0 m (0.07) show NC gr  black 1 1 1 c
 gsave  2268 1415 0 0 C 1327.91 810.442 t 0 r /Helvetica-Bold findfont 7.60979 sf 0 0 m (0.00) show NC gr  black 1 1 1 c
 gsave  2268 1415 0 0 C 1423.03 810.442 t 0 r /Helvetica-Bold findfont 7.60979 sf 0 0 m (\2550.40) show NC gr  black 1 1 1 c
 gsave  2268 1415 0 0 C 1518.15 810.442 t 0 r /Helvetica-Bold findfont 7.60979 sf 0 0 m (\2550.01) show NC gr  black 1 1 1 c
 gsave  2268 1415 0 0 C 1617.08 810.442 t 0 r /Helvetica-Bold findfont 7.60979 sf 0 0 m (\2550.00) show NC gr  black 1 1 1 c
 gsave  2268 1415 0 0 C 1719.81 810.442 t 0 r /Helvetica-Bold findfont 7.60979 sf 0 0 m (0.00) show NC gr  black 1 1 1 c
 gsave  2268 1415 0 0 C 1811.13 810.442 t 0 r /Helvetica-Bold findfont 7.60979 sf 0 0 m (\2550.01) show NC gr  black 1 1 1 c
 gsave  2268 1415 0 0 C 1910.06 810.442 t 0 r /Helvetica-Bold findfont 7.60979 sf 0 0 m (\2550.01) show NC gr  black 1 1 1 c
 gsave  2268 1415 0 0 C 448.977 882.735 t 0 r /Helvetica-Bold findfont 7.60979 sf 0 0 m (0.02) show NC gr  black 1 1 1 c
 gsave  2268 1415 0 0 C 540.295 882.735 t 0 r /Helvetica-Bold findfont 7.60979 sf 0 0 m (\2550.26) show NC gr  black 1 1 1 c
 gsave  2268 1415 0 0 C 639.222 882.735 t 0 r /Helvetica-Bold findfont 7.60979 sf 0 0 m (\2550.01) show NC gr  black 1 1 1 c
 gsave  2268 1415 0 0 C 741.954 882.735 t 0 r /Helvetica-Bold findfont 7.60979 sf 0 0 m (0.00) show NC gr  black 1 1 1 c
 gsave  2268 1415 0 0 C 833.272 882.735 t 0 r /Helvetica-Bold findfont 7.60979 sf 0 0 m (\2550.01) show NC gr  black 1 1 1 c
 gsave  2268 1415 0 0 C 936.004 882.735 t 0 r /Helvetica-Bold findfont 7.60979 sf 0 0 m (1.00) show NC gr  black 1 1 1 c
 gsave  2268 1415 0 0 C 1034.93 882.735 t 0 r /Helvetica-Bold findfont 7.60979 sf 0 0 m (0.00) show NC gr  black 1 1 1 c
 gsave  2268 1415 0 0 C 1130.05 882.735 t 0 r /Helvetica-Bold findfont 7.60979 sf 0 0 m (\2550.11) show NC gr  black 1 1 1 c
 gsave  2268 1415 0 0 C 1228.98 882.735 t 0 r /Helvetica-Bold findfont 7.60979 sf 0 0 m (0.27) show NC gr  black 1 1 1 c
 gsave  2268 1415 0 0 C 1327.91 882.735 t 0 r /Helvetica-Bold findfont 7.60979 sf 0 0 m (0.04) show NC gr  black 1 1 1 c
 gsave  2268 1415 0 0 C 1426.84 882.735 t 0 r /Helvetica-Bold findfont 7.60979 sf 0 0 m (0.00) show NC gr  black 1 1 1 c
 gsave  2268 1415 0 0 C 1518.15 882.735 t 0 r /Helvetica-Bold findfont 7.60979 sf 0 0 m (\2550.30) show NC gr  black 1 1 1 c
 gsave  2268 1415 0 0 C 1617.08 882.735 t 0 r /Helvetica-Bold findfont 7.60979 sf 0 0 m (\2550.23) show NC gr  black 1 1 1 c
 gsave  2268 1415 0 0 C 1716.01 882.735 t 0 r /Helvetica-Bold findfont 7.60979 sf 0 0 m (\2550.11) show NC gr  black 1 1 1 c
 gsave  2268 1415 0 0 C 1811.13 882.735 t 0 r /Helvetica-Bold findfont 7.60979 sf 0 0 m (\2550.30) show NC gr  black 1 1 1 c
 gsave  2268 1415 0 0 C 1910.06 882.735 t 0 r /Helvetica-Bold findfont 7.60979 sf 0 0 m (\2550.32) show NC gr  black 1 1 1 c
 gsave  2268 1415 0 0 C 445.173 955.028 t 0 r /Helvetica-Bold findfont 7.60979 sf 0 0 m (\2550.04) show NC gr  black 1 1 1 c
 gsave  2268 1415 0 0 C 544.1 955.028 t 0 r /Helvetica-Bold findfont 7.60979 sf 0 0 m (0.03) show NC gr  black 1 1 1 c
 gsave  2268 1415 0 0 C 639.222 955.028 t 0 r /Helvetica-Bold findfont 7.60979 sf 0 0 m (\2550.04) show NC gr  black 1 1 1 c
 gsave  2268 1415 0 0 C 738.149 955.028 t 0 r /Helvetica-Bold findfont 7.60979 sf 0 0 m (\2550.03) show NC gr  black 1 1 1 c
 gsave  2268 1415 0 0 C 837.077 955.028 t 0 r /Helvetica-Bold findfont 7.60979 sf 0 0 m (1.00) show NC gr  black 1 1 1 c
 gsave  2268 1415 0 0 C 932.199 955.028 t 0 r /Helvetica-Bold findfont 7.60979 sf 0 0 m (\2550.01) show NC gr  black 1 1 1 c
 gsave  2268 1415 0 0 C 1034.93 955.028 t 0 r /Helvetica-Bold findfont 7.60979 sf 0 0 m (0.00) show NC gr  black 1 1 1 c
 gsave  2268 1415 0 0 C 1130.05 955.028 t 0 r /Helvetica-Bold findfont 7.60979 sf 0 0 m (\2550.00) show NC gr  black 1 1 1 c
 gsave  2268 1415 0 0 C 1228.98 955.028 t 0 r /Helvetica-Bold findfont 7.60979 sf 0 0 m (0.14) show NC gr  black 1 1 1 c
 gsave  2268 1415 0 0 C 1327.91 955.028 t 0 r /Helvetica-Bold findfont 7.60979 sf 0 0 m (0.07) show NC gr  black 1 1 1 c
 gsave  2268 1415 0 0 C 1426.84 955.028 t 0 r /Helvetica-Bold findfont 7.60979 sf 0 0 m (0.40) show NC gr  black 1 1 1 c
 gsave  2268 1415 0 0 C 1521.96 955.028 t 0 r /Helvetica-Bold findfont 7.60979 sf 0 0 m (0.19) show NC gr  black 1 1 1 c
 gsave  2268 1415 0 0 C 1620.88 955.028 t 0 r /Helvetica-Bold findfont 7.60979 sf 0 0 m (0.21) show NC gr  black 1 1 1 c
 gsave  2268 1415 0 0 C 1719.81 955.028 t 0 r /Helvetica-Bold findfont 7.60979 sf 0 0 m (0.11) show NC gr  black 1 1 1 c
 gsave  2268 1415 0 0 C 1814.93 955.028 t 0 r /Helvetica-Bold findfont 7.60979 sf 0 0 m (0.01) show NC gr  black 1 1 1 c
 gsave  2268 1415 0 0 C 1913.86 955.028 t 0 r /Helvetica-Bold findfont 7.60979 sf 0 0 m (0.04) show NC gr  black 1 1 1 c
 gsave  2268 1415 0 0 C 445.173 1023.52 t 0 r /Helvetica-Bold findfont 7.60979 sf 0 0 m (\2550.14) show NC gr  black 1 1 1 c
 gsave  2268 1415 0 0 C 540.295 1023.52 t 0 r /Helvetica-Bold findfont 7.60979 sf 0 0 m (\2550.01) show NC gr  black 1 1 1 c
 gsave  2268 1415 0 0 C 643.027 1023.52 t 0 r /Helvetica-Bold findfont 7.60979 sf 0 0 m (0.03) show NC gr  black 1 1 1 c
 gsave  2268 1415 0 0 C 741.954 1023.52 t 0 r /Helvetica-Bold findfont 7.60979 sf 0 0 m (1.00) show NC gr  black 1 1 1 c
 gsave  2268 1415 0 0 C 833.272 1023.52 t 0 r /Helvetica-Bold findfont 7.60979 sf 0 0 m (\2550.03) show NC gr  black 1 1 1 c
 gsave  2268 1415 0 0 C 936.004 1023.52 t 0 r /Helvetica-Bold findfont 7.60979 sf 0 0 m (0.00) show NC gr  black 1 1 1 c
 gsave  2268 1415 0 0 C 1031.13 1023.52 t 0 r /Helvetica-Bold findfont 7.60979 sf 0 0 m (\2550.00) show NC gr  black 1 1 1 c
 gsave  2268 1415 0 0 C 1133.86 1023.52 t 0 r /Helvetica-Bold findfont 7.60979 sf 0 0 m (0.01) show NC gr  black 1 1 1 c
 gsave  2268 1415 0 0 C 1228.98 1023.52 t 0 r /Helvetica-Bold findfont 7.60979 sf 0 0 m (0.04) show NC gr  black 1 1 1 c
 gsave  2268 1415 0 0 C 1324.1 1023.52 t 0 r /Helvetica-Bold findfont 7.60979 sf 0 0 m (\2550.58) show NC gr  black 1 1 1 c
 gsave  2268 1415 0 0 C 1423.03 1023.52 t 0 r /Helvetica-Bold findfont 7.60979 sf 0 0 m (\2550.00) show NC gr  black 1 1 1 c
 gsave  2268 1415 0 0 C 1521.96 1023.52 t 0 r /Helvetica-Bold findfont 7.60979 sf 0 0 m (0.02) show NC gr  black 1 1 1 c
 gsave  2268 1415 0 0 C 1617.08 1023.52 t 0 r /Helvetica-Bold findfont 7.60979 sf 0 0 m (\2550.01) show NC gr  black 1 1 1 c
 gsave  2268 1415 0 0 C 1716.01 1023.52 t 0 r /Helvetica-Bold findfont 7.60979 sf 0 0 m (\2550.05) show NC gr  black 1 1 1 c
 gsave  2268 1415 0 0 C 1814.93 1023.52 t 0 r /Helvetica-Bold findfont 7.60979 sf 0 0 m (0.02) show NC gr  black 1 1 1 c
 gsave  2268 1415 0 0 C 1913.86 1023.52 t 0 r /Helvetica-Bold findfont 7.60979 sf 0 0 m (0.01) show NC gr  black 1 1 1 c
 gsave  2268 1415 0 0 C 445.173 1095.81 t 0 r /Helvetica-Bold findfont 7.60979 sf 0 0 m (\2550.43) show NC gr  black 1 1 1 c
 gsave  2268 1415 0 0 C 544.1 1095.81 t 0 r /Helvetica-Bold findfont 7.60979 sf 0 0 m (0.17) show NC gr  black 1 1 1 c
 gsave  2268 1415 0 0 C 643.027 1095.81 t 0 r /Helvetica-Bold findfont 7.60979 sf 0 0 m (1.00) show NC gr  black 1 1 1 c
 gsave  2268 1415 0 0 C 741.954 1095.81 t 0 r /Helvetica-Bold findfont 7.60979 sf 0 0 m (0.03) show NC gr  black 1 1 1 c
 gsave  2268 1415 0 0 C 833.272 1095.81 t 0 r /Helvetica-Bold findfont 7.60979 sf 0 0 m (\2550.04) show NC gr  black 1 1 1 c
 gsave  2268 1415 0 0 C 932.199 1095.81 t 0 r /Helvetica-Bold findfont 7.60979 sf 0 0 m (\2550.01) show NC gr  black 1 1 1 c
 gsave  2268 1415 0 0 C 1034.93 1095.81 t 0 r /Helvetica-Bold findfont 7.60979 sf 0 0 m (0.01) show NC gr  black 1 1 1 c
 gsave  2268 1415 0 0 C 1133.86 1095.81 t 0 r /Helvetica-Bold findfont 7.60979 sf 0 0 m (0.00) show NC gr  black 1 1 1 c
 gsave  2268 1415 0 0 C 1228.98 1095.81 t 0 r /Helvetica-Bold findfont 7.60979 sf 0 0 m (0.14) show NC gr  black 1 1 1 c
 gsave  2268 1415 0 0 C 1327.91 1095.81 t 0 r /Helvetica-Bold findfont 7.60979 sf 0 0 m (0.01) show NC gr  black 1 1 1 c
 gsave  2268 1415 0 0 C 1426.84 1095.81 t 0 r /Helvetica-Bold findfont 7.60979 sf 0 0 m (0.09) show NC gr  black 1 1 1 c
 gsave  2268 1415 0 0 C 1518.15 1095.81 t 0 r /Helvetica-Bold findfont 7.60979 sf 0 0 m (\2550.28) show NC gr  black 1 1 1 c
 gsave  2268 1415 0 0 C 1617.08 1095.81 t 0 r /Helvetica-Bold findfont 7.60979 sf 0 0 m (\2550.11) show NC gr  black 1 1 1 c
 gsave  2268 1415 0 0 C 1716.01 1095.81 t 0 r /Helvetica-Bold findfont 7.60979 sf 0 0 m (\2550.07) show NC gr  black 1 1 1 c
 gsave  2268 1415 0 0 C 1811.13 1095.81 t 0 r /Helvetica-Bold findfont 7.60979 sf 0 0 m (\2550.22) show NC gr  black 1 1 1 c
 gsave  2268 1415 0 0 C 1910.06 1095.81 t 0 r /Helvetica-Bold findfont 7.60979 sf 0 0 m (\2550.24) show NC gr  black 1 1 1 c
 gsave  2268 1415 0 0 C 448.977 1164.3 t 0 r /Helvetica-Bold findfont 7.60979 sf 0 0 m (0.00) show NC gr  black 1 1 1 c
 gsave  2268 1415 0 0 C 544.1 1164.3 t 0 r /Helvetica-Bold findfont 7.60979 sf 0 0 m (1.00) show NC gr  black 1 1 1 c
 gsave  2268 1415 0 0 C 643.027 1164.3 t 0 r /Helvetica-Bold findfont 7.60979 sf 0 0 m (0.17) show NC gr  black 1 1 1 c
 gsave  2268 1415 0 0 C 738.149 1164.3 t 0 r /Helvetica-Bold findfont 7.60979 sf 0 0 m (\2550.01) show NC gr  black 1 1 1 c
 gsave  2268 1415 0 0 C 837.077 1164.3 t 0 r /Helvetica-Bold findfont 7.60979 sf 0 0 m (0.03) show NC gr  black 1 1 1 c
 gsave  2268 1415 0 0 C 932.199 1164.3 t 0 r /Helvetica-Bold findfont 7.60979 sf 0 0 m (\2550.26) show NC gr  black 1 1 1 c
 gsave  2268 1415 0 0 C 1031.13 1164.3 t 0 r /Helvetica-Bold findfont 7.60979 sf 0 0 m (\2550.00) show NC gr  black 1 1 1 c
 gsave  2268 1415 0 0 C 1130.05 1164.3 t 0 r /Helvetica-Bold findfont 7.60979 sf 0 0 m (\2550.17) show NC gr  black 1 1 1 c
 gsave  2268 1415 0 0 C 1225.18 1164.3 t 0 r /Helvetica-Bold findfont 7.60979 sf 0 0 m (\2550.18) show NC gr  black 1 1 1 c
 gsave  2268 1415 0 0 C 1327.91 1164.3 t 0 r /Helvetica-Bold findfont 7.60979 sf 0 0 m (0.00) show NC gr  black 1 1 1 c
 gsave  2268 1415 0 0 C 1423.03 1164.3 t 0 r /Helvetica-Bold findfont 7.60979 sf 0 0 m (\2550.00) show NC gr  black 1 1 1 c
 gsave  2268 1415 0 0 C 1521.96 1164.3 t 0 r /Helvetica-Bold findfont 7.60979 sf 0 0 m (0.55) show NC gr  black 1 1 1 c
 gsave  2268 1415 0 0 C 1620.88 1164.3 t 0 r /Helvetica-Bold findfont 7.60979 sf 0 0 m (0.47) show NC gr  black 1 1 1 c
 gsave  2268 1415 0 0 C 1719.81 1164.3 t 0 r /Helvetica-Bold findfont 7.60979 sf 0 0 m (0.24) show NC gr  black 1 1 1 c
 gsave  2268 1415 0 0 C 1814.93 1164.3 t 0 r /Helvetica-Bold findfont 7.60979 sf 0 0 m (0.65) show NC gr  black 1 1 1 c
 gsave  2268 1415 0 0 C 1913.86 1164.3 t 0 r /Helvetica-Bold findfont 7.60979 sf 0 0 m (0.60) show NC gr  black 1 1 1 c
 gsave  2268 1415 0 0 C 448.977 1236.59 t 0 r /Helvetica-Bold findfont 7.60979 sf 0 0 m (1.00) show NC gr  black 1 1 1 c
 gsave  2268 1415 0 0 C 544.1 1236.59 t 0 r /Helvetica-Bold findfont 7.60979 sf 0 0 m (0.00) show NC gr  black 1 1 1 c
 gsave  2268 1415 0 0 C 639.222 1236.59 t 0 r /Helvetica-Bold findfont 7.60979 sf 0 0 m (\2550.43) show NC gr  black 1 1 1 c
 gsave  2268 1415 0 0 C 738.149 1236.59 t 0 r /Helvetica-Bold findfont 7.60979 sf 0 0 m (\2550.14) show NC gr  black 1 1 1 c
 gsave  2268 1415 0 0 C 833.272 1236.59 t 0 r /Helvetica-Bold findfont 7.60979 sf 0 0 m (\2550.04) show NC gr  black 1 1 1 c
 gsave  2268 1415 0 0 C 936.004 1236.59 t 0 r /Helvetica-Bold findfont 7.60979 sf 0 0 m (0.02) show NC gr  black 1 1 1 c
 gsave  2268 1415 0 0 C 1034.93 1236.59 t 0 r /Helvetica-Bold findfont 7.60979 sf 0 0 m (0.01) show NC gr  black 1 1 1 c
 gsave  2268 1415 0 0 C 1130.05 1236.59 t 0 r /Helvetica-Bold findfont 7.60979 sf 0 0 m (\2550.05) show NC gr  black 1 1 1 c
 gsave  2268 1415 0 0 C 1225.18 1236.59 t 0 r /Helvetica-Bold findfont 7.60979 sf 0 0 m (\2550.15) show NC gr  black 1 1 1 c
 gsave  2268 1415 0 0 C 1327.91 1236.59 t 0 r /Helvetica-Bold findfont 7.60979 sf 0 0 m (0.06) show NC gr  black 1 1 1 c
 gsave  2268 1415 0 0 C 1423.03 1236.59 t 0 r /Helvetica-Bold findfont 7.60979 sf 0 0 m (\2550.09) show NC gr  black 1 1 1 c
 gsave  2268 1415 0 0 C 1521.96 1236.59 t 0 r /Helvetica-Bold findfont 7.60979 sf 0 0 m (0.10) show NC gr  black 1 1 1 c
 gsave  2268 1415 0 0 C 1620.88 1236.59 t 0 r /Helvetica-Bold findfont 7.60979 sf 0 0 m (0.21) show NC gr  black 1 1 1 c
 gsave  2268 1415 0 0 C 1719.81 1236.59 t 0 r /Helvetica-Bold findfont 7.60979 sf 0 0 m (0.25) show NC gr  black 1 1 1 c
 gsave  2268 1415 0 0 C 1814.93 1236.59 t 0 r /Helvetica-Bold findfont 7.60979 sf 0 0 m (0.13) show NC gr  black 1 1 1 c
 gsave  2268 1415 0 0 C 1913.86 1236.59 t 0 r /Helvetica-Bold findfont 7.60979 sf 0 0 m (0.14) show NC gr  black
 gsave  2268 1415 0 0 C 905.565 1346.93 t 0 r /Helvetica findfont 64.6832 sf 0 0 m (h_corr_reduced) show NC gr 
 gr  gr showpage
end
%%EOF
