%!PS-Adobe-3.0
%%Pages: (atend)
%%BoundingBox: 3 3 124 101
%%HiResBoundingBox: 3.700000 3.700000 123.800000 100.100000
%.........................................
%%Creator: GPL Ghostscript 870 (pswrite)
%%CreationDate: 2013/08/19 16:01:54
%%DocumentData: Clean7Bit
%%LanguageLevel: 2
%%EndComments
%%BeginProlog
% This copyright applies to everything between here and the %%EndProlog:
% Copyright (C) 2009 Artifex Software, Inc.  All rights reserved.
%%BeginResource: procset GS_pswrite_2_0_1001 1.001 0
/GS_pswrite_2_0_1001 80 dict dup begin
/PageSize 2 array def/setpagesize{ PageSize aload pop 3 index eq exch
4 index eq and{ pop pop pop}{ PageSize dup  1
5 -1 roll put 0 4 -1 roll put dup null eq {false} {dup where} ifelse{ exch get exec}
{ pop/setpagedevice where
{ pop 1 dict dup /PageSize PageSize put setpagedevice}
{ /setpage where{ pop PageSize aload pop pageparams 3 {exch pop} repeat
setpage}if}ifelse}ifelse}ifelse} bind def
/!{bind def}bind def/#{load def}!/N/counttomark #
/rG{3{3 -1 roll 255 div}repeat setrgbcolor}!/G{255 div setgray}!/K{0 G}!
/r6{dup 3 -1 roll rG}!/r5{dup 3 1 roll rG}!/r3{dup rG}!
/w/setlinewidth #/J/setlinecap #
/j/setlinejoin #/M/setmiterlimit #/d/setdash #/i/setflat #
/m/moveto #/l/lineto #/c/rcurveto #
/p{N 2 idiv{N -2 roll rlineto}repeat}!
/P{N 0 gt{N -2 roll moveto p}if}!
/h{p closepath}!/H{P closepath}!
/lx{0 rlineto}!/ly{0 exch rlineto}!/v{0 0 6 2 roll c}!/y{2 copy c}!
/re{4 -2 roll m exch dup lx exch ly neg lx h}!
/^{3 index neg 3 index neg}!
/f{P fill}!/f*{P eofill}!/s{H stroke}!/S{P stroke}!
/q/gsave #/Q/grestore #/rf{re fill}!
/Y{P clip newpath}!/Y*{P eoclip newpath}!/rY{re Y}!
/|={pop exch 4 1 roll 1 array astore cvx 3 array astore cvx exch 1 index def exec}!
/|{exch string readstring |=}!
/+{dup type/nametype eq{2 index 7 add -3 bitshift 2 index mul}if}!
/@/currentfile #/${+ @ |}!
/B{{2 copy string{readstring pop}aload pop 4 array astore cvx
3 1 roll}repeat pop pop true}!
/Ix{[1 0 0 1 11 -2 roll exch neg exch neg]exch}!
/,{true exch Ix imagemask}!/If{false exch Ix imagemask}!/I{exch Ix image}!
/Ic{exch Ix false 3 colorimage}!
/F{/Columns counttomark 3 add -2 roll/Rows exch/K -1/BlackIs1 true>>
/CCITTFaxDecode filter}!/FX{<</EndOfBlock false F}!
/X{/ASCII85Decode filter}!/@X{@ X}!/&2{2 index 2 index}!
/@F{@ &2<<F}!/@C{@X &2 FX}!
/$X{+ @X |}!/&4{4 index 4 index}!/$F{+ @ &4<<F |}!/$C{+ @X &4 FX |}!
/IC{3 1 roll 10 dict begin 1{/ImageType/Interpolate/Decode/DataSource
/ImageMatrix/BitsPerComponent/Height/Width}{exch def}forall
currentdict end image}!
/~{@ read {pop} if}!
end def
%%EndResource
/pagesave null def
%%EndProlog
%%Page: 1 1
%%PageBoundingBox: 0 0 127 104
%%BeginPageSetup
GS_pswrite_2_0_1001 begin
127 104 null setpagesize
/pagesave save store 197 dict begin
0.1 0.1 scale
%%EndPageSetup
gsave mark
Q q
0 0 1270 0 0 1040 ^ Y
9.9626 w
1 J
1 j
K
136.4 311.1 109.56 152.7 S
108.51 339 109.55 152.7 S
136.4 725.65 109.56 -152.7 S
108.51 697.76 109.56 -152.7 S
122.46 325.05 109.55 152.7 S
122.46 711.71 109.56 -152.7 S
255 0 r3
306.07 540.37 m
15.21 -31.06 61.79 -8.25 46.59 22.81 c
-7.55 15.41 -30.66 4.09 -23.12 -11.32 c
18.98 -38.76 77.13 -10.29 58.14 28.47 c
-7.55 15.41 -30.66 4.09 -23.12 -11.32 c
18.98 -38.76 77.12 -10.29 58.14 28.47 c
-7.55 15.41 -30.66 4.09 -23.12 -11.32 c
18.98 -38.77 77.13 -10.29 58.15 28.47 c
-7.55 15.41 -30.66 4.09 -23.12 -11.32 c
18.98 -38.77 77.13 -10.29 58.14 28.47 c
-7.55 15.41 -30.66 4.09 -23.12 -11.32 c
18.98 -38.76 77.12 -10.29 58.14 28.47 c
-7.55 15.41 -30.66 4.09 -23.12 -11.32 c
15.21 -31.06 61.79 -8.25 46.59 22.81 c
S
306.07 540.37 245.19 120.05 S
306.07 496.39 m
-15.21 -31.06 31.38 -53.87 46.59 -22.81 c
7.55 15.41 -15.57 26.73 -23.12 11.32 c
-18.98 -38.76 39.16 -67.23 58.14 -28.47 c
7.55 15.41 -15.57 26.73 -23.12 11.32 c
-18.98 -38.76 39.16 -67.23 58.14 -28.47 c
7.55 15.41 -15.57 26.73 -23.12 11.32 c
-18.98 -38.77 39.17 -67.24 58.15 -28.47 c
7.55 15.41 -15.57 26.73 -23.12 11.32 c
-18.98 -38.76 39.16 -67.23 58.14 -28.47 c
7.55 15.41 -15.57 26.73 -23.12 11.32 c
-18.98 -38.76 39.16 -67.23 58.14 -28.47 c
7.55 15.41 -15.57 26.73 -23.12 11.32 c
-15.21 -31.06 31.38 -53.87 46.59 -22.81 c
S
306.07 496.39 245.19 -120.06 S
K
590.38 690.05 173.19 193.57 S
595.84 683.04 397.91 208.93 S
255 0 r3
598.63 673.42 m
9.66 20.33 37.7 22.59 50.47 4.06 c
12.78 -18.52 40.82 -16.27 50.47 4.06 c
9.65 20.33 37.7 22.59 50.47 4.06 c
12.78 -18.52 40.82 -16.27 50.47 4.06 c
9.65 20.32 37.69 22.58 50.47 4.06 c
12.78 -18.52 40.82 -16.27 50.47 4.06 c
S
598.63 673.42 302.83 24.37 S
901.46 697.79 m
14.8 14.63 39.89 7.74 45.15 -12.39 c
5.26 -20.13 30.35 -27.02 45.15 -12.39 c
14.8 14.63 39.89 7.74 45.15 -12.39 c
5.26 -20.13 30.35 -27.02 45.15 -12.39 c
S
901.46 697.79 180.6 -49.56 S
K
901.46 697.79 m
0.87 18.38 21.3 28.92 36.79 18.98 c
15.48 -9.94 35.92 0.61 36.79 18.98 c
0.87 18.38 21.3 28.92 36.79 18.98 c
15.48 -9.94 35.92 0.61 36.79 18.98 c
S
595.84 353.71 397.91 -208.93 S
590.38 346.71 173.19 -193.56 S
255 0 r3
598.63 363.33 m
12.78 18.52 40.82 16.27 50.47 -4.06 c
9.65 -20.33 37.69 -22.58 50.47 -4.06 c
12.78 18.53 40.82 16.27 50.47 -4.06 c
9.65 -20.33 37.69 -22.59 50.47 -4.06 c
12.78 18.52 40.81 16.27 50.46 -4.06 c
9.65 -20.33 37.7 -22.59 50.47 -4.06 c
S
598.63 363.33 302.82 -24.37 S
901.45 338.96 m
5.27 20.13 30.35 27.02 45.15 12.39 c
14.8 -14.63 39.89 -7.75 45.15 12.39 c
5.26 20.13 30.35 27.01 45.15 12.39 c
14.8 -14.62 39.89 -7.74 45.15 12.39 c
S
901.45 338.96 180.61 49.55 S
K
901.45 338.96 m
15.48 9.94 35.92 -0.61 36.79 -18.98 c
0.87 -18.38 21.3 -28.92 36.79 -18.98 c
15.48 9.94 35.92 -0.61 36.79 -18.98 c
0.87 -18.38 21.3 -28.92 36.79 -18.98 c
S
179 G
311.16 518.38 m
0 13.26 -5.27 25.98 -14.64 35.36 c
-9.38 9.38 -22.09 14.64 -35.36 14.64 c
-13.26 0 -25.98 -5.27 -35.36 -14.64 c
-9.37 -9.38 -14.64 -22.09 -14.64 -35.36 c
0 -13.26 5.27 -25.98 14.64 -35.36 c
9.38 -9.37 22.09 -14.64 35.36 -14.64 c
13.26 0 25.98 5.27 35.36 14.64 c
9.38 9.38 14.64 22.09 14.64 35.36 c
f
K
311.16 518.38 m
0 13.26 -5.27 25.98 -14.64 35.36 c
-9.38 9.38 -22.09 14.64 -35.36 14.64 c
-13.26 0 -25.98 -5.27 -35.36 -14.64 c
-9.37 -9.38 -14.64 -22.09 -14.64 -35.36 c
0 -13.26 5.27 -25.98 14.64 -35.36 c
9.38 -9.37 22.09 -14.64 35.36 -14.64 c
13.26 0 25.98 5.27 35.36 14.64 c
9.38 9.38 14.64 22.09 14.64 35.36 c
h
S
179 G
598.71 671.42 m
0 6.63 -2.64 12.99 -7.32 17.68 c
-4.69 4.69 -11.05 7.32 -17.68 7.32 c
-6.63 0 -12.99 -2.64 -17.68 -7.32 c
-4.69 -4.69 -7.32 -11.05 -7.32 -17.68 c
0 -6.63 2.63 -12.99 7.32 -17.68 c
4.69 -4.69 11.05 -7.32 17.68 -7.32 c
6.63 0 12.99 2.63 17.68 7.32 c
4.69 4.69 7.32 11.05 7.32 17.68 c
f
K
598.71 671.42 m
0 6.63 -2.64 12.99 -7.32 17.68 c
-4.69 4.69 -11.05 7.32 -17.68 7.32 c
-6.63 0 -12.99 -2.64 -17.68 -7.32 c
-4.69 -4.69 -7.32 -11.05 -7.32 -17.68 c
0 -6.63 2.63 -12.99 7.32 -17.68 c
4.69 -4.69 11.05 -7.32 17.68 -7.32 c
6.63 0 12.99 2.63 17.68 7.32 c
4.69 4.69 7.32 11.05 7.32 17.68 c
h
S
179 G
598.71 365.34 m
0 6.63 -2.64 12.99 -7.32 17.68 c
-4.69 4.69 -11.05 7.32 -17.68 7.32 c
-6.63 0 -12.99 -2.63 -17.68 -7.32 c
-4.69 -4.69 -7.32 -11.05 -7.32 -17.68 c
0 -6.63 2.63 -12.99 7.32 -17.68 c
4.69 -4.69 11.05 -7.32 17.68 -7.32 c
6.63 0 12.99 2.64 17.68 7.32 c
4.69 4.69 7.32 11.05 7.32 17.68 c
f
K
598.71 365.34 m
0 6.63 -2.64 12.99 -7.32 17.68 c
-4.69 4.69 -11.05 7.32 -17.68 7.32 c
-6.63 0 -12.99 -2.63 -17.68 -7.32 c
-4.69 -4.69 -7.32 -11.05 -7.32 -17.68 c
0 -6.63 2.63 -12.99 7.32 -17.68 c
4.69 -4.69 11.05 -7.32 17.68 -7.32 c
6.63 0 12.99 2.64 17.68 7.32 c
4.69 4.69 7.32 11.05 7.32 17.68 c
h
S
255 0 r3
358 731 38 9 /1F
$C
4Gn3W&9bp6_KHba96MH_llb,;fO6W~>
,
346 653 52 64 /4J
$C
+buKjMC*<-$pD'n0^dh:^$ZeV4hpI#mi]Yi61dqTklVCZ2fsZm?Va`&hQQDJn%8VsqmZU?]798G
]Do>6^%V?sdr0)-7X/c%L6GHQ$lDe~>
,
358 374 1F ,
346 296 4J ,
702 630 1F ,
691 552 56 64 /1N
$C
,pLI6&:4\@%ba4\BfBsWBm0$TQMYB'[oV);D(C%G[_(qWqeL)Op=A&%rU"psFSCp0pK,gl]!nR6
F`1"*qrt]$gXC:`:"?e^h)(VugI],CFrF)0+ZNm7~>
,
755 612 52 52 /4R
$C
,D)1=V-X-$s8W-!s7/,u;ef=is8W-!s8W-!n,~>
,
755 545 28 46 /1Z
$C
0EsY$/[,3Ss8W-!s8W-!s8V3l_>*/D,Vk.f~>
,
702 464 1F ,
691 386 1N ,
755 434 52 52 /4Z
$C
.e!E;s8W-!s8Vm7'WJJin,NFfs8W-!OhjYZ:]~>
,
755 379 1Z ,
K
37 211 54 63 /2D
$C
/fR$CMgt31n%\>+bf=[Rlltp_O>l,Pm]GK<mHM7?Isns+Dr:![^\7-bs)%Z5biaHThsJ2Dp[8'(
Gp1o1DQefCh([9cP79#V(oUjI$3~>
,
37 764 2D ,
792 938 42 63 /5D
$C
,Qa%f@$(EGIfFlsIS_tT&#+:hdLGi$Db7[E?Cn@X[pT+4s)7pemr.t"pA]WNs1R1ag[BLW[ek-+
mB:@SL=1DX-GpPU_Jf~>
,
1040 933 5D ,
255 0 r3
1155 693 1F ,
1143 615 1N ,
1199 671 39 47 /2H
$C
.E$fC7'XT70^1Mf]fg:0>Q&J9s8KM-s8W-!s8M]krr1@Elh8c8Qg?Dj0Z"18-nq:~>
,
1207 611 1Z ,
K
1104 801 101 70 /5H
$C
3lFef^N]Y6\pj+Nn)!sS+2;b_J%&M:Isq(Gp[rHCqtBpTYOB4&HGAk7s*id2IJropg],g;^[Ko]
n%ZU6H[>_$\,(R2IJ<KnDf3>`pA==GDm@(G:>c'<p7M*Rl[NfepA]V<GB=`3+EINjO9Q.[UY"9~>
,
1040 42 5D ,
792 37 5D ,
255 0 r3
1155 403 1F ,
1143 325 1N ,
1199 380 2H ,
1207 320 1Z ,
K
1104 164 5H ,
cleartomark end end pagesave restore
 showpage
%%PageTrailer
%%Trailer
%%Pages: 1
%%EOF
