%!PS-Adobe-3.0
%%Pages: (atend)
%%BoundingBox: 3 3 124 99
%%HiResBoundingBox: 3.700000 3.200000 123.800000 98.600000
%...........................................
%%Creator: GPL Ghostscript 870 (pswrite)
%%CreationDate: 2015/12/24 03:20:34
%%DocumentData: Clean7Bit
%%LanguageLevel: 2
%%EndComments
%%BeginProlog
% This copyright applies to everything between here and the %%EndProlog:
% Copyright (C) 2009 Artifex Software, Inc.  All rights reserved.
%%BeginResource: procset GS_pswrite_2_0_1001 1.001 0
/GS_pswrite_2_0_1001 80 dict dup begin
/PageSize 2 array def/setpagesize{ PageSize aload pop 3 index eq exch
4 index eq and{ pop pop pop}{ PageSize dup  1
5 -1 roll put 0 4 -1 roll put dup null eq {false} {dup where} ifelse{ exch get exec}
{ pop/setpagedevice where
{ pop 1 dict dup /PageSize PageSize put setpagedevice}
{ /setpage where{ pop PageSize aload pop pageparams 3 {exch pop} repeat
setpage}if}ifelse}ifelse}ifelse} bind def
/!{bind def}bind def/#{load def}!/N/counttomark #
/rG{3{3 -1 roll 255 div}repeat setrgbcolor}!/G{255 div setgray}!/K{0 G}!
/r6{dup 3 -1 roll rG}!/r5{dup 3 1 roll rG}!/r3{dup rG}!
/w/setlinewidth #/J/setlinecap #
/j/setlinejoin #/M/setmiterlimit #/d/setdash #/i/setflat #
/m/moveto #/l/lineto #/c/rcurveto #
/p{N 2 idiv{N -2 roll rlineto}repeat}!
/P{N 0 gt{N -2 roll moveto p}if}!
/h{p closepath}!/H{P closepath}!
/lx{0 rlineto}!/ly{0 exch rlineto}!/v{0 0 6 2 roll c}!/y{2 copy c}!
/re{4 -2 roll m exch dup lx exch ly neg lx h}!
/^{3 index neg 3 index neg}!
/f{P fill}!/f*{P eofill}!/s{H stroke}!/S{P stroke}!
/q/gsave #/Q/grestore #/rf{re fill}!
/Y{P clip newpath}!/Y*{P eoclip newpath}!/rY{re Y}!
/|={pop exch 4 1 roll 1 array astore cvx 3 array astore cvx exch 1 index def exec}!
/|{exch string readstring |=}!
/+{dup type/nametype eq{2 index 7 add -3 bitshift 2 index mul}if}!
/@/currentfile #/${+ @ |}!
/B{{2 copy string{readstring pop}aload pop 4 array astore cvx
3 1 roll}repeat pop pop true}!
/Ix{[1 0 0 1 11 -2 roll exch neg exch neg]exch}!
/,{true exch Ix imagemask}!/If{false exch Ix imagemask}!/I{exch Ix image}!
/Ic{exch Ix false 3 colorimage}!
/F{/Columns counttomark 3 add -2 roll/Rows exch/K -1/BlackIs1 true>>
/CCITTFaxDecode filter}!/FX{<</EndOfBlock false F}!
/X{/ASCII85Decode filter}!/@X{@ X}!/&2{2 index 2 index}!
/@F{@ &2<<F}!/@C{@X &2 FX}!
/$X{+ @X |}!/&4{4 index 4 index}!/$F{+ @ &4<<F |}!/$C{+ @X &4 FX |}!
/IC{3 1 roll 10 dict begin 1{/ImageType/Interpolate/Decode/DataSource
/ImageMatrix/BitsPerComponent/Height/Width}{exch def}forall
currentdict end image}!
/~{@ read {pop} if}!
end def
%%EndResource
/pagesave null def
%%EndProlog
%%Page: 1 1
%%PageBoundingBox: 0 0 127 102
%%BeginPageSetup
GS_pswrite_2_0_1001 begin
127 102 null setpagesize
/pagesave save store 197 dict begin
0.1 0.1 scale
%%EndPageSetup
gsave mark
Q q
0 0 1270 0 0 1020 ^ Y
9.9626 w
1 J
1 j
K
136.4 301.1 109.56 152.7 S
108.51 329 109.55 152.7 S
136.4 715.65 109.56 -152.7 S
108.51 687.76 109.56 -152.7 S
122.46 315.05 109.55 152.7 S
122.46 701.71 109.56 -152.7 S
255 0 r3
307.65 526.77 37.44 14.81 S
382.53 556.4 37.44 14.81 S
457.41 586.03 37.44 14.82 S
532.29 615.66 37.44 14.81 S
307.65 489.98 37.44 -14.81 S
382.53 460.36 37.44 -14.82 S
457.41 430.73 37.44 -14.82 S
532.29 401.1 37.44 -14.82 S
K
607.17 645.28 386.58 236.68 S
255 0 r3
607.17 645.28 m
8.93 20.97 37.21 24.41 50.91 6.19 c
13.7 -18.22 41.97 -14.78 50.9 6.18 c
8.93 20.97 37.21 24.41 50.91 6.19 c
13.7 -18.22 41.98 -14.79 50.91 6.19 c
8.93 20.96 37.21 24.4 50.9 6.18 c
13.7 -18.22 41.98 -14.78 50.91 6.19 c
S
607.17 645.28 305.44 37.13 S
912.61 682.41 m
13.66 13.85 37.2 7.71 42.36 -11.05 c
5.16 -18.76 28.7 -24.89 42.36 -11.04 c
13.66 13.85 37.2 7.71 42.36 -11.05 c
5.16 -18.76 28.7 -24.89 42.36 -11.04 c
S
912.61 682.41 169.45 -44.18 S
K
912.61 682.41 m
-0.27 17.6 18.62 28.89 34 20.32 c
15.38 -8.57 34.27 2.72 34 20.33 c
-0.27 17.6 18.62 28.89 34 20.32 c
15.38 -8.57 34.27 2.72 34 20.32 c
S
607.17 371.47 386.58 -236.69 S
255 0 r3
607.17 371.47 m
13.7 18.22 41.98 14.78 50.91 -6.19 c
8.93 -20.97 37.21 -24.41 50.9 -6.19 c
13.7 18.22 41.98 14.78 50.91 -6.19 c
8.93 -20.97 37.21 -24.41 50.91 -6.19 c
13.69 18.22 41.97 14.78 50.9 -6.19 c
8.93 -20.97 37.21 -24.41 50.91 -6.19 c
S
607.17 371.47 305.44 -37.13 S
912.61 334.34 m
5.16 18.76 28.7 24.89 42.36 11.04 c
13.66 -13.85 37.2 -7.71 42.36 11.04 c
5.16 18.76 28.7 24.89 42.36 11.04 c
13.66 -13.85 37.2 -7.71 42.36 11.05 c
S
912.61 334.34 169.45 44.18 S
K
912.61 334.34 m
15.38 8.57 34.27 -2.73 34 -20.33 c
-0.27 -17.6 18.62 -28.89 34 -20.33 c
15.38 8.57 34.27 -2.72 34 -20.32 c
-0.27 -17.6 18.62 -28.89 34 -20.33 c
S
179 G
311.16 508.38 m
0 13.26 -5.27 25.98 -14.64 35.36 c
-9.38 9.38 -22.09 14.64 -35.36 14.64 c
-13.26 0 -25.98 -5.27 -35.36 -14.64 c
-9.37 -9.38 -14.64 -22.09 -14.64 -35.36 c
0 -13.26 5.27 -25.98 14.64 -35.36 c
9.38 -9.37 22.09 -14.64 35.36 -14.64 c
13.26 0 25.98 5.27 35.36 14.64 c
9.38 9.38 14.64 22.09 14.64 35.36 c
f
K
311.16 508.38 m
0 13.26 -5.27 25.98 -14.64 35.36 c
-9.38 9.38 -22.09 14.64 -35.36 14.64 c
-13.26 0 -25.98 -5.27 -35.36 -14.64 c
-9.37 -9.38 -14.64 -22.09 -14.64 -35.36 c
0 -13.26 5.27 -25.98 14.64 -35.36 c
9.38 -9.37 22.09 -14.64 35.36 -14.64 c
13.26 0 25.98 5.27 35.36 14.64 c
9.38 9.38 14.64 22.09 14.64 35.36 c
h
S
255 0 r3
422 719 38 9 /1F
$C
4Gn3W&9bp6_KHba96MH_llb,;fO6W~>
,
414 642 42 63 /4J
$C
,Qa%f@$(EGIfFlsIS_tT&#+:hdLGi$Db7[E?Cn@X[pT+4s)7pemr.t"pA]WNs1R1ag[BLW[ek-+
mB:@SL=1DX-GpPU_Jf~>
,
422 367 1F ,
414 290 4J ,
713 608 1F ,
702 530 56 64 /1N
$C
,pLI6&:4\@%ba4\BfBsWBm0$TQMYB'[oV);D(C%G[_(qWqeL)Op=A&%rU"psFSCp0pK,gl]!nR6
F`1"*qrt]$gXC:`:"?e^h)(VugI],CFrF)0+ZNm7~>
,
766 591 52 52 /4R
$C
,D)1=V-X-$s8W-!s7/,u;ef=is8W-!s8W-!n,~>
,
766 523 28 46 /1Z
$C
0EsY$/[,3Ss8W-!s8W-!s8V3l_>*/D,Vk.f~>
,
713 466 1F ,
702 388 1N ,
766 435 52 52 /4Z
$C
.e!E;s8W-!s8Vm7'WJJin,NFfs8W-!OhjYZ:]~>
,
766 381 1Z ,
K
37 201 54 63 /2D
$C
/fR$CMgt31n%\>+bf=[Rlltp_O>l,Pm]GK<mHM7?Isns+Dr:![^\7-bs)%Z5biaHThsJ2Dp[8'(
Gp1o1DQefCh([9cP79#V(oUjI$3~>
,
37 754 2D ,
1040 923 4J ,
255 0 r3
1155 683 1F ,
1143 605 1N ,
1199 661 39 47 /5D
$C
.E$fC7'XT70^1Mf]fg:0>Q&J9s8KM-s8W-!s8M]krr1@Elh8c8Qg?Dj0Z"18-nq:~>
,
1207 601 1Z ,
K
1104 791 101 70 /2H
$C
3lFef^N]Y6\pj+Nn)!sS+2;b_J%&M:Isq(Gp[rHCqtBpTYOB4&HGAk7s*id2IJropg],g;^[Ko]
n%ZU6H[>_$\,(R2IJ<KnDf3>`pA==GDm@(G:>c'<p7M*Rl[NfepA]V<GB=`3+EINjO9Q.[UY"9~>
,
1040 32 4J ,
255 0 r3
1155 393 1F ,
1143 315 1N ,
1199 370 5D ,
1207 310 1Z ,
K
1104 154 2H ,
cleartomark end end pagesave restore
 showpage
%%PageTrailer
%%Trailer
%%Pages: 1
%%EOF
