%!PS-Adobe-2.0 EPSF-2.0
%%BoundingBox:  0 0 567 521
%%Title: Distributions/jetPt_0__distrVR0LdPhi_MB-GGd_beforeFit_forThesis.eps: canvas
%%Creator: ROOT Version 6.04/16
%%CreationDate: Tue May 19 22:03:18 2020
%%DocumentNeededResources: ProcSet (FontSetInit)
%%EndComments
%%BeginProlog
80 dict begin
/s {stroke} def /l {lineto} def /m {moveto} def /t {translate} def
/r {rotate} def /rl {roll}  def /R {repeat} def
/d {rlineto} def /rm {rmoveto} def /gr {grestore} def /f {eofill} def
/c {setrgbcolor} def /black {0 setgray} def /sd {setdash} def
/cl {closepath} def /sf {scalefont setfont} def /lw {setlinewidth} def
/box {m dup 0 exch d exch 0 d 0 exch neg d cl} def
/NC{systemdict begin initclip end}def/C{NC box clip newpath}def
/bl {box s} def /bf {gsave box gsave f grestore 1 lw [] 0 sd s grestore} def /Y { 0 exch d} def /X { 0 d} def 
/K {{pop pop 0 moveto} exch kshow} bind def
/ita {/ang 15 def gsave [1 0 ang dup sin exch cos div 1 0 0] concat} def 
/mp {newpath /y exch def /x exch def} def
/side {[w .77 mul w .23 mul] .385 w mul sd w 0 l currentpoint t -144 r} def
/mr {mp x y w2 0 360 arc} def /m24 {mr s} def /m20 {mr f} def
/mb {mp x y w2 add m w2 neg 0 d 0 w neg d w 0 d 0 w d cl} def
/mt {mp x y w2 add m w2 neg w neg d w 0 d cl} def
/m21 {mb f} def /m25 {mb s} def /m22 {mt f} def /m26{mt s} def
/m23 {mp x y w2 sub m w2 w d w neg 0 d cl f} def
/m27 {mp x y w2 add m w3 neg w2 neg d w3 w2 neg d w3 w2 d cl s} def
/m28 {mp x w2 sub y w2 sub w3 add m w3 0 d  0 w3 neg d w3 0 d 0 w3 d w3 0 d  0 w3 d w3 neg 0 d 0 w3 d w3 neg 0 d 0 w3 neg d w3 neg 0 d cl s } def
/m29 {mp gsave x w2 sub y w2 add w3 sub m currentpoint t 4 {side} repeat cl fill gr} def
/m30 {mp gsave x w2 sub y w2 add w3 sub m currentpoint t 4 {side} repeat cl s gr} def
/m31 {mp x y w2 sub m 0 w d x w2 sub y m w 0 d x w2 sub y w2 add m w w neg d x w2 sub y w2 sub m w w d s} def
/m32 {mp x y w2 sub m w2 w d w neg 0 d cl s} def
/m33 {mp x y w2 add m w3 neg w2 neg d w3 w2 neg d w3 w2 d cl f} def
/m34 {mp x w2 sub y w2 sub w3 add m w3 0 d  0 w3 neg d w3 0 d 0 w3 d w3 0 d  0 w3 d w3 neg 0 d 0 w3 d w3 neg 0 d 0 w3 neg d w3 neg 0 d cl f } def
/m2 {mp x y w2 sub m 0 w d x w2 sub y m w 0 d s} def
/m5 {mp x w2 sub y w2 sub m w w d x w2 sub y w2 add m w w neg d s} def
%%IncludeResource: ProcSet (FontSetInit)
%%IncludeResource: font Times-Roman
%%IncludeResource: font Times-Italic
%%IncludeResource: font Times-Bold
%%IncludeResource: font Times-BoldItalic
%%IncludeResource: font Helvetica
%%IncludeResource: font Helvetica-Oblique
%%IncludeResource: font Helvetica-Bold
%%IncludeResource: font Helvetica-BoldOblique
%%IncludeResource: font Courier
%%IncludeResource: font Courier-Oblique
%%IncludeResource: font Courier-Bold
%%IncludeResource: font Courier-BoldOblique
%%IncludeResource: font Symbol
%%IncludeResource: font ZapfDingbats
/reEncode {exch findfont dup length dict begin {1 index /FID eq  {pop pop} {def} ifelse } forall /Encoding exch def currentdict end dup /FontName get exch definefont pop } def [/Times-Bold /Times-Italic /Times-BoldItalic /Helvetica /Helvetica-Oblique
 /Helvetica-Bold /Helvetica-BoldOblique /Courier /Courier-Oblique /Courier-Bold /Courier-BoldOblique /Times-Roman /AvantGarde-Book /AvantGarde-BookOblique /AvantGarde-Demi /AvantGarde-DemiOblique /Bookman-Demi /Bookman-DemiItalic /Bookman-Light
 /Bookman-LightItalic /Helvetica-Narrow /Helvetica-Narrow-Bold /Helvetica-Narrow-BoldOblique /Helvetica-Narrow-Oblique /NewCenturySchlbk-Roman /NewCenturySchlbk-Bold /NewCenturySchlbk-BoldItalic /NewCenturySchlbk-Italic /Palatino-Bold
 /Palatino-BoldItalic /Palatino-Italic /Palatino-Roman ] {ISOLatin1Encoding reEncode } forall
%%EndProlog
%%BeginSetup
%%EndSetup
newpath  gsave  .25 .25 scale  gsave  0 0 t black[  ] 0 sd 3 lw 1 1 1 c 2268 2085 0 0 bf black 1 1 1 c 2263 1770 2 313 bf black 1 1 1 c black 1860 1145 319 584 bl 1 1 1 c black 1860 1145 319 584 bl 6 lw 1 1 1 c black 3 lw /w 33 def /w2 {w 2 div} def
 /w3 {w 3 div} def 366 1129 m20 6 lw 3 lw 459 1110 m20 6 lw 3 lw 552 1017 m20 6 lw 645 911 m 12 Y s 645 950 m 5 Y s 3 lw 645 937 m20 6 lw 738 714 m 77 Y s 738 818 m 26 Y s 3 lw 738 805 m20 6 lw 924 584 m 156 Y s 924 767 m 38 Y s 3 lw 924 754 m20 6 lw
 3 lw 319 584 m 1860 X s
 gsave  2263 1770 2 313 C 1949.08 376.258 t 0 r /Helvetica findfont 81.3741 sf 0 0 m ( [GeV]) show NC gr 
 gsave  2263 1770 2 313 C 1915.19 332.192 t 0 r /Helvetica findfont 54.2494 sf 0 0 m (T) show NC gr 
 gsave  2263 1770 2 313 C 1630.45 376.258 t 0 r /Helvetica findfont 81.3741 sf 0 0 m (1st jet p) show NC gr  435 584 m cl s 482 584 m cl s 528 584 m cl s 575 584 m cl s 621 584 m cl s 668 584 m cl s 714 584 m cl s 761 584 m cl s 807 584 m cl s 854
 584 m cl s 900 584 m cl s 947 584 m cl s 993 584 m cl s 1040 584 m cl s 1087 584 m cl s 1133 584 m cl s 1180 584 m cl s 1226 584 m cl s 1273 584 m cl s 1319 584 m cl s 1366 584 m cl s 1412 584 m cl s 1459 584 m cl s 1505 584 m cl s 1552 584 m cl s
 1598 584 m cl s 1645 584 m cl s 1691 584 m cl s 1738 584 m cl s 1784 584 m cl s 1831 584 m cl s 1877 584 m cl s 1924 584 m cl s 1970 584 m cl s 2017 584 m cl s 2063 584 m cl s 435 584 m cl s 389 584 m cl s 342 584 m cl s 2063 584 m cl s 2110 584 m
 cl s 2156 584 m cl s 319 1729 m 1860 X s 435 1729 m cl s 482 1729 m cl s 528 1729 m cl s 575 1729 m cl s 621 1729 m cl s 668 1729 m cl s 714 1729 m cl s 761 1729 m cl s 807 1729 m cl s 854 1729 m cl s 900 1729 m cl s 947 1729 m cl s 993 1729 m cl s
 1040 1729 m cl s 1087 1729 m cl s 1133 1729 m cl s 1180 1729 m cl s 1226 1729 m cl s 1273 1729 m cl s 1319 1729 m cl s 1366 1729 m cl s 1412 1729 m cl s 1459 1729 m cl s 1505 1729 m cl s 1552 1729 m cl s 1598 1729 m cl s 1645 1729 m cl s 1691 1729 m
 cl s 1738 1729 m cl s 1784 1729 m cl s 1831 1729 m cl s 1877 1729 m cl s 1924 1729 m cl s 1970 1729 m cl s 2017 1729 m cl s 2063 1729 m cl s 435 1729 m cl s 389 1729 m cl s 342 1729 m cl s 2063 1729 m cl s 2110 1729 m cl s 2156 1729 m cl s 319 584 m
 1145 Y s
 gsave  2263 1770 2 313 C 166.096 1091.49 t 90 r /Helvetica findfont 81.3741 sf 0 0 m (Events / 200 GeV) show NC gr  341 635 m -22 X s 341 665 m -22 X s 341 686 m -22 X s 341 703 m -22 X s 341 716 m -22 X s 341 727 m -22 X s 341 737 m -22 X s 341 746
 m -22 X s 363 754 m -44 X s
 gsave  2263 1770 2 313 C 300.555 726.588 t 0 r  -36 0 t /Helvetica findfont 64.4212 sf 0 0 m (1) show NC gr  341 805 m -22 X s 341 835 m -22 X s 341 856 m -22 X s 341 872 m -22 X s 341 886 m -22 X s 341 897 m -22 X s 341 907 m -22 X s 341 915 m -22
 X s 363 923 m -44 X s
 gsave  2263 1770 2 313 C 300.555 895.985 t 0 r  -73 0 t /Helvetica findfont 64.4212 sf 0 0 m (10) show NC gr  341 974 m -22 X s 341 1004 m -22 X s 341 1025 m -22 X s 341 1042 m -22 X s 341 1055 m -22 X s 341 1066 m -22 X s 341 1076 m -22 X s 341
 1085 m -22 X s 363 1092 m -44 X s
 gsave  2263 1770 2 313 C 274.567 1091.49 t 0 r /Helvetica findfont 44.0776 sf 0 0 m (2) show NC gr 
 gsave  2263 1770 2 313 C 203.383 1064.37 t 0 r /Helvetica findfont 64.4212 sf 0 0 m (10) show NC gr  341 1143 m -22 X s 341 1173 m -22 X s 341 1194 m -22 X s 341 1211 m -22 X s 341 1224 m -22 X s 341 1236 m -22 X s 341 1245 m -22 X s 341 1254 m -22
 X s 363 1262 m -44 X s
 gsave  2263 1770 2 313 C 274.567 1264.36 t 0 r /Helvetica findfont 44.0776 sf 0 0 m (3) show NC gr 
 gsave  2263 1770 2 313 C 203.383 1233.85 t 0 r /Helvetica findfont 64.4212 sf 0 0 m (10) show NC gr  341 1313 m -22 X s 341 1343 m -22 X s 341 1364 m -22 X s 341 1380 m -22 X s 341 1394 m -22 X s 341 1405 m -22 X s 341 1415 m -22 X s 341 1424 m -22
 X s 363 1431 m -44 X s
 gsave  2263 1770 2 313 C 274.567 1430.46 t 0 r /Helvetica findfont 44.0776 sf 0 0 m (4) show NC gr 
 gsave  2263 1770 2 313 C 203.383 1403.34 t 0 r /Helvetica findfont 64.4212 sf 0 0 m (10) show NC gr  341 1482 m -22 X s 341 1512 m -22 X s 341 1533 m -22 X s 341 1550 m -22 X s 341 1563 m -22 X s 341 1574 m -22 X s 341 1584 m -22 X s 341 1593 m -22
 X s 363 1601 m -44 X s
 gsave  2263 1770 2 313 C 274.567 1603.33 t 0 r /Helvetica findfont 44.0776 sf 0 0 m (5) show NC gr 
 gsave  2263 1770 2 313 C 203.383 1572.83 t 0 r /Helvetica findfont 64.4212 sf 0 0 m (10) show NC gr  341 1652 m -22 X s 341 1682 m -22 X s 341 1703 m -22 X s 341 1719 m -22 X s 2179 584 m 1145 Y s 2157 635 m 22 X s 2157 665 m 22 X s 2157 686 m 22 X
 s 2157 703 m 22 X s 2157 716 m 22 X s 2157 727 m 22 X s 2157 737 m 22 X s 2157 746 m 22 X s 2136 754 m 43 X s 2157 805 m 22 X s 2157 835 m 22 X s 2157 856 m 22 X s 2157 872 m 22 X s 2157 886 m 22 X s 2157 897 m 22 X s 2157 907 m 22 X s 2157 915 m 22
 X s 2136 923 m 43 X s 2157 974 m 22 X s 2157 1004 m 22 X s 2157 1025 m 22 X s 2157 1042 m 22 X s 2157 1055 m 22 X s 2157 1066 m 22 X s 2157 1076 m 22 X s 2157 1085 m 22 X s 2136 1092 m 43 X s 2157 1143 m 22 X s 2157 1173 m 22 X s 2157 1194 m 22 X s
 2157 1211 m 22 X s 2157 1224 m 22 X s 2157 1236 m 22 X s 2157 1245 m 22 X s 2157 1254 m 22 X s 2136 1262 m 43 X s 2157 1313 m 22 X s 2157 1343 m 22 X s 2157 1364 m 22 X s 2157 1380 m 22 X s 2157 1394 m 22 X s 2157 1405 m 22 X s 2157 1415 m 22 X s
 2157 1424 m 22 X s 2136 1431 m 43 X s 2157 1482 m 22 X s 2157 1512 m 22 X s 2157 1533 m 22 X s 2157 1550 m 22 X s 2157 1563 m 22 X s 2157 1574 m 22 X s 2157 1584 m 22 X s 2157 1593 m 22 X s 2136 1601 m 43 X s 2157 1652 m 22 X s 2157 1682 m 22 X s
 2157 1703 m 22 X s 2157 1719 m 22 X s 0.4 0.6 1 c black 0.4 0.6 1 c 319 584 m 556 Y 93 X -21 Y 93 X -88 Y 93 X -111 Y 93 X -104 Y 93 X -134 Y 93 X -56 Y 93 X -42 Y 1209 X f black 0.4 0.6 1 c black 319 1140 m 93 X -21 Y 93 X -88 Y 93 X -111 Y 93 X
 -104 Y 93 X -134 Y 93 X -56 Y 93 X -42 Y 1209 X s 0.999 0.999 0.999 c black 0.999 0.999 0.999 c 319 584 m 535 Y 93 X -22 Y 93 X -85 Y 93 X -116 Y 93 X -105 Y 93 X -128 Y 93 X -67 Y 93 X -12 Y 1209 X f black 0.999 0.999 0.999 c black 319 1119 m 93 X
 -22 Y 93 X -85 Y 93 X -116 Y 93 X -105 Y 93 X -128 Y 93 X -67 Y 93 X -12 Y 1209 X s 1 1 1 c black 319 1119 m 93 X -22 Y 93 X -85 Y 93 X -116 Y 93 X -105 Y 93 X -128 Y 93 X -67 Y 93 X -12 Y 1209 X s 0.6 1 0.6 c black 0.6 1 0.6 c 319 584 m 535 Y 93 X
 -22 Y 93 X -85 Y 93 X -116 Y 93 X -105 Y 93 X -128 Y 93 X -67 Y 93 X -12 Y 1209 X f black 0.6 1 0.6 c black 319 1119 m 93 X -22 Y 93 X -85 Y 93 X -116 Y 93 X -105 Y 93 X -128 Y 93 X -67 Y 93 X -12 Y 1209 X s 0.999 0.999 0.999 c black 0.999 0.999
 0.999 c 319 584 m 485 Y 93 X -16 Y 93 X -77 Y 93 X -110 Y 93 X -95 Y 93 X -144 Y 93 X -43 Y 1302 X f black 0.999 0.999 0.999 c black 319 1069 m 93 X -16 Y 93 X -77 Y 93 X -110 Y 93 X -95 Y 93 X -144 Y 93 X -43 Y 1302 X s 1 1 1 c black 319 1069 m 93
 X -16 Y 93 X -77 Y 93 X -110 Y 93 X -95 Y 93 X -144 Y 93 X -43 Y 1302 X s 1 0.8 0.4 c black 1 0.8 0.4 c 319 584 m 485 Y 93 X -16 Y 93 X -77 Y 93 X -110 Y 93 X -95 Y 93 X -144 Y 93 X -43 Y 1302 X f black 1 0.8 0.4 c black 319 1069 m 93 X -16 Y 93 X
 -77 Y 93 X -110 Y 93 X -95 Y 93 X -144 Y 93 X -43 Y 1302 X s 0.999 0.999 0.999 c black 0.999 0.999 0.999 c 319 584 m 328 Y 93 X 10 Y 93 X -76 Y 93 X -96 Y 93 X -77 Y 93 X -89 Y 1395 X f black 0.999 0.999 0.999 c black 319 912 m 93 X 10 Y 93 X -76 Y
 93 X -96 Y 93 X -77 Y 93 X -89 Y 1395 X s 1 1 1 c black 319 912 m 93 X 10 Y 93 X -76 Y 93 X -96 Y 93 X -77 Y 93 X -89 Y 1395 X s 1 0.4 0.6 c black 1 0.4 0.6 c 319 584 m 328 Y 93 X 10 Y 93 X -76 Y 93 X -96 Y 93 X -77 Y 93 X -89 Y 1395 X f black 1 0.4
 0.6 c black 319 912 m 93 X 10 Y 93 X -76 Y 93 X -96 Y 93 X -77 Y 93 X -89 Y 1395 X s 0.999 0.999 0.999 c black 0.999 0.999 0.999 c 319 584 m 170 Y 93 X 61 Y 93 X -41 Y 93 X -63 Y 93 X -83 Y 93 X -44 Y 1395 X f black 0.999 0.999 0.999 c black 319 754
 m 93 X 61 Y 93 X -41 Y 93 X -63 Y 93 X -83 Y 93 X -44 Y 1395 X s 1 1 1 c black 319 754 m 93 X 61 Y 93 X -41 Y 93 X -63 Y 93 X -83 Y 93 X -44 Y 1395 X s 0 0 0.4 c black 0 0 0.4 c 319 584 m 170 Y 93 X 61 Y 93 X -41 Y 93 X -63 Y 93 X -83 Y 93 X -44 Y
 1395 X f black 0 0 0.4 c black 319 754 m 93 X 61 Y 93 X -41 Y 93 X -63 Y 93 X -83 Y 93 X -44 Y 1395 X s 1 0 0 c 6 lw 1 1 1 c black 1 0 0 c 319 1140 m 93 X -21 Y 93 X -88 Y 93 X -111 Y 93 X -104 Y 93 X -134 Y 93 X -56 Y 93 X -42 Y 1209 X s black 3 lw
 1 0 0 c 1 lw << /PatternType 1 /PaintType 2 /TilingType 1 /BBox [ 0 0 100 100 ] /XStep 100 /YStep 100 /PaintProc { begin gsave 0 100 m 100 0 l s gr end } >> [ 0.24 0 0 0.24 0 0 ] makepattern /P05 exch def /cs {[/Pattern /DeviceRGB] setcolorspace}
 def /FA {f [/DeviceRGB] setcolorspace} def cs 1 0 0 P05 setcolor 319 584 m 560 Y 93 X -21 Y 93 X -86 Y 93 X -107 Y 93 X -97 Y 93 X -123 Y 93 X -58 Y 93 X -34 Y 93 X -34 Y -93 X 1 Y -93 X 53 Y -93 X 157 Y -93 X 113 Y -93 X 117 Y -93 X 90 Y -93 X 20 Y
 -93 X -551 Y FA 6 lw 1 1 1 c 15 lw 645 916 m -4 Y s 645 912 m cl s 738 825 m 23 Y s 738 848 m cl s 738 784 m -55 Y s 738 729 m cl s 924 774 m 41 Y s 924 815 m cl s 924 733 m -108 Y s 924 625 m cl s black 1 1 1 c 3 lw /w 43 def /w2 {w 2 div} def /w3
 {w 3 div} def 366 1129 459 1110 552 1017 645 937 738 805 5 { m20} R 15 lw 3 lw 924 754 m20 15 lw black 6 lw 1 1 1 c black 3 lw /w 33 def /w2 {w 2 div} def /w3 {w 3 div} def 366 1129 m20 6 lw 3 lw 459 1110 m20 6 lw 3 lw 552 1017 m20 6 lw 645 911 m 12
 Y s 645 950 m 5 Y s 3 lw 645 937 m20 6 lw 738 714 m 77 Y s 738 818 m 26 Y s 3 lw 738 805 m20 6 lw 924 584 m 156 Y s 924 767 m 38 Y s 3 lw 924 754 m20 6 lw 645 950 m 6 Y s 645 956 m cl s 645 923 m -11 Y s 645 912 m cl s 738 818 m 30 Y s 738 848 m cl
 s 738 791 m -62 Y s 738 729 m cl s 924 767 m 48 Y s 924 815 m cl s 924 740 m -115 Y s 924 625 m cl s 3 lw 366 1129 459 1110 552 1017 645 937 738 805 5 { m20} R 6 lw 3 lw 924 754 m20 6 lw 3 lw 319 584 m 1860 X s 435 584 m cl s 482 584 m cl s 528 584
 m cl s 575 584 m cl s 621 584 m cl s 668 584 m cl s 714 584 m cl s 761 584 m cl s 807 584 m cl s 854 584 m cl s 900 584 m cl s 947 584 m cl s 993 584 m cl s 1040 584 m cl s 1087 584 m cl s 1133 584 m cl s 1180 584 m cl s 1226 584 m cl s 1273 584 m
 cl s 1319 584 m cl s 1366 584 m cl s 1412 584 m cl s 1459 584 m cl s 1505 584 m cl s 1552 584 m cl s 1598 584 m cl s 1645 584 m cl s 1691 584 m cl s 1738 584 m cl s 1784 584 m cl s 1831 584 m cl s 1877 584 m cl s 1924 584 m cl s 1970 584 m cl s 2017
 584 m cl s 2063 584 m cl s 435 584 m cl s 389 584 m cl s 342 584 m cl s 2063 584 m cl s 2110 584 m cl s 2156 584 m cl s 319 1729 m 1860 X s 435 1729 m cl s 482 1729 m cl s 528 1729 m cl s 575 1729 m cl s 621 1729 m cl s 668 1729 m cl s 714 1729 m cl
 s 761 1729 m cl s 807 1729 m cl s 854 1729 m cl s 900 1729 m cl s 947 1729 m cl s 993 1729 m cl s 1040 1729 m cl s 1087 1729 m cl s 1133 1729 m cl s 1180 1729 m cl s 1226 1729 m cl s 1273 1729 m cl s 1319 1729 m cl s 1366 1729 m cl s 1412 1729 m cl
 s 1459 1729 m cl s 1505 1729 m cl s 1552 1729 m cl s 1598 1729 m cl s 1645 1729 m cl s 1691 1729 m cl s 1738 1729 m cl s 1784 1729 m cl s 1831 1729 m cl s 1877 1729 m cl s 1924 1729 m cl s 1970 1729 m cl s 2017 1729 m cl s 2063 1729 m cl s 435 1729
 m cl s 389 1729 m cl s 342 1729 m cl s 2063 1729 m cl s 2110 1729 m cl s 2156 1729 m cl s 319 584 m 1145 Y s 341 635 m -22 X s 341 665 m -22 X s 341 686 m -22 X s 341 703 m -22 X s 341 716 m -22 X s 341 727 m -22 X s 341 737 m -22 X s 341 746 m -22
 X s 363 754 m -44 X s 341 805 m -22 X s 341 835 m -22 X s 341 856 m -22 X s 341 872 m -22 X s 341 886 m -22 X s 341 897 m -22 X s 341 907 m -22 X s 341 915 m -22 X s 363 923 m -44 X s 341 974 m -22 X s 341 1004 m -22 X s 341 1025 m -22 X s 341 1042
 m -22 X s 341 1055 m -22 X s 341 1066 m -22 X s 341 1076 m -22 X s 341 1085 m -22 X s 363 1092 m -44 X s 341 1143 m -22 X s 341 1173 m -22 X s 341 1194 m -22 X s 341 1211 m -22 X s 341 1224 m -22 X s 341 1236 m -22 X s 341 1245 m -22 X s 341 1254 m
 -22 X s 363 1262 m -44 X s 341 1313 m -22 X s 341 1343 m -22 X s 341 1364 m -22 X s 341 1380 m -22 X s 341 1394 m -22 X s 341 1405 m -22 X s 341 1415 m -22 X s 341 1424 m -22 X s 363 1431 m -44 X s 341 1482 m -22 X s 341 1512 m -22 X s 341 1533 m
 -22 X s 341 1550 m -22 X s 341 1563 m -22 X s 341 1574 m -22 X s 341 1584 m -22 X s 341 1593 m -22 X s 363 1601 m -44 X s 341 1652 m -22 X s 341 1682 m -22 X s 341 1703 m -22 X s 341 1719 m -22 X s 2179 584 m 1145 Y s 2157 635 m 22 X s 2157 665 m 22
 X s 2157 686 m 22 X s 2157 703 m 22 X s 2157 716 m 22 X s 2157 727 m 22 X s 2157 737 m 22 X s 2157 746 m 22 X s 2136 754 m 43 X s 2157 805 m 22 X s 2157 835 m 22 X s 2157 856 m 22 X s 2157 872 m 22 X s 2157 886 m 22 X s 2157 897 m 22 X s 2157 907 m
 22 X s 2157 915 m 22 X s 2136 923 m 43 X s 2157 974 m 22 X s 2157 1004 m 22 X s 2157 1025 m 22 X s 2157 1042 m 22 X s 2157 1055 m 22 X s 2157 1066 m 22 X s 2157 1076 m 22 X s 2157 1085 m 22 X s 2136 1092 m 43 X s 2157 1143 m 22 X s 2157 1173 m 22 X
 s 2157 1194 m 22 X s 2157 1211 m 22 X s 2157 1224 m 22 X s 2157 1236 m 22 X s 2157 1245 m 22 X s 2157 1254 m 22 X s 2136 1262 m 43 X s 2157 1313 m 22 X s 2157 1343 m 22 X s 2157 1364 m 22 X s 2157 1380 m 22 X s 2157 1394 m 22 X s 2157 1405 m 22 X s
 2157 1415 m 22 X s 2157 1424 m 22 X s 2136 1431 m 43 X s 2157 1482 m 22 X s 2157 1512 m 22 X s 2157 1533 m 22 X s 2157 1550 m 22 X s 2157 1563 m 22 X s 2157 1574 m 22 X s 2157 1584 m 22 X s 2157 1593 m 22 X s 2136 1601 m 43 X s 2157 1652 m 22 X s
 2157 1682 m 22 X s 2157 1703 m 22 X s 2157 1719 m 22 X s
 gsave  2263 1770 2 313 C 406.765 1447.41 t 0 r /Helvetica findfont 64.4212 sf 0 0 m (VR0LdPhi for MB\255GGd) show NC gr 
 gsave  2263 1770 2 313 C 1464.36 1630.45 t 0 r /Helvetica findfont 64.4212 sf 0 0 m (SM Total) show NC gr  1 1 1 c 1338 1616 m 107 X 64 Y -107 X f 1 0 0 c 6 lw 1338 1648 m 107 X s black
 gsave  2263 1770 2 313 C 1464.36 1538.93 t 0 r /Helvetica findfont 64.4212 sf 0 0 m (Data) show NC gr  1391 1529 m 55 Y s 3 lw 1391 1557 m20 6 lw
 gsave  2263 1770 2 313 C 1464.36 1447.41 t 0 r /Helvetica findfont 64.4212 sf 0 0 m (W+jets) show NC gr  0.4 0.6 1 c 3 lw 1338 1434 m 107 X 64 Y -107 X f 6 lw black 3 lw 1338 1498 m 107 X s 1338 1434 m 107 X s 1445 1434 m 64 Y s 1338 1434 m 64 Y s
 gsave  2263 1770 2 313 C 1498.25 1355.88 t 0 r /Helvetica findfont 64.4212 sf 0 0 m (\(+EW\) & single top) show NC gr 
 gsave  2263 1770 2 313 C 1481.3 1355.88 t 0 r /Helvetica findfont 64.4212 sf 0 0 m (t) show NC gr  1481 1407 m 17 X s
 gsave  2263 1770 2 313 C 1464.36 1355.88 t 0 r /Helvetica findfont 64.4212 sf 0 0 m (t) show NC gr  0.6 1 0.6 c 1338 1343 m 107 X 63 Y -107 X f black 1338 1406 m 107 X s 1338 1343 m 107 X s 1445 1343 m 63 Y s 1338 1343 m 63 Y s
 gsave  2263 1770 2 313 C 1464.36 1264.36 t 0 r /Helvetica findfont 64.4212 sf 0 0 m (Z+jets) show NC gr  1 0.8 0.4 c 1338 1252 m 107 X 63 Y -107 X f black 1338 1315 m 107 X s 1338 1252 m 107 X s 1445 1252 m 63 Y s 1338 1252 m 63 Y s
 gsave  2263 1770 2 313 C 1464.36 1172.84 t 0 r /Helvetica findfont 64.4212 sf 0 0 m (Diboson) show NC gr  1 0.4 0.6 c 1338 1161 m 107 X 63 Y -107 X f black 1338 1224 m 107 X s 1338 1161 m 107 X s 1445 1161 m 63 Y s 1338 1161 m 63 Y s
 gsave  2263 1770 2 313 C 1464.36 1081.32 t 0 r /Helvetica findfont 64.4212 sf 0 0 m (Multi\255jet) show NC gr  0 0 0.4 c 1338 1070 m 107 X 63 Y -107 X f black 1338 1133 m 107 X s 1338 1070 m 107 X s 1445 1070 m 63 Y s 1338 1070 m 63 Y s
 gsave  2263 1770 2 313 C 911.832 1566.05 t 0 r /Helvetica findfont 44.0776 sf 0 0 m (\2551) show NC gr 
 gsave  2263 1770 2 313 C 471.17 1535.54 t 0 r /Helvetica findfont 64.4212 sf 0 0 m (=13TeV, 139 fb) show NC gr 
 gsave  2263 1770 2 313 C 440.662 1535.54 t 0 r /Helvetica findfont 64.4212 sf 0 0 m (s) show NC gr  6 lw 420 1573 m 7 -41 d s 3 lw 427 1532 m 7 61 d s 434 1593 m 37 X s 1 1 1 c 2254 561 2 2 bf black 1 1 1 c black 1860 358 318 187 bl 1 1 1 c black
 1860 358 318 187 bl 6 lw 1 1 1 c black 3 lw 364 345 m20 6 lw 3 lw 457 346 m20 6 lw 3 lw 550 338 m20 6 lw 3 lw 643 407 m20 6 lw 3 lw 736 342 m20 6 lw 3 lw 318 187 m 1860 X s
 gsave  2254 561 2 2 C 1959.25 44.0662 t 0 r /Helvetica findfont 78.1689 sf 0 0 m ( [GeV]) show NC gr 
 gsave  2254 561 2 2 C 1928.75 -2.35513e-13 t 0 r /Helvetica findfont 50.9797 sf 0 0 m (T) show NC gr 
 gsave  2254 561 2 2 C 1657.57 44.0662 t 0 r /Helvetica findfont 78.1689 sf 0 0 m (1st jet p) show NC gr  434 201 m -14 Y s 481 194 m -7 Y s 527 194 m -7 Y s 574 194 m -7 Y s 620 194 m -7 Y s 667 201 m -14 Y s 713 194 m -7 Y s 760 194 m -7 Y s 806
 194 m -7 Y s 853 194 m -7 Y s 899 201 m -14 Y s 946 194 m -7 Y s 992 194 m -7 Y s 1039 194 m -7 Y s 1085 194 m -7 Y s 1132 201 m -14 Y s 1178 194 m -7 Y s 1225 194 m -7 Y s 1271 194 m -7 Y s 1318 194 m -7 Y s 1364 201 m -14 Y s 1411 194 m -7 Y s
 1457 194 m -7 Y s 1504 194 m -7 Y s 1550 194 m -7 Y s 1597 201 m -14 Y s 1643 194 m -7 Y s 1690 194 m -7 Y s 1737 194 m -7 Y s 1783 194 m -7 Y s 1830 201 m -14 Y s 1876 194 m -7 Y s 1923 194 m -7 Y s 1969 194 m -7 Y s 2016 194 m -7 Y s 2062 201 m
 -14 Y s 434 201 m -14 Y s 388 194 m -7 Y s 341 194 m -7 Y s 2062 201 m -14 Y s 2109 194 m -7 Y s 2155 194 m -7 Y s
 gsave  2254 561 2 2 C 369.478 118.64 t 0 r /Helvetica findfont 78.1689 sf 0 0 m (500) show NC gr 
 gsave  2254 561 2 2 C 576.251 118.64 t 0 r /Helvetica findfont 78.1689 sf 0 0 m (1000) show NC gr 
 gsave  2254 561 2 2 C 810.141 118.64 t 0 r /Helvetica findfont 78.1689 sf 0 0 m (1500) show NC gr 
 gsave  2254 561 2 2 C 1040.64 118.64 t 0 r /Helvetica findfont 78.1689 sf 0 0 m (2000) show NC gr 
 gsave  2254 561 2 2 C 1274.53 118.64 t 0 r /Helvetica findfont 78.1689 sf 0 0 m (2500) show NC gr 
 gsave  2254 561 2 2 C 1508.42 118.64 t 0 r /Helvetica findfont 78.1689 sf 0 0 m (3000) show NC gr 
 gsave  2254 561 2 2 C 1738.92 118.64 t 0 r /Helvetica findfont 78.1689 sf 0 0 m (3500) show NC gr 
 gsave  2254 561 2 2 C 1972.81 118.64 t 0 r /Helvetica findfont 78.1689 sf 0 0 m (4000) show NC gr  318 545 m 1860 X s 434 531 m 14 Y s 481 538 m 7 Y s 527 538 m 7 Y s 574 538 m 7 Y s 620 538 m 7 Y s 667 531 m 14 Y s 713 538 m 7 Y s 760 538 m 7 Y s
 806 538 m 7 Y s 853 538 m 7 Y s 899 531 m 14 Y s 946 538 m 7 Y s 992 538 m 7 Y s 1039 538 m 7 Y s 1085 538 m 7 Y s 1132 531 m 14 Y s 1178 538 m 7 Y s 1225 538 m 7 Y s 1271 538 m 7 Y s 1318 538 m 7 Y s 1364 531 m 14 Y s 1411 538 m 7 Y s 1457 538 m 7
 Y s 1504 538 m 7 Y s 1550 538 m 7 Y s 1597 531 m 14 Y s 1643 538 m 7 Y s 1690 538 m 7 Y s 1737 538 m 7 Y s 1783 538 m 7 Y s 1830 531 m 14 Y s 1876 538 m 7 Y s 1923 538 m 7 Y s 1969 538 m 7 Y s 2016 538 m 7 Y s 2062 531 m 14 Y s 434 531 m 14 Y s 388
 538 m 7 Y s 341 538 m 7 Y s 2062 531 m 14 Y s 2109 538 m 7 Y s 2155 538 m 7 Y s 318 187 m 358 Y s
 gsave  2254 561 2 2 C 166.096 284.736 t 90 r /Helvetica findfont 67.9729 sf 0 0 m (Data/SM) show NC gr  361 203 m -43 X s 339 220 m -21 X s 339 236 m -21 X s 339 252 m -21 X s 339 268 m -21 X s 361 285 m -43 X s 339 301 m -21 X s 339 317 m -21 X s
 339 334 m -21 X s 339 350 m -21 X s 361 366 m -43 X s 339 382 m -21 X s 339 399 m -21 X s 339 415 m -21 X s 339 431 m -21 X s 361 447 m -43 X s 339 464 m -21 X s 339 480 m -21 X s 339 496 m -21 X s 339 512 m -21 X s 361 529 m -43 X s 361 203 m -43 X
 s 339 187 m -21 X s 361 529 m -43 X s
 gsave  2254 561 2 2 C 261.008 183.044 t 0 r /Helvetica findfont 57.777 sf 0 0 m (0) show NC gr 
 gsave  2254 561 2 2 C 213.552 261.008 t 0 r /Helvetica findfont 57.777 sf 0 0 m (0.5) show NC gr 
 gsave  2254 561 2 2 C 271.177 342.361 t 0 r /Helvetica findfont 57.777 sf 0 0 m (1) show NC gr 
 gsave  2254 561 2 2 C 213.552 423.714 t 0 r /Helvetica findfont 57.777 sf 0 0 m (1.5) show NC gr 
 gsave  2254 561 2 2 C 261.008 505.067 t 0 r /Helvetica findfont 57.777 sf 0 0 m (2) show NC gr  2178 187 m 358 Y s 2135 203 m 43 X s 2157 220 m 21 X s 2157 236 m 21 X s 2157 252 m 21 X s 2157 268 m 21 X s 2135 285 m 43 X s 2157 301 m 21 X s 2157 317
 m 21 X s 2157 334 m 21 X s 2157 350 m 21 X s 2135 366 m 43 X s 2157 382 m 21 X s 2157 399 m 21 X s 2157 415 m 21 X s 2157 431 m 21 X s 2135 447 m 43 X s 2157 464 m 21 X s 2157 480 m 21 X s 2157 496 m 21 X s 2157 512 m 21 X s 2135 529 m 43 X s 2135
 203 m 43 X s 2157 187 m 21 X s 2135 529 m 43 X s 9 lw 550 352 m 9 Y s 550 361 m cl s 550 325 m -9 Y s 550 316 m cl s 643 421 m 47 Y s 643 468 m cl s 643 394 m -44 Y s 643 350 m cl s 736 356 m 99 Y s 736 455 m cl s 736 329 m -76 Y s 736 253 m cl s
 923 545 m -180 Y s 923 365 m cl s 3 lw 364 345 457 346 550 338 643 407 736 342 5 { m20} R 9 lw 1 0 0 c 6 lw black 3 lw 1 0 0 c 2155 203 m cl s 2127 203 m cl s 2098 203 m cl s 2069 203 m cl s 2040 203 m cl s 2012 203 m cl s 1983 203 m cl s 1954 203 m
 cl s 1926 203 m cl s 1897 203 m cl s 1868 203 m cl s 1840 203 m cl s 1811 203 m cl s 1782 203 m cl s 1754 203 m cl s 1725 203 m cl s 1696 203 m cl s 1667 203 m cl s 1639 203 m cl s 1610 203 m cl s 1581 203 m cl s 1553 203 m cl s 1524 203 m cl s 1495
 203 m cl s 1467 203 m cl s 1438 203 m cl s 1409 203 m cl s 1381 203 m cl s 1352 203 m cl s 1323 203 m cl s 1294 203 m cl s 1266 203 m cl s 1248 214 m -27 -27 d s 1248 243 m -56 -56 d s 1248 272 m -85 -85 d s 1248 300 m -113 -113 d s 1248 329 m -142
 -142 d s 1248 357 m -171 -170 d s 1248 386 m -186 -186 d s 1248 415 m -186 -186 d s 1248 443 m -186 -185 d s 1248 472 m -208 -208 d s 1248 500 m -237 -236 d s 1248 529 m -266 -265 d s 1236 545 m -267 -266 d s 1207 545 m -250 -249 d s 1178 545 m -249
 -249 d s 1149 545 m -249 -249 d s 1121 545 m -59 -59 d s 1044 468 m -177 -175 d s 1092 545 m -30 -30 d s 1015 468 m -176 -175 d s 1063 545 m -1 -1 d s 986 468 m -17 -17 d s 954 436 m -144 -143 d s 925 436 m -142 -142 d s 896 436 m -113 -113 d s 872
 440 m -116 -115 d s 843 440 m -115 -115 d s 814 440 m -31 -32 d s 782 407 m -83 -82 d s 785 440 m -2 -3 d s 753 407 m -66 -66 d s 725 407 m -67 -66 d s 696 407 m -6 -5 d s 680 391 m -51 -50 d s 651 391 m -51 -50 d s 622 391 m -38 -38 d s 581 379 m
 -25 -26 d s 552 379 m -25 -26 d s 523 379 m -21 -22 d s 492 375 m -19 -18 d s 463 375 m -19 -18 d s 318 231 m s 434 375 m -18 -18 d s 318 259 m s 406 376 m -20 -20 d s 318 288 m s 378 376 m -21 -20 d s 318 317 m s 349 376 m -21 -20 d s 318 345 m s
 320 376 m -2 -2 d s 6 lw black[ 4 8] 0 sd 3 lw 318 447 m 1860 X s 318 285 m 1860 X s 1 0 0 c[  12 12 ] 0 sd 6 lw 318 366 m 1860 X s
 gr  gr showpage
end
%%EOF
