%!PS-Adobe-2.0 EPSF-2.0
%%BoundingBox:  0 0 567 521
%%Title: Distributions/jetPt_0__distrCRT_MB-C_afterFit_forThesis.eps: canvas
%%Creator: ROOT Version 6.04/16
%%CreationDate: Tue May 19 22:02:37 2020
%%DocumentNeededResources: ProcSet (FontSetInit)
%%EndComments
%%BeginProlog
80 dict begin
/s {stroke} def /l {lineto} def /m {moveto} def /t {translate} def
/r {rotate} def /rl {roll}  def /R {repeat} def
/d {rlineto} def /rm {rmoveto} def /gr {grestore} def /f {eofill} def
/c {setrgbcolor} def /black {0 setgray} def /sd {setdash} def
/cl {closepath} def /sf {scalefont setfont} def /lw {setlinewidth} def
/box {m dup 0 exch d exch 0 d 0 exch neg d cl} def
/NC{systemdict begin initclip end}def/C{NC box clip newpath}def
/bl {box s} def /bf {gsave box gsave f grestore 1 lw [] 0 sd s grestore} def /Y { 0 exch d} def /X { 0 d} def 
/K {{pop pop 0 moveto} exch kshow} bind def
/ita {/ang 15 def gsave [1 0 ang dup sin exch cos div 1 0 0] concat} def 
/mp {newpath /y exch def /x exch def} def
/side {[w .77 mul w .23 mul] .385 w mul sd w 0 l currentpoint t -144 r} def
/mr {mp x y w2 0 360 arc} def /m24 {mr s} def /m20 {mr f} def
/mb {mp x y w2 add m w2 neg 0 d 0 w neg d w 0 d 0 w d cl} def
/mt {mp x y w2 add m w2 neg w neg d w 0 d cl} def
/m21 {mb f} def /m25 {mb s} def /m22 {mt f} def /m26{mt s} def
/m23 {mp x y w2 sub m w2 w d w neg 0 d cl f} def
/m27 {mp x y w2 add m w3 neg w2 neg d w3 w2 neg d w3 w2 d cl s} def
/m28 {mp x w2 sub y w2 sub w3 add m w3 0 d  0 w3 neg d w3 0 d 0 w3 d w3 0 d  0 w3 d w3 neg 0 d 0 w3 d w3 neg 0 d 0 w3 neg d w3 neg 0 d cl s } def
/m29 {mp gsave x w2 sub y w2 add w3 sub m currentpoint t 4 {side} repeat cl fill gr} def
/m30 {mp gsave x w2 sub y w2 add w3 sub m currentpoint t 4 {side} repeat cl s gr} def
/m31 {mp x y w2 sub m 0 w d x w2 sub y m w 0 d x w2 sub y w2 add m w w neg d x w2 sub y w2 sub m w w d s} def
/m32 {mp x y w2 sub m w2 w d w neg 0 d cl s} def
/m33 {mp x y w2 add m w3 neg w2 neg d w3 w2 neg d w3 w2 d cl f} def
/m34 {mp x w2 sub y w2 sub w3 add m w3 0 d  0 w3 neg d w3 0 d 0 w3 d w3 0 d  0 w3 d w3 neg 0 d 0 w3 d w3 neg 0 d 0 w3 neg d w3 neg 0 d cl f } def
/m2 {mp x y w2 sub m 0 w d x w2 sub y m w 0 d s} def
/m5 {mp x w2 sub y w2 sub m w w d x w2 sub y w2 add m w w neg d s} def
%%IncludeResource: ProcSet (FontSetInit)
%%IncludeResource: font Times-Roman
%%IncludeResource: font Times-Italic
%%IncludeResource: font Times-Bold
%%IncludeResource: font Times-BoldItalic
%%IncludeResource: font Helvetica
%%IncludeResource: font Helvetica-Oblique
%%IncludeResource: font Helvetica-Bold
%%IncludeResource: font Helvetica-BoldOblique
%%IncludeResource: font Courier
%%IncludeResource: font Courier-Oblique
%%IncludeResource: font Courier-Bold
%%IncludeResource: font Courier-BoldOblique
%%IncludeResource: font Symbol
%%IncludeResource: font ZapfDingbats
/reEncode {exch findfont dup length dict begin {1 index /FID eq  {pop pop} {def} ifelse } forall /Encoding exch def currentdict end dup /FontName get exch definefont pop } def [/Times-Bold /Times-Italic /Times-BoldItalic /Helvetica /Helvetica-Oblique
 /Helvetica-Bold /Helvetica-BoldOblique /Courier /Courier-Oblique /Courier-Bold /Courier-BoldOblique /Times-Roman /AvantGarde-Book /AvantGarde-BookOblique /AvantGarde-Demi /AvantGarde-DemiOblique /Bookman-Demi /Bookman-DemiItalic /Bookman-Light
 /Bookman-LightItalic /Helvetica-Narrow /Helvetica-Narrow-Bold /Helvetica-Narrow-BoldOblique /Helvetica-Narrow-Oblique /NewCenturySchlbk-Roman /NewCenturySchlbk-Bold /NewCenturySchlbk-BoldItalic /NewCenturySchlbk-Italic /Palatino-Bold
 /Palatino-BoldItalic /Palatino-Italic /Palatino-Roman ] {ISOLatin1Encoding reEncode } forall
%%EndProlog
%%BeginSetup
%%EndSetup
newpath  gsave  .25 .25 scale  gsave  0 0 t black[  ] 0 sd 3 lw 1 1 1 c 2268 2085 0 0 bf black 1 1 1 c 2263 1770 2 313 bf black 1 1 1 c black 1860 1145 319 584 bl 1 1 1 c black 1860 1145 319 584 bl 6 lw 1 1 1 c black 3 lw /w 33 def /w2 {w 2 div} def
 /w3 {w 3 div} def 459 1036 m20 6 lw 3 lw 552 1131 m20 6 lw 3 lw 645 1098 m20 6 lw 3 lw 738 1025 m20 6 lw 3 lw 831 965 m20 6 lw 924 871 m 3 Y s 3 lw 924 887 m20 6 lw 1017 761 m 27 Y s 1017 816 m 10 Y s 3 lw 1017 802 m20 6 lw 1110 584 m 123 Y s 1110
 734 m 27 Y s 3 lw 1110 720 m20 6 lw 1296 584 m 123 Y s 1296 734 m 27 Y s 3 lw 1296 720 m20 6 lw 3 lw 319 584 m 1860 X s
 gsave  2263 1770 2 313 C 1949.08 376.258 t 0 r /Helvetica findfont 81.3741 sf 0 0 m ( [GeV]) show NC gr 
 gsave  2263 1770 2 313 C 1915.19 332.192 t 0 r /Helvetica findfont 54.2494 sf 0 0 m (T) show NC gr 
 gsave  2263 1770 2 313 C 1630.45 376.258 t 0 r /Helvetica findfont 81.3741 sf 0 0 m (1st jet p) show NC gr  435 584 m cl s 482 584 m cl s 528 584 m cl s 575 584 m cl s 621 584 m cl s 668 584 m cl s 714 584 m cl s 761 584 m cl s 807 584 m cl s 854
 584 m cl s 900 584 m cl s 947 584 m cl s 993 584 m cl s 1040 584 m cl s 1087 584 m cl s 1133 584 m cl s 1180 584 m cl s 1226 584 m cl s 1273 584 m cl s 1319 584 m cl s 1366 584 m cl s 1412 584 m cl s 1459 584 m cl s 1505 584 m cl s 1552 584 m cl s
 1598 584 m cl s 1645 584 m cl s 1691 584 m cl s 1738 584 m cl s 1784 584 m cl s 1831 584 m cl s 1877 584 m cl s 1924 584 m cl s 1970 584 m cl s 2017 584 m cl s 2063 584 m cl s 435 584 m cl s 389 584 m cl s 342 584 m cl s 2063 584 m cl s 2110 584 m
 cl s 2156 584 m cl s 319 1729 m 1860 X s 435 1729 m cl s 482 1729 m cl s 528 1729 m cl s 575 1729 m cl s 621 1729 m cl s 668 1729 m cl s 714 1729 m cl s 761 1729 m cl s 807 1729 m cl s 854 1729 m cl s 900 1729 m cl s 947 1729 m cl s 993 1729 m cl s
 1040 1729 m cl s 1087 1729 m cl s 1133 1729 m cl s 1180 1729 m cl s 1226 1729 m cl s 1273 1729 m cl s 1319 1729 m cl s 1366 1729 m cl s 1412 1729 m cl s 1459 1729 m cl s 1505 1729 m cl s 1552 1729 m cl s 1598 1729 m cl s 1645 1729 m cl s 1691 1729 m
 cl s 1738 1729 m cl s 1784 1729 m cl s 1831 1729 m cl s 1877 1729 m cl s 1924 1729 m cl s 1970 1729 m cl s 2017 1729 m cl s 2063 1729 m cl s 435 1729 m cl s 389 1729 m cl s 342 1729 m cl s 2063 1729 m cl s 2110 1729 m cl s 2156 1729 m cl s 319 584 m
 1145 Y s
 gsave  2263 1770 2 313 C 166.096 1091.49 t 90 r /Helvetica findfont 81.3741 sf 0 0 m (Events / 200 GeV) show NC gr  341 625 m -22 X s 341 649 m -22 X s 341 666 m -22 X s 341 679 m -22 X s 341 690 m -22 X s 341 699 m -22 X s 341 707 m -22 X s 341 714
 m -22 X s 363 720 m -44 X s
 gsave  2263 1770 2 313 C 300.555 693.055 t 0 r  -36 0 t /Helvetica findfont 64.4212 sf 0 0 m (1) show NC gr  341 761 m -22 X s 341 785 m -22 X s 341 802 m -22 X s 341 815 m -22 X s 341 826 m -22 X s 341 835 m -22 X s 341 843 m -22 X s 341 850 m -22
 X s 363 856 m -44 X s
 gsave  2263 1770 2 313 C 300.555 828.919 t 0 r  -73 0 t /Helvetica findfont 64.4212 sf 0 0 m (10) show NC gr  341 897 m -22 X s 341 921 m -22 X s 341 938 m -22 X s 341 951 m -22 X s 341 962 m -22 X s 341 971 m -22 X s 341 979 m -22 X s 341 986 m -22
 X s 363 992 m -44 X s
 gsave  2263 1770 2 313 C 274.567 989.796 t 0 r /Helvetica findfont 44.0776 sf 0 0 m (2) show NC gr 
 gsave  2263 1770 2 313 C 203.383 962.678 t 0 r /Helvetica findfont 64.4212 sf 0 0 m (10) show NC gr  341 1033 m -22 X s 341 1057 m -22 X s 341 1074 m -22 X s 341 1087 m -22 X s 341 1098 m -22 X s 341 1107 m -22 X s 341 1115 m -22 X s 341 1122 m -22
 X s 363 1128 m -44 X s
 gsave  2263 1770 2 313 C 274.567 1128.77 t 0 r /Helvetica findfont 44.0776 sf 0 0 m (3) show NC gr 
 gsave  2263 1770 2 313 C 203.383 1098.27 t 0 r /Helvetica findfont 64.4212 sf 0 0 m (10) show NC gr  341 1169 m -22 X s 341 1193 m -22 X s 341 1210 m -22 X s 341 1223 m -22 X s 341 1233 m -22 X s 341 1243 m -22 X s 341 1250 m -22 X s 341 1257 m -22
 X s 363 1264 m -44 X s
 gsave  2263 1770 2 313 C 274.567 1260.97 t 0 r /Helvetica findfont 44.0776 sf 0 0 m (4) show NC gr 
 gsave  2263 1770 2 313 C 203.383 1233.85 t 0 r /Helvetica findfont 64.4212 sf 0 0 m (10) show NC gr  341 1305 m -22 X s 341 1328 m -22 X s 341 1345 m -22 X s 341 1359 m -22 X s 341 1369 m -22 X s 341 1378 m -22 X s 341 1386 m -22 X s 341 1393 m -22
 X s 363 1399 m -44 X s
 gsave  2263 1770 2 313 C 274.567 1399.95 t 0 r /Helvetica findfont 44.0776 sf 0 0 m (5) show NC gr 
 gsave  2263 1770 2 313 C 203.383 1369.44 t 0 r /Helvetica findfont 64.4212 sf 0 0 m (10) show NC gr  341 1440 m -22 X s 341 1464 m -22 X s 341 1481 m -22 X s 341 1494 m -22 X s 341 1505 m -22 X s 341 1514 m -22 X s 341 1522 m -22 X s 341 1529 m -22
 X s 363 1535 m -44 X s
 gsave  2263 1770 2 313 C 274.567 1535.54 t 0 r /Helvetica findfont 44.0776 sf 0 0 m (6) show NC gr 
 gsave  2263 1770 2 313 C 203.383 1505.03 t 0 r /Helvetica findfont 64.4212 sf 0 0 m (10) show NC gr  341 1576 m -22 X s 341 1600 m -22 X s 341 1617 m -22 X s 341 1630 m -22 X s 341 1641 m -22 X s 341 1650 m -22 X s 341 1658 m -22 X s 341 1665 m -22
 X s 363 1671 m -44 X s
 gsave  2263 1770 2 313 C 274.567 1671.13 t 0 r /Helvetica findfont 44.0776 sf 0 0 m (7) show NC gr 
 gsave  2263 1770 2 313 C 203.383 1644.01 t 0 r /Helvetica findfont 64.4212 sf 0 0 m (10) show NC gr  341 1712 m -22 X s 2179 584 m 1145 Y s 2157 625 m 22 X s 2157 649 m 22 X s 2157 666 m 22 X s 2157 679 m 22 X s 2157 690 m 22 X s 2157 699 m 22 X s
 2157 707 m 22 X s 2157 714 m 22 X s 2136 720 m 43 X s 2157 761 m 22 X s 2157 785 m 22 X s 2157 802 m 22 X s 2157 815 m 22 X s 2157 826 m 22 X s 2157 835 m 22 X s 2157 843 m 22 X s 2157 850 m 22 X s 2136 856 m 43 X s 2157 897 m 22 X s 2157 921 m 22 X
 s 2157 938 m 22 X s 2157 951 m 22 X s 2157 962 m 22 X s 2157 971 m 22 X s 2157 979 m 22 X s 2157 986 m 22 X s 2136 992 m 43 X s 2157 1033 m 22 X s 2157 1057 m 22 X s 2157 1074 m 22 X s 2157 1087 m 22 X s 2157 1098 m 22 X s 2157 1107 m 22 X s 2157
 1115 m 22 X s 2157 1122 m 22 X s 2136 1128 m 43 X s 2157 1169 m 22 X s 2157 1193 m 22 X s 2157 1210 m 22 X s 2157 1223 m 22 X s 2157 1233 m 22 X s 2157 1243 m 22 X s 2157 1250 m 22 X s 2157 1257 m 22 X s 2136 1264 m 43 X s 2157 1305 m 22 X s 2157
 1328 m 22 X s 2157 1345 m 22 X s 2157 1359 m 22 X s 2157 1369 m 22 X s 2157 1378 m 22 X s 2157 1386 m 22 X s 2157 1393 m 22 X s 2136 1399 m 43 X s 2157 1440 m 22 X s 2157 1464 m 22 X s 2157 1481 m 22 X s 2157 1494 m 22 X s 2157 1505 m 22 X s 2157
 1514 m 22 X s 2157 1522 m 22 X s 2157 1529 m 22 X s 2136 1535 m 43 X s 2157 1576 m 22 X s 2157 1600 m 22 X s 2157 1617 m 22 X s 2157 1630 m 22 X s 2157 1641 m 22 X s 2157 1650 m 22 X s 2157 1658 m 22 X s 2157 1665 m 22 X s 2136 1671 m 43 X s 2157
 1712 m 22 X s 0.6 1 0.6 c black 0.6 1 0.6 c 319 584 m 93 X 452 Y 93 X 95 Y 93 X -32 Y 93 X -76 Y 93 X -66 Y 93 X -69 Y 93 X -61 Y 93 X -50 Y 93 X -31 Y 93 X -47 Y 93 X -86 Y 93 X -29 Y 744 X f black 0.6 1 0.6 c black 319 584 m 93 X 452 Y 93 X 95 Y
 93 X -32 Y 93 X -76 Y 93 X -66 Y 93 X -69 Y 93 X -61 Y 93 X -50 Y 93 X -31 Y 93 X -47 Y 93 X -86 Y 93 X -29 Y 744 X s 0.999 0.999 0.999 c black 0.999 0.999 0.999 c 319 584 m 93 X 380 Y 93 X 100 Y 93 X -31 Y 93 X -68 Y 93 X -60 Y 93 X -64 Y 93 X -58
 Y 93 X -42 Y 93 X -36 Y 93 X -59 Y 93 X -46 Y 93 X -16 Y 744 X f black 0.999 0.999 0.999 c black 319 584 m 93 X 380 Y 93 X 100 Y 93 X -31 Y 93 X -68 Y 93 X -60 Y 93 X -64 Y 93 X -58 Y 93 X -42 Y 93 X -36 Y 93 X -59 Y 93 X -46 Y 93 X -16 Y 744 X s 1
 1 1 c black 319 584 m 93 X 380 Y 93 X 100 Y 93 X -31 Y 93 X -68 Y 93 X -60 Y 93 X -64 Y 93 X -58 Y 93 X -42 Y 93 X -36 Y 93 X -59 Y 93 X -46 Y 93 X -16 Y 744 X s 0.4 0.6 1 c black 0.4 0.6 1 c 319 584 m 93 X 380 Y 93 X 100 Y 93 X -31 Y 93 X -68 Y 93
 X -60 Y 93 X -64 Y 93 X -58 Y 93 X -42 Y 93 X -36 Y 93 X -59 Y 93 X -46 Y 93 X -16 Y 744 X f black 0.4 0.6 1 c black 319 584 m 93 X 380 Y 93 X 100 Y 93 X -31 Y 93 X -68 Y 93 X -60 Y 93 X -64 Y 93 X -58 Y 93 X -42 Y 93 X -36 Y 93 X -59 Y 93 X -46 Y
 93 X -16 Y 744 X s 0.999 0.999 0.999 c black 0.999 0.999 0.999 c 319 584 m 93 X 262 Y 93 X 85 Y 93 X -22 Y 93 X -82 Y 93 X -68 Y 93 X -39 Y 93 X -41 Y 93 X -31 Y 93 X -63 Y 93 X -1 Y 930 X f black 0.999 0.999 0.999 c black 319 584 m 93 X 262 Y 93 X
 85 Y 93 X -22 Y 93 X -82 Y 93 X -68 Y 93 X -39 Y 93 X -41 Y 93 X -31 Y 93 X -63 Y 93 X -1 Y 930 X s 1 1 1 c black 319 584 m 93 X 262 Y 93 X 85 Y 93 X -22 Y 93 X -82 Y 93 X -68 Y 93 X -39 Y 93 X -41 Y 93 X -31 Y 93 X -63 Y 93 X -1 Y 930 X s 1 0.8 0.4
 c black 1 0.8 0.4 c 319 584 m 93 X 262 Y 93 X 85 Y 93 X -22 Y 93 X -82 Y 93 X -68 Y 93 X -39 Y 93 X -41 Y 93 X -31 Y 93 X -63 Y 93 X -1 Y 930 X f black 1 0.8 0.4 c black 319 584 m 93 X 262 Y 93 X 85 Y 93 X -22 Y 93 X -82 Y 93 X -68 Y 93 X -39 Y 93 X
 -41 Y 93 X -31 Y 93 X -63 Y 93 X -1 Y 930 X s 0.999 0.999 0.999 c black 0.999 0.999 0.999 c 319 584 m 93 X 258 Y 93 X 83 Y 93 X -23 Y 93 X -82 Y 93 X -66 Y 93 X -37 Y 93 X -40 Y 93 X -33 Y 93 X -60 Y 1023 X f black 0.999 0.999 0.999 c black 319 584
 m 93 X 258 Y 93 X 83 Y 93 X -23 Y 93 X -82 Y 93 X -66 Y 93 X -37 Y 93 X -40 Y 93 X -33 Y 93 X -60 Y 1023 X s 1 1 1 c black 319 584 m 93 X 258 Y 93 X 83 Y 93 X -23 Y 93 X -82 Y 93 X -66 Y 93 X -37 Y 93 X -40 Y 93 X -33 Y 93 X -60 Y 1023 X s 1 0.4 0.6
 c black 1 0.4 0.6 c 319 584 m 93 X 258 Y 93 X 83 Y 93 X -23 Y 93 X -82 Y 93 X -66 Y 93 X -37 Y 93 X -40 Y 93 X -33 Y 93 X -60 Y 1023 X f black 1 0.4 0.6 c black 319 584 m 93 X 258 Y 93 X 83 Y 93 X -23 Y 93 X -82 Y 93 X -66 Y 93 X -37 Y 93 X -40 Y 93
 X -33 Y 93 X -60 Y 1023 X s 1 0 0 c 6 lw 1 1 1 c black 1 0 0 c 319 584 m 93 X 452 Y 93 X 95 Y 93 X -32 Y 93 X -76 Y 93 X -66 Y 93 X -69 Y 93 X -61 Y 93 X -50 Y 93 X -31 Y 93 X -47 Y 93 X -86 Y 93 X -29 Y 744 X s black 3 lw 1 0 0 c 1 lw <<
 /PatternType 1 /PaintType 2 /TilingType 1 /BBox [ 0 0 100 100 ] /XStep 100 /YStep 100 /PaintProc { begin gsave 0 100 m 100 0 l s gr end } >> [ 0.24 0 0 0.24 0 0 ] makepattern /P05 exch def /cs {[/Pattern /DeviceRGB] setcolorspace} def /FA {f
 [/DeviceRGB] setcolorspace} def cs 1 0 0 P05 setcolor 412 584 m 453 Y 93 X 95 Y 93 X -31 Y 93 X -76 Y 93 X -64 Y 93 X -67 Y 93 X -59 Y 93 X -49 Y 93 X -26 Y 93 X -41 Y 93 X -84 Y 93 X -51 Y -93 X 86 Y -93 X 59 Y -93 X 38 Y -93 X 51 Y -93 X 62 Y -93
 X 72 Y -93 X 67 Y -93 X 79 Y -93 X 31 Y -93 X -95 Y -93 X -450 Y FA 6 lw 1 1 1 c 15 lw 1017 822 m 5 Y s 1017 827 m cl s 1017 782 m -18 Y s 1017 764 m cl s 1110 741 m 28 Y s 1110 769 m cl s 1110 700 m -83 Y s 1110 617 m cl s 1296 741 m 28 Y s 1296
 769 m cl s 1296 700 m -83 Y s 1296 617 m cl s black 1 1 1 c 3 lw /w 43 def /w2 {w 2 div} def /w3 {w 3 div} def 459 1036 552 1131 645 1098 738 1025 831 965 924 887 1017 802 1110 720 8 { m20} R 15 lw 3 lw 1296 720 m20 15 lw black 6 lw 1 1 1 c black 3
 lw /w 33 def /w2 {w 2 div} def /w3 {w 3 div} def 459 1036 m20 6 lw 3 lw 552 1131 m20 6 lw 3 lw 645 1098 m20 6 lw 3 lw 738 1025 m20 6 lw 3 lw 831 965 m20 6 lw 924 871 m 3 Y s 3 lw 924 887 m20 6 lw 1017 761 m 27 Y s 1017 816 m 10 Y s 3 lw 1017 802 m20
 6 lw 1110 584 m 123 Y s 1110 734 m 27 Y s 3 lw 1110 720 m20 6 lw 1296 584 m 123 Y s 1296 734 m 27 Y s 3 lw 1296 720 m20 6 lw 924 874 m -3 Y s 924 871 m cl s 1017 816 m 11 Y s 1017 827 m cl s 1017 788 m -24 Y s 1017 764 m cl s 1110 734 m 35 Y s 1110
 769 m cl s 1110 707 m -90 Y s 1110 617 m cl s 1296 734 m 35 Y s 1296 769 m cl s 1296 707 m -90 Y s 1296 617 m cl s 3 lw 459 1036 552 1131 645 1098 738 1025 831 965 924 887 1017 802 1110 720 8 { m20} R 6 lw 3 lw 1296 720 m20 6 lw 3 lw 319 584 m 1860
 X s 435 584 m cl s 482 584 m cl s 528 584 m cl s 575 584 m cl s 621 584 m cl s 668 584 m cl s 714 584 m cl s 761 584 m cl s 807 584 m cl s 854 584 m cl s 900 584 m cl s 947 584 m cl s 993 584 m cl s 1040 584 m cl s 1087 584 m cl s 1133 584 m cl s
 1180 584 m cl s 1226 584 m cl s 1273 584 m cl s 1319 584 m cl s 1366 584 m cl s 1412 584 m cl s 1459 584 m cl s 1505 584 m cl s 1552 584 m cl s 1598 584 m cl s 1645 584 m cl s 1691 584 m cl s 1738 584 m cl s 1784 584 m cl s 1831 584 m cl s 1877 584
 m cl s 1924 584 m cl s 1970 584 m cl s 2017 584 m cl s 2063 584 m cl s 435 584 m cl s 389 584 m cl s 342 584 m cl s 2063 584 m cl s 2110 584 m cl s 2156 584 m cl s 319 1729 m 1860 X s 435 1729 m cl s 482 1729 m cl s 528 1729 m cl s 575 1729 m cl s
 621 1729 m cl s 668 1729 m cl s 714 1729 m cl s 761 1729 m cl s 807 1729 m cl s 854 1729 m cl s 900 1729 m cl s 947 1729 m cl s 993 1729 m cl s 1040 1729 m cl s 1087 1729 m cl s 1133 1729 m cl s 1180 1729 m cl s 1226 1729 m cl s 1273 1729 m cl s
 1319 1729 m cl s 1366 1729 m cl s 1412 1729 m cl s 1459 1729 m cl s 1505 1729 m cl s 1552 1729 m cl s 1598 1729 m cl s 1645 1729 m cl s 1691 1729 m cl s 1738 1729 m cl s 1784 1729 m cl s 1831 1729 m cl s 1877 1729 m cl s 1924 1729 m cl s 1970 1729 m
 cl s 2017 1729 m cl s 2063 1729 m cl s 435 1729 m cl s 389 1729 m cl s 342 1729 m cl s 2063 1729 m cl s 2110 1729 m cl s 2156 1729 m cl s 319 584 m 1145 Y s 341 625 m -22 X s 341 649 m -22 X s 341 666 m -22 X s 341 679 m -22 X s 341 690 m -22 X s
 341 699 m -22 X s 341 707 m -22 X s 341 714 m -22 X s 363 720 m -44 X s 341 761 m -22 X s 341 785 m -22 X s 341 802 m -22 X s 341 815 m -22 X s 341 826 m -22 X s 341 835 m -22 X s 341 843 m -22 X s 341 850 m -22 X s 363 856 m -44 X s 341 897 m -22 X
 s 341 921 m -22 X s 341 938 m -22 X s 341 951 m -22 X s 341 962 m -22 X s 341 971 m -22 X s 341 979 m -22 X s 341 986 m -22 X s 363 992 m -44 X s 341 1033 m -22 X s 341 1057 m -22 X s 341 1074 m -22 X s 341 1087 m -22 X s 341 1098 m -22 X s 341 1107
 m -22 X s 341 1115 m -22 X s 341 1122 m -22 X s 363 1128 m -44 X s 341 1169 m -22 X s 341 1193 m -22 X s 341 1210 m -22 X s 341 1223 m -22 X s 341 1233 m -22 X s 341 1243 m -22 X s 341 1250 m -22 X s 341 1257 m -22 X s 363 1264 m -44 X s 341 1305 m
 -22 X s 341 1328 m -22 X s 341 1345 m -22 X s 341 1359 m -22 X s 341 1369 m -22 X s 341 1378 m -22 X s 341 1386 m -22 X s 341 1393 m -22 X s 363 1399 m -44 X s 341 1440 m -22 X s 341 1464 m -22 X s 341 1481 m -22 X s 341 1494 m -22 X s 341 1505 m
 -22 X s 341 1514 m -22 X s 341 1522 m -22 X s 341 1529 m -22 X s 363 1535 m -44 X s 341 1576 m -22 X s 341 1600 m -22 X s 341 1617 m -22 X s 341 1630 m -22 X s 341 1641 m -22 X s 341 1650 m -22 X s 341 1658 m -22 X s 341 1665 m -22 X s 363 1671 m
 -44 X s 341 1712 m -22 X s 2179 584 m 1145 Y s 2157 625 m 22 X s 2157 649 m 22 X s 2157 666 m 22 X s 2157 679 m 22 X s 2157 690 m 22 X s 2157 699 m 22 X s 2157 707 m 22 X s 2157 714 m 22 X s 2136 720 m 43 X s 2157 761 m 22 X s 2157 785 m 22 X s 2157
 802 m 22 X s 2157 815 m 22 X s 2157 826 m 22 X s 2157 835 m 22 X s 2157 843 m 22 X s 2157 850 m 22 X s 2136 856 m 43 X s 2157 897 m 22 X s 2157 921 m 22 X s 2157 938 m 22 X s 2157 951 m 22 X s 2157 962 m 22 X s 2157 971 m 22 X s 2157 979 m 22 X s
 2157 986 m 22 X s 2136 992 m 43 X s 2157 1033 m 22 X s 2157 1057 m 22 X s 2157 1074 m 22 X s 2157 1087 m 22 X s 2157 1098 m 22 X s 2157 1107 m 22 X s 2157 1115 m 22 X s 2157 1122 m 22 X s 2136 1128 m 43 X s 2157 1169 m 22 X s 2157 1193 m 22 X s 2157
 1210 m 22 X s 2157 1223 m 22 X s 2157 1233 m 22 X s 2157 1243 m 22 X s 2157 1250 m 22 X s 2157 1257 m 22 X s 2136 1264 m 43 X s 2157 1305 m 22 X s 2157 1328 m 22 X s 2157 1345 m 22 X s 2157 1359 m 22 X s 2157 1369 m 22 X s 2157 1378 m 22 X s 2157
 1386 m 22 X s 2157 1393 m 22 X s 2136 1399 m 43 X s 2157 1440 m 22 X s 2157 1464 m 22 X s 2157 1481 m 22 X s 2157 1494 m 22 X s 2157 1505 m 22 X s 2157 1514 m 22 X s 2157 1522 m 22 X s 2157 1529 m 22 X s 2136 1535 m 43 X s 2157 1576 m 22 X s 2157
 1600 m 22 X s 2157 1617 m 22 X s 2157 1630 m 22 X s 2157 1641 m 22 X s 2157 1650 m 22 X s 2157 1658 m 22 X s 2157 1665 m 22 X s 2136 1671 m 43 X s 2157 1712 m 22 X s
 gsave  2263 1770 2 313 C 406.765 1447.41 t 0 r /Helvetica findfont 64.4212 sf 0 0 m (CRT for MB\255C) show NC gr 
 gsave  2263 1770 2 313 C 1464.36 1616.89 t 0 r /Helvetica findfont 64.4212 sf 0 0 m (SM Total) show NC gr  1 1 1 c 1338 1603 m 107 X 74 Y -107 X f 1 0 0 c 6 lw 1338 1640 m 107 X s black
 gsave  2263 1770 2 313 C 1464.36 1511.81 t 0 r /Helvetica findfont 64.4212 sf 0 0 m (Data) show NC gr  1391 1502 m 64 Y s 3 lw 1391 1534 m20 6 lw
 gsave  2263 1770 2 313 C 1498.25 1406.73 t 0 r /Helvetica findfont 64.4212 sf 0 0 m (\(+EW\) & single top) show NC gr 
 gsave  2263 1770 2 313 C 1481.3 1406.73 t 0 r /Helvetica findfont 64.4212 sf 0 0 m (t) show NC gr  3 lw 1481 1458 m 17 X s
 gsave  2263 1770 2 313 C 1464.36 1406.73 t 0 r /Helvetica findfont 64.4212 sf 0 0 m (t) show NC gr  0.6 1 0.6 c 1338 1391 m 107 X 74 Y -107 X f black 1338 1465 m 107 X s 1338 1391 m 107 X s 1445 1391 m 74 Y s 1338 1391 m 74 Y s
 gsave  2263 1770 2 313 C 1464.36 1298.26 t 0 r /Helvetica findfont 64.4212 sf 0 0 m (W+jets) show NC gr  0.4 0.6 1 c 1338 1284 m 107 X 75 Y -107 X f black 1338 1359 m 107 X s 1338 1284 m 107 X s 1445 1284 m 75 Y s 1338 1284 m 75 Y s
 gsave  2263 1770 2 313 C 1464.36 1193.18 t 0 r /Helvetica findfont 64.4212 sf 0 0 m (Z+jets) show NC gr  1 0.8 0.4 c 1338 1178 m 107 X 75 Y -107 X f black 1338 1253 m 107 X s 1338 1178 m 107 X s 1445 1178 m 75 Y s 1338 1178 m 75 Y s
 gsave  2263 1770 2 313 C 1464.36 1088.1 t 0 r /Helvetica findfont 64.4212 sf 0 0 m (Diboson) show NC gr  1 0.4 0.6 c 1338 1072 m 107 X 74 Y -107 X f black 1338 1146 m 107 X s 1338 1072 m 107 X s 1445 1072 m 74 Y s 1338 1072 m 74 Y s
 gsave  2263 1770 2 313 C 911.832 1566.05 t 0 r /Helvetica findfont 44.0776 sf 0 0 m (\2551) show NC gr 
 gsave  2263 1770 2 313 C 471.17 1535.54 t 0 r /Helvetica findfont 64.4212 sf 0 0 m (=13TeV, 139 fb) show NC gr 
 gsave  2263 1770 2 313 C 440.662 1535.54 t 0 r /Helvetica findfont 64.4212 sf 0 0 m (s) show NC gr  6 lw 420 1573 m 7 -41 d s 3 lw 427 1532 m 7 61 d s 434 1593 m 37 X s 1 1 1 c 2254 561 2 2 bf black 1 1 1 c black 1860 358 318 187 bl 1 1 1 c black
 1860 358 318 187 bl 6 lw 1 1 1 c black 3 lw 457 367 m20 6 lw 3 lw 550 367 m20 6 lw 3 lw 643 362 m20 6 lw 3 lw 736 372 m20 6 lw 3 lw 829 390 m20 6 lw 3 lw 923 365 m20 6 lw 3 lw 1016 309 m20 6 lw 3 lw 1109 265 m20 6 lw 3 lw 1295 436 m20 6 lw 3 lw 318
 187 m 1860 X s
 gsave  2254 561 2 2 C 1959.25 44.0662 t 0 r /Helvetica findfont 78.1689 sf 0 0 m ( [GeV]) show NC gr 
 gsave  2254 561 2 2 C 1928.75 -2.35513e-13 t 0 r /Helvetica findfont 50.9797 sf 0 0 m (T) show NC gr 
 gsave  2254 561 2 2 C 1657.57 44.0662 t 0 r /Helvetica findfont 78.1689 sf 0 0 m (1st jet p) show NC gr  434 201 m -14 Y s 481 194 m -7 Y s 527 194 m -7 Y s 574 194 m -7 Y s 620 194 m -7 Y s 667 201 m -14 Y s 713 194 m -7 Y s 760 194 m -7 Y s 806
 194 m -7 Y s 853 194 m -7 Y s 899 201 m -14 Y s 946 194 m -7 Y s 992 194 m -7 Y s 1039 194 m -7 Y s 1085 194 m -7 Y s 1132 201 m -14 Y s 1178 194 m -7 Y s 1225 194 m -7 Y s 1271 194 m -7 Y s 1318 194 m -7 Y s 1364 201 m -14 Y s 1411 194 m -7 Y s
 1457 194 m -7 Y s 1504 194 m -7 Y s 1550 194 m -7 Y s 1597 201 m -14 Y s 1643 194 m -7 Y s 1690 194 m -7 Y s 1737 194 m -7 Y s 1783 194 m -7 Y s 1830 201 m -14 Y s 1876 194 m -7 Y s 1923 194 m -7 Y s 1969 194 m -7 Y s 2016 194 m -7 Y s 2062 201 m
 -14 Y s 434 201 m -14 Y s 388 194 m -7 Y s 341 194 m -7 Y s 2062 201 m -14 Y s 2109 194 m -7 Y s 2155 194 m -7 Y s
 gsave  2254 561 2 2 C 369.478 118.64 t 0 r /Helvetica findfont 78.1689 sf 0 0 m (500) show NC gr 
 gsave  2254 561 2 2 C 576.251 118.64 t 0 r /Helvetica findfont 78.1689 sf 0 0 m (1000) show NC gr 
 gsave  2254 561 2 2 C 810.141 118.64 t 0 r /Helvetica findfont 78.1689 sf 0 0 m (1500) show NC gr 
 gsave  2254 561 2 2 C 1040.64 118.64 t 0 r /Helvetica findfont 78.1689 sf 0 0 m (2000) show NC gr 
 gsave  2254 561 2 2 C 1274.53 118.64 t 0 r /Helvetica findfont 78.1689 sf 0 0 m (2500) show NC gr 
 gsave  2254 561 2 2 C 1508.42 118.64 t 0 r /Helvetica findfont 78.1689 sf 0 0 m (3000) show NC gr 
 gsave  2254 561 2 2 C 1738.92 118.64 t 0 r /Helvetica findfont 78.1689 sf 0 0 m (3500) show NC gr 
 gsave  2254 561 2 2 C 1972.81 118.64 t 0 r /Helvetica findfont 78.1689 sf 0 0 m (4000) show NC gr  318 545 m 1860 X s 434 531 m 14 Y s 481 538 m 7 Y s 527 538 m 7 Y s 574 538 m 7 Y s 620 538 m 7 Y s 667 531 m 14 Y s 713 538 m 7 Y s 760 538 m 7 Y s
 806 538 m 7 Y s 853 538 m 7 Y s 899 531 m 14 Y s 946 538 m 7 Y s 992 538 m 7 Y s 1039 538 m 7 Y s 1085 538 m 7 Y s 1132 531 m 14 Y s 1178 538 m 7 Y s 1225 538 m 7 Y s 1271 538 m 7 Y s 1318 538 m 7 Y s 1364 531 m 14 Y s 1411 538 m 7 Y s 1457 538 m 7
 Y s 1504 538 m 7 Y s 1550 538 m 7 Y s 1597 531 m 14 Y s 1643 538 m 7 Y s 1690 538 m 7 Y s 1737 538 m 7 Y s 1783 538 m 7 Y s 1830 531 m 14 Y s 1876 538 m 7 Y s 1923 538 m 7 Y s 1969 538 m 7 Y s 2016 538 m 7 Y s 2062 531 m 14 Y s 434 531 m 14 Y s 388
 538 m 7 Y s 341 538 m 7 Y s 2062 531 m 14 Y s 2109 538 m 7 Y s 2155 538 m 7 Y s 318 187 m 358 Y s
 gsave  2254 561 2 2 C 166.096 284.736 t 90 r /Helvetica findfont 67.9729 sf 0 0 m (Data/SM) show NC gr  361 203 m -43 X s 339 220 m -21 X s 339 236 m -21 X s 339 252 m -21 X s 339 268 m -21 X s 361 285 m -43 X s 339 301 m -21 X s 339 317 m -21 X s
 339 334 m -21 X s 339 350 m -21 X s 361 366 m -43 X s 339 382 m -21 X s 339 399 m -21 X s 339 415 m -21 X s 339 431 m -21 X s 361 447 m -43 X s 339 464 m -21 X s 339 480 m -21 X s 339 496 m -21 X s 339 512 m -21 X s 361 529 m -43 X s 361 203 m -43 X
 s 339 187 m -21 X s 361 529 m -43 X s
 gsave  2254 561 2 2 C 261.008 183.044 t 0 r /Helvetica findfont 57.777 sf 0 0 m (0) show NC gr 
 gsave  2254 561 2 2 C 213.552 261.008 t 0 r /Helvetica findfont 57.777 sf 0 0 m (0.5) show NC gr 
 gsave  2254 561 2 2 C 271.177 342.361 t 0 r /Helvetica findfont 57.777 sf 0 0 m (1) show NC gr 
 gsave  2254 561 2 2 C 213.552 423.714 t 0 r /Helvetica findfont 57.777 sf 0 0 m (1.5) show NC gr 
 gsave  2254 561 2 2 C 261.008 505.067 t 0 r /Helvetica findfont 57.777 sf 0 0 m (2) show NC gr  2178 187 m 358 Y s 2135 203 m 43 X s 2157 220 m 21 X s 2157 236 m 21 X s 2157 252 m 21 X s 2157 268 m 21 X s 2135 285 m 43 X s 2157 301 m 21 X s 2157 317
 m 21 X s 2157 334 m 21 X s 2157 350 m 21 X s 2135 366 m 43 X s 2157 382 m 21 X s 2157 399 m 21 X s 2157 415 m 21 X s 2157 431 m 21 X s 2135 447 m 43 X s 2157 464 m 21 X s 2157 480 m 21 X s 2157 496 m 21 X s 2157 512 m 21 X s 2135 529 m 43 X s 2135
 203 m 43 X s 2157 187 m 21 X s 2135 529 m 43 X s 9 lw 829 403 m 10 Y s 829 413 m cl s 829 376 m -10 Y s 829 366 m cl s 923 379 m 26 Y s 923 405 m cl s 923 352 m -25 Y s 923 327 m cl s 1016 323 m 43 Y s 1016 366 m cl s 1016 296 m -37 Y s 1016 259 m
 cl s 1109 279 m 66 Y s 1109 345 m cl s 1109 252 m -38 Y s 1109 214 m cl s 1295 450 m 95 Y s 1295 545 m cl s 1295 423 m -179 Y s 1295 244 m cl s 3 lw 457 367 550 367 643 362 736 372 829 390 923 365 1016 309 1109 265 8 { m20} R 9 lw 3 lw 1295 436 m20
 9 lw 1 0 0 c 6 lw black 3 lw 1 0 0 c 2155 203 m cl s 2127 203 m cl s 2098 203 m cl s 2069 203 m cl s 2040 203 m cl s 2012 203 m cl s 1983 203 m cl s 1954 203 m cl s 1926 203 m cl s 1897 203 m cl s 1868 203 m cl s 1840 203 m cl s 1811 203 m cl s 1782
 203 m cl s 1754 203 m cl s 1725 203 m cl s 1713 220 m s 1713 249 m -17 -17 d s 1713 278 m -46 -46 d s 1713 306 m -74 -74 d s 1713 335 m -93 -93 d s 1713 363 m -96 -95 d s 1713 392 m -124 -124 d s 1713 421 m -153 -153 d s 1713 449 m -182 -181 d s
 1713 478 m -186 -186 d s 1707 500 m -187 -187 d s 1678 500 m -187 -187 d s 1650 500 m -30 -29 d s 1614 464 m -152 -151 d s 1621 500 m -1 -1 d s 1585 464 m -169 -168 d s 1556 464 m -29 -29 d s 1511 419 m -124 -123 d s 1528 464 m -1 X s 1482 419 m
 -123 -123 d s 1453 419 m -117 -117 d s 1434 428 m -126 -126 d s 1413 436 m -134 -134 d s 1384 436 m -134 -134 d s 1356 436 m -112 -112 d s 1321 430 m -106 -106 d s 1292 430 m -106 -106 d s 1264 430 m -16 -15 d s 1241 408 m -83 -84 d s 1213 408 m -68
 -68 d s 1184 408 m -68 -68 d s 1155 408 m s 1139 392 m -51 -52 d s 1111 392 m -51 -50 d s 1082 392 m -50 -50 d s 1052 390 m -49 -48 d s 1023 390 m -49 -48 d s 994 390 m -44 -44 d s 961 386 m -39 -40 d s 932 386 m -39 -40 d s 904 386 m -32 -32 d s
 867 378 m -24 -24 d s 839 378 m -25 -24 d s 810 378 m -24 -24 d s 777 374 m -16 -16 d s 749 374 m -17 -16 d s 720 374 m -17 -16 d s 691 374 m -1 -1 d s 688 371 m -10 -10 d s 659 371 m -9 -10 d s 630 371 m -9 -10 d s 602 371 m -9 -9 d s 572 370 m -7
 -8 d s 411 209 m s 405 203 m cl s 543 370 m -7 -8 d s 411 238 m s 376 203 m cl s 515 370 m -8 -8 d s 411 266 m s 348 203 m cl s 487 371 m -10 -10 d s 411 295 m s 319 203 m cl s 458 371 m -9 -10 d s 411 324 m s 430 371 m -10 -10 d s 411 352 m s 6 lw
 black[ 4 8] 0 sd 3 lw 318 447 m 1860 X s 318 285 m 1860 X s 1 0 0 c[  12 12 ] 0 sd 6 lw 318 366 m 1860 X s
 gr  gr showpage
end
%%EOF
