%!PS-Adobe-2.0 EPSF-2.0
%%BoundingBox:  0 0 567 521
%%Title: Distributions/jetPt_0__distrCRY_MB-SSd_beforeFit_forThesis.eps: canvas
%%Creator: ROOT Version 6.04/16
%%CreationDate: Tue May 19 22:02:59 2020
%%DocumentNeededResources: ProcSet (FontSetInit)
%%EndComments
%%BeginProlog
80 dict begin
/s {stroke} def /l {lineto} def /m {moveto} def /t {translate} def
/r {rotate} def /rl {roll}  def /R {repeat} def
/d {rlineto} def /rm {rmoveto} def /gr {grestore} def /f {eofill} def
/c {setrgbcolor} def /black {0 setgray} def /sd {setdash} def
/cl {closepath} def /sf {scalefont setfont} def /lw {setlinewidth} def
/box {m dup 0 exch d exch 0 d 0 exch neg d cl} def
/NC{systemdict begin initclip end}def/C{NC box clip newpath}def
/bl {box s} def /bf {gsave box gsave f grestore 1 lw [] 0 sd s grestore} def /Y { 0 exch d} def /X { 0 d} def 
/K {{pop pop 0 moveto} exch kshow} bind def
/ita {/ang 15 def gsave [1 0 ang dup sin exch cos div 1 0 0] concat} def 
/mp {newpath /y exch def /x exch def} def
/side {[w .77 mul w .23 mul] .385 w mul sd w 0 l currentpoint t -144 r} def
/mr {mp x y w2 0 360 arc} def /m24 {mr s} def /m20 {mr f} def
/mb {mp x y w2 add m w2 neg 0 d 0 w neg d w 0 d 0 w d cl} def
/mt {mp x y w2 add m w2 neg w neg d w 0 d cl} def
/m21 {mb f} def /m25 {mb s} def /m22 {mt f} def /m26{mt s} def
/m23 {mp x y w2 sub m w2 w d w neg 0 d cl f} def
/m27 {mp x y w2 add m w3 neg w2 neg d w3 w2 neg d w3 w2 d cl s} def
/m28 {mp x w2 sub y w2 sub w3 add m w3 0 d  0 w3 neg d w3 0 d 0 w3 d w3 0 d  0 w3 d w3 neg 0 d 0 w3 d w3 neg 0 d 0 w3 neg d w3 neg 0 d cl s } def
/m29 {mp gsave x w2 sub y w2 add w3 sub m currentpoint t 4 {side} repeat cl fill gr} def
/m30 {mp gsave x w2 sub y w2 add w3 sub m currentpoint t 4 {side} repeat cl s gr} def
/m31 {mp x y w2 sub m 0 w d x w2 sub y m w 0 d x w2 sub y w2 add m w w neg d x w2 sub y w2 sub m w w d s} def
/m32 {mp x y w2 sub m w2 w d w neg 0 d cl s} def
/m33 {mp x y w2 add m w3 neg w2 neg d w3 w2 neg d w3 w2 d cl f} def
/m34 {mp x w2 sub y w2 sub w3 add m w3 0 d  0 w3 neg d w3 0 d 0 w3 d w3 0 d  0 w3 d w3 neg 0 d 0 w3 d w3 neg 0 d 0 w3 neg d w3 neg 0 d cl f } def
/m2 {mp x y w2 sub m 0 w d x w2 sub y m w 0 d s} def
/m5 {mp x w2 sub y w2 sub m w w d x w2 sub y w2 add m w w neg d s} def
%%IncludeResource: ProcSet (FontSetInit)
%%IncludeResource: font Times-Roman
%%IncludeResource: font Times-Italic
%%IncludeResource: font Times-Bold
%%IncludeResource: font Times-BoldItalic
%%IncludeResource: font Helvetica
%%IncludeResource: font Helvetica-Oblique
%%IncludeResource: font Helvetica-Bold
%%IncludeResource: font Helvetica-BoldOblique
%%IncludeResource: font Courier
%%IncludeResource: font Courier-Oblique
%%IncludeResource: font Courier-Bold
%%IncludeResource: font Courier-BoldOblique
%%IncludeResource: font Symbol
%%IncludeResource: font ZapfDingbats
/reEncode {exch findfont dup length dict begin {1 index /FID eq  {pop pop} {def} ifelse } forall /Encoding exch def currentdict end dup /FontName get exch definefont pop } def [/Times-Bold /Times-Italic /Times-BoldItalic /Helvetica /Helvetica-Oblique
 /Helvetica-Bold /Helvetica-BoldOblique /Courier /Courier-Oblique /Courier-Bold /Courier-BoldOblique /Times-Roman /AvantGarde-Book /AvantGarde-BookOblique /AvantGarde-Demi /AvantGarde-DemiOblique /Bookman-Demi /Bookman-DemiItalic /Bookman-Light
 /Bookman-LightItalic /Helvetica-Narrow /Helvetica-Narrow-Bold /Helvetica-Narrow-BoldOblique /Helvetica-Narrow-Oblique /NewCenturySchlbk-Roman /NewCenturySchlbk-Bold /NewCenturySchlbk-BoldItalic /NewCenturySchlbk-Italic /Palatino-Bold
 /Palatino-BoldItalic /Palatino-Italic /Palatino-Roman ] {ISOLatin1Encoding reEncode } forall
%%EndProlog
%%BeginSetup
%%EndSetup
newpath  gsave  .25 .25 scale  gsave  0 0 t black[  ] 0 sd 3 lw 1 1 1 c 2268 2085 0 0 bf black 1 1 1 c 2263 1770 2 313 bf black 1 1 1 c black 1860 1145 319 584 bl 1 1 1 c black 1860 1145 319 584 bl 6 lw 1 1 1 c black 3 lw /w 33 def /w2 {w 2 div} def
 /w3 {w 3 div} def 366 1285 m20 6 lw 3 lw 459 1245 m20 6 lw 3 lw 552 1172 m20 6 lw 3 lw 645 1097 m20 6 lw 3 lw 738 1031 m20 6 lw 3 lw 831 960 m20 6 lw 3 lw 924 895 m20 6 lw 1017 841 m 4 Y s 3 lw 1017 858 m20 6 lw 1110 768 m 20 Y s 1110 815 m 7 Y s 3
 lw 1110 801 m20 6 lw 1203 682 m 55 Y s 1203 764 m 16 Y s 3 lw 1203 750 m20 6 lw 1389 584 m 114 Y s 1389 726 m 24 Y s 3 lw 1389 712 m20 6 lw 3 lw 319 584 m 1860 X s
 gsave  2263 1770 2 313 C 1949.08 376.258 t 0 r /Helvetica findfont 81.3741 sf 0 0 m ( [GeV]) show NC gr 
 gsave  2263 1770 2 313 C 1915.19 332.192 t 0 r /Helvetica findfont 54.2494 sf 0 0 m (T) show NC gr 
 gsave  2263 1770 2 313 C 1630.45 376.258 t 0 r /Helvetica findfont 81.3741 sf 0 0 m (1st jet p) show NC gr  435 584 m cl s 482 584 m cl s 528 584 m cl s 575 584 m cl s 621 584 m cl s 668 584 m cl s 714 584 m cl s 761 584 m cl s 807 584 m cl s 854
 584 m cl s 900 584 m cl s 947 584 m cl s 993 584 m cl s 1040 584 m cl s 1087 584 m cl s 1133 584 m cl s 1180 584 m cl s 1226 584 m cl s 1273 584 m cl s 1319 584 m cl s 1366 584 m cl s 1412 584 m cl s 1459 584 m cl s 1505 584 m cl s 1552 584 m cl s
 1598 584 m cl s 1645 584 m cl s 1691 584 m cl s 1738 584 m cl s 1784 584 m cl s 1831 584 m cl s 1877 584 m cl s 1924 584 m cl s 1970 584 m cl s 2017 584 m cl s 2063 584 m cl s 435 584 m cl s 389 584 m cl s 342 584 m cl s 2063 584 m cl s 2110 584 m
 cl s 2156 584 m cl s 319 1729 m 1860 X s 435 1729 m cl s 482 1729 m cl s 528 1729 m cl s 575 1729 m cl s 621 1729 m cl s 668 1729 m cl s 714 1729 m cl s 761 1729 m cl s 807 1729 m cl s 854 1729 m cl s 900 1729 m cl s 947 1729 m cl s 993 1729 m cl s
 1040 1729 m cl s 1087 1729 m cl s 1133 1729 m cl s 1180 1729 m cl s 1226 1729 m cl s 1273 1729 m cl s 1319 1729 m cl s 1366 1729 m cl s 1412 1729 m cl s 1459 1729 m cl s 1505 1729 m cl s 1552 1729 m cl s 1598 1729 m cl s 1645 1729 m cl s 1691 1729 m
 cl s 1738 1729 m cl s 1784 1729 m cl s 1831 1729 m cl s 1877 1729 m cl s 1924 1729 m cl s 1970 1729 m cl s 2017 1729 m cl s 2063 1729 m cl s 435 1729 m cl s 389 1729 m cl s 342 1729 m cl s 2063 1729 m cl s 2110 1729 m cl s 2156 1729 m cl s 319 584 m
 1145 Y s
 gsave  2263 1770 2 313 C 166.096 1091.49 t 90 r /Helvetica findfont 81.3741 sf 0 0 m (Events / 200 GeV) show NC gr  341 623 m -22 X s 341 645 m -22 X s 341 661 m -22 X s 341 674 m -22 X s 341 684 m -22 X s 341 692 m -22 X s 341 700 m -22 X s 341 706
 m -22 X s 363 712 m -44 X s
 gsave  2263 1770 2 313 C 300.555 684.851 t 0 r  -36 0 t /Helvetica findfont 64.4212 sf 0 0 m (1) show NC gr  341 750 m -22 X s 341 773 m -22 X s 341 789 m -22 X s 341 801 m -22 X s 341 811 m -22 X s 341 820 m -22 X s 341 827 m -22 X s 341 834 m -22
 X s 363 840 m -44 X s
 gsave  2263 1770 2 313 C 300.555 812.51 t 0 r  -73 0 t /Helvetica findfont 64.4212 sf 0 0 m (10) show NC gr  341 878 m -22 X s 341 901 m -22 X s 341 916 m -22 X s 341 929 m -22 X s 341 939 m -22 X s 341 948 m -22 X s 341 955 m -22 X s 341 961 m -22
 X s 363 967 m -44 X s
 gsave  2263 1770 2 313 C 274.567 966.068 t 0 r /Helvetica findfont 44.0776 sf 0 0 m (2) show NC gr 
 gsave  2263 1770 2 313 C 203.383 938.95 t 0 r /Helvetica findfont 64.4212 sf 0 0 m (10) show NC gr  341 1006 m -22 X s 341 1028 m -22 X s 341 1044 m -22 X s 341 1057 m -22 X s 341 1067 m -22 X s 341 1075 m -22 X s 341 1083 m -22 X s 341 1089 m -22 X
 s 363 1095 m -44 X s
 gsave  2263 1770 2 313 C 274.567 1098.27 t 0 r /Helvetica findfont 44.0776 sf 0 0 m (3) show NC gr 
 gsave  2263 1770 2 313 C 203.383 1067.76 t 0 r /Helvetica findfont 64.4212 sf 0 0 m (10) show NC gr  341 1133 m -22 X s 341 1156 m -22 X s 341 1172 m -22 X s 341 1184 m -22 X s 341 1194 m -22 X s 341 1203 m -22 X s 341 1210 m -22 X s 341 1217 m -22
 X s 363 1223 m -44 X s
 gsave  2263 1770 2 313 C 274.567 1220.3 t 0 r /Helvetica findfont 44.0776 sf 0 0 m (4) show NC gr 
 gsave  2263 1770 2 313 C 203.383 1193.18 t 0 r /Helvetica findfont 64.4212 sf 0 0 m (10) show NC gr  341 1261 m -22 X s 341 1284 m -22 X s 341 1299 m -22 X s 341 1312 m -22 X s 341 1322 m -22 X s 341 1330 m -22 X s 341 1338 m -22 X s 341 1344 m -22
 X s 363 1350 m -44 X s
 gsave  2263 1770 2 313 C 274.567 1352.49 t 0 r /Helvetica findfont 44.0776 sf 0 0 m (5) show NC gr 
 gsave  2263 1770 2 313 C 203.383 1321.99 t 0 r /Helvetica findfont 64.4212 sf 0 0 m (10) show NC gr  341 1389 m -22 X s 341 1411 m -22 X s 341 1427 m -22 X s 341 1439 m -22 X s 341 1450 m -22 X s 341 1458 m -22 X s 341 1466 m -22 X s 341 1472 m -22
 X s 363 1478 m -44 X s
 gsave  2263 1770 2 313 C 274.567 1481.3 t 0 r /Helvetica findfont 44.0776 sf 0 0 m (6) show NC gr 
 gsave  2263 1770 2 313 C 203.383 1450.8 t 0 r /Helvetica findfont 64.4212 sf 0 0 m (10) show NC gr  341 1516 m -22 X s 341 1539 m -22 X s 341 1555 m -22 X s 341 1567 m -22 X s 341 1577 m -22 X s 341 1586 m -22 X s 341 1593 m -22 X s 341 1600 m -22 X
 s 363 1606 m -44 X s
 gsave  2263 1770 2 313 C 274.567 1603.33 t 0 r /Helvetica findfont 44.0776 sf 0 0 m (7) show NC gr 
 gsave  2263 1770 2 313 C 203.383 1576.22 t 0 r /Helvetica findfont 64.4212 sf 0 0 m (10) show NC gr  341 1644 m -22 X s 341 1666 m -22 X s 341 1682 m -22 X s 341 1695 m -22 X s 341 1705 m -22 X s 341 1713 m -22 X s 341 1721 m -22 X s 341 1727 m -22
 X s 2179 584 m 1145 Y s 2157 623 m 22 X s 2157 645 m 22 X s 2157 661 m 22 X s 2157 674 m 22 X s 2157 684 m 22 X s 2157 692 m 22 X s 2157 700 m 22 X s 2157 706 m 22 X s 2136 712 m 43 X s 2157 750 m 22 X s 2157 773 m 22 X s 2157 789 m 22 X s 2157 801
 m 22 X s 2157 811 m 22 X s 2157 820 m 22 X s 2157 827 m 22 X s 2157 834 m 22 X s 2136 840 m 43 X s 2157 878 m 22 X s 2157 901 m 22 X s 2157 916 m 22 X s 2157 929 m 22 X s 2157 939 m 22 X s 2157 948 m 22 X s 2157 955 m 22 X s 2157 961 m 22 X s 2136
 967 m 43 X s 2157 1006 m 22 X s 2157 1028 m 22 X s 2157 1044 m 22 X s 2157 1057 m 22 X s 2157 1067 m 22 X s 2157 1075 m 22 X s 2157 1083 m 22 X s 2157 1089 m 22 X s 2136 1095 m 43 X s 2157 1133 m 22 X s 2157 1156 m 22 X s 2157 1172 m 22 X s 2157
 1184 m 22 X s 2157 1194 m 22 X s 2157 1203 m 22 X s 2157 1210 m 22 X s 2157 1217 m 22 X s 2136 1223 m 43 X s 2157 1261 m 22 X s 2157 1284 m 22 X s 2157 1299 m 22 X s 2157 1312 m 22 X s 2157 1322 m 22 X s 2157 1330 m 22 X s 2157 1338 m 22 X s 2157
 1344 m 22 X s 2136 1350 m 43 X s 2157 1389 m 22 X s 2157 1411 m 22 X s 2157 1427 m 22 X s 2157 1439 m 22 X s 2157 1450 m 22 X s 2157 1458 m 22 X s 2157 1466 m 22 X s 2157 1472 m 22 X s 2136 1478 m 43 X s 2157 1516 m 22 X s 2157 1539 m 22 X s 2157
 1555 m 22 X s 2157 1567 m 22 X s 2157 1577 m 22 X s 2157 1586 m 22 X s 2157 1593 m 22 X s 2157 1600 m 22 X s 2136 1606 m 43 X s 2157 1644 m 22 X s 2157 1666 m 22 X s 2157 1682 m 22 X s 2157 1695 m 22 X s 2157 1705 m 22 X s 2157 1713 m 22 X s 2157
 1721 m 22 X s 2157 1727 m 22 X s 1 1 0 c black 1 1 0 c 319 584 m 701 Y 93 X -41 Y 93 X -73 Y 93 X -75 Y 93 X -68 Y 93 X -66 Y 93 X -61 Y 93 X -56 Y 93 X -53 Y 93 X -65 Y 93 X -38 Y 93 X -88 Y 93 X -17 Y 744 X f black 1 1 0 c black 319 1285 m 93 X
 -41 Y 93 X -73 Y 93 X -75 Y 93 X -68 Y 93 X -66 Y 93 X -61 Y 93 X -56 Y 93 X -53 Y 93 X -65 Y 93 X -38 Y 93 X -88 Y 93 X -17 Y 744 X s 0.999 0.999 0.999 c black 0.999 0.999 0.999 c 319 584 m 440 Y 93 X -60 Y 93 X -69 Y 93 X -56 Y 93 X -81 Y 93 X -65
 Y 93 X -5 Y 93 X -104 Y 1209 X f black 0.999 0.999 0.999 c black 319 1024 m 93 X -60 Y 93 X -69 Y 93 X -56 Y 93 X -81 Y 93 X -65 Y 93 X -5 Y 93 X -104 Y 1209 X s 1 1 1 c black 319 1024 m 93 X -60 Y 93 X -69 Y 93 X -56 Y 93 X -81 Y 93 X -65 Y 93 X -5
 Y 93 X -104 Y 1209 X s 0.4 0.6 1 c black 0.4 0.6 1 c 319 584 m 440 Y 93 X -60 Y 93 X -69 Y 93 X -56 Y 93 X -81 Y 93 X -65 Y 93 X -5 Y 93 X -104 Y 1209 X f black 0.4 0.6 1 c black 319 1024 m 93 X -60 Y 93 X -69 Y 93 X -56 Y 93 X -81 Y 93 X -65 Y 93 X
 -5 Y 93 X -104 Y 1209 X s 0.999 0.999 0.999 c black 0.999 0.999 0.999 c 319 584 m 419 Y 93 X -73 Y 93 X -73 Y 93 X -46 Y 93 X -87 Y 93 X -65 Y 93 X 14 Y 93 X -89 Y 1209 X f black 0.999 0.999 0.999 c black 319 1003 m 93 X -73 Y 93 X -73 Y 93 X -46 Y
 93 X -87 Y 93 X -65 Y 93 X 14 Y 93 X -89 Y 1209 X s 1 1 1 c black 319 1003 m 93 X -73 Y 93 X -73 Y 93 X -46 Y 93 X -87 Y 93 X -65 Y 93 X 14 Y 93 X -89 Y 1209 X s 0.6 1 0.6 c black 0.6 1 0.6 c 319 584 m 419 Y 93 X -73 Y 93 X -73 Y 93 X -46 Y 93 X -87
 Y 93 X -65 Y 93 X 14 Y 93 X -89 Y 1209 X f black 0.6 1 0.6 c black 319 1003 m 93 X -73 Y 93 X -73 Y 93 X -46 Y 93 X -87 Y 93 X -65 Y 93 X 14 Y 93 X -89 Y 1209 X s 0.999 0.999 0.999 c black 0.999 0.999 0.999 c 319 584 m 278 Y 93 X -38 Y 93 X -121 Y
 93 X -21 Y 93 X -98 Y 186 X 16 Y 93 X -16 Y 1209 X f black 0.999 0.999 0.999 c black 319 862 m 93 X -38 Y 93 X -121 Y 93 X -21 Y 93 X -98 Y 186 X 16 Y 93 X -16 Y 1209 X s 1 1 1 c black 319 862 m 93 X -38 Y 93 X -121 Y 93 X -21 Y 93 X -98 Y 186 X 16
 Y 93 X -16 Y 1209 X s 1 0.4 0.6 c black 1 0.4 0.6 c 319 584 m 278 Y 93 X -38 Y 93 X -121 Y 93 X -21 Y 93 X -98 Y 186 X 16 Y 93 X -16 Y 1209 X f black 1 0.4 0.6 c black 319 862 m 93 X -38 Y 93 X -121 Y 93 X -21 Y 93 X -98 Y 186 X 16 Y 93 X -16 Y 1209
 X s 1 0 0 c 6 lw 1 1 1 c black 1 0 0 c 319 1285 m 93 X -41 Y 93 X -73 Y 93 X -75 Y 93 X -68 Y 93 X -66 Y 93 X -61 Y 93 X -56 Y 93 X -53 Y 93 X -65 Y 93 X -38 Y 93 X -88 Y 93 X -17 Y 744 X s black 3 lw 1 0 0 c 1 lw << /PatternType 1 /PaintType 2
 /TilingType 1 /BBox [ 0 0 100 100 ] /XStep 100 /YStep 100 /PaintProc { begin gsave 0 100 m 100 0 l s gr end } >> [ 0.24 0 0 0.24 0 0 ] makepattern /P05 exch def /cs {[/Pattern /DeviceRGB] setcolorspace} def /FA {f [/DeviceRGB] setcolorspace} def cs
 1 0 0 P05 setcolor 319 584 m 703 Y 93 X -42 Y 93 X -73 Y 93 X -74 Y 93 X -68 Y 93 X -65 Y 93 X -60 Y 93 X -55 Y 93 X -50 Y 93 X -63 Y 93 X -35 Y 93 X -88 Y 93 X -30 Y 1 Y -93 X 88 Y -93 X 43 Y -93 X 67 Y -93 X 56 Y -93 X 58 Y -93 X 62 Y -93 X 66 Y
 -93 X 69 Y -93 X 76 Y -93 X 73 Y -93 X 39 Y -93 X -698 Y FA 6 lw 1 1 1 c 15 lw 1110 822 m 1 Y s 1110 823 m cl s 1110 781 m -11 Y s 1110 770 m cl s 1203 771 m 12 Y s 1203 783 m cl s 1203 730 m -37 Y s 1203 693 m cl s 1389 732 m 26 Y s 1389 758 m cl s
 1389 692 m -77 Y s 1389 615 m cl s black 1 1 1 c 3 lw /w 43 def /w2 {w 2 div} def /w3 {w 3 div} def 366 1285 459 1245 552 1172 645 1097 738 1031 831 960 924 895 1017 858 1110 801 1203 750 10 { m20} R 15 lw 3 lw 1389 712 m20 15 lw black 6 lw 1 1 1 c
 black 3 lw /w 33 def /w2 {w 2 div} def /w3 {w 3 div} def 366 1285 m20 6 lw 3 lw 459 1245 m20 6 lw 3 lw 552 1172 m20 6 lw 3 lw 645 1097 m20 6 lw 3 lw 738 1031 m20 6 lw 3 lw 831 960 m20 6 lw 3 lw 924 895 m20 6 lw 1017 841 m 4 Y s 3 lw 1017 858 m20 6
 lw 1110 768 m 20 Y s 1110 815 m 7 Y s 3 lw 1110 801 m20 6 lw 1203 682 m 55 Y s 1203 764 m 16 Y s 3 lw 1203 750 m20 6 lw 1389 584 m 114 Y s 1389 726 m 24 Y s 3 lw 1389 712 m20 6 lw 1017 845 m -4 Y s 1017 841 m cl s 1110 815 m 8 Y s 1110 823 m cl s
 1110 788 m -18 Y s 1110 770 m cl s 1203 764 m 19 Y s 1203 783 m cl s 1203 737 m -44 Y s 1203 693 m cl s 1389 726 m 32 Y s 1389 758 m cl s 1389 698 m -83 Y s 1389 615 m cl s 3 lw 366 1285 459 1245 552 1172 645 1097 738 1031 831 960 924 895 1017 858
 1110 801 1203 750 10 { m20} R 6 lw 3 lw 1389 712 m20 6 lw 3 lw 319 584 m 1860 X s 435 584 m cl s 482 584 m cl s 528 584 m cl s 575 584 m cl s 621 584 m cl s 668 584 m cl s 714 584 m cl s 761 584 m cl s 807 584 m cl s 854 584 m cl s 900 584 m cl s
 947 584 m cl s 993 584 m cl s 1040 584 m cl s 1087 584 m cl s 1133 584 m cl s 1180 584 m cl s 1226 584 m cl s 1273 584 m cl s 1319 584 m cl s 1366 584 m cl s 1412 584 m cl s 1459 584 m cl s 1505 584 m cl s 1552 584 m cl s 1598 584 m cl s 1645 584 m
 cl s 1691 584 m cl s 1738 584 m cl s 1784 584 m cl s 1831 584 m cl s 1877 584 m cl s 1924 584 m cl s 1970 584 m cl s 2017 584 m cl s 2063 584 m cl s 435 584 m cl s 389 584 m cl s 342 584 m cl s 2063 584 m cl s 2110 584 m cl s 2156 584 m cl s 319
 1729 m 1860 X s 435 1729 m cl s 482 1729 m cl s 528 1729 m cl s 575 1729 m cl s 621 1729 m cl s 668 1729 m cl s 714 1729 m cl s 761 1729 m cl s 807 1729 m cl s 854 1729 m cl s 900 1729 m cl s 947 1729 m cl s 993 1729 m cl s 1040 1729 m cl s 1087
 1729 m cl s 1133 1729 m cl s 1180 1729 m cl s 1226 1729 m cl s 1273 1729 m cl s 1319 1729 m cl s 1366 1729 m cl s 1412 1729 m cl s 1459 1729 m cl s 1505 1729 m cl s 1552 1729 m cl s 1598 1729 m cl s 1645 1729 m cl s 1691 1729 m cl s 1738 1729 m cl s
 1784 1729 m cl s 1831 1729 m cl s 1877 1729 m cl s 1924 1729 m cl s 1970 1729 m cl s 2017 1729 m cl s 2063 1729 m cl s 435 1729 m cl s 389 1729 m cl s 342 1729 m cl s 2063 1729 m cl s 2110 1729 m cl s 2156 1729 m cl s 319 584 m 1145 Y s 341 623 m
 -22 X s 341 645 m -22 X s 341 661 m -22 X s 341 674 m -22 X s 341 684 m -22 X s 341 692 m -22 X s 341 700 m -22 X s 341 706 m -22 X s 363 712 m -44 X s 341 750 m -22 X s 341 773 m -22 X s 341 789 m -22 X s 341 801 m -22 X s 341 811 m -22 X s 341 820
 m -22 X s 341 827 m -22 X s 341 834 m -22 X s 363 840 m -44 X s 341 878 m -22 X s 341 901 m -22 X s 341 916 m -22 X s 341 929 m -22 X s 341 939 m -22 X s 341 948 m -22 X s 341 955 m -22 X s 341 961 m -22 X s 363 967 m -44 X s 341 1006 m -22 X s 341
 1028 m -22 X s 341 1044 m -22 X s 341 1057 m -22 X s 341 1067 m -22 X s 341 1075 m -22 X s 341 1083 m -22 X s 341 1089 m -22 X s 363 1095 m -44 X s 341 1133 m -22 X s 341 1156 m -22 X s 341 1172 m -22 X s 341 1184 m -22 X s 341 1194 m -22 X s 341
 1203 m -22 X s 341 1210 m -22 X s 341 1217 m -22 X s 363 1223 m -44 X s 341 1261 m -22 X s 341 1284 m -22 X s 341 1299 m -22 X s 341 1312 m -22 X s 341 1322 m -22 X s 341 1330 m -22 X s 341 1338 m -22 X s 341 1344 m -22 X s 363 1350 m -44 X s 341
 1389 m -22 X s 341 1411 m -22 X s 341 1427 m -22 X s 341 1439 m -22 X s 341 1450 m -22 X s 341 1458 m -22 X s 341 1466 m -22 X s 341 1472 m -22 X s 363 1478 m -44 X s 341 1516 m -22 X s 341 1539 m -22 X s 341 1555 m -22 X s 341 1567 m -22 X s 341
 1577 m -22 X s 341 1586 m -22 X s 341 1593 m -22 X s 341 1600 m -22 X s 363 1606 m -44 X s 341 1644 m -22 X s 341 1666 m -22 X s 341 1682 m -22 X s 341 1695 m -22 X s 341 1705 m -22 X s 341 1713 m -22 X s 341 1721 m -22 X s 341 1727 m -22 X s 2179
 584 m 1145 Y s 2157 623 m 22 X s 2157 645 m 22 X s 2157 661 m 22 X s 2157 674 m 22 X s 2157 684 m 22 X s 2157 692 m 22 X s 2157 700 m 22 X s 2157 706 m 22 X s 2136 712 m 43 X s 2157 750 m 22 X s 2157 773 m 22 X s 2157 789 m 22 X s 2157 801 m 22 X s
 2157 811 m 22 X s 2157 820 m 22 X s 2157 827 m 22 X s 2157 834 m 22 X s 2136 840 m 43 X s 2157 878 m 22 X s 2157 901 m 22 X s 2157 916 m 22 X s 2157 929 m 22 X s 2157 939 m 22 X s 2157 948 m 22 X s 2157 955 m 22 X s 2157 961 m 22 X s 2136 967 m 43 X
 s 2157 1006 m 22 X s 2157 1028 m 22 X s 2157 1044 m 22 X s 2157 1057 m 22 X s 2157 1067 m 22 X s 2157 1075 m 22 X s 2157 1083 m 22 X s 2157 1089 m 22 X s 2136 1095 m 43 X s 2157 1133 m 22 X s 2157 1156 m 22 X s 2157 1172 m 22 X s 2157 1184 m 22 X s
 2157 1194 m 22 X s 2157 1203 m 22 X s 2157 1210 m 22 X s 2157 1217 m 22 X s 2136 1223 m 43 X s 2157 1261 m 22 X s 2157 1284 m 22 X s 2157 1299 m 22 X s 2157 1312 m 22 X s 2157 1322 m 22 X s 2157 1330 m 22 X s 2157 1338 m 22 X s 2157 1344 m 22 X s
 2136 1350 m 43 X s 2157 1389 m 22 X s 2157 1411 m 22 X s 2157 1427 m 22 X s 2157 1439 m 22 X s 2157 1450 m 22 X s 2157 1458 m 22 X s 2157 1466 m 22 X s 2157 1472 m 22 X s 2136 1478 m 43 X s 2157 1516 m 22 X s 2157 1539 m 22 X s 2157 1555 m 22 X s
 2157 1567 m 22 X s 2157 1577 m 22 X s 2157 1586 m 22 X s 2157 1593 m 22 X s 2157 1600 m 22 X s 2136 1606 m 43 X s 2157 1644 m 22 X s 2157 1666 m 22 X s 2157 1682 m 22 X s 2157 1695 m 22 X s 2157 1705 m 22 X s 2157 1713 m 22 X s 2157 1721 m 22 X s
 2157 1727 m 22 X s
 gsave  2263 1770 2 313 C 406.765 1447.41 t 0 r /Helvetica findfont 64.4212 sf 0 0 m (CRY for MB\255SSd) show NC gr 
 gsave  2263 1770 2 313 C 1464.36 1616.89 t 0 r /Helvetica findfont 64.4212 sf 0 0 m (SM Total) show NC gr  1 1 1 c 1338 1603 m 107 X 74 Y -107 X f 1 0 0 c 6 lw 1338 1640 m 107 X s black
 gsave  2263 1770 2 313 C 1464.36 1511.81 t 0 r /Helvetica findfont 64.4212 sf 0 0 m (Data) show NC gr  1391 1502 m 64 Y s 3 lw 1391 1534 m20 6 lw
 gsave  2263 1770 2 313 C 1464.36 1406.73 t 0 r /Helvetica findfont 64.4212 sf 0 0 m (GAMMAjets) show NC gr  1 1 0 c 3 lw 1338 1391 m 107 X 74 Y -107 X f 6 lw black 3 lw 1338 1465 m 107 X s 1338 1391 m 107 X s 1445 1391 m 74 Y s 1338 1391 m 74 Y s
 gsave  2263 1770 2 313 C 1464.36 1298.26 t 0 r /Helvetica findfont 64.4212 sf 0 0 m (W+jets) show NC gr  0.4 0.6 1 c 1338 1284 m 107 X 75 Y -107 X f black 1338 1359 m 107 X s 1338 1284 m 107 X s 1445 1284 m 75 Y s 1338 1284 m 75 Y s
 gsave  2263 1770 2 313 C 1498.25 1193.18 t 0 r /Helvetica findfont 64.4212 sf 0 0 m (\(+EW\) & single top) show NC gr 
 gsave  2263 1770 2 313 C 1481.3 1193.18 t 0 r /Helvetica findfont 64.4212 sf 0 0 m (t) show NC gr  1481 1244 m 17 X s
 gsave  2263 1770 2 313 C 1464.36 1193.18 t 0 r /Helvetica findfont 64.4212 sf 0 0 m (t) show NC gr  0.6 1 0.6 c 1338 1178 m 107 X 75 Y -107 X f black 1338 1253 m 107 X s 1338 1178 m 107 X s 1445 1178 m 75 Y s 1338 1178 m 75 Y s
 gsave  2263 1770 2 313 C 1464.36 1088.1 t 0 r /Helvetica findfont 64.4212 sf 0 0 m (Diboson) show NC gr  1 0.4 0.6 c 1338 1072 m 107 X 74 Y -107 X f black 1338 1146 m 107 X s 1338 1072 m 107 X s 1445 1072 m 74 Y s 1338 1072 m 74 Y s
 gsave  2263 1770 2 313 C 911.832 1566.05 t 0 r /Helvetica findfont 44.0776 sf 0 0 m (\2551) show NC gr 
 gsave  2263 1770 2 313 C 471.17 1535.54 t 0 r /Helvetica findfont 64.4212 sf 0 0 m (=13TeV, 139 fb) show NC gr 
 gsave  2263 1770 2 313 C 440.662 1535.54 t 0 r /Helvetica findfont 64.4212 sf 0 0 m (s) show NC gr  6 lw 420 1573 m 7 -41 d s 3 lw 427 1532 m 7 61 d s 434 1593 m 37 X s 1 1 1 c 2254 561 2 2 bf black 1 1 1 c black 1860 358 318 187 bl 1 1 1 c black
 1860 358 318 187 bl 6 lw 1 1 1 c black 3 lw 364 366 m20 6 lw 3 lw 457 368 m20 6 lw 3 lw 550 368 m20 6 lw 3 lw 643 368 m20 6 lw 3 lw 736 376 m20 6 lw 3 lw 829 361 m20 6 lw 3 lw 923 347 m20 6 lw 3 lw 1016 411 m20 6 lw 3 lw 1109 396 m20 6 lw 3 lw 1202
 450 m20 6 lw 3 lw 318 187 m 1860 X s
 gsave  2254 561 2 2 C 1959.25 44.0662 t 0 r /Helvetica findfont 78.1689 sf 0 0 m ( [GeV]) show NC gr 
 gsave  2254 561 2 2 C 1928.75 -2.35513e-13 t 0 r /Helvetica findfont 50.9797 sf 0 0 m (T) show NC gr 
 gsave  2254 561 2 2 C 1657.57 44.0662 t 0 r /Helvetica findfont 78.1689 sf 0 0 m (1st jet p) show NC gr  434 201 m -14 Y s 481 194 m -7 Y s 527 194 m -7 Y s 574 194 m -7 Y s 620 194 m -7 Y s 667 201 m -14 Y s 713 194 m -7 Y s 760 194 m -7 Y s 806
 194 m -7 Y s 853 194 m -7 Y s 899 201 m -14 Y s 946 194 m -7 Y s 992 194 m -7 Y s 1039 194 m -7 Y s 1085 194 m -7 Y s 1132 201 m -14 Y s 1178 194 m -7 Y s 1225 194 m -7 Y s 1271 194 m -7 Y s 1318 194 m -7 Y s 1364 201 m -14 Y s 1411 194 m -7 Y s
 1457 194 m -7 Y s 1504 194 m -7 Y s 1550 194 m -7 Y s 1597 201 m -14 Y s 1643 194 m -7 Y s 1690 194 m -7 Y s 1737 194 m -7 Y s 1783 194 m -7 Y s 1830 201 m -14 Y s 1876 194 m -7 Y s 1923 194 m -7 Y s 1969 194 m -7 Y s 2016 194 m -7 Y s 2062 201 m
 -14 Y s 434 201 m -14 Y s 388 194 m -7 Y s 341 194 m -7 Y s 2062 201 m -14 Y s 2109 194 m -7 Y s 2155 194 m -7 Y s
 gsave  2254 561 2 2 C 369.478 118.64 t 0 r /Helvetica findfont 78.1689 sf 0 0 m (500) show NC gr 
 gsave  2254 561 2 2 C 576.251 118.64 t 0 r /Helvetica findfont 78.1689 sf 0 0 m (1000) show NC gr 
 gsave  2254 561 2 2 C 810.141 118.64 t 0 r /Helvetica findfont 78.1689 sf 0 0 m (1500) show NC gr 
 gsave  2254 561 2 2 C 1040.64 118.64 t 0 r /Helvetica findfont 78.1689 sf 0 0 m (2000) show NC gr 
 gsave  2254 561 2 2 C 1274.53 118.64 t 0 r /Helvetica findfont 78.1689 sf 0 0 m (2500) show NC gr 
 gsave  2254 561 2 2 C 1508.42 118.64 t 0 r /Helvetica findfont 78.1689 sf 0 0 m (3000) show NC gr 
 gsave  2254 561 2 2 C 1738.92 118.64 t 0 r /Helvetica findfont 78.1689 sf 0 0 m (3500) show NC gr 
 gsave  2254 561 2 2 C 1972.81 118.64 t 0 r /Helvetica findfont 78.1689 sf 0 0 m (4000) show NC gr  318 545 m 1860 X s 434 531 m 14 Y s 481 538 m 7 Y s 527 538 m 7 Y s 574 538 m 7 Y s 620 538 m 7 Y s 667 531 m 14 Y s 713 538 m 7 Y s 760 538 m 7 Y s
 806 538 m 7 Y s 853 538 m 7 Y s 899 531 m 14 Y s 946 538 m 7 Y s 992 538 m 7 Y s 1039 538 m 7 Y s 1085 538 m 7 Y s 1132 531 m 14 Y s 1178 538 m 7 Y s 1225 538 m 7 Y s 1271 538 m 7 Y s 1318 538 m 7 Y s 1364 531 m 14 Y s 1411 538 m 7 Y s 1457 538 m 7
 Y s 1504 538 m 7 Y s 1550 538 m 7 Y s 1597 531 m 14 Y s 1643 538 m 7 Y s 1690 538 m 7 Y s 1737 538 m 7 Y s 1783 538 m 7 Y s 1830 531 m 14 Y s 1876 538 m 7 Y s 1923 538 m 7 Y s 1969 538 m 7 Y s 2016 538 m 7 Y s 2062 531 m 14 Y s 434 531 m 14 Y s 388
 538 m 7 Y s 341 538 m 7 Y s 2062 531 m 14 Y s 2109 538 m 7 Y s 2155 538 m 7 Y s 318 187 m 358 Y s
 gsave  2254 561 2 2 C 166.096 284.736 t 90 r /Helvetica findfont 67.9729 sf 0 0 m (Data/SM) show NC gr  361 203 m -43 X s 339 220 m -21 X s 339 236 m -21 X s 339 252 m -21 X s 339 268 m -21 X s 361 285 m -43 X s 339 301 m -21 X s 339 317 m -21 X s
 339 334 m -21 X s 339 350 m -21 X s 361 366 m -43 X s 339 382 m -21 X s 339 399 m -21 X s 339 415 m -21 X s 339 431 m -21 X s 361 447 m -43 X s 339 464 m -21 X s 339 480 m -21 X s 339 496 m -21 X s 339 512 m -21 X s 361 529 m -43 X s 361 203 m -43 X
 s 339 187 m -21 X s 361 529 m -43 X s
 gsave  2254 561 2 2 C 261.008 183.044 t 0 r /Helvetica findfont 57.777 sf 0 0 m (0) show NC gr 
 gsave  2254 561 2 2 C 213.552 261.008 t 0 r /Helvetica findfont 57.777 sf 0 0 m (0.5) show NC gr 
 gsave  2254 561 2 2 C 271.177 342.361 t 0 r /Helvetica findfont 57.777 sf 0 0 m (1) show NC gr 
 gsave  2254 561 2 2 C 213.552 423.714 t 0 r /Helvetica findfont 57.777 sf 0 0 m (1.5) show NC gr 
 gsave  2254 561 2 2 C 261.008 505.067 t 0 r /Helvetica findfont 57.777 sf 0 0 m (2) show NC gr  2178 187 m 358 Y s 2135 203 m 43 X s 2157 220 m 21 X s 2157 236 m 21 X s 2157 252 m 21 X s 2157 268 m 21 X s 2135 285 m 43 X s 2157 301 m 21 X s 2157 317
 m 21 X s 2157 334 m 21 X s 2157 350 m 21 X s 2135 366 m 43 X s 2157 382 m 21 X s 2157 399 m 21 X s 2157 415 m 21 X s 2157 431 m 21 X s 2135 447 m 43 X s 2157 464 m 21 X s 2157 480 m 21 X s 2157 496 m 21 X s 2157 512 m 21 X s 2135 529 m 43 X s 2135
 203 m 43 X s 2157 187 m 21 X s 2135 529 m 43 X s 9 lw 829 374 m 3 Y s 829 377 m cl s 829 347 m -3 Y s 829 344 m cl s 923 361 m 14 Y s 923 375 m cl s 923 334 m -14 Y s 923 320 m cl s 1016 424 m 43 Y s 1016 467 m cl s 1016 397 m -41 Y s 1016 356 m cl
 s 1109 410 m 77 Y s 1109 487 m cl s 1109 382 m -69 Y s 1109 313 m cl s 1202 464 m 81 Y s 1202 545 m cl s 1202 436 m -145 Y s 1202 291 m cl s 1388 545 m -134 Y s 1388 411 m cl s 3 lw 364 366 457 368 550 368 643 368 736 376 829 361 923 347 1016 411
 1109 396 1202 450 10 { m20} R 9 lw 1 0 0 c 6 lw black 3 lw 1 0 0 c 2155 203 m cl s 2127 203 m cl s 2098 203 m cl s 2069 203 m cl s 2040 203 m cl s 2012 203 m cl s 1983 203 m cl s 1954 203 m cl s 1926 203 m cl s 1897 203 m cl s 1868 203 m cl s 1840
 203 m cl s 1811 203 m cl s 1806 227 m s 1806 256 m -8 -8 d s 1806 285 m -37 -37 d s 1806 313 m -66 -65 d s 1806 342 m -93 -93 d s 1806 370 m -121 -121 d s 1806 399 m -150 -150 d s 1806 428 m -179 -179 d s 1806 456 m -186 -185 d s 1806 485 m -189
 -189 d s 1777 485 m -189 -189 d s 1749 485 m -190 -189 d s 1720 485 m -189 -189 d s 1690 483 m -163 -162 d s 1661 483 m -41 -41 d s 1614 436 m -115 -114 d s 1632 483 m -12 -12 d s 1585 436 m -114 -114 d s 1557 436 m -115 -114 d s 1528 436 m -1 -1 d
 s 1502 410 m -86 -85 d s 1473 410 m -85 -85 d s 1445 410 m -86 -85 d s 1413 407 m -83 -82 d s 1384 407 m -83 -82 d s 1356 407 m -83 -82 d s 1327 407 m -79 -78 d s 1298 407 m -72 -72 d s 1270 407 m -72 -72 d s 1230 397 m -61 -62 d s 1201 397 m -55
 -55 d s 1173 397 m -55 -55 d s 1138 390 m -49 -48 d s 1109 390 m -47 -47 d s 1080 390 m -40 -40 d s 1043 382 m -32 -32 d s 1015 382 m -32 -32 d s 986 382 m -28 -27 d s 953 378 m -23 -23 d s 924 378 m -23 -23 d s 895 378 m -20 -21 d s 864 375 m -18
 -18 d s 835 375 m -17 -18 d s 807 375 m -18 -18 d s 777 374 m -16 -16 d s 748 374 m -15 -16 d s 719 374 m -15 -16 d s 691 374 m -1 -1 d s 688 371 m -10 -10 d s 660 371 m -11 -10 d s 631 371 m -11 -10 d s 602 371 m -8 -8 d s 571 369 m -6 -6 d s 543
 369 m -7 -6 d s 514 369 m -6 -6 d s 486 370 m -8 -8 d s 457 370 m -7 -8 d s 318 231 m s 429 370 m -8 -8 d s 318 259 m s 404 374 m -16 -16 d s 318 288 m s 375 374 m -15 -16 d s 318 317 m s 346 374 m -15 -16 d s 318 345 m s 6 lw black[ 4 8] 0 sd 3 lw
 318 447 m 1860 X s 318 285 m 1860 X s 1 0 0 c[  12 12 ] 0 sd 6 lw 318 366 m 1860 X s
 gr  gr showpage
end
%%EOF
