%!PS-Adobe-2.0 EPSF-2.0
%%BoundingBox:  0 0 567 521
%%Title: Distributions/jetPt_0__distrSR_MB-C_afterFit_forThesis.eps: canvas
%%Creator: ROOT Version 6.04/16
%%CreationDate: Tue May 19 22:03:52 2020
%%DocumentNeededResources: ProcSet (FontSetInit)
%%EndComments
%%BeginProlog
80 dict begin
/s {stroke} def /l {lineto} def /m {moveto} def /t {translate} def
/r {rotate} def /rl {roll}  def /R {repeat} def
/d {rlineto} def /rm {rmoveto} def /gr {grestore} def /f {eofill} def
/c {setrgbcolor} def /black {0 setgray} def /sd {setdash} def
/cl {closepath} def /sf {scalefont setfont} def /lw {setlinewidth} def
/box {m dup 0 exch d exch 0 d 0 exch neg d cl} def
/NC{systemdict begin initclip end}def/C{NC box clip newpath}def
/bl {box s} def /bf {gsave box gsave f grestore 1 lw [] 0 sd s grestore} def /Y { 0 exch d} def /X { 0 d} def 
/K {{pop pop 0 moveto} exch kshow} bind def
/ita {/ang 15 def gsave [1 0 ang dup sin exch cos div 1 0 0] concat} def 
/mp {newpath /y exch def /x exch def} def
/side {[w .77 mul w .23 mul] .385 w mul sd w 0 l currentpoint t -144 r} def
/mr {mp x y w2 0 360 arc} def /m24 {mr s} def /m20 {mr f} def
/mb {mp x y w2 add m w2 neg 0 d 0 w neg d w 0 d 0 w d cl} def
/mt {mp x y w2 add m w2 neg w neg d w 0 d cl} def
/m21 {mb f} def /m25 {mb s} def /m22 {mt f} def /m26{mt s} def
/m23 {mp x y w2 sub m w2 w d w neg 0 d cl f} def
/m27 {mp x y w2 add m w3 neg w2 neg d w3 w2 neg d w3 w2 d cl s} def
/m28 {mp x w2 sub y w2 sub w3 add m w3 0 d  0 w3 neg d w3 0 d 0 w3 d w3 0 d  0 w3 d w3 neg 0 d 0 w3 d w3 neg 0 d 0 w3 neg d w3 neg 0 d cl s } def
/m29 {mp gsave x w2 sub y w2 add w3 sub m currentpoint t 4 {side} repeat cl fill gr} def
/m30 {mp gsave x w2 sub y w2 add w3 sub m currentpoint t 4 {side} repeat cl s gr} def
/m31 {mp x y w2 sub m 0 w d x w2 sub y m w 0 d x w2 sub y w2 add m w w neg d x w2 sub y w2 sub m w w d s} def
/m32 {mp x y w2 sub m w2 w d w neg 0 d cl s} def
/m33 {mp x y w2 add m w3 neg w2 neg d w3 w2 neg d w3 w2 d cl f} def
/m34 {mp x w2 sub y w2 sub w3 add m w3 0 d  0 w3 neg d w3 0 d 0 w3 d w3 0 d  0 w3 d w3 neg 0 d 0 w3 d w3 neg 0 d 0 w3 neg d w3 neg 0 d cl f } def
/m2 {mp x y w2 sub m 0 w d x w2 sub y m w 0 d s} def
/m5 {mp x w2 sub y w2 sub m w w d x w2 sub y w2 add m w w neg d s} def
%%IncludeResource: ProcSet (FontSetInit)
%%IncludeResource: font Times-Roman
%%IncludeResource: font Times-Italic
%%IncludeResource: font Times-Bold
%%IncludeResource: font Times-BoldItalic
%%IncludeResource: font Helvetica
%%IncludeResource: font Helvetica-Oblique
%%IncludeResource: font Helvetica-Bold
%%IncludeResource: font Helvetica-BoldOblique
%%IncludeResource: font Courier
%%IncludeResource: font Courier-Oblique
%%IncludeResource: font Courier-Bold
%%IncludeResource: font Courier-BoldOblique
%%IncludeResource: font Symbol
%%IncludeResource: font ZapfDingbats
/reEncode {exch findfont dup length dict begin {1 index /FID eq  {pop pop} {def} ifelse } forall /Encoding exch def currentdict end dup /FontName get exch definefont pop } def [/Times-Bold /Times-Italic /Times-BoldItalic /Helvetica /Helvetica-Oblique
 /Helvetica-Bold /Helvetica-BoldOblique /Courier /Courier-Oblique /Courier-Bold /Courier-BoldOblique /Times-Roman /AvantGarde-Book /AvantGarde-BookOblique /AvantGarde-Demi /AvantGarde-DemiOblique /Bookman-Demi /Bookman-DemiItalic /Bookman-Light
 /Bookman-LightItalic /Helvetica-Narrow /Helvetica-Narrow-Bold /Helvetica-Narrow-BoldOblique /Helvetica-Narrow-Oblique /NewCenturySchlbk-Roman /NewCenturySchlbk-Bold /NewCenturySchlbk-BoldItalic /NewCenturySchlbk-Italic /Palatino-Bold
 /Palatino-BoldItalic /Palatino-Italic /Palatino-Roman ] {ISOLatin1Encoding reEncode } forall
%%EndProlog
%%BeginSetup
%%EndSetup
newpath  gsave  .25 .25 scale  gsave  0 0 t black[  ] 0 sd 3 lw 1 1 1 c 2268 2085 0 0 bf black 1 1 1 c 2263 1770 2 313 bf black 1 1 1 c black 1860 1145 319 584 bl 1 1 1 c black 1860 1145 319 584 bl 6 lw 1 1 1 c black 3 lw /w 33 def /w2 {w 2 div} def
 /w3 {w 3 div} def 459 1059 m20 6 lw 3 lw 552 1157 m20 6 lw 3 lw 645 1113 m20 6 lw 3 lw 738 1037 m20 6 lw 3 lw 831 984 m20 6 lw 3 lw 924 896 m20 6 lw 1017 862 m 2 Y s 3 lw 1017 877 m20 6 lw 1110 772 m 20 Y s 1110 819 m 7 Y s 3 lw 1110 805 m20 6 lw 3
 lw 319 584 m 1860 X s
 gsave  2263 1770 2 313 C 1949.08 376.258 t 0 r /Helvetica findfont 81.3741 sf 0 0 m ( [GeV]) show NC gr 
 gsave  2263 1770 2 313 C 1915.19 332.192 t 0 r /Helvetica findfont 54.2494 sf 0 0 m (T) show NC gr 
 gsave  2263 1770 2 313 C 1630.45 376.258 t 0 r /Helvetica findfont 81.3741 sf 0 0 m (1st jet p) show NC gr  435 584 m cl s 482 584 m cl s 528 584 m cl s 575 584 m cl s 621 584 m cl s 668 584 m cl s 714 584 m cl s 761 584 m cl s 807 584 m cl s 854
 584 m cl s 900 584 m cl s 947 584 m cl s 993 584 m cl s 1040 584 m cl s 1087 584 m cl s 1133 584 m cl s 1180 584 m cl s 1226 584 m cl s 1273 584 m cl s 1319 584 m cl s 1366 584 m cl s 1412 584 m cl s 1459 584 m cl s 1505 584 m cl s 1552 584 m cl s
 1598 584 m cl s 1645 584 m cl s 1691 584 m cl s 1738 584 m cl s 1784 584 m cl s 1831 584 m cl s 1877 584 m cl s 1924 584 m cl s 1970 584 m cl s 2017 584 m cl s 2063 584 m cl s 435 584 m cl s 389 584 m cl s 342 584 m cl s 2063 584 m cl s 2110 584 m
 cl s 2156 584 m cl s 319 1729 m 1860 X s 435 1729 m cl s 482 1729 m cl s 528 1729 m cl s 575 1729 m cl s 621 1729 m cl s 668 1729 m cl s 714 1729 m cl s 761 1729 m cl s 807 1729 m cl s 854 1729 m cl s 900 1729 m cl s 947 1729 m cl s 993 1729 m cl s
 1040 1729 m cl s 1087 1729 m cl s 1133 1729 m cl s 1180 1729 m cl s 1226 1729 m cl s 1273 1729 m cl s 1319 1729 m cl s 1366 1729 m cl s 1412 1729 m cl s 1459 1729 m cl s 1505 1729 m cl s 1552 1729 m cl s 1598 1729 m cl s 1645 1729 m cl s 1691 1729 m
 cl s 1738 1729 m cl s 1784 1729 m cl s 1831 1729 m cl s 1877 1729 m cl s 1924 1729 m cl s 1970 1729 m cl s 2017 1729 m cl s 2063 1729 m cl s 435 1729 m cl s 389 1729 m cl s 342 1729 m cl s 2063 1729 m cl s 2110 1729 m cl s 2156 1729 m cl s 319 584 m
 1145 Y s
 gsave  2263 1770 2 313 C 166.096 1091.49 t 90 r /Helvetica findfont 81.3741 sf 0 0 m (Events / 200 GeV) show NC gr  341 623 m -22 X s 341 646 m -22 X s 341 663 m -22 X s 341 675 m -22 X s 341 685 m -22 X s 341 694 m -22 X s 341 702 m -22 X s 341 708
 m -22 X s 363 714 m -44 X s
 gsave  2263 1770 2 313 C 300.555 687.132 t 0 r  -36 0 t /Helvetica findfont 64.4212 sf 0 0 m (1) show NC gr  341 753 m -22 X s 341 776 m -22 X s 341 792 m -22 X s 341 805 m -22 X s 341 815 m -22 X s 341 824 m -22 X s 341 832 m -22 X s 341 838 m -22
 X s 363 844 m -44 X s
 gsave  2263 1770 2 313 C 300.555 817.073 t 0 r  -73 0 t /Helvetica findfont 64.4212 sf 0 0 m (10) show NC gr  341 883 m -22 X s 341 906 m -22 X s 341 922 m -22 X s 341 935 m -22 X s 341 945 m -22 X s 341 954 m -22 X s 341 962 m -22 X s 341 968 m -22
 X s 363 974 m -44 X s
 gsave  2263 1770 2 313 C 274.567 972.847 t 0 r /Helvetica findfont 44.0776 sf 0 0 m (2) show NC gr 
 gsave  2263 1770 2 313 C 203.383 945.729 t 0 r /Helvetica findfont 64.4212 sf 0 0 m (10) show NC gr  341 1013 m -22 X s 341 1036 m -22 X s 341 1052 m -22 X s 341 1065 m -22 X s 341 1075 m -22 X s 341 1084 m -22 X s 341 1091 m -22 X s 341 1098 m -22
 X s 363 1104 m -44 X s
 gsave  2263 1770 2 313 C 274.567 1105.05 t 0 r /Helvetica findfont 44.0776 sf 0 0 m (3) show NC gr 
 gsave  2263 1770 2 313 C 203.383 1074.54 t 0 r /Helvetica findfont 64.4212 sf 0 0 m (10) show NC gr  341 1143 m -22 X s 341 1166 m -22 X s 341 1182 m -22 X s 341 1195 m -22 X s 341 1205 m -22 X s 341 1214 m -22 X s 341 1221 m -22 X s 341 1228 m -22
 X s 363 1234 m -44 X s
 gsave  2263 1770 2 313 C 274.567 1233.85 t 0 r /Helvetica findfont 44.0776 sf 0 0 m (4) show NC gr 
 gsave  2263 1770 2 313 C 203.383 1206.74 t 0 r /Helvetica findfont 64.4212 sf 0 0 m (10) show NC gr  341 1273 m -22 X s 341 1296 m -22 X s 341 1312 m -22 X s 341 1325 m -22 X s 341 1335 m -22 X s 341 1344 m -22 X s 341 1351 m -22 X s 341 1358 m -22
 X s 363 1364 m -44 X s
 gsave  2263 1770 2 313 C 274.567 1366.05 t 0 r /Helvetica findfont 44.0776 sf 0 0 m (5) show NC gr 
 gsave  2263 1770 2 313 C 203.383 1335.55 t 0 r /Helvetica findfont 64.4212 sf 0 0 m (10) show NC gr  341 1403 m -22 X s 341 1426 m -22 X s 341 1442 m -22 X s 341 1455 m -22 X s 341 1465 m -22 X s 341 1474 m -22 X s 341 1481 m -22 X s 341 1488 m -22
 X s 363 1494 m -44 X s
 gsave  2263 1770 2 313 C 274.567 1494.86 t 0 r /Helvetica findfont 44.0776 sf 0 0 m (6) show NC gr 
 gsave  2263 1770 2 313 C 203.383 1464.36 t 0 r /Helvetica findfont 64.4212 sf 0 0 m (10) show NC gr  341 1533 m -22 X s 341 1556 m -22 X s 341 1572 m -22 X s 341 1585 m -22 X s 341 1595 m -22 X s 341 1604 m -22 X s 341 1611 m -22 X s 341 1618 m -22
 X s 363 1624 m -44 X s
 gsave  2263 1770 2 313 C 274.567 1623.67 t 0 r /Helvetica findfont 44.0776 sf 0 0 m (7) show NC gr 
 gsave  2263 1770 2 313 C 203.383 1596.55 t 0 r /Helvetica findfont 64.4212 sf 0 0 m (10) show NC gr  341 1663 m -22 X s 341 1686 m -22 X s 341 1702 m -22 X s 341 1715 m -22 X s 341 1725 m -22 X s 2179 584 m 1145 Y s 2157 623 m 22 X s 2157 646 m 22 X
 s 2157 663 m 22 X s 2157 675 m 22 X s 2157 685 m 22 X s 2157 694 m 22 X s 2157 702 m 22 X s 2157 708 m 22 X s 2136 714 m 43 X s 2157 753 m 22 X s 2157 776 m 22 X s 2157 792 m 22 X s 2157 805 m 22 X s 2157 815 m 22 X s 2157 824 m 22 X s 2157 832 m 22
 X s 2157 838 m 22 X s 2136 844 m 43 X s 2157 883 m 22 X s 2157 906 m 22 X s 2157 922 m 22 X s 2157 935 m 22 X s 2157 945 m 22 X s 2157 954 m 22 X s 2157 962 m 22 X s 2157 968 m 22 X s 2136 974 m 43 X s 2157 1013 m 22 X s 2157 1036 m 22 X s 2157 1052
 m 22 X s 2157 1065 m 22 X s 2157 1075 m 22 X s 2157 1084 m 22 X s 2157 1091 m 22 X s 2157 1098 m 22 X s 2136 1104 m 43 X s 2157 1143 m 22 X s 2157 1166 m 22 X s 2157 1182 m 22 X s 2157 1195 m 22 X s 2157 1205 m 22 X s 2157 1214 m 22 X s 2157 1221 m
 22 X s 2157 1228 m 22 X s 2136 1234 m 43 X s 2157 1273 m 22 X s 2157 1296 m 22 X s 2157 1312 m 22 X s 2157 1325 m 22 X s 2157 1335 m 22 X s 2157 1344 m 22 X s 2157 1351 m 22 X s 2157 1358 m 22 X s 2136 1364 m 43 X s 2157 1403 m 22 X s 2157 1426 m 22
 X s 2157 1442 m 22 X s 2157 1455 m 22 X s 2157 1465 m 22 X s 2157 1474 m 22 X s 2157 1481 m 22 X s 2157 1488 m 22 X s 2136 1494 m 43 X s 2157 1533 m 22 X s 2157 1556 m 22 X s 2157 1572 m 22 X s 2157 1585 m 22 X s 2157 1595 m 22 X s 2157 1604 m 22 X
 s 2157 1611 m 22 X s 2157 1618 m 22 X s 2136 1624 m 43 X s 2157 1663 m 22 X s 2157 1686 m 22 X s 2157 1702 m 22 X s 2157 1715 m 22 X s 2157 1725 m 22 X s 0.4 0.6 1 c black 0.4 0.6 1 c 319 584 m 93 X 478 Y 93 X 91 Y 93 X -43 Y 93 X -73 Y 93 X -66 Y
 93 X -66 Y 93 X -55 Y 93 X -61 Y 93 X -61 Y 93 X -17 Y 93 X -77 Y 93 X -50 Y 744 X f black 0.4 0.6 1 c black 319 584 m 93 X 478 Y 93 X 91 Y 93 X -43 Y 93 X -73 Y 93 X -66 Y 93 X -66 Y 93 X -55 Y 93 X -61 Y 93 X -61 Y 93 X -17 Y 93 X -77 Y 93 X -50 Y
 744 X s 0.999 0.999 0.999 c black 0.999 0.999 0.999 c 319 584 m 93 X 463 Y 93 X 92 Y 93 X -44 Y 93 X -71 Y 93 X -67 Y 93 X -67 Y 93 X -54 Y 93 X -60 Y 93 X -60 Y 93 X -16 Y 93 X -83 Y 93 X -33 Y 744 X f black 0.999 0.999 0.999 c black 319 584 m 93 X
 463 Y 93 X 92 Y 93 X -44 Y 93 X -71 Y 93 X -67 Y 93 X -67 Y 93 X -54 Y 93 X -60 Y 93 X -60 Y 93 X -16 Y 93 X -83 Y 93 X -33 Y 744 X s 1 1 1 c black 319 584 m 93 X 463 Y 93 X 92 Y 93 X -44 Y 93 X -71 Y 93 X -67 Y 93 X -67 Y 93 X -54 Y 93 X -60 Y 93 X
 -60 Y 93 X -16 Y 93 X -83 Y 93 X -33 Y 744 X s 0.6 1 0.6 c black 0.6 1 0.6 c 319 584 m 93 X 463 Y 93 X 92 Y 93 X -44 Y 93 X -71 Y 93 X -67 Y 93 X -67 Y 93 X -54 Y 93 X -60 Y 93 X -60 Y 93 X -16 Y 93 X -83 Y 93 X -33 Y 744 X f black 0.6 1 0.6 c black
 319 584 m 93 X 463 Y 93 X 92 Y 93 X -44 Y 93 X -71 Y 93 X -67 Y 93 X -67 Y 93 X -54 Y 93 X -60 Y 93 X -60 Y 93 X -16 Y 93 X -83 Y 93 X -33 Y 744 X s 0.999 0.999 0.999 c black 0.999 0.999 0.999 c 319 584 m 93 X 460 Y 93 X 92 Y 93 X -44 Y 93 X -70 Y
 93 X -66 Y 93 X -68 Y 93 X -54 Y 93 X -61 Y 93 X -58 Y 93 X -16 Y 93 X -82 Y 93 X -33 Y 744 X f black 0.999 0.999 0.999 c black 319 584 m 93 X 460 Y 93 X 92 Y 93 X -44 Y 93 X -70 Y 93 X -66 Y 93 X -68 Y 93 X -54 Y 93 X -61 Y 93 X -58 Y 93 X -16 Y 93
 X -82 Y 93 X -33 Y 744 X s 1 1 1 c black 319 584 m 93 X 460 Y 93 X 92 Y 93 X -44 Y 93 X -70 Y 93 X -66 Y 93 X -68 Y 93 X -54 Y 93 X -61 Y 93 X -58 Y 93 X -16 Y 93 X -82 Y 93 X -33 Y 744 X s 1 0.8 0.4 c black 1 0.8 0.4 c 319 584 m 93 X 460 Y 93 X 92
 Y 93 X -44 Y 93 X -70 Y 93 X -66 Y 93 X -68 Y 93 X -54 Y 93 X -61 Y 93 X -58 Y 93 X -16 Y 93 X -82 Y 93 X -33 Y 744 X f black 1 0.8 0.4 c black 319 584 m 93 X 460 Y 93 X 92 Y 93 X -44 Y 93 X -70 Y 93 X -66 Y 93 X -68 Y 93 X -54 Y 93 X -61 Y 93 X -58
 Y 93 X -16 Y 93 X -82 Y 93 X -33 Y 744 X s 0.999 0.999 0.999 c black 0.999 0.999 0.999 c 319 584 m 93 X 329 Y 93 X 84 Y 93 X -43 Y 93 X -62 Y 93 X -63 Y 93 X -67 Y 93 X -24 Y 93 X -65 Y 93 X -76 Y 93 X -13 Y 930 X f black 0.999 0.999 0.999 c black
 319 584 m 93 X 329 Y 93 X 84 Y 93 X -43 Y 93 X -62 Y 93 X -63 Y 93 X -67 Y 93 X -24 Y 93 X -65 Y 93 X -76 Y 93 X -13 Y 930 X s 1 1 1 c black 319 584 m 93 X 329 Y 93 X 84 Y 93 X -43 Y 93 X -62 Y 93 X -63 Y 93 X -67 Y 93 X -24 Y 93 X -65 Y 93 X -76 Y
 93 X -13 Y 930 X s 1 0.4 0.6 c black 1 0.4 0.6 c 319 584 m 93 X 329 Y 93 X 84 Y 93 X -43 Y 93 X -62 Y 93 X -63 Y 93 X -67 Y 93 X -24 Y 93 X -65 Y 93 X -76 Y 93 X -13 Y 930 X f black 1 0.4 0.6 c black 319 584 m 93 X 329 Y 93 X 84 Y 93 X -43 Y 93 X
 -62 Y 93 X -63 Y 93 X -67 Y 93 X -24 Y 93 X -65 Y 93 X -76 Y 93 X -13 Y 930 X s 0.999 0.999 0.999 c black 0.999 0.999 0.999 c 319 584 m 186 X 79 Y 93 X -35 Y 93 X -21 Y 93 X -23 Y 93 X 14 Y 186 X -14 Y 1116 X f black 0.999 0.999 0.999 c black 319
 584 m 186 X 79 Y 93 X -35 Y 93 X -21 Y 93 X -23 Y 93 X 14 Y 186 X -14 Y 1116 X s 1 1 1 c black 319 584 m 186 X 79 Y 93 X -35 Y 93 X -21 Y 93 X -23 Y 93 X 14 Y 186 X -14 Y 1116 X s 0 0 0.4 c black 0 0 0.4 c 319 584 m 186 X 79 Y 93 X -35 Y 93 X -21 Y
 93 X -23 Y 93 X 14 Y 186 X -14 Y 1116 X f black 0 0 0.4 c black 319 584 m 186 X 79 Y 93 X -35 Y 93 X -21 Y 93 X -23 Y 93 X 14 Y 186 X -14 Y 1116 X s 1 0 0 c 6 lw 1 1 1 c black 1 0 0 c 319 584 m 93 X 478 Y 93 X 91 Y 93 X -43 Y 93 X -73 Y 93 X -66 Y
 93 X -66 Y 93 X -55 Y 93 X -61 Y 93 X -61 Y 93 X -17 Y 93 X -77 Y 93 X -50 Y 744 X s black 3 lw 1 0 0 c 1 lw << /PatternType 1 /PaintType 2 /TilingType 1 /BBox [ 0 0 100 100 ] /XStep 100 /YStep 100 /PaintProc { begin gsave 0 100 m 100 0 l s gr end }
 >> [ 0.24 0 0 0.24 0 0 ] makepattern /P05 exch def /cs {[/Pattern /DeviceRGB] setcolorspace} def /FA {f [/DeviceRGB] setcolorspace} def cs 1 0 0 P05 setcolor 412 584 m 481 Y 93 X 91 Y 93 X -43 Y 93 X -73 Y 93 X -64 Y 93 X -67 Y 93 X -52 Y 93 X -61 Y
 93 X -61 Y 93 X -12 Y 93 X -69 Y 93 X -70 Y 20 Y -93 X 91 Y -93 X 25 Y -93 X 61 Y -93 X 61 Y -93 X 59 Y -93 X 65 Y -93 X 67 Y -93 X 74 Y -93 X 44 Y -93 X -92 Y -93 X -475 Y FA 6 lw 1 1 1 c 15 lw 1110 825 m 2 Y s 1110 827 m cl s 1110 785 m -12 Y s
 1110 773 m cl s black 1 1 1 c 3 lw /w 43 def /w2 {w 2 div} def /w3 {w 3 div} def 459 1059 552 1157 645 1113 738 1037 831 984 924 896 1017 877 1110 805 8 { m20} R 15 lw black 6 lw 1 1 1 c black 3 lw /w 33 def /w2 {w 2 div} def /w3 {w 3 div} def 459
 1059 m20 6 lw 3 lw 552 1157 m20 6 lw 3 lw 645 1113 m20 6 lw 3 lw 738 1037 m20 6 lw 3 lw 831 984 m20 6 lw 3 lw 924 896 m20 6 lw 1017 862 m 2 Y s 3 lw 1017 877 m20 6 lw 1110 772 m 20 Y s 1110 819 m 7 Y s 3 lw 1110 805 m20 6 lw 1017 864 m -2 Y s 1017
 862 m cl s 1110 819 m 8 Y s 1110 827 m cl s 1110 792 m -19 Y s 1110 773 m cl s 3 lw 459 1059 552 1157 645 1113 738 1037 831 984 924 896 1017 877 1110 805 8 { m20} R 6 lw 3 lw 319 584 m 1860 X s 435 584 m cl s 482 584 m cl s 528 584 m cl s 575 584 m
 cl s 621 584 m cl s 668 584 m cl s 714 584 m cl s 761 584 m cl s 807 584 m cl s 854 584 m cl s 900 584 m cl s 947 584 m cl s 993 584 m cl s 1040 584 m cl s 1087 584 m cl s 1133 584 m cl s 1180 584 m cl s 1226 584 m cl s 1273 584 m cl s 1319 584 m cl
 s 1366 584 m cl s 1412 584 m cl s 1459 584 m cl s 1505 584 m cl s 1552 584 m cl s 1598 584 m cl s 1645 584 m cl s 1691 584 m cl s 1738 584 m cl s 1784 584 m cl s 1831 584 m cl s 1877 584 m cl s 1924 584 m cl s 1970 584 m cl s 2017 584 m cl s 2063
 584 m cl s 435 584 m cl s 389 584 m cl s 342 584 m cl s 2063 584 m cl s 2110 584 m cl s 2156 584 m cl s 319 1729 m 1860 X s 435 1729 m cl s 482 1729 m cl s 528 1729 m cl s 575 1729 m cl s 621 1729 m cl s 668 1729 m cl s 714 1729 m cl s 761 1729 m cl
 s 807 1729 m cl s 854 1729 m cl s 900 1729 m cl s 947 1729 m cl s 993 1729 m cl s 1040 1729 m cl s 1087 1729 m cl s 1133 1729 m cl s 1180 1729 m cl s 1226 1729 m cl s 1273 1729 m cl s 1319 1729 m cl s 1366 1729 m cl s 1412 1729 m cl s 1459 1729 m cl
 s 1505 1729 m cl s 1552 1729 m cl s 1598 1729 m cl s 1645 1729 m cl s 1691 1729 m cl s 1738 1729 m cl s 1784 1729 m cl s 1831 1729 m cl s 1877 1729 m cl s 1924 1729 m cl s 1970 1729 m cl s 2017 1729 m cl s 2063 1729 m cl s 435 1729 m cl s 389 1729 m
 cl s 342 1729 m cl s 2063 1729 m cl s 2110 1729 m cl s 2156 1729 m cl s 319 584 m 1145 Y s 341 623 m -22 X s 341 646 m -22 X s 341 663 m -22 X s 341 675 m -22 X s 341 685 m -22 X s 341 694 m -22 X s 341 702 m -22 X s 341 708 m -22 X s 363 714 m -44
 X s 341 753 m -22 X s 341 776 m -22 X s 341 792 m -22 X s 341 805 m -22 X s 341 815 m -22 X s 341 824 m -22 X s 341 832 m -22 X s 341 838 m -22 X s 363 844 m -44 X s 341 883 m -22 X s 341 906 m -22 X s 341 922 m -22 X s 341 935 m -22 X s 341 945 m
 -22 X s 341 954 m -22 X s 341 962 m -22 X s 341 968 m -22 X s 363 974 m -44 X s 341 1013 m -22 X s 341 1036 m -22 X s 341 1052 m -22 X s 341 1065 m -22 X s 341 1075 m -22 X s 341 1084 m -22 X s 341 1091 m -22 X s 341 1098 m -22 X s 363 1104 m -44 X
 s 341 1143 m -22 X s 341 1166 m -22 X s 341 1182 m -22 X s 341 1195 m -22 X s 341 1205 m -22 X s 341 1214 m -22 X s 341 1221 m -22 X s 341 1228 m -22 X s 363 1234 m -44 X s 341 1273 m -22 X s 341 1296 m -22 X s 341 1312 m -22 X s 341 1325 m -22 X s
 341 1335 m -22 X s 341 1344 m -22 X s 341 1351 m -22 X s 341 1358 m -22 X s 363 1364 m -44 X s 341 1403 m -22 X s 341 1426 m -22 X s 341 1442 m -22 X s 341 1455 m -22 X s 341 1465 m -22 X s 341 1474 m -22 X s 341 1481 m -22 X s 341 1488 m -22 X s
 363 1494 m -44 X s 341 1533 m -22 X s 341 1556 m -22 X s 341 1572 m -22 X s 341 1585 m -22 X s 341 1595 m -22 X s 341 1604 m -22 X s 341 1611 m -22 X s 341 1618 m -22 X s 363 1624 m -44 X s 341 1663 m -22 X s 341 1686 m -22 X s 341 1702 m -22 X s
 341 1715 m -22 X s 341 1725 m -22 X s 2179 584 m 1145 Y s 2157 623 m 22 X s 2157 646 m 22 X s 2157 663 m 22 X s 2157 675 m 22 X s 2157 685 m 22 X s 2157 694 m 22 X s 2157 702 m 22 X s 2157 708 m 22 X s 2136 714 m 43 X s 2157 753 m 22 X s 2157 776 m
 22 X s 2157 792 m 22 X s 2157 805 m 22 X s 2157 815 m 22 X s 2157 824 m 22 X s 2157 832 m 22 X s 2157 838 m 22 X s 2136 844 m 43 X s 2157 883 m 22 X s 2157 906 m 22 X s 2157 922 m 22 X s 2157 935 m 22 X s 2157 945 m 22 X s 2157 954 m 22 X s 2157 962
 m 22 X s 2157 968 m 22 X s 2136 974 m 43 X s 2157 1013 m 22 X s 2157 1036 m 22 X s 2157 1052 m 22 X s 2157 1065 m 22 X s 2157 1075 m 22 X s 2157 1084 m 22 X s 2157 1091 m 22 X s 2157 1098 m 22 X s 2136 1104 m 43 X s 2157 1143 m 22 X s 2157 1166 m 22
 X s 2157 1182 m 22 X s 2157 1195 m 22 X s 2157 1205 m 22 X s 2157 1214 m 22 X s 2157 1221 m 22 X s 2157 1228 m 22 X s 2136 1234 m 43 X s 2157 1273 m 22 X s 2157 1296 m 22 X s 2157 1312 m 22 X s 2157 1325 m 22 X s 2157 1335 m 22 X s 2157 1344 m 22 X
 s 2157 1351 m 22 X s 2157 1358 m 22 X s 2136 1364 m 43 X s 2157 1403 m 22 X s 2157 1426 m 22 X s 2157 1442 m 22 X s 2157 1455 m 22 X s 2157 1465 m 22 X s 2157 1474 m 22 X s 2157 1481 m 22 X s 2157 1488 m 22 X s 2136 1494 m 43 X s 2157 1533 m 22 X s
 2157 1556 m 22 X s 2157 1572 m 22 X s 2157 1585 m 22 X s 2157 1595 m 22 X s 2157 1604 m 22 X s 2157 1611 m 22 X s 2157 1618 m 22 X s 2136 1624 m 43 X s 2157 1663 m 22 X s 2157 1686 m 22 X s 2157 1702 m 22 X s 2157 1715 m 22 X s 2157 1725 m 22 X s
 gsave  2263 1770 2 313 C 406.765 1447.41 t 0 r /Helvetica findfont 64.4212 sf 0 0 m (SR for MB\255C) show NC gr 
 gsave  2263 1770 2 313 C 1464.36 1630.45 t 0 r /Helvetica findfont 64.4212 sf 0 0 m (SM Total) show NC gr  1 1 1 c 1338 1616 m 107 X 64 Y -107 X f 1 0 0 c 6 lw 1338 1648 m 107 X s black
 gsave  2263 1770 2 313 C 1464.36 1538.93 t 0 r /Helvetica findfont 64.4212 sf 0 0 m (Data) show NC gr  1391 1529 m 55 Y s 3 lw 1391 1557 m20 6 lw
 gsave  2263 1770 2 313 C 1464.36 1447.41 t 0 r /Helvetica findfont 64.4212 sf 0 0 m (W+jets) show NC gr  0.4 0.6 1 c 3 lw 1338 1434 m 107 X 64 Y -107 X f 6 lw black 3 lw 1338 1498 m 107 X s 1338 1434 m 107 X s 1445 1434 m 64 Y s 1338 1434 m 64 Y s
 gsave  2263 1770 2 313 C 1498.25 1355.88 t 0 r /Helvetica findfont 64.4212 sf 0 0 m (\(+EW\) & single top) show NC gr 
 gsave  2263 1770 2 313 C 1481.3 1355.88 t 0 r /Helvetica findfont 64.4212 sf 0 0 m (t) show NC gr  1481 1407 m 17 X s
 gsave  2263 1770 2 313 C 1464.36 1355.88 t 0 r /Helvetica findfont 64.4212 sf 0 0 m (t) show NC gr  0.6 1 0.6 c 1338 1343 m 107 X 63 Y -107 X f black 1338 1406 m 107 X s 1338 1343 m 107 X s 1445 1343 m 63 Y s 1338 1343 m 63 Y s
 gsave  2263 1770 2 313 C 1464.36 1264.36 t 0 r /Helvetica findfont 64.4212 sf 0 0 m (Z+jets) show NC gr  1 0.8 0.4 c 1338 1252 m 107 X 63 Y -107 X f black 1338 1315 m 107 X s 1338 1252 m 107 X s 1445 1252 m 63 Y s 1338 1252 m 63 Y s
 gsave  2263 1770 2 313 C 1464.36 1172.84 t 0 r /Helvetica findfont 64.4212 sf 0 0 m (Diboson) show NC gr  1 0.4 0.6 c 1338 1161 m 107 X 63 Y -107 X f black 1338 1224 m 107 X s 1338 1161 m 107 X s 1445 1161 m 63 Y s 1338 1161 m 63 Y s
 gsave  2263 1770 2 313 C 1464.36 1081.32 t 0 r /Helvetica findfont 64.4212 sf 0 0 m (Multi\255jet) show NC gr  0 0 0.4 c 1338 1070 m 107 X 63 Y -107 X f black 1338 1133 m 107 X s 1338 1070 m 107 X s 1445 1070 m 63 Y s 1338 1070 m 63 Y s
 gsave  2263 1770 2 313 C 911.832 1566.05 t 0 r /Helvetica findfont 44.0776 sf 0 0 m (\2551) show NC gr 
 gsave  2263 1770 2 313 C 471.17 1535.54 t 0 r /Helvetica findfont 64.4212 sf 0 0 m (=13TeV, 139 fb) show NC gr 
 gsave  2263 1770 2 313 C 440.662 1535.54 t 0 r /Helvetica findfont 64.4212 sf 0 0 m (s) show NC gr  6 lw 420 1573 m 7 -41 d s 3 lw 427 1532 m 7 61 d s 434 1593 m 37 X s 1 1 1 c 2254 561 2 2 bf black 1 1 1 c black 1860 358 318 187 bl 1 1 1 c black
 1860 358 318 187 bl 6 lw 1 1 1 c black 3 lw 457 356 m20 6 lw 3 lw 550 377 m20 6 lw 3 lw 643 374 m20 6 lw 3 lw 736 366 m20 6 lw 3 lw 829 407 m20 6 lw 3 lw 923 342 m20 6 lw 3 lw 1016 465 m20 6 lw 3 lw 1109 421 m20 6 lw 3 lw 318 187 m 1860 X s
 gsave  2254 561 2 2 C 1959.25 44.0662 t 0 r /Helvetica findfont 78.1689 sf 0 0 m ( [GeV]) show NC gr 
 gsave  2254 561 2 2 C 1928.75 -2.35513e-13 t 0 r /Helvetica findfont 50.9797 sf 0 0 m (T) show NC gr 
 gsave  2254 561 2 2 C 1657.57 44.0662 t 0 r /Helvetica findfont 78.1689 sf 0 0 m (1st jet p) show NC gr  434 201 m -14 Y s 481 194 m -7 Y s 527 194 m -7 Y s 574 194 m -7 Y s 620 194 m -7 Y s 667 201 m -14 Y s 713 194 m -7 Y s 760 194 m -7 Y s 806
 194 m -7 Y s 853 194 m -7 Y s 899 201 m -14 Y s 946 194 m -7 Y s 992 194 m -7 Y s 1039 194 m -7 Y s 1085 194 m -7 Y s 1132 201 m -14 Y s 1178 194 m -7 Y s 1225 194 m -7 Y s 1271 194 m -7 Y s 1318 194 m -7 Y s 1364 201 m -14 Y s 1411 194 m -7 Y s
 1457 194 m -7 Y s 1504 194 m -7 Y s 1550 194 m -7 Y s 1597 201 m -14 Y s 1643 194 m -7 Y s 1690 194 m -7 Y s 1737 194 m -7 Y s 1783 194 m -7 Y s 1830 201 m -14 Y s 1876 194 m -7 Y s 1923 194 m -7 Y s 1969 194 m -7 Y s 2016 194 m -7 Y s 2062 201 m
 -14 Y s 434 201 m -14 Y s 388 194 m -7 Y s 341 194 m -7 Y s 2062 201 m -14 Y s 2109 194 m -7 Y s 2155 194 m -7 Y s
 gsave  2254 561 2 2 C 369.478 118.64 t 0 r /Helvetica findfont 78.1689 sf 0 0 m (500) show NC gr 
 gsave  2254 561 2 2 C 576.251 118.64 t 0 r /Helvetica findfont 78.1689 sf 0 0 m (1000) show NC gr 
 gsave  2254 561 2 2 C 810.141 118.64 t 0 r /Helvetica findfont 78.1689 sf 0 0 m (1500) show NC gr 
 gsave  2254 561 2 2 C 1040.64 118.64 t 0 r /Helvetica findfont 78.1689 sf 0 0 m (2000) show NC gr 
 gsave  2254 561 2 2 C 1274.53 118.64 t 0 r /Helvetica findfont 78.1689 sf 0 0 m (2500) show NC gr 
 gsave  2254 561 2 2 C 1508.42 118.64 t 0 r /Helvetica findfont 78.1689 sf 0 0 m (3000) show NC gr 
 gsave  2254 561 2 2 C 1738.92 118.64 t 0 r /Helvetica findfont 78.1689 sf 0 0 m (3500) show NC gr 
 gsave  2254 561 2 2 C 1972.81 118.64 t 0 r /Helvetica findfont 78.1689 sf 0 0 m (4000) show NC gr  318 545 m 1860 X s 434 531 m 14 Y s 481 538 m 7 Y s 527 538 m 7 Y s 574 538 m 7 Y s 620 538 m 7 Y s 667 531 m 14 Y s 713 538 m 7 Y s 760 538 m 7 Y s
 806 538 m 7 Y s 853 538 m 7 Y s 899 531 m 14 Y s 946 538 m 7 Y s 992 538 m 7 Y s 1039 538 m 7 Y s 1085 538 m 7 Y s 1132 531 m 14 Y s 1178 538 m 7 Y s 1225 538 m 7 Y s 1271 538 m 7 Y s 1318 538 m 7 Y s 1364 531 m 14 Y s 1411 538 m 7 Y s 1457 538 m 7
 Y s 1504 538 m 7 Y s 1550 538 m 7 Y s 1597 531 m 14 Y s 1643 538 m 7 Y s 1690 538 m 7 Y s 1737 538 m 7 Y s 1783 538 m 7 Y s 1830 531 m 14 Y s 1876 538 m 7 Y s 1923 538 m 7 Y s 1969 538 m 7 Y s 2016 538 m 7 Y s 2062 531 m 14 Y s 434 531 m 14 Y s 388
 538 m 7 Y s 341 538 m 7 Y s 2062 531 m 14 Y s 2109 538 m 7 Y s 2155 538 m 7 Y s 318 187 m 358 Y s
 gsave  2254 561 2 2 C 166.096 284.736 t 90 r /Helvetica findfont 67.9729 sf 0 0 m (Data/SM) show NC gr  361 203 m -43 X s 339 220 m -21 X s 339 236 m -21 X s 339 252 m -21 X s 339 268 m -21 X s 361 285 m -43 X s 339 301 m -21 X s 339 317 m -21 X s
 339 334 m -21 X s 339 350 m -21 X s 361 366 m -43 X s 339 382 m -21 X s 339 399 m -21 X s 339 415 m -21 X s 339 431 m -21 X s 361 447 m -43 X s 339 464 m -21 X s 339 480 m -21 X s 339 496 m -21 X s 339 512 m -21 X s 361 529 m -43 X s 361 203 m -43 X
 s 339 187 m -21 X s 361 529 m -43 X s
 gsave  2254 561 2 2 C 261.008 183.044 t 0 r /Helvetica findfont 57.777 sf 0 0 m (0) show NC gr 
 gsave  2254 561 2 2 C 213.552 261.008 t 0 r /Helvetica findfont 57.777 sf 0 0 m (0.5) show NC gr 
 gsave  2254 561 2 2 C 271.177 342.361 t 0 r /Helvetica findfont 57.777 sf 0 0 m (1) show NC gr 
 gsave  2254 561 2 2 C 213.552 423.714 t 0 r /Helvetica findfont 57.777 sf 0 0 m (1.5) show NC gr 
 gsave  2254 561 2 2 C 261.008 505.067 t 0 r /Helvetica findfont 57.777 sf 0 0 m (2) show NC gr  2178 187 m 358 Y s 2135 203 m 43 X s 2157 220 m 21 X s 2157 236 m 21 X s 2157 252 m 21 X s 2157 268 m 21 X s 2135 285 m 43 X s 2157 301 m 21 X s 2157 317
 m 21 X s 2157 334 m 21 X s 2157 350 m 21 X s 2135 366 m 43 X s 2157 382 m 21 X s 2157 399 m 21 X s 2157 415 m 21 X s 2157 431 m 21 X s 2135 447 m 43 X s 2157 464 m 21 X s 2157 480 m 21 X s 2157 496 m 21 X s 2157 512 m 21 X s 2135 529 m 43 X s 2135
 203 m 43 X s 2157 187 m 21 X s 2135 529 m 43 X s 9 lw 829 420 m 5 Y s 829 425 m cl s 829 393 m -5 Y s 829 388 m cl s 923 355 m 15 Y s 923 370 m cl s 923 328 m -14 Y s 923 314 m cl s 1016 479 m 49 Y s 1016 528 m cl s 1016 452 m -47 Y s 1016 405 m cl
 s 1109 434 m 89 Y s 1109 523 m cl s 1109 407 m -80 Y s 1109 327 m cl s 3 lw 457 356 550 377 643 374 736 366 829 407 923 342 1016 465 1109 421 8 { m20} R 9 lw 1 0 0 c 6 lw black 3 lw 1 0 0 c 2155 203 m cl s 2127 203 m cl s 2098 203 m cl s 2069 203 m
 cl s 2040 203 m cl s 2012 203 m cl s 1992 213 m s 1992 241 m s 1992 270 m s 1992 298 m -7 -7 d s 1899 206 m -3 -3 d s 1992 327 m -35 -36 d s 1899 234 m -31 -31 d s 1992 356 m -64 -65 d s 1899 263 m -60 -60 d s 1992 384 m -182 -181 d s 1992 413 m
 -196 -196 d s 1992 441 m -225 -224 d s 1963 441 m -225 -224 d s 1934 441 m -221 -221 d s 1905 441 m -192 -192 d s 1899 463 m -198 -198 d s 1899 492 m -227 -227 d s 1899 520 m -256 -255 d s 1880 529 m -260 -258 d s 1851 529 m -231 -230 d s 1822 529 m
 -230 -229 d s 1780 515 m -217 -215 d s 1751 515 m -38 -37 d s 1702 467 m -167 -167 d s 1722 515 m -9 -9 d s 1674 467 m -171 -170 d s 1645 467 m -25 -25 d s 1610 432 m -135 -135 d s 1582 432 m -136 -135 d s 1553 432 m -135 -134 d s 1527 435 m -138
 -137 d s 1498 435 m -137 -137 d s 1470 435 m -129 -128 d s 1441 435 m -109 -108 d s 1411 434 m -108 -107 d s 1383 434 m -108 -107 d s 1354 434 m -13 -13 d s 1325 405 m -77 -76 d s 1296 405 m -61 -60 d s 1268 405 m -61 -60 d s 1221 387 m -43 -42 d s
 1192 387 m -42 -42 d s 1163 387 m -42 -42 d s 1134 387 m -42 -42 d s 1106 387 m -42 -42 d s 1077 387 m -43 -43 d s 1049 388 m -43 -44 d s 1020 388 m -43 -44 d s 992 388 m -34 -34 d s 953 378 m -23 -24 d s 924 378 m -23 -24 d s 896 378 m -26 -25 d s
 869 380 m -27 -27 d s 840 380 m -27 -27 d s 811 380 m -27 -27 d s 779 375 m -19 -18 d s 750 375 m -19 -18 d s 721 375 m -19 -18 d s 693 375 m -18 -17 d s 662 374 m -16 -16 d s 634 374 m -16 -16 d s 605 374 m -16 -16 d s 576 374 m -16 -16 d s 411 209
 m s 405 203 m cl s 548 374 m -16 -16 d s 411 238 m s 376 203 m cl s 519 374 m -16 -16 d s 411 266 m s 348 203 m cl s 490 374 m -16 -16 d s 411 295 m s 319 203 m cl s 462 374 m -17 -16 d s 411 324 m s 433 374 m -16 -16 d s 411 352 m s 6 lw black[ 4
 8] 0 sd 3 lw 318 447 m 1860 X s 318 285 m 1860 X s 1 0 0 c[  12 12 ] 0 sd 6 lw 318 366 m 1860 X s
 gr  gr showpage
end
%%EOF
