%!PS-Adobe-2.0 EPSF-2.0
%%BoundingBox:  0 0 567 521
%%Title: Distributions/jetPt_0__distrCRW_MB-GGd_afterFit_forThesis.eps: canvas
%%Creator: ROOT Version 6.04/16
%%CreationDate: Tue May 19 22:02:48 2020
%%DocumentNeededResources: ProcSet (FontSetInit)
%%EndComments
%%BeginProlog
80 dict begin
/s {stroke} def /l {lineto} def /m {moveto} def /t {translate} def
/r {rotate} def /rl {roll}  def /R {repeat} def
/d {rlineto} def /rm {rmoveto} def /gr {grestore} def /f {eofill} def
/c {setrgbcolor} def /black {0 setgray} def /sd {setdash} def
/cl {closepath} def /sf {scalefont setfont} def /lw {setlinewidth} def
/box {m dup 0 exch d exch 0 d 0 exch neg d cl} def
/NC{systemdict begin initclip end}def/C{NC box clip newpath}def
/bl {box s} def /bf {gsave box gsave f grestore 1 lw [] 0 sd s grestore} def /Y { 0 exch d} def /X { 0 d} def 
/K {{pop pop 0 moveto} exch kshow} bind def
/ita {/ang 15 def gsave [1 0 ang dup sin exch cos div 1 0 0] concat} def 
/mp {newpath /y exch def /x exch def} def
/side {[w .77 mul w .23 mul] .385 w mul sd w 0 l currentpoint t -144 r} def
/mr {mp x y w2 0 360 arc} def /m24 {mr s} def /m20 {mr f} def
/mb {mp x y w2 add m w2 neg 0 d 0 w neg d w 0 d 0 w d cl} def
/mt {mp x y w2 add m w2 neg w neg d w 0 d cl} def
/m21 {mb f} def /m25 {mb s} def /m22 {mt f} def /m26{mt s} def
/m23 {mp x y w2 sub m w2 w d w neg 0 d cl f} def
/m27 {mp x y w2 add m w3 neg w2 neg d w3 w2 neg d w3 w2 d cl s} def
/m28 {mp x w2 sub y w2 sub w3 add m w3 0 d  0 w3 neg d w3 0 d 0 w3 d w3 0 d  0 w3 d w3 neg 0 d 0 w3 d w3 neg 0 d 0 w3 neg d w3 neg 0 d cl s } def
/m29 {mp gsave x w2 sub y w2 add w3 sub m currentpoint t 4 {side} repeat cl fill gr} def
/m30 {mp gsave x w2 sub y w2 add w3 sub m currentpoint t 4 {side} repeat cl s gr} def
/m31 {mp x y w2 sub m 0 w d x w2 sub y m w 0 d x w2 sub y w2 add m w w neg d x w2 sub y w2 sub m w w d s} def
/m32 {mp x y w2 sub m w2 w d w neg 0 d cl s} def
/m33 {mp x y w2 add m w3 neg w2 neg d w3 w2 neg d w3 w2 d cl f} def
/m34 {mp x w2 sub y w2 sub w3 add m w3 0 d  0 w3 neg d w3 0 d 0 w3 d w3 0 d  0 w3 d w3 neg 0 d 0 w3 d w3 neg 0 d 0 w3 neg d w3 neg 0 d cl f } def
/m2 {mp x y w2 sub m 0 w d x w2 sub y m w 0 d s} def
/m5 {mp x w2 sub y w2 sub m w w d x w2 sub y w2 add m w w neg d s} def
%%IncludeResource: ProcSet (FontSetInit)
%%IncludeResource: font Times-Roman
%%IncludeResource: font Times-Italic
%%IncludeResource: font Times-Bold
%%IncludeResource: font Times-BoldItalic
%%IncludeResource: font Helvetica
%%IncludeResource: font Helvetica-Oblique
%%IncludeResource: font Helvetica-Bold
%%IncludeResource: font Helvetica-BoldOblique
%%IncludeResource: font Courier
%%IncludeResource: font Courier-Oblique
%%IncludeResource: font Courier-Bold
%%IncludeResource: font Courier-BoldOblique
%%IncludeResource: font Symbol
%%IncludeResource: font ZapfDingbats
/reEncode {exch findfont dup length dict begin {1 index /FID eq  {pop pop} {def} ifelse } forall /Encoding exch def currentdict end dup /FontName get exch definefont pop } def [/Times-Bold /Times-Italic /Times-BoldItalic /Helvetica /Helvetica-Oblique
 /Helvetica-Bold /Helvetica-BoldOblique /Courier /Courier-Oblique /Courier-Bold /Courier-BoldOblique /Times-Roman /AvantGarde-Book /AvantGarde-BookOblique /AvantGarde-Demi /AvantGarde-DemiOblique /Bookman-Demi /Bookman-DemiItalic /Bookman-Light
 /Bookman-LightItalic /Helvetica-Narrow /Helvetica-Narrow-Bold /Helvetica-Narrow-BoldOblique /Helvetica-Narrow-Oblique /NewCenturySchlbk-Roman /NewCenturySchlbk-Bold /NewCenturySchlbk-BoldItalic /NewCenturySchlbk-Italic /Palatino-Bold
 /Palatino-BoldItalic /Palatino-Italic /Palatino-Roman ] {ISOLatin1Encoding reEncode } forall
%%EndProlog
%%BeginSetup
%%EndSetup
newpath  gsave  .25 .25 scale  gsave  0 0 t black[  ] 0 sd 3 lw 1 1 1 c 2268 2085 0 0 bf black 1 1 1 c 2263 1770 2 313 bf black 1 1 1 c black 1860 1145 319 584 bl 1 1 1 c black 1860 1145 319 584 bl 6 lw 1 1 1 c black 3 lw /w 33 def /w2 {w 2 div} def
 /w3 {w 3 div} def 366 1214 m20 6 lw 3 lw 459 1166 m20 6 lw 3 lw 552 1104 m20 6 lw 3 lw 645 1060 m20 6 lw 3 lw 738 1014 m20 6 lw 831 919 m 1 Y s 3 lw 831 934 m20 6 lw 924 876 m 8 Y s 924 911 m 2 Y s 3 lw 924 897 m20 6 lw 1017 748 m 41 Y s 1017 817 m
 15 Y s 3 lw 1017 803 m20 6 lw 1110 698 m 65 Y s 1110 790 m 21 Y s 3 lw 1110 777 m20 6 lw 1296 584 m 135 Y s 1296 746 m 31 Y s 3 lw 1296 732 m20 6 lw 1482 584 m 135 Y s 1482 746 m 31 Y s 3 lw 1482 732 m20 6 lw 3 lw 319 584 m 1860 X s
 gsave  2263 1770 2 313 C 1949.08 376.258 t 0 r /Helvetica findfont 81.3741 sf 0 0 m ( [GeV]) show NC gr 
 gsave  2263 1770 2 313 C 1915.19 332.192 t 0 r /Helvetica findfont 54.2494 sf 0 0 m (T) show NC gr 
 gsave  2263 1770 2 313 C 1630.45 376.258 t 0 r /Helvetica findfont 81.3741 sf 0 0 m (1st jet p) show NC gr  435 584 m cl s 482 584 m cl s 528 584 m cl s 575 584 m cl s 621 584 m cl s 668 584 m cl s 714 584 m cl s 761 584 m cl s 807 584 m cl s 854
 584 m cl s 900 584 m cl s 947 584 m cl s 993 584 m cl s 1040 584 m cl s 1087 584 m cl s 1133 584 m cl s 1180 584 m cl s 1226 584 m cl s 1273 584 m cl s 1319 584 m cl s 1366 584 m cl s 1412 584 m cl s 1459 584 m cl s 1505 584 m cl s 1552 584 m cl s
 1598 584 m cl s 1645 584 m cl s 1691 584 m cl s 1738 584 m cl s 1784 584 m cl s 1831 584 m cl s 1877 584 m cl s 1924 584 m cl s 1970 584 m cl s 2017 584 m cl s 2063 584 m cl s 435 584 m cl s 389 584 m cl s 342 584 m cl s 2063 584 m cl s 2110 584 m
 cl s 2156 584 m cl s 319 1729 m 1860 X s 435 1729 m cl s 482 1729 m cl s 528 1729 m cl s 575 1729 m cl s 621 1729 m cl s 668 1729 m cl s 714 1729 m cl s 761 1729 m cl s 807 1729 m cl s 854 1729 m cl s 900 1729 m cl s 947 1729 m cl s 993 1729 m cl s
 1040 1729 m cl s 1087 1729 m cl s 1133 1729 m cl s 1180 1729 m cl s 1226 1729 m cl s 1273 1729 m cl s 1319 1729 m cl s 1366 1729 m cl s 1412 1729 m cl s 1459 1729 m cl s 1505 1729 m cl s 1552 1729 m cl s 1598 1729 m cl s 1645 1729 m cl s 1691 1729 m
 cl s 1738 1729 m cl s 1784 1729 m cl s 1831 1729 m cl s 1877 1729 m cl s 1924 1729 m cl s 1970 1729 m cl s 2017 1729 m cl s 2063 1729 m cl s 435 1729 m cl s 389 1729 m cl s 342 1729 m cl s 2063 1729 m cl s 2110 1729 m cl s 2156 1729 m cl s 319 584 m
 1145 Y s
 gsave  2263 1770 2 313 C 166.096 1091.49 t 90 r /Helvetica findfont 81.3741 sf 0 0 m (Events / 200 GeV) show NC gr  341 629 m -22 X s 341 655 m -22 X s 341 673 m -22 X s 341 688 m -22 X s 341 700 m -22 X s 341 709 m -22 X s 341 718 m -22 X s 341 726
 m -22 X s 363 732 m -44 X s
 gsave  2263 1770 2 313 C 300.555 705.231 t 0 r  -36 0 t /Helvetica findfont 64.4212 sf 0 0 m (1) show NC gr  341 777 m -22 X s 341 803 m -22 X s 341 821 m -22 X s 341 836 m -22 X s 341 848 m -22 X s 341 857 m -22 X s 341 866 m -22 X s 341 874 m -22
 X s 363 880 m -44 X s
 gsave  2263 1770 2 313 C 300.555 853.27 t 0 r  -73 0 t /Helvetica findfont 64.4212 sf 0 0 m (10) show NC gr  341 925 m -22 X s 341 951 m -22 X s 341 970 m -22 X s 341 984 m -22 X s 341 996 m -22 X s 341 1005 m -22 X s 341 1014 m -22 X s 341 1022 m
 -22 X s 363 1028 m -44 X s
 gsave  2263 1770 2 313 C 274.567 1027.08 t 0 r /Helvetica findfont 44.0776 sf 0 0 m (2) show NC gr 
 gsave  2263 1770 2 313 C 203.383 999.965 t 0 r /Helvetica findfont 64.4212 sf 0 0 m (10) show NC gr  341 1073 m -22 X s 341 1099 m -22 X s 341 1118 m -22 X s 341 1132 m -22 X s 341 1144 m -22 X s 341 1154 m -22 X s 341 1162 m -22 X s 341 1170 m -22
 X s 363 1176 m -44 X s
 gsave  2263 1770 2 313 C 274.567 1179.62 t 0 r /Helvetica findfont 44.0776 sf 0 0 m (3) show NC gr 
 gsave  2263 1770 2 313 C 203.383 1149.11 t 0 r /Helvetica findfont 64.4212 sf 0 0 m (10) show NC gr  341 1221 m -22 X s 341 1247 m -22 X s 341 1266 m -22 X s 341 1280 m -22 X s 341 1292 m -22 X s 341 1302 m -22 X s 341 1310 m -22 X s 341 1318 m -22
 X s 363 1325 m -44 X s
 gsave  2263 1770 2 313 C 274.567 1321.99 t 0 r /Helvetica findfont 44.0776 sf 0 0 m (4) show NC gr 
 gsave  2263 1770 2 313 C 203.383 1294.87 t 0 r /Helvetica findfont 64.4212 sf 0 0 m (10) show NC gr  341 1369 m -22 X s 341 1395 m -22 X s 341 1414 m -22 X s 341 1428 m -22 X s 341 1440 m -22 X s 341 1450 m -22 X s 341 1458 m -22 X s 341 1466 m -22
 X s 363 1473 m -44 X s
 gsave  2263 1770 2 313 C 274.567 1474.52 t 0 r /Helvetica findfont 44.0776 sf 0 0 m (5) show NC gr 
 gsave  2263 1770 2 313 C 203.383 1444.02 t 0 r /Helvetica findfont 64.4212 sf 0 0 m (10) show NC gr  341 1517 m -22 X s 341 1543 m -22 X s 341 1562 m -22 X s 341 1576 m -22 X s 341 1588 m -22 X s 341 1598 m -22 X s 341 1606 m -22 X s 341 1614 m -22
 X s 363 1621 m -44 X s
 gsave  2263 1770 2 313 C 274.567 1623.67 t 0 r /Helvetica findfont 44.0776 sf 0 0 m (6) show NC gr 
 gsave  2263 1770 2 313 C 203.383 1593.16 t 0 r /Helvetica findfont 64.4212 sf 0 0 m (10) show NC gr  341 1665 m -22 X s 341 1691 m -22 X s 341 1710 m -22 X s 341 1724 m -22 X s 2179 584 m 1145 Y s 2157 629 m 22 X s 2157 655 m 22 X s 2157 673 m 22 X
 s 2157 688 m 22 X s 2157 700 m 22 X s 2157 709 m 22 X s 2157 718 m 22 X s 2157 726 m 22 X s 2136 732 m 43 X s 2157 777 m 22 X s 2157 803 m 22 X s 2157 821 m 22 X s 2157 836 m 22 X s 2157 848 m 22 X s 2157 857 m 22 X s 2157 866 m 22 X s 2157 874 m 22
 X s 2136 880 m 43 X s 2157 925 m 22 X s 2157 951 m 22 X s 2157 970 m 22 X s 2157 984 m 22 X s 2157 996 m 22 X s 2157 1005 m 22 X s 2157 1014 m 22 X s 2157 1022 m 22 X s 2136 1028 m 43 X s 2157 1073 m 22 X s 2157 1099 m 22 X s 2157 1118 m 22 X s 2157
 1132 m 22 X s 2157 1144 m 22 X s 2157 1154 m 22 X s 2157 1162 m 22 X s 2157 1170 m 22 X s 2136 1176 m 43 X s 2157 1221 m 22 X s 2157 1247 m 22 X s 2157 1266 m 22 X s 2157 1280 m 22 X s 2157 1292 m 22 X s 2157 1302 m 22 X s 2157 1310 m 22 X s 2157
 1318 m 22 X s 2136 1325 m 43 X s 2157 1369 m 22 X s 2157 1395 m 22 X s 2157 1414 m 22 X s 2157 1428 m 22 X s 2157 1440 m 22 X s 2157 1450 m 22 X s 2157 1458 m 22 X s 2157 1466 m 22 X s 2136 1473 m 43 X s 2157 1517 m 22 X s 2157 1543 m 22 X s 2157
 1562 m 22 X s 2157 1576 m 22 X s 2157 1588 m 22 X s 2157 1598 m 22 X s 2157 1606 m 22 X s 2157 1614 m 22 X s 2136 1621 m 43 X s 2157 1665 m 22 X s 2157 1691 m 22 X s 2157 1710 m 22 X s 2157 1724 m 22 X s 0.4 0.6 1 c black 0.4 0.6 1 c 319 584 m 629 Y
 93 X -49 Y 93 X -53 Y 93 X -50 Y 93 X -55 Y 93 X -56 Y 93 X -51 Y 93 X -63 Y 186 X -95 Y 93 X 16 Y 93 X -147 Y 93 X -26 Y 744 X f black 0.4 0.6 1 c black 319 1213 m 93 X -49 Y 93 X -53 Y 93 X -50 Y 93 X -55 Y 93 X -56 Y 93 X -51 Y 93 X -63 Y 186 X
 -95 Y 93 X 16 Y 93 X -147 Y 93 X -26 Y 744 X s 0.999 0.999 0.999 c black 0.999 0.999 0.999 c 319 584 m 532 Y 93 X -53 Y 93 X -57 Y 93 X -48 Y 93 X -66 Y 93 X -60 Y 93 X -70 Y 93 X -43 Y 93 X -1 Y 93 X -129 Y 93 X -5 Y 930 X f black 0.999 0.999 0.999
 c black 319 1116 m 93 X -53 Y 93 X -57 Y 93 X -48 Y 93 X -66 Y 93 X -60 Y 93 X -70 Y 93 X -43 Y 93 X -1 Y 93 X -129 Y 93 X -5 Y 930 X s 1 1 1 c black 319 1116 m 93 X -53 Y 93 X -57 Y 93 X -48 Y 93 X -66 Y 93 X -60 Y 93 X -70 Y 93 X -43 Y 93 X -1 Y
 93 X -129 Y 93 X -5 Y 930 X s 0.6 1 0.6 c black 0.6 1 0.6 c 319 584 m 532 Y 93 X -53 Y 93 X -57 Y 93 X -48 Y 93 X -66 Y 93 X -60 Y 93 X -70 Y 93 X -43 Y 93 X -1 Y 93 X -129 Y 93 X -5 Y 930 X f black 0.6 1 0.6 c black 319 1116 m 93 X -53 Y 93 X -57 Y
 93 X -48 Y 93 X -66 Y 93 X -60 Y 93 X -70 Y 93 X -43 Y 93 X -1 Y 93 X -129 Y 93 X -5 Y 930 X s 0.999 0.999 0.999 c black 0.999 0.999 0.999 c 319 584 m 459 Y 93 X -39 Y 93 X -52 Y 93 X -42 Y 93 X -57 Y 93 X -54 Y 93 X -73 Y 93 X -38 Y 93 X 14 Y 93 X
 -118 Y 1023 X f black 0.999 0.999 0.999 c black 319 1043 m 93 X -39 Y 93 X -52 Y 93 X -42 Y 93 X -57 Y 93 X -54 Y 93 X -73 Y 93 X -38 Y 93 X 14 Y 93 X -118 Y 1023 X s 1 1 1 c black 319 1043 m 93 X -39 Y 93 X -52 Y 93 X -42 Y 93 X -57 Y 93 X -54 Y 93
 X -73 Y 93 X -38 Y 93 X 14 Y 93 X -118 Y 1023 X s 1 0.8 0.4 c black 1 0.8 0.4 c 319 584 m 459 Y 93 X -39 Y 93 X -52 Y 93 X -42 Y 93 X -57 Y 93 X -54 Y 93 X -73 Y 93 X -38 Y 93 X 14 Y 93 X -118 Y 1023 X f black 1 0.8 0.4 c black 319 1043 m 93 X -39 Y
 93 X -52 Y 93 X -42 Y 93 X -57 Y 93 X -54 Y 93 X -73 Y 93 X -38 Y 93 X 14 Y 93 X -118 Y 1023 X s 0.999 0.999 0.999 c black 0.999 0.999 0.999 c 319 584 m 453 Y 93 X -39 Y 93 X -53 Y 93 X -40 Y 93 X -58 Y 93 X -54 Y 93 X -73 Y 93 X -35 Y 93 X -49 Y 93
 X -52 Y 1023 X f black 0.999 0.999 0.999 c black 319 1037 m 93 X -39 Y 93 X -53 Y 93 X -40 Y 93 X -58 Y 93 X -54 Y 93 X -73 Y 93 X -35 Y 93 X -49 Y 93 X -52 Y 1023 X s 1 1 1 c black 319 1037 m 93 X -39 Y 93 X -53 Y 93 X -40 Y 93 X -58 Y 93 X -54 Y
 93 X -73 Y 93 X -35 Y 93 X -49 Y 93 X -52 Y 1023 X s 1 0.4 0.6 c black 1 0.4 0.6 c 319 584 m 453 Y 93 X -39 Y 93 X -53 Y 93 X -40 Y 93 X -58 Y 93 X -54 Y 93 X -73 Y 93 X -35 Y 93 X -49 Y 93 X -52 Y 1023 X f black 1 0.4 0.6 c black 319 1037 m 93 X
 -39 Y 93 X -53 Y 93 X -40 Y 93 X -58 Y 93 X -54 Y 93 X -73 Y 93 X -35 Y 93 X -49 Y 93 X -52 Y 1023 X s 1 0 0 c 6 lw 1 1 1 c black 1 0 0 c 319 1213 m 93 X -49 Y 93 X -53 Y 93 X -50 Y 93 X -55 Y 93 X -56 Y 93 X -51 Y 93 X -63 Y 186 X -95 Y 93 X 16 Y
 93 X -147 Y 93 X -26 Y 744 X s black 3 lw 1 0 0 c 1 lw << /PatternType 1 /PaintType 2 /TilingType 1 /BBox [ 0 0 100 100 ] /XStep 100 /YStep 100 /PaintProc { begin gsave 0 100 m 100 0 l s gr end } >> [ 0.24 0 0 0.24 0 0 ] makepattern /P05 exch def
 /cs {[/Pattern /DeviceRGB] setcolorspace} def /FA {f [/DeviceRGB] setcolorspace} def cs 1 0 0 P05 setcolor 319 584 m 631 Y 93 X -50 Y 93 X -53 Y 93 X -49 Y 93 X -54 Y 93 X -55 Y 93 X -48 Y 93 X -63 Y 93 X 8 Y 93 X -95 Y 93 X 22 Y 93 X -141 Y 93 X
 -53 Y -93 X 140 Y -93 X -1 Y -93 X 94 Y -93 X 11 Y -93 X 64 Y -93 X 54 Y -93 X 58 Y -93 X 55 Y -93 X 50 Y -93 X 54 Y -93 X 49 Y -93 X -628 Y FA 6 lw 1 1 1 c 15 lw 924 877 m s 924 877 m cl s 1017 823 m 12 Y s 1017 835 m cl s 1017 783 m -30 Y s 1017
 753 m cl s 1110 797 m 18 Y s 1110 815 m cl s 1110 757 m -46 Y s 1110 711 m cl s 1296 753 m 33 Y s 1296 786 m cl s 1296 712 m -92 Y s 1296 620 m cl s 1482 753 m 33 Y s 1482 786 m cl s 1482 712 m -92 Y s 1482 620 m cl s black 1 1 1 c 3 lw /w 43 def
 /w2 {w 2 div} def /w3 {w 3 div} def 366 1214 459 1166 552 1104 645 1060 738 1014 831 934 924 897 1017 803 1110 777 9 { m20} R 15 lw 3 lw 1296 732 m20 15 lw 3 lw 1482 732 m20 15 lw black 6 lw 1 1 1 c black 3 lw /w 33 def /w2 {w 2 div} def /w3 {w 3
 div} def 366 1214 m20 6 lw 3 lw 459 1166 m20 6 lw 3 lw 552 1104 m20 6 lw 3 lw 645 1060 m20 6 lw 3 lw 738 1014 m20 6 lw 831 919 m 1 Y s 3 lw 831 934 m20 6 lw 924 876 m 8 Y s 924 911 m 2 Y s 3 lw 924 897 m20 6 lw 1017 748 m 41 Y s 1017 817 m 15 Y s 3
 lw 1017 803 m20 6 lw 1110 698 m 65 Y s 1110 790 m 21 Y s 3 lw 1110 777 m20 6 lw 1296 584 m 135 Y s 1296 746 m 31 Y s 3 lw 1296 732 m20 6 lw 1482 584 m 135 Y s 1482 746 m 31 Y s 3 lw 1482 732 m20 6 lw 831 920 m -1 Y s 831 919 m cl s 924 911 m 2 Y s
 924 913 m cl s 924 884 m -7 Y s 924 877 m cl s 1017 817 m 18 Y s 1017 835 m cl s 1017 789 m -36 Y s 1017 753 m cl s 1110 790 m 25 Y s 1110 815 m cl s 1110 763 m -52 Y s 1110 711 m cl s 1296 746 m 40 Y s 1296 786 m cl s 1296 719 m -99 Y s 1296 620 m
 cl s 1482 746 m 40 Y s 1482 786 m cl s 1482 719 m -99 Y s 1482 620 m cl s 3 lw 366 1214 459 1166 552 1104 645 1060 738 1014 831 934 924 897 1017 803 1110 777 9 { m20} R 6 lw 3 lw 1296 732 m20 6 lw 3 lw 1482 732 m20 6 lw 3 lw 319 584 m 1860 X s 435
 584 m cl s 482 584 m cl s 528 584 m cl s 575 584 m cl s 621 584 m cl s 668 584 m cl s 714 584 m cl s 761 584 m cl s 807 584 m cl s 854 584 m cl s 900 584 m cl s 947 584 m cl s 993 584 m cl s 1040 584 m cl s 1087 584 m cl s 1133 584 m cl s 1180 584 m
 cl s 1226 584 m cl s 1273 584 m cl s 1319 584 m cl s 1366 584 m cl s 1412 584 m cl s 1459 584 m cl s 1505 584 m cl s 1552 584 m cl s 1598 584 m cl s 1645 584 m cl s 1691 584 m cl s 1738 584 m cl s 1784 584 m cl s 1831 584 m cl s 1877 584 m cl s 1924
 584 m cl s 1970 584 m cl s 2017 584 m cl s 2063 584 m cl s 435 584 m cl s 389 584 m cl s 342 584 m cl s 2063 584 m cl s 2110 584 m cl s 2156 584 m cl s 319 1729 m 1860 X s 435 1729 m cl s 482 1729 m cl s 528 1729 m cl s 575 1729 m cl s 621 1729 m cl
 s 668 1729 m cl s 714 1729 m cl s 761 1729 m cl s 807 1729 m cl s 854 1729 m cl s 900 1729 m cl s 947 1729 m cl s 993 1729 m cl s 1040 1729 m cl s 1087 1729 m cl s 1133 1729 m cl s 1180 1729 m cl s 1226 1729 m cl s 1273 1729 m cl s 1319 1729 m cl s
 1366 1729 m cl s 1412 1729 m cl s 1459 1729 m cl s 1505 1729 m cl s 1552 1729 m cl s 1598 1729 m cl s 1645 1729 m cl s 1691 1729 m cl s 1738 1729 m cl s 1784 1729 m cl s 1831 1729 m cl s 1877 1729 m cl s 1924 1729 m cl s 1970 1729 m cl s 2017 1729 m
 cl s 2063 1729 m cl s 435 1729 m cl s 389 1729 m cl s 342 1729 m cl s 2063 1729 m cl s 2110 1729 m cl s 2156 1729 m cl s 319 584 m 1145 Y s 341 629 m -22 X s 341 655 m -22 X s 341 673 m -22 X s 341 688 m -22 X s 341 700 m -22 X s 341 709 m -22 X s
 341 718 m -22 X s 341 726 m -22 X s 363 732 m -44 X s 341 777 m -22 X s 341 803 m -22 X s 341 821 m -22 X s 341 836 m -22 X s 341 848 m -22 X s 341 857 m -22 X s 341 866 m -22 X s 341 874 m -22 X s 363 880 m -44 X s 341 925 m -22 X s 341 951 m -22 X
 s 341 970 m -22 X s 341 984 m -22 X s 341 996 m -22 X s 341 1005 m -22 X s 341 1014 m -22 X s 341 1022 m -22 X s 363 1028 m -44 X s 341 1073 m -22 X s 341 1099 m -22 X s 341 1118 m -22 X s 341 1132 m -22 X s 341 1144 m -22 X s 341 1154 m -22 X s 341
 1162 m -22 X s 341 1170 m -22 X s 363 1176 m -44 X s 341 1221 m -22 X s 341 1247 m -22 X s 341 1266 m -22 X s 341 1280 m -22 X s 341 1292 m -22 X s 341 1302 m -22 X s 341 1310 m -22 X s 341 1318 m -22 X s 363 1325 m -44 X s 341 1369 m -22 X s 341
 1395 m -22 X s 341 1414 m -22 X s 341 1428 m -22 X s 341 1440 m -22 X s 341 1450 m -22 X s 341 1458 m -22 X s 341 1466 m -22 X s 363 1473 m -44 X s 341 1517 m -22 X s 341 1543 m -22 X s 341 1562 m -22 X s 341 1576 m -22 X s 341 1588 m -22 X s 341
 1598 m -22 X s 341 1606 m -22 X s 341 1614 m -22 X s 363 1621 m -44 X s 341 1665 m -22 X s 341 1691 m -22 X s 341 1710 m -22 X s 341 1724 m -22 X s 2179 584 m 1145 Y s 2157 629 m 22 X s 2157 655 m 22 X s 2157 673 m 22 X s 2157 688 m 22 X s 2157 700
 m 22 X s 2157 709 m 22 X s 2157 718 m 22 X s 2157 726 m 22 X s 2136 732 m 43 X s 2157 777 m 22 X s 2157 803 m 22 X s 2157 821 m 22 X s 2157 836 m 22 X s 2157 848 m 22 X s 2157 857 m 22 X s 2157 866 m 22 X s 2157 874 m 22 X s 2136 880 m 43 X s 2157
 925 m 22 X s 2157 951 m 22 X s 2157 970 m 22 X s 2157 984 m 22 X s 2157 996 m 22 X s 2157 1005 m 22 X s 2157 1014 m 22 X s 2157 1022 m 22 X s 2136 1028 m 43 X s 2157 1073 m 22 X s 2157 1099 m 22 X s 2157 1118 m 22 X s 2157 1132 m 22 X s 2157 1144 m
 22 X s 2157 1154 m 22 X s 2157 1162 m 22 X s 2157 1170 m 22 X s 2136 1176 m 43 X s 2157 1221 m 22 X s 2157 1247 m 22 X s 2157 1266 m 22 X s 2157 1280 m 22 X s 2157 1292 m 22 X s 2157 1302 m 22 X s 2157 1310 m 22 X s 2157 1318 m 22 X s 2136 1325 m 43
 X s 2157 1369 m 22 X s 2157 1395 m 22 X s 2157 1414 m 22 X s 2157 1428 m 22 X s 2157 1440 m 22 X s 2157 1450 m 22 X s 2157 1458 m 22 X s 2157 1466 m 22 X s 2136 1473 m 43 X s 2157 1517 m 22 X s 2157 1543 m 22 X s 2157 1562 m 22 X s 2157 1576 m 22 X
 s 2157 1588 m 22 X s 2157 1598 m 22 X s 2157 1606 m 22 X s 2157 1614 m 22 X s 2136 1621 m 43 X s 2157 1665 m 22 X s 2157 1691 m 22 X s 2157 1710 m 22 X s 2157 1724 m 22 X s
 gsave  2263 1770 2 313 C 406.765 1447.41 t 0 r /Helvetica findfont 64.4212 sf 0 0 m (CRW for MB\255GGd) show NC gr 
 gsave  2263 1770 2 313 C 1464.36 1616.89 t 0 r /Helvetica findfont 64.4212 sf 0 0 m (SM Total) show NC gr  1 1 1 c 1338 1603 m 107 X 74 Y -107 X f 1 0 0 c 6 lw 1338 1640 m 107 X s black
 gsave  2263 1770 2 313 C 1464.36 1511.81 t 0 r /Helvetica findfont 64.4212 sf 0 0 m (Data) show NC gr  1391 1502 m 64 Y s 3 lw 1391 1534 m20 6 lw
 gsave  2263 1770 2 313 C 1464.36 1406.73 t 0 r /Helvetica findfont 64.4212 sf 0 0 m (W+jets) show NC gr  0.4 0.6 1 c 3 lw 1338 1391 m 107 X 74 Y -107 X f 6 lw black 3 lw 1338 1465 m 107 X s 1338 1391 m 107 X s 1445 1391 m 74 Y s 1338 1391 m 74 Y s
 gsave  2263 1770 2 313 C 1498.25 1298.26 t 0 r /Helvetica findfont 64.4212 sf 0 0 m (\(+EW\) & single top) show NC gr 
 gsave  2263 1770 2 313 C 1481.3 1298.26 t 0 r /Helvetica findfont 64.4212 sf 0 0 m (t) show NC gr  1481 1349 m 17 X s
 gsave  2263 1770 2 313 C 1464.36 1298.26 t 0 r /Helvetica findfont 64.4212 sf 0 0 m (t) show NC gr  0.6 1 0.6 c 1338 1284 m 107 X 75 Y -107 X f black 1338 1359 m 107 X s 1338 1284 m 107 X s 1445 1284 m 75 Y s 1338 1284 m 75 Y s
 gsave  2263 1770 2 313 C 1464.36 1193.18 t 0 r /Helvetica findfont 64.4212 sf 0 0 m (Z+jets) show NC gr  1 0.8 0.4 c 1338 1178 m 107 X 75 Y -107 X f black 1338 1253 m 107 X s 1338 1178 m 107 X s 1445 1178 m 75 Y s 1338 1178 m 75 Y s
 gsave  2263 1770 2 313 C 1464.36 1088.1 t 0 r /Helvetica findfont 64.4212 sf 0 0 m (Diboson) show NC gr  1 0.4 0.6 c 1338 1072 m 107 X 74 Y -107 X f black 1338 1146 m 107 X s 1338 1072 m 107 X s 1445 1072 m 74 Y s 1338 1072 m 74 Y s
 gsave  2263 1770 2 313 C 911.832 1566.05 t 0 r /Helvetica findfont 44.0776 sf 0 0 m (\2551) show NC gr 
 gsave  2263 1770 2 313 C 471.17 1535.54 t 0 r /Helvetica findfont 64.4212 sf 0 0 m (=13TeV, 139 fb) show NC gr 
 gsave  2263 1770 2 313 C 440.662 1535.54 t 0 r /Helvetica findfont 64.4212 sf 0 0 m (s) show NC gr  6 lw 420 1573 m 7 -41 d s 3 lw 427 1532 m 7 61 d s 434 1593 m 37 X s 1 1 1 c 2254 561 2 2 bf black 1 1 1 c black 1860 358 318 187 bl 1 1 1 c black
 1860 358 318 187 bl 6 lw 1 1 1 c black 3 lw 364 368 m20 6 lw 3 lw 457 372 m20 6 lw 3 lw 550 349 m20 6 lw 3 lw 643 365 m20 6 lw 3 lw 736 387 m20 6 lw 3 lw 829 329 m20 6 lw 3 lw 923 361 m20 6 lw 3 lw 1016 301 m20 6 lw 3 lw 1109 268 m20 6 lw 3 lw 1295
 315 m20 6 lw 3 lw 318 187 m 1860 X s
 gsave  2254 561 2 2 C 1959.25 44.0662 t 0 r /Helvetica findfont 78.1689 sf 0 0 m ( [GeV]) show NC gr 
 gsave  2254 561 2 2 C 1928.75 -2.35513e-13 t 0 r /Helvetica findfont 50.9797 sf 0 0 m (T) show NC gr 
 gsave  2254 561 2 2 C 1657.57 44.0662 t 0 r /Helvetica findfont 78.1689 sf 0 0 m (1st jet p) show NC gr  434 201 m -14 Y s 481 194 m -7 Y s 527 194 m -7 Y s 574 194 m -7 Y s 620 194 m -7 Y s 667 201 m -14 Y s 713 194 m -7 Y s 760 194 m -7 Y s 806
 194 m -7 Y s 853 194 m -7 Y s 899 201 m -14 Y s 946 194 m -7 Y s 992 194 m -7 Y s 1039 194 m -7 Y s 1085 194 m -7 Y s 1132 201 m -14 Y s 1178 194 m -7 Y s 1225 194 m -7 Y s 1271 194 m -7 Y s 1318 194 m -7 Y s 1364 201 m -14 Y s 1411 194 m -7 Y s
 1457 194 m -7 Y s 1504 194 m -7 Y s 1550 194 m -7 Y s 1597 201 m -14 Y s 1643 194 m -7 Y s 1690 194 m -7 Y s 1737 194 m -7 Y s 1783 194 m -7 Y s 1830 201 m -14 Y s 1876 194 m -7 Y s 1923 194 m -7 Y s 1969 194 m -7 Y s 2016 194 m -7 Y s 2062 201 m
 -14 Y s 434 201 m -14 Y s 388 194 m -7 Y s 341 194 m -7 Y s 2062 201 m -14 Y s 2109 194 m -7 Y s 2155 194 m -7 Y s
 gsave  2254 561 2 2 C 369.478 118.64 t 0 r /Helvetica findfont 78.1689 sf 0 0 m (500) show NC gr 
 gsave  2254 561 2 2 C 576.251 118.64 t 0 r /Helvetica findfont 78.1689 sf 0 0 m (1000) show NC gr 
 gsave  2254 561 2 2 C 810.141 118.64 t 0 r /Helvetica findfont 78.1689 sf 0 0 m (1500) show NC gr 
 gsave  2254 561 2 2 C 1040.64 118.64 t 0 r /Helvetica findfont 78.1689 sf 0 0 m (2000) show NC gr 
 gsave  2254 561 2 2 C 1274.53 118.64 t 0 r /Helvetica findfont 78.1689 sf 0 0 m (2500) show NC gr 
 gsave  2254 561 2 2 C 1508.42 118.64 t 0 r /Helvetica findfont 78.1689 sf 0 0 m (3000) show NC gr 
 gsave  2254 561 2 2 C 1738.92 118.64 t 0 r /Helvetica findfont 78.1689 sf 0 0 m (3500) show NC gr 
 gsave  2254 561 2 2 C 1972.81 118.64 t 0 r /Helvetica findfont 78.1689 sf 0 0 m (4000) show NC gr  318 545 m 1860 X s 434 531 m 14 Y s 481 538 m 7 Y s 527 538 m 7 Y s 574 538 m 7 Y s 620 538 m 7 Y s 667 531 m 14 Y s 713 538 m 7 Y s 760 538 m 7 Y s
 806 538 m 7 Y s 853 538 m 7 Y s 899 531 m 14 Y s 946 538 m 7 Y s 992 538 m 7 Y s 1039 538 m 7 Y s 1085 538 m 7 Y s 1132 531 m 14 Y s 1178 538 m 7 Y s 1225 538 m 7 Y s 1271 538 m 7 Y s 1318 538 m 7 Y s 1364 531 m 14 Y s 1411 538 m 7 Y s 1457 538 m 7
 Y s 1504 538 m 7 Y s 1550 538 m 7 Y s 1597 531 m 14 Y s 1643 538 m 7 Y s 1690 538 m 7 Y s 1737 538 m 7 Y s 1783 538 m 7 Y s 1830 531 m 14 Y s 1876 538 m 7 Y s 1923 538 m 7 Y s 1969 538 m 7 Y s 2016 538 m 7 Y s 2062 531 m 14 Y s 434 531 m 14 Y s 388
 538 m 7 Y s 341 538 m 7 Y s 2062 531 m 14 Y s 2109 538 m 7 Y s 2155 538 m 7 Y s 318 187 m 358 Y s
 gsave  2254 561 2 2 C 166.096 284.736 t 90 r /Helvetica findfont 67.9729 sf 0 0 m (Data/SM) show NC gr  361 203 m -43 X s 339 220 m -21 X s 339 236 m -21 X s 339 252 m -21 X s 339 268 m -21 X s 361 285 m -43 X s 339 301 m -21 X s 339 317 m -21 X s
 339 334 m -21 X s 339 350 m -21 X s 361 366 m -43 X s 339 382 m -21 X s 339 399 m -21 X s 339 415 m -21 X s 339 431 m -21 X s 361 447 m -43 X s 339 464 m -21 X s 339 480 m -21 X s 339 496 m -21 X s 339 512 m -21 X s 361 529 m -43 X s 361 203 m -43 X
 s 339 187 m -21 X s 361 529 m -43 X s
 gsave  2254 561 2 2 C 261.008 183.044 t 0 r /Helvetica findfont 57.777 sf 0 0 m (0) show NC gr 
 gsave  2254 561 2 2 C 213.552 261.008 t 0 r /Helvetica findfont 57.777 sf 0 0 m (0.5) show NC gr 
 gsave  2254 561 2 2 C 271.177 342.361 t 0 r /Helvetica findfont 57.777 sf 0 0 m (1) show NC gr 
 gsave  2254 561 2 2 C 213.552 423.714 t 0 r /Helvetica findfont 57.777 sf 0 0 m (1.5) show NC gr 
 gsave  2254 561 2 2 C 261.008 505.067 t 0 r /Helvetica findfont 57.777 sf 0 0 m (2) show NC gr  2178 187 m 358 Y s 2135 203 m 43 X s 2157 220 m 21 X s 2157 236 m 21 X s 2157 252 m 21 X s 2157 268 m 21 X s 2135 285 m 43 X s 2157 301 m 21 X s 2157 317
 m 21 X s 2157 334 m 21 X s 2157 350 m 21 X s 2135 366 m 43 X s 2157 382 m 21 X s 2157 399 m 21 X s 2157 415 m 21 X s 2157 431 m 21 X s 2135 447 m 43 X s 2157 464 m 21 X s 2157 480 m 21 X s 2157 496 m 21 X s 2157 512 m 21 X s 2135 529 m 43 X s 2135
 203 m 43 X s 2157 187 m 21 X s 2135 529 m 43 X s 9 lw 736 400 m 7 Y s 736 407 m cl s 736 373 m -7 Y s 736 366 m cl s 829 343 m 13 Y s 829 356 m cl s 829 316 m -13 Y s 829 303 m cl s 923 375 m 31 Y s 923 406 m cl s 923 348 m -30 Y s 923 318 m cl s
 1016 315 m 48 Y s 1016 363 m cl s 1016 287 m -39 Y s 1016 248 m cl s 1109 282 m 39 Y s 1109 321 m cl s 1109 255 m -28 Y s 1109 227 m cl s 1295 328 m 130 Y s 1295 458 m cl s 1295 301 m -78 Y s 1295 223 m cl s 3 lw 364 368 457 372 550 349 643 365 736
 387 829 329 923 361 1016 301 1109 268 9 { m20} R 9 lw 3 lw 1295 315 m20 9 lw 1 0 0 c 6 lw black 3 lw 1 0 0 c 2178 227 m -27 -28 d s 2178 255 m -55 -56 d s 2178 284 m -84 -85 d s 2178 312 m -113 -113 d s 2178 341 m -142 -142 d s 2178 369 m -170 -170
 d s 2178 398 m -186 -185 d s 1983 203 m cl s 2178 427 m -186 -186 d s 1954 203 m cl s 2178 455 m -186 -185 d s 1926 203 m cl s 2178 484 m -186 -186 d s 1899 206 m -6 -7 d s 2178 512 m -186 -185 d s 1899 234 m -35 -35 d s 2170 533 m -178 -177 d s
 1899 263 m -63 -64 d s 2141 533 m -149 -149 d s 1899 291 m -92 -92 d s 2113 533 m -121 -120 d s 1899 320 m -121 -121 d s 2084 533 m -92 -92 d s 1899 349 m -149 -150 d s 2055 533 m -63 -63 d s 1899 377 m -178 -178 d s 2026 533 m -34 -34 d s 1899 406
 m -186 -186 d s 1696 203 m cl s 1998 533 m -6 -6 d s 1899 434 m -186 -185 d s 1667 203 m cl s 1899 463 m -186 -185 d s 1639 203 m cl s 1899 492 m -186 -186 d s 1620 214 m s 1899 520 m -186 -185 d s 1620 242 m s 1883 533 m -170 -170 d s 1620 271 m s
 1854 533 m -141 -141 d s 1620 299 m -25 -25 d s 1826 533 m -113 -112 d s 1620 328 m -53 -54 d s 1797 533 m -84 -84 d s 1620 356 m -82 -82 d s 1768 533 m -55 -55 d s 1620 385 m -93 -93 d s 1740 533 m -27 -27 d s 1620 414 m -113 -113 d s 1620 442 m
 -141 -141 d s 1607 458 m -157 -157 d s 1434 285 m -6 -5 d s 1578 458 m -178 -178 d s 1550 458 m -23 -23 d s 1523 431 m -152 -151 d s 1494 431 m -152 -151 d s 1465 431 m -129 -129 d s 1437 431 m -130 -129 d s 1430 452 m -152 -150 d s 1401 452 m -151
 -150 d s 1372 452 m -127 -127 d s 1343 452 m -2 -2 d s 1321 430 m -105 -105 d s 1293 430 m -106 -105 d s 1264 430 m -16 -15 d s 1240 407 m -82 -82 d s 1212 407 m -84 -83 d s 1183 407 m -83 -83 d s 1155 408 m -84 -84 d s 1127 408 m -65 -65 d s 1098
 408 m -62 -62 d s 1070 408 m -8 -7 d s 1047 386 m -39 -40 d s 1018 386 m -39 -40 d s 990 386 m -38 -38 d s 959 384 m -36 -36 d s 930 384 m -35 -36 d s 902 384 m -28 -28 d s 865 376 m -20 -20 d s 836 376 m -19 -20 d s 808 376 m -20 -20 d s 776 373 m
 -14 -14 d s 748 373 m -15 -14 d s 719 373 m -14 -14 d s 690 373 m s 688 371 m -10 -10 d s 659 371 m -10 -10 d s 631 371 m -10 -10 d s 602 371 m -9 -9 d s 572 370 m -8 -8 d s 544 370 m -8 -8 d s 515 370 m -8 -8 d s 485 369 m -6 -6 d s 457 369 m -7 -6
 d s 318 231 m s 428 369 m -6 -6 d s 318 259 m s 400 370 m -8 -8 d s 318 288 m s 371 370 m -7 -8 d s 318 317 m s 342 370 m -7 -8 d s 318 345 m s 6 lw black[ 4 8] 0 sd 3 lw 318 447 m 1860 X s 318 285 m 1860 X s 1 0 0 c[  12 12 ] 0 sd 6 lw 318 366 m
 1860 X s
 gr  gr showpage
end
%%EOF
