%!PS-Adobe-2.0 EPSF-2.0
%%BoundingBox:  0 0 567 521
%%Title: Distributions/jetPt_0__distrCRY_MB-C_afterFit_forThesis.eps: canvas
%%Creator: ROOT Version 6.04/16
%%CreationDate: Tue May 19 22:03:07 2020
%%DocumentNeededResources: ProcSet (FontSetInit)
%%EndComments
%%BeginProlog
80 dict begin
/s {stroke} def /l {lineto} def /m {moveto} def /t {translate} def
/r {rotate} def /rl {roll}  def /R {repeat} def
/d {rlineto} def /rm {rmoveto} def /gr {grestore} def /f {eofill} def
/c {setrgbcolor} def /black {0 setgray} def /sd {setdash} def
/cl {closepath} def /sf {scalefont setfont} def /lw {setlinewidth} def
/box {m dup 0 exch d exch 0 d 0 exch neg d cl} def
/NC{systemdict begin initclip end}def/C{NC box clip newpath}def
/bl {box s} def /bf {gsave box gsave f grestore 1 lw [] 0 sd s grestore} def /Y { 0 exch d} def /X { 0 d} def 
/K {{pop pop 0 moveto} exch kshow} bind def
/ita {/ang 15 def gsave [1 0 ang dup sin exch cos div 1 0 0] concat} def 
/mp {newpath /y exch def /x exch def} def
/side {[w .77 mul w .23 mul] .385 w mul sd w 0 l currentpoint t -144 r} def
/mr {mp x y w2 0 360 arc} def /m24 {mr s} def /m20 {mr f} def
/mb {mp x y w2 add m w2 neg 0 d 0 w neg d w 0 d 0 w d cl} def
/mt {mp x y w2 add m w2 neg w neg d w 0 d cl} def
/m21 {mb f} def /m25 {mb s} def /m22 {mt f} def /m26{mt s} def
/m23 {mp x y w2 sub m w2 w d w neg 0 d cl f} def
/m27 {mp x y w2 add m w3 neg w2 neg d w3 w2 neg d w3 w2 d cl s} def
/m28 {mp x w2 sub y w2 sub w3 add m w3 0 d  0 w3 neg d w3 0 d 0 w3 d w3 0 d  0 w3 d w3 neg 0 d 0 w3 d w3 neg 0 d 0 w3 neg d w3 neg 0 d cl s } def
/m29 {mp gsave x w2 sub y w2 add w3 sub m currentpoint t 4 {side} repeat cl fill gr} def
/m30 {mp gsave x w2 sub y w2 add w3 sub m currentpoint t 4 {side} repeat cl s gr} def
/m31 {mp x y w2 sub m 0 w d x w2 sub y m w 0 d x w2 sub y w2 add m w w neg d x w2 sub y w2 sub m w w d s} def
/m32 {mp x y w2 sub m w2 w d w neg 0 d cl s} def
/m33 {mp x y w2 add m w3 neg w2 neg d w3 w2 neg d w3 w2 d cl f} def
/m34 {mp x w2 sub y w2 sub w3 add m w3 0 d  0 w3 neg d w3 0 d 0 w3 d w3 0 d  0 w3 d w3 neg 0 d 0 w3 d w3 neg 0 d 0 w3 neg d w3 neg 0 d cl f } def
/m2 {mp x y w2 sub m 0 w d x w2 sub y m w 0 d s} def
/m5 {mp x w2 sub y w2 sub m w w d x w2 sub y w2 add m w w neg d s} def
%%IncludeResource: ProcSet (FontSetInit)
%%IncludeResource: font Times-Roman
%%IncludeResource: font Times-Italic
%%IncludeResource: font Times-Bold
%%IncludeResource: font Times-BoldItalic
%%IncludeResource: font Helvetica
%%IncludeResource: font Helvetica-Oblique
%%IncludeResource: font Helvetica-Bold
%%IncludeResource: font Helvetica-BoldOblique
%%IncludeResource: font Courier
%%IncludeResource: font Courier-Oblique
%%IncludeResource: font Courier-Bold
%%IncludeResource: font Courier-BoldOblique
%%IncludeResource: font Symbol
%%IncludeResource: font ZapfDingbats
/reEncode {exch findfont dup length dict begin {1 index /FID eq  {pop pop} {def} ifelse } forall /Encoding exch def currentdict end dup /FontName get exch definefont pop } def [/Times-Bold /Times-Italic /Times-BoldItalic /Helvetica /Helvetica-Oblique
 /Helvetica-Bold /Helvetica-BoldOblique /Courier /Courier-Oblique /Courier-Bold /Courier-BoldOblique /Times-Roman /AvantGarde-Book /AvantGarde-BookOblique /AvantGarde-Demi /AvantGarde-DemiOblique /Bookman-Demi /Bookman-DemiItalic /Bookman-Light
 /Bookman-LightItalic /Helvetica-Narrow /Helvetica-Narrow-Bold /Helvetica-Narrow-BoldOblique /Helvetica-Narrow-Oblique /NewCenturySchlbk-Roman /NewCenturySchlbk-Bold /NewCenturySchlbk-BoldItalic /NewCenturySchlbk-Italic /Palatino-Bold
 /Palatino-BoldItalic /Palatino-Italic /Palatino-Roman ] {ISOLatin1Encoding reEncode } forall
%%EndProlog
%%BeginSetup
%%EndSetup
newpath  gsave  .25 .25 scale  gsave  0 0 t black[  ] 0 sd 3 lw 1 1 1 c 2268 2085 0 0 bf black 1 1 1 c 2263 1770 2 313 bf black 1 1 1 c black 1860 1145 319 584 bl 1 1 1 c black 1860 1145 319 584 bl 6 lw 1 1 1 c black 3 lw /w 33 def /w2 {w 2 div} def
 /w3 {w 3 div} def 459 1101 m20 6 lw 3 lw 552 1188 m20 6 lw 3 lw 645 1145 m20 6 lw 3 lw 738 1075 m20 6 lw 3 lw 831 1008 m20 6 lw 3 lw 924 948 m20 6 lw 3 lw 1017 908 m20 6 lw 1110 832 m 3 Y s 3 lw 1110 848 m20 6 lw 1203 762 m 18 Y s 1203 807 m 6 Y s 3
 lw 1203 793 m20 6 lw 1296 720 m 32 Y s 1296 780 m 10 Y s 3 lw 1296 766 m20 6 lw 1389 720 m 32 Y s 1389 780 m 10 Y s 3 lw 1389 766 m20 6 lw 1668 584 m 110 Y s 1668 721 m 23 Y s 3 lw 1668 707 m20 6 lw 3 lw 319 584 m 1860 X s
 gsave  2263 1770 2 313 C 1949.08 376.258 t 0 r /Helvetica findfont 81.3741 sf 0 0 m ( [GeV]) show NC gr 
 gsave  2263 1770 2 313 C 1915.19 332.192 t 0 r /Helvetica findfont 54.2494 sf 0 0 m (T) show NC gr 
 gsave  2263 1770 2 313 C 1630.45 376.258 t 0 r /Helvetica findfont 81.3741 sf 0 0 m (1st jet p) show NC gr  435 584 m cl s 482 584 m cl s 528 584 m cl s 575 584 m cl s 621 584 m cl s 668 584 m cl s 714 584 m cl s 761 584 m cl s 807 584 m cl s 854
 584 m cl s 900 584 m cl s 947 584 m cl s 993 584 m cl s 1040 584 m cl s 1087 584 m cl s 1133 584 m cl s 1180 584 m cl s 1226 584 m cl s 1273 584 m cl s 1319 584 m cl s 1366 584 m cl s 1412 584 m cl s 1459 584 m cl s 1505 584 m cl s 1552 584 m cl s
 1598 584 m cl s 1645 584 m cl s 1691 584 m cl s 1738 584 m cl s 1784 584 m cl s 1831 584 m cl s 1877 584 m cl s 1924 584 m cl s 1970 584 m cl s 2017 584 m cl s 2063 584 m cl s 435 584 m cl s 389 584 m cl s 342 584 m cl s 2063 584 m cl s 2110 584 m
 cl s 2156 584 m cl s 319 1729 m 1860 X s 435 1729 m cl s 482 1729 m cl s 528 1729 m cl s 575 1729 m cl s 621 1729 m cl s 668 1729 m cl s 714 1729 m cl s 761 1729 m cl s 807 1729 m cl s 854 1729 m cl s 900 1729 m cl s 947 1729 m cl s 993 1729 m cl s
 1040 1729 m cl s 1087 1729 m cl s 1133 1729 m cl s 1180 1729 m cl s 1226 1729 m cl s 1273 1729 m cl s 1319 1729 m cl s 1366 1729 m cl s 1412 1729 m cl s 1459 1729 m cl s 1505 1729 m cl s 1552 1729 m cl s 1598 1729 m cl s 1645 1729 m cl s 1691 1729 m
 cl s 1738 1729 m cl s 1784 1729 m cl s 1831 1729 m cl s 1877 1729 m cl s 1924 1729 m cl s 1970 1729 m cl s 2017 1729 m cl s 2063 1729 m cl s 435 1729 m cl s 389 1729 m cl s 342 1729 m cl s 2063 1729 m cl s 2110 1729 m cl s 2156 1729 m cl s 319 584 m
 1145 Y s
 gsave  2263 1770 2 313 C 166.096 1091.49 t 90 r /Helvetica findfont 81.3741 sf 0 0 m (Events / 200 GeV) show NC gr  341 621 m -22 X s 341 643 m -22 X s 341 658 m -22 X s 341 670 m -22 X s 341 680 m -22 X s 341 688 m -22 X s 341 695 m -22 X s 341 702
 m -22 X s 363 707 m -44 X s
 gsave  2263 1770 2 313 C 300.555 680.208 t 0 r  -36 0 t /Helvetica findfont 64.4212 sf 0 0 m (1) show NC gr  341 744 m -22 X s 341 766 m -22 X s 341 781 m -22 X s 341 793 m -22 X s 341 803 m -22 X s 341 811 m -22 X s 341 818 m -22 X s 341 825 m -22
 X s 363 830 m -44 X s
 gsave  2263 1770 2 313 C 300.555 803.224 t 0 r  -73 0 t /Helvetica findfont 64.4212 sf 0 0 m (10) show NC gr  341 867 m -22 X s 341 889 m -22 X s 341 904 m -22 X s 341 916 m -22 X s 341 926 m -22 X s 341 934 m -22 X s 341 941 m -22 X s 341 948 m -22
 X s 363 953 m -44 X s
 gsave  2263 1770 2 313 C 274.567 952.509 t 0 r /Helvetica findfont 44.0776 sf 0 0 m (2) show NC gr 
 gsave  2263 1770 2 313 C 203.383 925.391 t 0 r /Helvetica findfont 64.4212 sf 0 0 m (10) show NC gr  341 990 m -22 X s 341 1012 m -22 X s 341 1027 m -22 X s 341 1039 m -22 X s 341 1049 m -22 X s 341 1057 m -22 X s 341 1064 m -22 X s 341 1071 m -22 X
 s 363 1076 m -44 X s
 gsave  2263 1770 2 313 C 274.567 1077.93 t 0 r /Helvetica findfont 44.0776 sf 0 0 m (3) show NC gr 
 gsave  2263 1770 2 313 C 203.383 1047.42 t 0 r /Helvetica findfont 64.4212 sf 0 0 m (10) show NC gr  341 1113 m -22 X s 341 1135 m -22 X s 341 1150 m -22 X s 341 1162 m -22 X s 341 1172 m -22 X s 341 1180 m -22 X s 341 1187 m -22 X s 341 1194 m -22
 X s 363 1199 m -44 X s
 gsave  2263 1770 2 313 C 274.567 1196.57 t 0 r /Helvetica findfont 44.0776 sf 0 0 m (4) show NC gr 
 gsave  2263 1770 2 313 C 203.383 1169.45 t 0 r /Helvetica findfont 64.4212 sf 0 0 m (10) show NC gr  341 1236 m -22 X s 341 1258 m -22 X s 341 1273 m -22 X s 341 1285 m -22 X s 341 1295 m -22 X s 341 1303 m -22 X s 341 1310 m -22 X s 341 1317 m -22
 X s 363 1322 m -44 X s
 gsave  2263 1770 2 313 C 274.567 1325.38 t 0 r /Helvetica findfont 44.0776 sf 0 0 m (5) show NC gr 
 gsave  2263 1770 2 313 C 203.383 1294.87 t 0 r /Helvetica findfont 64.4212 sf 0 0 m (10) show NC gr  341 1359 m -22 X s 341 1381 m -22 X s 341 1396 m -22 X s 341 1408 m -22 X s 341 1418 m -22 X s 341 1426 m -22 X s 341 1433 m -22 X s 341 1440 m -22
 X s 363 1445 m -44 X s
 gsave  2263 1770 2 313 C 274.567 1447.41 t 0 r /Helvetica findfont 44.0776 sf 0 0 m (6) show NC gr 
 gsave  2263 1770 2 313 C 203.383 1416.9 t 0 r /Helvetica findfont 64.4212 sf 0 0 m (10) show NC gr  341 1482 m -22 X s 341 1504 m -22 X s 341 1519 m -22 X s 341 1531 m -22 X s 341 1541 m -22 X s 341 1549 m -22 X s 341 1557 m -22 X s 341 1563 m -22 X
 s 363 1568 m -44 X s
 gsave  2263 1770 2 313 C 274.567 1566.05 t 0 r /Helvetica findfont 44.0776 sf 0 0 m (7) show NC gr 
 gsave  2263 1770 2 313 C 203.383 1538.93 t 0 r /Helvetica findfont 64.4212 sf 0 0 m (10) show NC gr  341 1605 m -22 X s 341 1627 m -22 X s 341 1642 m -22 X s 341 1654 m -22 X s 341 1664 m -22 X s 341 1672 m -22 X s 341 1680 m -22 X s 341 1686 m -22
 X s 363 1691 m -44 X s
 gsave  2263 1770 2 313 C 274.567 1691.47 t 0 r /Helvetica findfont 44.0776 sf 0 0 m (8) show NC gr 
 gsave  2263 1770 2 313 C 203.383 1660.96 t 0 r /Helvetica findfont 64.4212 sf 0 0 m (10) show NC gr  341 1728 m -22 X s 2179 584 m 1145 Y s 2157 621 m 22 X s 2157 643 m 22 X s 2157 658 m 22 X s 2157 670 m 22 X s 2157 680 m 22 X s 2157 688 m 22 X s
 2157 695 m 22 X s 2157 702 m 22 X s 2136 707 m 43 X s 2157 744 m 22 X s 2157 766 m 22 X s 2157 781 m 22 X s 2157 793 m 22 X s 2157 803 m 22 X s 2157 811 m 22 X s 2157 818 m 22 X s 2157 825 m 22 X s 2136 830 m 43 X s 2157 867 m 22 X s 2157 889 m 22 X
 s 2157 904 m 22 X s 2157 916 m 22 X s 2157 926 m 22 X s 2157 934 m 22 X s 2157 941 m 22 X s 2157 948 m 22 X s 2136 953 m 43 X s 2157 990 m 22 X s 2157 1012 m 22 X s 2157 1027 m 22 X s 2157 1039 m 22 X s 2157 1049 m 22 X s 2157 1057 m 22 X s 2157
 1064 m 22 X s 2157 1071 m 22 X s 2136 1076 m 43 X s 2157 1113 m 22 X s 2157 1135 m 22 X s 2157 1150 m 22 X s 2157 1162 m 22 X s 2157 1172 m 22 X s 2157 1180 m 22 X s 2157 1187 m 22 X s 2157 1194 m 22 X s 2136 1199 m 43 X s 2157 1236 m 22 X s 2157
 1258 m 22 X s 2157 1273 m 22 X s 2157 1285 m 22 X s 2157 1295 m 22 X s 2157 1303 m 22 X s 2157 1310 m 22 X s 2157 1317 m 22 X s 2136 1322 m 43 X s 2157 1359 m 22 X s 2157 1381 m 22 X s 2157 1396 m 22 X s 2157 1408 m 22 X s 2157 1418 m 22 X s 2157
 1426 m 22 X s 2157 1433 m 22 X s 2157 1440 m 22 X s 2136 1445 m 43 X s 2157 1482 m 22 X s 2157 1504 m 22 X s 2157 1519 m 22 X s 2157 1531 m 22 X s 2157 1541 m 22 X s 2157 1549 m 22 X s 2157 1557 m 22 X s 2157 1563 m 22 X s 2136 1568 m 43 X s 2157
 1605 m 22 X s 2157 1627 m 22 X s 2157 1642 m 22 X s 2157 1654 m 22 X s 2157 1664 m 22 X s 2157 1672 m 22 X s 2157 1680 m 22 X s 2157 1686 m 22 X s 2136 1691 m 43 X s 2157 1728 m 22 X s 1 1 0 c black 1 1 0 c 319 584 m 93 X 515 Y 93 X 89 Y 93 X -43 Y
 93 X -68 Y 93 X -61 Y 93 X -59 Y 93 X -55 Y 93 X -44 Y 93 X -51 Y 93 X -56 Y 93 X -55 Y 93 X -60 Y 93 X -52 Y 651 X f black 1 1 0 c black 319 584 m 93 X 515 Y 93 X 89 Y 93 X -43 Y 93 X -68 Y 93 X -61 Y 93 X -59 Y 93 X -55 Y 93 X -44 Y 93 X -51 Y 93
 X -56 Y 93 X -55 Y 93 X -60 Y 93 X -52 Y 651 X s 0.999 0.999 0.999 c black 0.999 0.999 0.999 c 319 584 m 93 X 256 Y 93 X 82 Y 93 X -33 Y 93 X -76 Y 93 X -64 Y 93 X -33 Y 93 X -74 Y 93 X -58 Y 93 X 46 Y 93 X -46 Y 930 X f black 0.999 0.999 0.999 c
 black 319 584 m 93 X 256 Y 93 X 82 Y 93 X -33 Y 93 X -76 Y 93 X -64 Y 93 X -33 Y 93 X -74 Y 93 X -58 Y 93 X 46 Y 93 X -46 Y 930 X s 1 1 1 c black 319 584 m 93 X 256 Y 93 X 82 Y 93 X -33 Y 93 X -76 Y 93 X -64 Y 93 X -33 Y 93 X -74 Y 93 X -58 Y 93 X
 46 Y 93 X -46 Y 930 X s 0.4 0.6 1 c black 0.4 0.6 1 c 319 584 m 93 X 256 Y 93 X 82 Y 93 X -33 Y 93 X -76 Y 93 X -64 Y 93 X -33 Y 93 X -74 Y 93 X -58 Y 93 X 46 Y 93 X -46 Y 930 X f black 0.4 0.6 1 c black 319 584 m 93 X 256 Y 93 X 82 Y 93 X -33 Y 93
 X -76 Y 93 X -64 Y 93 X -33 Y 93 X -74 Y 93 X -58 Y 93 X 46 Y 93 X -46 Y 930 X s 0.999 0.999 0.999 c black 0.999 0.999 0.999 c 319 584 m 93 X 226 Y 93 X 65 Y 93 X -22 Y 93 X -103 Y 93 X -103 Y 93 X 19 Y 93 X -82 Y 1209 X f black 0.999 0.999 0.999 c
 black 319 584 m 93 X 226 Y 93 X 65 Y 93 X -22 Y 93 X -103 Y 93 X -103 Y 93 X 19 Y 93 X -82 Y 1209 X s 1 1 1 c black 319 584 m 93 X 226 Y 93 X 65 Y 93 X -22 Y 93 X -103 Y 93 X -103 Y 93 X 19 Y 93 X -82 Y 1209 X s 0.6 1 0.6 c black 0.6 1 0.6 c 319 584
 m 93 X 226 Y 93 X 65 Y 93 X -22 Y 93 X -103 Y 93 X -103 Y 93 X 19 Y 93 X -82 Y 1209 X f black 0.6 1 0.6 c black 319 584 m 93 X 226 Y 93 X 65 Y 93 X -22 Y 93 X -103 Y 93 X -103 Y 93 X 19 Y 93 X -82 Y 1209 X s 0.999 0.999 0.999 c black 0.999 0.999
 0.999 c 319 584 m 93 X 104 Y 93 X 74 Y 93 X 10 Y 93 X -156 Y 93 X -32 Y 93 X 9 Y 93 X -9 Y 1209 X f black 0.999 0.999 0.999 c black 319 584 m 93 X 104 Y 93 X 74 Y 93 X 10 Y 93 X -156 Y 93 X -32 Y 93 X 9 Y 93 X -9 Y 1209 X s 1 1 1 c black 319 584 m
 93 X 104 Y 93 X 74 Y 93 X 10 Y 93 X -156 Y 93 X -32 Y 93 X 9 Y 93 X -9 Y 1209 X s 1 0.4 0.6 c black 1 0.4 0.6 c 319 584 m 93 X 104 Y 93 X 74 Y 93 X 10 Y 93 X -156 Y 93 X -32 Y 93 X 9 Y 93 X -9 Y 1209 X f black 1 0.4 0.6 c black 319 584 m 93 X 104 Y
 93 X 74 Y 93 X 10 Y 93 X -156 Y 93 X -32 Y 93 X 9 Y 93 X -9 Y 1209 X s 1 0 0 c 6 lw 1 1 1 c black 1 0 0 c 319 584 m 93 X 515 Y 93 X 89 Y 93 X -43 Y 93 X -68 Y 93 X -61 Y 93 X -59 Y 93 X -55 Y 93 X -44 Y 93 X -51 Y 93 X -56 Y 93 X -55 Y 93 X -60 Y 93
 X -52 Y 651 X s black 3 lw 1 0 0 c 1 lw << /PatternType 1 /PaintType 2 /TilingType 1 /BBox [ 0 0 100 100 ] /XStep 100 /YStep 100 /PaintProc { begin gsave 0 100 m 100 0 l s gr end } >> [ 0.24 0 0 0.24 0 0 ] makepattern /P05 exch def /cs {[/Pattern
 /DeviceRGB] setcolorspace} def /FA {f [/DeviceRGB] setcolorspace} def cs 1 0 0 P05 setcolor 412 584 m 516 Y 93 X 88 Y 93 X -43 Y 93 X -67 Y 93 X -60 Y 93 X -59 Y 93 X -54 Y 93 X -42 Y 93 X -50 Y 93 X -55 Y 93 X -54 Y 93 X -56 Y 93 X -48 Y 93 X -16 Y
 -93 X 37 Y -93 X 66 Y -93 X 57 Y -93 X 57 Y -93 X 51 Y -93 X 47 Y -93 X 56 Y -93 X 60 Y -93 X 61 Y -93 X 68 Y -93 X 43 Y -93 X -90 Y -93 X -513 Y FA 6 lw 1 1 1 c 15 lw 1203 814 m s 1203 814 m cl s 1203 773 m -10 Y s 1203 763 m cl s 1296 786 m 6 Y s
 1296 792 m cl s 1296 746 m -22 Y s 1296 724 m cl s 1389 786 m 6 Y s 1389 792 m cl s 1389 746 m -22 Y s 1389 724 m cl s 1668 728 m 24 Y s 1668 752 m cl s 1668 687 m -73 Y s 1668 614 m cl s black 1 1 1 c 3 lw /w 43 def /w2 {w 2 div} def /w3 {w 3 div}
 def 459 1101 552 1188 645 1145 738 1075 831 1008 924 948 1017 908 1110 848 1203 793 1296 766 1389 766 11 { m20} R 15 lw 3 lw 1668 707 m20 15 lw black 6 lw 1 1 1 c black 3 lw /w 33 def /w2 {w 2 div} def /w3 {w 3 div} def 459 1101 m20 6 lw 3 lw 552
 1188 m20 6 lw 3 lw 645 1145 m20 6 lw 3 lw 738 1075 m20 6 lw 3 lw 831 1008 m20 6 lw 3 lw 924 948 m20 6 lw 3 lw 1017 908 m20 6 lw 1110 832 m 3 Y s 3 lw 1110 848 m20 6 lw 1203 762 m 18 Y s 1203 807 m 6 Y s 3 lw 1203 793 m20 6 lw 1296 720 m 32 Y s 1296
 780 m 10 Y s 3 lw 1296 766 m20 6 lw 1389 720 m 32 Y s 1389 780 m 10 Y s 3 lw 1389 766 m20 6 lw 1668 584 m 110 Y s 1668 721 m 23 Y s 3 lw 1668 707 m20 6 lw 1110 835 m -3 Y s 1110 832 m cl s 1203 807 m 7 Y s 1203 814 m cl s 1203 780 m -17 Y s 1203 763
 m cl s 1296 780 m 12 Y s 1296 792 m cl s 1296 752 m -28 Y s 1296 724 m cl s 1389 780 m 12 Y s 1389 792 m cl s 1389 752 m -28 Y s 1389 724 m cl s 1668 721 m 31 Y s 1668 752 m cl s 1668 694 m -80 Y s 1668 614 m cl s 3 lw 459 1101 552 1188 645 1145 738
 1075 831 1008 924 948 1017 908 1110 848 1203 793 1296 766 1389 766 11 { m20} R 6 lw 3 lw 1668 707 m20 6 lw 3 lw 319 584 m 1860 X s 435 584 m cl s 482 584 m cl s 528 584 m cl s 575 584 m cl s 621 584 m cl s 668 584 m cl s 714 584 m cl s 761 584 m cl
 s 807 584 m cl s 854 584 m cl s 900 584 m cl s 947 584 m cl s 993 584 m cl s 1040 584 m cl s 1087 584 m cl s 1133 584 m cl s 1180 584 m cl s 1226 584 m cl s 1273 584 m cl s 1319 584 m cl s 1366 584 m cl s 1412 584 m cl s 1459 584 m cl s 1505 584 m
 cl s 1552 584 m cl s 1598 584 m cl s 1645 584 m cl s 1691 584 m cl s 1738 584 m cl s 1784 584 m cl s 1831 584 m cl s 1877 584 m cl s 1924 584 m cl s 1970 584 m cl s 2017 584 m cl s 2063 584 m cl s 435 584 m cl s 389 584 m cl s 342 584 m cl s 2063
 584 m cl s 2110 584 m cl s 2156 584 m cl s 319 1729 m 1860 X s 435 1729 m cl s 482 1729 m cl s 528 1729 m cl s 575 1729 m cl s 621 1729 m cl s 668 1729 m cl s 714 1729 m cl s 761 1729 m cl s 807 1729 m cl s 854 1729 m cl s 900 1729 m cl s 947 1729 m
 cl s 993 1729 m cl s 1040 1729 m cl s 1087 1729 m cl s 1133 1729 m cl s 1180 1729 m cl s 1226 1729 m cl s 1273 1729 m cl s 1319 1729 m cl s 1366 1729 m cl s 1412 1729 m cl s 1459 1729 m cl s 1505 1729 m cl s 1552 1729 m cl s 1598 1729 m cl s 1645
 1729 m cl s 1691 1729 m cl s 1738 1729 m cl s 1784 1729 m cl s 1831 1729 m cl s 1877 1729 m cl s 1924 1729 m cl s 1970 1729 m cl s 2017 1729 m cl s 2063 1729 m cl s 435 1729 m cl s 389 1729 m cl s 342 1729 m cl s 2063 1729 m cl s 2110 1729 m cl s
 2156 1729 m cl s 319 584 m 1145 Y s 341 621 m -22 X s 341 643 m -22 X s 341 658 m -22 X s 341 670 m -22 X s 341 680 m -22 X s 341 688 m -22 X s 341 695 m -22 X s 341 702 m -22 X s 363 707 m -44 X s 341 744 m -22 X s 341 766 m -22 X s 341 781 m -22 X
 s 341 793 m -22 X s 341 803 m -22 X s 341 811 m -22 X s 341 818 m -22 X s 341 825 m -22 X s 363 830 m -44 X s 341 867 m -22 X s 341 889 m -22 X s 341 904 m -22 X s 341 916 m -22 X s 341 926 m -22 X s 341 934 m -22 X s 341 941 m -22 X s 341 948 m -22
 X s 363 953 m -44 X s 341 990 m -22 X s 341 1012 m -22 X s 341 1027 m -22 X s 341 1039 m -22 X s 341 1049 m -22 X s 341 1057 m -22 X s 341 1064 m -22 X s 341 1071 m -22 X s 363 1076 m -44 X s 341 1113 m -22 X s 341 1135 m -22 X s 341 1150 m -22 X s
 341 1162 m -22 X s 341 1172 m -22 X s 341 1180 m -22 X s 341 1187 m -22 X s 341 1194 m -22 X s 363 1199 m -44 X s 341 1236 m -22 X s 341 1258 m -22 X s 341 1273 m -22 X s 341 1285 m -22 X s 341 1295 m -22 X s 341 1303 m -22 X s 341 1310 m -22 X s
 341 1317 m -22 X s 363 1322 m -44 X s 341 1359 m -22 X s 341 1381 m -22 X s 341 1396 m -22 X s 341 1408 m -22 X s 341 1418 m -22 X s 341 1426 m -22 X s 341 1433 m -22 X s 341 1440 m -22 X s 363 1445 m -44 X s 341 1482 m -22 X s 341 1504 m -22 X s
 341 1519 m -22 X s 341 1531 m -22 X s 341 1541 m -22 X s 341 1549 m -22 X s 341 1557 m -22 X s 341 1563 m -22 X s 363 1568 m -44 X s 341 1605 m -22 X s 341 1627 m -22 X s 341 1642 m -22 X s 341 1654 m -22 X s 341 1664 m -22 X s 341 1672 m -22 X s
 341 1680 m -22 X s 341 1686 m -22 X s 363 1691 m -44 X s 341 1728 m -22 X s 2179 584 m 1145 Y s 2157 621 m 22 X s 2157 643 m 22 X s 2157 658 m 22 X s 2157 670 m 22 X s 2157 680 m 22 X s 2157 688 m 22 X s 2157 695 m 22 X s 2157 702 m 22 X s 2136 707
 m 43 X s 2157 744 m 22 X s 2157 766 m 22 X s 2157 781 m 22 X s 2157 793 m 22 X s 2157 803 m 22 X s 2157 811 m 22 X s 2157 818 m 22 X s 2157 825 m 22 X s 2136 830 m 43 X s 2157 867 m 22 X s 2157 889 m 22 X s 2157 904 m 22 X s 2157 916 m 22 X s 2157
 926 m 22 X s 2157 934 m 22 X s 2157 941 m 22 X s 2157 948 m 22 X s 2136 953 m 43 X s 2157 990 m 22 X s 2157 1012 m 22 X s 2157 1027 m 22 X s 2157 1039 m 22 X s 2157 1049 m 22 X s 2157 1057 m 22 X s 2157 1064 m 22 X s 2157 1071 m 22 X s 2136 1076 m
 43 X s 2157 1113 m 22 X s 2157 1135 m 22 X s 2157 1150 m 22 X s 2157 1162 m 22 X s 2157 1172 m 22 X s 2157 1180 m 22 X s 2157 1187 m 22 X s 2157 1194 m 22 X s 2136 1199 m 43 X s 2157 1236 m 22 X s 2157 1258 m 22 X s 2157 1273 m 22 X s 2157 1285 m 22
 X s 2157 1295 m 22 X s 2157 1303 m 22 X s 2157 1310 m 22 X s 2157 1317 m 22 X s 2136 1322 m 43 X s 2157 1359 m 22 X s 2157 1381 m 22 X s 2157 1396 m 22 X s 2157 1408 m 22 X s 2157 1418 m 22 X s 2157 1426 m 22 X s 2157 1433 m 22 X s 2157 1440 m 22 X
 s 2136 1445 m 43 X s 2157 1482 m 22 X s 2157 1504 m 22 X s 2157 1519 m 22 X s 2157 1531 m 22 X s 2157 1541 m 22 X s 2157 1549 m 22 X s 2157 1557 m 22 X s 2157 1563 m 22 X s 2136 1568 m 43 X s 2157 1605 m 22 X s 2157 1627 m 22 X s 2157 1642 m 22 X s
 2157 1654 m 22 X s 2157 1664 m 22 X s 2157 1672 m 22 X s 2157 1680 m 22 X s 2157 1686 m 22 X s 2136 1691 m 43 X s 2157 1728 m 22 X s
 gsave  2263 1770 2 313 C 406.765 1447.41 t 0 r /Helvetica findfont 64.4212 sf 0 0 m (CRY for MB\255C) show NC gr 
 gsave  2263 1770 2 313 C 1464.36 1616.89 t 0 r /Helvetica findfont 64.4212 sf 0 0 m (SM Total) show NC gr  1 1 1 c 1338 1603 m 107 X 74 Y -107 X f 1 0 0 c 6 lw 1338 1640 m 107 X s black
 gsave  2263 1770 2 313 C 1464.36 1511.81 t 0 r /Helvetica findfont 64.4212 sf 0 0 m (Data) show NC gr  1391 1502 m 64 Y s 3 lw 1391 1534 m20 6 lw
 gsave  2263 1770 2 313 C 1464.36 1406.73 t 0 r /Helvetica findfont 64.4212 sf 0 0 m (GAMMAjets) show NC gr  1 1 0 c 3 lw 1338 1391 m 107 X 74 Y -107 X f 6 lw black 3 lw 1338 1465 m 107 X s 1338 1391 m 107 X s 1445 1391 m 74 Y s 1338 1391 m 74 Y s
 gsave  2263 1770 2 313 C 1464.36 1298.26 t 0 r /Helvetica findfont 64.4212 sf 0 0 m (W+jets) show NC gr  0.4 0.6 1 c 1338 1284 m 107 X 75 Y -107 X f black 1338 1359 m 107 X s 1338 1284 m 107 X s 1445 1284 m 75 Y s 1338 1284 m 75 Y s
 gsave  2263 1770 2 313 C 1498.25 1193.18 t 0 r /Helvetica findfont 64.4212 sf 0 0 m (\(+EW\) & single top) show NC gr 
 gsave  2263 1770 2 313 C 1481.3 1193.18 t 0 r /Helvetica findfont 64.4212 sf 0 0 m (t) show NC gr  1481 1244 m 17 X s
 gsave  2263 1770 2 313 C 1464.36 1193.18 t 0 r /Helvetica findfont 64.4212 sf 0 0 m (t) show NC gr  0.6 1 0.6 c 1338 1178 m 107 X 75 Y -107 X f black 1338 1253 m 107 X s 1338 1178 m 107 X s 1445 1178 m 75 Y s 1338 1178 m 75 Y s
 gsave  2263 1770 2 313 C 1464.36 1088.1 t 0 r /Helvetica findfont 64.4212 sf 0 0 m (Diboson) show NC gr  1 0.4 0.6 c 1338 1072 m 107 X 74 Y -107 X f black 1338 1146 m 107 X s 1338 1072 m 107 X s 1445 1072 m 74 Y s 1338 1072 m 74 Y s
 gsave  2263 1770 2 313 C 911.832 1566.05 t 0 r /Helvetica findfont 44.0776 sf 0 0 m (\2551) show NC gr 
 gsave  2263 1770 2 313 C 471.17 1535.54 t 0 r /Helvetica findfont 64.4212 sf 0 0 m (=13TeV, 139 fb) show NC gr 
 gsave  2263 1770 2 313 C 440.662 1535.54 t 0 r /Helvetica findfont 64.4212 sf 0 0 m (s) show NC gr  6 lw 420 1573 m 7 -41 d s 3 lw 427 1532 m 7 61 d s 434 1593 m 37 X s 1 1 1 c 2254 561 2 2 bf black 1 1 1 c black 1860 358 318 187 bl 1 1 1 c black
 1860 358 318 187 bl 6 lw 1 1 1 c black 3 lw 457 373 m20 6 lw 3 lw 550 366 m20 6 lw 3 lw 643 366 m20 6 lw 3 lw 736 361 m20 6 lw 3 lw 829 342 m20 6 lw 3 lw 923 340 m20 6 lw 3 lw 1016 386 m20 6 lw 3 lw 1109 340 m20 6 lw 3 lw 1202 328 m20 6 lw 3 lw 1295
 417 m20 6 lw 3 lw 318 187 m 1860 X s
 gsave  2254 561 2 2 C 1959.25 44.0662 t 0 r /Helvetica findfont 78.1689 sf 0 0 m ( [GeV]) show NC gr 
 gsave  2254 561 2 2 C 1928.75 -2.35513e-13 t 0 r /Helvetica findfont 50.9797 sf 0 0 m (T) show NC gr 
 gsave  2254 561 2 2 C 1657.57 44.0662 t 0 r /Helvetica findfont 78.1689 sf 0 0 m (1st jet p) show NC gr  434 201 m -14 Y s 481 194 m -7 Y s 527 194 m -7 Y s 574 194 m -7 Y s 620 194 m -7 Y s 667 201 m -14 Y s 713 194 m -7 Y s 760 194 m -7 Y s 806
 194 m -7 Y s 853 194 m -7 Y s 899 201 m -14 Y s 946 194 m -7 Y s 992 194 m -7 Y s 1039 194 m -7 Y s 1085 194 m -7 Y s 1132 201 m -14 Y s 1178 194 m -7 Y s 1225 194 m -7 Y s 1271 194 m -7 Y s 1318 194 m -7 Y s 1364 201 m -14 Y s 1411 194 m -7 Y s
 1457 194 m -7 Y s 1504 194 m -7 Y s 1550 194 m -7 Y s 1597 201 m -14 Y s 1643 194 m -7 Y s 1690 194 m -7 Y s 1737 194 m -7 Y s 1783 194 m -7 Y s 1830 201 m -14 Y s 1876 194 m -7 Y s 1923 194 m -7 Y s 1969 194 m -7 Y s 2016 194 m -7 Y s 2062 201 m
 -14 Y s 434 201 m -14 Y s 388 194 m -7 Y s 341 194 m -7 Y s 2062 201 m -14 Y s 2109 194 m -7 Y s 2155 194 m -7 Y s
 gsave  2254 561 2 2 C 369.478 118.64 t 0 r /Helvetica findfont 78.1689 sf 0 0 m (500) show NC gr 
 gsave  2254 561 2 2 C 576.251 118.64 t 0 r /Helvetica findfont 78.1689 sf 0 0 m (1000) show NC gr 
 gsave  2254 561 2 2 C 810.141 118.64 t 0 r /Helvetica findfont 78.1689 sf 0 0 m (1500) show NC gr 
 gsave  2254 561 2 2 C 1040.64 118.64 t 0 r /Helvetica findfont 78.1689 sf 0 0 m (2000) show NC gr 
 gsave  2254 561 2 2 C 1274.53 118.64 t 0 r /Helvetica findfont 78.1689 sf 0 0 m (2500) show NC gr 
 gsave  2254 561 2 2 C 1508.42 118.64 t 0 r /Helvetica findfont 78.1689 sf 0 0 m (3000) show NC gr 
 gsave  2254 561 2 2 C 1738.92 118.64 t 0 r /Helvetica findfont 78.1689 sf 0 0 m (3500) show NC gr 
 gsave  2254 561 2 2 C 1972.81 118.64 t 0 r /Helvetica findfont 78.1689 sf 0 0 m (4000) show NC gr  318 545 m 1860 X s 434 531 m 14 Y s 481 538 m 7 Y s 527 538 m 7 Y s 574 538 m 7 Y s 620 538 m 7 Y s 667 531 m 14 Y s 713 538 m 7 Y s 760 538 m 7 Y s
 806 538 m 7 Y s 853 538 m 7 Y s 899 531 m 14 Y s 946 538 m 7 Y s 992 538 m 7 Y s 1039 538 m 7 Y s 1085 538 m 7 Y s 1132 531 m 14 Y s 1178 538 m 7 Y s 1225 538 m 7 Y s 1271 538 m 7 Y s 1318 538 m 7 Y s 1364 531 m 14 Y s 1411 538 m 7 Y s 1457 538 m 7
 Y s 1504 538 m 7 Y s 1550 538 m 7 Y s 1597 531 m 14 Y s 1643 538 m 7 Y s 1690 538 m 7 Y s 1737 538 m 7 Y s 1783 538 m 7 Y s 1830 531 m 14 Y s 1876 538 m 7 Y s 1923 538 m 7 Y s 1969 538 m 7 Y s 2016 538 m 7 Y s 2062 531 m 14 Y s 434 531 m 14 Y s 388
 538 m 7 Y s 341 538 m 7 Y s 2062 531 m 14 Y s 2109 538 m 7 Y s 2155 538 m 7 Y s 318 187 m 358 Y s
 gsave  2254 561 2 2 C 166.096 284.736 t 90 r /Helvetica findfont 67.9729 sf 0 0 m (Data/SM) show NC gr  361 203 m -43 X s 339 220 m -21 X s 339 236 m -21 X s 339 252 m -21 X s 339 268 m -21 X s 361 285 m -43 X s 339 301 m -21 X s 339 317 m -21 X s
 339 334 m -21 X s 339 350 m -21 X s 361 366 m -43 X s 339 382 m -21 X s 339 399 m -21 X s 339 415 m -21 X s 339 431 m -21 X s 361 447 m -43 X s 339 464 m -21 X s 339 480 m -21 X s 339 496 m -21 X s 339 512 m -21 X s 361 529 m -43 X s 361 203 m -43 X
 s 339 187 m -21 X s 361 529 m -43 X s
 gsave  2254 561 2 2 C 261.008 183.044 t 0 r /Helvetica findfont 57.777 sf 0 0 m (0) show NC gr 
 gsave  2254 561 2 2 C 213.552 261.008 t 0 r /Helvetica findfont 57.777 sf 0 0 m (0.5) show NC gr 
 gsave  2254 561 2 2 C 271.177 342.361 t 0 r /Helvetica findfont 57.777 sf 0 0 m (1) show NC gr 
 gsave  2254 561 2 2 C 213.552 423.714 t 0 r /Helvetica findfont 57.777 sf 0 0 m (1.5) show NC gr 
 gsave  2254 561 2 2 C 261.008 505.067 t 0 r /Helvetica findfont 57.777 sf 0 0 m (2) show NC gr  2178 187 m 358 Y s 2135 203 m 43 X s 2157 220 m 21 X s 2157 236 m 21 X s 2157 252 m 21 X s 2157 268 m 21 X s 2135 285 m 43 X s 2157 301 m 21 X s 2157 317
 m 21 X s 2157 334 m 21 X s 2157 350 m 21 X s 2135 366 m 43 X s 2157 382 m 21 X s 2157 399 m 21 X s 2157 415 m 21 X s 2157 431 m 21 X s 2135 447 m 43 X s 2157 464 m 21 X s 2157 480 m 21 X s 2157 496 m 21 X s 2157 512 m 21 X s 2135 529 m 43 X s 2135
 203 m 43 X s 2157 187 m 21 X s 2135 529 m 43 X s 9 lw 923 353 m 1 Y s 923 354 m cl s 923 326 m s 923 326 m cl s 1016 400 m 14 Y s 1016 414 m cl s 1016 373 m -14 Y s 1016 359 m cl s 1109 354 m 23 Y s 1109 377 m cl s 1109 327 m -23 Y s 1109 304 m cl s
 1202 342 m 45 Y s 1202 387 m cl s 1202 315 m -40 Y s 1202 275 m cl s 1295 431 m 114 Y s 1295 545 m cl s 1295 404 m -103 Y s 1295 301 m cl s 1388 545 m -66 Y s 1388 479 m cl s 3 lw 457 373 550 366 643 366 736 361 829 342 923 340 1016 386 1109 340
 1202 328 1295 417 10 { m20} R 9 lw 1 0 0 c 6 lw black 3 lw 1 0 0 c 2178 227 m -20 -21 d s 2178 255 m -49 -49 d s 2178 284 m -77 -78 d s 2178 312 m -109 -109 d s 2178 341 m -138 -138 d s 2178 369 m -166 -166 d s 2178 398 m -186 -185 d s 1983 203 m cl
 s 2178 427 m -186 -186 d s 1954 203 m cl s 2178 455 m -186 -185 d s 1926 203 m cl s 2178 484 m -186 -186 d s 1897 203 m cl s 2178 512 m -186 -185 d s 1868 203 m cl s 2163 526 m -171 -170 d s 1840 203 m cl s 2134 526 m -142 -142 d s 1811 203 m cl s
 2106 526 m -114 -113 d s 1806 227 m s 2080 529 m -88 -88 d s 1806 256 m s 2051 529 m -59 -59 d s 1806 285 m -19 -19 d s 2023 529 m -31 -30 d s 1806 313 m -47 -47 d s 1994 529 m -2 -2 d s 1806 342 m -76 -76 d s 1806 370 m -93 -92 d s 1806 399 m -93
 -93 d s 1806 428 m -109 -109 d s 1620 242 m -18 -18 d s 1806 456 m -138 -137 d s 1620 271 m -47 -47 d s 1788 466 m -148 -147 d s 1620 299 m -76 -75 d s 1759 466 m -46 -45 d s 1706 413 m -179 -178 d s 1730 466 m -17 -17 d s 1677 413 m -150 -149 d s
 1649 413 m -122 -121 d s 1620 414 m -93 -93 d s 1620 442 m -117 -117 d s 1620 471 m -146 -146 d s 1620 499 m -175 -174 d s 1601 508 m -74 -73 d s 1499 407 m -67 -67 d s 1572 508 m -45 -44 d s 1470 407 m -67 -67 d s 1543 508 m -16 -15 d s 1441 407 m
 -7 -7 d s 1426 392 m -52 -52 d s 1398 392 m -52 -52 d s 1369 392 m -48 -48 d s 1336 388 m -44 -44 d s 1308 388 m -45 -44 d s 1279 388 m -42 -41 d s 1250 388 m -2 -2 d s 1248 385 m -39 -38 d s 1219 385 m -39 -38 d s 1190 385 m -35 -35 d s 1161 385 m
 -35 -35 d s 1129 382 m -31 -32 d s 1101 382 m -32 -32 d s 1072 382 m -26 -26 d s 1037 376 m -20 -20 d s 1009 376 m -20 -20 d s 980 376 m -15 -15 d s 947 371 m -11 -10 d s 918 371 m -11 -10 d s 889 371 m -11 -10 d s 860 371 m -10 -10 d s 831 371 m -9
 -10 d s 803 371 m -10 -10 d s 772 369 m -6 -6 d s 744 369 m -7 -6 d s 715 369 m -6 -6 d s 684 367 m -2 -2 d s 656 367 m -3 -2 d s 627 367 m -3 -2 d s 598 367 m -3 -2 d s 570 368 m -3 -3 d s 411 209 m s 405 203 m cl s 541 368 m -3 -3 d s 411 238 m s
 376 203 m cl s 512 368 m -3 -3 d s 411 266 m s 348 203 m cl s 487 370 m -9 -8 d s 411 295 m s 319 203 m cl s 458 370 m -9 -8 d s 411 324 m s 429 370 m -9 -8 d s 411 352 m s 6 lw black[ 4 8] 0 sd 3 lw 318 447 m 1860 X s 318 285 m 1860 X s 1 0 0 c[ 
 12 12 ] 0 sd 6 lw 318 366 m 1860 X s
 gr  gr showpage
end
%%EOF
