%!PS-Adobe-2.0 EPSF-2.0
%%BoundingBox:  0 0 567 521
%%Title: Distributions/jetPt_0__distrSR_MB-GGo_beforeFit_forThesis.eps: canvas
%%Creator: ROOT Version 6.04/16
%%CreationDate: Tue May 19 22:03:55 2020
%%DocumentNeededResources: ProcSet (FontSetInit)
%%EndComments
%%BeginProlog
80 dict begin
/s {stroke} def /l {lineto} def /m {moveto} def /t {translate} def
/r {rotate} def /rl {roll}  def /R {repeat} def
/d {rlineto} def /rm {rmoveto} def /gr {grestore} def /f {eofill} def
/c {setrgbcolor} def /black {0 setgray} def /sd {setdash} def
/cl {closepath} def /sf {scalefont setfont} def /lw {setlinewidth} def
/box {m dup 0 exch d exch 0 d 0 exch neg d cl} def
/NC{systemdict begin initclip end}def/C{NC box clip newpath}def
/bl {box s} def /bf {gsave box gsave f grestore 1 lw [] 0 sd s grestore} def /Y { 0 exch d} def /X { 0 d} def 
/K {{pop pop 0 moveto} exch kshow} bind def
/ita {/ang 15 def gsave [1 0 ang dup sin exch cos div 1 0 0] concat} def 
/mp {newpath /y exch def /x exch def} def
/side {[w .77 mul w .23 mul] .385 w mul sd w 0 l currentpoint t -144 r} def
/mr {mp x y w2 0 360 arc} def /m24 {mr s} def /m20 {mr f} def
/mb {mp x y w2 add m w2 neg 0 d 0 w neg d w 0 d 0 w d cl} def
/mt {mp x y w2 add m w2 neg w neg d w 0 d cl} def
/m21 {mb f} def /m25 {mb s} def /m22 {mt f} def /m26{mt s} def
/m23 {mp x y w2 sub m w2 w d w neg 0 d cl f} def
/m27 {mp x y w2 add m w3 neg w2 neg d w3 w2 neg d w3 w2 d cl s} def
/m28 {mp x w2 sub y w2 sub w3 add m w3 0 d  0 w3 neg d w3 0 d 0 w3 d w3 0 d  0 w3 d w3 neg 0 d 0 w3 d w3 neg 0 d 0 w3 neg d w3 neg 0 d cl s } def
/m29 {mp gsave x w2 sub y w2 add w3 sub m currentpoint t 4 {side} repeat cl fill gr} def
/m30 {mp gsave x w2 sub y w2 add w3 sub m currentpoint t 4 {side} repeat cl s gr} def
/m31 {mp x y w2 sub m 0 w d x w2 sub y m w 0 d x w2 sub y w2 add m w w neg d x w2 sub y w2 sub m w w d s} def
/m32 {mp x y w2 sub m w2 w d w neg 0 d cl s} def
/m33 {mp x y w2 add m w3 neg w2 neg d w3 w2 neg d w3 w2 d cl f} def
/m34 {mp x w2 sub y w2 sub w3 add m w3 0 d  0 w3 neg d w3 0 d 0 w3 d w3 0 d  0 w3 d w3 neg 0 d 0 w3 d w3 neg 0 d 0 w3 neg d w3 neg 0 d cl f } def
/m2 {mp x y w2 sub m 0 w d x w2 sub y m w 0 d s} def
/m5 {mp x w2 sub y w2 sub m w w d x w2 sub y w2 add m w w neg d s} def
%%IncludeResource: ProcSet (FontSetInit)
%%IncludeResource: font Times-Roman
%%IncludeResource: font Times-Italic
%%IncludeResource: font Times-Bold
%%IncludeResource: font Times-BoldItalic
%%IncludeResource: font Helvetica
%%IncludeResource: font Helvetica-Oblique
%%IncludeResource: font Helvetica-Bold
%%IncludeResource: font Helvetica-BoldOblique
%%IncludeResource: font Courier
%%IncludeResource: font Courier-Oblique
%%IncludeResource: font Courier-Bold
%%IncludeResource: font Courier-BoldOblique
%%IncludeResource: font Symbol
%%IncludeResource: font ZapfDingbats
/reEncode {exch findfont dup length dict begin {1 index /FID eq  {pop pop} {def} ifelse } forall /Encoding exch def currentdict end dup /FontName get exch definefont pop } def [/Times-Bold /Times-Italic /Times-BoldItalic /Helvetica /Helvetica-Oblique
 /Helvetica-Bold /Helvetica-BoldOblique /Courier /Courier-Oblique /Courier-Bold /Courier-BoldOblique /Times-Roman /AvantGarde-Book /AvantGarde-BookOblique /AvantGarde-Demi /AvantGarde-DemiOblique /Bookman-Demi /Bookman-DemiItalic /Bookman-Light
 /Bookman-LightItalic /Helvetica-Narrow /Helvetica-Narrow-Bold /Helvetica-Narrow-BoldOblique /Helvetica-Narrow-Oblique /NewCenturySchlbk-Roman /NewCenturySchlbk-Bold /NewCenturySchlbk-BoldItalic /NewCenturySchlbk-Italic /Palatino-Bold
 /Palatino-BoldItalic /Palatino-Italic /Palatino-Roman ] {ISOLatin1Encoding reEncode } forall
%%EndProlog
%%BeginSetup
%%EndSetup
newpath  gsave  .25 .25 scale  gsave  0 0 t black[  ] 0 sd 3 lw 1 1 1 c 2268 2085 0 0 bf black 1 1 1 c 2263 1770 2 313 bf black 1 1 1 c black 1860 1145 319 584 bl 1 1 1 c black 1860 1145 319 584 bl 6 lw 1 1 1 c black 3 lw /w 33 def /w2 {w 2 div} def
 /w3 {w 3 div} def 366 1108 m20 6 lw 459 945 m 8 Y s 459 980 m 3 Y s 3 lw 459 967 m20 6 lw 552 869 m 22 Y s 552 918 m 10 Y s 3 lw 552 904 m20 6 lw 3 lw 319 584 m 1860 X s
 gsave  2263 1770 2 313 C 1949.08 376.258 t 0 r /Helvetica findfont 81.3741 sf 0 0 m ( [GeV]) show NC gr 
 gsave  2263 1770 2 313 C 1915.19 332.192 t 0 r /Helvetica findfont 54.2494 sf 0 0 m (T) show NC gr 
 gsave  2263 1770 2 313 C 1630.45 376.258 t 0 r /Helvetica findfont 81.3741 sf 0 0 m (1st jet p) show NC gr  435 584 m cl s 482 584 m cl s 528 584 m cl s 575 584 m cl s 621 584 m cl s 668 584 m cl s 714 584 m cl s 761 584 m cl s 807 584 m cl s 854
 584 m cl s 900 584 m cl s 947 584 m cl s 993 584 m cl s 1040 584 m cl s 1087 584 m cl s 1133 584 m cl s 1180 584 m cl s 1226 584 m cl s 1273 584 m cl s 1319 584 m cl s 1366 584 m cl s 1412 584 m cl s 1459 584 m cl s 1505 584 m cl s 1552 584 m cl s
 1598 584 m cl s 1645 584 m cl s 1691 584 m cl s 1738 584 m cl s 1784 584 m cl s 1831 584 m cl s 1877 584 m cl s 1924 584 m cl s 1970 584 m cl s 2017 584 m cl s 2063 584 m cl s 435 584 m cl s 389 584 m cl s 342 584 m cl s 2063 584 m cl s 2110 584 m
 cl s 2156 584 m cl s 319 1729 m 1860 X s 435 1729 m cl s 482 1729 m cl s 528 1729 m cl s 575 1729 m cl s 621 1729 m cl s 668 1729 m cl s 714 1729 m cl s 761 1729 m cl s 807 1729 m cl s 854 1729 m cl s 900 1729 m cl s 947 1729 m cl s 993 1729 m cl s
 1040 1729 m cl s 1087 1729 m cl s 1133 1729 m cl s 1180 1729 m cl s 1226 1729 m cl s 1273 1729 m cl s 1319 1729 m cl s 1366 1729 m cl s 1412 1729 m cl s 1459 1729 m cl s 1505 1729 m cl s 1552 1729 m cl s 1598 1729 m cl s 1645 1729 m cl s 1691 1729 m
 cl s 1738 1729 m cl s 1784 1729 m cl s 1831 1729 m cl s 1877 1729 m cl s 1924 1729 m cl s 1970 1729 m cl s 2017 1729 m cl s 2063 1729 m cl s 435 1729 m cl s 389 1729 m cl s 342 1729 m cl s 2063 1729 m cl s 2110 1729 m cl s 2156 1729 m cl s 319 584 m
 1145 Y s
 gsave  2263 1770 2 313 C 166.096 1091.49 t 90 r /Helvetica findfont 81.3741 sf 0 0 m (Events / 200 GeV) show NC gr  341 637 m -22 X s 341 667 m -22 X s 341 689 m -22 X s 341 706 m -22 X s 341 719 m -22 X s 341 731 m -22 X s 341 741 m -22 X s 341 750
 m -22 X s 363 758 m -44 X s
 gsave  2263 1770 2 313 C 300.555 730.616 t 0 r  -36 0 t /Helvetica findfont 64.4212 sf 0 0 m (1) show NC gr  341 810 m -22 X s 341 840 m -22 X s 341 862 m -22 X s 341 879 m -22 X s 341 893 m -22 X s 341 904 m -22 X s 341 914 m -22 X s 341 923 m -22
 X s 363 931 m -44 X s
 gsave  2263 1770 2 313 C 300.555 904.04 t 0 r  -73 0 t /Helvetica findfont 64.4212 sf 0 0 m (10) show NC gr  341 983 m -22 X s 341 1014 m -22 X s 341 1036 m -22 X s 341 1052 m -22 X s 341 1066 m -22 X s 341 1078 m -22 X s 341 1088 m -22 X s 341 1097
 m -22 X s 363 1105 m -44 X s
 gsave  2263 1770 2 313 C 274.567 1101.66 t 0 r /Helvetica findfont 44.0776 sf 0 0 m (2) show NC gr 
 gsave  2263 1770 2 313 C 203.383 1074.54 t 0 r /Helvetica findfont 64.4212 sf 0 0 m (10) show NC gr  341 1157 m -22 X s 341 1187 m -22 X s 341 1209 m -22 X s 341 1226 m -22 X s 341 1240 m -22 X s 341 1251 m -22 X s 341 1261 m -22 X s 341 1270 m -22
 X s 363 1278 m -44 X s
 gsave  2263 1770 2 313 C 274.567 1281.31 t 0 r /Helvetica findfont 44.0776 sf 0 0 m (3) show NC gr 
 gsave  2263 1770 2 313 C 203.383 1250.8 t 0 r /Helvetica findfont 64.4212 sf 0 0 m (10) show NC gr  341 1330 m -22 X s 341 1361 m -22 X s 341 1382 m -22 X s 341 1399 m -22 X s 341 1413 m -22 X s 341 1425 m -22 X s 341 1435 m -22 X s 341 1443 m -22 X
 s 363 1451 m -44 X s
 gsave  2263 1770 2 313 C 274.567 1450.8 t 0 r /Helvetica findfont 44.0776 sf 0 0 m (4) show NC gr 
 gsave  2263 1770 2 313 C 203.383 1423.68 t 0 r /Helvetica findfont 64.4212 sf 0 0 m (10) show NC gr  341 1504 m -22 X s 341 1534 m -22 X s 341 1556 m -22 X s 341 1573 m -22 X s 341 1586 m -22 X s 341 1598 m -22 X s 341 1608 m -22 X s 341 1617 m -22
 X s 363 1625 m -44 X s
 gsave  2263 1770 2 313 C 274.567 1627.06 t 0 r /Helvetica findfont 44.0776 sf 0 0 m (5) show NC gr 
 gsave  2263 1770 2 313 C 203.383 1596.55 t 0 r /Helvetica findfont 64.4212 sf 0 0 m (10) show NC gr  341 1677 m -22 X s 341 1708 m -22 X s 2179 584 m 1145 Y s 2157 637 m 22 X s 2157 667 m 22 X s 2157 689 m 22 X s 2157 706 m 22 X s 2157 719 m 22 X s
 2157 731 m 22 X s 2157 741 m 22 X s 2157 750 m 22 X s 2136 758 m 43 X s 2157 810 m 22 X s 2157 840 m 22 X s 2157 862 m 22 X s 2157 879 m 22 X s 2157 893 m 22 X s 2157 904 m 22 X s 2157 914 m 22 X s 2157 923 m 22 X s 2136 931 m 43 X s 2157 983 m 22 X
 s 2157 1014 m 22 X s 2157 1036 m 22 X s 2157 1052 m 22 X s 2157 1066 m 22 X s 2157 1078 m 22 X s 2157 1088 m 22 X s 2157 1097 m 22 X s 2136 1105 m 43 X s 2157 1157 m 22 X s 2157 1187 m 22 X s 2157 1209 m 22 X s 2157 1226 m 22 X s 2157 1240 m 22 X s
 2157 1251 m 22 X s 2157 1261 m 22 X s 2157 1270 m 22 X s 2136 1278 m 43 X s 2157 1330 m 22 X s 2157 1361 m 22 X s 2157 1382 m 22 X s 2157 1399 m 22 X s 2157 1413 m 22 X s 2157 1425 m 22 X s 2157 1435 m 22 X s 2157 1443 m 22 X s 2136 1451 m 43 X s
 2157 1504 m 22 X s 2157 1534 m 22 X s 2157 1556 m 22 X s 2157 1573 m 22 X s 2157 1586 m 22 X s 2157 1598 m 22 X s 2157 1608 m 22 X s 2157 1617 m 22 X s 2136 1625 m 43 X s 2157 1677 m 22 X s 2157 1708 m 22 X s 0.4 0.6 1 c black 0.4 0.6 1 c 319 584 m
 542 Y 93 X -119 Y 93 X -111 Y 93 X -130 Y 93 X -72 Y 93 X -45 Y 93 X 11 Y 93 X -76 Y 1209 X f black 0.4 0.6 1 c black 319 1126 m 93 X -119 Y 93 X -111 Y 93 X -130 Y 93 X -72 Y 93 X -45 Y 93 X 11 Y 93 X -76 Y 1209 X s 0.999 0.999 0.999 c black 0.999
 0.999 0.999 c 319 584 m 523 Y 93 X -117 Y 93 X -111 Y 93 X -143 Y 93 X -75 Y 93 X -33 Y 93 X -44 Y 1302 X f black 0.999 0.999 0.999 c black 319 1107 m 93 X -117 Y 93 X -111 Y 93 X -143 Y 93 X -75 Y 93 X -33 Y 93 X -44 Y 1302 X s 1 1 1 c black 319
 1107 m 93 X -117 Y 93 X -111 Y 93 X -143 Y 93 X -75 Y 93 X -33 Y 93 X -44 Y 1302 X s 0.6 1 0.6 c black 0.6 1 0.6 c 319 584 m 523 Y 93 X -117 Y 93 X -111 Y 93 X -143 Y 93 X -75 Y 93 X -33 Y 93 X -44 Y 1302 X f black 0.6 1 0.6 c black 319 1107 m 93 X
 -117 Y 93 X -111 Y 93 X -143 Y 93 X -75 Y 93 X -33 Y 93 X -44 Y 1302 X s 0.999 0.999 0.999 c black 0.999 0.999 0.999 c 319 584 m 453 Y 93 X -98 Y 93 X -102 Y 93 X -153 Y 93 X -70 Y 93 X 4 Y 93 X -34 Y 1302 X f black 0.999 0.999 0.999 c black 319
 1037 m 93 X -98 Y 93 X -102 Y 93 X -153 Y 93 X -70 Y 93 X 4 Y 93 X -34 Y 1302 X s 1 1 1 c black 319 1037 m 93 X -98 Y 93 X -102 Y 93 X -153 Y 93 X -70 Y 93 X 4 Y 93 X -34 Y 1302 X s 1 0.8 0.4 c black 1 0.8 0.4 c 319 584 m 453 Y 93 X -98 Y 93 X -102
 Y 93 X -153 Y 93 X -70 Y 93 X 4 Y 93 X -34 Y 1302 X f black 1 0.8 0.4 c black 319 1037 m 93 X -98 Y 93 X -102 Y 93 X -153 Y 93 X -70 Y 93 X 4 Y 93 X -34 Y 1302 X s 0.999 0.999 0.999 c black 0.999 0.999 0.999 c 319 584 m 301 Y 93 X -99 Y 93 X -90 Y
 93 X -86 Y 93 X -26 Y 1488 X f black 0.999 0.999 0.999 c black 319 885 m 93 X -99 Y 93 X -90 Y 93 X -86 Y 93 X -26 Y 1488 X s 1 1 1 c black 319 885 m 93 X -99 Y 93 X -90 Y 93 X -86 Y 93 X -26 Y 1488 X s 1 0.4 0.6 c black 1 0.4 0.6 c 319 584 m 301 Y
 93 X -99 Y 93 X -90 Y 93 X -86 Y 93 X -26 Y 1488 X f black 1 0.4 0.6 c black 319 885 m 93 X -99 Y 93 X -90 Y 93 X -86 Y 93 X -26 Y 1488 X s 0.999 0.999 0.999 c black 0.999 0.999 0.999 c 319 584 m 6 Y 93 X -6 Y 1767 X f black 0.999 0.999 0.999 c
 black 319 590 m 93 X -6 Y 1767 X s 1 1 1 c black 319 590 m 93 X -6 Y 1767 X s 0 0 0.4 c black 0 0 0.4 c 319 584 m 6 Y 93 X -6 Y 1767 X f black 0 0 0.4 c black 319 590 m 93 X -6 Y 1767 X s 1 0 0 c 6 lw 1 1 1 c black 1 0 0 c 319 1126 m 93 X -119 Y 93
 X -111 Y 93 X -130 Y 93 X -72 Y 93 X -45 Y 93 X 11 Y 93 X -76 Y 1209 X s black 3 lw 1 0 0 c 1 lw << /PatternType 1 /PaintType 2 /TilingType 1 /BBox [ 0 0 100 100 ] /XStep 100 /YStep 100 /PaintProc { begin gsave 0 100 m 100 0 l s gr end } >> [ 0.24 0
 0 0.24 0 0 ] makepattern /P05 exch def /cs {[/Pattern /DeviceRGB] setcolorspace} def /FA {f [/DeviceRGB] setcolorspace} def cs 1 0 0 P05 setcolor 319 584 m 547 Y 93 X -116 Y 93 X -109 Y 93 X -128 Y 93 X -69 Y 93 X -24 Y 93 X 31 Y 93 X -132 Y -186 X
 91 Y -93 X 77 Y -93 X 133 Y -93 X 114 Y -93 X 121 Y -93 X -536 Y FA 6 lw 1 1 1 c 15 lw 459 946 m -1 Y s 459 945 m cl s 552 925 m 4 Y s 552 929 m cl s 552 884 m -14 Y s 552 870 m cl s black 1 1 1 c 3 lw /w 43 def /w2 {w 2 div} def /w3 {w 3 div} def
 366 1108 459 967 552 904 3 { m20} R 15 lw black 6 lw 1 1 1 c black 3 lw /w 33 def /w2 {w 2 div} def /w3 {w 3 div} def 366 1108 m20 6 lw 459 945 m 8 Y s 459 980 m 3 Y s 3 lw 459 967 m20 6 lw 552 869 m 22 Y s 552 918 m 10 Y s 3 lw 552 904 m20 6 lw 459
 980 m 4 Y s 459 984 m cl s 459 953 m -8 Y s 459 945 m cl s 552 918 m 11 Y s 552 929 m cl s 552 891 m -21 Y s 552 870 m cl s 3 lw 366 1108 459 967 552 904 3 { m20} R 6 lw 3 lw 319 584 m 1860 X s 435 584 m cl s 482 584 m cl s 528 584 m cl s 575 584 m
 cl s 621 584 m cl s 668 584 m cl s 714 584 m cl s 761 584 m cl s 807 584 m cl s 854 584 m cl s 900 584 m cl s 947 584 m cl s 993 584 m cl s 1040 584 m cl s 1087 584 m cl s 1133 584 m cl s 1180 584 m cl s 1226 584 m cl s 1273 584 m cl s 1319 584 m cl
 s 1366 584 m cl s 1412 584 m cl s 1459 584 m cl s 1505 584 m cl s 1552 584 m cl s 1598 584 m cl s 1645 584 m cl s 1691 584 m cl s 1738 584 m cl s 1784 584 m cl s 1831 584 m cl s 1877 584 m cl s 1924 584 m cl s 1970 584 m cl s 2017 584 m cl s 2063
 584 m cl s 435 584 m cl s 389 584 m cl s 342 584 m cl s 2063 584 m cl s 2110 584 m cl s 2156 584 m cl s 319 1729 m 1860 X s 435 1729 m cl s 482 1729 m cl s 528 1729 m cl s 575 1729 m cl s 621 1729 m cl s 668 1729 m cl s 714 1729 m cl s 761 1729 m cl
 s 807 1729 m cl s 854 1729 m cl s 900 1729 m cl s 947 1729 m cl s 993 1729 m cl s 1040 1729 m cl s 1087 1729 m cl s 1133 1729 m cl s 1180 1729 m cl s 1226 1729 m cl s 1273 1729 m cl s 1319 1729 m cl s 1366 1729 m cl s 1412 1729 m cl s 1459 1729 m cl
 s 1505 1729 m cl s 1552 1729 m cl s 1598 1729 m cl s 1645 1729 m cl s 1691 1729 m cl s 1738 1729 m cl s 1784 1729 m cl s 1831 1729 m cl s 1877 1729 m cl s 1924 1729 m cl s 1970 1729 m cl s 2017 1729 m cl s 2063 1729 m cl s 435 1729 m cl s 389 1729 m
 cl s 342 1729 m cl s 2063 1729 m cl s 2110 1729 m cl s 2156 1729 m cl s 319 584 m 1145 Y s 341 637 m -22 X s 341 667 m -22 X s 341 689 m -22 X s 341 706 m -22 X s 341 719 m -22 X s 341 731 m -22 X s 341 741 m -22 X s 341 750 m -22 X s 363 758 m -44
 X s 341 810 m -22 X s 341 840 m -22 X s 341 862 m -22 X s 341 879 m -22 X s 341 893 m -22 X s 341 904 m -22 X s 341 914 m -22 X s 341 923 m -22 X s 363 931 m -44 X s 341 983 m -22 X s 341 1014 m -22 X s 341 1036 m -22 X s 341 1052 m -22 X s 341 1066
 m -22 X s 341 1078 m -22 X s 341 1088 m -22 X s 341 1097 m -22 X s 363 1105 m -44 X s 341 1157 m -22 X s 341 1187 m -22 X s 341 1209 m -22 X s 341 1226 m -22 X s 341 1240 m -22 X s 341 1251 m -22 X s 341 1261 m -22 X s 341 1270 m -22 X s 363 1278 m
 -44 X s 341 1330 m -22 X s 341 1361 m -22 X s 341 1382 m -22 X s 341 1399 m -22 X s 341 1413 m -22 X s 341 1425 m -22 X s 341 1435 m -22 X s 341 1443 m -22 X s 363 1451 m -44 X s 341 1504 m -22 X s 341 1534 m -22 X s 341 1556 m -22 X s 341 1573 m
 -22 X s 341 1586 m -22 X s 341 1598 m -22 X s 341 1608 m -22 X s 341 1617 m -22 X s 363 1625 m -44 X s 341 1677 m -22 X s 341 1708 m -22 X s 2179 584 m 1145 Y s 2157 637 m 22 X s 2157 667 m 22 X s 2157 689 m 22 X s 2157 706 m 22 X s 2157 719 m 22 X
 s 2157 731 m 22 X s 2157 741 m 22 X s 2157 750 m 22 X s 2136 758 m 43 X s 2157 810 m 22 X s 2157 840 m 22 X s 2157 862 m 22 X s 2157 879 m 22 X s 2157 893 m 22 X s 2157 904 m 22 X s 2157 914 m 22 X s 2157 923 m 22 X s 2136 931 m 43 X s 2157 983 m 22
 X s 2157 1014 m 22 X s 2157 1036 m 22 X s 2157 1052 m 22 X s 2157 1066 m 22 X s 2157 1078 m 22 X s 2157 1088 m 22 X s 2157 1097 m 22 X s 2136 1105 m 43 X s 2157 1157 m 22 X s 2157 1187 m 22 X s 2157 1209 m 22 X s 2157 1226 m 22 X s 2157 1240 m 22 X
 s 2157 1251 m 22 X s 2157 1261 m 22 X s 2157 1270 m 22 X s 2136 1278 m 43 X s 2157 1330 m 22 X s 2157 1361 m 22 X s 2157 1382 m 22 X s 2157 1399 m 22 X s 2157 1413 m 22 X s 2157 1425 m 22 X s 2157 1435 m 22 X s 2157 1443 m 22 X s 2136 1451 m 43 X s
 2157 1504 m 22 X s 2157 1534 m 22 X s 2157 1556 m 22 X s 2157 1573 m 22 X s 2157 1586 m 22 X s 2157 1598 m 22 X s 2157 1608 m 22 X s 2157 1617 m 22 X s 2136 1625 m 43 X s 2157 1677 m 22 X s 2157 1708 m 22 X s
 gsave  2263 1770 2 313 C 406.765 1447.41 t 0 r /Helvetica findfont 64.4212 sf 0 0 m (SR for MB\255GGo) show NC gr 
 gsave  2263 1770 2 313 C 1464.36 1630.45 t 0 r /Helvetica findfont 64.4212 sf 0 0 m (SM Total) show NC gr  1 1 1 c 1338 1616 m 107 X 64 Y -107 X f 1 0 0 c 6 lw 1338 1648 m 107 X s black
 gsave  2263 1770 2 313 C 1464.36 1538.93 t 0 r /Helvetica findfont 64.4212 sf 0 0 m (Data) show NC gr  1391 1529 m 55 Y s 3 lw 1391 1557 m20 6 lw
 gsave  2263 1770 2 313 C 1464.36 1447.41 t 0 r /Helvetica findfont 64.4212 sf 0 0 m (W+jets) show NC gr  0.4 0.6 1 c 3 lw 1338 1434 m 107 X 64 Y -107 X f 6 lw black 3 lw 1338 1498 m 107 X s 1338 1434 m 107 X s 1445 1434 m 64 Y s 1338 1434 m 64 Y s
 gsave  2263 1770 2 313 C 1498.25 1355.88 t 0 r /Helvetica findfont 64.4212 sf 0 0 m (\(+EW\) & single top) show NC gr 
 gsave  2263 1770 2 313 C 1481.3 1355.88 t 0 r /Helvetica findfont 64.4212 sf 0 0 m (t) show NC gr  1481 1407 m 17 X s
 gsave  2263 1770 2 313 C 1464.36 1355.88 t 0 r /Helvetica findfont 64.4212 sf 0 0 m (t) show NC gr  0.6 1 0.6 c 1338 1343 m 107 X 63 Y -107 X f black 1338 1406 m 107 X s 1338 1343 m 107 X s 1445 1343 m 63 Y s 1338 1343 m 63 Y s
 gsave  2263 1770 2 313 C 1464.36 1264.36 t 0 r /Helvetica findfont 64.4212 sf 0 0 m (Z+jets) show NC gr  1 0.8 0.4 c 1338 1252 m 107 X 63 Y -107 X f black 1338 1315 m 107 X s 1338 1252 m 107 X s 1445 1252 m 63 Y s 1338 1252 m 63 Y s
 gsave  2263 1770 2 313 C 1464.36 1172.84 t 0 r /Helvetica findfont 64.4212 sf 0 0 m (Diboson) show NC gr  1 0.4 0.6 c 1338 1161 m 107 X 63 Y -107 X f black 1338 1224 m 107 X s 1338 1161 m 107 X s 1445 1161 m 63 Y s 1338 1161 m 63 Y s
 gsave  2263 1770 2 313 C 1464.36 1081.32 t 0 r /Helvetica findfont 64.4212 sf 0 0 m (Multi\255jet) show NC gr  0 0 0.4 c 1338 1070 m 107 X 63 Y -107 X f black 1338 1133 m 107 X s 1338 1070 m 107 X s 1445 1070 m 63 Y s 1338 1070 m 63 Y s
 gsave  2263 1770 2 313 C 911.832 1566.05 t 0 r /Helvetica findfont 44.0776 sf 0 0 m (\2551) show NC gr 
 gsave  2263 1770 2 313 C 471.17 1535.54 t 0 r /Helvetica findfont 64.4212 sf 0 0 m (=13TeV, 139 fb) show NC gr 
 gsave  2263 1770 2 313 C 440.662 1535.54 t 0 r /Helvetica findfont 64.4212 sf 0 0 m (s) show NC gr  6 lw 420 1573 m 7 -41 d s 3 lw 427 1532 m 7 61 d s 434 1593 m 37 X s 1 1 1 c 2254 561 2 2 bf black 1 1 1 c black 1860 358 318 187 bl 1 1 1 c black
 1860 358 318 187 bl 6 lw 1 1 1 c black 3 lw 364 333 m20 6 lw 3 lw 457 298 m20 6 lw 3 lw 550 385 m20 6 lw 3 lw 318 187 m 1860 X s
 gsave  2254 561 2 2 C 1959.25 44.0662 t 0 r /Helvetica findfont 78.1689 sf 0 0 m ( [GeV]) show NC gr 
 gsave  2254 561 2 2 C 1928.75 -2.35513e-13 t 0 r /Helvetica findfont 50.9797 sf 0 0 m (T) show NC gr 
 gsave  2254 561 2 2 C 1657.57 44.0662 t 0 r /Helvetica findfont 78.1689 sf 0 0 m (1st jet p) show NC gr  434 201 m -14 Y s 481 194 m -7 Y s 527 194 m -7 Y s 574 194 m -7 Y s 620 194 m -7 Y s 667 201 m -14 Y s 713 194 m -7 Y s 760 194 m -7 Y s 806
 194 m -7 Y s 853 194 m -7 Y s 899 201 m -14 Y s 946 194 m -7 Y s 992 194 m -7 Y s 1039 194 m -7 Y s 1085 194 m -7 Y s 1132 201 m -14 Y s 1178 194 m -7 Y s 1225 194 m -7 Y s 1271 194 m -7 Y s 1318 194 m -7 Y s 1364 201 m -14 Y s 1411 194 m -7 Y s
 1457 194 m -7 Y s 1504 194 m -7 Y s 1550 194 m -7 Y s 1597 201 m -14 Y s 1643 194 m -7 Y s 1690 194 m -7 Y s 1737 194 m -7 Y s 1783 194 m -7 Y s 1830 201 m -14 Y s 1876 194 m -7 Y s 1923 194 m -7 Y s 1969 194 m -7 Y s 2016 194 m -7 Y s 2062 201 m
 -14 Y s 434 201 m -14 Y s 388 194 m -7 Y s 341 194 m -7 Y s 2062 201 m -14 Y s 2109 194 m -7 Y s 2155 194 m -7 Y s
 gsave  2254 561 2 2 C 369.478 118.64 t 0 r /Helvetica findfont 78.1689 sf 0 0 m (500) show NC gr 
 gsave  2254 561 2 2 C 576.251 118.64 t 0 r /Helvetica findfont 78.1689 sf 0 0 m (1000) show NC gr 
 gsave  2254 561 2 2 C 810.141 118.64 t 0 r /Helvetica findfont 78.1689 sf 0 0 m (1500) show NC gr 
 gsave  2254 561 2 2 C 1040.64 118.64 t 0 r /Helvetica findfont 78.1689 sf 0 0 m (2000) show NC gr 
 gsave  2254 561 2 2 C 1274.53 118.64 t 0 r /Helvetica findfont 78.1689 sf 0 0 m (2500) show NC gr 
 gsave  2254 561 2 2 C 1508.42 118.64 t 0 r /Helvetica findfont 78.1689 sf 0 0 m (3000) show NC gr 
 gsave  2254 561 2 2 C 1738.92 118.64 t 0 r /Helvetica findfont 78.1689 sf 0 0 m (3500) show NC gr 
 gsave  2254 561 2 2 C 1972.81 118.64 t 0 r /Helvetica findfont 78.1689 sf 0 0 m (4000) show NC gr  318 545 m 1860 X s 434 531 m 14 Y s 481 538 m 7 Y s 527 538 m 7 Y s 574 538 m 7 Y s 620 538 m 7 Y s 667 531 m 14 Y s 713 538 m 7 Y s 760 538 m 7 Y s
 806 538 m 7 Y s 853 538 m 7 Y s 899 531 m 14 Y s 946 538 m 7 Y s 992 538 m 7 Y s 1039 538 m 7 Y s 1085 538 m 7 Y s 1132 531 m 14 Y s 1178 538 m 7 Y s 1225 538 m 7 Y s 1271 538 m 7 Y s 1318 538 m 7 Y s 1364 531 m 14 Y s 1411 538 m 7 Y s 1457 538 m 7
 Y s 1504 538 m 7 Y s 1550 538 m 7 Y s 1597 531 m 14 Y s 1643 538 m 7 Y s 1690 538 m 7 Y s 1737 538 m 7 Y s 1783 538 m 7 Y s 1830 531 m 14 Y s 1876 538 m 7 Y s 1923 538 m 7 Y s 1969 538 m 7 Y s 2016 538 m 7 Y s 2062 531 m 14 Y s 434 531 m 14 Y s 388
 538 m 7 Y s 341 538 m 7 Y s 2062 531 m 14 Y s 2109 538 m 7 Y s 2155 538 m 7 Y s 318 187 m 358 Y s
 gsave  2254 561 2 2 C 166.096 284.736 t 90 r /Helvetica findfont 67.9729 sf 0 0 m (Data/SM) show NC gr  361 203 m -43 X s 339 220 m -21 X s 339 236 m -21 X s 339 252 m -21 X s 339 268 m -21 X s 361 285 m -43 X s 339 301 m -21 X s 339 317 m -21 X s
 339 334 m -21 X s 339 350 m -21 X s 361 366 m -43 X s 339 382 m -21 X s 339 399 m -21 X s 339 415 m -21 X s 339 431 m -21 X s 361 447 m -43 X s 339 464 m -21 X s 339 480 m -21 X s 339 496 m -21 X s 339 512 m -21 X s 361 529 m -43 X s 361 203 m -43 X
 s 339 187 m -21 X s 361 529 m -43 X s
 gsave  2254 561 2 2 C 261.008 183.044 t 0 r /Helvetica findfont 57.777 sf 0 0 m (0) show NC gr 
 gsave  2254 561 2 2 C 213.552 261.008 t 0 r /Helvetica findfont 57.777 sf 0 0 m (0.5) show NC gr 
 gsave  2254 561 2 2 C 271.177 342.361 t 0 r /Helvetica findfont 57.777 sf 0 0 m (1) show NC gr 
 gsave  2254 561 2 2 C 213.552 423.714 t 0 r /Helvetica findfont 57.777 sf 0 0 m (1.5) show NC gr 
 gsave  2254 561 2 2 C 261.008 505.067 t 0 r /Helvetica findfont 57.777 sf 0 0 m (2) show NC gr  2178 187 m 358 Y s 2135 203 m 43 X s 2157 220 m 21 X s 2157 236 m 21 X s 2157 252 m 21 X s 2157 268 m 21 X s 2135 285 m 43 X s 2157 301 m 21 X s 2157 317
 m 21 X s 2157 334 m 21 X s 2157 350 m 21 X s 2135 366 m 43 X s 2157 382 m 21 X s 2157 399 m 21 X s 2157 415 m 21 X s 2157 431 m 21 X s 2135 447 m 43 X s 2157 464 m 21 X s 2157 480 m 21 X s 2157 496 m 21 X s 2157 512 m 21 X s 2135 529 m 43 X s 2135
 203 m 43 X s 2157 187 m 21 X s 2135 529 m 43 X s 9 lw 457 311 m 11 Y s 457 322 m cl s 457 284 m -9 Y s 457 275 m cl s 550 398 m 58 Y s 550 456 m cl s 550 371 m -53 Y s 550 318 m cl s 3 lw 364 333 457 298 550 385 3 { m20} R 9 lw 1 0 0 c 6 lw black 3
 lw 1 0 0 c 2155 203 m cl s 2127 203 m cl s 2098 203 m cl s 2069 203 m cl s 2040 203 m cl s 2012 203 m cl s 1983 203 m cl s 1954 203 m cl s 1926 203 m cl s 1897 203 m cl s 1868 203 m cl s 1840 203 m cl s 1811 203 m cl s 1782 203 m cl s 1754 203 m cl
 s 1725 203 m cl s 1696 203 m cl s 1667 203 m cl s 1639 203 m cl s 1610 203 m cl s 1581 203 m cl s 1553 203 m cl s 1524 203 m cl s 1495 203 m cl s 1467 203 m cl s 1438 203 m cl s 1434 228 m -27 -27 d s 1434 257 m -56 -56 d s 1434 285 m -84 -84 d s
 1434 314 m -93 -93 d s 1323 203 m cl s 1434 343 m -93 -93 d s 1294 203 m cl s 1434 371 m -93 -93 d s 1266 203 m cl s 1434 400 m -93 -93 d s 1248 214 m -13 -13 d s 1434 428 m -93 -92 d s 1248 243 m -42 -42 d s 1434 457 m -93 -93 d s 1248 272 m -71
 -71 d s 1434 486 m -93 -93 d s 1248 300 m -93 -93 d s 1151 203 m cl s 1434 514 m -93 -93 d s 1248 329 m -93 -93 d s 1122 203 m cl s 1422 531 m -81 -81 d s 1248 357 m -93 -92 d s 1094 203 m cl s 1394 531 m -53 -52 d s 1248 386 m -93 -93 d s 1065 203
 m cl s 1062 200 m -13 -13 d s 1365 531 m -24 -24 d s 1248 415 m -93 -93 d s 1062 229 m -42 -42 d s 1248 443 m -93 -93 d s 1062 258 m -71 -71 d s 1248 472 m -93 -93 d s 1062 286 m -99 -99 d s 1248 500 m -93 -92 d s 1062 315 m -128 -128 d s 1248 529 m
 -93 -93 d s 1062 343 m -157 -156 d s 1221 531 m -66 -66 d s 1062 372 m -185 -185 d s 1193 531 m -38 -38 d s 1062 401 m -186 -186 d s 1164 531 m -9 -9 d s 1062 429 m -186 -185 d s 1062 458 m -192 -192 d s 1062 486 m -221 -220 d s 1062 515 m -249 -249
 d s 1062 544 m -278 -278 d s 1035 545 m -252 -251 d s 1006 545 m -223 -222 d s 977 545 m -215 -215 d s 949 545 m -73 -72 d s 869 466 m -136 -136 d s 920 545 m -44 -44 d s 840 466 m -57 -58 d s 777 402 m -73 -72 d s 891 545 m -15 -15 d s 812 466 m
 -29 -29 d s 748 402 m -65 -64 d s 783 466 m s 719 402 m -64 -64 d s 690 402 m s 683 394 m -57 -56 d s 654 394 m -57 -56 d s 625 394 m -51 -50 d s 591 389 m -45 -45 d s 562 389 m -45 -45 d s 533 389 m -40 -41 d s 505 389 m -1 -1 d s 500 384 m -36 -36
 d s 471 384 m -35 -36 d s 318 231 m s 443 384 m -32 -32 d s 318 259 m s 414 384 m -3 -3 d s 408 377 m -23 -22 d s 318 288 m s 379 377 m -23 -22 d s 318 317 m s 350 377 m -23 -22 d s 318 345 m s 322 377 m -4 -3 d s 6 lw black[ 4 8] 0 sd 3 lw 318 447
 m 1860 X s 318 285 m 1860 X s 1 0 0 c[  12 12 ] 0 sd 6 lw 318 366 m 1860 X s
 gr  gr showpage
end
%%EOF
