%!PS-Adobe-2.0 EPSF-2.0
%%BoundingBox:  0 0 567 521
%%Title: Distributions/jetPt_0__distrVR0LdPhi_MB-C_beforeFit_forThesis.eps: canvas
%%Creator: ROOT Version 6.04/16
%%CreationDate: Tue May 19 22:03:22 2020
%%DocumentNeededResources: ProcSet (FontSetInit)
%%EndComments
%%BeginProlog
80 dict begin
/s {stroke} def /l {lineto} def /m {moveto} def /t {translate} def
/r {rotate} def /rl {roll}  def /R {repeat} def
/d {rlineto} def /rm {rmoveto} def /gr {grestore} def /f {eofill} def
/c {setrgbcolor} def /black {0 setgray} def /sd {setdash} def
/cl {closepath} def /sf {scalefont setfont} def /lw {setlinewidth} def
/box {m dup 0 exch d exch 0 d 0 exch neg d cl} def
/NC{systemdict begin initclip end}def/C{NC box clip newpath}def
/bl {box s} def /bf {gsave box gsave f grestore 1 lw [] 0 sd s grestore} def /Y { 0 exch d} def /X { 0 d} def 
/K {{pop pop 0 moveto} exch kshow} bind def
/ita {/ang 15 def gsave [1 0 ang dup sin exch cos div 1 0 0] concat} def 
/mp {newpath /y exch def /x exch def} def
/side {[w .77 mul w .23 mul] .385 w mul sd w 0 l currentpoint t -144 r} def
/mr {mp x y w2 0 360 arc} def /m24 {mr s} def /m20 {mr f} def
/mb {mp x y w2 add m w2 neg 0 d 0 w neg d w 0 d 0 w d cl} def
/mt {mp x y w2 add m w2 neg w neg d w 0 d cl} def
/m21 {mb f} def /m25 {mb s} def /m22 {mt f} def /m26{mt s} def
/m23 {mp x y w2 sub m w2 w d w neg 0 d cl f} def
/m27 {mp x y w2 add m w3 neg w2 neg d w3 w2 neg d w3 w2 d cl s} def
/m28 {mp x w2 sub y w2 sub w3 add m w3 0 d  0 w3 neg d w3 0 d 0 w3 d w3 0 d  0 w3 d w3 neg 0 d 0 w3 d w3 neg 0 d 0 w3 neg d w3 neg 0 d cl s } def
/m29 {mp gsave x w2 sub y w2 add w3 sub m currentpoint t 4 {side} repeat cl fill gr} def
/m30 {mp gsave x w2 sub y w2 add w3 sub m currentpoint t 4 {side} repeat cl s gr} def
/m31 {mp x y w2 sub m 0 w d x w2 sub y m w 0 d x w2 sub y w2 add m w w neg d x w2 sub y w2 sub m w w d s} def
/m32 {mp x y w2 sub m w2 w d w neg 0 d cl s} def
/m33 {mp x y w2 add m w3 neg w2 neg d w3 w2 neg d w3 w2 d cl f} def
/m34 {mp x w2 sub y w2 sub w3 add m w3 0 d  0 w3 neg d w3 0 d 0 w3 d w3 0 d  0 w3 d w3 neg 0 d 0 w3 d w3 neg 0 d 0 w3 neg d w3 neg 0 d cl f } def
/m2 {mp x y w2 sub m 0 w d x w2 sub y m w 0 d s} def
/m5 {mp x w2 sub y w2 sub m w w d x w2 sub y w2 add m w w neg d s} def
%%IncludeResource: ProcSet (FontSetInit)
%%IncludeResource: font Times-Roman
%%IncludeResource: font Times-Italic
%%IncludeResource: font Times-Bold
%%IncludeResource: font Times-BoldItalic
%%IncludeResource: font Helvetica
%%IncludeResource: font Helvetica-Oblique
%%IncludeResource: font Helvetica-Bold
%%IncludeResource: font Helvetica-BoldOblique
%%IncludeResource: font Courier
%%IncludeResource: font Courier-Oblique
%%IncludeResource: font Courier-Bold
%%IncludeResource: font Courier-BoldOblique
%%IncludeResource: font Symbol
%%IncludeResource: font ZapfDingbats
/reEncode {exch findfont dup length dict begin {1 index /FID eq  {pop pop} {def} ifelse } forall /Encoding exch def currentdict end dup /FontName get exch definefont pop } def [/Times-Bold /Times-Italic /Times-BoldItalic /Helvetica /Helvetica-Oblique
 /Helvetica-Bold /Helvetica-BoldOblique /Courier /Courier-Oblique /Courier-Bold /Courier-BoldOblique /Times-Roman /AvantGarde-Book /AvantGarde-BookOblique /AvantGarde-Demi /AvantGarde-DemiOblique /Bookman-Demi /Bookman-DemiItalic /Bookman-Light
 /Bookman-LightItalic /Helvetica-Narrow /Helvetica-Narrow-Bold /Helvetica-Narrow-BoldOblique /Helvetica-Narrow-Oblique /NewCenturySchlbk-Roman /NewCenturySchlbk-Bold /NewCenturySchlbk-BoldItalic /NewCenturySchlbk-Italic /Palatino-Bold
 /Palatino-BoldItalic /Palatino-Italic /Palatino-Roman ] {ISOLatin1Encoding reEncode } forall
%%EndProlog
%%BeginSetup
%%EndSetup
newpath  gsave  .25 .25 scale  gsave  0 0 t black[  ] 0 sd 3 lw 1 1 1 c 2268 2085 0 0 bf black 1 1 1 c 2263 1770 2 313 bf black 1 1 1 c black 1860 1145 319 584 bl 1 1 1 c black 1860 1145 319 584 bl 6 lw 1 1 1 c black 3 lw /w 33 def /w2 {w 2 div} def
 /w3 {w 3 div} def 459 1019 m20 6 lw 3 lw 552 1119 m20 6 lw 3 lw 645 1071 m20 6 lw 3 lw 738 981 m20 6 lw 3 lw 831 929 m20 6 lw 924 826 m 11 Y s 924 864 m 3 Y s 3 lw 924 850 m20 6 lw 1017 689 m 59 Y s 1017 775 m 18 Y s 3 lw 1017 762 m20 6 lw 1110 584
 m 123 Y s 1110 734 m 28 Y s 3 lw 1110 721 m20 6 lw 1203 689 m 59 Y s 1203 775 m 18 Y s 3 lw 1203 762 m20 6 lw 3 lw 319 584 m 1860 X s
 gsave  2263 1770 2 313 C 1949.08 376.258 t 0 r /Helvetica findfont 81.3741 sf 0 0 m ( [GeV]) show NC gr 
 gsave  2263 1770 2 313 C 1915.19 332.192 t 0 r /Helvetica findfont 54.2494 sf 0 0 m (T) show NC gr 
 gsave  2263 1770 2 313 C 1630.45 376.258 t 0 r /Helvetica findfont 81.3741 sf 0 0 m (1st jet p) show NC gr  435 584 m cl s 482 584 m cl s 528 584 m cl s 575 584 m cl s 621 584 m cl s 668 584 m cl s 714 584 m cl s 761 584 m cl s 807 584 m cl s 854
 584 m cl s 900 584 m cl s 947 584 m cl s 993 584 m cl s 1040 584 m cl s 1087 584 m cl s 1133 584 m cl s 1180 584 m cl s 1226 584 m cl s 1273 584 m cl s 1319 584 m cl s 1366 584 m cl s 1412 584 m cl s 1459 584 m cl s 1505 584 m cl s 1552 584 m cl s
 1598 584 m cl s 1645 584 m cl s 1691 584 m cl s 1738 584 m cl s 1784 584 m cl s 1831 584 m cl s 1877 584 m cl s 1924 584 m cl s 1970 584 m cl s 2017 584 m cl s 2063 584 m cl s 435 584 m cl s 389 584 m cl s 342 584 m cl s 2063 584 m cl s 2110 584 m
 cl s 2156 584 m cl s 319 1729 m 1860 X s 435 1729 m cl s 482 1729 m cl s 528 1729 m cl s 575 1729 m cl s 621 1729 m cl s 668 1729 m cl s 714 1729 m cl s 761 1729 m cl s 807 1729 m cl s 854 1729 m cl s 900 1729 m cl s 947 1729 m cl s 993 1729 m cl s
 1040 1729 m cl s 1087 1729 m cl s 1133 1729 m cl s 1180 1729 m cl s 1226 1729 m cl s 1273 1729 m cl s 1319 1729 m cl s 1366 1729 m cl s 1412 1729 m cl s 1459 1729 m cl s 1505 1729 m cl s 1552 1729 m cl s 1598 1729 m cl s 1645 1729 m cl s 1691 1729 m
 cl s 1738 1729 m cl s 1784 1729 m cl s 1831 1729 m cl s 1877 1729 m cl s 1924 1729 m cl s 1970 1729 m cl s 2017 1729 m cl s 2063 1729 m cl s 435 1729 m cl s 389 1729 m cl s 342 1729 m cl s 2063 1729 m cl s 2110 1729 m cl s 2156 1729 m cl s 319 584 m
 1145 Y s
 gsave  2263 1770 2 313 C 166.096 1091.49 t 90 r /Helvetica findfont 81.3741 sf 0 0 m (Events / 200 GeV) show NC gr  341 625 m -22 X s 341 649 m -22 X s 341 666 m -22 X s 341 680 m -22 X s 341 690 m -22 X s 341 699 m -22 X s 341 707 m -22 X s 341 714
 m -22 X s 363 721 m -44 X s
 gsave  2263 1770 2 313 C 300.555 693.385 t 0 r  -36 0 t /Helvetica findfont 64.4212 sf 0 0 m (1) show NC gr  341 762 m -22 X s 341 785 m -22 X s 341 802 m -22 X s 341 816 m -22 X s 341 826 m -22 X s 341 836 m -22 X s 341 843 m -22 X s 341 850 m -22
 X s 363 857 m -44 X s
 gsave  2263 1770 2 313 C 300.555 829.577 t 0 r  -73 0 t /Helvetica findfont 64.4212 sf 0 0 m (10) show NC gr  341 898 m -22 X s 341 922 m -22 X s 341 939 m -22 X s 341 952 m -22 X s 341 963 m -22 X s 341 972 m -22 X s 341 980 m -22 X s 341 987 m -22
 X s 363 993 m -44 X s
 gsave  2263 1770 2 313 C 274.567 989.796 t 0 r /Helvetica findfont 44.0776 sf 0 0 m (2) show NC gr 
 gsave  2263 1770 2 313 C 203.383 962.678 t 0 r /Helvetica findfont 64.4212 sf 0 0 m (10) show NC gr  341 1034 m -22 X s 341 1058 m -22 X s 341 1075 m -22 X s 341 1088 m -22 X s 341 1099 m -22 X s 341 1108 m -22 X s 341 1116 m -22 X s 341 1123 m -22
 X s 363 1129 m -44 X s
 gsave  2263 1770 2 313 C 274.567 1132.16 t 0 r /Helvetica findfont 44.0776 sf 0 0 m (3) show NC gr 
 gsave  2263 1770 2 313 C 203.383 1101.66 t 0 r /Helvetica findfont 64.4212 sf 0 0 m (10) show NC gr  341 1170 m -22 X s 341 1194 m -22 X s 341 1211 m -22 X s 341 1224 m -22 X s 341 1235 m -22 X s 341 1244 m -22 X s 341 1252 m -22 X s 341 1259 m -22
 X s 363 1265 m -44 X s
 gsave  2263 1770 2 313 C 274.567 1264.36 t 0 r /Helvetica findfont 44.0776 sf 0 0 m (4) show NC gr 
 gsave  2263 1770 2 313 C 203.383 1237.24 t 0 r /Helvetica findfont 64.4212 sf 0 0 m (10) show NC gr  341 1306 m -22 X s 341 1330 m -22 X s 341 1347 m -22 X s 341 1360 m -22 X s 341 1371 m -22 X s 341 1380 m -22 X s 341 1388 m -22 X s 341 1395 m -22
 X s 363 1401 m -44 X s
 gsave  2263 1770 2 313 C 274.567 1403.34 t 0 r /Helvetica findfont 44.0776 sf 0 0 m (5) show NC gr 
 gsave  2263 1770 2 313 C 203.383 1372.83 t 0 r /Helvetica findfont 64.4212 sf 0 0 m (10) show NC gr  341 1442 m -22 X s 341 1466 m -22 X s 341 1483 m -22 X s 341 1497 m -22 X s 341 1507 m -22 X s 341 1517 m -22 X s 341 1524 m -22 X s 341 1531 m -22
 X s 363 1538 m -44 X s
 gsave  2263 1770 2 313 C 274.567 1538.93 t 0 r /Helvetica findfont 44.0776 sf 0 0 m (6) show NC gr 
 gsave  2263 1770 2 313 C 203.383 1508.42 t 0 r /Helvetica findfont 64.4212 sf 0 0 m (10) show NC gr  341 1579 m -22 X s 341 1603 m -22 X s 341 1620 m -22 X s 341 1633 m -22 X s 341 1644 m -22 X s 341 1653 m -22 X s 341 1661 m -22 X s 341 1668 m -22
 X s 363 1674 m -44 X s
 gsave  2263 1770 2 313 C 274.567 1671.13 t 0 r /Helvetica findfont 44.0776 sf 0 0 m (7) show NC gr 
 gsave  2263 1770 2 313 C 203.383 1644.01 t 0 r /Helvetica findfont 64.4212 sf 0 0 m (10) show NC gr  341 1715 m -22 X s 2179 584 m 1145 Y s 2157 625 m 22 X s 2157 649 m 22 X s 2157 666 m 22 X s 2157 680 m 22 X s 2157 690 m 22 X s 2157 699 m 22 X s
 2157 707 m 22 X s 2157 714 m 22 X s 2136 721 m 43 X s 2157 762 m 22 X s 2157 785 m 22 X s 2157 802 m 22 X s 2157 816 m 22 X s 2157 826 m 22 X s 2157 836 m 22 X s 2157 843 m 22 X s 2157 850 m 22 X s 2136 857 m 43 X s 2157 898 m 22 X s 2157 922 m 22 X
 s 2157 939 m 22 X s 2157 952 m 22 X s 2157 963 m 22 X s 2157 972 m 22 X s 2157 980 m 22 X s 2157 987 m 22 X s 2136 993 m 43 X s 2157 1034 m 22 X s 2157 1058 m 22 X s 2157 1075 m 22 X s 2157 1088 m 22 X s 2157 1099 m 22 X s 2157 1108 m 22 X s 2157
 1116 m 22 X s 2157 1123 m 22 X s 2136 1129 m 43 X s 2157 1170 m 22 X s 2157 1194 m 22 X s 2157 1211 m 22 X s 2157 1224 m 22 X s 2157 1235 m 22 X s 2157 1244 m 22 X s 2157 1252 m 22 X s 2157 1259 m 22 X s 2136 1265 m 43 X s 2157 1306 m 22 X s 2157
 1330 m 22 X s 2157 1347 m 22 X s 2157 1360 m 22 X s 2157 1371 m 22 X s 2157 1380 m 22 X s 2157 1388 m 22 X s 2157 1395 m 22 X s 2136 1401 m 43 X s 2157 1442 m 22 X s 2157 1466 m 22 X s 2157 1483 m 22 X s 2157 1497 m 22 X s 2157 1507 m 22 X s 2157
 1517 m 22 X s 2157 1524 m 22 X s 2157 1531 m 22 X s 2136 1538 m 43 X s 2157 1579 m 22 X s 2157 1603 m 22 X s 2157 1620 m 22 X s 2157 1633 m 22 X s 2157 1644 m 22 X s 2157 1653 m 22 X s 2157 1661 m 22 X s 2157 1668 m 22 X s 2136 1674 m 43 X s 2157
 1715 m 22 X s 0.4 0.6 1 c black 0.4 0.6 1 c 319 584 m 93 X 453 Y 93 X 93 Y 93 X -51 Y 93 X -80 Y 93 X -85 Y 93 X -43 Y 93 X -64 Y 93 X -71 Y 93 X -50 Y 93 X -81 Y 93 X 2 Y 93 X -23 Y 93 X 48 Y 93 X -48 Y 558 X f black 0.4 0.6 1 c black 319 584 m 93
 X 453 Y 93 X 93 Y 93 X -51 Y 93 X -80 Y 93 X -85 Y 93 X -43 Y 93 X -64 Y 93 X -71 Y 93 X -50 Y 93 X -81 Y 93 X 2 Y 93 X -23 Y 93 X 48 Y 93 X -48 Y 558 X s 0.999 0.999 0.999 c black 0.999 0.999 0.999 c 319 584 m 93 X 432 Y 93 X 91 Y 93 X -52 Y 93 X
 -80 Y 93 X -81 Y 93 X -46 Y 93 X -64 Y 93 X -71 Y 93 X -50 Y 93 X -79 Y 279 X 45 Y 93 X -45 Y 558 X f black 0.999 0.999 0.999 c black 319 584 m 93 X 432 Y 93 X 91 Y 93 X -52 Y 93 X -80 Y 93 X -81 Y 93 X -46 Y 93 X -64 Y 93 X -71 Y 93 X -50 Y 93 X
 -79 Y 279 X 45 Y 93 X -45 Y 558 X s 1 1 1 c black 319 584 m 93 X 432 Y 93 X 91 Y 93 X -52 Y 93 X -80 Y 93 X -81 Y 93 X -46 Y 93 X -64 Y 93 X -71 Y 93 X -50 Y 93 X -79 Y 279 X 45 Y 93 X -45 Y 558 X s 0.6 1 0.6 c black 0.6 1 0.6 c 319 584 m 93 X 432 Y
 93 X 91 Y 93 X -52 Y 93 X -80 Y 93 X -81 Y 93 X -46 Y 93 X -64 Y 93 X -71 Y 93 X -50 Y 93 X -79 Y 279 X 45 Y 93 X -45 Y 558 X f black 0.6 1 0.6 c black 319 584 m 93 X 432 Y 93 X 91 Y 93 X -52 Y 93 X -80 Y 93 X -81 Y 93 X -46 Y 93 X -64 Y 93 X -71 Y
 93 X -50 Y 93 X -79 Y 279 X 45 Y 93 X -45 Y 558 X s 0.999 0.999 0.999 c black 0.999 0.999 0.999 c 319 584 m 93 X 414 Y 93 X 94 Y 93 X -49 Y 93 X -78 Y 93 X -84 Y 93 X -44 Y 93 X -57 Y 93 X -72 Y 93 X -46 Y 93 X -78 Y 279 X 45 Y 93 X -45 Y 558 X f
 black 0.999 0.999 0.999 c black 319 584 m 93 X 414 Y 93 X 94 Y 93 X -49 Y 93 X -78 Y 93 X -84 Y 93 X -44 Y 93 X -57 Y 93 X -72 Y 93 X -46 Y 93 X -78 Y 279 X 45 Y 93 X -45 Y 558 X s 1 1 1 c black 319 584 m 93 X 414 Y 93 X 94 Y 93 X -49 Y 93 X -78 Y
 93 X -84 Y 93 X -44 Y 93 X -57 Y 93 X -72 Y 93 X -46 Y 93 X -78 Y 279 X 45 Y 93 X -45 Y 558 X s 1 0.8 0.4 c black 1 0.8 0.4 c 319 584 m 93 X 414 Y 93 X 94 Y 93 X -49 Y 93 X -78 Y 93 X -84 Y 93 X -44 Y 93 X -57 Y 93 X -72 Y 93 X -46 Y 93 X -78 Y 279
 X 45 Y 93 X -45 Y 558 X f black 1 0.8 0.4 c black 319 584 m 93 X 414 Y 93 X 94 Y 93 X -49 Y 93 X -78 Y 93 X -84 Y 93 X -44 Y 93 X -57 Y 93 X -72 Y 93 X -46 Y 93 X -78 Y 279 X 45 Y 93 X -45 Y 558 X s 0.999 0.999 0.999 c black 0.999 0.999 0.999 c 319
 584 m 93 X 302 Y 93 X 81 Y 93 X -51 Y 93 X -70 Y 93 X -93 Y 93 X -40 Y 93 X -68 Y 93 X -61 Y 465 X 43 Y 93 X -43 Y 558 X f black 0.999 0.999 0.999 c black 319 584 m 93 X 302 Y 93 X 81 Y 93 X -51 Y 93 X -70 Y 93 X -93 Y 93 X -40 Y 93 X -68 Y 93 X -61
 Y 465 X 43 Y 93 X -43 Y 558 X s 1 1 1 c black 319 584 m 93 X 302 Y 93 X 81 Y 93 X -51 Y 93 X -70 Y 93 X -93 Y 93 X -40 Y 93 X -68 Y 93 X -61 Y 465 X 43 Y 93 X -43 Y 558 X s 1 0.4 0.6 c black 1 0.4 0.6 c 319 584 m 93 X 302 Y 93 X 81 Y 93 X -51 Y 93 X
 -70 Y 93 X -93 Y 93 X -40 Y 93 X -68 Y 93 X -61 Y 465 X 43 Y 93 X -43 Y 558 X f black 1 0.4 0.6 c black 319 584 m 93 X 302 Y 93 X 81 Y 93 X -51 Y 93 X -70 Y 93 X -93 Y 93 X -40 Y 93 X -68 Y 93 X -61 Y 465 X 43 Y 93 X -43 Y 558 X s 0.999 0.999 0.999
 c black 0.999 0.999 0.999 c 319 584 m 93 X 241 Y 93 X 84 Y 93 X -52 Y 93 X -93 Y 93 X -71 Y 93 X -64 Y 93 X -45 Y 1209 X f black 0.999 0.999 0.999 c black 319 584 m 93 X 241 Y 93 X 84 Y 93 X -52 Y 93 X -93 Y 93 X -71 Y 93 X -64 Y 93 X -45 Y 1209 X s
 1 1 1 c black 319 584 m 93 X 241 Y 93 X 84 Y 93 X -52 Y 93 X -93 Y 93 X -71 Y 93 X -64 Y 93 X -45 Y 1209 X s 0 0 0.4 c black 0 0 0.4 c 319 584 m 93 X 241 Y 93 X 84 Y 93 X -52 Y 93 X -93 Y 93 X -71 Y 93 X -64 Y 93 X -45 Y 1209 X f black 0 0 0.4 c
 black 319 584 m 93 X 241 Y 93 X 84 Y 93 X -52 Y 93 X -93 Y 93 X -71 Y 93 X -64 Y 93 X -45 Y 1209 X s 1 0 0 c 6 lw 1 1 1 c black 1 0 0 c 319 584 m 93 X 453 Y 93 X 93 Y 93 X -51 Y 93 X -80 Y 93 X -85 Y 93 X -43 Y 93 X -64 Y 93 X -71 Y 93 X -50 Y 93 X
 -81 Y 93 X 2 Y 93 X -23 Y 93 X 48 Y 93 X -48 Y 558 X s black 3 lw 1 0 0 c 1 lw << /PatternType 1 /PaintType 2 /TilingType 1 /BBox [ 0 0 100 100 ] /XStep 100 /YStep 100 /PaintProc { begin gsave 0 100 m 100 0 l s gr end } >> [ 0.24 0 0 0.24 0 0 ]
 makepattern /P05 exch def /cs {[/Pattern /DeviceRGB] setcolorspace} def /FA {f [/DeviceRGB] setcolorspace} def cs 1 0 0 P05 setcolor 412 584 m 457 Y 93 X 92 Y 93 X -50 Y 93 X -80 Y 93 X -79 Y 93 X -47 Y 93 X -62 Y 93 X -67 Y 93 X -47 Y 93 X -80 Y 93
 X 2 Y 93 X -39 Y 93 X 89 Y 93 X -89 Y -186 X 1 Y -93 X -1 Y -93 X 81 Y -93 X 56 Y -93 X 76 Y -93 X 67 Y -93 X 38 Y -93 X 93 Y -93 X 81 Y -93 X 50 Y -93 X -93 Y -93 X -449 Y FA 6 lw 1 1 1 c 15 lw 924 830 m -3 Y s 924 827 m cl s 1017 782 m 15 Y s 1017
 797 m cl s 1017 741 m -41 Y s 1017 700 m cl s 1110 741 m 28 Y s 1110 769 m cl s 1110 700 m -83 Y s 1110 617 m cl s 1203 782 m 15 Y s 1203 797 m cl s 1203 741 m -41 Y s 1203 700 m cl s black 1 1 1 c 3 lw /w 43 def /w2 {w 2 div} def /w3 {w 3 div} def
 459 1019 552 1119 645 1071 738 981 831 929 924 850 1017 762 1110 721 1203 762 9 { m20} R 15 lw black 6 lw 1 1 1 c black 3 lw /w 33 def /w2 {w 2 div} def /w3 {w 3 div} def 459 1019 m20 6 lw 3 lw 552 1119 m20 6 lw 3 lw 645 1071 m20 6 lw 3 lw 738 981
 m20 6 lw 3 lw 831 929 m20 6 lw 924 826 m 11 Y s 924 864 m 3 Y s 3 lw 924 850 m20 6 lw 1017 689 m 59 Y s 1017 775 m 18 Y s 3 lw 1017 762 m20 6 lw 1110 584 m 123 Y s 1110 734 m 28 Y s 3 lw 1110 721 m20 6 lw 1203 689 m 59 Y s 1203 775 m 18 Y s 3 lw
 1203 762 m20 6 lw 924 864 m 4 Y s 924 868 m cl s 924 837 m -10 Y s 924 827 m cl s 1017 775 m 22 Y s 1017 797 m cl s 1017 748 m -48 Y s 1017 700 m cl s 1110 734 m 35 Y s 1110 769 m cl s 1110 707 m -90 Y s 1110 617 m cl s 1203 775 m 22 Y s 1203 797 m
 cl s 1203 748 m -48 Y s 1203 700 m cl s 3 lw 459 1019 552 1119 645 1071 738 981 831 929 924 850 1017 762 1110 721 1203 762 9 { m20} R 6 lw 3 lw 319 584 m 1860 X s 435 584 m cl s 482 584 m cl s 528 584 m cl s 575 584 m cl s 621 584 m cl s 668 584 m
 cl s 714 584 m cl s 761 584 m cl s 807 584 m cl s 854 584 m cl s 900 584 m cl s 947 584 m cl s 993 584 m cl s 1040 584 m cl s 1087 584 m cl s 1133 584 m cl s 1180 584 m cl s 1226 584 m cl s 1273 584 m cl s 1319 584 m cl s 1366 584 m cl s 1412 584 m
 cl s 1459 584 m cl s 1505 584 m cl s 1552 584 m cl s 1598 584 m cl s 1645 584 m cl s 1691 584 m cl s 1738 584 m cl s 1784 584 m cl s 1831 584 m cl s 1877 584 m cl s 1924 584 m cl s 1970 584 m cl s 2017 584 m cl s 2063 584 m cl s 435 584 m cl s 389
 584 m cl s 342 584 m cl s 2063 584 m cl s 2110 584 m cl s 2156 584 m cl s 319 1729 m 1860 X s 435 1729 m cl s 482 1729 m cl s 528 1729 m cl s 575 1729 m cl s 621 1729 m cl s 668 1729 m cl s 714 1729 m cl s 761 1729 m cl s 807 1729 m cl s 854 1729 m
 cl s 900 1729 m cl s 947 1729 m cl s 993 1729 m cl s 1040 1729 m cl s 1087 1729 m cl s 1133 1729 m cl s 1180 1729 m cl s 1226 1729 m cl s 1273 1729 m cl s 1319 1729 m cl s 1366 1729 m cl s 1412 1729 m cl s 1459 1729 m cl s 1505 1729 m cl s 1552 1729
 m cl s 1598 1729 m cl s 1645 1729 m cl s 1691 1729 m cl s 1738 1729 m cl s 1784 1729 m cl s 1831 1729 m cl s 1877 1729 m cl s 1924 1729 m cl s 1970 1729 m cl s 2017 1729 m cl s 2063 1729 m cl s 435 1729 m cl s 389 1729 m cl s 342 1729 m cl s 2063
 1729 m cl s 2110 1729 m cl s 2156 1729 m cl s 319 584 m 1145 Y s 341 625 m -22 X s 341 649 m -22 X s 341 666 m -22 X s 341 680 m -22 X s 341 690 m -22 X s 341 699 m -22 X s 341 707 m -22 X s 341 714 m -22 X s 363 721 m -44 X s 341 762 m -22 X s 341
 785 m -22 X s 341 802 m -22 X s 341 816 m -22 X s 341 826 m -22 X s 341 836 m -22 X s 341 843 m -22 X s 341 850 m -22 X s 363 857 m -44 X s 341 898 m -22 X s 341 922 m -22 X s 341 939 m -22 X s 341 952 m -22 X s 341 963 m -22 X s 341 972 m -22 X s
 341 980 m -22 X s 341 987 m -22 X s 363 993 m -44 X s 341 1034 m -22 X s 341 1058 m -22 X s 341 1075 m -22 X s 341 1088 m -22 X s 341 1099 m -22 X s 341 1108 m -22 X s 341 1116 m -22 X s 341 1123 m -22 X s 363 1129 m -44 X s 341 1170 m -22 X s 341
 1194 m -22 X s 341 1211 m -22 X s 341 1224 m -22 X s 341 1235 m -22 X s 341 1244 m -22 X s 341 1252 m -22 X s 341 1259 m -22 X s 363 1265 m -44 X s 341 1306 m -22 X s 341 1330 m -22 X s 341 1347 m -22 X s 341 1360 m -22 X s 341 1371 m -22 X s 341
 1380 m -22 X s 341 1388 m -22 X s 341 1395 m -22 X s 363 1401 m -44 X s 341 1442 m -22 X s 341 1466 m -22 X s 341 1483 m -22 X s 341 1497 m -22 X s 341 1507 m -22 X s 341 1517 m -22 X s 341 1524 m -22 X s 341 1531 m -22 X s 363 1538 m -44 X s 341
 1579 m -22 X s 341 1603 m -22 X s 341 1620 m -22 X s 341 1633 m -22 X s 341 1644 m -22 X s 341 1653 m -22 X s 341 1661 m -22 X s 341 1668 m -22 X s 363 1674 m -44 X s 341 1715 m -22 X s 2179 584 m 1145 Y s 2157 625 m 22 X s 2157 649 m 22 X s 2157
 666 m 22 X s 2157 680 m 22 X s 2157 690 m 22 X s 2157 699 m 22 X s 2157 707 m 22 X s 2157 714 m 22 X s 2136 721 m 43 X s 2157 762 m 22 X s 2157 785 m 22 X s 2157 802 m 22 X s 2157 816 m 22 X s 2157 826 m 22 X s 2157 836 m 22 X s 2157 843 m 22 X s
 2157 850 m 22 X s 2136 857 m 43 X s 2157 898 m 22 X s 2157 922 m 22 X s 2157 939 m 22 X s 2157 952 m 22 X s 2157 963 m 22 X s 2157 972 m 22 X s 2157 980 m 22 X s 2157 987 m 22 X s 2136 993 m 43 X s 2157 1034 m 22 X s 2157 1058 m 22 X s 2157 1075 m
 22 X s 2157 1088 m 22 X s 2157 1099 m 22 X s 2157 1108 m 22 X s 2157 1116 m 22 X s 2157 1123 m 22 X s 2136 1129 m 43 X s 2157 1170 m 22 X s 2157 1194 m 22 X s 2157 1211 m 22 X s 2157 1224 m 22 X s 2157 1235 m 22 X s 2157 1244 m 22 X s 2157 1252 m 22
 X s 2157 1259 m 22 X s 2136 1265 m 43 X s 2157 1306 m 22 X s 2157 1330 m 22 X s 2157 1347 m 22 X s 2157 1360 m 22 X s 2157 1371 m 22 X s 2157 1380 m 22 X s 2157 1388 m 22 X s 2157 1395 m 22 X s 2136 1401 m 43 X s 2157 1442 m 22 X s 2157 1466 m 22 X
 s 2157 1483 m 22 X s 2157 1497 m 22 X s 2157 1507 m 22 X s 2157 1517 m 22 X s 2157 1524 m 22 X s 2157 1531 m 22 X s 2136 1538 m 43 X s 2157 1579 m 22 X s 2157 1603 m 22 X s 2157 1620 m 22 X s 2157 1633 m 22 X s 2157 1644 m 22 X s 2157 1653 m 22 X s
 2157 1661 m 22 X s 2157 1668 m 22 X s 2136 1674 m 43 X s 2157 1715 m 22 X s
 gsave  2263 1770 2 313 C 406.765 1447.41 t 0 r /Helvetica findfont 64.4212 sf 0 0 m (VR0LdPhi for MB\255C) show NC gr 
 gsave  2263 1770 2 313 C 1464.36 1630.45 t 0 r /Helvetica findfont 64.4212 sf 0 0 m (SM Total) show NC gr  1 1 1 c 1338 1616 m 107 X 64 Y -107 X f 1 0 0 c 6 lw 1338 1648 m 107 X s black
 gsave  2263 1770 2 313 C 1464.36 1538.93 t 0 r /Helvetica findfont 64.4212 sf 0 0 m (Data) show NC gr  1391 1529 m 55 Y s 3 lw 1391 1557 m20 6 lw
 gsave  2263 1770 2 313 C 1464.36 1447.41 t 0 r /Helvetica findfont 64.4212 sf 0 0 m (W+jets) show NC gr  0.4 0.6 1 c 3 lw 1338 1434 m 107 X 64 Y -107 X f 6 lw black 3 lw 1338 1498 m 107 X s 1338 1434 m 107 X s 1445 1434 m 64 Y s 1338 1434 m 64 Y s
 gsave  2263 1770 2 313 C 1498.25 1355.88 t 0 r /Helvetica findfont 64.4212 sf 0 0 m (\(+EW\) & single top) show NC gr 
 gsave  2263 1770 2 313 C 1481.3 1355.88 t 0 r /Helvetica findfont 64.4212 sf 0 0 m (t) show NC gr  1481 1407 m 17 X s
 gsave  2263 1770 2 313 C 1464.36 1355.88 t 0 r /Helvetica findfont 64.4212 sf 0 0 m (t) show NC gr  0.6 1 0.6 c 1338 1343 m 107 X 63 Y -107 X f black 1338 1406 m 107 X s 1338 1343 m 107 X s 1445 1343 m 63 Y s 1338 1343 m 63 Y s
 gsave  2263 1770 2 313 C 1464.36 1264.36 t 0 r /Helvetica findfont 64.4212 sf 0 0 m (Z+jets) show NC gr  1 0.8 0.4 c 1338 1252 m 107 X 63 Y -107 X f black 1338 1315 m 107 X s 1338 1252 m 107 X s 1445 1252 m 63 Y s 1338 1252 m 63 Y s
 gsave  2263 1770 2 313 C 1464.36 1172.84 t 0 r /Helvetica findfont 64.4212 sf 0 0 m (Diboson) show NC gr  1 0.4 0.6 c 1338 1161 m 107 X 63 Y -107 X f black 1338 1224 m 107 X s 1338 1161 m 107 X s 1445 1161 m 63 Y s 1338 1161 m 63 Y s
 gsave  2263 1770 2 313 C 1464.36 1081.32 t 0 r /Helvetica findfont 64.4212 sf 0 0 m (Multi\255jet) show NC gr  0 0 0.4 c 1338 1070 m 107 X 63 Y -107 X f black 1338 1133 m 107 X s 1338 1070 m 107 X s 1445 1070 m 63 Y s 1338 1070 m 63 Y s
 gsave  2263 1770 2 313 C 911.832 1566.05 t 0 r /Helvetica findfont 44.0776 sf 0 0 m (\2551) show NC gr 
 gsave  2263 1770 2 313 C 471.17 1535.54 t 0 r /Helvetica findfont 64.4212 sf 0 0 m (=13TeV, 139 fb) show NC gr 
 gsave  2263 1770 2 313 C 440.662 1535.54 t 0 r /Helvetica findfont 64.4212 sf 0 0 m (s) show NC gr  6 lw 420 1573 m 7 -41 d s 3 lw 427 1532 m 7 61 d s 434 1593 m 37 X s 1 1 1 c 2254 561 2 2 bf black 1 1 1 c black 1860 358 318 187 bl 1 1 1 c black
 1860 358 318 187 bl 6 lw 1 1 1 c black 3 lw 457 324 m20 6 lw 3 lw 550 340 m20 6 lw 3 lw 643 344 m20 6 lw 3 lw 736 323 m20 6 lw 3 lw 829 412 m20 6 lw 3 lw 923 319 m20 6 lw 3 lw 1016 279 m20 6 lw 3 lw 1109 329 m20 6 lw 3 lw 318 187 m 1860 X s
 gsave  2254 561 2 2 C 1959.25 44.0662 t 0 r /Helvetica findfont 78.1689 sf 0 0 m ( [GeV]) show NC gr 
 gsave  2254 561 2 2 C 1928.75 -2.35513e-13 t 0 r /Helvetica findfont 50.9797 sf 0 0 m (T) show NC gr 
 gsave  2254 561 2 2 C 1657.57 44.0662 t 0 r /Helvetica findfont 78.1689 sf 0 0 m (1st jet p) show NC gr  434 201 m -14 Y s 481 194 m -7 Y s 527 194 m -7 Y s 574 194 m -7 Y s 620 194 m -7 Y s 667 201 m -14 Y s 713 194 m -7 Y s 760 194 m -7 Y s 806
 194 m -7 Y s 853 194 m -7 Y s 899 201 m -14 Y s 946 194 m -7 Y s 992 194 m -7 Y s 1039 194 m -7 Y s 1085 194 m -7 Y s 1132 201 m -14 Y s 1178 194 m -7 Y s 1225 194 m -7 Y s 1271 194 m -7 Y s 1318 194 m -7 Y s 1364 201 m -14 Y s 1411 194 m -7 Y s
 1457 194 m -7 Y s 1504 194 m -7 Y s 1550 194 m -7 Y s 1597 201 m -14 Y s 1643 194 m -7 Y s 1690 194 m -7 Y s 1737 194 m -7 Y s 1783 194 m -7 Y s 1830 201 m -14 Y s 1876 194 m -7 Y s 1923 194 m -7 Y s 1969 194 m -7 Y s 2016 194 m -7 Y s 2062 201 m
 -14 Y s 434 201 m -14 Y s 388 194 m -7 Y s 341 194 m -7 Y s 2062 201 m -14 Y s 2109 194 m -7 Y s 2155 194 m -7 Y s
 gsave  2254 561 2 2 C 369.478 118.64 t 0 r /Helvetica findfont 78.1689 sf 0 0 m (500) show NC gr 
 gsave  2254 561 2 2 C 576.251 118.64 t 0 r /Helvetica findfont 78.1689 sf 0 0 m (1000) show NC gr 
 gsave  2254 561 2 2 C 810.141 118.64 t 0 r /Helvetica findfont 78.1689 sf 0 0 m (1500) show NC gr 
 gsave  2254 561 2 2 C 1040.64 118.64 t 0 r /Helvetica findfont 78.1689 sf 0 0 m (2000) show NC gr 
 gsave  2254 561 2 2 C 1274.53 118.64 t 0 r /Helvetica findfont 78.1689 sf 0 0 m (2500) show NC gr 
 gsave  2254 561 2 2 C 1508.42 118.64 t 0 r /Helvetica findfont 78.1689 sf 0 0 m (3000) show NC gr 
 gsave  2254 561 2 2 C 1738.92 118.64 t 0 r /Helvetica findfont 78.1689 sf 0 0 m (3500) show NC gr 
 gsave  2254 561 2 2 C 1972.81 118.64 t 0 r /Helvetica findfont 78.1689 sf 0 0 m (4000) show NC gr  318 545 m 1860 X s 434 531 m 14 Y s 481 538 m 7 Y s 527 538 m 7 Y s 574 538 m 7 Y s 620 538 m 7 Y s 667 531 m 14 Y s 713 538 m 7 Y s 760 538 m 7 Y s
 806 538 m 7 Y s 853 538 m 7 Y s 899 531 m 14 Y s 946 538 m 7 Y s 992 538 m 7 Y s 1039 538 m 7 Y s 1085 538 m 7 Y s 1132 531 m 14 Y s 1178 538 m 7 Y s 1225 538 m 7 Y s 1271 538 m 7 Y s 1318 538 m 7 Y s 1364 531 m 14 Y s 1411 538 m 7 Y s 1457 538 m 7
 Y s 1504 538 m 7 Y s 1550 538 m 7 Y s 1597 531 m 14 Y s 1643 538 m 7 Y s 1690 538 m 7 Y s 1737 538 m 7 Y s 1783 538 m 7 Y s 1830 531 m 14 Y s 1876 538 m 7 Y s 1923 538 m 7 Y s 1969 538 m 7 Y s 2016 538 m 7 Y s 2062 531 m 14 Y s 434 531 m 14 Y s 388
 538 m 7 Y s 341 538 m 7 Y s 2062 531 m 14 Y s 2109 538 m 7 Y s 2155 538 m 7 Y s 318 187 m 358 Y s
 gsave  2254 561 2 2 C 166.096 284.736 t 90 r /Helvetica findfont 67.9729 sf 0 0 m (Data/SM) show NC gr  361 203 m -43 X s 339 220 m -21 X s 339 236 m -21 X s 339 252 m -21 X s 339 268 m -21 X s 361 285 m -43 X s 339 301 m -21 X s 339 317 m -21 X s
 339 334 m -21 X s 339 350 m -21 X s 361 366 m -43 X s 339 382 m -21 X s 339 399 m -21 X s 339 415 m -21 X s 339 431 m -21 X s 361 447 m -43 X s 339 464 m -21 X s 339 480 m -21 X s 339 496 m -21 X s 339 512 m -21 X s 361 529 m -43 X s 361 203 m -43 X
 s 339 187 m -21 X s 361 529 m -43 X s
 gsave  2254 561 2 2 C 261.008 183.044 t 0 r /Helvetica findfont 57.777 sf 0 0 m (0) show NC gr 
 gsave  2254 561 2 2 C 213.552 261.008 t 0 r /Helvetica findfont 57.777 sf 0 0 m (0.5) show NC gr 
 gsave  2254 561 2 2 C 271.177 342.361 t 0 r /Helvetica findfont 57.777 sf 0 0 m (1) show NC gr 
 gsave  2254 561 2 2 C 213.552 423.714 t 0 r /Helvetica findfont 57.777 sf 0 0 m (1.5) show NC gr 
 gsave  2254 561 2 2 C 261.008 505.067 t 0 r /Helvetica findfont 57.777 sf 0 0 m (2) show NC gr  2178 187 m 358 Y s 2135 203 m 43 X s 2157 220 m 21 X s 2157 236 m 21 X s 2157 252 m 21 X s 2157 268 m 21 X s 2135 285 m 43 X s 2157 301 m 21 X s 2157 317
 m 21 X s 2157 334 m 21 X s 2157 350 m 21 X s 2135 366 m 43 X s 2157 382 m 21 X s 2157 399 m 21 X s 2157 415 m 21 X s 2157 431 m 21 X s 2135 447 m 43 X s 2157 464 m 21 X s 2157 480 m 21 X s 2157 496 m 21 X s 2157 512 m 21 X s 2135 529 m 43 X s 2135
 203 m 43 X s 2157 187 m 21 X s 2135 529 m 43 X s 9 lw 829 425 m 23 Y s 829 448 m cl s 829 398 m -22 Y s 829 376 m cl s 923 332 m 26 Y s 923 358 m cl s 923 305 m -24 Y s 923 281 m cl s 1016 293 m 48 Y s 1016 341 m cl s 1016 266 m -36 Y s 1016 230 m
 cl s 1109 342 m 148 Y s 1109 490 m cl s 1109 315 m -90 Y s 1109 225 m cl s 1202 545 m -133 Y s 1202 412 m cl s 3 lw 457 324 550 340 643 344 736 323 829 412 923 319 1016 279 1109 329 8 { m20} R 9 lw 1 0 0 c 6 lw black 3 lw 1 0 0 c 2178 227 m -25 -26
 d s 2178 255 m -53 -54 d s 2178 284 m -82 -83 d s 2178 312 m -93 -92 d s 2069 203 m cl s 2178 341 m -93 -93 d s 2040 203 m cl s 2178 369 m -93 -92 d s 2012 203 m cl s 2178 398 m -93 -93 d s 1983 203 m cl s 2178 427 m -93 -93 d s 1954 203 m cl s 2178
 455 m -93 -92 d s 1926 203 m cl s 2178 484 m -93 -93 d s 1897 203 m cl s 2178 512 m -93 -92 d s 1868 203 m cl s 2168 531 m -83 -83 d s 1840 203 m cl s 2139 531 m -54 -54 d s 1811 203 m cl s 2111 531 m -26 -25 d s 1782 203 m cl s 1754 203 m cl s 1725
 203 m cl s 1696 203 m cl s 1667 203 m cl s 1639 203 m cl s 1620 214 m -11 -11 d s 1620 242 m -39 -39 d s 1620 271 m -68 -68 d s 1620 299 m -93 -92 d s 1620 328 m -93 -93 d s 1620 356 m -93 -92 d s 1620 385 m -110 -110 d s 1620 414 m -139 -139 d s
 1620 442 m -167 -167 d s 1620 471 m -186 -186 d s 1620 499 m -186 -185 d s 1620 528 m -213 -212 d s 1593 530 m -66 -66 d s 1520 457 m -142 -141 d s 1564 530 m -37 -37 d s 1491 457 m -141 -141 d s 1536 530 m -9 -9 d s 1463 457 m -29 -29 d s 1422 417
 m -101 -102 d s 1394 417 m -102 -102 d s 1365 417 m -102 -102 d s 1337 417 m -99 -98 d s 1308 417 m -99 -98 d s 1279 417 m -98 -98 d s 1251 417 m -3 -2 d s 1247 413 m -92 -91 d s 1218 413 m -84 -84 d s 1190 413 m -85 -84 d s 1161 413 m -6 -5 d s
 1150 403 m -73 -74 d s 1122 403 m -61 -60 d s 1093 403 m -61 -60 d s 1064 403 m -2 -2 d s 1051 389 m -47 -46 d s 1022 389 m -47 -46 d s 993 389 m -41 -41 d s 960 384 m -37 -36 d s 931 384 m -37 -36 d s 902 384 m -48 -48 d s 876 387 m -51 -51 d s 857
 396 m -61 -60 d s 828 396 m -45 -45 d s 799 396 m -16 -16 d s 779 376 m -20 -20 d s 750 376 m -20 -20 d s 722 376 m -20 -20 d s 693 376 m -19 -19 d s 664 375 m -19 -18 d s 635 375 m -19 -18 d s 606 375 m -18 -18 d s 578 375 m -19 -18 d s 411 209 m s
 405 203 m cl s 549 375 m -19 -18 d s 411 238 m s 376 203 m cl s 520 375 m -20 -20 d s 411 266 m s 348 203 m cl s 493 377 m -22 -22 d s 411 295 m s 319 203 m cl s 465 377 m -23 -22 d s 411 324 m s 436 377 m -22 -22 d s 411 352 m s 6 lw black[ 4 8] 0
 sd 3 lw 318 447 m 1860 X s 318 285 m 1860 X s 1 0 0 c[  12 12 ] 0 sd 6 lw 318 366 m 1860 X s
 gr  gr showpage
end
%%EOF
