%!PS-Adobe-2.0 EPSF-2.0
%%BoundingBox:  0 0 567 521
%%Title: Distributions/jetPt_0__distrVR0LmetSig_MB-C_beforeFit_forThesis.eps: canvas
%%Creator: ROOT Version 6.04/16
%%CreationDate: Tue May 19 22:03:37 2020
%%DocumentNeededResources: ProcSet (FontSetInit)
%%EndComments
%%BeginProlog
80 dict begin
/s {stroke} def /l {lineto} def /m {moveto} def /t {translate} def
/r {rotate} def /rl {roll}  def /R {repeat} def
/d {rlineto} def /rm {rmoveto} def /gr {grestore} def /f {eofill} def
/c {setrgbcolor} def /black {0 setgray} def /sd {setdash} def
/cl {closepath} def /sf {scalefont setfont} def /lw {setlinewidth} def
/box {m dup 0 exch d exch 0 d 0 exch neg d cl} def
/NC{systemdict begin initclip end}def/C{NC box clip newpath}def
/bl {box s} def /bf {gsave box gsave f grestore 1 lw [] 0 sd s grestore} def /Y { 0 exch d} def /X { 0 d} def 
/K {{pop pop 0 moveto} exch kshow} bind def
/ita {/ang 15 def gsave [1 0 ang dup sin exch cos div 1 0 0] concat} def 
/mp {newpath /y exch def /x exch def} def
/side {[w .77 mul w .23 mul] .385 w mul sd w 0 l currentpoint t -144 r} def
/mr {mp x y w2 0 360 arc} def /m24 {mr s} def /m20 {mr f} def
/mb {mp x y w2 add m w2 neg 0 d 0 w neg d w 0 d 0 w d cl} def
/mt {mp x y w2 add m w2 neg w neg d w 0 d cl} def
/m21 {mb f} def /m25 {mb s} def /m22 {mt f} def /m26{mt s} def
/m23 {mp x y w2 sub m w2 w d w neg 0 d cl f} def
/m27 {mp x y w2 add m w3 neg w2 neg d w3 w2 neg d w3 w2 d cl s} def
/m28 {mp x w2 sub y w2 sub w3 add m w3 0 d  0 w3 neg d w3 0 d 0 w3 d w3 0 d  0 w3 d w3 neg 0 d 0 w3 d w3 neg 0 d 0 w3 neg d w3 neg 0 d cl s } def
/m29 {mp gsave x w2 sub y w2 add w3 sub m currentpoint t 4 {side} repeat cl fill gr} def
/m30 {mp gsave x w2 sub y w2 add w3 sub m currentpoint t 4 {side} repeat cl s gr} def
/m31 {mp x y w2 sub m 0 w d x w2 sub y m w 0 d x w2 sub y w2 add m w w neg d x w2 sub y w2 sub m w w d s} def
/m32 {mp x y w2 sub m w2 w d w neg 0 d cl s} def
/m33 {mp x y w2 add m w3 neg w2 neg d w3 w2 neg d w3 w2 d cl f} def
/m34 {mp x w2 sub y w2 sub w3 add m w3 0 d  0 w3 neg d w3 0 d 0 w3 d w3 0 d  0 w3 d w3 neg 0 d 0 w3 d w3 neg 0 d 0 w3 neg d w3 neg 0 d cl f } def
/m2 {mp x y w2 sub m 0 w d x w2 sub y m w 0 d s} def
/m5 {mp x w2 sub y w2 sub m w w d x w2 sub y w2 add m w w neg d s} def
%%IncludeResource: ProcSet (FontSetInit)
%%IncludeResource: font Times-Roman
%%IncludeResource: font Times-Italic
%%IncludeResource: font Times-Bold
%%IncludeResource: font Times-BoldItalic
%%IncludeResource: font Helvetica
%%IncludeResource: font Helvetica-Oblique
%%IncludeResource: font Helvetica-Bold
%%IncludeResource: font Helvetica-BoldOblique
%%IncludeResource: font Courier
%%IncludeResource: font Courier-Oblique
%%IncludeResource: font Courier-Bold
%%IncludeResource: font Courier-BoldOblique
%%IncludeResource: font Symbol
%%IncludeResource: font ZapfDingbats
/reEncode {exch findfont dup length dict begin {1 index /FID eq  {pop pop} {def} ifelse } forall /Encoding exch def currentdict end dup /FontName get exch definefont pop } def [/Times-Bold /Times-Italic /Times-BoldItalic /Helvetica /Helvetica-Oblique
 /Helvetica-Bold /Helvetica-BoldOblique /Courier /Courier-Oblique /Courier-Bold /Courier-BoldOblique /Times-Roman /AvantGarde-Book /AvantGarde-BookOblique /AvantGarde-Demi /AvantGarde-DemiOblique /Bookman-Demi /Bookman-DemiItalic /Bookman-Light
 /Bookman-LightItalic /Helvetica-Narrow /Helvetica-Narrow-Bold /Helvetica-Narrow-BoldOblique /Helvetica-Narrow-Oblique /NewCenturySchlbk-Roman /NewCenturySchlbk-Bold /NewCenturySchlbk-BoldItalic /NewCenturySchlbk-Italic /Palatino-Bold
 /Palatino-BoldItalic /Palatino-Italic /Palatino-Roman ] {ISOLatin1Encoding reEncode } forall
%%EndProlog
%%BeginSetup
%%EndSetup
newpath  gsave  .25 .25 scale  gsave  0 0 t black[  ] 0 sd 3 lw 1 1 1 c 2268 2085 0 0 bf black 1 1 1 c 2263 1770 2 313 bf black 1 1 1 c black 1860 1145 319 584 bl 1 1 1 c black 1860 1145 319 584 bl 6 lw 1 1 1 c black 3 lw /w 33 def /w2 {w 2 div} def
 /w3 {w 3 div} def 459 966 m20 6 lw 3 lw 552 1101 m20 6 lw 3 lw 645 1090 m20 6 lw 3 lw 738 1016 m20 6 lw 3 lw 831 946 m20 6 lw 924 862 m 7 Y s 924 896 m 1 Y s 3 lw 924 882 m20 6 lw 1017 803 m 18 Y s 1017 848 m 8 Y s 3 lw 1017 835 m20 6 lw 1110 787 m
 23 Y s 1110 837 m 9 Y s 3 lw 1110 824 m20 6 lw 3 lw 319 584 m 1860 X s
 gsave  2263 1770 2 313 C 1949.08 376.258 t 0 r /Helvetica findfont 81.3741 sf 0 0 m ( [GeV]) show NC gr 
 gsave  2263 1770 2 313 C 1915.19 332.192 t 0 r /Helvetica findfont 54.2494 sf 0 0 m (T) show NC gr 
 gsave  2263 1770 2 313 C 1630.45 376.258 t 0 r /Helvetica findfont 81.3741 sf 0 0 m (1st jet p) show NC gr  435 584 m cl s 482 584 m cl s 528 584 m cl s 575 584 m cl s 621 584 m cl s 668 584 m cl s 714 584 m cl s 761 584 m cl s 807 584 m cl s 854
 584 m cl s 900 584 m cl s 947 584 m cl s 993 584 m cl s 1040 584 m cl s 1087 584 m cl s 1133 584 m cl s 1180 584 m cl s 1226 584 m cl s 1273 584 m cl s 1319 584 m cl s 1366 584 m cl s 1412 584 m cl s 1459 584 m cl s 1505 584 m cl s 1552 584 m cl s
 1598 584 m cl s 1645 584 m cl s 1691 584 m cl s 1738 584 m cl s 1784 584 m cl s 1831 584 m cl s 1877 584 m cl s 1924 584 m cl s 1970 584 m cl s 2017 584 m cl s 2063 584 m cl s 435 584 m cl s 389 584 m cl s 342 584 m cl s 2063 584 m cl s 2110 584 m
 cl s 2156 584 m cl s 319 1729 m 1860 X s 435 1729 m cl s 482 1729 m cl s 528 1729 m cl s 575 1729 m cl s 621 1729 m cl s 668 1729 m cl s 714 1729 m cl s 761 1729 m cl s 807 1729 m cl s 854 1729 m cl s 900 1729 m cl s 947 1729 m cl s 993 1729 m cl s
 1040 1729 m cl s 1087 1729 m cl s 1133 1729 m cl s 1180 1729 m cl s 1226 1729 m cl s 1273 1729 m cl s 1319 1729 m cl s 1366 1729 m cl s 1412 1729 m cl s 1459 1729 m cl s 1505 1729 m cl s 1552 1729 m cl s 1598 1729 m cl s 1645 1729 m cl s 1691 1729 m
 cl s 1738 1729 m cl s 1784 1729 m cl s 1831 1729 m cl s 1877 1729 m cl s 1924 1729 m cl s 1970 1729 m cl s 2017 1729 m cl s 2063 1729 m cl s 435 1729 m cl s 389 1729 m cl s 342 1729 m cl s 2063 1729 m cl s 2110 1729 m cl s 2156 1729 m cl s 319 584 m
 1145 Y s
 gsave  2263 1770 2 313 C 166.096 1091.49 t 90 r /Helvetica findfont 81.3741 sf 0 0 m (Events / 200 GeV) show NC gr  341 627 m -22 X s 341 652 m -22 X s 341 669 m -22 X s 341 683 m -22 X s 341 694 m -22 X s 341 703 m -22 X s 341 712 m -22 X s 341 719
 m -22 X s 363 725 m -44 X s
 gsave  2263 1770 2 313 C 300.555 698.094 t 0 r  -36 0 t /Helvetica findfont 64.4212 sf 0 0 m (1) show NC gr  341 768 m -22 X s 341 792 m -22 X s 341 810 m -22 X s 341 824 m -22 X s 341 835 m -22 X s 341 844 m -22 X s 341 852 m -22 X s 341 860 m -22
 X s 363 866 m -44 X s
 gsave  2263 1770 2 313 C 300.555 838.995 t 0 r  -73 0 t /Helvetica findfont 64.4212 sf 0 0 m (10) show NC gr  341 909 m -22 X s 341 933 m -22 X s 341 951 m -22 X s 341 965 m -22 X s 341 976 m -22 X s 341 985 m -22 X s 341 993 m -22 X s 341 1001 m
 -22 X s 363 1007 m -44 X s
 gsave  2263 1770 2 313 C 274.567 1006.74 t 0 r /Helvetica findfont 44.0776 sf 0 0 m (2) show NC gr 
 gsave  2263 1770 2 313 C 203.383 979.626 t 0 r /Helvetica findfont 64.4212 sf 0 0 m (10) show NC gr  341 1049 m -22 X s 341 1074 m -22 X s 341 1092 m -22 X s 341 1106 m -22 X s 341 1117 m -22 X s 341 1126 m -22 X s 341 1134 m -22 X s 341 1141 m -22
 X s 363 1148 m -44 X s
 gsave  2263 1770 2 313 C 274.567 1149.11 t 0 r /Helvetica findfont 44.0776 sf 0 0 m (3) show NC gr 
 gsave  2263 1770 2 313 C 203.383 1118.6 t 0 r /Helvetica findfont 64.4212 sf 0 0 m (10) show NC gr  341 1190 m -22 X s 341 1215 m -22 X s 341 1233 m -22 X s 341 1246 m -22 X s 341 1258 m -22 X s 341 1267 m -22 X s 341 1275 m -22 X s 341 1282 m -22 X
 s 363 1289 m -44 X s
 gsave  2263 1770 2 313 C 274.567 1288.09 t 0 r /Helvetica findfont 44.0776 sf 0 0 m (4) show NC gr 
 gsave  2263 1770 2 313 C 203.383 1260.97 t 0 r /Helvetica findfont 64.4212 sf 0 0 m (10) show NC gr  341 1331 m -22 X s 341 1356 m -22 X s 341 1374 m -22 X s 341 1387 m -22 X s 341 1398 m -22 X s 341 1408 m -22 X s 341 1416 m -22 X s 341 1423 m -22
 X s 363 1430 m -44 X s
 gsave  2263 1770 2 313 C 274.567 1430.46 t 0 r /Helvetica findfont 44.0776 sf 0 0 m (5) show NC gr 
 gsave  2263 1770 2 313 C 203.383 1399.95 t 0 r /Helvetica findfont 64.4212 sf 0 0 m (10) show NC gr  341 1472 m -22 X s 341 1497 m -22 X s 341 1515 m -22 X s 341 1528 m -22 X s 341 1539 m -22 X s 341 1549 m -22 X s 341 1557 m -22 X s 341 1564 m -22
 X s 363 1571 m -44 X s
 gsave  2263 1770 2 313 C 274.567 1572.83 t 0 r /Helvetica findfont 44.0776 sf 0 0 m (6) show NC gr 
 gsave  2263 1770 2 313 C 203.383 1542.32 t 0 r /Helvetica findfont 64.4212 sf 0 0 m (10) show NC gr  341 1613 m -22 X s 341 1638 m -22 X s 341 1655 m -22 X s 341 1669 m -22 X s 341 1680 m -22 X s 341 1690 m -22 X s 341 1698 m -22 X s 341 1705 m -22
 X s 363 1712 m -44 X s
 gsave  2263 1770 2 313 C 274.567 1708.41 t 0 r /Helvetica findfont 44.0776 sf 0 0 m (7) show NC gr 
 gsave  2263 1770 2 313 C 203.383 1681.3 t 0 r /Helvetica findfont 64.4212 sf 0 0 m (10) show NC gr  2179 584 m 1145 Y s 2157 627 m 22 X s 2157 652 m 22 X s 2157 669 m 22 X s 2157 683 m 22 X s 2157 694 m 22 X s 2157 703 m 22 X s 2157 712 m 22 X s
 2157 719 m 22 X s 2136 725 m 43 X s 2157 768 m 22 X s 2157 792 m 22 X s 2157 810 m 22 X s 2157 824 m 22 X s 2157 835 m 22 X s 2157 844 m 22 X s 2157 852 m 22 X s 2157 860 m 22 X s 2136 866 m 43 X s 2157 909 m 22 X s 2157 933 m 22 X s 2157 951 m 22 X
 s 2157 965 m 22 X s 2157 976 m 22 X s 2157 985 m 22 X s 2157 993 m 22 X s 2157 1001 m 22 X s 2136 1007 m 43 X s 2157 1049 m 22 X s 2157 1074 m 22 X s 2157 1092 m 22 X s 2157 1106 m 22 X s 2157 1117 m 22 X s 2157 1126 m 22 X s 2157 1134 m 22 X s 2157
 1141 m 22 X s 2136 1148 m 43 X s 2157 1190 m 22 X s 2157 1215 m 22 X s 2157 1233 m 22 X s 2157 1246 m 22 X s 2157 1258 m 22 X s 2157 1267 m 22 X s 2157 1275 m 22 X s 2157 1282 m 22 X s 2136 1289 m 43 X s 2157 1331 m 22 X s 2157 1356 m 22 X s 2157
 1374 m 22 X s 2157 1387 m 22 X s 2157 1398 m 22 X s 2157 1408 m 22 X s 2157 1416 m 22 X s 2157 1423 m 22 X s 2136 1430 m 43 X s 2157 1472 m 22 X s 2157 1497 m 22 X s 2157 1515 m 22 X s 2157 1528 m 22 X s 2157 1539 m 22 X s 2157 1549 m 22 X s 2157
 1557 m 22 X s 2157 1564 m 22 X s 2136 1571 m 43 X s 2157 1613 m 22 X s 2157 1638 m 22 X s 2157 1655 m 22 X s 2157 1669 m 22 X s 2157 1680 m 22 X s 2157 1690 m 22 X s 2157 1698 m 22 X s 2157 1705 m 22 X s 2136 1712 m 43 X s 0.4 0.6 1 c black 0.4 0.6
 1 c 319 584 m 93 X 394 Y 93 X 131 Y 93 X -11 Y 93 X -67 Y 93 X -69 Y 93 X -59 Y 93 X -51 Y 93 X -45 Y 93 X -72 Y 93 X -39 Y 93 X -64 Y 93 X -48 Y 279 X 28 Y 93 X -28 Y 372 X f black 0.4 0.6 1 c black 319 584 m 93 X 394 Y 93 X 131 Y 93 X -11 Y 93 X
 -67 Y 93 X -69 Y 93 X -59 Y 93 X -51 Y 93 X -45 Y 93 X -72 Y 93 X -39 Y 93 X -64 Y 93 X -48 Y 279 X 28 Y 93 X -28 Y 372 X s 0.999 0.999 0.999 c black 0.999 0.999 0.999 c 319 584 m 93 X 365 Y 93 X 133 Y 93 X -10 Y 93 X -62 Y 93 X -68 Y 93 X -58 Y 93
 X -58 Y 93 X -38 Y 93 X -85 Y 93 X -27 Y 93 X -71 Y 93 X -21 Y 279 X 12 Y 93 X -12 Y 372 X f black 0.999 0.999 0.999 c black 319 584 m 93 X 365 Y 93 X 133 Y 93 X -10 Y 93 X -62 Y 93 X -68 Y 93 X -58 Y 93 X -58 Y 93 X -38 Y 93 X -85 Y 93 X -27 Y 93 X
 -71 Y 93 X -21 Y 279 X 12 Y 93 X -12 Y 372 X s 1 1 1 c black 319 584 m 93 X 365 Y 93 X 133 Y 93 X -10 Y 93 X -62 Y 93 X -68 Y 93 X -58 Y 93 X -58 Y 93 X -38 Y 93 X -85 Y 93 X -27 Y 93 X -71 Y 93 X -21 Y 279 X 12 Y 93 X -12 Y 372 X s 0.6 1 0.6 c
 black 0.6 1 0.6 c 319 584 m 93 X 365 Y 93 X 133 Y 93 X -10 Y 93 X -62 Y 93 X -68 Y 93 X -58 Y 93 X -58 Y 93 X -38 Y 93 X -85 Y 93 X -27 Y 93 X -71 Y 93 X -21 Y 279 X 12 Y 93 X -12 Y 372 X f black 0.6 1 0.6 c black 319 584 m 93 X 365 Y 93 X 133 Y 93
 X -10 Y 93 X -62 Y 93 X -68 Y 93 X -58 Y 93 X -58 Y 93 X -38 Y 93 X -85 Y 93 X -27 Y 93 X -71 Y 93 X -21 Y 279 X 12 Y 93 X -12 Y 372 X s 0.999 0.999 0.999 c black 0.999 0.999 0.999 c 319 584 m 93 X 333 Y 93 X 139 Y 93 X -6 Y 93 X -60 Y 93 X -68 Y 93
 X -57 Y 93 X -52 Y 93 X -37 Y 93 X -80 Y 93 X -27 Y 93 X -72 Y 93 X -13 Y 279 X 12 Y 93 X -12 Y 372 X f black 0.999 0.999 0.999 c black 319 584 m 93 X 333 Y 93 X 139 Y 93 X -6 Y 93 X -60 Y 93 X -68 Y 93 X -57 Y 93 X -52 Y 93 X -37 Y 93 X -80 Y 93 X
 -27 Y 93 X -72 Y 93 X -13 Y 279 X 12 Y 93 X -12 Y 372 X s 1 1 1 c black 319 584 m 93 X 333 Y 93 X 139 Y 93 X -6 Y 93 X -60 Y 93 X -68 Y 93 X -57 Y 93 X -52 Y 93 X -37 Y 93 X -80 Y 93 X -27 Y 93 X -72 Y 93 X -13 Y 279 X 12 Y 93 X -12 Y 372 X s 1 0.8
 0.4 c black 1 0.8 0.4 c 319 584 m 93 X 333 Y 93 X 139 Y 93 X -6 Y 93 X -60 Y 93 X -68 Y 93 X -57 Y 93 X -52 Y 93 X -37 Y 93 X -80 Y 93 X -27 Y 93 X -72 Y 93 X -13 Y 279 X 12 Y 93 X -12 Y 372 X f black 1 0.8 0.4 c black 319 584 m 93 X 333 Y 93 X 139
 Y 93 X -6 Y 93 X -60 Y 93 X -68 Y 93 X -57 Y 93 X -52 Y 93 X -37 Y 93 X -80 Y 93 X -27 Y 93 X -72 Y 93 X -13 Y 279 X 12 Y 93 X -12 Y 372 X s 0.999 0.999 0.999 c black 0.999 0.999 0.999 c 319 584 m 93 X 229 Y 93 X 118 Y 93 X -16 Y 93 X -57 Y 93 X -59
 Y 93 X -60 Y 93 X -46 Y 93 X -38 Y 93 X -46 Y 93 X -25 Y 930 X f black 0.999 0.999 0.999 c black 319 584 m 93 X 229 Y 93 X 118 Y 93 X -16 Y 93 X -57 Y 93 X -59 Y 93 X -60 Y 93 X -46 Y 93 X -38 Y 93 X -46 Y 93 X -25 Y 930 X s 1 1 1 c black 319 584 m
 93 X 229 Y 93 X 118 Y 93 X -16 Y 93 X -57 Y 93 X -59 Y 93 X -60 Y 93 X -46 Y 93 X -38 Y 93 X -46 Y 93 X -25 Y 930 X s 1 0.4 0.6 c black 1 0.4 0.6 c 319 584 m 93 X 229 Y 93 X 118 Y 93 X -16 Y 93 X -57 Y 93 X -59 Y 93 X -60 Y 93 X -46 Y 93 X -38 Y 93
 X -46 Y 93 X -25 Y 930 X f black 1 0.4 0.6 c black 319 584 m 93 X 229 Y 93 X 118 Y 93 X -16 Y 93 X -57 Y 93 X -59 Y 93 X -60 Y 93 X -46 Y 93 X -38 Y 93 X -46 Y 93 X -25 Y 930 X s 0.999 0.999 0.999 c black 0.999 0.999 0.999 c 319 584 m 186 X 73 Y 93
 X -62 Y 93 X 30 Y 93 X -41 Y 93 X 70 Y 93 X -49 Y 93 X -21 Y 1116 X f black 0.999 0.999 0.999 c black 319 584 m 186 X 73 Y 93 X -62 Y 93 X 30 Y 93 X -41 Y 93 X 70 Y 93 X -49 Y 93 X -21 Y 1116 X s 1 1 1 c black 319 584 m 186 X 73 Y 93 X -62 Y 93 X 30
 Y 93 X -41 Y 93 X 70 Y 93 X -49 Y 93 X -21 Y 1116 X s 0 0 0.4 c black 0 0 0.4 c 319 584 m 186 X 73 Y 93 X -62 Y 93 X 30 Y 93 X -41 Y 93 X 70 Y 93 X -49 Y 93 X -21 Y 1116 X f black 0 0 0.4 c black 319 584 m 186 X 73 Y 93 X -62 Y 93 X 30 Y 93 X -41 Y
 93 X 70 Y 93 X -49 Y 93 X -21 Y 1116 X s 1 0 0 c 6 lw 1 1 1 c black 1 0 0 c 319 584 m 93 X 394 Y 93 X 131 Y 93 X -11 Y 93 X -67 Y 93 X -69 Y 93 X -59 Y 93 X -51 Y 93 X -45 Y 93 X -72 Y 93 X -39 Y 93 X -64 Y 93 X -48 Y 279 X 28 Y 93 X -28 Y 372 X s
 black 3 lw 1 0 0 c 1 lw << /PatternType 1 /PaintType 2 /TilingType 1 /BBox [ 0 0 100 100 ] /XStep 100 /YStep 100 /PaintProc { begin gsave 0 100 m 100 0 l s gr end } >> [ 0.24 0 0 0.24 0 0 ] makepattern /P05 exch def /cs {[/Pattern /DeviceRGB]
 setcolorspace} def /FA {f [/DeviceRGB] setcolorspace} def cs 1 0 0 P05 setcolor 412 584 m 398 Y 93 X 130 Y 93 X -12 Y 93 X -65 Y 93 X -68 Y 93 X -58 Y 93 X -47 Y 93 X -43 Y 93 X -75 Y 93 X -32 Y 93 X -68 Y 93 X -53 Y 93 X -7 Y 186 X 63 Y 93 X -63 Y
 -372 X 33 Y -93 X 57 Y -93 X 51 Y -93 X 67 Y -93 X 50 Y -93 X 54 Y -93 X 62 Y -93 X 70 Y -93 X 67 Y -93 X 11 Y -93 X -133 Y -93 X -389 Y FA 6 lw 1 1 1 c 15 lw 1017 855 m 2 Y s 1017 857 m cl s 1017 815 m -11 Y s 1017 804 m cl s 1110 844 m 3 Y s 1110
 847 m cl s 1110 803 m -14 Y s 1110 789 m cl s black 1 1 1 c 3 lw /w 43 def /w2 {w 2 div} def /w3 {w 3 div} def 459 966 552 1101 645 1090 738 1016 831 946 924 882 1017 835 1110 824 8 { m20} R 15 lw black 6 lw 1 1 1 c black 3 lw /w 33 def /w2 {w 2
 div} def /w3 {w 3 div} def 459 966 m20 6 lw 3 lw 552 1101 m20 6 lw 3 lw 645 1090 m20 6 lw 3 lw 738 1016 m20 6 lw 3 lw 831 946 m20 6 lw 924 862 m 7 Y s 924 896 m 1 Y s 3 lw 924 882 m20 6 lw 1017 803 m 18 Y s 1017 848 m 8 Y s 3 lw 1017 835 m20 6 lw
 1110 787 m 23 Y s 1110 837 m 9 Y s 3 lw 1110 824 m20 6 lw 924 896 m 1 Y s 924 897 m cl s 924 869 m -6 Y s 924 863 m cl s 1017 848 m 9 Y s 1017 857 m cl s 1017 821 m -17 Y s 1017 804 m cl s 1110 837 m 10 Y s 1110 847 m cl s 1110 810 m -21 Y s 1110
 789 m cl s 3 lw 459 966 552 1101 645 1090 738 1016 831 946 924 882 1017 835 1110 824 8 { m20} R 6 lw 3 lw 319 584 m 1860 X s 435 584 m cl s 482 584 m cl s 528 584 m cl s 575 584 m cl s 621 584 m cl s 668 584 m cl s 714 584 m cl s 761 584 m cl s 807
 584 m cl s 854 584 m cl s 900 584 m cl s 947 584 m cl s 993 584 m cl s 1040 584 m cl s 1087 584 m cl s 1133 584 m cl s 1180 584 m cl s 1226 584 m cl s 1273 584 m cl s 1319 584 m cl s 1366 584 m cl s 1412 584 m cl s 1459 584 m cl s 1505 584 m cl s
 1552 584 m cl s 1598 584 m cl s 1645 584 m cl s 1691 584 m cl s 1738 584 m cl s 1784 584 m cl s 1831 584 m cl s 1877 584 m cl s 1924 584 m cl s 1970 584 m cl s 2017 584 m cl s 2063 584 m cl s 435 584 m cl s 389 584 m cl s 342 584 m cl s 2063 584 m
 cl s 2110 584 m cl s 2156 584 m cl s 319 1729 m 1860 X s 435 1729 m cl s 482 1729 m cl s 528 1729 m cl s 575 1729 m cl s 621 1729 m cl s 668 1729 m cl s 714 1729 m cl s 761 1729 m cl s 807 1729 m cl s 854 1729 m cl s 900 1729 m cl s 947 1729 m cl s
 993 1729 m cl s 1040 1729 m cl s 1087 1729 m cl s 1133 1729 m cl s 1180 1729 m cl s 1226 1729 m cl s 1273 1729 m cl s 1319 1729 m cl s 1366 1729 m cl s 1412 1729 m cl s 1459 1729 m cl s 1505 1729 m cl s 1552 1729 m cl s 1598 1729 m cl s 1645 1729 m
 cl s 1691 1729 m cl s 1738 1729 m cl s 1784 1729 m cl s 1831 1729 m cl s 1877 1729 m cl s 1924 1729 m cl s 1970 1729 m cl s 2017 1729 m cl s 2063 1729 m cl s 435 1729 m cl s 389 1729 m cl s 342 1729 m cl s 2063 1729 m cl s 2110 1729 m cl s 2156 1729
 m cl s 319 584 m 1145 Y s 341 627 m -22 X s 341 652 m -22 X s 341 669 m -22 X s 341 683 m -22 X s 341 694 m -22 X s 341 703 m -22 X s 341 712 m -22 X s 341 719 m -22 X s 363 725 m -44 X s 341 768 m -22 X s 341 792 m -22 X s 341 810 m -22 X s 341 824
 m -22 X s 341 835 m -22 X s 341 844 m -22 X s 341 852 m -22 X s 341 860 m -22 X s 363 866 m -44 X s 341 909 m -22 X s 341 933 m -22 X s 341 951 m -22 X s 341 965 m -22 X s 341 976 m -22 X s 341 985 m -22 X s 341 993 m -22 X s 341 1001 m -22 X s 363
 1007 m -44 X s 341 1049 m -22 X s 341 1074 m -22 X s 341 1092 m -22 X s 341 1106 m -22 X s 341 1117 m -22 X s 341 1126 m -22 X s 341 1134 m -22 X s 341 1141 m -22 X s 363 1148 m -44 X s 341 1190 m -22 X s 341 1215 m -22 X s 341 1233 m -22 X s 341
 1246 m -22 X s 341 1258 m -22 X s 341 1267 m -22 X s 341 1275 m -22 X s 341 1282 m -22 X s 363 1289 m -44 X s 341 1331 m -22 X s 341 1356 m -22 X s 341 1374 m -22 X s 341 1387 m -22 X s 341 1398 m -22 X s 341 1408 m -22 X s 341 1416 m -22 X s 341
 1423 m -22 X s 363 1430 m -44 X s 341 1472 m -22 X s 341 1497 m -22 X s 341 1515 m -22 X s 341 1528 m -22 X s 341 1539 m -22 X s 341 1549 m -22 X s 341 1557 m -22 X s 341 1564 m -22 X s 363 1571 m -44 X s 341 1613 m -22 X s 341 1638 m -22 X s 341
 1655 m -22 X s 341 1669 m -22 X s 341 1680 m -22 X s 341 1690 m -22 X s 341 1698 m -22 X s 341 1705 m -22 X s 363 1712 m -44 X s 2179 584 m 1145 Y s 2157 627 m 22 X s 2157 652 m 22 X s 2157 669 m 22 X s 2157 683 m 22 X s 2157 694 m 22 X s 2157 703 m
 22 X s 2157 712 m 22 X s 2157 719 m 22 X s 2136 725 m 43 X s 2157 768 m 22 X s 2157 792 m 22 X s 2157 810 m 22 X s 2157 824 m 22 X s 2157 835 m 22 X s 2157 844 m 22 X s 2157 852 m 22 X s 2157 860 m 22 X s 2136 866 m 43 X s 2157 909 m 22 X s 2157 933
 m 22 X s 2157 951 m 22 X s 2157 965 m 22 X s 2157 976 m 22 X s 2157 985 m 22 X s 2157 993 m 22 X s 2157 1001 m 22 X s 2136 1007 m 43 X s 2157 1049 m 22 X s 2157 1074 m 22 X s 2157 1092 m 22 X s 2157 1106 m 22 X s 2157 1117 m 22 X s 2157 1126 m 22 X
 s 2157 1134 m 22 X s 2157 1141 m 22 X s 2136 1148 m 43 X s 2157 1190 m 22 X s 2157 1215 m 22 X s 2157 1233 m 22 X s 2157 1246 m 22 X s 2157 1258 m 22 X s 2157 1267 m 22 X s 2157 1275 m 22 X s 2157 1282 m 22 X s 2136 1289 m 43 X s 2157 1331 m 22 X s
 2157 1356 m 22 X s 2157 1374 m 22 X s 2157 1387 m 22 X s 2157 1398 m 22 X s 2157 1408 m 22 X s 2157 1416 m 22 X s 2157 1423 m 22 X s 2136 1430 m 43 X s 2157 1472 m 22 X s 2157 1497 m 22 X s 2157 1515 m 22 X s 2157 1528 m 22 X s 2157 1539 m 22 X s
 2157 1549 m 22 X s 2157 1557 m 22 X s 2157 1564 m 22 X s 2136 1571 m 43 X s 2157 1613 m 22 X s 2157 1638 m 22 X s 2157 1655 m 22 X s 2157 1669 m 22 X s 2157 1680 m 22 X s 2157 1690 m 22 X s 2157 1698 m 22 X s 2157 1705 m 22 X s 2136 1712 m 43 X s
 gsave  2263 1770 2 313 C 406.765 1447.41 t 0 r /Helvetica findfont 64.4212 sf 0 0 m (VR0LmetSig for MB\255C) show NC gr 
 gsave  2263 1770 2 313 C 1464.36 1630.45 t 0 r /Helvetica findfont 64.4212 sf 0 0 m (SM Total) show NC gr  1 1 1 c 1338 1616 m 107 X 64 Y -107 X f 1 0 0 c 6 lw 1338 1648 m 107 X s black
 gsave  2263 1770 2 313 C 1464.36 1538.93 t 0 r /Helvetica findfont 64.4212 sf 0 0 m (Data) show NC gr  1391 1529 m 55 Y s 3 lw 1391 1557 m20 6 lw
 gsave  2263 1770 2 313 C 1464.36 1447.41 t 0 r /Helvetica findfont 64.4212 sf 0 0 m (W+jets) show NC gr  0.4 0.6 1 c 3 lw 1338 1434 m 107 X 64 Y -107 X f 6 lw black 3 lw 1338 1498 m 107 X s 1338 1434 m 107 X s 1445 1434 m 64 Y s 1338 1434 m 64 Y s
 gsave  2263 1770 2 313 C 1498.25 1355.88 t 0 r /Helvetica findfont 64.4212 sf 0 0 m (\(+EW\) & single top) show NC gr 
 gsave  2263 1770 2 313 C 1481.3 1355.88 t 0 r /Helvetica findfont 64.4212 sf 0 0 m (t) show NC gr  1481 1407 m 17 X s
 gsave  2263 1770 2 313 C 1464.36 1355.88 t 0 r /Helvetica findfont 64.4212 sf 0 0 m (t) show NC gr  0.6 1 0.6 c 1338 1343 m 107 X 63 Y -107 X f black 1338 1406 m 107 X s 1338 1343 m 107 X s 1445 1343 m 63 Y s 1338 1343 m 63 Y s
 gsave  2263 1770 2 313 C 1464.36 1264.36 t 0 r /Helvetica findfont 64.4212 sf 0 0 m (Z+jets) show NC gr  1 0.8 0.4 c 1338 1252 m 107 X 63 Y -107 X f black 1338 1315 m 107 X s 1338 1252 m 107 X s 1445 1252 m 63 Y s 1338 1252 m 63 Y s
 gsave  2263 1770 2 313 C 1464.36 1172.84 t 0 r /Helvetica findfont 64.4212 sf 0 0 m (Diboson) show NC gr  1 0.4 0.6 c 1338 1161 m 107 X 63 Y -107 X f black 1338 1224 m 107 X s 1338 1161 m 107 X s 1445 1161 m 63 Y s 1338 1161 m 63 Y s
 gsave  2263 1770 2 313 C 1464.36 1081.32 t 0 r /Helvetica findfont 64.4212 sf 0 0 m (Multi\255jet) show NC gr  0 0 0.4 c 1338 1070 m 107 X 63 Y -107 X f black 1338 1133 m 107 X s 1338 1070 m 107 X s 1445 1070 m 63 Y s 1338 1070 m 63 Y s
 gsave  2263 1770 2 313 C 911.832 1566.05 t 0 r /Helvetica findfont 44.0776 sf 0 0 m (\2551) show NC gr 
 gsave  2263 1770 2 313 C 471.17 1535.54 t 0 r /Helvetica findfont 64.4212 sf 0 0 m (=13TeV, 139 fb) show NC gr 
 gsave  2263 1770 2 313 C 440.662 1535.54 t 0 r /Helvetica findfont 64.4212 sf 0 0 m (s) show NC gr  6 lw 420 1573 m 7 -41 d s 3 lw 427 1532 m 7 61 d s 434 1593 m 37 X s 1 1 1 c 2254 561 2 2 bf black 1 1 1 c black 1860 358 318 187 bl 1 1 1 c black
 1860 358 318 187 bl 6 lw 1 1 1 c black 3 lw 457 337 m20 6 lw 3 lw 550 347 m20 6 lw 3 lw 643 347 m20 6 lw 3 lw 736 329 m20 6 lw 3 lw 829 328 m20 6 lw 3 lw 923 320 m20 6 lw 3 lw 1016 325 m20 6 lw 3 lw 1109 416 m20 6 lw 3 lw 318 187 m 1860 X s
 gsave  2254 561 2 2 C 1959.25 44.0662 t 0 r /Helvetica findfont 78.1689 sf 0 0 m ( [GeV]) show NC gr 
 gsave  2254 561 2 2 C 1928.75 -2.35513e-13 t 0 r /Helvetica findfont 50.9797 sf 0 0 m (T) show NC gr 
 gsave  2254 561 2 2 C 1657.57 44.0662 t 0 r /Helvetica findfont 78.1689 sf 0 0 m (1st jet p) show NC gr  434 201 m -14 Y s 481 194 m -7 Y s 527 194 m -7 Y s 574 194 m -7 Y s 620 194 m -7 Y s 667 201 m -14 Y s 713 194 m -7 Y s 760 194 m -7 Y s 806
 194 m -7 Y s 853 194 m -7 Y s 899 201 m -14 Y s 946 194 m -7 Y s 992 194 m -7 Y s 1039 194 m -7 Y s 1085 194 m -7 Y s 1132 201 m -14 Y s 1178 194 m -7 Y s 1225 194 m -7 Y s 1271 194 m -7 Y s 1318 194 m -7 Y s 1364 201 m -14 Y s 1411 194 m -7 Y s
 1457 194 m -7 Y s 1504 194 m -7 Y s 1550 194 m -7 Y s 1597 201 m -14 Y s 1643 194 m -7 Y s 1690 194 m -7 Y s 1737 194 m -7 Y s 1783 194 m -7 Y s 1830 201 m -14 Y s 1876 194 m -7 Y s 1923 194 m -7 Y s 1969 194 m -7 Y s 2016 194 m -7 Y s 2062 201 m
 -14 Y s 434 201 m -14 Y s 388 194 m -7 Y s 341 194 m -7 Y s 2062 201 m -14 Y s 2109 194 m -7 Y s 2155 194 m -7 Y s
 gsave  2254 561 2 2 C 369.478 118.64 t 0 r /Helvetica findfont 78.1689 sf 0 0 m (500) show NC gr 
 gsave  2254 561 2 2 C 576.251 118.64 t 0 r /Helvetica findfont 78.1689 sf 0 0 m (1000) show NC gr 
 gsave  2254 561 2 2 C 810.141 118.64 t 0 r /Helvetica findfont 78.1689 sf 0 0 m (1500) show NC gr 
 gsave  2254 561 2 2 C 1040.64 118.64 t 0 r /Helvetica findfont 78.1689 sf 0 0 m (2000) show NC gr 
 gsave  2254 561 2 2 C 1274.53 118.64 t 0 r /Helvetica findfont 78.1689 sf 0 0 m (2500) show NC gr 
 gsave  2254 561 2 2 C 1508.42 118.64 t 0 r /Helvetica findfont 78.1689 sf 0 0 m (3000) show NC gr 
 gsave  2254 561 2 2 C 1738.92 118.64 t 0 r /Helvetica findfont 78.1689 sf 0 0 m (3500) show NC gr 
 gsave  2254 561 2 2 C 1972.81 118.64 t 0 r /Helvetica findfont 78.1689 sf 0 0 m (4000) show NC gr  318 545 m 1860 X s 434 531 m 14 Y s 481 538 m 7 Y s 527 538 m 7 Y s 574 538 m 7 Y s 620 538 m 7 Y s 667 531 m 14 Y s 713 538 m 7 Y s 760 538 m 7 Y s
 806 538 m 7 Y s 853 538 m 7 Y s 899 531 m 14 Y s 946 538 m 7 Y s 992 538 m 7 Y s 1039 538 m 7 Y s 1085 538 m 7 Y s 1132 531 m 14 Y s 1178 538 m 7 Y s 1225 538 m 7 Y s 1271 538 m 7 Y s 1318 538 m 7 Y s 1364 531 m 14 Y s 1411 538 m 7 Y s 1457 538 m 7
 Y s 1504 538 m 7 Y s 1550 538 m 7 Y s 1597 531 m 14 Y s 1643 538 m 7 Y s 1690 538 m 7 Y s 1737 538 m 7 Y s 1783 538 m 7 Y s 1830 531 m 14 Y s 1876 538 m 7 Y s 1923 538 m 7 Y s 1969 538 m 7 Y s 2016 538 m 7 Y s 2062 531 m 14 Y s 434 531 m 14 Y s 388
 538 m 7 Y s 341 538 m 7 Y s 2062 531 m 14 Y s 2109 538 m 7 Y s 2155 538 m 7 Y s 318 187 m 358 Y s
 gsave  2254 561 2 2 C 166.096 284.736 t 90 r /Helvetica findfont 67.9729 sf 0 0 m (Data/SM) show NC gr  361 203 m -43 X s 339 220 m -21 X s 339 236 m -21 X s 339 252 m -21 X s 339 268 m -21 X s 361 285 m -43 X s 339 301 m -21 X s 339 317 m -21 X s
 339 334 m -21 X s 339 350 m -21 X s 361 366 m -43 X s 339 382 m -21 X s 339 399 m -21 X s 339 415 m -21 X s 339 431 m -21 X s 361 447 m -43 X s 339 464 m -21 X s 339 480 m -21 X s 339 496 m -21 X s 339 512 m -21 X s 361 529 m -43 X s 361 203 m -43 X
 s 339 187 m -21 X s 361 529 m -43 X s
 gsave  2254 561 2 2 C 261.008 183.044 t 0 r /Helvetica findfont 57.777 sf 0 0 m (0) show NC gr 
 gsave  2254 561 2 2 C 213.552 261.008 t 0 r /Helvetica findfont 57.777 sf 0 0 m (0.5) show NC gr 
 gsave  2254 561 2 2 C 271.177 342.361 t 0 r /Helvetica findfont 57.777 sf 0 0 m (1) show NC gr 
 gsave  2254 561 2 2 C 213.552 423.714 t 0 r /Helvetica findfont 57.777 sf 0 0 m (1.5) show NC gr 
 gsave  2254 561 2 2 C 261.008 505.067 t 0 r /Helvetica findfont 57.777 sf 0 0 m (2) show NC gr  2178 187 m 358 Y s 2135 203 m 43 X s 2157 220 m 21 X s 2157 236 m 21 X s 2157 252 m 21 X s 2157 268 m 21 X s 2135 285 m 43 X s 2157 301 m 21 X s 2157 317
 m 21 X s 2157 334 m 21 X s 2157 350 m 21 X s 2135 366 m 43 X s 2157 382 m 21 X s 2157 399 m 21 X s 2157 415 m 21 X s 2157 431 m 21 X s 2135 447 m 43 X s 2157 464 m 21 X s 2157 480 m 21 X s 2157 496 m 21 X s 2157 512 m 21 X s 2135 529 m 43 X s 2135
 203 m 43 X s 2157 187 m 21 X s 2135 529 m 43 X s 9 lw 457 351 m 5 Y s 457 356 m cl s 457 323 m -5 Y s 457 318 m cl s 829 342 m 7 Y s 829 349 m cl s 829 315 m -7 Y s 829 308 m cl s 923 334 m 19 Y s 923 353 m cl s 923 306 m -18 Y s 923 288 m cl s 1016
 339 m 38 Y s 1016 377 m cl s 1016 312 m -35 Y s 1016 277 m cl s 1109 430 m 87 Y s 1109 517 m cl s 1109 403 m -78 Y s 1109 325 m cl s 3 lw 457 337 550 347 643 347 736 329 829 328 923 320 1016 325 1109 416 8 { m20} R 9 lw 1 0 0 c 6 lw black 3 lw 1 0 0
 c 2178 227 m s 2178 255 m s 2178 284 m -10 -10 d s 2178 312 m -39 -38 d s 2085 220 m s 2069 203 m cl s 2178 341 m -67 -67 d s 2085 248 m s 2040 203 m cl s 2178 369 m -93 -92 d s 2012 203 m cl s 2178 398 m -93 -93 d s 1992 213 m -14 -15 d s 2178 427
 m -93 -93 d s 1992 241 m -43 -43 d s 2178 455 m -93 -92 d s 1992 270 m -71 -72 d s 2153 459 m -68 -68 d s 1992 298 m -93 -92 d s 2124 459 m -39 -39 d s 1992 327 m -93 -93 d s 2096 459 m -11 -11 d s 1992 356 m -93 -93 d s 1992 384 m -93 -93 d s 1992
 413 m -119 -119 d s 1992 441 m -148 -147 d s 1806 256 m -18 -18 d s 1992 470 m -177 -176 d s 1806 285 m -46 -47 d s 1992 499 m -261 -261 d s 1992 527 m -307 -306 d s 1970 534 m -71 -71 d s 1875 439 m -218 -218 d s 1941 534 m -42 -42 d s 1846 439 m
 -218 -218 d s 1913 534 m -14 -14 d s 1817 439 m -197 -197 d s 1806 456 m -186 -185 d s 1806 485 m -208 -208 d s 1787 494 m -218 -217 d s 1758 494 m -217 -217 d s 1729 494 m -202 -202 d s 1713 506 m -194 -194 d s 1689 511 m -199 -199 d s 1660 511 m
 -40 -40 d s 1604 455 m -143 -143 d s 1632 511 m -12 -12 d s 1575 455 m -141 -141 d s 1547 455 m -20 -20 d s 1511 420 m -89 -89 d s 1483 420 m -90 -89 d s 1454 420 m -89 -89 d s 1407 402 m -84 -85 d s 1379 402 m -85 -85 d s 1350 402 m -85 -85 d s
 1335 415 m -87 -86 d s 1306 415 m -74 -73 d s 1277 415 m -73 -73 d s 1248 415 m s 1224 390 m -49 -48 d s 1195 390 m -60 -60 d s 1167 390 m -61 -60 d s 1149 402 m -71 -72 d s 1120 402 m -62 -63 d s 1092 402 m -63 -63 d s 1063 402 m -1 -1 d s 1054 393
 m -53 -54 d s 1025 393 m -53 -54 d s 997 393 m -44 -44 d s 959 383 m -35 -34 d s 930 383 m -35 -34 d s 901 383 m -29 -28 d s 867 378 m -23 -23 d s 838 378 m -23 -23 d s 809 378 m -23 -23 d s 778 375 m -18 -18 d s 749 375 m -18 -18 d s 721 375 m -18
 -18 d s 692 375 m -16 -16 d s 662 374 m -15 -15 d s 633 374 m -15 -15 d s 604 374 m -15 -16 d s 576 374 m -15 -16 d s 411 209 m s 405 203 m cl s 547 374 m -15 -16 d s 411 238 m s 376 203 m cl s 518 374 m -19 -20 d s 411 266 m s 348 203 m cl s 494
 378 m -23 -24 d s 411 295 m s 319 203 m cl s 465 378 m -23 -24 d s 411 324 m s 436 378 m -23 -24 d s 411 352 m s 6 lw black[ 4 8] 0 sd 3 lw 318 447 m 1860 X s 318 285 m 1860 X s 1 0 0 c[  12 12 ] 0 sd 6 lw 318 366 m 1860 X s
 gr  gr showpage
end
%%EOF
