%!PS-Adobe-2.0 EPSF-2.0
%%BoundingBox:  0 0 567 521
%%Title: Distributions/jetPt_0__distrCRT_MB-GGo_beforeFit_forThesis.eps: canvas
%%Creator: ROOT Version 6.04/16
%%CreationDate: Tue May 19 22:02:41 2020
%%DocumentNeededResources: ProcSet (FontSetInit)
%%EndComments
%%BeginProlog
80 dict begin
/s {stroke} def /l {lineto} def /m {moveto} def /t {translate} def
/r {rotate} def /rl {roll}  def /R {repeat} def
/d {rlineto} def /rm {rmoveto} def /gr {grestore} def /f {eofill} def
/c {setrgbcolor} def /black {0 setgray} def /sd {setdash} def
/cl {closepath} def /sf {scalefont setfont} def /lw {setlinewidth} def
/box {m dup 0 exch d exch 0 d 0 exch neg d cl} def
/NC{systemdict begin initclip end}def/C{NC box clip newpath}def
/bl {box s} def /bf {gsave box gsave f grestore 1 lw [] 0 sd s grestore} def /Y { 0 exch d} def /X { 0 d} def 
/K {{pop pop 0 moveto} exch kshow} bind def
/ita {/ang 15 def gsave [1 0 ang dup sin exch cos div 1 0 0] concat} def 
/mp {newpath /y exch def /x exch def} def
/side {[w .77 mul w .23 mul] .385 w mul sd w 0 l currentpoint t -144 r} def
/mr {mp x y w2 0 360 arc} def /m24 {mr s} def /m20 {mr f} def
/mb {mp x y w2 add m w2 neg 0 d 0 w neg d w 0 d 0 w d cl} def
/mt {mp x y w2 add m w2 neg w neg d w 0 d cl} def
/m21 {mb f} def /m25 {mb s} def /m22 {mt f} def /m26{mt s} def
/m23 {mp x y w2 sub m w2 w d w neg 0 d cl f} def
/m27 {mp x y w2 add m w3 neg w2 neg d w3 w2 neg d w3 w2 d cl s} def
/m28 {mp x w2 sub y w2 sub w3 add m w3 0 d  0 w3 neg d w3 0 d 0 w3 d w3 0 d  0 w3 d w3 neg 0 d 0 w3 d w3 neg 0 d 0 w3 neg d w3 neg 0 d cl s } def
/m29 {mp gsave x w2 sub y w2 add w3 sub m currentpoint t 4 {side} repeat cl fill gr} def
/m30 {mp gsave x w2 sub y w2 add w3 sub m currentpoint t 4 {side} repeat cl s gr} def
/m31 {mp x y w2 sub m 0 w d x w2 sub y m w 0 d x w2 sub y w2 add m w w neg d x w2 sub y w2 sub m w w d s} def
/m32 {mp x y w2 sub m w2 w d w neg 0 d cl s} def
/m33 {mp x y w2 add m w3 neg w2 neg d w3 w2 neg d w3 w2 d cl f} def
/m34 {mp x w2 sub y w2 sub w3 add m w3 0 d  0 w3 neg d w3 0 d 0 w3 d w3 0 d  0 w3 d w3 neg 0 d 0 w3 d w3 neg 0 d 0 w3 neg d w3 neg 0 d cl f } def
/m2 {mp x y w2 sub m 0 w d x w2 sub y m w 0 d s} def
/m5 {mp x w2 sub y w2 sub m w w d x w2 sub y w2 add m w w neg d s} def
%%IncludeResource: ProcSet (FontSetInit)
%%IncludeResource: font Times-Roman
%%IncludeResource: font Times-Italic
%%IncludeResource: font Times-Bold
%%IncludeResource: font Times-BoldItalic
%%IncludeResource: font Helvetica
%%IncludeResource: font Helvetica-Oblique
%%IncludeResource: font Helvetica-Bold
%%IncludeResource: font Helvetica-BoldOblique
%%IncludeResource: font Courier
%%IncludeResource: font Courier-Oblique
%%IncludeResource: font Courier-Bold
%%IncludeResource: font Courier-BoldOblique
%%IncludeResource: font Symbol
%%IncludeResource: font ZapfDingbats
/reEncode {exch findfont dup length dict begin {1 index /FID eq  {pop pop} {def} ifelse } forall /Encoding exch def currentdict end dup /FontName get exch definefont pop } def [/Times-Bold /Times-Italic /Times-BoldItalic /Helvetica /Helvetica-Oblique
 /Helvetica-Bold /Helvetica-BoldOblique /Courier /Courier-Oblique /Courier-Bold /Courier-BoldOblique /Times-Roman /AvantGarde-Book /AvantGarde-BookOblique /AvantGarde-Demi /AvantGarde-DemiOblique /Bookman-Demi /Bookman-DemiItalic /Bookman-Light
 /Bookman-LightItalic /Helvetica-Narrow /Helvetica-Narrow-Bold /Helvetica-Narrow-BoldOblique /Helvetica-Narrow-Oblique /NewCenturySchlbk-Roman /NewCenturySchlbk-Bold /NewCenturySchlbk-BoldItalic /NewCenturySchlbk-Italic /Palatino-Bold
 /Palatino-BoldItalic /Palatino-Italic /Palatino-Roman ] {ISOLatin1Encoding reEncode } forall
%%EndProlog
%%BeginSetup
%%EndSetup
newpath  gsave  .25 .25 scale  gsave  0 0 t black[  ] 0 sd 3 lw 1 1 1 c 2268 2085 0 0 bf black 1 1 1 c 2263 1770 2 313 bf black 1 1 1 c black 1860 1145 319 584 bl 1 1 1 c black 1860 1145 319 584 bl 6 lw 1 1 1 c black 3 lw /w 33 def /w2 {w 2 div} def
 /w3 {w 3 div} def 366 1158 m20 6 lw 3 lw 459 1070 m20 6 lw 3 lw 552 1005 m20 6 lw 645 940 m 4 Y s 645 972 m s 3 lw 645 958 m20 6 lw 738 873 m 15 Y s 738 915 m 7 Y s 3 lw 738 902 m20 6 lw 831 836 m 23 Y s 831 887 m 10 Y s 3 lw 831 873 m20 6 lw 1296
 584 m 149 Y s 1296 760 m 36 Y s 3 lw 1296 747 m20 6 lw 3 lw 319 584 m 1860 X s
 gsave  2263 1770 2 313 C 1949.08 376.258 t 0 r /Helvetica findfont 81.3741 sf 0 0 m ( [GeV]) show NC gr 
 gsave  2263 1770 2 313 C 1915.19 332.192 t 0 r /Helvetica findfont 54.2494 sf 0 0 m (T) show NC gr 
 gsave  2263 1770 2 313 C 1630.45 376.258 t 0 r /Helvetica findfont 81.3741 sf 0 0 m (1st jet p) show NC gr  435 584 m cl s 482 584 m cl s 528 584 m cl s 575 584 m cl s 621 584 m cl s 668 584 m cl s 714 584 m cl s 761 584 m cl s 807 584 m cl s 854
 584 m cl s 900 584 m cl s 947 584 m cl s 993 584 m cl s 1040 584 m cl s 1087 584 m cl s 1133 584 m cl s 1180 584 m cl s 1226 584 m cl s 1273 584 m cl s 1319 584 m cl s 1366 584 m cl s 1412 584 m cl s 1459 584 m cl s 1505 584 m cl s 1552 584 m cl s
 1598 584 m cl s 1645 584 m cl s 1691 584 m cl s 1738 584 m cl s 1784 584 m cl s 1831 584 m cl s 1877 584 m cl s 1924 584 m cl s 1970 584 m cl s 2017 584 m cl s 2063 584 m cl s 435 584 m cl s 389 584 m cl s 342 584 m cl s 2063 584 m cl s 2110 584 m
 cl s 2156 584 m cl s 319 1729 m 1860 X s 435 1729 m cl s 482 1729 m cl s 528 1729 m cl s 575 1729 m cl s 621 1729 m cl s 668 1729 m cl s 714 1729 m cl s 761 1729 m cl s 807 1729 m cl s 854 1729 m cl s 900 1729 m cl s 947 1729 m cl s 993 1729 m cl s
 1040 1729 m cl s 1087 1729 m cl s 1133 1729 m cl s 1180 1729 m cl s 1226 1729 m cl s 1273 1729 m cl s 1319 1729 m cl s 1366 1729 m cl s 1412 1729 m cl s 1459 1729 m cl s 1505 1729 m cl s 1552 1729 m cl s 1598 1729 m cl s 1645 1729 m cl s 1691 1729 m
 cl s 1738 1729 m cl s 1784 1729 m cl s 1831 1729 m cl s 1877 1729 m cl s 1924 1729 m cl s 1970 1729 m cl s 2017 1729 m cl s 2063 1729 m cl s 435 1729 m cl s 389 1729 m cl s 342 1729 m cl s 2063 1729 m cl s 2110 1729 m cl s 2156 1729 m cl s 319 584 m
 1145 Y s
 gsave  2263 1770 2 313 C 166.096 1091.49 t 90 r /Helvetica findfont 81.3741 sf 0 0 m (Events / 200 GeV) show NC gr  341 633 m -22 X s 341 662 m -22 X s 341 682 m -22 X s 341 698 m -22 X s 341 711 m -22 X s 341 722 m -22 X s 341 731 m -22 X s 341 739
 m -22 X s 363 747 m -44 X s
 gsave  2263 1770 2 313 C 300.555 719.577 t 0 r  -36 0 t /Helvetica findfont 64.4212 sf 0 0 m (1) show NC gr  341 796 m -22 X s 341 824 m -22 X s 341 844 m -22 X s 341 860 m -22 X s 341 873 m -22 X s 341 884 m -22 X s 341 893 m -22 X s 341 902 m -22
 X s 363 909 m -44 X s
 gsave  2263 1770 2 313 C 300.555 881.962 t 0 r  -73 0 t /Helvetica findfont 64.4212 sf 0 0 m (10) show NC gr  341 958 m -22 X s 341 987 m -22 X s 341 1007 m -22 X s 341 1023 m -22 X s 341 1035 m -22 X s 341 1046 m -22 X s 341 1056 m -22 X s 341 1064
 m -22 X s 363 1071 m -44 X s
 gsave  2263 1770 2 313 C 274.567 1071.15 t 0 r /Helvetica findfont 44.0776 sf 0 0 m (2) show NC gr 
 gsave  2263 1770 2 313 C 203.383 1044.03 t 0 r /Helvetica findfont 64.4212 sf 0 0 m (10) show NC gr  341 1120 m -22 X s 341 1149 m -22 X s 341 1169 m -22 X s 341 1185 m -22 X s 341 1198 m -22 X s 341 1209 m -22 X s 341 1218 m -22 X s 341 1226 m -22
 X s 363 1234 m -44 X s
 gsave  2263 1770 2 313 C 274.567 1233.85 t 0 r /Helvetica findfont 44.0776 sf 0 0 m (3) show NC gr 
 gsave  2263 1770 2 313 C 203.383 1203.35 t 0 r /Helvetica findfont 64.4212 sf 0 0 m (10) show NC gr  341 1283 m -22 X s 341 1311 m -22 X s 341 1332 m -22 X s 341 1347 m -22 X s 341 1360 m -22 X s 341 1371 m -22 X s 341 1380 m -22 X s 341 1389 m -22
 X s 363 1396 m -44 X s
 gsave  2263 1770 2 313 C 274.567 1393.17 t 0 r /Helvetica findfont 44.0776 sf 0 0 m (4) show NC gr 
 gsave  2263 1770 2 313 C 203.383 1366.05 t 0 r /Helvetica findfont 64.4212 sf 0 0 m (10) show NC gr  341 1445 m -22 X s 341 1474 m -22 X s 341 1494 m -22 X s 341 1510 m -22 X s 341 1523 m -22 X s 341 1533 m -22 X s 341 1543 m -22 X s 341 1551 m -22
 X s 363 1559 m -44 X s
 gsave  2263 1770 2 313 C 274.567 1559.27 t 0 r /Helvetica findfont 44.0776 sf 0 0 m (5) show NC gr 
 gsave  2263 1770 2 313 C 203.383 1528.76 t 0 r /Helvetica findfont 64.4212 sf 0 0 m (10) show NC gr  341 1608 m -22 X s 341 1636 m -22 X s 341 1656 m -22 X s 341 1672 m -22 X s 341 1685 m -22 X s 341 1696 m -22 X s 341 1705 m -22 X s 341 1714 m -22
 X s 363 1721 m -44 X s
 gsave  2263 1770 2 313 C 274.567 1721.97 t 0 r /Helvetica findfont 44.0776 sf 0 0 m (6) show NC gr 
 gsave  2263 1770 2 313 C 203.383 1691.47 t 0 r /Helvetica findfont 64.4212 sf 0 0 m (10) show NC gr  2179 584 m 1145 Y s 2157 633 m 22 X s 2157 662 m 22 X s 2157 682 m 22 X s 2157 698 m 22 X s 2157 711 m 22 X s 2157 722 m 22 X s 2157 731 m 22 X s
 2157 739 m 22 X s 2136 747 m 43 X s 2157 796 m 22 X s 2157 824 m 22 X s 2157 844 m 22 X s 2157 860 m 22 X s 2157 873 m 22 X s 2157 884 m 22 X s 2157 893 m 22 X s 2157 902 m 22 X s 2136 909 m 43 X s 2157 958 m 22 X s 2157 987 m 22 X s 2157 1007 m 22
 X s 2157 1023 m 22 X s 2157 1035 m 22 X s 2157 1046 m 22 X s 2157 1056 m 22 X s 2157 1064 m 22 X s 2136 1071 m 43 X s 2157 1120 m 22 X s 2157 1149 m 22 X s 2157 1169 m 22 X s 2157 1185 m 22 X s 2157 1198 m 22 X s 2157 1209 m 22 X s 2157 1218 m 22 X
 s 2157 1226 m 22 X s 2136 1234 m 43 X s 2157 1283 m 22 X s 2157 1311 m 22 X s 2157 1332 m 22 X s 2157 1347 m 22 X s 2157 1360 m 22 X s 2157 1371 m 22 X s 2157 1380 m 22 X s 2157 1389 m 22 X s 2136 1396 m 43 X s 2157 1445 m 22 X s 2157 1474 m 22 X s
 2157 1494 m 22 X s 2157 1510 m 22 X s 2157 1523 m 22 X s 2157 1533 m 22 X s 2157 1543 m 22 X s 2157 1551 m 22 X s 2136 1559 m 43 X s 2157 1608 m 22 X s 2157 1636 m 22 X s 2157 1656 m 22 X s 2157 1672 m 22 X s 2157 1685 m 22 X s 2157 1696 m 22 X s
 2157 1705 m 22 X s 2157 1714 m 22 X s 2136 1721 m 43 X s 0.6 1 0.6 c black 0.6 1 0.6 c 319 584 m 580 Y 93 X -63 Y 93 X -48 Y 93 X -49 Y 93 X -57 Y 93 X -60 Y 93 X -59 Y 93 X -71 Y 93 X -50 Y 93 X 7 Y 93 X -130 Y 930 X f black 0.6 1 0.6 c black 319
 1164 m 93 X -63 Y 93 X -48 Y 93 X -49 Y 93 X -57 Y 93 X -60 Y 93 X -59 Y 93 X -71 Y 93 X -50 Y 93 X 7 Y 93 X -130 Y 930 X s 0.999 0.999 0.999 c black 0.999 0.999 0.999 c 319 584 m 424 Y 93 X -46 Y 93 X -53 Y 93 X -49 Y 93 X -50 Y 93 X -76 Y 93 X -23
 Y 93 X -116 Y 93 X 69 Y 93 X 34 Y 93 X -114 Y 930 X f black 0.999 0.999 0.999 c black 319 1008 m 93 X -46 Y 93 X -53 Y 93 X -49 Y 93 X -50 Y 93 X -76 Y 93 X -23 Y 93 X -116 Y 93 X 69 Y 93 X 34 Y 93 X -114 Y 930 X s 1 1 1 c black 319 1008 m 93 X -46
 Y 93 X -53 Y 93 X -49 Y 93 X -50 Y 93 X -76 Y 93 X -23 Y 93 X -116 Y 93 X 69 Y 93 X 34 Y 93 X -114 Y 930 X s 0.4 0.6 1 c black 0.4 0.6 1 c 319 584 m 424 Y 93 X -46 Y 93 X -53 Y 93 X -49 Y 93 X -50 Y 93 X -76 Y 93 X -23 Y 93 X -116 Y 93 X 69 Y 93 X
 34 Y 93 X -114 Y 930 X f black 0.4 0.6 1 c black 319 1008 m 93 X -46 Y 93 X -53 Y 93 X -49 Y 93 X -50 Y 93 X -76 Y 93 X -23 Y 93 X -116 Y 93 X 69 Y 93 X 34 Y 93 X -114 Y 930 X s 0.999 0.999 0.999 c black 0.999 0.999 0.999 c 319 584 m 259 Y 93 X -42
 Y 93 X -27 Y 93 X -55 Y 93 X -79 Y 93 X -56 Y 93 X 46 Y 93 X -46 Y 93 X 49 Y 93 X -49 Y 1023 X f black 0.999 0.999 0.999 c black 319 843 m 93 X -42 Y 93 X -27 Y 93 X -55 Y 93 X -79 Y 93 X -56 Y 93 X 46 Y 93 X -46 Y 93 X 49 Y 93 X -49 Y 1023 X s 1 1
 1 c black 319 843 m 93 X -42 Y 93 X -27 Y 93 X -55 Y 93 X -79 Y 93 X -56 Y 93 X 46 Y 93 X -46 Y 93 X 49 Y 93 X -49 Y 1023 X s 1 0.8 0.4 c black 1 0.8 0.4 c 319 584 m 259 Y 93 X -42 Y 93 X -27 Y 93 X -55 Y 93 X -79 Y 93 X -56 Y 93 X 46 Y 93 X -46 Y
 93 X 49 Y 93 X -49 Y 1023 X f black 1 0.8 0.4 c black 319 843 m 93 X -42 Y 93 X -27 Y 93 X -55 Y 93 X -79 Y 93 X -56 Y 93 X 46 Y 93 X -46 Y 93 X 49 Y 93 X -49 Y 1023 X s 0.999 0.999 0.999 c black 0.999 0.999 0.999 c 319 584 m 254 Y 93 X -44 Y 93 X
 -24 Y 93 X -56 Y 93 X -119 Y 93 X -11 Y 93 X 46 Y 93 X -46 Y 93 X 49 Y 93 X -49 Y 1023 X f black 0.999 0.999 0.999 c black 319 838 m 93 X -44 Y 93 X -24 Y 93 X -56 Y 93 X -119 Y 93 X -11 Y 93 X 46 Y 93 X -46 Y 93 X 49 Y 93 X -49 Y 1023 X s 1 1 1 c
 black 319 838 m 93 X -44 Y 93 X -24 Y 93 X -56 Y 93 X -119 Y 93 X -11 Y 93 X 46 Y 93 X -46 Y 93 X 49 Y 93 X -49 Y 1023 X s 1 0.4 0.6 c black 1 0.4 0.6 c 319 584 m 254 Y 93 X -44 Y 93 X -24 Y 93 X -56 Y 93 X -119 Y 93 X -11 Y 93 X 46 Y 93 X -46 Y 93
 X 49 Y 93 X -49 Y 1023 X f black 1 0.4 0.6 c black 319 838 m 93 X -44 Y 93 X -24 Y 93 X -56 Y 93 X -119 Y 93 X -11 Y 93 X 46 Y 93 X -46 Y 93 X 49 Y 93 X -49 Y 1023 X s 1 0 0 c 6 lw 1 1 1 c black 1 0 0 c 319 1164 m 93 X -63 Y 93 X -48 Y 93 X -49 Y 93
 X -57 Y 93 X -60 Y 93 X -59 Y 93 X -71 Y 93 X -50 Y 93 X 7 Y 93 X -130 Y 930 X s black 3 lw 1 0 0 c 1 lw << /PatternType 1 /PaintType 2 /TilingType 1 /BBox [ 0 0 100 100 ] /XStep 100 /YStep 100 /PaintProc { begin gsave 0 100 m 100 0 l s gr end } >>
 [ 0.24 0 0 0.24 0 0 ] makepattern /P05 exch def /cs {[/Pattern /DeviceRGB] setcolorspace} def /FA {f [/DeviceRGB] setcolorspace} def cs 1 0 0 P05 setcolor 319 584 m 582 Y 93 X -61 Y 93 X -47 Y 93 X -49 Y 93 X -56 Y 93 X -58 Y 93 X -56 Y 93 X -71 Y
 93 X -39 Y 93 X 18 Y 93 X -156 Y 93 X -7 Y -93 X 68 Y -93 X 23 Y -93 X 71 Y -93 X 70 Y -93 X 63 Y -93 X 61 Y -93 X 58 Y -93 X 51 Y -93 X 49 Y -93 X 64 Y -93 X -578 Y FA 6 lw 1 1 1 c 15 lw 738 922 m s 738 922 m cl s 738 881 m -7 Y s 738 874 m cl s
 831 893 m 5 Y s 831 898 m cl s 831 853 m -15 Y s 831 838 m cl s 1296 767 m 38 Y s 1296 805 m cl s 1296 726 m -102 Y s 1296 624 m cl s black 1 1 1 c 3 lw /w 43 def /w2 {w 2 div} def /w3 {w 3 div} def 366 1158 459 1070 552 1005 645 958 738 902 831 873
 6 { m20} R 15 lw 3 lw 1296 747 m20 15 lw black 6 lw 1 1 1 c black 3 lw /w 33 def /w2 {w 2 div} def /w3 {w 3 div} def 366 1158 m20 6 lw 3 lw 459 1070 m20 6 lw 3 lw 552 1005 m20 6 lw 645 940 m 4 Y s 645 972 m s 3 lw 645 958 m20 6 lw 738 873 m 15 Y s
 738 915 m 7 Y s 3 lw 738 902 m20 6 lw 831 836 m 23 Y s 831 887 m 10 Y s 3 lw 831 873 m20 6 lw 1296 584 m 149 Y s 1296 760 m 36 Y s 3 lw 1296 747 m20 6 lw 645 972 m s 645 972 m cl s 645 944 m -4 Y s 645 940 m cl s 738 915 m 7 Y s 738 922 m cl s 738
 888 m -14 Y s 738 874 m cl s 831 887 m 11 Y s 831 898 m cl s 831 859 m -21 Y s 831 838 m cl s 1296 760 m 45 Y s 1296 805 m cl s 1296 733 m -109 Y s 1296 624 m cl s 3 lw 366 1158 459 1070 552 1005 645 958 738 902 831 873 6 { m20} R 6 lw 3 lw 1296 747
 m20 6 lw 3 lw 319 584 m 1860 X s 435 584 m cl s 482 584 m cl s 528 584 m cl s 575 584 m cl s 621 584 m cl s 668 584 m cl s 714 584 m cl s 761 584 m cl s 807 584 m cl s 854 584 m cl s 900 584 m cl s 947 584 m cl s 993 584 m cl s 1040 584 m cl s 1087
 584 m cl s 1133 584 m cl s 1180 584 m cl s 1226 584 m cl s 1273 584 m cl s 1319 584 m cl s 1366 584 m cl s 1412 584 m cl s 1459 584 m cl s 1505 584 m cl s 1552 584 m cl s 1598 584 m cl s 1645 584 m cl s 1691 584 m cl s 1738 584 m cl s 1784 584 m cl
 s 1831 584 m cl s 1877 584 m cl s 1924 584 m cl s 1970 584 m cl s 2017 584 m cl s 2063 584 m cl s 435 584 m cl s 389 584 m cl s 342 584 m cl s 2063 584 m cl s 2110 584 m cl s 2156 584 m cl s 319 1729 m 1860 X s 435 1729 m cl s 482 1729 m cl s 528
 1729 m cl s 575 1729 m cl s 621 1729 m cl s 668 1729 m cl s 714 1729 m cl s 761 1729 m cl s 807 1729 m cl s 854 1729 m cl s 900 1729 m cl s 947 1729 m cl s 993 1729 m cl s 1040 1729 m cl s 1087 1729 m cl s 1133 1729 m cl s 1180 1729 m cl s 1226 1729
 m cl s 1273 1729 m cl s 1319 1729 m cl s 1366 1729 m cl s 1412 1729 m cl s 1459 1729 m cl s 1505 1729 m cl s 1552 1729 m cl s 1598 1729 m cl s 1645 1729 m cl s 1691 1729 m cl s 1738 1729 m cl s 1784 1729 m cl s 1831 1729 m cl s 1877 1729 m cl s 1924
 1729 m cl s 1970 1729 m cl s 2017 1729 m cl s 2063 1729 m cl s 435 1729 m cl s 389 1729 m cl s 342 1729 m cl s 2063 1729 m cl s 2110 1729 m cl s 2156 1729 m cl s 319 584 m 1145 Y s 341 633 m -22 X s 341 662 m -22 X s 341 682 m -22 X s 341 698 m -22
 X s 341 711 m -22 X s 341 722 m -22 X s 341 731 m -22 X s 341 739 m -22 X s 363 747 m -44 X s 341 796 m -22 X s 341 824 m -22 X s 341 844 m -22 X s 341 860 m -22 X s 341 873 m -22 X s 341 884 m -22 X s 341 893 m -22 X s 341 902 m -22 X s 363 909 m
 -44 X s 341 958 m -22 X s 341 987 m -22 X s 341 1007 m -22 X s 341 1023 m -22 X s 341 1035 m -22 X s 341 1046 m -22 X s 341 1056 m -22 X s 341 1064 m -22 X s 363 1071 m -44 X s 341 1120 m -22 X s 341 1149 m -22 X s 341 1169 m -22 X s 341 1185 m -22
 X s 341 1198 m -22 X s 341 1209 m -22 X s 341 1218 m -22 X s 341 1226 m -22 X s 363 1234 m -44 X s 341 1283 m -22 X s 341 1311 m -22 X s 341 1332 m -22 X s 341 1347 m -22 X s 341 1360 m -22 X s 341 1371 m -22 X s 341 1380 m -22 X s 341 1389 m -22 X
 s 363 1396 m -44 X s 341 1445 m -22 X s 341 1474 m -22 X s 341 1494 m -22 X s 341 1510 m -22 X s 341 1523 m -22 X s 341 1533 m -22 X s 341 1543 m -22 X s 341 1551 m -22 X s 363 1559 m -44 X s 341 1608 m -22 X s 341 1636 m -22 X s 341 1656 m -22 X s
 341 1672 m -22 X s 341 1685 m -22 X s 341 1696 m -22 X s 341 1705 m -22 X s 341 1714 m -22 X s 363 1721 m -44 X s 2179 584 m 1145 Y s 2157 633 m 22 X s 2157 662 m 22 X s 2157 682 m 22 X s 2157 698 m 22 X s 2157 711 m 22 X s 2157 722 m 22 X s 2157
 731 m 22 X s 2157 739 m 22 X s 2136 747 m 43 X s 2157 796 m 22 X s 2157 824 m 22 X s 2157 844 m 22 X s 2157 860 m 22 X s 2157 873 m 22 X s 2157 884 m 22 X s 2157 893 m 22 X s 2157 902 m 22 X s 2136 909 m 43 X s 2157 958 m 22 X s 2157 987 m 22 X s
 2157 1007 m 22 X s 2157 1023 m 22 X s 2157 1035 m 22 X s 2157 1046 m 22 X s 2157 1056 m 22 X s 2157 1064 m 22 X s 2136 1071 m 43 X s 2157 1120 m 22 X s 2157 1149 m 22 X s 2157 1169 m 22 X s 2157 1185 m 22 X s 2157 1198 m 22 X s 2157 1209 m 22 X s
 2157 1218 m 22 X s 2157 1226 m 22 X s 2136 1234 m 43 X s 2157 1283 m 22 X s 2157 1311 m 22 X s 2157 1332 m 22 X s 2157 1347 m 22 X s 2157 1360 m 22 X s 2157 1371 m 22 X s 2157 1380 m 22 X s 2157 1389 m 22 X s 2136 1396 m 43 X s 2157 1445 m 22 X s
 2157 1474 m 22 X s 2157 1494 m 22 X s 2157 1510 m 22 X s 2157 1523 m 22 X s 2157 1533 m 22 X s 2157 1543 m 22 X s 2157 1551 m 22 X s 2136 1559 m 43 X s 2157 1608 m 22 X s 2157 1636 m 22 X s 2157 1656 m 22 X s 2157 1672 m 22 X s 2157 1685 m 22 X s
 2157 1696 m 22 X s 2157 1705 m 22 X s 2157 1714 m 22 X s 2136 1721 m 43 X s
 gsave  2263 1770 2 313 C 406.765 1447.41 t 0 r /Helvetica findfont 64.4212 sf 0 0 m (CRT for MB\255GGo) show NC gr 
 gsave  2263 1770 2 313 C 1464.36 1616.89 t 0 r /Helvetica findfont 64.4212 sf 0 0 m (SM Total) show NC gr  1 1 1 c 1338 1603 m 107 X 74 Y -107 X f 1 0 0 c 6 lw 1338 1640 m 107 X s black
 gsave  2263 1770 2 313 C 1464.36 1511.81 t 0 r /Helvetica findfont 64.4212 sf 0 0 m (Data) show NC gr  1391 1502 m 64 Y s 3 lw 1391 1534 m20 6 lw
 gsave  2263 1770 2 313 C 1498.25 1406.73 t 0 r /Helvetica findfont 64.4212 sf 0 0 m (\(+EW\) & single top) show NC gr 
 gsave  2263 1770 2 313 C 1481.3 1406.73 t 0 r /Helvetica findfont 64.4212 sf 0 0 m (t) show NC gr  3 lw 1481 1458 m 17 X s
 gsave  2263 1770 2 313 C 1464.36 1406.73 t 0 r /Helvetica findfont 64.4212 sf 0 0 m (t) show NC gr  0.6 1 0.6 c 1338 1391 m 107 X 74 Y -107 X f black 1338 1465 m 107 X s 1338 1391 m 107 X s 1445 1391 m 74 Y s 1338 1391 m 74 Y s
 gsave  2263 1770 2 313 C 1464.36 1298.26 t 0 r /Helvetica findfont 64.4212 sf 0 0 m (W+jets) show NC gr  0.4 0.6 1 c 1338 1284 m 107 X 75 Y -107 X f black 1338 1359 m 107 X s 1338 1284 m 107 X s 1445 1284 m 75 Y s 1338 1284 m 75 Y s
 gsave  2263 1770 2 313 C 1464.36 1193.18 t 0 r /Helvetica findfont 64.4212 sf 0 0 m (Z+jets) show NC gr  1 0.8 0.4 c 1338 1178 m 107 X 75 Y -107 X f black 1338 1253 m 107 X s 1338 1178 m 107 X s 1445 1178 m 75 Y s 1338 1178 m 75 Y s
 gsave  2263 1770 2 313 C 1464.36 1088.1 t 0 r /Helvetica findfont 64.4212 sf 0 0 m (Diboson) show NC gr  1 0.4 0.6 c 1338 1072 m 107 X 74 Y -107 X f black 1338 1146 m 107 X s 1338 1072 m 107 X s 1445 1072 m 74 Y s 1338 1072 m 74 Y s
 gsave  2263 1770 2 313 C 911.832 1566.05 t 0 r /Helvetica findfont 44.0776 sf 0 0 m (\2551) show NC gr 
 gsave  2263 1770 2 313 C 471.17 1535.54 t 0 r /Helvetica findfont 64.4212 sf 0 0 m (=13TeV, 139 fb) show NC gr 
 gsave  2263 1770 2 313 C 440.662 1535.54 t 0 r /Helvetica findfont 64.4212 sf 0 0 m (s) show NC gr  6 lw 420 1573 m 7 -41 d s 3 lw 427 1532 m 7 61 d s 434 1593 m 37 X s 1 1 1 c 2254 561 2 2 bf black 1 1 1 c black 1860 358 318 187 bl 1 1 1 c black
 1860 358 318 187 bl 6 lw 1 1 1 c black 3 lw 364 354 m20 6 lw 3 lw 457 308 m20 6 lw 3 lw 550 285 m20 6 lw 3 lw 643 288 m20 6 lw 3 lw 736 289 m20 6 lw 3 lw 829 336 m20 6 lw 3 lw 318 187 m 1860 X s
 gsave  2254 561 2 2 C 1959.25 44.0662 t 0 r /Helvetica findfont 78.1689 sf 0 0 m ( [GeV]) show NC gr 
 gsave  2254 561 2 2 C 1928.75 -2.35513e-13 t 0 r /Helvetica findfont 50.9797 sf 0 0 m (T) show NC gr 
 gsave  2254 561 2 2 C 1657.57 44.0662 t 0 r /Helvetica findfont 78.1689 sf 0 0 m (1st jet p) show NC gr  434 201 m -14 Y s 481 194 m -7 Y s 527 194 m -7 Y s 574 194 m -7 Y s 620 194 m -7 Y s 667 201 m -14 Y s 713 194 m -7 Y s 760 194 m -7 Y s 806
 194 m -7 Y s 853 194 m -7 Y s 899 201 m -14 Y s 946 194 m -7 Y s 992 194 m -7 Y s 1039 194 m -7 Y s 1085 194 m -7 Y s 1132 201 m -14 Y s 1178 194 m -7 Y s 1225 194 m -7 Y s 1271 194 m -7 Y s 1318 194 m -7 Y s 1364 201 m -14 Y s 1411 194 m -7 Y s
 1457 194 m -7 Y s 1504 194 m -7 Y s 1550 194 m -7 Y s 1597 201 m -14 Y s 1643 194 m -7 Y s 1690 194 m -7 Y s 1737 194 m -7 Y s 1783 194 m -7 Y s 1830 201 m -14 Y s 1876 194 m -7 Y s 1923 194 m -7 Y s 1969 194 m -7 Y s 2016 194 m -7 Y s 2062 201 m
 -14 Y s 434 201 m -14 Y s 388 194 m -7 Y s 341 194 m -7 Y s 2062 201 m -14 Y s 2109 194 m -7 Y s 2155 194 m -7 Y s
 gsave  2254 561 2 2 C 369.478 118.64 t 0 r /Helvetica findfont 78.1689 sf 0 0 m (500) show NC gr 
 gsave  2254 561 2 2 C 576.251 118.64 t 0 r /Helvetica findfont 78.1689 sf 0 0 m (1000) show NC gr 
 gsave  2254 561 2 2 C 810.141 118.64 t 0 r /Helvetica findfont 78.1689 sf 0 0 m (1500) show NC gr 
 gsave  2254 561 2 2 C 1040.64 118.64 t 0 r /Helvetica findfont 78.1689 sf 0 0 m (2000) show NC gr 
 gsave  2254 561 2 2 C 1274.53 118.64 t 0 r /Helvetica findfont 78.1689 sf 0 0 m (2500) show NC gr 
 gsave  2254 561 2 2 C 1508.42 118.64 t 0 r /Helvetica findfont 78.1689 sf 0 0 m (3000) show NC gr 
 gsave  2254 561 2 2 C 1738.92 118.64 t 0 r /Helvetica findfont 78.1689 sf 0 0 m (3500) show NC gr 
 gsave  2254 561 2 2 C 1972.81 118.64 t 0 r /Helvetica findfont 78.1689 sf 0 0 m (4000) show NC gr  318 545 m 1860 X s 434 531 m 14 Y s 481 538 m 7 Y s 527 538 m 7 Y s 574 538 m 7 Y s 620 538 m 7 Y s 667 531 m 14 Y s 713 538 m 7 Y s 760 538 m 7 Y s
 806 538 m 7 Y s 853 538 m 7 Y s 899 531 m 14 Y s 946 538 m 7 Y s 992 538 m 7 Y s 1039 538 m 7 Y s 1085 538 m 7 Y s 1132 531 m 14 Y s 1178 538 m 7 Y s 1225 538 m 7 Y s 1271 538 m 7 Y s 1318 538 m 7 Y s 1364 531 m 14 Y s 1411 538 m 7 Y s 1457 538 m 7
 Y s 1504 538 m 7 Y s 1550 538 m 7 Y s 1597 531 m 14 Y s 1643 538 m 7 Y s 1690 538 m 7 Y s 1737 538 m 7 Y s 1783 538 m 7 Y s 1830 531 m 14 Y s 1876 538 m 7 Y s 1923 538 m 7 Y s 1969 538 m 7 Y s 2016 538 m 7 Y s 2062 531 m 14 Y s 434 531 m 14 Y s 388
 538 m 7 Y s 341 538 m 7 Y s 2062 531 m 14 Y s 2109 538 m 7 Y s 2155 538 m 7 Y s 318 187 m 358 Y s
 gsave  2254 561 2 2 C 166.096 284.736 t 90 r /Helvetica findfont 67.9729 sf 0 0 m (Data/SM) show NC gr  361 203 m -43 X s 339 220 m -21 X s 339 236 m -21 X s 339 252 m -21 X s 339 268 m -21 X s 361 285 m -43 X s 339 301 m -21 X s 339 317 m -21 X s
 339 334 m -21 X s 339 350 m -21 X s 361 366 m -43 X s 339 382 m -21 X s 339 399 m -21 X s 339 415 m -21 X s 339 431 m -21 X s 361 447 m -43 X s 339 464 m -21 X s 339 480 m -21 X s 339 496 m -21 X s 339 512 m -21 X s 361 529 m -43 X s 361 203 m -43 X
 s 339 187 m -21 X s 361 529 m -43 X s
 gsave  2254 561 2 2 C 261.008 183.044 t 0 r /Helvetica findfont 57.777 sf 0 0 m (0) show NC gr 
 gsave  2254 561 2 2 C 213.552 261.008 t 0 r /Helvetica findfont 57.777 sf 0 0 m (0.5) show NC gr 
 gsave  2254 561 2 2 C 271.177 342.361 t 0 r /Helvetica findfont 57.777 sf 0 0 m (1) show NC gr 
 gsave  2254 561 2 2 C 213.552 423.714 t 0 r /Helvetica findfont 57.777 sf 0 0 m (1.5) show NC gr 
 gsave  2254 561 2 2 C 261.008 505.067 t 0 r /Helvetica findfont 57.777 sf 0 0 m (2) show NC gr  2178 187 m 358 Y s 2135 203 m 43 X s 2157 220 m 21 X s 2157 236 m 21 X s 2157 252 m 21 X s 2157 268 m 21 X s 2135 285 m 43 X s 2157 301 m 21 X s 2157 317
 m 21 X s 2157 334 m 21 X s 2157 350 m 21 X s 2135 366 m 43 X s 2157 382 m 21 X s 2157 399 m 21 X s 2157 415 m 21 X s 2157 431 m 21 X s 2135 447 m 43 X s 2157 464 m 21 X s 2157 480 m 21 X s 2157 496 m 21 X s 2157 512 m 21 X s 2135 529 m 43 X s 2135
 203 m 43 X s 2157 187 m 21 X s 2135 529 m 43 X s 9 lw 643 302 m 5 Y s 643 307 m cl s 643 274 m -5 Y s 643 269 m cl s 736 303 m 16 Y s 736 319 m cl s 736 276 m -15 Y s 736 261 m cl s 829 350 m 43 Y s 829 393 m cl s 829 323 m -39 Y s 829 284 m cl s 3
 lw 364 354 457 308 550 285 643 288 736 289 829 336 6 { m20} R 9 lw 1 0 0 c 6 lw black 3 lw 1 0 0 c 2155 203 m cl s 2127 203 m cl s 2098 203 m cl s 2069 203 m cl s 2040 203 m cl s 2012 203 m cl s 1983 203 m cl s 1954 203 m cl s 1926 203 m cl s 1897
 203 m cl s 1868 203 m cl s 1840 203 m cl s 1811 203 m cl s 1782 203 m cl s 1754 203 m cl s 1725 203 m cl s 1696 203 m cl s 1667 203 m cl s 1639 203 m cl s 1620 214 m -14 -14 d s 1620 242 m -42 -42 d s 1620 271 m -71 -71 d s 1620 299 m -93 -92 d s
 1620 328 m -114 -114 d s 1620 356 m -142 -142 d s 1620 385 m -171 -171 d s 1620 414 m -186 -186 d s 1620 442 m -186 -185 d s 1620 471 m -203 -203 d s 1620 499 m -232 -231 d s 1620 528 m -260 -260 d s 1596 532 m -255 -254 d s 1567 532 m -236 -235 d s
 1539 532 m -12 -11 d s 1524 518 m -222 -221 d s 1495 518 m -221 -221 d s 1248 272 m -1 -2 d s 1466 518 m -32 -32 d s 1412 464 m -194 -194 d s 1438 518 m -4 -4 d s 1384 464 m -194 -194 d s 1355 464 m -14 -14 d s 1326 435 m -165 -165 d s 1297 435 m
 -142 -142 d s 1269 435 m -129 -129 d s 1248 443 m -137 -137 d s 1238 462 m -156 -156 d s 1209 462 m -147 -147 d s 1181 462 m -26 -26 d s 1145 426 m -86 -85 d s 1116 426 m -85 -85 d s 1087 426 m -25 -25 d s 1053 391 m -51 -50 d s 1024 391 m -51 -50 d
 s 995 391 m -52 -52 d s 968 393 m -54 -54 d s 940 393 m -54 -54 d s 911 393 m -46 -46 d s 882 393 m -6 -6 d s 874 385 m -38 -38 d s 846 385 m -39 -38 d s 817 385 m -34 -34 d s 788 385 m -33 -33 d s 755 380 m -29 -28 d s 726 380 m -29 -28 d s 698 380
 m -27 -26 d s 667 379 m -25 -25 d s 638 379 m -25 -25 d s 609 379 m -22 -23 d s 579 376 m -21 -20 d s 550 376 m -21 -20 d s 521 376 m -18 -18 d s 490 374 m -16 -16 d s 462 374 m -17 -16 d s 318 231 m s 433 374 m -16 -16 d s 318 259 m s 401 371 m -9
 -10 d s 318 288 m s 372 371 m -9 -10 d s 318 317 m s 343 371 m -9 -10 d s 318 345 m s 6 lw black[ 4 8] 0 sd 3 lw 318 447 m 1860 X s 318 285 m 1860 X s 1 0 0 c[  12 12 ] 0 sd 6 lw 318 366 m 1860 X s
 gr  gr showpage
end
%%EOF
