%!PS-Adobe-2.0 EPSF-2.0
%%BoundingBox:  0 0 567 521
%%Title: Distributions/jetPt_0__distrCRT_MB-GGo_afterFit_forThesis.eps: canvas
%%Creator: ROOT Version 6.04/16
%%CreationDate: Tue May 19 22:02:41 2020
%%DocumentNeededResources: ProcSet (FontSetInit)
%%EndComments
%%BeginProlog
80 dict begin
/s {stroke} def /l {lineto} def /m {moveto} def /t {translate} def
/r {rotate} def /rl {roll}  def /R {repeat} def
/d {rlineto} def /rm {rmoveto} def /gr {grestore} def /f {eofill} def
/c {setrgbcolor} def /black {0 setgray} def /sd {setdash} def
/cl {closepath} def /sf {scalefont setfont} def /lw {setlinewidth} def
/box {m dup 0 exch d exch 0 d 0 exch neg d cl} def
/NC{systemdict begin initclip end}def/C{NC box clip newpath}def
/bl {box s} def /bf {gsave box gsave f grestore 1 lw [] 0 sd s grestore} def /Y { 0 exch d} def /X { 0 d} def 
/K {{pop pop 0 moveto} exch kshow} bind def
/ita {/ang 15 def gsave [1 0 ang dup sin exch cos div 1 0 0] concat} def 
/mp {newpath /y exch def /x exch def} def
/side {[w .77 mul w .23 mul] .385 w mul sd w 0 l currentpoint t -144 r} def
/mr {mp x y w2 0 360 arc} def /m24 {mr s} def /m20 {mr f} def
/mb {mp x y w2 add m w2 neg 0 d 0 w neg d w 0 d 0 w d cl} def
/mt {mp x y w2 add m w2 neg w neg d w 0 d cl} def
/m21 {mb f} def /m25 {mb s} def /m22 {mt f} def /m26{mt s} def
/m23 {mp x y w2 sub m w2 w d w neg 0 d cl f} def
/m27 {mp x y w2 add m w3 neg w2 neg d w3 w2 neg d w3 w2 d cl s} def
/m28 {mp x w2 sub y w2 sub w3 add m w3 0 d  0 w3 neg d w3 0 d 0 w3 d w3 0 d  0 w3 d w3 neg 0 d 0 w3 d w3 neg 0 d 0 w3 neg d w3 neg 0 d cl s } def
/m29 {mp gsave x w2 sub y w2 add w3 sub m currentpoint t 4 {side} repeat cl fill gr} def
/m30 {mp gsave x w2 sub y w2 add w3 sub m currentpoint t 4 {side} repeat cl s gr} def
/m31 {mp x y w2 sub m 0 w d x w2 sub y m w 0 d x w2 sub y w2 add m w w neg d x w2 sub y w2 sub m w w d s} def
/m32 {mp x y w2 sub m w2 w d w neg 0 d cl s} def
/m33 {mp x y w2 add m w3 neg w2 neg d w3 w2 neg d w3 w2 d cl f} def
/m34 {mp x w2 sub y w2 sub w3 add m w3 0 d  0 w3 neg d w3 0 d 0 w3 d w3 0 d  0 w3 d w3 neg 0 d 0 w3 d w3 neg 0 d 0 w3 neg d w3 neg 0 d cl f } def
/m2 {mp x y w2 sub m 0 w d x w2 sub y m w 0 d s} def
/m5 {mp x w2 sub y w2 sub m w w d x w2 sub y w2 add m w w neg d s} def
%%IncludeResource: ProcSet (FontSetInit)
%%IncludeResource: font Times-Roman
%%IncludeResource: font Times-Italic
%%IncludeResource: font Times-Bold
%%IncludeResource: font Times-BoldItalic
%%IncludeResource: font Helvetica
%%IncludeResource: font Helvetica-Oblique
%%IncludeResource: font Helvetica-Bold
%%IncludeResource: font Helvetica-BoldOblique
%%IncludeResource: font Courier
%%IncludeResource: font Courier-Oblique
%%IncludeResource: font Courier-Bold
%%IncludeResource: font Courier-BoldOblique
%%IncludeResource: font Symbol
%%IncludeResource: font ZapfDingbats
/reEncode {exch findfont dup length dict begin {1 index /FID eq  {pop pop} {def} ifelse } forall /Encoding exch def currentdict end dup /FontName get exch definefont pop } def [/Times-Bold /Times-Italic /Times-BoldItalic /Helvetica /Helvetica-Oblique
 /Helvetica-Bold /Helvetica-BoldOblique /Courier /Courier-Oblique /Courier-Bold /Courier-BoldOblique /Times-Roman /AvantGarde-Book /AvantGarde-BookOblique /AvantGarde-Demi /AvantGarde-DemiOblique /Bookman-Demi /Bookman-DemiItalic /Bookman-Light
 /Bookman-LightItalic /Helvetica-Narrow /Helvetica-Narrow-Bold /Helvetica-Narrow-BoldOblique /Helvetica-Narrow-Oblique /NewCenturySchlbk-Roman /NewCenturySchlbk-Bold /NewCenturySchlbk-BoldItalic /NewCenturySchlbk-Italic /Palatino-Bold
 /Palatino-BoldItalic /Palatino-Italic /Palatino-Roman ] {ISOLatin1Encoding reEncode } forall
%%EndProlog
%%BeginSetup
%%EndSetup
newpath  gsave  .25 .25 scale  gsave  0 0 t black[  ] 0 sd 3 lw 1 1 1 c 2268 2085 0 0 bf black 1 1 1 c 2263 1770 2 313 bf black 1 1 1 c black 1860 1145 319 584 bl 1 1 1 c black 1860 1145 319 584 bl 6 lw 1 1 1 c black 3 lw /w 33 def /w2 {w 2 div} def
 /w3 {w 3 div} def 366 1161 m20 6 lw 3 lw 459 1072 m20 6 lw 3 lw 552 1007 m20 6 lw 645 942 m 4 Y s 645 973 m 1 Y s 3 lw 645 960 m20 6 lw 738 874 m 16 Y s 738 917 m 7 Y s 3 lw 738 903 m20 6 lw 831 837 m 24 Y s 831 888 m 11 Y s 3 lw 831 874 m20 6 lw
 1296 584 m 150 Y s 1296 761 m 36 Y s 3 lw 1296 747 m20 6 lw 3 lw 319 584 m 1860 X s
 gsave  2263 1770 2 313 C 1949.08 376.258 t 0 r /Helvetica findfont 81.3741 sf 0 0 m ( [GeV]) show NC gr 
 gsave  2263 1770 2 313 C 1915.19 332.192 t 0 r /Helvetica findfont 54.2494 sf 0 0 m (T) show NC gr 
 gsave  2263 1770 2 313 C 1630.45 376.258 t 0 r /Helvetica findfont 81.3741 sf 0 0 m (1st jet p) show NC gr  435 584 m cl s 482 584 m cl s 528 584 m cl s 575 584 m cl s 621 584 m cl s 668 584 m cl s 714 584 m cl s 761 584 m cl s 807 584 m cl s 854
 584 m cl s 900 584 m cl s 947 584 m cl s 993 584 m cl s 1040 584 m cl s 1087 584 m cl s 1133 584 m cl s 1180 584 m cl s 1226 584 m cl s 1273 584 m cl s 1319 584 m cl s 1366 584 m cl s 1412 584 m cl s 1459 584 m cl s 1505 584 m cl s 1552 584 m cl s
 1598 584 m cl s 1645 584 m cl s 1691 584 m cl s 1738 584 m cl s 1784 584 m cl s 1831 584 m cl s 1877 584 m cl s 1924 584 m cl s 1970 584 m cl s 2017 584 m cl s 2063 584 m cl s 435 584 m cl s 389 584 m cl s 342 584 m cl s 2063 584 m cl s 2110 584 m
 cl s 2156 584 m cl s 319 1729 m 1860 X s 435 1729 m cl s 482 1729 m cl s 528 1729 m cl s 575 1729 m cl s 621 1729 m cl s 668 1729 m cl s 714 1729 m cl s 761 1729 m cl s 807 1729 m cl s 854 1729 m cl s 900 1729 m cl s 947 1729 m cl s 993 1729 m cl s
 1040 1729 m cl s 1087 1729 m cl s 1133 1729 m cl s 1180 1729 m cl s 1226 1729 m cl s 1273 1729 m cl s 1319 1729 m cl s 1366 1729 m cl s 1412 1729 m cl s 1459 1729 m cl s 1505 1729 m cl s 1552 1729 m cl s 1598 1729 m cl s 1645 1729 m cl s 1691 1729 m
 cl s 1738 1729 m cl s 1784 1729 m cl s 1831 1729 m cl s 1877 1729 m cl s 1924 1729 m cl s 1970 1729 m cl s 2017 1729 m cl s 2063 1729 m cl s 435 1729 m cl s 389 1729 m cl s 342 1729 m cl s 2063 1729 m cl s 2110 1729 m cl s 2156 1729 m cl s 319 584 m
 1145 Y s
 gsave  2263 1770 2 313 C 166.096 1091.49 t 90 r /Helvetica findfont 81.3741 sf 0 0 m (Events / 200 GeV) show NC gr  341 633 m -22 X s 341 662 m -22 X s 341 683 m -22 X s 341 698 m -22 X s 341 711 m -22 X s 341 722 m -22 X s 341 732 m -22 X s 341 740
 m -22 X s 363 747 m -44 X s
 gsave  2263 1770 2 313 C 300.555 720.374 t 0 r  -36 0 t /Helvetica findfont 64.4212 sf 0 0 m (1) show NC gr  341 797 m -22 X s 341 825 m -22 X s 341 846 m -22 X s 341 862 m -22 X s 341 874 m -22 X s 341 885 m -22 X s 341 895 m -22 X s 341 903 m -22
 X s 363 911 m -44 X s
 gsave  2263 1770 2 313 C 300.555 883.556 t 0 r  -73 0 t /Helvetica findfont 64.4212 sf 0 0 m (10) show NC gr  341 960 m -22 X s 341 989 m -22 X s 341 1009 m -22 X s 341 1025 m -22 X s 341 1038 m -22 X s 341 1049 m -22 X s 341 1058 m -22 X s 341 1066
 m -22 X s 363 1074 m -44 X s
 gsave  2263 1770 2 313 C 274.567 1071.15 t 0 r /Helvetica findfont 44.0776 sf 0 0 m (2) show NC gr 
 gsave  2263 1770 2 313 C 203.383 1044.03 t 0 r /Helvetica findfont 64.4212 sf 0 0 m (10) show NC gr  341 1123 m -22 X s 341 1152 m -22 X s 341 1172 m -22 X s 341 1188 m -22 X s 341 1201 m -22 X s 341 1212 m -22 X s 341 1221 m -22 X s 341 1230 m -22
 X s 363 1237 m -44 X s
 gsave  2263 1770 2 313 C 274.567 1237.24 t 0 r /Helvetica findfont 44.0776 sf 0 0 m (3) show NC gr 
 gsave  2263 1770 2 313 C 203.383 1206.74 t 0 r /Helvetica findfont 64.4212 sf 0 0 m (10) show NC gr  341 1286 m -22 X s 341 1315 m -22 X s 341 1335 m -22 X s 341 1351 m -22 X s 341 1364 m -22 X s 341 1375 m -22 X s 341 1384 m -22 X s 341 1393 m -22
 X s 363 1400 m -44 X s
 gsave  2263 1770 2 313 C 274.567 1399.95 t 0 r /Helvetica findfont 44.0776 sf 0 0 m (4) show NC gr 
 gsave  2263 1770 2 313 C 203.383 1372.83 t 0 r /Helvetica findfont 64.4212 sf 0 0 m (10) show NC gr  341 1449 m -22 X s 341 1478 m -22 X s 341 1498 m -22 X s 341 1514 m -22 X s 341 1527 m -22 X s 341 1538 m -22 X s 341 1548 m -22 X s 341 1556 m -22
 X s 363 1563 m -44 X s
 gsave  2263 1770 2 313 C 274.567 1566.05 t 0 r /Helvetica findfont 44.0776 sf 0 0 m (5) show NC gr 
 gsave  2263 1770 2 313 C 203.383 1535.54 t 0 r /Helvetica findfont 64.4212 sf 0 0 m (10) show NC gr  341 1613 m -22 X s 341 1641 m -22 X s 341 1662 m -22 X s 341 1677 m -22 X s 341 1690 m -22 X s 341 1701 m -22 X s 341 1711 m -22 X s 341 1719 m -22
 X s 363 1727 m -44 X s
 gsave  2263 1770 2 313 C 274.567 1728.75 t 0 r /Helvetica findfont 44.0776 sf 0 0 m (6) show NC gr 
 gsave  2263 1770 2 313 C 203.383 1698.25 t 0 r /Helvetica findfont 64.4212 sf 0 0 m (10) show NC gr  2179 584 m 1145 Y s 2157 633 m 22 X s 2157 662 m 22 X s 2157 683 m 22 X s 2157 698 m 22 X s 2157 711 m 22 X s 2157 722 m 22 X s 2157 732 m 22 X s
 2157 740 m 22 X s 2136 747 m 43 X s 2157 797 m 22 X s 2157 825 m 22 X s 2157 846 m 22 X s 2157 862 m 22 X s 2157 874 m 22 X s 2157 885 m 22 X s 2157 895 m 22 X s 2157 903 m 22 X s 2136 911 m 43 X s 2157 960 m 22 X s 2157 989 m 22 X s 2157 1009 m 22
 X s 2157 1025 m 22 X s 2157 1038 m 22 X s 2157 1049 m 22 X s 2157 1058 m 22 X s 2157 1066 m 22 X s 2136 1074 m 43 X s 2157 1123 m 22 X s 2157 1152 m 22 X s 2157 1172 m 22 X s 2157 1188 m 22 X s 2157 1201 m 22 X s 2157 1212 m 22 X s 2157 1221 m 22 X
 s 2157 1230 m 22 X s 2136 1237 m 43 X s 2157 1286 m 22 X s 2157 1315 m 22 X s 2157 1335 m 22 X s 2157 1351 m 22 X s 2157 1364 m 22 X s 2157 1375 m 22 X s 2157 1384 m 22 X s 2157 1393 m 22 X s 2136 1400 m 43 X s 2157 1449 m 22 X s 2157 1478 m 22 X s
 2157 1498 m 22 X s 2157 1514 m 22 X s 2157 1527 m 22 X s 2157 1538 m 22 X s 2157 1548 m 22 X s 2157 1556 m 22 X s 2136 1563 m 43 X s 2157 1613 m 22 X s 2157 1641 m 22 X s 2157 1662 m 22 X s 2157 1677 m 22 X s 2157 1690 m 22 X s 2157 1701 m 22 X s
 2157 1711 m 22 X s 2157 1719 m 22 X s 2136 1727 m 43 X s 0.6 1 0.6 c black 0.6 1 0.6 c 319 584 m 573 Y 93 X -75 Y 93 X -60 Y 93 X -62 Y 93 X -68 Y 93 X -66 Y 93 X -64 Y 93 X -93 Y 93 X 3 Y 93 X 11 Y 93 X -99 Y 930 X f black 0.6 1 0.6 c black 319
 1157 m 93 X -75 Y 93 X -60 Y 93 X -62 Y 93 X -68 Y 93 X -66 Y 93 X -64 Y 93 X -93 Y 93 X 3 Y 93 X 11 Y 93 X -99 Y 930 X s 0.999 0.999 0.999 c black 0.999 0.999 0.999 c 319 584 m 406 Y 93 X -46 Y 93 X -52 Y 93 X -50 Y 93 X -53 Y 93 X -76 Y 93 X -15 Y
 93 X -114 Y 93 X 75 Y 93 X 18 Y 93 X -93 Y 930 X f black 0.999 0.999 0.999 c black 319 990 m 93 X -46 Y 93 X -52 Y 93 X -50 Y 93 X -53 Y 93 X -76 Y 93 X -15 Y 93 X -114 Y 93 X 75 Y 93 X 18 Y 93 X -93 Y 930 X s 1 1 1 c black 319 990 m 93 X -46 Y 93 X
 -52 Y 93 X -50 Y 93 X -53 Y 93 X -76 Y 93 X -15 Y 93 X -114 Y 93 X 75 Y 93 X 18 Y 93 X -93 Y 930 X s 0.4 0.6 1 c black 0.4 0.6 1 c 319 584 m 406 Y 93 X -46 Y 93 X -52 Y 93 X -50 Y 93 X -53 Y 93 X -76 Y 93 X -15 Y 93 X -114 Y 93 X 75 Y 93 X 18 Y 93 X
 -93 Y 930 X f black 0.4 0.6 1 c black 319 990 m 93 X -46 Y 93 X -52 Y 93 X -50 Y 93 X -53 Y 93 X -76 Y 93 X -15 Y 93 X -114 Y 93 X 75 Y 93 X 18 Y 93 X -93 Y 930 X s 0.999 0.999 0.999 c black 0.999 0.999 0.999 c 319 584 m 260 Y 93 X -41 Y 93 X -27 Y
 93 X -56 Y 93 X -92 Y 93 X -44 Y 93 X 48 Y 93 X -48 Y 93 X 52 Y 93 X -52 Y 1023 X f black 0.999 0.999 0.999 c black 319 844 m 93 X -41 Y 93 X -27 Y 93 X -56 Y 93 X -92 Y 93 X -44 Y 93 X 48 Y 93 X -48 Y 93 X 52 Y 93 X -52 Y 1023 X s 1 1 1 c black 319
 844 m 93 X -41 Y 93 X -27 Y 93 X -56 Y 93 X -92 Y 93 X -44 Y 93 X 48 Y 93 X -48 Y 93 X 52 Y 93 X -52 Y 1023 X s 1 0.8 0.4 c black 1 0.8 0.4 c 319 584 m 260 Y 93 X -41 Y 93 X -27 Y 93 X -56 Y 93 X -92 Y 93 X -44 Y 93 X 48 Y 93 X -48 Y 93 X 52 Y 93 X
 -52 Y 1023 X f black 1 0.8 0.4 c black 319 844 m 93 X -41 Y 93 X -27 Y 93 X -56 Y 93 X -92 Y 93 X -44 Y 93 X 48 Y 93 X -48 Y 93 X 52 Y 93 X -52 Y 1023 X s 0.999 0.999 0.999 c black 0.999 0.999 0.999 c 319 584 m 257 Y 93 X -42 Y 93 X -25 Y 93 X -58 Y
 93 X -121 Y 93 X -11 Y 93 X 48 Y 93 X -48 Y 93 X 52 Y 93 X -52 Y 1023 X f black 0.999 0.999 0.999 c black 319 841 m 93 X -42 Y 93 X -25 Y 93 X -58 Y 93 X -121 Y 93 X -11 Y 93 X 48 Y 93 X -48 Y 93 X 52 Y 93 X -52 Y 1023 X s 1 1 1 c black 319 841 m 93
 X -42 Y 93 X -25 Y 93 X -58 Y 93 X -121 Y 93 X -11 Y 93 X 48 Y 93 X -48 Y 93 X 52 Y 93 X -52 Y 1023 X s 1 0.4 0.6 c black 1 0.4 0.6 c 319 584 m 257 Y 93 X -42 Y 93 X -25 Y 93 X -58 Y 93 X -121 Y 93 X -11 Y 93 X 48 Y 93 X -48 Y 93 X 52 Y 93 X -52 Y
 1023 X f black 1 0.4 0.6 c black 319 841 m 93 X -42 Y 93 X -25 Y 93 X -58 Y 93 X -121 Y 93 X -11 Y 93 X 48 Y 93 X -48 Y 93 X 52 Y 93 X -52 Y 1023 X s 1 0 0 c 6 lw 1 1 1 c black 1 0 0 c 319 1157 m 93 X -75 Y 93 X -60 Y 93 X -62 Y 93 X -68 Y 93 X -66
 Y 93 X -64 Y 93 X -93 Y 93 X 3 Y 93 X 11 Y 93 X -99 Y 930 X s black 3 lw 1 0 0 c 1 lw << /PatternType 1 /PaintType 2 /TilingType 1 /BBox [ 0 0 100 100 ] /XStep 100 /YStep 100 /PaintProc { begin gsave 0 100 m 100 0 l s gr end } >> [ 0.24 0 0 0.24 0 0
 ] makepattern /P05 exch def /cs {[/Pattern /DeviceRGB] setcolorspace} def /FA {f [/DeviceRGB] setcolorspace} def cs 1 0 0 P05 setcolor 319 584 m 577 Y 93 X -76 Y 93 X -58 Y 93 X -60 Y 93 X -65 Y 93 X -60 Y 93 X -57 Y 93 X -77 Y 93 X -12 Y 93 X 20 Y
 93 X -132 Y 33 Y -93 X 19 Y -93 X -52 Y -93 X 145 Y -93 X 75 Y -93 X 77 Y -93 X 71 Y -93 X 65 Y -93 X 60 Y -93 X 76 Y -93 X -569 Y FA 6 lw 1 1 1 c 15 lw 738 924 m s 738 924 m cl s 738 883 m -8 Y s 738 875 m cl s 831 895 m 5 Y s 831 900 m cl s 831
 854 m -15 Y s 831 839 m cl s 1296 768 m 38 Y s 1296 806 m cl s 1296 727 m -103 Y s 1296 624 m cl s black 1 1 1 c 3 lw /w 43 def /w2 {w 2 div} def /w3 {w 3 div} def 366 1161 459 1072 552 1007 645 960 738 903 831 874 6 { m20} R 15 lw 3 lw 1296 747 m20
 15 lw black 6 lw 1 1 1 c black 3 lw /w 33 def /w2 {w 2 div} def /w3 {w 3 div} def 366 1161 m20 6 lw 3 lw 459 1072 m20 6 lw 3 lw 552 1007 m20 6 lw 645 942 m 4 Y s 645 973 m 1 Y s 3 lw 645 960 m20 6 lw 738 874 m 16 Y s 738 917 m 7 Y s 3 lw 738 903 m20
 6 lw 831 837 m 24 Y s 831 888 m 11 Y s 3 lw 831 874 m20 6 lw 1296 584 m 150 Y s 1296 761 m 36 Y s 3 lw 1296 747 m20 6 lw 645 973 m 1 Y s 645 974 m cl s 645 946 m -4 Y s 645 942 m cl s 738 917 m 7 Y s 738 924 m cl s 738 890 m -15 Y s 738 875 m cl s
 831 888 m 12 Y s 831 900 m cl s 831 861 m -22 Y s 831 839 m cl s 1296 761 m 45 Y s 1296 806 m cl s 1296 734 m -110 Y s 1296 624 m cl s 3 lw 366 1161 459 1072 552 1007 645 960 738 903 831 874 6 { m20} R 6 lw 3 lw 1296 747 m20 6 lw 3 lw 319 584 m 1860
 X s 435 584 m cl s 482 584 m cl s 528 584 m cl s 575 584 m cl s 621 584 m cl s 668 584 m cl s 714 584 m cl s 761 584 m cl s 807 584 m cl s 854 584 m cl s 900 584 m cl s 947 584 m cl s 993 584 m cl s 1040 584 m cl s 1087 584 m cl s 1133 584 m cl s
 1180 584 m cl s 1226 584 m cl s 1273 584 m cl s 1319 584 m cl s 1366 584 m cl s 1412 584 m cl s 1459 584 m cl s 1505 584 m cl s 1552 584 m cl s 1598 584 m cl s 1645 584 m cl s 1691 584 m cl s 1738 584 m cl s 1784 584 m cl s 1831 584 m cl s 1877 584
 m cl s 1924 584 m cl s 1970 584 m cl s 2017 584 m cl s 2063 584 m cl s 435 584 m cl s 389 584 m cl s 342 584 m cl s 2063 584 m cl s 2110 584 m cl s 2156 584 m cl s 319 1729 m 1860 X s 435 1729 m cl s 482 1729 m cl s 528 1729 m cl s 575 1729 m cl s
 621 1729 m cl s 668 1729 m cl s 714 1729 m cl s 761 1729 m cl s 807 1729 m cl s 854 1729 m cl s 900 1729 m cl s 947 1729 m cl s 993 1729 m cl s 1040 1729 m cl s 1087 1729 m cl s 1133 1729 m cl s 1180 1729 m cl s 1226 1729 m cl s 1273 1729 m cl s
 1319 1729 m cl s 1366 1729 m cl s 1412 1729 m cl s 1459 1729 m cl s 1505 1729 m cl s 1552 1729 m cl s 1598 1729 m cl s 1645 1729 m cl s 1691 1729 m cl s 1738 1729 m cl s 1784 1729 m cl s 1831 1729 m cl s 1877 1729 m cl s 1924 1729 m cl s 1970 1729 m
 cl s 2017 1729 m cl s 2063 1729 m cl s 435 1729 m cl s 389 1729 m cl s 342 1729 m cl s 2063 1729 m cl s 2110 1729 m cl s 2156 1729 m cl s 319 584 m 1145 Y s 341 633 m -22 X s 341 662 m -22 X s 341 683 m -22 X s 341 698 m -22 X s 341 711 m -22 X s
 341 722 m -22 X s 341 732 m -22 X s 341 740 m -22 X s 363 747 m -44 X s 341 797 m -22 X s 341 825 m -22 X s 341 846 m -22 X s 341 862 m -22 X s 341 874 m -22 X s 341 885 m -22 X s 341 895 m -22 X s 341 903 m -22 X s 363 911 m -44 X s 341 960 m -22 X
 s 341 989 m -22 X s 341 1009 m -22 X s 341 1025 m -22 X s 341 1038 m -22 X s 341 1049 m -22 X s 341 1058 m -22 X s 341 1066 m -22 X s 363 1074 m -44 X s 341 1123 m -22 X s 341 1152 m -22 X s 341 1172 m -22 X s 341 1188 m -22 X s 341 1201 m -22 X s
 341 1212 m -22 X s 341 1221 m -22 X s 341 1230 m -22 X s 363 1237 m -44 X s 341 1286 m -22 X s 341 1315 m -22 X s 341 1335 m -22 X s 341 1351 m -22 X s 341 1364 m -22 X s 341 1375 m -22 X s 341 1384 m -22 X s 341 1393 m -22 X s 363 1400 m -44 X s
 341 1449 m -22 X s 341 1478 m -22 X s 341 1498 m -22 X s 341 1514 m -22 X s 341 1527 m -22 X s 341 1538 m -22 X s 341 1548 m -22 X s 341 1556 m -22 X s 363 1563 m -44 X s 341 1613 m -22 X s 341 1641 m -22 X s 341 1662 m -22 X s 341 1677 m -22 X s
 341 1690 m -22 X s 341 1701 m -22 X s 341 1711 m -22 X s 341 1719 m -22 X s 363 1727 m -44 X s 2179 584 m 1145 Y s 2157 633 m 22 X s 2157 662 m 22 X s 2157 683 m 22 X s 2157 698 m 22 X s 2157 711 m 22 X s 2157 722 m 22 X s 2157 732 m 22 X s 2157 740
 m 22 X s 2136 747 m 43 X s 2157 797 m 22 X s 2157 825 m 22 X s 2157 846 m 22 X s 2157 862 m 22 X s 2157 874 m 22 X s 2157 885 m 22 X s 2157 895 m 22 X s 2157 903 m 22 X s 2136 911 m 43 X s 2157 960 m 22 X s 2157 989 m 22 X s 2157 1009 m 22 X s 2157
 1025 m 22 X s 2157 1038 m 22 X s 2157 1049 m 22 X s 2157 1058 m 22 X s 2157 1066 m 22 X s 2136 1074 m 43 X s 2157 1123 m 22 X s 2157 1152 m 22 X s 2157 1172 m 22 X s 2157 1188 m 22 X s 2157 1201 m 22 X s 2157 1212 m 22 X s 2157 1221 m 22 X s 2157
 1230 m 22 X s 2136 1237 m 43 X s 2157 1286 m 22 X s 2157 1315 m 22 X s 2157 1335 m 22 X s 2157 1351 m 22 X s 2157 1364 m 22 X s 2157 1375 m 22 X s 2157 1384 m 22 X s 2157 1393 m 22 X s 2136 1400 m 43 X s 2157 1449 m 22 X s 2157 1478 m 22 X s 2157
 1498 m 22 X s 2157 1514 m 22 X s 2157 1527 m 22 X s 2157 1538 m 22 X s 2157 1548 m 22 X s 2157 1556 m 22 X s 2136 1563 m 43 X s 2157 1613 m 22 X s 2157 1641 m 22 X s 2157 1662 m 22 X s 2157 1677 m 22 X s 2157 1690 m 22 X s 2157 1701 m 22 X s 2157
 1711 m 22 X s 2157 1719 m 22 X s 2136 1727 m 43 X s
 gsave  2263 1770 2 313 C 406.765 1447.41 t 0 r /Helvetica findfont 64.4212 sf 0 0 m (CRT for MB\255GGo) show NC gr 
 gsave  2263 1770 2 313 C 1464.36 1616.89 t 0 r /Helvetica findfont 64.4212 sf 0 0 m (SM Total) show NC gr  1 1 1 c 1338 1603 m 107 X 74 Y -107 X f 1 0 0 c 6 lw 1338 1640 m 107 X s black
 gsave  2263 1770 2 313 C 1464.36 1511.81 t 0 r /Helvetica findfont 64.4212 sf 0 0 m (Data) show NC gr  1391 1502 m 64 Y s 3 lw 1391 1534 m20 6 lw
 gsave  2263 1770 2 313 C 1498.25 1406.73 t 0 r /Helvetica findfont 64.4212 sf 0 0 m (\(+EW\) & single top) show NC gr 
 gsave  2263 1770 2 313 C 1481.3 1406.73 t 0 r /Helvetica findfont 64.4212 sf 0 0 m (t) show NC gr  3 lw 1481 1458 m 17 X s
 gsave  2263 1770 2 313 C 1464.36 1406.73 t 0 r /Helvetica findfont 64.4212 sf 0 0 m (t) show NC gr  0.6 1 0.6 c 1338 1391 m 107 X 74 Y -107 X f black 1338 1465 m 107 X s 1338 1391 m 107 X s 1445 1391 m 74 Y s 1338 1391 m 74 Y s
 gsave  2263 1770 2 313 C 1464.36 1298.26 t 0 r /Helvetica findfont 64.4212 sf 0 0 m (W+jets) show NC gr  0.4 0.6 1 c 1338 1284 m 107 X 75 Y -107 X f black 1338 1359 m 107 X s 1338 1284 m 107 X s 1445 1284 m 75 Y s 1338 1284 m 75 Y s
 gsave  2263 1770 2 313 C 1464.36 1193.18 t 0 r /Helvetica findfont 64.4212 sf 0 0 m (Z+jets) show NC gr  1 0.8 0.4 c 1338 1178 m 107 X 75 Y -107 X f black 1338 1253 m 107 X s 1338 1178 m 107 X s 1445 1178 m 75 Y s 1338 1178 m 75 Y s
 gsave  2263 1770 2 313 C 1464.36 1088.1 t 0 r /Helvetica findfont 64.4212 sf 0 0 m (Diboson) show NC gr  1 0.4 0.6 c 1338 1072 m 107 X 74 Y -107 X f black 1338 1146 m 107 X s 1338 1072 m 107 X s 1445 1072 m 74 Y s 1338 1072 m 74 Y s
 gsave  2263 1770 2 313 C 911.832 1566.05 t 0 r /Helvetica findfont 44.0776 sf 0 0 m (\2551) show NC gr 
 gsave  2263 1770 2 313 C 471.17 1535.54 t 0 r /Helvetica findfont 64.4212 sf 0 0 m (=13TeV, 139 fb) show NC gr 
 gsave  2263 1770 2 313 C 440.662 1535.54 t 0 r /Helvetica findfont 64.4212 sf 0 0 m (s) show NC gr  6 lw 420 1573 m 7 -41 d s 3 lw 427 1532 m 7 61 d s 434 1593 m 37 X s 1 1 1 c 2254 561 2 2 bf black 1 1 1 c black 1860 358 318 187 bl 1 1 1 c black
 1860 358 318 187 bl 6 lw 1 1 1 c black 3 lw 364 377 m20 6 lw 3 lw 457 346 m20 6 lw 3 lw 550 335 m20 6 lw 3 lw 643 365 m20 6 lw 3 lw 736 393 m20 6 lw 3 lw 829 528 m20 6 lw 3 lw 318 187 m 1860 X s
 gsave  2254 561 2 2 C 1959.25 44.0662 t 0 r /Helvetica findfont 78.1689 sf 0 0 m ( [GeV]) show NC gr 
 gsave  2254 561 2 2 C 1928.75 -2.35513e-13 t 0 r /Helvetica findfont 50.9797 sf 0 0 m (T) show NC gr 
 gsave  2254 561 2 2 C 1657.57 44.0662 t 0 r /Helvetica findfont 78.1689 sf 0 0 m (1st jet p) show NC gr  434 201 m -14 Y s 481 194 m -7 Y s 527 194 m -7 Y s 574 194 m -7 Y s 620 194 m -7 Y s 667 201 m -14 Y s 713 194 m -7 Y s 760 194 m -7 Y s 806
 194 m -7 Y s 853 194 m -7 Y s 899 201 m -14 Y s 946 194 m -7 Y s 992 194 m -7 Y s 1039 194 m -7 Y s 1085 194 m -7 Y s 1132 201 m -14 Y s 1178 194 m -7 Y s 1225 194 m -7 Y s 1271 194 m -7 Y s 1318 194 m -7 Y s 1364 201 m -14 Y s 1411 194 m -7 Y s
 1457 194 m -7 Y s 1504 194 m -7 Y s 1550 194 m -7 Y s 1597 201 m -14 Y s 1643 194 m -7 Y s 1690 194 m -7 Y s 1737 194 m -7 Y s 1783 194 m -7 Y s 1830 201 m -14 Y s 1876 194 m -7 Y s 1923 194 m -7 Y s 1969 194 m -7 Y s 2016 194 m -7 Y s 2062 201 m
 -14 Y s 434 201 m -14 Y s 388 194 m -7 Y s 341 194 m -7 Y s 2062 201 m -14 Y s 2109 194 m -7 Y s 2155 194 m -7 Y s
 gsave  2254 561 2 2 C 369.478 118.64 t 0 r /Helvetica findfont 78.1689 sf 0 0 m (500) show NC gr 
 gsave  2254 561 2 2 C 576.251 118.64 t 0 r /Helvetica findfont 78.1689 sf 0 0 m (1000) show NC gr 
 gsave  2254 561 2 2 C 810.141 118.64 t 0 r /Helvetica findfont 78.1689 sf 0 0 m (1500) show NC gr 
 gsave  2254 561 2 2 C 1040.64 118.64 t 0 r /Helvetica findfont 78.1689 sf 0 0 m (2000) show NC gr 
 gsave  2254 561 2 2 C 1274.53 118.64 t 0 r /Helvetica findfont 78.1689 sf 0 0 m (2500) show NC gr 
 gsave  2254 561 2 2 C 1508.42 118.64 t 0 r /Helvetica findfont 78.1689 sf 0 0 m (3000) show NC gr 
 gsave  2254 561 2 2 C 1738.92 118.64 t 0 r /Helvetica findfont 78.1689 sf 0 0 m (3500) show NC gr 
 gsave  2254 561 2 2 C 1972.81 118.64 t 0 r /Helvetica findfont 78.1689 sf 0 0 m (4000) show NC gr  318 545 m 1860 X s 434 531 m 14 Y s 481 538 m 7 Y s 527 538 m 7 Y s 574 538 m 7 Y s 620 538 m 7 Y s 667 531 m 14 Y s 713 538 m 7 Y s 760 538 m 7 Y s
 806 538 m 7 Y s 853 538 m 7 Y s 899 531 m 14 Y s 946 538 m 7 Y s 992 538 m 7 Y s 1039 538 m 7 Y s 1085 538 m 7 Y s 1132 531 m 14 Y s 1178 538 m 7 Y s 1225 538 m 7 Y s 1271 538 m 7 Y s 1318 538 m 7 Y s 1364 531 m 14 Y s 1411 538 m 7 Y s 1457 538 m 7
 Y s 1504 538 m 7 Y s 1550 538 m 7 Y s 1597 531 m 14 Y s 1643 538 m 7 Y s 1690 538 m 7 Y s 1737 538 m 7 Y s 1783 538 m 7 Y s 1830 531 m 14 Y s 1876 538 m 7 Y s 1923 538 m 7 Y s 1969 538 m 7 Y s 2016 538 m 7 Y s 2062 531 m 14 Y s 434 531 m 14 Y s 388
 538 m 7 Y s 341 538 m 7 Y s 2062 531 m 14 Y s 2109 538 m 7 Y s 2155 538 m 7 Y s 318 187 m 358 Y s
 gsave  2254 561 2 2 C 166.096 284.736 t 90 r /Helvetica findfont 67.9729 sf 0 0 m (Data/SM) show NC gr  361 203 m -43 X s 339 220 m -21 X s 339 236 m -21 X s 339 252 m -21 X s 339 268 m -21 X s 361 285 m -43 X s 339 301 m -21 X s 339 317 m -21 X s
 339 334 m -21 X s 339 350 m -21 X s 361 366 m -43 X s 339 382 m -21 X s 339 399 m -21 X s 339 415 m -21 X s 339 431 m -21 X s 361 447 m -43 X s 339 464 m -21 X s 339 480 m -21 X s 339 496 m -21 X s 339 512 m -21 X s 361 529 m -43 X s 361 203 m -43 X
 s 339 187 m -21 X s 361 529 m -43 X s
 gsave  2254 561 2 2 C 261.008 183.044 t 0 r /Helvetica findfont 57.777 sf 0 0 m (0) show NC gr 
 gsave  2254 561 2 2 C 213.552 261.008 t 0 r /Helvetica findfont 57.777 sf 0 0 m (0.5) show NC gr 
 gsave  2254 561 2 2 C 271.177 342.361 t 0 r /Helvetica findfont 57.777 sf 0 0 m (1) show NC gr 
 gsave  2254 561 2 2 C 213.552 423.714 t 0 r /Helvetica findfont 57.777 sf 0 0 m (1.5) show NC gr 
 gsave  2254 561 2 2 C 261.008 505.067 t 0 r /Helvetica findfont 57.777 sf 0 0 m (2) show NC gr  2178 187 m 358 Y s 2135 203 m 43 X s 2157 220 m 21 X s 2157 236 m 21 X s 2157 252 m 21 X s 2157 268 m 21 X s 2135 285 m 43 X s 2157 301 m 21 X s 2157 317
 m 21 X s 2157 334 m 21 X s 2157 350 m 21 X s 2135 366 m 43 X s 2157 382 m 21 X s 2157 399 m 21 X s 2157 415 m 21 X s 2157 431 m 21 X s 2135 447 m 43 X s 2157 464 m 21 X s 2157 480 m 21 X s 2157 496 m 21 X s 2157 512 m 21 X s 2135 529 m 43 X s 2135
 203 m 43 X s 2157 187 m 21 X s 2135 529 m 43 X s 9 lw 457 360 m 1 Y s 457 361 m cl s 457 333 m -1 Y s 457 332 m cl s 550 348 m 8 Y s 550 356 m cl s 550 321 m -7 Y s 550 314 m cl s 643 379 m 23 Y s 643 402 m cl s 643 352 m -22 Y s 643 330 m cl s 736
 407 m 51 Y s 736 458 m cl s 736 379 m -48 Y s 736 331 m cl s 829 541 m 4 Y s 829 545 m cl s 829 514 m -114 Y s 829 400 m cl s 3 lw 364 377 457 346 550 335 643 365 736 393 829 528 6 { m20} R 9 lw 1 0 0 c 6 lw black 3 lw 1 0 0 c 2155 203 m cl s 2127
 203 m cl s 2098 203 m cl s 2069 203 m cl s 2040 203 m cl s 2012 203 m cl s 1983 203 m cl s 1954 203 m cl s 1926 203 m cl s 1897 203 m cl s 1868 203 m cl s 1840 203 m cl s 1811 203 m cl s 1782 203 m cl s 1754 203 m cl s 1725 203 m cl s 1696 203 m cl
 s 1667 203 m cl s 1639 203 m cl s 1620 214 m -15 -15 d s 1620 242 m -43 -43 d s 1620 271 m -72 -72 d s 1620 299 m -112 -112 d s 1620 328 m -141 -141 d s 1620 356 m -170 -169 d s 1620 385 m -198 -198 d s 1620 414 m -227 -227 d s 1620 442 m -256 -255
 d s 1620 471 m -279 -278 d s 1620 499 m -279 -278 d s 1620 528 m -279 -278 d s 1597 533 m -256 -255 d s 1568 533 m -242 -241 d s 1540 533 m -243 -241 d s 1522 545 m -253 -253 d s 1248 272 m -4 -4 d s 1494 545 m -278 -277 d s 1465 545 m -278 -277 d s
 1436 545 m -95 -95 d s 1331 440 m -173 -172 d s 1408 545 m -67 -66 d s 1302 440 m -147 -147 d s 1379 545 m -38 -38 d s 1274 440 m -140 -140 d s 1350 545 m -9 -9 d s 1248 443 m -143 -143 d s 1062 258 m -8 -8 d s 1241 464 m -165 -164 d s 1062 286 m
 -37 -36 d s 1212 464 m -215 -214 d s 1183 464 m -28 -28 d s 1151 432 m -182 -181 d s 1122 432 m -153 -153 d s 1093 432 m -127 -127 d s 1064 432 m -127 -127 d s 1062 458 m -153 -153 d s 1058 482 m -178 -177 d s 1029 482 m -160 -159 d s 1000 482 m -31
 -31 d s 945 427 m -104 -104 d s 972 482 m -3 -3 d s 916 427 m -104 -104 d s 888 427 m -12 -12 d s 870 409 m -87 -86 d s 841 409 m -68 -68 d s 812 409 m -68 -68 d s 784 409 m -1 -1 d s 766 391 m -51 -50 d s 737 391 m -47 -47 d s 708 391 m -43 -43 d s
 672 384 m -35 -36 d s 643 384 m -35 -36 d s 615 384 m -30 -30 d s 580 378 m -24 -24 d s 552 378 m -24 -24 d s 523 378 m -22 -21 d s 492 375 m -19 -18 d s 463 375 m -19 -18 d s 318 231 m s 434 375 m -19 -18 d s 318 259 m s 405 375 m -18 -18 d s 318
 288 m s 377 375 m -19 -18 d s 318 317 m s 348 375 m -19 -18 d s 318 345 m s 319 375 m -1 -1 d s 6 lw black[ 4 8] 0 sd 3 lw 318 447 m 1860 X s 318 285 m 1860 X s 1 0 0 c[  12 12 ] 0 sd 6 lw 318 366 m 1860 X s
 gr  gr showpage
end
%%EOF
