%!PS-Adobe-2.0 EPSF-2.0
%%BoundingBox:  0 0 567 521
%%Title: Distributions/jetPt_0__distrCRW_MB-GGo_beforeFit_forThesis.eps: canvas
%%Creator: ROOT Version 6.04/16
%%CreationDate: Tue May 19 22:02:56 2020
%%DocumentNeededResources: ProcSet (FontSetInit)
%%EndComments
%%BeginProlog
80 dict begin
/s {stroke} def /l {lineto} def /m {moveto} def /t {translate} def
/r {rotate} def /rl {roll}  def /R {repeat} def
/d {rlineto} def /rm {rmoveto} def /gr {grestore} def /f {eofill} def
/c {setrgbcolor} def /black {0 setgray} def /sd {setdash} def
/cl {closepath} def /sf {scalefont setfont} def /lw {setlinewidth} def
/box {m dup 0 exch d exch 0 d 0 exch neg d cl} def
/NC{systemdict begin initclip end}def/C{NC box clip newpath}def
/bl {box s} def /bf {gsave box gsave f grestore 1 lw [] 0 sd s grestore} def /Y { 0 exch d} def /X { 0 d} def 
/K {{pop pop 0 moveto} exch kshow} bind def
/ita {/ang 15 def gsave [1 0 ang dup sin exch cos div 1 0 0] concat} def 
/mp {newpath /y exch def /x exch def} def
/side {[w .77 mul w .23 mul] .385 w mul sd w 0 l currentpoint t -144 r} def
/mr {mp x y w2 0 360 arc} def /m24 {mr s} def /m20 {mr f} def
/mb {mp x y w2 add m w2 neg 0 d 0 w neg d w 0 d 0 w d cl} def
/mt {mp x y w2 add m w2 neg w neg d w 0 d cl} def
/m21 {mb f} def /m25 {mb s} def /m22 {mt f} def /m26{mt s} def
/m23 {mp x y w2 sub m w2 w d w neg 0 d cl f} def
/m27 {mp x y w2 add m w3 neg w2 neg d w3 w2 neg d w3 w2 d cl s} def
/m28 {mp x w2 sub y w2 sub w3 add m w3 0 d  0 w3 neg d w3 0 d 0 w3 d w3 0 d  0 w3 d w3 neg 0 d 0 w3 d w3 neg 0 d 0 w3 neg d w3 neg 0 d cl s } def
/m29 {mp gsave x w2 sub y w2 add w3 sub m currentpoint t 4 {side} repeat cl fill gr} def
/m30 {mp gsave x w2 sub y w2 add w3 sub m currentpoint t 4 {side} repeat cl s gr} def
/m31 {mp x y w2 sub m 0 w d x w2 sub y m w 0 d x w2 sub y w2 add m w w neg d x w2 sub y w2 sub m w w d s} def
/m32 {mp x y w2 sub m w2 w d w neg 0 d cl s} def
/m33 {mp x y w2 add m w3 neg w2 neg d w3 w2 neg d w3 w2 d cl f} def
/m34 {mp x w2 sub y w2 sub w3 add m w3 0 d  0 w3 neg d w3 0 d 0 w3 d w3 0 d  0 w3 d w3 neg 0 d 0 w3 d w3 neg 0 d 0 w3 neg d w3 neg 0 d cl f } def
/m2 {mp x y w2 sub m 0 w d x w2 sub y m w 0 d s} def
/m5 {mp x w2 sub y w2 sub m w w d x w2 sub y w2 add m w w neg d s} def
%%IncludeResource: ProcSet (FontSetInit)
%%IncludeResource: font Times-Roman
%%IncludeResource: font Times-Italic
%%IncludeResource: font Times-Bold
%%IncludeResource: font Times-BoldItalic
%%IncludeResource: font Helvetica
%%IncludeResource: font Helvetica-Oblique
%%IncludeResource: font Helvetica-Bold
%%IncludeResource: font Helvetica-BoldOblique
%%IncludeResource: font Courier
%%IncludeResource: font Courier-Oblique
%%IncludeResource: font Courier-Bold
%%IncludeResource: font Courier-BoldOblique
%%IncludeResource: font Symbol
%%IncludeResource: font ZapfDingbats
/reEncode {exch findfont dup length dict begin {1 index /FID eq  {pop pop} {def} ifelse } forall /Encoding exch def currentdict end dup /FontName get exch definefont pop } def [/Times-Bold /Times-Italic /Times-BoldItalic /Helvetica /Helvetica-Oblique
 /Helvetica-Bold /Helvetica-BoldOblique /Courier /Courier-Oblique /Courier-Bold /Courier-BoldOblique /Times-Roman /AvantGarde-Book /AvantGarde-BookOblique /AvantGarde-Demi /AvantGarde-DemiOblique /Bookman-Demi /Bookman-DemiItalic /Bookman-Light
 /Bookman-LightItalic /Helvetica-Narrow /Helvetica-Narrow-Bold /Helvetica-Narrow-BoldOblique /Helvetica-Narrow-Oblique /NewCenturySchlbk-Roman /NewCenturySchlbk-Bold /NewCenturySchlbk-BoldItalic /NewCenturySchlbk-Italic /Palatino-Bold
 /Palatino-BoldItalic /Palatino-Italic /Palatino-Roman ] {ISOLatin1Encoding reEncode } forall
%%EndProlog
%%BeginSetup
%%EndSetup
newpath  gsave  .25 .25 scale  gsave  0 0 t black[  ] 0 sd 3 lw 1 1 1 c 2268 2085 0 0 bf black 1 1 1 c 2263 1770 2 313 bf black 1 1 1 c black 1860 1145 319 584 bl 1 1 1 c black 1860 1145 319 584 bl 6 lw 1 1 1 c black 3 lw /w 33 def /w2 {w 2 div} def
 /w3 {w 3 div} def 366 1113 m20 6 lw 3 lw 459 1064 m20 6 lw 552 974 m 4 Y s 552 1005 m s 3 lw 552 991 m20 6 lw 645 928 m 10 Y s 645 965 m 4 Y s 3 lw 645 951 m20 6 lw 738 807 m 38 Y s 738 872 m 16 Y s 3 lw 738 858 m20 6 lw 831 716 m 77 Y s 831 820 m
 26 Y s 3 lw 831 807 m20 6 lw 924 716 m 77 Y s 924 820 m 26 Y s 3 lw 924 807 m20 6 lw 3 lw 319 584 m 1860 X s
 gsave  2263 1770 2 313 C 1949.08 376.258 t 0 r /Helvetica findfont 81.3741 sf 0 0 m ( [GeV]) show NC gr 
 gsave  2263 1770 2 313 C 1915.19 332.192 t 0 r /Helvetica findfont 54.2494 sf 0 0 m (T) show NC gr 
 gsave  2263 1770 2 313 C 1630.45 376.258 t 0 r /Helvetica findfont 81.3741 sf 0 0 m (1st jet p) show NC gr  435 584 m cl s 482 584 m cl s 528 584 m cl s 575 584 m cl s 621 584 m cl s 668 584 m cl s 714 584 m cl s 761 584 m cl s 807 584 m cl s 854
 584 m cl s 900 584 m cl s 947 584 m cl s 993 584 m cl s 1040 584 m cl s 1087 584 m cl s 1133 584 m cl s 1180 584 m cl s 1226 584 m cl s 1273 584 m cl s 1319 584 m cl s 1366 584 m cl s 1412 584 m cl s 1459 584 m cl s 1505 584 m cl s 1552 584 m cl s
 1598 584 m cl s 1645 584 m cl s 1691 584 m cl s 1738 584 m cl s 1784 584 m cl s 1831 584 m cl s 1877 584 m cl s 1924 584 m cl s 1970 584 m cl s 2017 584 m cl s 2063 584 m cl s 435 584 m cl s 389 584 m cl s 342 584 m cl s 2063 584 m cl s 2110 584 m
 cl s 2156 584 m cl s 319 1729 m 1860 X s 435 1729 m cl s 482 1729 m cl s 528 1729 m cl s 575 1729 m cl s 621 1729 m cl s 668 1729 m cl s 714 1729 m cl s 761 1729 m cl s 807 1729 m cl s 854 1729 m cl s 900 1729 m cl s 947 1729 m cl s 993 1729 m cl s
 1040 1729 m cl s 1087 1729 m cl s 1133 1729 m cl s 1180 1729 m cl s 1226 1729 m cl s 1273 1729 m cl s 1319 1729 m cl s 1366 1729 m cl s 1412 1729 m cl s 1459 1729 m cl s 1505 1729 m cl s 1552 1729 m cl s 1598 1729 m cl s 1645 1729 m cl s 1691 1729 m
 cl s 1738 1729 m cl s 1784 1729 m cl s 1831 1729 m cl s 1877 1729 m cl s 1924 1729 m cl s 1970 1729 m cl s 2017 1729 m cl s 2063 1729 m cl s 435 1729 m cl s 389 1729 m cl s 342 1729 m cl s 2063 1729 m cl s 2110 1729 m cl s 2156 1729 m cl s 319 584 m
 1145 Y s
 gsave  2263 1770 2 313 C 166.096 1091.49 t 90 r /Helvetica findfont 81.3741 sf 0 0 m (Events / 200 GeV) show NC gr  341 636 m -22 X s 341 666 m -22 X s 341 687 m -22 X s 341 704 m -22 X s 341 717 m -22 X s 341 729 m -22 X s 341 739 m -22 X s 341 747
 m -22 X s 363 755 m -44 X s
 gsave  2263 1770 2 313 C 300.555 728.186 t 0 r  -36 0 t /Helvetica findfont 64.4212 sf 0 0 m (1) show NC gr  341 807 m -22 X s 341 837 m -22 X s 341 858 m -22 X s 341 875 m -22 X s 341 888 m -22 X s 341 900 m -22 X s 341 910 m -22 X s 341 918 m -22
 X s 363 926 m -44 X s
 gsave  2263 1770 2 313 C 300.555 899.181 t 0 r  -73 0 t /Helvetica findfont 64.4212 sf 0 0 m (10) show NC gr  341 978 m -22 X s 341 1008 m -22 X s 341 1029 m -22 X s 341 1046 m -22 X s 341 1059 m -22 X s 341 1071 m -22 X s 341 1081 m -22 X s 341
 1089 m -22 X s 363 1097 m -44 X s
 gsave  2263 1770 2 313 C 274.567 1094.88 t 0 r /Helvetica findfont 44.0776 sf 0 0 m (2) show NC gr 
 gsave  2263 1770 2 313 C 203.383 1067.76 t 0 r /Helvetica findfont 64.4212 sf 0 0 m (10) show NC gr  341 1149 m -22 X s 341 1179 m -22 X s 341 1200 m -22 X s 341 1217 m -22 X s 341 1230 m -22 X s 341 1242 m -22 X s 341 1252 m -22 X s 341 1260 m -22
 X s 363 1268 m -44 X s
 gsave  2263 1770 2 313 C 274.567 1271.14 t 0 r /Helvetica findfont 44.0776 sf 0 0 m (3) show NC gr 
 gsave  2263 1770 2 313 C 203.383 1240.63 t 0 r /Helvetica findfont 64.4212 sf 0 0 m (10) show NC gr  341 1320 m -22 X s 341 1350 m -22 X s 341 1371 m -22 X s 341 1388 m -22 X s 341 1401 m -22 X s 341 1413 m -22 X s 341 1423 m -22 X s 341 1431 m -22
 X s 363 1439 m -44 X s
 gsave  2263 1770 2 313 C 274.567 1437.24 t 0 r /Helvetica findfont 44.0776 sf 0 0 m (4) show NC gr 
 gsave  2263 1770 2 313 C 203.383 1410.12 t 0 r /Helvetica findfont 64.4212 sf 0 0 m (10) show NC gr  341 1491 m -22 X s 341 1521 m -22 X s 341 1542 m -22 X s 341 1559 m -22 X s 341 1572 m -22 X s 341 1584 m -22 X s 341 1594 m -22 X s 341 1602 m -22
 X s 363 1610 m -44 X s
 gsave  2263 1770 2 313 C 274.567 1613.5 t 0 r /Helvetica findfont 44.0776 sf 0 0 m (5) show NC gr 
 gsave  2263 1770 2 313 C 203.383 1582.99 t 0 r /Helvetica findfont 64.4212 sf 0 0 m (10) show NC gr  341 1662 m -22 X s 341 1692 m -22 X s 341 1713 m -22 X s 2179 584 m 1145 Y s 2157 636 m 22 X s 2157 666 m 22 X s 2157 687 m 22 X s 2157 704 m 22 X s
 2157 717 m 22 X s 2157 729 m 22 X s 2157 739 m 22 X s 2157 747 m 22 X s 2136 755 m 43 X s 2157 807 m 22 X s 2157 837 m 22 X s 2157 858 m 22 X s 2157 875 m 22 X s 2157 888 m 22 X s 2157 900 m 22 X s 2157 910 m 22 X s 2157 918 m 22 X s 2136 926 m 43 X
 s 2157 978 m 22 X s 2157 1008 m 22 X s 2157 1029 m 22 X s 2157 1046 m 22 X s 2157 1059 m 22 X s 2157 1071 m 22 X s 2157 1081 m 22 X s 2157 1089 m 22 X s 2136 1097 m 43 X s 2157 1149 m 22 X s 2157 1179 m 22 X s 2157 1200 m 22 X s 2157 1217 m 22 X s
 2157 1230 m 22 X s 2157 1242 m 22 X s 2157 1252 m 22 X s 2157 1260 m 22 X s 2136 1268 m 43 X s 2157 1320 m 22 X s 2157 1350 m 22 X s 2157 1371 m 22 X s 2157 1388 m 22 X s 2157 1401 m 22 X s 2157 1413 m 22 X s 2157 1423 m 22 X s 2157 1431 m 22 X s
 2136 1439 m 43 X s 2157 1491 m 22 X s 2157 1521 m 22 X s 2157 1542 m 22 X s 2157 1559 m 22 X s 2157 1572 m 22 X s 2157 1584 m 22 X s 2157 1594 m 22 X s 2157 1602 m 22 X s 2136 1610 m 43 X s 2157 1662 m 22 X s 2157 1692 m 22 X s 2157 1713 m 22 X s
 0.4 0.6 1 c black 0.4 0.6 1 c 319 584 m 550 Y 93 X -57 Y 93 X -53 Y 93 X -58 Y 93 X -51 Y 93 X -52 Y 93 X -43 Y 93 X -80 Y 93 X 25 Y 93 X -80 Y 93 X -28 Y 93 X -73 Y 837 X f black 0.4 0.6 1 c black 319 1134 m 93 X -57 Y 93 X -53 Y 93 X -58 Y 93 X
 -51 Y 93 X -52 Y 93 X -43 Y 93 X -80 Y 93 X 25 Y 93 X -80 Y 93 X -28 Y 93 X -73 Y 837 X s 0.999 0.999 0.999 c black 0.999 0.999 0.999 c 319 584 m 457 Y 93 X -59 Y 93 X -47 Y 93 X -64 Y 93 X -60 Y 93 X -17 Y 93 X -90 Y 93 X -26 Y 93 X -94 Y 1116 X f
 black 0.999 0.999 0.999 c black 319 1041 m 93 X -59 Y 93 X -47 Y 93 X -64 Y 93 X -60 Y 93 X -17 Y 93 X -90 Y 93 X -26 Y 93 X -94 Y 1116 X s 1 1 1 c black 319 1041 m 93 X -59 Y 93 X -47 Y 93 X -64 Y 93 X -60 Y 93 X -17 Y 93 X -90 Y 93 X -26 Y 93 X
 -94 Y 1116 X s 0.6 1 0.6 c black 0.6 1 0.6 c 319 584 m 457 Y 93 X -59 Y 93 X -47 Y 93 X -64 Y 93 X -60 Y 93 X -17 Y 93 X -90 Y 93 X -26 Y 93 X -94 Y 1116 X f black 0.6 1 0.6 c black 319 1041 m 93 X -59 Y 93 X -47 Y 93 X -64 Y 93 X -60 Y 93 X -17 Y
 93 X -90 Y 93 X -26 Y 93 X -94 Y 1116 X s 0.999 0.999 0.999 c black 0.999 0.999 0.999 c 319 584 m 349 Y 93 X -58 Y 93 X -31 Y 93 X -59 Y 93 X -58 Y 93 X -31 Y 93 X -112 Y 93 X 52 Y 93 X -52 Y 1116 X f black 0.999 0.999 0.999 c black 319 933 m 93 X
 -58 Y 93 X -31 Y 93 X -59 Y 93 X -58 Y 93 X -31 Y 93 X -112 Y 93 X 52 Y 93 X -52 Y 1116 X s 1 1 1 c black 319 933 m 93 X -58 Y 93 X -31 Y 93 X -59 Y 93 X -58 Y 93 X -31 Y 93 X -112 Y 93 X 52 Y 93 X -52 Y 1116 X s 1 0.8 0.4 c black 1 0.8 0.4 c 319
 584 m 349 Y 93 X -58 Y 93 X -31 Y 93 X -59 Y 93 X -58 Y 93 X -31 Y 93 X -112 Y 93 X 52 Y 93 X -52 Y 1116 X f black 1 0.8 0.4 c black 319 933 m 93 X -58 Y 93 X -31 Y 93 X -59 Y 93 X -58 Y 93 X -31 Y 93 X -112 Y 93 X 52 Y 93 X -52 Y 1116 X s 0.999
 0.999 0.999 c black 0.999 0.999 0.999 c 319 584 m 343 Y 93 X -61 Y 93 X -27 Y 93 X -56 Y 93 X -64 Y 93 X -29 Y 93 X -106 Y 93 X 52 Y 93 X -52 Y 1116 X f black 0.999 0.999 0.999 c black 319 927 m 93 X -61 Y 93 X -27 Y 93 X -56 Y 93 X -64 Y 93 X -29 Y
 93 X -106 Y 93 X 52 Y 93 X -52 Y 1116 X s 1 1 1 c black 319 927 m 93 X -61 Y 93 X -27 Y 93 X -56 Y 93 X -64 Y 93 X -29 Y 93 X -106 Y 93 X 52 Y 93 X -52 Y 1116 X s 1 0.4 0.6 c black 1 0.4 0.6 c 319 584 m 343 Y 93 X -61 Y 93 X -27 Y 93 X -56 Y 93 X
 -64 Y 93 X -29 Y 93 X -106 Y 93 X 52 Y 93 X -52 Y 1116 X f black 1 0.4 0.6 c black 319 927 m 93 X -61 Y 93 X -27 Y 93 X -56 Y 93 X -64 Y 93 X -29 Y 93 X -106 Y 93 X 52 Y 93 X -52 Y 1116 X s 1 0 0 c 6 lw 1 1 1 c black 1 0 0 c 319 1134 m 93 X -57 Y 93
 X -53 Y 93 X -58 Y 93 X -51 Y 93 X -52 Y 93 X -43 Y 93 X -80 Y 93 X 25 Y 93 X -80 Y 93 X -28 Y 93 X -73 Y 837 X s black 3 lw 1 0 0 c 1 lw << /PatternType 1 /PaintType 2 /TilingType 1 /BBox [ 0 0 100 100 ] /XStep 100 /YStep 100 /PaintProc { begin
 gsave 0 100 m 100 0 l s gr end } >> [ 0.24 0 0 0.24 0 0 ] makepattern /P05 exch def /cs {[/Pattern /DeviceRGB] setcolorspace} def /FA {f [/DeviceRGB] setcolorspace} def cs 1 0 0 P05 setcolor 319 584 m 553 Y 93 X -55 Y 93 X -53 Y 93 X -56 Y 93 X -50
 Y 93 X -48 Y 93 X -39 Y 93 X -78 Y 93 X 30 Y 93 X -80 Y 93 X -14 Y 93 X -110 Y -93 X 67 Y -93 X 79 Y -93 X -15 Y -93 X 86 Y -93 X 48 Y -93 X 57 Y -93 X 53 Y -93 X 59 Y -93 X 54 Y -93 X 59 Y -93 X -547 Y FA 6 lw 1 1 1 c 15 lw 645 931 m -2 Y s 645 929
 m cl s 738 879 m 11 Y s 738 890 m cl s 738 838 m -28 Y s 738 810 m cl s 831 827 m 24 Y s 831 851 m cl s 831 786 m -56 Y s 831 730 m cl s 924 827 m 24 Y s 924 851 m cl s 924 786 m -56 Y s 924 730 m cl s black 1 1 1 c 3 lw /w 43 def /w2 {w 2 div} def
 /w3 {w 3 div} def 366 1113 459 1064 552 991 645 951 738 858 831 807 924 807 7 { m20} R 15 lw black 6 lw 1 1 1 c black 3 lw /w 33 def /w2 {w 2 div} def /w3 {w 3 div} def 366 1113 m20 6 lw 3 lw 459 1064 m20 6 lw 552 974 m 4 Y s 552 1005 m s 3 lw 552
 991 m20 6 lw 645 928 m 10 Y s 645 965 m 4 Y s 3 lw 645 951 m20 6 lw 738 807 m 38 Y s 738 872 m 16 Y s 3 lw 738 858 m20 6 lw 831 716 m 77 Y s 831 820 m 26 Y s 3 lw 831 807 m20 6 lw 924 716 m 77 Y s 924 820 m 26 Y s 3 lw 924 807 m20 6 lw 552 1005 m s
 552 1005 m cl s 552 978 m -3 Y s 552 975 m cl s 645 965 m 4 Y s 645 969 m cl s 645 938 m -9 Y s 645 929 m cl s 738 872 m 18 Y s 738 890 m cl s 738 845 m -35 Y s 738 810 m cl s 831 820 m 31 Y s 831 851 m cl s 831 793 m -63 Y s 831 730 m cl s 924 820
 m 31 Y s 924 851 m cl s 924 793 m -63 Y s 924 730 m cl s 3 lw 366 1113 459 1064 552 991 645 951 738 858 831 807 924 807 7 { m20} R 6 lw 3 lw 319 584 m 1860 X s 435 584 m cl s 482 584 m cl s 528 584 m cl s 575 584 m cl s 621 584 m cl s 668 584 m cl s
 714 584 m cl s 761 584 m cl s 807 584 m cl s 854 584 m cl s 900 584 m cl s 947 584 m cl s 993 584 m cl s 1040 584 m cl s 1087 584 m cl s 1133 584 m cl s 1180 584 m cl s 1226 584 m cl s 1273 584 m cl s 1319 584 m cl s 1366 584 m cl s 1412 584 m cl s
 1459 584 m cl s 1505 584 m cl s 1552 584 m cl s 1598 584 m cl s 1645 584 m cl s 1691 584 m cl s 1738 584 m cl s 1784 584 m cl s 1831 584 m cl s 1877 584 m cl s 1924 584 m cl s 1970 584 m cl s 2017 584 m cl s 2063 584 m cl s 435 584 m cl s 389 584 m
 cl s 342 584 m cl s 2063 584 m cl s 2110 584 m cl s 2156 584 m cl s 319 1729 m 1860 X s 435 1729 m cl s 482 1729 m cl s 528 1729 m cl s 575 1729 m cl s 621 1729 m cl s 668 1729 m cl s 714 1729 m cl s 761 1729 m cl s 807 1729 m cl s 854 1729 m cl s
 900 1729 m cl s 947 1729 m cl s 993 1729 m cl s 1040 1729 m cl s 1087 1729 m cl s 1133 1729 m cl s 1180 1729 m cl s 1226 1729 m cl s 1273 1729 m cl s 1319 1729 m cl s 1366 1729 m cl s 1412 1729 m cl s 1459 1729 m cl s 1505 1729 m cl s 1552 1729 m cl
 s 1598 1729 m cl s 1645 1729 m cl s 1691 1729 m cl s 1738 1729 m cl s 1784 1729 m cl s 1831 1729 m cl s 1877 1729 m cl s 1924 1729 m cl s 1970 1729 m cl s 2017 1729 m cl s 2063 1729 m cl s 435 1729 m cl s 389 1729 m cl s 342 1729 m cl s 2063 1729 m
 cl s 2110 1729 m cl s 2156 1729 m cl s 319 584 m 1145 Y s 341 636 m -22 X s 341 666 m -22 X s 341 687 m -22 X s 341 704 m -22 X s 341 717 m -22 X s 341 729 m -22 X s 341 739 m -22 X s 341 747 m -22 X s 363 755 m -44 X s 341 807 m -22 X s 341 837 m
 -22 X s 341 858 m -22 X s 341 875 m -22 X s 341 888 m -22 X s 341 900 m -22 X s 341 910 m -22 X s 341 918 m -22 X s 363 926 m -44 X s 341 978 m -22 X s 341 1008 m -22 X s 341 1029 m -22 X s 341 1046 m -22 X s 341 1059 m -22 X s 341 1071 m -22 X s
 341 1081 m -22 X s 341 1089 m -22 X s 363 1097 m -44 X s 341 1149 m -22 X s 341 1179 m -22 X s 341 1200 m -22 X s 341 1217 m -22 X s 341 1230 m -22 X s 341 1242 m -22 X s 341 1252 m -22 X s 341 1260 m -22 X s 363 1268 m -44 X s 341 1320 m -22 X s
 341 1350 m -22 X s 341 1371 m -22 X s 341 1388 m -22 X s 341 1401 m -22 X s 341 1413 m -22 X s 341 1423 m -22 X s 341 1431 m -22 X s 363 1439 m -44 X s 341 1491 m -22 X s 341 1521 m -22 X s 341 1542 m -22 X s 341 1559 m -22 X s 341 1572 m -22 X s
 341 1584 m -22 X s 341 1594 m -22 X s 341 1602 m -22 X s 363 1610 m -44 X s 341 1662 m -22 X s 341 1692 m -22 X s 341 1713 m -22 X s 2179 584 m 1145 Y s 2157 636 m 22 X s 2157 666 m 22 X s 2157 687 m 22 X s 2157 704 m 22 X s 2157 717 m 22 X s 2157
 729 m 22 X s 2157 739 m 22 X s 2157 747 m 22 X s 2136 755 m 43 X s 2157 807 m 22 X s 2157 837 m 22 X s 2157 858 m 22 X s 2157 875 m 22 X s 2157 888 m 22 X s 2157 900 m 22 X s 2157 910 m 22 X s 2157 918 m 22 X s 2136 926 m 43 X s 2157 978 m 22 X s
 2157 1008 m 22 X s 2157 1029 m 22 X s 2157 1046 m 22 X s 2157 1059 m 22 X s 2157 1071 m 22 X s 2157 1081 m 22 X s 2157 1089 m 22 X s 2136 1097 m 43 X s 2157 1149 m 22 X s 2157 1179 m 22 X s 2157 1200 m 22 X s 2157 1217 m 22 X s 2157 1230 m 22 X s
 2157 1242 m 22 X s 2157 1252 m 22 X s 2157 1260 m 22 X s 2136 1268 m 43 X s 2157 1320 m 22 X s 2157 1350 m 22 X s 2157 1371 m 22 X s 2157 1388 m 22 X s 2157 1401 m 22 X s 2157 1413 m 22 X s 2157 1423 m 22 X s 2157 1431 m 22 X s 2136 1439 m 43 X s
 2157 1491 m 22 X s 2157 1521 m 22 X s 2157 1542 m 22 X s 2157 1559 m 22 X s 2157 1572 m 22 X s 2157 1584 m 22 X s 2157 1594 m 22 X s 2157 1602 m 22 X s 2136 1610 m 43 X s 2157 1662 m 22 X s 2157 1692 m 22 X s 2157 1713 m 22 X s
 gsave  2263 1770 2 313 C 406.765 1447.41 t 0 r /Helvetica findfont 64.4212 sf 0 0 m (CRW for MB\255GGo) show NC gr 
 gsave  2263 1770 2 313 C 1464.36 1616.89 t 0 r /Helvetica findfont 64.4212 sf 0 0 m (SM Total) show NC gr  1 1 1 c 1338 1603 m 107 X 74 Y -107 X f 1 0 0 c 6 lw 1338 1640 m 107 X s black
 gsave  2263 1770 2 313 C 1464.36 1511.81 t 0 r /Helvetica findfont 64.4212 sf 0 0 m (Data) show NC gr  1391 1502 m 64 Y s 3 lw 1391 1534 m20 6 lw
 gsave  2263 1770 2 313 C 1464.36 1406.73 t 0 r /Helvetica findfont 64.4212 sf 0 0 m (W+jets) show NC gr  0.4 0.6 1 c 3 lw 1338 1391 m 107 X 74 Y -107 X f 6 lw black 3 lw 1338 1465 m 107 X s 1338 1391 m 107 X s 1445 1391 m 74 Y s 1338 1391 m 74 Y s
 gsave  2263 1770 2 313 C 1498.25 1298.26 t 0 r /Helvetica findfont 64.4212 sf 0 0 m (\(+EW\) & single top) show NC gr 
 gsave  2263 1770 2 313 C 1481.3 1298.26 t 0 r /Helvetica findfont 64.4212 sf 0 0 m (t) show NC gr  1481 1349 m 17 X s
 gsave  2263 1770 2 313 C 1464.36 1298.26 t 0 r /Helvetica findfont 64.4212 sf 0 0 m (t) show NC gr  0.6 1 0.6 c 1338 1284 m 107 X 75 Y -107 X f black 1338 1359 m 107 X s 1338 1284 m 107 X s 1445 1284 m 75 Y s 1338 1284 m 75 Y s
 gsave  2263 1770 2 313 C 1464.36 1193.18 t 0 r /Helvetica findfont 64.4212 sf 0 0 m (Z+jets) show NC gr  1 0.8 0.4 c 1338 1178 m 107 X 75 Y -107 X f black 1338 1253 m 107 X s 1338 1178 m 107 X s 1445 1178 m 75 Y s 1338 1178 m 75 Y s
 gsave  2263 1770 2 313 C 1464.36 1088.1 t 0 r /Helvetica findfont 64.4212 sf 0 0 m (Diboson) show NC gr  1 0.4 0.6 c 1338 1072 m 107 X 74 Y -107 X f black 1338 1146 m 107 X s 1338 1072 m 107 X s 1445 1072 m 74 Y s 1338 1072 m 74 Y s
 gsave  2263 1770 2 313 C 911.832 1566.05 t 0 r /Helvetica findfont 44.0776 sf 0 0 m (\2551) show NC gr 
 gsave  2263 1770 2 313 C 471.17 1535.54 t 0 r /Helvetica findfont 64.4212 sf 0 0 m (=13TeV, 139 fb) show NC gr 
 gsave  2263 1770 2 313 C 440.662 1535.54 t 0 r /Helvetica findfont 64.4212 sf 0 0 m (s) show NC gr  6 lw 420 1573 m 7 -41 d s 3 lw 427 1532 m 7 61 d s 434 1593 m 37 X s 1 1 1 c 2254 561 2 2 bf black 1 1 1 c black 1860 358 318 187 bl 1 1 1 c black
 1860 358 318 187 bl 6 lw 1 1 1 c black 3 lw 364 325 m20 6 lw 3 lw 457 341 m20 6 lw 3 lw 550 309 m20 6 lw 3 lw 643 337 m20 6 lw 3 lw 736 279 m20 6 lw 3 lw 829 280 m20 6 lw 3 lw 923 339 m20 6 lw 3 lw 318 187 m 1860 X s
 gsave  2254 561 2 2 C 1959.25 44.0662 t 0 r /Helvetica findfont 78.1689 sf 0 0 m ( [GeV]) show NC gr 
 gsave  2254 561 2 2 C 1928.75 -2.35513e-13 t 0 r /Helvetica findfont 50.9797 sf 0 0 m (T) show NC gr 
 gsave  2254 561 2 2 C 1657.57 44.0662 t 0 r /Helvetica findfont 78.1689 sf 0 0 m (1st jet p) show NC gr  434 201 m -14 Y s 481 194 m -7 Y s 527 194 m -7 Y s 574 194 m -7 Y s 620 194 m -7 Y s 667 201 m -14 Y s 713 194 m -7 Y s 760 194 m -7 Y s 806
 194 m -7 Y s 853 194 m -7 Y s 899 201 m -14 Y s 946 194 m -7 Y s 992 194 m -7 Y s 1039 194 m -7 Y s 1085 194 m -7 Y s 1132 201 m -14 Y s 1178 194 m -7 Y s 1225 194 m -7 Y s 1271 194 m -7 Y s 1318 194 m -7 Y s 1364 201 m -14 Y s 1411 194 m -7 Y s
 1457 194 m -7 Y s 1504 194 m -7 Y s 1550 194 m -7 Y s 1597 201 m -14 Y s 1643 194 m -7 Y s 1690 194 m -7 Y s 1737 194 m -7 Y s 1783 194 m -7 Y s 1830 201 m -14 Y s 1876 194 m -7 Y s 1923 194 m -7 Y s 1969 194 m -7 Y s 2016 194 m -7 Y s 2062 201 m
 -14 Y s 434 201 m -14 Y s 388 194 m -7 Y s 341 194 m -7 Y s 2062 201 m -14 Y s 2109 194 m -7 Y s 2155 194 m -7 Y s
 gsave  2254 561 2 2 C 369.478 118.64 t 0 r /Helvetica findfont 78.1689 sf 0 0 m (500) show NC gr 
 gsave  2254 561 2 2 C 576.251 118.64 t 0 r /Helvetica findfont 78.1689 sf 0 0 m (1000) show NC gr 
 gsave  2254 561 2 2 C 810.141 118.64 t 0 r /Helvetica findfont 78.1689 sf 0 0 m (1500) show NC gr 
 gsave  2254 561 2 2 C 1040.64 118.64 t 0 r /Helvetica findfont 78.1689 sf 0 0 m (2000) show NC gr 
 gsave  2254 561 2 2 C 1274.53 118.64 t 0 r /Helvetica findfont 78.1689 sf 0 0 m (2500) show NC gr 
 gsave  2254 561 2 2 C 1508.42 118.64 t 0 r /Helvetica findfont 78.1689 sf 0 0 m (3000) show NC gr 
 gsave  2254 561 2 2 C 1738.92 118.64 t 0 r /Helvetica findfont 78.1689 sf 0 0 m (3500) show NC gr 
 gsave  2254 561 2 2 C 1972.81 118.64 t 0 r /Helvetica findfont 78.1689 sf 0 0 m (4000) show NC gr  318 545 m 1860 X s 434 531 m 14 Y s 481 538 m 7 Y s 527 538 m 7 Y s 574 538 m 7 Y s 620 538 m 7 Y s 667 531 m 14 Y s 713 538 m 7 Y s 760 538 m 7 Y s
 806 538 m 7 Y s 853 538 m 7 Y s 899 531 m 14 Y s 946 538 m 7 Y s 992 538 m 7 Y s 1039 538 m 7 Y s 1085 538 m 7 Y s 1132 531 m 14 Y s 1178 538 m 7 Y s 1225 538 m 7 Y s 1271 538 m 7 Y s 1318 538 m 7 Y s 1364 531 m 14 Y s 1411 538 m 7 Y s 1457 538 m 7
 Y s 1504 538 m 7 Y s 1550 538 m 7 Y s 1597 531 m 14 Y s 1643 538 m 7 Y s 1690 538 m 7 Y s 1737 538 m 7 Y s 1783 538 m 7 Y s 1830 531 m 14 Y s 1876 538 m 7 Y s 1923 538 m 7 Y s 1969 538 m 7 Y s 2016 538 m 7 Y s 2062 531 m 14 Y s 434 531 m 14 Y s 388
 538 m 7 Y s 341 538 m 7 Y s 2062 531 m 14 Y s 2109 538 m 7 Y s 2155 538 m 7 Y s 318 187 m 358 Y s
 gsave  2254 561 2 2 C 166.096 284.736 t 90 r /Helvetica findfont 67.9729 sf 0 0 m (Data/SM) show NC gr  361 203 m -43 X s 339 220 m -21 X s 339 236 m -21 X s 339 252 m -21 X s 339 268 m -21 X s 361 285 m -43 X s 339 301 m -21 X s 339 317 m -21 X s
 339 334 m -21 X s 339 350 m -21 X s 361 366 m -43 X s 339 382 m -21 X s 339 399 m -21 X s 339 415 m -21 X s 339 431 m -21 X s 361 447 m -43 X s 339 464 m -21 X s 339 480 m -21 X s 339 496 m -21 X s 339 512 m -21 X s 361 529 m -43 X s 361 203 m -43 X
 s 339 187 m -21 X s 361 529 m -43 X s
 gsave  2254 561 2 2 C 261.008 183.044 t 0 r /Helvetica findfont 57.777 sf 0 0 m (0) show NC gr 
 gsave  2254 561 2 2 C 213.552 261.008 t 0 r /Helvetica findfont 57.777 sf 0 0 m (0.5) show NC gr 
 gsave  2254 561 2 2 C 271.177 342.361 t 0 r /Helvetica findfont 57.777 sf 0 0 m (1) show NC gr 
 gsave  2254 561 2 2 C 213.552 423.714 t 0 r /Helvetica findfont 57.777 sf 0 0 m (1.5) show NC gr 
 gsave  2254 561 2 2 C 261.008 505.067 t 0 r /Helvetica findfont 57.777 sf 0 0 m (2) show NC gr  2178 187 m 358 Y s 2135 203 m 43 X s 2157 220 m 21 X s 2157 236 m 21 X s 2157 252 m 21 X s 2157 268 m 21 X s 2135 285 m 43 X s 2157 301 m 21 X s 2157 317
 m 21 X s 2157 334 m 21 X s 2157 350 m 21 X s 2135 366 m 43 X s 2157 382 m 21 X s 2157 399 m 21 X s 2157 415 m 21 X s 2157 431 m 21 X s 2135 447 m 43 X s 2157 464 m 21 X s 2157 480 m 21 X s 2157 496 m 21 X s 2157 512 m 21 X s 2135 529 m 43 X s 2135
 203 m 43 X s 2157 187 m 21 X s 2135 529 m 43 X s 9 lw 457 354 m 4 Y s 457 358 m cl s 457 327 m -3 Y s 457 324 m cl s 550 322 m 8 Y s 550 330 m cl s 550 295 m -7 Y s 550 288 m cl s 643 350 m 23 Y s 643 373 m cl s 643 323 m -21 Y s 643 302 m cl s 736
 293 m 27 Y s 736 320 m cl s 736 266 m -23 Y s 736 243 m cl s 829 293 m 49 Y s 829 342 m cl s 829 266 m -35 Y s 829 231 m cl s 923 353 m 96 Y s 923 449 m cl s 923 325 m -73 Y s 923 252 m cl s 3 lw 364 325 457 341 550 309 643 337 736 279 829 280 923
 339 7 { m20} R 9 lw 1 0 0 c 6 lw black 3 lw 1 0 0 c 2155 203 m cl s 2127 203 m cl s 2098 203 m cl s 2069 203 m cl s 2040 203 m cl s 2012 203 m cl s 1983 203 m cl s 1954 203 m cl s 1926 203 m cl s 1897 203 m cl s 1868 203 m cl s 1840 203 m cl s 1811
 203 m cl s 1782 203 m cl s 1754 203 m cl s 1725 203 m cl s 1696 203 m cl s 1667 203 m cl s 1639 203 m cl s 1610 203 m cl s 1581 203 m cl s 1553 203 m cl s 1527 207 m s 1527 235 m s 1527 264 m -15 -15 d s 1527 292 m -44 -43 d s 1527 321 m -72 -72 d s
 1434 228 m -27 -26 d s 1527 350 m -148 -148 d s 1527 378 m -177 -176 d s 1527 407 m -186 -186 d s 1527 435 m -186 -185 d s 1527 464 m -203 -203 d s 1518 483 m -223 -222 d s 1489 483 m -222 -222 d s 1461 483 m -213 -211 d s 1434 486 m -186 -186 d s
 1434 514 m -208 -207 d s 1422 531 m -225 -224 d s 1393 531 m -52 -52 d s 1333 471 m -164 -164 d s 1365 531 m -24 -24 d s 1304 471 m -166 -166 d s 1276 471 m -28 -28 d s 1230 425 m -120 -120 d s 1201 425 m -120 -120 d s 1173 425 m -111 -110 d s 1146
 427 m -107 -107 d s 1117 427 m -107 -107 d s 1089 427 m -108 -107 d s 1045 412 m -84 -83 d s 1016 412 m -83 -83 d s 987 412 m -83 -83 d s 950 403 m -74 -73 d s 921 403 m -66 -65 d s 892 403 m -65 -65 d s 855 394 m -57 -56 d s 826 394 m -47 -47 d s
 798 394 m -48 -47 d s 759 385 m -37 -38 d s 731 385 m -38 -38 d s 702 385 m -34 -34 d s 670 381 m -31 -30 d s 641 381 m -31 -30 d s 612 381 m -28 -28 d s 581 379 m -25 -26 d s 552 379 m -25 -26 d s 524 379 m -24 -24 d s 493 377 m -22 -22 d s 465 377
 m -22 -22 d s 318 231 m s 436 377 m -22 -22 d s 318 259 m s 403 373 m -13 -14 d s 318 288 m s 374 373 m -13 -14 d s 318 317 m s 345 373 m -13 -14 d s 318 345 m s 6 lw black[ 4 8] 0 sd 3 lw 318 447 m 1860 X s 318 285 m 1860 X s 1 0 0 c[  12 12 ] 0 sd
 6 lw 318 366 m 1860 X s
 gr  gr showpage
end
%%EOF
