%!PS-Adobe-2.0 EPSF-2.0
%%BoundingBox:  0 0 567 521
%%Title: Distributions/jetPt_0__distrVR0LmetSig_MB-C_afterFit_forThesis.eps: canvas
%%Creator: ROOT Version 6.04/16
%%CreationDate: Tue May 19 22:03:37 2020
%%DocumentNeededResources: ProcSet (FontSetInit)
%%EndComments
%%BeginProlog
80 dict begin
/s {stroke} def /l {lineto} def /m {moveto} def /t {translate} def
/r {rotate} def /rl {roll}  def /R {repeat} def
/d {rlineto} def /rm {rmoveto} def /gr {grestore} def /f {eofill} def
/c {setrgbcolor} def /black {0 setgray} def /sd {setdash} def
/cl {closepath} def /sf {scalefont setfont} def /lw {setlinewidth} def
/box {m dup 0 exch d exch 0 d 0 exch neg d cl} def
/NC{systemdict begin initclip end}def/C{NC box clip newpath}def
/bl {box s} def /bf {gsave box gsave f grestore 1 lw [] 0 sd s grestore} def /Y { 0 exch d} def /X { 0 d} def 
/K {{pop pop 0 moveto} exch kshow} bind def
/ita {/ang 15 def gsave [1 0 ang dup sin exch cos div 1 0 0] concat} def 
/mp {newpath /y exch def /x exch def} def
/side {[w .77 mul w .23 mul] .385 w mul sd w 0 l currentpoint t -144 r} def
/mr {mp x y w2 0 360 arc} def /m24 {mr s} def /m20 {mr f} def
/mb {mp x y w2 add m w2 neg 0 d 0 w neg d w 0 d 0 w d cl} def
/mt {mp x y w2 add m w2 neg w neg d w 0 d cl} def
/m21 {mb f} def /m25 {mb s} def /m22 {mt f} def /m26{mt s} def
/m23 {mp x y w2 sub m w2 w d w neg 0 d cl f} def
/m27 {mp x y w2 add m w3 neg w2 neg d w3 w2 neg d w3 w2 d cl s} def
/m28 {mp x w2 sub y w2 sub w3 add m w3 0 d  0 w3 neg d w3 0 d 0 w3 d w3 0 d  0 w3 d w3 neg 0 d 0 w3 d w3 neg 0 d 0 w3 neg d w3 neg 0 d cl s } def
/m29 {mp gsave x w2 sub y w2 add w3 sub m currentpoint t 4 {side} repeat cl fill gr} def
/m30 {mp gsave x w2 sub y w2 add w3 sub m currentpoint t 4 {side} repeat cl s gr} def
/m31 {mp x y w2 sub m 0 w d x w2 sub y m w 0 d x w2 sub y w2 add m w w neg d x w2 sub y w2 sub m w w d s} def
/m32 {mp x y w2 sub m w2 w d w neg 0 d cl s} def
/m33 {mp x y w2 add m w3 neg w2 neg d w3 w2 neg d w3 w2 d cl f} def
/m34 {mp x w2 sub y w2 sub w3 add m w3 0 d  0 w3 neg d w3 0 d 0 w3 d w3 0 d  0 w3 d w3 neg 0 d 0 w3 d w3 neg 0 d 0 w3 neg d w3 neg 0 d cl f } def
/m2 {mp x y w2 sub m 0 w d x w2 sub y m w 0 d s} def
/m5 {mp x w2 sub y w2 sub m w w d x w2 sub y w2 add m w w neg d s} def
%%IncludeResource: ProcSet (FontSetInit)
%%IncludeResource: font Times-Roman
%%IncludeResource: font Times-Italic
%%IncludeResource: font Times-Bold
%%IncludeResource: font Times-BoldItalic
%%IncludeResource: font Helvetica
%%IncludeResource: font Helvetica-Oblique
%%IncludeResource: font Helvetica-Bold
%%IncludeResource: font Helvetica-BoldOblique
%%IncludeResource: font Courier
%%IncludeResource: font Courier-Oblique
%%IncludeResource: font Courier-Bold
%%IncludeResource: font Courier-BoldOblique
%%IncludeResource: font Symbol
%%IncludeResource: font ZapfDingbats
/reEncode {exch findfont dup length dict begin {1 index /FID eq  {pop pop} {def} ifelse } forall /Encoding exch def currentdict end dup /FontName get exch definefont pop } def [/Times-Bold /Times-Italic /Times-BoldItalic /Helvetica /Helvetica-Oblique
 /Helvetica-Bold /Helvetica-BoldOblique /Courier /Courier-Oblique /Courier-Bold /Courier-BoldOblique /Times-Roman /AvantGarde-Book /AvantGarde-BookOblique /AvantGarde-Demi /AvantGarde-DemiOblique /Bookman-Demi /Bookman-DemiItalic /Bookman-Light
 /Bookman-LightItalic /Helvetica-Narrow /Helvetica-Narrow-Bold /Helvetica-Narrow-BoldOblique /Helvetica-Narrow-Oblique /NewCenturySchlbk-Roman /NewCenturySchlbk-Bold /NewCenturySchlbk-BoldItalic /NewCenturySchlbk-Italic /Palatino-Bold
 /Palatino-BoldItalic /Palatino-Italic /Palatino-Roman ] {ISOLatin1Encoding reEncode } forall
%%EndProlog
%%BeginSetup
%%EndSetup
newpath  gsave  .25 .25 scale  gsave  0 0 t black[  ] 0 sd 3 lw 1 1 1 c 2268 2085 0 0 bf black 1 1 1 c 2263 1770 2 313 bf black 1 1 1 c black 1860 1145 319 584 bl 1 1 1 c black 1860 1145 319 584 bl 6 lw 1 1 1 c black 3 lw /w 33 def /w2 {w 2 div} def
 /w3 {w 3 div} def 459 968 m20 6 lw 3 lw 552 1104 m20 6 lw 3 lw 645 1093 m20 6 lw 3 lw 738 1018 m20 6 lw 3 lw 831 948 m20 6 lw 924 864 m 6 Y s 924 897 m 2 Y s 3 lw 924 884 m20 6 lw 1017 804 m 19 Y s 1017 850 m 7 Y s 3 lw 1017 836 m20 6 lw 1110 789 m
 22 Y s 1110 839 m 9 Y s 3 lw 1110 825 m20 6 lw 3 lw 319 584 m 1860 X s
 gsave  2263 1770 2 313 C 1949.08 376.258 t 0 r /Helvetica findfont 81.3741 sf 0 0 m ( [GeV]) show NC gr 
 gsave  2263 1770 2 313 C 1915.19 332.192 t 0 r /Helvetica findfont 54.2494 sf 0 0 m (T) show NC gr 
 gsave  2263 1770 2 313 C 1630.45 376.258 t 0 r /Helvetica findfont 81.3741 sf 0 0 m (1st jet p) show NC gr  435 584 m cl s 482 584 m cl s 528 584 m cl s 575 584 m cl s 621 584 m cl s 668 584 m cl s 714 584 m cl s 761 584 m cl s 807 584 m cl s 854
 584 m cl s 900 584 m cl s 947 584 m cl s 993 584 m cl s 1040 584 m cl s 1087 584 m cl s 1133 584 m cl s 1180 584 m cl s 1226 584 m cl s 1273 584 m cl s 1319 584 m cl s 1366 584 m cl s 1412 584 m cl s 1459 584 m cl s 1505 584 m cl s 1552 584 m cl s
 1598 584 m cl s 1645 584 m cl s 1691 584 m cl s 1738 584 m cl s 1784 584 m cl s 1831 584 m cl s 1877 584 m cl s 1924 584 m cl s 1970 584 m cl s 2017 584 m cl s 2063 584 m cl s 435 584 m cl s 389 584 m cl s 342 584 m cl s 2063 584 m cl s 2110 584 m
 cl s 2156 584 m cl s 319 1729 m 1860 X s 435 1729 m cl s 482 1729 m cl s 528 1729 m cl s 575 1729 m cl s 621 1729 m cl s 668 1729 m cl s 714 1729 m cl s 761 1729 m cl s 807 1729 m cl s 854 1729 m cl s 900 1729 m cl s 947 1729 m cl s 993 1729 m cl s
 1040 1729 m cl s 1087 1729 m cl s 1133 1729 m cl s 1180 1729 m cl s 1226 1729 m cl s 1273 1729 m cl s 1319 1729 m cl s 1366 1729 m cl s 1412 1729 m cl s 1459 1729 m cl s 1505 1729 m cl s 1552 1729 m cl s 1598 1729 m cl s 1645 1729 m cl s 1691 1729 m
 cl s 1738 1729 m cl s 1784 1729 m cl s 1831 1729 m cl s 1877 1729 m cl s 1924 1729 m cl s 1970 1729 m cl s 2017 1729 m cl s 2063 1729 m cl s 435 1729 m cl s 389 1729 m cl s 342 1729 m cl s 2063 1729 m cl s 2110 1729 m cl s 2156 1729 m cl s 319 584 m
 1145 Y s
 gsave  2263 1770 2 313 C 166.096 1091.49 t 90 r /Helvetica findfont 81.3741 sf 0 0 m (Events / 200 GeV) show NC gr  341 627 m -22 X s 341 652 m -22 X s 341 670 m -22 X s 341 683 m -22 X s 341 695 m -22 X s 341 704 m -22 X s 341 712 m -22 X s 341 719
 m -22 X s 363 726 m -44 X s
 gsave  2263 1770 2 313 C 300.555 698.858 t 0 r  -36 0 t /Helvetica findfont 64.4212 sf 0 0 m (1) show NC gr  341 769 m -22 X s 341 794 m -22 X s 341 811 m -22 X s 341 825 m -22 X s 341 836 m -22 X s 341 846 m -22 X s 341 854 m -22 X s 341 861 m -22
 X s 363 868 m -44 X s
 gsave  2263 1770 2 313 C 300.555 840.524 t 0 r  -73 0 t /Helvetica findfont 64.4212 sf 0 0 m (10) show NC gr  341 910 m -22 X s 341 935 m -22 X s 341 953 m -22 X s 341 967 m -22 X s 341 978 m -22 X s 341 987 m -22 X s 341 996 m -22 X s 341 1003 m
 -22 X s 363 1009 m -44 X s
 gsave  2263 1770 2 313 C 274.567 1006.74 t 0 r /Helvetica findfont 44.0776 sf 0 0 m (2) show NC gr 
 gsave  2263 1770 2 313 C 203.383 979.626 t 0 r /Helvetica findfont 64.4212 sf 0 0 m (10) show NC gr  341 1052 m -22 X s 341 1077 m -22 X s 341 1095 m -22 X s 341 1108 m -22 X s 341 1120 m -22 X s 341 1129 m -22 X s 341 1137 m -22 X s 341 1144 m -22
 X s 363 1151 m -44 X s
 gsave  2263 1770 2 313 C 274.567 1152.5 t 0 r /Helvetica findfont 44.0776 sf 0 0 m (3) show NC gr 
 gsave  2263 1770 2 313 C 203.383 1121.99 t 0 r /Helvetica findfont 64.4212 sf 0 0 m (10) show NC gr  341 1194 m -22 X s 341 1219 m -22 X s 341 1236 m -22 X s 341 1250 m -22 X s 341 1261 m -22 X s 341 1271 m -22 X s 341 1279 m -22 X s 341 1286 m -22
 X s 363 1293 m -44 X s
 gsave  2263 1770 2 313 C 274.567 1291.48 t 0 r /Helvetica findfont 44.0776 sf 0 0 m (4) show NC gr 
 gsave  2263 1770 2 313 C 203.383 1264.36 t 0 r /Helvetica findfont 64.4212 sf 0 0 m (10) show NC gr  341 1335 m -22 X s 341 1360 m -22 X s 341 1378 m -22 X s 341 1392 m -22 X s 341 1403 m -22 X s 341 1412 m -22 X s 341 1421 m -22 X s 341 1428 m -22
 X s 363 1434 m -44 X s
 gsave  2263 1770 2 313 C 274.567 1437.24 t 0 r /Helvetica findfont 44.0776 sf 0 0 m (5) show NC gr 
 gsave  2263 1770 2 313 C 203.383 1406.73 t 0 r /Helvetica findfont 64.4212 sf 0 0 m (10) show NC gr  341 1477 m -22 X s 341 1502 m -22 X s 341 1520 m -22 X s 341 1533 m -22 X s 341 1545 m -22 X s 341 1554 m -22 X s 341 1562 m -22 X s 341 1569 m -22
 X s 363 1576 m -44 X s
 gsave  2263 1770 2 313 C 274.567 1576.22 t 0 r /Helvetica findfont 44.0776 sf 0 0 m (6) show NC gr 
 gsave  2263 1770 2 313 C 203.383 1545.71 t 0 r /Helvetica findfont 64.4212 sf 0 0 m (10) show NC gr  341 1619 m -22 X s 341 1644 m -22 X s 341 1661 m -22 X s 341 1675 m -22 X s 341 1686 m -22 X s 341 1696 m -22 X s 341 1704 m -22 X s 341 1711 m -22
 X s 363 1718 m -44 X s
 gsave  2263 1770 2 313 C 274.567 1715.19 t 0 r /Helvetica findfont 44.0776 sf 0 0 m (7) show NC gr 
 gsave  2263 1770 2 313 C 203.383 1688.08 t 0 r /Helvetica findfont 64.4212 sf 0 0 m (10) show NC gr  2179 584 m 1145 Y s 2157 627 m 22 X s 2157 652 m 22 X s 2157 670 m 22 X s 2157 683 m 22 X s 2157 695 m 22 X s 2157 704 m 22 X s 2157 712 m 22 X s
 2157 719 m 22 X s 2136 726 m 43 X s 2157 769 m 22 X s 2157 794 m 22 X s 2157 811 m 22 X s 2157 825 m 22 X s 2157 836 m 22 X s 2157 846 m 22 X s 2157 854 m 22 X s 2157 861 m 22 X s 2136 868 m 43 X s 2157 910 m 22 X s 2157 935 m 22 X s 2157 953 m 22 X
 s 2157 967 m 22 X s 2157 978 m 22 X s 2157 987 m 22 X s 2157 996 m 22 X s 2157 1003 m 22 X s 2136 1009 m 43 X s 2157 1052 m 22 X s 2157 1077 m 22 X s 2157 1095 m 22 X s 2157 1108 m 22 X s 2157 1120 m 22 X s 2157 1129 m 22 X s 2157 1137 m 22 X s 2157
 1144 m 22 X s 2136 1151 m 43 X s 2157 1194 m 22 X s 2157 1219 m 22 X s 2157 1236 m 22 X s 2157 1250 m 22 X s 2157 1261 m 22 X s 2157 1271 m 22 X s 2157 1279 m 22 X s 2157 1286 m 22 X s 2136 1293 m 43 X s 2157 1335 m 22 X s 2157 1360 m 22 X s 2157
 1378 m 22 X s 2157 1392 m 22 X s 2157 1403 m 22 X s 2157 1412 m 22 X s 2157 1421 m 22 X s 2157 1428 m 22 X s 2136 1434 m 43 X s 2157 1477 m 22 X s 2157 1502 m 22 X s 2157 1520 m 22 X s 2157 1533 m 22 X s 2157 1545 m 22 X s 2157 1554 m 22 X s 2157
 1562 m 22 X s 2157 1569 m 22 X s 2136 1576 m 43 X s 2157 1619 m 22 X s 2157 1644 m 22 X s 2157 1661 m 22 X s 2157 1675 m 22 X s 2157 1686 m 22 X s 2157 1696 m 22 X s 2157 1704 m 22 X s 2157 1711 m 22 X s 2136 1718 m 43 X s 0.4 0.6 1 c black 0.4 0.6
 1 c 319 584 m 93 X 385 Y 93 X 137 Y 93 X -10 Y 93 X -70 Y 93 X -70 Y 93 X -60 Y 93 X -52 Y 93 X -43 Y 93 X -72 Y 93 X -35 Y 93 X -67 Y 93 X -43 Y 279 X 30 Y 93 X -30 Y 372 X f black 0.4 0.6 1 c black 319 584 m 93 X 385 Y 93 X 137 Y 93 X -10 Y 93 X
 -70 Y 93 X -70 Y 93 X -60 Y 93 X -52 Y 93 X -43 Y 93 X -72 Y 93 X -35 Y 93 X -67 Y 93 X -43 Y 279 X 30 Y 93 X -30 Y 372 X s 0.999 0.999 0.999 c black 0.999 0.999 0.999 c 319 584 m 93 X 355 Y 93 X 137 Y 93 X -8 Y 93 X -66 Y 93 X -69 Y 93 X -57 Y 93 X
 -60 Y 93 X -36 Y 93 X -85 Y 93 X -21 Y 93 X -74 Y 93 X -16 Y 279 X 14 Y 93 X -14 Y 372 X f black 0.999 0.999 0.999 c black 319 584 m 93 X 355 Y 93 X 137 Y 93 X -8 Y 93 X -66 Y 93 X -69 Y 93 X -57 Y 93 X -60 Y 93 X -36 Y 93 X -85 Y 93 X -21 Y 93 X
 -74 Y 93 X -16 Y 279 X 14 Y 93 X -14 Y 372 X s 1 1 1 c black 319 584 m 93 X 355 Y 93 X 137 Y 93 X -8 Y 93 X -66 Y 93 X -69 Y 93 X -57 Y 93 X -60 Y 93 X -36 Y 93 X -85 Y 93 X -21 Y 93 X -74 Y 93 X -16 Y 279 X 14 Y 93 X -14 Y 372 X s 0.6 1 0.6 c black
 0.6 1 0.6 c 319 584 m 93 X 355 Y 93 X 137 Y 93 X -8 Y 93 X -66 Y 93 X -69 Y 93 X -57 Y 93 X -60 Y 93 X -36 Y 93 X -85 Y 93 X -21 Y 93 X -74 Y 93 X -16 Y 279 X 14 Y 93 X -14 Y 372 X f black 0.6 1 0.6 c black 319 584 m 93 X 355 Y 93 X 137 Y 93 X -8 Y
 93 X -66 Y 93 X -69 Y 93 X -57 Y 93 X -60 Y 93 X -36 Y 93 X -85 Y 93 X -21 Y 93 X -74 Y 93 X -16 Y 279 X 14 Y 93 X -14 Y 372 X s 0.999 0.999 0.999 c black 0.999 0.999 0.999 c 319 584 m 93 X 328 Y 93 X 144 Y 93 X -4 Y 93 X -62 Y 93 X -67 Y 93 X -56 Y
 93 X -55 Y 93 X -36 Y 93 X -84 Y 93 X -21 Y 93 X -75 Y 93 X -12 Y 279 X 14 Y 93 X -14 Y 372 X f black 0.999 0.999 0.999 c black 319 584 m 93 X 328 Y 93 X 144 Y 93 X -4 Y 93 X -62 Y 93 X -67 Y 93 X -56 Y 93 X -55 Y 93 X -36 Y 93 X -84 Y 93 X -21 Y 93
 X -75 Y 93 X -12 Y 279 X 14 Y 93 X -14 Y 372 X s 1 1 1 c black 319 584 m 93 X 328 Y 93 X 144 Y 93 X -4 Y 93 X -62 Y 93 X -67 Y 93 X -56 Y 93 X -55 Y 93 X -36 Y 93 X -84 Y 93 X -21 Y 93 X -75 Y 93 X -12 Y 279 X 14 Y 93 X -14 Y 372 X s 1 0.8 0.4 c
 black 1 0.8 0.4 c 319 584 m 93 X 328 Y 93 X 144 Y 93 X -4 Y 93 X -62 Y 93 X -67 Y 93 X -56 Y 93 X -55 Y 93 X -36 Y 93 X -84 Y 93 X -21 Y 93 X -75 Y 93 X -12 Y 279 X 14 Y 93 X -14 Y 372 X f black 1 0.8 0.4 c black 319 584 m 93 X 328 Y 93 X 144 Y 93 X
 -4 Y 93 X -62 Y 93 X -67 Y 93 X -56 Y 93 X -55 Y 93 X -36 Y 93 X -84 Y 93 X -21 Y 93 X -75 Y 93 X -12 Y 279 X 14 Y 93 X -14 Y 372 X s 0.999 0.999 0.999 c black 0.999 0.999 0.999 c 319 584 m 93 X 226 Y 93 X 123 Y 93 X -15 Y 93 X -57 Y 93 X -50 Y 93 X
 -45 Y 93 X -57 Y 93 X -48 Y 93 X -51 Y 93 X -26 Y 930 X f black 0.999 0.999 0.999 c black 319 584 m 93 X 226 Y 93 X 123 Y 93 X -15 Y 93 X -57 Y 93 X -50 Y 93 X -45 Y 93 X -57 Y 93 X -48 Y 93 X -51 Y 93 X -26 Y 930 X s 1 1 1 c black 319 584 m 93 X
 226 Y 93 X 123 Y 93 X -15 Y 93 X -57 Y 93 X -50 Y 93 X -45 Y 93 X -57 Y 93 X -48 Y 93 X -51 Y 93 X -26 Y 930 X s 1 0.4 0.6 c black 1 0.4 0.6 c 319 584 m 93 X 226 Y 93 X 123 Y 93 X -15 Y 93 X -57 Y 93 X -50 Y 93 X -45 Y 93 X -57 Y 93 X -48 Y 93 X -51
 Y 93 X -26 Y 930 X f black 1 0.4 0.6 c black 319 584 m 93 X 226 Y 93 X 123 Y 93 X -15 Y 93 X -57 Y 93 X -50 Y 93 X -45 Y 93 X -57 Y 93 X -48 Y 93 X -51 Y 93 X -26 Y 930 X s 0.999 0.999 0.999 c black 0.999 0.999 0.999 c 319 584 m 186 X 75 Y 93 X -63
 Y 93 X 39 Y 93 X -51 Y 93 X 93 Y 93 X -49 Y 93 X -44 Y 93 X 3 Y 93 X -3 Y 930 X f black 0.999 0.999 0.999 c black 319 584 m 186 X 75 Y 93 X -63 Y 93 X 39 Y 93 X -51 Y 93 X 93 Y 93 X -49 Y 93 X -44 Y 93 X 3 Y 93 X -3 Y 930 X s 1 1 1 c black 319 584 m
 186 X 75 Y 93 X -63 Y 93 X 39 Y 93 X -51 Y 93 X 93 Y 93 X -49 Y 93 X -44 Y 93 X 3 Y 93 X -3 Y 930 X s 0 0 0.4 c black 0 0 0.4 c 319 584 m 186 X 75 Y 93 X -63 Y 93 X 39 Y 93 X -51 Y 93 X 93 Y 93 X -49 Y 93 X -44 Y 93 X 3 Y 93 X -3 Y 930 X f black 0 0
 0.4 c black 319 584 m 186 X 75 Y 93 X -63 Y 93 X 39 Y 93 X -51 Y 93 X 93 Y 93 X -49 Y 93 X -44 Y 93 X 3 Y 93 X -3 Y 930 X s 1 0 0 c 6 lw 1 1 1 c black 1 0 0 c 319 584 m 93 X 385 Y 93 X 137 Y 93 X -10 Y 93 X -70 Y 93 X -70 Y 93 X -60 Y 93 X -52 Y 93
 X -43 Y 93 X -72 Y 93 X -35 Y 93 X -67 Y 93 X -43 Y 279 X 30 Y 93 X -30 Y 372 X s black 3 lw 1 0 0 c 1 lw << /PatternType 1 /PaintType 2 /TilingType 1 /BBox [ 0 0 100 100 ] /XStep 100 /YStep 100 /PaintProc { begin gsave 0 100 m 100 0 l s gr end } >>
 [ 0.24 0 0 0.24 0 0 ] makepattern /P05 exch def /cs {[/Pattern /DeviceRGB] setcolorspace} def /FA {f [/DeviceRGB] setcolorspace} def cs 1 0 0 P05 setcolor 412 584 m 388 Y 93 X 136 Y 93 X -10 Y 93 X -69 Y 93 X -68 Y 93 X -56 Y 93 X -51 Y 93 X -41 Y
 93 X -75 Y 93 X -27 Y 93 X -72 Y 93 X -46 Y 93 X -9 Y 186 X 65 Y 93 X -65 Y -372 X 27 Y -93 X 60 Y -93 X 47 Y -93 X 68 Y -93 X 47 Y -93 X 54 Y -93 X 64 Y -93 X 72 Y -93 X 70 Y -93 X 10 Y -93 X -138 Y -93 X -381 Y FA 6 lw 1 1 1 c 15 lw 1017 857 m 1 Y
 s 1017 858 m cl s 1017 816 m -11 Y s 1017 805 m cl s 1110 845 m 4 Y s 1110 849 m cl s 1110 805 m -15 Y s 1110 790 m cl s black 1 1 1 c 3 lw /w 43 def /w2 {w 2 div} def /w3 {w 3 div} def 459 968 552 1104 645 1093 738 1018 831 948 924 884 1017 836
 1110 825 8 { m20} R 15 lw black 6 lw 1 1 1 c black 3 lw /w 33 def /w2 {w 2 div} def /w3 {w 3 div} def 459 968 m20 6 lw 3 lw 552 1104 m20 6 lw 3 lw 645 1093 m20 6 lw 3 lw 738 1018 m20 6 lw 3 lw 831 948 m20 6 lw 924 864 m 6 Y s 924 897 m 2 Y s 3 lw
 924 884 m20 6 lw 1017 804 m 19 Y s 1017 850 m 7 Y s 3 lw 1017 836 m20 6 lw 1110 789 m 22 Y s 1110 839 m 9 Y s 3 lw 1110 825 m20 6 lw 924 897 m 2 Y s 924 899 m cl s 924 870 m -6 Y s 924 864 m cl s 1017 850 m 8 Y s 1017 858 m cl s 1017 823 m -18 Y s
 1017 805 m cl s 1110 839 m 10 Y s 1110 849 m cl s 1110 811 m -21 Y s 1110 790 m cl s 3 lw 459 968 552 1104 645 1093 738 1018 831 948 924 884 1017 836 1110 825 8 { m20} R 6 lw 3 lw 319 584 m 1860 X s 435 584 m cl s 482 584 m cl s 528 584 m cl s 575
 584 m cl s 621 584 m cl s 668 584 m cl s 714 584 m cl s 761 584 m cl s 807 584 m cl s 854 584 m cl s 900 584 m cl s 947 584 m cl s 993 584 m cl s 1040 584 m cl s 1087 584 m cl s 1133 584 m cl s 1180 584 m cl s 1226 584 m cl s 1273 584 m cl s 1319
 584 m cl s 1366 584 m cl s 1412 584 m cl s 1459 584 m cl s 1505 584 m cl s 1552 584 m cl s 1598 584 m cl s 1645 584 m cl s 1691 584 m cl s 1738 584 m cl s 1784 584 m cl s 1831 584 m cl s 1877 584 m cl s 1924 584 m cl s 1970 584 m cl s 2017 584 m cl
 s 2063 584 m cl s 435 584 m cl s 389 584 m cl s 342 584 m cl s 2063 584 m cl s 2110 584 m cl s 2156 584 m cl s 319 1729 m 1860 X s 435 1729 m cl s 482 1729 m cl s 528 1729 m cl s 575 1729 m cl s 621 1729 m cl s 668 1729 m cl s 714 1729 m cl s 761
 1729 m cl s 807 1729 m cl s 854 1729 m cl s 900 1729 m cl s 947 1729 m cl s 993 1729 m cl s 1040 1729 m cl s 1087 1729 m cl s 1133 1729 m cl s 1180 1729 m cl s 1226 1729 m cl s 1273 1729 m cl s 1319 1729 m cl s 1366 1729 m cl s 1412 1729 m cl s 1459
 1729 m cl s 1505 1729 m cl s 1552 1729 m cl s 1598 1729 m cl s 1645 1729 m cl s 1691 1729 m cl s 1738 1729 m cl s 1784 1729 m cl s 1831 1729 m cl s 1877 1729 m cl s 1924 1729 m cl s 1970 1729 m cl s 2017 1729 m cl s 2063 1729 m cl s 435 1729 m cl s
 389 1729 m cl s 342 1729 m cl s 2063 1729 m cl s 2110 1729 m cl s 2156 1729 m cl s 319 584 m 1145 Y s 341 627 m -22 X s 341 652 m -22 X s 341 670 m -22 X s 341 683 m -22 X s 341 695 m -22 X s 341 704 m -22 X s 341 712 m -22 X s 341 719 m -22 X s 363
 726 m -44 X s 341 769 m -22 X s 341 794 m -22 X s 341 811 m -22 X s 341 825 m -22 X s 341 836 m -22 X s 341 846 m -22 X s 341 854 m -22 X s 341 861 m -22 X s 363 868 m -44 X s 341 910 m -22 X s 341 935 m -22 X s 341 953 m -22 X s 341 967 m -22 X s
 341 978 m -22 X s 341 987 m -22 X s 341 996 m -22 X s 341 1003 m -22 X s 363 1009 m -44 X s 341 1052 m -22 X s 341 1077 m -22 X s 341 1095 m -22 X s 341 1108 m -22 X s 341 1120 m -22 X s 341 1129 m -22 X s 341 1137 m -22 X s 341 1144 m -22 X s 363
 1151 m -44 X s 341 1194 m -22 X s 341 1219 m -22 X s 341 1236 m -22 X s 341 1250 m -22 X s 341 1261 m -22 X s 341 1271 m -22 X s 341 1279 m -22 X s 341 1286 m -22 X s 363 1293 m -44 X s 341 1335 m -22 X s 341 1360 m -22 X s 341 1378 m -22 X s 341
 1392 m -22 X s 341 1403 m -22 X s 341 1412 m -22 X s 341 1421 m -22 X s 341 1428 m -22 X s 363 1434 m -44 X s 341 1477 m -22 X s 341 1502 m -22 X s 341 1520 m -22 X s 341 1533 m -22 X s 341 1545 m -22 X s 341 1554 m -22 X s 341 1562 m -22 X s 341
 1569 m -22 X s 363 1576 m -44 X s 341 1619 m -22 X s 341 1644 m -22 X s 341 1661 m -22 X s 341 1675 m -22 X s 341 1686 m -22 X s 341 1696 m -22 X s 341 1704 m -22 X s 341 1711 m -22 X s 363 1718 m -44 X s 2179 584 m 1145 Y s 2157 627 m 22 X s 2157
 652 m 22 X s 2157 670 m 22 X s 2157 683 m 22 X s 2157 695 m 22 X s 2157 704 m 22 X s 2157 712 m 22 X s 2157 719 m 22 X s 2136 726 m 43 X s 2157 769 m 22 X s 2157 794 m 22 X s 2157 811 m 22 X s 2157 825 m 22 X s 2157 836 m 22 X s 2157 846 m 22 X s
 2157 854 m 22 X s 2157 861 m 22 X s 2136 868 m 43 X s 2157 910 m 22 X s 2157 935 m 22 X s 2157 953 m 22 X s 2157 967 m 22 X s 2157 978 m 22 X s 2157 987 m 22 X s 2157 996 m 22 X s 2157 1003 m 22 X s 2136 1009 m 43 X s 2157 1052 m 22 X s 2157 1077 m
 22 X s 2157 1095 m 22 X s 2157 1108 m 22 X s 2157 1120 m 22 X s 2157 1129 m 22 X s 2157 1137 m 22 X s 2157 1144 m 22 X s 2136 1151 m 43 X s 2157 1194 m 22 X s 2157 1219 m 22 X s 2157 1236 m 22 X s 2157 1250 m 22 X s 2157 1261 m 22 X s 2157 1271 m 22
 X s 2157 1279 m 22 X s 2157 1286 m 22 X s 2136 1293 m 43 X s 2157 1335 m 22 X s 2157 1360 m 22 X s 2157 1378 m 22 X s 2157 1392 m 22 X s 2157 1403 m 22 X s 2157 1412 m 22 X s 2157 1421 m 22 X s 2157 1428 m 22 X s 2136 1434 m 43 X s 2157 1477 m 22 X
 s 2157 1502 m 22 X s 2157 1520 m 22 X s 2157 1533 m 22 X s 2157 1545 m 22 X s 2157 1554 m 22 X s 2157 1562 m 22 X s 2157 1569 m 22 X s 2136 1576 m 43 X s 2157 1619 m 22 X s 2157 1644 m 22 X s 2157 1661 m 22 X s 2157 1675 m 22 X s 2157 1686 m 22 X s
 2157 1696 m 22 X s 2157 1704 m 22 X s 2157 1711 m 22 X s 2136 1718 m 43 X s
 gsave  2263 1770 2 313 C 406.765 1447.41 t 0 r /Helvetica findfont 64.4212 sf 0 0 m (VR0LmetSig for MB\255C) show NC gr 
 gsave  2263 1770 2 313 C 1464.36 1630.45 t 0 r /Helvetica findfont 64.4212 sf 0 0 m (SM Total) show NC gr  1 1 1 c 1338 1616 m 107 X 64 Y -107 X f 1 0 0 c 6 lw 1338 1648 m 107 X s black
 gsave  2263 1770 2 313 C 1464.36 1538.93 t 0 r /Helvetica findfont 64.4212 sf 0 0 m (Data) show NC gr  1391 1529 m 55 Y s 3 lw 1391 1557 m20 6 lw
 gsave  2263 1770 2 313 C 1464.36 1447.41 t 0 r /Helvetica findfont 64.4212 sf 0 0 m (W+jets) show NC gr  0.4 0.6 1 c 3 lw 1338 1434 m 107 X 64 Y -107 X f 6 lw black 3 lw 1338 1498 m 107 X s 1338 1434 m 107 X s 1445 1434 m 64 Y s 1338 1434 m 64 Y s
 gsave  2263 1770 2 313 C 1498.25 1355.88 t 0 r /Helvetica findfont 64.4212 sf 0 0 m (\(+EW\) & single top) show NC gr 
 gsave  2263 1770 2 313 C 1481.3 1355.88 t 0 r /Helvetica findfont 64.4212 sf 0 0 m (t) show NC gr  1481 1407 m 17 X s
 gsave  2263 1770 2 313 C 1464.36 1355.88 t 0 r /Helvetica findfont 64.4212 sf 0 0 m (t) show NC gr  0.6 1 0.6 c 1338 1343 m 107 X 63 Y -107 X f black 1338 1406 m 107 X s 1338 1343 m 107 X s 1445 1343 m 63 Y s 1338 1343 m 63 Y s
 gsave  2263 1770 2 313 C 1464.36 1264.36 t 0 r /Helvetica findfont 64.4212 sf 0 0 m (Z+jets) show NC gr  1 0.8 0.4 c 1338 1252 m 107 X 63 Y -107 X f black 1338 1315 m 107 X s 1338 1252 m 107 X s 1445 1252 m 63 Y s 1338 1252 m 63 Y s
 gsave  2263 1770 2 313 C 1464.36 1172.84 t 0 r /Helvetica findfont 64.4212 sf 0 0 m (Diboson) show NC gr  1 0.4 0.6 c 1338 1161 m 107 X 63 Y -107 X f black 1338 1224 m 107 X s 1338 1161 m 107 X s 1445 1161 m 63 Y s 1338 1161 m 63 Y s
 gsave  2263 1770 2 313 C 1464.36 1081.32 t 0 r /Helvetica findfont 64.4212 sf 0 0 m (Multi\255jet) show NC gr  0 0 0.4 c 1338 1070 m 107 X 63 Y -107 X f black 1338 1133 m 107 X s 1338 1070 m 107 X s 1445 1070 m 63 Y s 1338 1070 m 63 Y s
 gsave  2263 1770 2 313 C 911.832 1566.05 t 0 r /Helvetica findfont 44.0776 sf 0 0 m (\2551) show NC gr 
 gsave  2263 1770 2 313 C 471.17 1535.54 t 0 r /Helvetica findfont 64.4212 sf 0 0 m (=13TeV, 139 fb) show NC gr 
 gsave  2263 1770 2 313 C 440.662 1535.54 t 0 r /Helvetica findfont 64.4212 sf 0 0 m (s) show NC gr  6 lw 420 1573 m 7 -41 d s 3 lw 427 1532 m 7 61 d s 434 1593 m 37 X s 1 1 1 c 2254 561 2 2 bf black 1 1 1 c black 1860 358 318 187 bl 1 1 1 c black
 1860 358 318 187 bl 6 lw 1 1 1 c black 3 lw 457 364 m20 6 lw 3 lw 550 363 m20 6 lw 3 lw 643 359 m20 6 lw 3 lw 736 346 m20 6 lw 3 lw 829 346 m20 6 lw 3 lw 923 336 m20 6 lw 3 lw 1016 346 m20 6 lw 3 lw 1109 444 m20 6 lw 3 lw 318 187 m 1860 X s
 gsave  2254 561 2 2 C 1959.25 44.0662 t 0 r /Helvetica findfont 78.1689 sf 0 0 m ( [GeV]) show NC gr 
 gsave  2254 561 2 2 C 1928.75 -2.35513e-13 t 0 r /Helvetica findfont 50.9797 sf 0 0 m (T) show NC gr 
 gsave  2254 561 2 2 C 1657.57 44.0662 t 0 r /Helvetica findfont 78.1689 sf 0 0 m (1st jet p) show NC gr  434 201 m -14 Y s 481 194 m -7 Y s 527 194 m -7 Y s 574 194 m -7 Y s 620 194 m -7 Y s 667 201 m -14 Y s 713 194 m -7 Y s 760 194 m -7 Y s 806
 194 m -7 Y s 853 194 m -7 Y s 899 201 m -14 Y s 946 194 m -7 Y s 992 194 m -7 Y s 1039 194 m -7 Y s 1085 194 m -7 Y s 1132 201 m -14 Y s 1178 194 m -7 Y s 1225 194 m -7 Y s 1271 194 m -7 Y s 1318 194 m -7 Y s 1364 201 m -14 Y s 1411 194 m -7 Y s
 1457 194 m -7 Y s 1504 194 m -7 Y s 1550 194 m -7 Y s 1597 201 m -14 Y s 1643 194 m -7 Y s 1690 194 m -7 Y s 1737 194 m -7 Y s 1783 194 m -7 Y s 1830 201 m -14 Y s 1876 194 m -7 Y s 1923 194 m -7 Y s 1969 194 m -7 Y s 2016 194 m -7 Y s 2062 201 m
 -14 Y s 434 201 m -14 Y s 388 194 m -7 Y s 341 194 m -7 Y s 2062 201 m -14 Y s 2109 194 m -7 Y s 2155 194 m -7 Y s
 gsave  2254 561 2 2 C 369.478 118.64 t 0 r /Helvetica findfont 78.1689 sf 0 0 m (500) show NC gr 
 gsave  2254 561 2 2 C 576.251 118.64 t 0 r /Helvetica findfont 78.1689 sf 0 0 m (1000) show NC gr 
 gsave  2254 561 2 2 C 810.141 118.64 t 0 r /Helvetica findfont 78.1689 sf 0 0 m (1500) show NC gr 
 gsave  2254 561 2 2 C 1040.64 118.64 t 0 r /Helvetica findfont 78.1689 sf 0 0 m (2000) show NC gr 
 gsave  2254 561 2 2 C 1274.53 118.64 t 0 r /Helvetica findfont 78.1689 sf 0 0 m (2500) show NC gr 
 gsave  2254 561 2 2 C 1508.42 118.64 t 0 r /Helvetica findfont 78.1689 sf 0 0 m (3000) show NC gr 
 gsave  2254 561 2 2 C 1738.92 118.64 t 0 r /Helvetica findfont 78.1689 sf 0 0 m (3500) show NC gr 
 gsave  2254 561 2 2 C 1972.81 118.64 t 0 r /Helvetica findfont 78.1689 sf 0 0 m (4000) show NC gr  318 545 m 1860 X s 434 531 m 14 Y s 481 538 m 7 Y s 527 538 m 7 Y s 574 538 m 7 Y s 620 538 m 7 Y s 667 531 m 14 Y s 713 538 m 7 Y s 760 538 m 7 Y s
 806 538 m 7 Y s 853 538 m 7 Y s 899 531 m 14 Y s 946 538 m 7 Y s 992 538 m 7 Y s 1039 538 m 7 Y s 1085 538 m 7 Y s 1132 531 m 14 Y s 1178 538 m 7 Y s 1225 538 m 7 Y s 1271 538 m 7 Y s 1318 538 m 7 Y s 1364 531 m 14 Y s 1411 538 m 7 Y s 1457 538 m 7
 Y s 1504 538 m 7 Y s 1550 538 m 7 Y s 1597 531 m 14 Y s 1643 538 m 7 Y s 1690 538 m 7 Y s 1737 538 m 7 Y s 1783 538 m 7 Y s 1830 531 m 14 Y s 1876 538 m 7 Y s 1923 538 m 7 Y s 1969 538 m 7 Y s 2016 538 m 7 Y s 2062 531 m 14 Y s 434 531 m 14 Y s 388
 538 m 7 Y s 341 538 m 7 Y s 2062 531 m 14 Y s 2109 538 m 7 Y s 2155 538 m 7 Y s 318 187 m 358 Y s
 gsave  2254 561 2 2 C 166.096 284.736 t 90 r /Helvetica findfont 67.9729 sf 0 0 m (Data/SM) show NC gr  361 203 m -43 X s 339 220 m -21 X s 339 236 m -21 X s 339 252 m -21 X s 339 268 m -21 X s 361 285 m -43 X s 339 301 m -21 X s 339 317 m -21 X s
 339 334 m -21 X s 339 350 m -21 X s 361 366 m -43 X s 339 382 m -21 X s 339 399 m -21 X s 339 415 m -21 X s 339 431 m -21 X s 361 447 m -43 X s 339 464 m -21 X s 339 480 m -21 X s 339 496 m -21 X s 339 512 m -21 X s 361 529 m -43 X s 361 203 m -43 X
 s 339 187 m -21 X s 361 529 m -43 X s
 gsave  2254 561 2 2 C 261.008 183.044 t 0 r /Helvetica findfont 57.777 sf 0 0 m (0) show NC gr 
 gsave  2254 561 2 2 C 213.552 261.008 t 0 r /Helvetica findfont 57.777 sf 0 0 m (0.5) show NC gr 
 gsave  2254 561 2 2 C 271.177 342.361 t 0 r /Helvetica findfont 57.777 sf 0 0 m (1) show NC gr 
 gsave  2254 561 2 2 C 213.552 423.714 t 0 r /Helvetica findfont 57.777 sf 0 0 m (1.5) show NC gr 
 gsave  2254 561 2 2 C 261.008 505.067 t 0 r /Helvetica findfont 57.777 sf 0 0 m (2) show NC gr  2178 187 m 358 Y s 2135 203 m 43 X s 2157 220 m 21 X s 2157 236 m 21 X s 2157 252 m 21 X s 2157 268 m 21 X s 2135 285 m 43 X s 2157 301 m 21 X s 2157 317
 m 21 X s 2157 334 m 21 X s 2157 350 m 21 X s 2135 366 m 43 X s 2157 382 m 21 X s 2157 399 m 21 X s 2157 415 m 21 X s 2157 431 m 21 X s 2135 447 m 43 X s 2157 464 m 21 X s 2157 480 m 21 X s 2157 496 m 21 X s 2157 512 m 21 X s 2135 529 m 43 X s 2135
 203 m 43 X s 2157 187 m 21 X s 2135 529 m 43 X s 9 lw 457 378 m 9 Y s 457 387 m cl s 457 350 m -8 Y s 457 342 m cl s 829 359 m 10 Y s 829 369 m cl s 829 332 m -9 Y s 829 323 m cl s 923 349 m 24 Y s 923 373 m cl s 923 322 m -22 Y s 923 300 m cl s
 1016 360 m 47 Y s 1016 407 m cl s 1016 333 m -43 Y s 1016 290 m cl s 1109 457 m 88 Y s 1109 545 m cl s 1109 430 m -90 Y s 1109 340 m cl s 3 lw 457 364 550 363 643 359 736 346 829 346 923 336 1016 346 1109 444 8 { m20} R 9 lw 1 0 0 c 6 lw black 3 lw
 1 0 0 c 2178 227 m s 2178 255 m s 2178 284 m -10 -10 d s 2178 312 m -38 -38 d s 2085 220 m s 2069 203 m cl s 2178 341 m -67 -67 d s 2085 248 m s 2040 203 m cl s 2178 369 m -93 -92 d s 2012 203 m cl s 2178 398 m -93 -93 d s 1992 213 m -12 -12 d s
 2178 427 m -93 -93 d s 1992 241 m -40 -40 d s 2178 455 m -93 -92 d s 1992 270 m -69 -69 d s 2153 458 m -68 -67 d s 1992 298 m -93 -92 d s 2124 458 m -39 -38 d s 1992 327 m -93 -93 d s 2095 458 m -10 -10 d s 1992 356 m -93 -93 d s 1992 384 m -93 -93
 d s 1992 413 m -119 -119 d s 1992 441 m -147 -147 d s 1806 256 m -17 -18 d s 1992 470 m -176 -176 d s 1806 285 m -46 -47 d s 1992 499 m -261 -261 d s 1992 527 m -307 -306 d s 1968 531 m -69 -68 d s 1874 438 m -218 -217 d s 1939 531 m -40 -39 d s
 1845 438 m -217 -217 d s 1911 531 m -12 -11 d s 1816 438 m -196 -196 d s 1806 456 m -186 -185 d s 1806 485 m -207 -207 d s 1787 494 m -217 -216 d s 1758 494 m -217 -216 d s 1729 494 m -202 -202 d s 1713 506 m -205 -204 d s 1689 511 m -210 -209 d s
 1661 511 m -41 -40 d s 1604 454 m -154 -152 d s 1632 511 m -12 -12 d s 1575 454 m -141 -140 d s 1546 454 m -19 -19 d s 1522 430 m -100 -100 d s 1494 430 m -101 -100 d s 1465 430 m -101 -100 d s 1436 430 m -2 -2 d s 1408 402 m -88 -87 d s 1379 402 m
 -87 -87 d s 1350 402 m -87 -87 d s 1337 417 m -89 -88 d s 1308 417 m -78 -78 d s 1279 417 m -78 -78 d s 1251 417 m -3 -2 d s 1226 393 m -53 -54 d s 1197 393 m -62 -62 d s 1169 393 m -63 -62 d s 1149 402 m -71 -71 d s 1120 402 m -64 -64 d s 1092 402
 m -64 -64 d s 1063 402 m -1 -1 d s 1056 394 m -57 -56 d s 1027 394 m -57 -56 d s 998 394 m -52 -52 d s 970 394 m -1 X s 965 390 m -48 -48 d s 937 390 m -49 -48 d s 908 390 m -39 -38 d s 879 390 m -3 -3 d s 870 380 m -29 -28 d s 841 380 m -29 -28 d s
 812 380 m -29 -28 d s 784 380 m -1 X s 778 375 m -17 -17 d s 749 375 m -17 -17 d s 720 375 m -17 -17 d s 692 375 m -2 -2 d s 690 373 m -14 -14 d s 661 373 m -13 -14 d s 632 373 m -13 -14 d s 604 373 m -13 -13 d s 575 372 m -13 -12 d s 411 209 m s
 405 203 m cl s 546 372 m -13 -12 d s 411 238 m s 376 203 m cl s 517 372 m -13 -12 d s 504 359 m -2 -2 d s 411 266 m s 348 203 m cl s 491 375 m -18 -18 d s 411 295 m s 319 203 m cl s 463 375 m -19 -18 d s 411 324 m s 434 375 m -18 -18 d s 411 352 m s
 6 lw black[ 4 8] 0 sd 3 lw 318 447 m 1860 X s 318 285 m 1860 X s 1 0 0 c[  12 12 ] 0 sd 6 lw 318 366 m 1860 X s
 gr  gr showpage
end
%%EOF
