%!PS-Adobe-2.0 EPSF-2.0
%%BoundingBox:  0 0 567 521
%%Title: Distributions/jetPt_0__distrCRT_MB-GGd_beforeFit_forThesis.eps: canvas
%%Creator: ROOT Version 6.04/16
%%CreationDate: Tue May 19 22:02:34 2020
%%DocumentNeededResources: ProcSet (FontSetInit)
%%EndComments
%%BeginProlog
80 dict begin
/s {stroke} def /l {lineto} def /m {moveto} def /t {translate} def
/r {rotate} def /rl {roll}  def /R {repeat} def
/d {rlineto} def /rm {rmoveto} def /gr {grestore} def /f {eofill} def
/c {setrgbcolor} def /black {0 setgray} def /sd {setdash} def
/cl {closepath} def /sf {scalefont setfont} def /lw {setlinewidth} def
/box {m dup 0 exch d exch 0 d 0 exch neg d cl} def
/NC{systemdict begin initclip end}def/C{NC box clip newpath}def
/bl {box s} def /bf {gsave box gsave f grestore 1 lw [] 0 sd s grestore} def /Y { 0 exch d} def /X { 0 d} def 
/K {{pop pop 0 moveto} exch kshow} bind def
/ita {/ang 15 def gsave [1 0 ang dup sin exch cos div 1 0 0] concat} def 
/mp {newpath /y exch def /x exch def} def
/side {[w .77 mul w .23 mul] .385 w mul sd w 0 l currentpoint t -144 r} def
/mr {mp x y w2 0 360 arc} def /m24 {mr s} def /m20 {mr f} def
/mb {mp x y w2 add m w2 neg 0 d 0 w neg d w 0 d 0 w d cl} def
/mt {mp x y w2 add m w2 neg w neg d w 0 d cl} def
/m21 {mb f} def /m25 {mb s} def /m22 {mt f} def /m26{mt s} def
/m23 {mp x y w2 sub m w2 w d w neg 0 d cl f} def
/m27 {mp x y w2 add m w3 neg w2 neg d w3 w2 neg d w3 w2 d cl s} def
/m28 {mp x w2 sub y w2 sub w3 add m w3 0 d  0 w3 neg d w3 0 d 0 w3 d w3 0 d  0 w3 d w3 neg 0 d 0 w3 d w3 neg 0 d 0 w3 neg d w3 neg 0 d cl s } def
/m29 {mp gsave x w2 sub y w2 add w3 sub m currentpoint t 4 {side} repeat cl fill gr} def
/m30 {mp gsave x w2 sub y w2 add w3 sub m currentpoint t 4 {side} repeat cl s gr} def
/m31 {mp x y w2 sub m 0 w d x w2 sub y m w 0 d x w2 sub y w2 add m w w neg d x w2 sub y w2 sub m w w d s} def
/m32 {mp x y w2 sub m w2 w d w neg 0 d cl s} def
/m33 {mp x y w2 add m w3 neg w2 neg d w3 w2 neg d w3 w2 d cl f} def
/m34 {mp x w2 sub y w2 sub w3 add m w3 0 d  0 w3 neg d w3 0 d 0 w3 d w3 0 d  0 w3 d w3 neg 0 d 0 w3 d w3 neg 0 d 0 w3 neg d w3 neg 0 d cl f } def
/m2 {mp x y w2 sub m 0 w d x w2 sub y m w 0 d s} def
/m5 {mp x w2 sub y w2 sub m w w d x w2 sub y w2 add m w w neg d s} def
%%IncludeResource: ProcSet (FontSetInit)
%%IncludeResource: font Times-Roman
%%IncludeResource: font Times-Italic
%%IncludeResource: font Times-Bold
%%IncludeResource: font Times-BoldItalic
%%IncludeResource: font Helvetica
%%IncludeResource: font Helvetica-Oblique
%%IncludeResource: font Helvetica-Bold
%%IncludeResource: font Helvetica-BoldOblique
%%IncludeResource: font Courier
%%IncludeResource: font Courier-Oblique
%%IncludeResource: font Courier-Bold
%%IncludeResource: font Courier-BoldOblique
%%IncludeResource: font Symbol
%%IncludeResource: font ZapfDingbats
/reEncode {exch findfont dup length dict begin {1 index /FID eq  {pop pop} {def} ifelse } forall /Encoding exch def currentdict end dup /FontName get exch definefont pop } def [/Times-Bold /Times-Italic /Times-BoldItalic /Helvetica /Helvetica-Oblique
 /Helvetica-Bold /Helvetica-BoldOblique /Courier /Courier-Oblique /Courier-Bold /Courier-BoldOblique /Times-Roman /AvantGarde-Book /AvantGarde-BookOblique /AvantGarde-Demi /AvantGarde-DemiOblique /Bookman-Demi /Bookman-DemiItalic /Bookman-Light
 /Bookman-LightItalic /Helvetica-Narrow /Helvetica-Narrow-Bold /Helvetica-Narrow-BoldOblique /Helvetica-Narrow-Oblique /NewCenturySchlbk-Roman /NewCenturySchlbk-Bold /NewCenturySchlbk-BoldItalic /NewCenturySchlbk-Italic /Palatino-Bold
 /Palatino-BoldItalic /Palatino-Italic /Palatino-Roman ] {ISOLatin1Encoding reEncode } forall
%%EndProlog
%%BeginSetup
%%EndSetup
newpath  gsave  .25 .25 scale  gsave  0 0 t black[  ] 0 sd 3 lw 1 1 1 c 2268 2085 0 0 bf black 1 1 1 c 2263 1770 2 313 bf black 1 1 1 c black 1860 1145 319 584 bl 1 1 1 c black 1860 1145 319 584 bl 6 lw 1 1 1 c black 3 lw /w 33 def /w2 {w 2 div} def
 /w3 {w 3 div} def 366 1218 m20 6 lw 3 lw 459 1153 m20 6 lw 3 lw 552 1091 m20 6 lw 3 lw 645 1041 m20 6 lw 3 lw 738 972 m20 6 lw 831 910 m 2 Y s 3 lw 831 925 m20 6 lw 924 834 m 14 Y s 924 875 m 6 Y s 3 lw 924 861 m20 6 lw 1017 584 m 132 Y s 1017 744 m
 30 Y s 3 lw 1017 730 m20 6 lw 1296 584 m 132 Y s 1296 744 m 30 Y s 3 lw 1296 730 m20 6 lw 3 lw 319 584 m 1860 X s
 gsave  2263 1770 2 313 C 1949.08 376.258 t 0 r /Helvetica findfont 81.3741 sf 0 0 m ( [GeV]) show NC gr 
 gsave  2263 1770 2 313 C 1915.19 332.192 t 0 r /Helvetica findfont 54.2494 sf 0 0 m (T) show NC gr 
 gsave  2263 1770 2 313 C 1630.45 376.258 t 0 r /Helvetica findfont 81.3741 sf 0 0 m (1st jet p) show NC gr  435 584 m cl s 482 584 m cl s 528 584 m cl s 575 584 m cl s 621 584 m cl s 668 584 m cl s 714 584 m cl s 761 584 m cl s 807 584 m cl s 854
 584 m cl s 900 584 m cl s 947 584 m cl s 993 584 m cl s 1040 584 m cl s 1087 584 m cl s 1133 584 m cl s 1180 584 m cl s 1226 584 m cl s 1273 584 m cl s 1319 584 m cl s 1366 584 m cl s 1412 584 m cl s 1459 584 m cl s 1505 584 m cl s 1552 584 m cl s
 1598 584 m cl s 1645 584 m cl s 1691 584 m cl s 1738 584 m cl s 1784 584 m cl s 1831 584 m cl s 1877 584 m cl s 1924 584 m cl s 1970 584 m cl s 2017 584 m cl s 2063 584 m cl s 435 584 m cl s 389 584 m cl s 342 584 m cl s 2063 584 m cl s 2110 584 m
 cl s 2156 584 m cl s 319 1729 m 1860 X s 435 1729 m cl s 482 1729 m cl s 528 1729 m cl s 575 1729 m cl s 621 1729 m cl s 668 1729 m cl s 714 1729 m cl s 761 1729 m cl s 807 1729 m cl s 854 1729 m cl s 900 1729 m cl s 947 1729 m cl s 993 1729 m cl s
 1040 1729 m cl s 1087 1729 m cl s 1133 1729 m cl s 1180 1729 m cl s 1226 1729 m cl s 1273 1729 m cl s 1319 1729 m cl s 1366 1729 m cl s 1412 1729 m cl s 1459 1729 m cl s 1505 1729 m cl s 1552 1729 m cl s 1598 1729 m cl s 1645 1729 m cl s 1691 1729 m
 cl s 1738 1729 m cl s 1784 1729 m cl s 1831 1729 m cl s 1877 1729 m cl s 1924 1729 m cl s 1970 1729 m cl s 2017 1729 m cl s 2063 1729 m cl s 435 1729 m cl s 389 1729 m cl s 342 1729 m cl s 2063 1729 m cl s 2110 1729 m cl s 2156 1729 m cl s 319 584 m
 1145 Y s
 gsave  2263 1770 2 313 C 166.096 1091.49 t 90 r /Helvetica findfont 81.3741 sf 0 0 m (Events / 200 GeV) show NC gr  341 628 m -22 X s 341 654 m -22 X s 341 672 m -22 X s 341 686 m -22 X s 341 698 m -22 X s 341 707 m -22 X s 341 716 m -22 X s 341 723
 m -22 X s 363 730 m -44 X s
 gsave  2263 1770 2 313 C 300.555 702.836 t 0 r  -36 0 t /Helvetica findfont 64.4212 sf 0 0 m (1) show NC gr  341 774 m -22 X s 341 799 m -22 X s 341 818 m -22 X s 341 832 m -22 X s 341 843 m -22 X s 341 853 m -22 X s 341 861 m -22 X s 341 869 m -22
 X s 363 876 m -44 X s
 gsave  2263 1770 2 313 C 300.555 848.48 t 0 r  -73 0 t /Helvetica findfont 64.4212 sf 0 0 m (10) show NC gr  341 919 m -22 X s 341 945 m -22 X s 341 963 m -22 X s 341 977 m -22 X s 341 989 m -22 X s 341 999 m -22 X s 341 1007 m -22 X s 341 1015 m
 -22 X s 363 1021 m -44 X s
 gsave  2263 1770 2 313 C 274.567 1020.3 t 0 r /Helvetica findfont 44.0776 sf 0 0 m (2) show NC gr 
 gsave  2263 1770 2 313 C 203.383 993.185 t 0 r /Helvetica findfont 64.4212 sf 0 0 m (10) show NC gr  341 1065 m -22 X s 341 1091 m -22 X s 341 1109 m -22 X s 341 1123 m -22 X s 341 1135 m -22 X s 341 1144 m -22 X s 341 1153 m -22 X s 341 1160 m -22
 X s 363 1167 m -44 X s
 gsave  2263 1770 2 313 C 274.567 1169.45 t 0 r /Helvetica findfont 44.0776 sf 0 0 m (3) show NC gr 
 gsave  2263 1770 2 313 C 203.383 1138.94 t 0 r /Helvetica findfont 64.4212 sf 0 0 m (10) show NC gr  341 1211 m -22 X s 341 1236 m -22 X s 341 1255 m -22 X s 341 1269 m -22 X s 341 1280 m -22 X s 341 1290 m -22 X s 341 1298 m -22 X s 341 1306 m -22
 X s 363 1313 m -44 X s
 gsave  2263 1770 2 313 C 274.567 1311.82 t 0 r /Helvetica findfont 44.0776 sf 0 0 m (4) show NC gr 
 gsave  2263 1770 2 313 C 203.383 1284.7 t 0 r /Helvetica findfont 64.4212 sf 0 0 m (10) show NC gr  341 1356 m -22 X s 341 1382 m -22 X s 341 1400 m -22 X s 341 1414 m -22 X s 341 1426 m -22 X s 341 1436 m -22 X s 341 1444 m -22 X s 341 1452 m -22 X
 s 363 1458 m -44 X s
 gsave  2263 1770 2 313 C 274.567 1460.97 t 0 r /Helvetica findfont 44.0776 sf 0 0 m (5) show NC gr 
 gsave  2263 1770 2 313 C 203.383 1430.46 t 0 r /Helvetica findfont 64.4212 sf 0 0 m (10) show NC gr  341 1502 m -22 X s 341 1528 m -22 X s 341 1546 m -22 X s 341 1560 m -22 X s 341 1572 m -22 X s 341 1581 m -22 X s 341 1590 m -22 X s 341 1597 m -22
 X s 363 1604 m -44 X s
 gsave  2263 1770 2 313 C 274.567 1606.72 t 0 r /Helvetica findfont 44.0776 sf 0 0 m (6) show NC gr 
 gsave  2263 1770 2 313 C 203.383 1576.22 t 0 r /Helvetica findfont 64.4212 sf 0 0 m (10) show NC gr  341 1648 m -22 X s 341 1673 m -22 X s 341 1692 m -22 X s 341 1706 m -22 X s 341 1717 m -22 X s 341 1727 m -22 X s 2179 584 m 1145 Y s 2157 628 m 22
 X s 2157 654 m 22 X s 2157 672 m 22 X s 2157 686 m 22 X s 2157 698 m 22 X s 2157 707 m 22 X s 2157 716 m 22 X s 2157 723 m 22 X s 2136 730 m 43 X s 2157 774 m 22 X s 2157 799 m 22 X s 2157 818 m 22 X s 2157 832 m 22 X s 2157 843 m 22 X s 2157 853 m
 22 X s 2157 861 m 22 X s 2157 869 m 22 X s 2136 876 m 43 X s 2157 919 m 22 X s 2157 945 m 22 X s 2157 963 m 22 X s 2157 977 m 22 X s 2157 989 m 22 X s 2157 999 m 22 X s 2157 1007 m 22 X s 2157 1015 m 22 X s 2136 1021 m 43 X s 2157 1065 m 22 X s 2157
 1091 m 22 X s 2157 1109 m 22 X s 2157 1123 m 22 X s 2157 1135 m 22 X s 2157 1144 m 22 X s 2157 1153 m 22 X s 2157 1160 m 22 X s 2136 1167 m 43 X s 2157 1211 m 22 X s 2157 1236 m 22 X s 2157 1255 m 22 X s 2157 1269 m 22 X s 2157 1280 m 22 X s 2157
 1290 m 22 X s 2157 1298 m 22 X s 2157 1306 m 22 X s 2136 1313 m 43 X s 2157 1356 m 22 X s 2157 1382 m 22 X s 2157 1400 m 22 X s 2157 1414 m 22 X s 2157 1426 m 22 X s 2157 1436 m 22 X s 2157 1444 m 22 X s 2157 1452 m 22 X s 2136 1458 m 43 X s 2157
 1502 m 22 X s 2157 1528 m 22 X s 2157 1546 m 22 X s 2157 1560 m 22 X s 2157 1572 m 22 X s 2157 1581 m 22 X s 2157 1590 m 22 X s 2157 1597 m 22 X s 2136 1604 m 43 X s 2157 1648 m 22 X s 2157 1673 m 22 X s 2157 1692 m 22 X s 2157 1706 m 22 X s 2157
 1717 m 22 X s 2157 1727 m 22 X s 0.6 1 0.6 c black 0.6 1 0.6 c 319 584 m 638 Y 93 X -54 Y 93 X -51 Y 93 X -50 Y 93 X -56 Y 93 X -54 Y 93 X -63 Y 93 X -68 Y 93 X -52 Y 93 X -20 Y 93 X -36 Y 93 X -101 Y 93 X -33 Y 744 X f black 0.6 1 0.6 c black 319
 1222 m 93 X -54 Y 93 X -51 Y 93 X -50 Y 93 X -56 Y 93 X -54 Y 93 X -63 Y 93 X -68 Y 93 X -52 Y 93 X -20 Y 93 X -36 Y 93 X -101 Y 93 X -33 Y 744 X s 0.999 0.999 0.999 c black 0.999 0.999 0.999 c 319 584 m 519 Y 93 X -46 Y 93 X -49 Y 93 X -51 Y 93 X
 -50 Y 93 X -54 Y 93 X -59 Y 93 X -66 Y 93 X -28 Y 93 X -5 Y 93 X -107 Y 93 X 2 Y 93 X -6 Y 744 X f black 0.999 0.999 0.999 c black 319 1103 m 93 X -46 Y 93 X -49 Y 93 X -51 Y 93 X -50 Y 93 X -54 Y 93 X -59 Y 93 X -66 Y 93 X -28 Y 93 X -5 Y 93 X -107
 Y 93 X 2 Y 93 X -6 Y 744 X s 1 1 1 c black 319 1103 m 93 X -46 Y 93 X -49 Y 93 X -51 Y 93 X -50 Y 93 X -54 Y 93 X -59 Y 93 X -66 Y 93 X -28 Y 93 X -5 Y 93 X -107 Y 93 X 2 Y 93 X -6 Y 744 X s 0.4 0.6 1 c black 0.4 0.6 1 c 319 584 m 519 Y 93 X -46 Y
 93 X -49 Y 93 X -51 Y 93 X -50 Y 93 X -54 Y 93 X -59 Y 93 X -66 Y 93 X -28 Y 93 X -5 Y 93 X -107 Y 93 X 2 Y 93 X -6 Y 744 X f black 0.4 0.6 1 c black 319 1103 m 93 X -46 Y 93 X -49 Y 93 X -51 Y 93 X -50 Y 93 X -54 Y 93 X -59 Y 93 X -66 Y 93 X -28 Y
 93 X -5 Y 93 X -107 Y 93 X 2 Y 93 X -6 Y 744 X s 0.999 0.999 0.999 c black 0.999 0.999 0.999 c 319 584 m 368 Y 93 X -34 Y 93 X -44 Y 93 X -50 Y 93 X -63 Y 93 X -82 Y 93 X 6 Y 93 X -101 Y 93 X 51 Y 93 X -51 Y 1023 X f black 0.999 0.999 0.999 c black
 319 952 m 93 X -34 Y 93 X -44 Y 93 X -50 Y 93 X -63 Y 93 X -82 Y 93 X 6 Y 93 X -101 Y 93 X 51 Y 93 X -51 Y 1023 X s 1 1 1 c black 319 952 m 93 X -34 Y 93 X -44 Y 93 X -50 Y 93 X -63 Y 93 X -82 Y 93 X 6 Y 93 X -101 Y 93 X 51 Y 93 X -51 Y 1023 X s 1
 0.8 0.4 c black 1 0.8 0.4 c 319 584 m 368 Y 93 X -34 Y 93 X -44 Y 93 X -50 Y 93 X -63 Y 93 X -82 Y 93 X 6 Y 93 X -101 Y 93 X 51 Y 93 X -51 Y 1023 X f black 1 0.8 0.4 c black 319 952 m 93 X -34 Y 93 X -44 Y 93 X -50 Y 93 X -63 Y 93 X -82 Y 93 X 6 Y
 93 X -101 Y 93 X 51 Y 93 X -51 Y 1023 X s 0.999 0.999 0.999 c black 0.999 0.999 0.999 c 319 584 m 362 Y 93 X -37 Y 93 X -40 Y 93 X -57 Y 93 X -61 Y 93 X -75 Y 93 X 7 Y 93 X -99 Y 93 X 51 Y 93 X -51 Y 1023 X f black 0.999 0.999 0.999 c black 319 946
 m 93 X -37 Y 93 X -40 Y 93 X -57 Y 93 X -61 Y 93 X -75 Y 93 X 7 Y 93 X -99 Y 93 X 51 Y 93 X -51 Y 1023 X s 1 1 1 c black 319 946 m 93 X -37 Y 93 X -40 Y 93 X -57 Y 93 X -61 Y 93 X -75 Y 93 X 7 Y 93 X -99 Y 93 X 51 Y 93 X -51 Y 1023 X s 1 0.4 0.6 c
 black 1 0.4 0.6 c 319 584 m 362 Y 93 X -37 Y 93 X -40 Y 93 X -57 Y 93 X -61 Y 93 X -75 Y 93 X 7 Y 93 X -99 Y 93 X 51 Y 93 X -51 Y 1023 X f black 1 0.4 0.6 c black 319 946 m 93 X -37 Y 93 X -40 Y 93 X -57 Y 93 X -61 Y 93 X -75 Y 93 X 7 Y 93 X -99 Y
 93 X 51 Y 93 X -51 Y 1023 X s 1 0 0 c 6 lw 1 1 1 c black 1 0 0 c 319 1222 m 93 X -54 Y 93 X -51 Y 93 X -50 Y 93 X -56 Y 93 X -54 Y 93 X -63 Y 93 X -68 Y 93 X -52 Y 93 X -20 Y 93 X -36 Y 93 X -101 Y 93 X -33 Y 744 X s black 3 lw 1 0 0 c 1 lw <<
 /PatternType 1 /PaintType 2 /TilingType 1 /BBox [ 0 0 100 100 ] /XStep 100 /YStep 100 /PaintProc { begin gsave 0 100 m 100 0 l s gr end } >> [ 0.24 0 0 0.24 0 0 ] makepattern /P05 exch def /cs {[/Pattern /DeviceRGB] setcolorspace} def /FA {f
 [/DeviceRGB] setcolorspace} def cs 1 0 0 P05 setcolor 319 584 m 639 Y 93 X -53 Y 93 X -51 Y 93 X -49 Y 93 X -56 Y 93 X -53 Y 93 X -61 Y 93 X -64 Y 93 X -48 Y 93 X -13 Y 93 X -29 Y 93 X -98 Y 93 X -64 Y -93 X 82 Y -93 X 55 Y -93 X 34 Y -93 X 60 Y -93
 X 72 Y -93 X 65 Y -93 X 55 Y -93 X 57 Y -93 X 51 Y -93 X 52 Y -93 X 54 Y -93 X -637 Y FA 6 lw 1 1 1 c 15 lw 924 841 m -6 Y s 924 835 m cl s 1017 750 m 32 Y s 1017 782 m cl s 1017 710 m -91 Y s 1017 619 m cl s 1296 750 m 32 Y s 1296 782 m cl s 1296
 710 m -91 Y s 1296 619 m cl s black 1 1 1 c 3 lw /w 43 def /w2 {w 2 div} def /w3 {w 3 div} def 366 1218 459 1153 552 1091 645 1041 738 972 831 925 924 861 1017 730 8 { m20} R 15 lw 3 lw 1296 730 m20 15 lw black 6 lw 1 1 1 c black 3 lw /w 33 def /w2
 {w 2 div} def /w3 {w 3 div} def 366 1218 m20 6 lw 3 lw 459 1153 m20 6 lw 3 lw 552 1091 m20 6 lw 3 lw 645 1041 m20 6 lw 3 lw 738 972 m20 6 lw 831 910 m 2 Y s 3 lw 831 925 m20 6 lw 924 834 m 14 Y s 924 875 m 6 Y s 3 lw 924 861 m20 6 lw 1017 584 m 132
 Y s 1017 744 m 30 Y s 3 lw 1017 730 m20 6 lw 1296 584 m 132 Y s 1296 744 m 30 Y s 3 lw 1296 730 m20 6 lw 831 912 m -1 Y s 831 911 m cl s 924 875 m 6 Y s 924 881 m cl s 924 848 m -13 Y s 924 835 m cl s 1017 744 m 38 Y s 1017 782 m cl s 1017 716 m -97
 Y s 1017 619 m cl s 1296 744 m 38 Y s 1296 782 m cl s 1296 716 m -97 Y s 1296 619 m cl s 3 lw 366 1218 459 1153 552 1091 645 1041 738 972 831 925 924 861 1017 730 8 { m20} R 6 lw 3 lw 1296 730 m20 6 lw 3 lw 319 584 m 1860 X s 435 584 m cl s 482 584
 m cl s 528 584 m cl s 575 584 m cl s 621 584 m cl s 668 584 m cl s 714 584 m cl s 761 584 m cl s 807 584 m cl s 854 584 m cl s 900 584 m cl s 947 584 m cl s 993 584 m cl s 1040 584 m cl s 1087 584 m cl s 1133 584 m cl s 1180 584 m cl s 1226 584 m cl
 s 1273 584 m cl s 1319 584 m cl s 1366 584 m cl s 1412 584 m cl s 1459 584 m cl s 1505 584 m cl s 1552 584 m cl s 1598 584 m cl s 1645 584 m cl s 1691 584 m cl s 1738 584 m cl s 1784 584 m cl s 1831 584 m cl s 1877 584 m cl s 1924 584 m cl s 1970
 584 m cl s 2017 584 m cl s 2063 584 m cl s 435 584 m cl s 389 584 m cl s 342 584 m cl s 2063 584 m cl s 2110 584 m cl s 2156 584 m cl s 319 1729 m 1860 X s 435 1729 m cl s 482 1729 m cl s 528 1729 m cl s 575 1729 m cl s 621 1729 m cl s 668 1729 m cl
 s 714 1729 m cl s 761 1729 m cl s 807 1729 m cl s 854 1729 m cl s 900 1729 m cl s 947 1729 m cl s 993 1729 m cl s 1040 1729 m cl s 1087 1729 m cl s 1133 1729 m cl s 1180 1729 m cl s 1226 1729 m cl s 1273 1729 m cl s 1319 1729 m cl s 1366 1729 m cl s
 1412 1729 m cl s 1459 1729 m cl s 1505 1729 m cl s 1552 1729 m cl s 1598 1729 m cl s 1645 1729 m cl s 1691 1729 m cl s 1738 1729 m cl s 1784 1729 m cl s 1831 1729 m cl s 1877 1729 m cl s 1924 1729 m cl s 1970 1729 m cl s 2017 1729 m cl s 2063 1729 m
 cl s 435 1729 m cl s 389 1729 m cl s 342 1729 m cl s 2063 1729 m cl s 2110 1729 m cl s 2156 1729 m cl s 319 584 m 1145 Y s 341 628 m -22 X s 341 654 m -22 X s 341 672 m -22 X s 341 686 m -22 X s 341 698 m -22 X s 341 707 m -22 X s 341 716 m -22 X s
 341 723 m -22 X s 363 730 m -44 X s 341 774 m -22 X s 341 799 m -22 X s 341 818 m -22 X s 341 832 m -22 X s 341 843 m -22 X s 341 853 m -22 X s 341 861 m -22 X s 341 869 m -22 X s 363 876 m -44 X s 341 919 m -22 X s 341 945 m -22 X s 341 963 m -22 X
 s 341 977 m -22 X s 341 989 m -22 X s 341 999 m -22 X s 341 1007 m -22 X s 341 1015 m -22 X s 363 1021 m -44 X s 341 1065 m -22 X s 341 1091 m -22 X s 341 1109 m -22 X s 341 1123 m -22 X s 341 1135 m -22 X s 341 1144 m -22 X s 341 1153 m -22 X s 341
 1160 m -22 X s 363 1167 m -44 X s 341 1211 m -22 X s 341 1236 m -22 X s 341 1255 m -22 X s 341 1269 m -22 X s 341 1280 m -22 X s 341 1290 m -22 X s 341 1298 m -22 X s 341 1306 m -22 X s 363 1313 m -44 X s 341 1356 m -22 X s 341 1382 m -22 X s 341
 1400 m -22 X s 341 1414 m -22 X s 341 1426 m -22 X s 341 1436 m -22 X s 341 1444 m -22 X s 341 1452 m -22 X s 363 1458 m -44 X s 341 1502 m -22 X s 341 1528 m -22 X s 341 1546 m -22 X s 341 1560 m -22 X s 341 1572 m -22 X s 341 1581 m -22 X s 341
 1590 m -22 X s 341 1597 m -22 X s 363 1604 m -44 X s 341 1648 m -22 X s 341 1673 m -22 X s 341 1692 m -22 X s 341 1706 m -22 X s 341 1717 m -22 X s 341 1727 m -22 X s 2179 584 m 1145 Y s 2157 628 m 22 X s 2157 654 m 22 X s 2157 672 m 22 X s 2157 686
 m 22 X s 2157 698 m 22 X s 2157 707 m 22 X s 2157 716 m 22 X s 2157 723 m 22 X s 2136 730 m 43 X s 2157 774 m 22 X s 2157 799 m 22 X s 2157 818 m 22 X s 2157 832 m 22 X s 2157 843 m 22 X s 2157 853 m 22 X s 2157 861 m 22 X s 2157 869 m 22 X s 2136
 876 m 43 X s 2157 919 m 22 X s 2157 945 m 22 X s 2157 963 m 22 X s 2157 977 m 22 X s 2157 989 m 22 X s 2157 999 m 22 X s 2157 1007 m 22 X s 2157 1015 m 22 X s 2136 1021 m 43 X s 2157 1065 m 22 X s 2157 1091 m 22 X s 2157 1109 m 22 X s 2157 1123 m 22
 X s 2157 1135 m 22 X s 2157 1144 m 22 X s 2157 1153 m 22 X s 2157 1160 m 22 X s 2136 1167 m 43 X s 2157 1211 m 22 X s 2157 1236 m 22 X s 2157 1255 m 22 X s 2157 1269 m 22 X s 2157 1280 m 22 X s 2157 1290 m 22 X s 2157 1298 m 22 X s 2157 1306 m 22 X
 s 2136 1313 m 43 X s 2157 1356 m 22 X s 2157 1382 m 22 X s 2157 1400 m 22 X s 2157 1414 m 22 X s 2157 1426 m 22 X s 2157 1436 m 22 X s 2157 1444 m 22 X s 2157 1452 m 22 X s 2136 1458 m 43 X s 2157 1502 m 22 X s 2157 1528 m 22 X s 2157 1546 m 22 X s
 2157 1560 m 22 X s 2157 1572 m 22 X s 2157 1581 m 22 X s 2157 1590 m 22 X s 2157 1597 m 22 X s 2136 1604 m 43 X s 2157 1648 m 22 X s 2157 1673 m 22 X s 2157 1692 m 22 X s 2157 1706 m 22 X s 2157 1717 m 22 X s 2157 1727 m 22 X s
 gsave  2263 1770 2 313 C 406.765 1447.41 t 0 r /Helvetica findfont 64.4212 sf 0 0 m (CRT for MB\255GGd) show NC gr 
 gsave  2263 1770 2 313 C 1464.36 1616.89 t 0 r /Helvetica findfont 64.4212 sf 0 0 m (SM Total) show NC gr  1 1 1 c 1338 1603 m 107 X 74 Y -107 X f 1 0 0 c 6 lw 1338 1640 m 107 X s black
 gsave  2263 1770 2 313 C 1464.36 1511.81 t 0 r /Helvetica findfont 64.4212 sf 0 0 m (Data) show NC gr  1391 1502 m 64 Y s 3 lw 1391 1534 m20 6 lw
 gsave  2263 1770 2 313 C 1498.25 1406.73 t 0 r /Helvetica findfont 64.4212 sf 0 0 m (\(+EW\) & single top) show NC gr 
 gsave  2263 1770 2 313 C 1481.3 1406.73 t 0 r /Helvetica findfont 64.4212 sf 0 0 m (t) show NC gr  3 lw 1481 1458 m 17 X s
 gsave  2263 1770 2 313 C 1464.36 1406.73 t 0 r /Helvetica findfont 64.4212 sf 0 0 m (t) show NC gr  0.6 1 0.6 c 1338 1391 m 107 X 74 Y -107 X f black 1338 1465 m 107 X s 1338 1391 m 107 X s 1445 1391 m 74 Y s 1338 1391 m 74 Y s
 gsave  2263 1770 2 313 C 1464.36 1298.26 t 0 r /Helvetica findfont 64.4212 sf 0 0 m (W+jets) show NC gr  0.4 0.6 1 c 1338 1284 m 107 X 75 Y -107 X f black 1338 1359 m 107 X s 1338 1284 m 107 X s 1445 1284 m 75 Y s 1338 1284 m 75 Y s
 gsave  2263 1770 2 313 C 1464.36 1193.18 t 0 r /Helvetica findfont 64.4212 sf 0 0 m (Z+jets) show NC gr  1 0.8 0.4 c 1338 1178 m 107 X 75 Y -107 X f black 1338 1253 m 107 X s 1338 1178 m 107 X s 1445 1178 m 75 Y s 1338 1178 m 75 Y s
 gsave  2263 1770 2 313 C 1464.36 1088.1 t 0 r /Helvetica findfont 64.4212 sf 0 0 m (Diboson) show NC gr  1 0.4 0.6 c 1338 1072 m 107 X 74 Y -107 X f black 1338 1146 m 107 X s 1338 1072 m 107 X s 1445 1072 m 74 Y s 1338 1072 m 74 Y s
 gsave  2263 1770 2 313 C 911.832 1566.05 t 0 r /Helvetica findfont 44.0776 sf 0 0 m (\2551) show NC gr 
 gsave  2263 1770 2 313 C 471.17 1535.54 t 0 r /Helvetica findfont 64.4212 sf 0 0 m (=13TeV, 139 fb) show NC gr 
 gsave  2263 1770 2 313 C 440.662 1535.54 t 0 r /Helvetica findfont 64.4212 sf 0 0 m (s) show NC gr  6 lw 420 1573 m 7 -41 d s 3 lw 427 1532 m 7 61 d s 434 1593 m 37 X s 1 1 1 c 2254 561 2 2 bf black 1 1 1 c black 1860 358 318 187 bl 1 1 1 c black
 1860 358 318 187 bl 6 lw 1 1 1 c black 3 lw 364 355 m20 6 lw 3 lw 457 332 m20 6 lw 3 lw 550 311 m20 6 lw 3 lw 643 310 m20 6 lw 3 lw 736 292 m20 6 lw 3 lw 829 302 m20 6 lw 3 lw 923 301 m20 6 lw 3 lw 1016 239 m20 6 lw 3 lw 1295 399 m20 6 lw 3 lw 318
 187 m 1860 X s
 gsave  2254 561 2 2 C 1959.25 44.0662 t 0 r /Helvetica findfont 78.1689 sf 0 0 m ( [GeV]) show NC gr 
 gsave  2254 561 2 2 C 1928.75 -2.35513e-13 t 0 r /Helvetica findfont 50.9797 sf 0 0 m (T) show NC gr 
 gsave  2254 561 2 2 C 1657.57 44.0662 t 0 r /Helvetica findfont 78.1689 sf 0 0 m (1st jet p) show NC gr  434 201 m -14 Y s 481 194 m -7 Y s 527 194 m -7 Y s 574 194 m -7 Y s 620 194 m -7 Y s 667 201 m -14 Y s 713 194 m -7 Y s 760 194 m -7 Y s 806
 194 m -7 Y s 853 194 m -7 Y s 899 201 m -14 Y s 946 194 m -7 Y s 992 194 m -7 Y s 1039 194 m -7 Y s 1085 194 m -7 Y s 1132 201 m -14 Y s 1178 194 m -7 Y s 1225 194 m -7 Y s 1271 194 m -7 Y s 1318 194 m -7 Y s 1364 201 m -14 Y s 1411 194 m -7 Y s
 1457 194 m -7 Y s 1504 194 m -7 Y s 1550 194 m -7 Y s 1597 201 m -14 Y s 1643 194 m -7 Y s 1690 194 m -7 Y s 1737 194 m -7 Y s 1783 194 m -7 Y s 1830 201 m -14 Y s 1876 194 m -7 Y s 1923 194 m -7 Y s 1969 194 m -7 Y s 2016 194 m -7 Y s 2062 201 m
 -14 Y s 434 201 m -14 Y s 388 194 m -7 Y s 341 194 m -7 Y s 2062 201 m -14 Y s 2109 194 m -7 Y s 2155 194 m -7 Y s
 gsave  2254 561 2 2 C 369.478 118.64 t 0 r /Helvetica findfont 78.1689 sf 0 0 m (500) show NC gr 
 gsave  2254 561 2 2 C 576.251 118.64 t 0 r /Helvetica findfont 78.1689 sf 0 0 m (1000) show NC gr 
 gsave  2254 561 2 2 C 810.141 118.64 t 0 r /Helvetica findfont 78.1689 sf 0 0 m (1500) show NC gr 
 gsave  2254 561 2 2 C 1040.64 118.64 t 0 r /Helvetica findfont 78.1689 sf 0 0 m (2000) show NC gr 
 gsave  2254 561 2 2 C 1274.53 118.64 t 0 r /Helvetica findfont 78.1689 sf 0 0 m (2500) show NC gr 
 gsave  2254 561 2 2 C 1508.42 118.64 t 0 r /Helvetica findfont 78.1689 sf 0 0 m (3000) show NC gr 
 gsave  2254 561 2 2 C 1738.92 118.64 t 0 r /Helvetica findfont 78.1689 sf 0 0 m (3500) show NC gr 
 gsave  2254 561 2 2 C 1972.81 118.64 t 0 r /Helvetica findfont 78.1689 sf 0 0 m (4000) show NC gr  318 545 m 1860 X s 434 531 m 14 Y s 481 538 m 7 Y s 527 538 m 7 Y s 574 538 m 7 Y s 620 538 m 7 Y s 667 531 m 14 Y s 713 538 m 7 Y s 760 538 m 7 Y s
 806 538 m 7 Y s 853 538 m 7 Y s 899 531 m 14 Y s 946 538 m 7 Y s 992 538 m 7 Y s 1039 538 m 7 Y s 1085 538 m 7 Y s 1132 531 m 14 Y s 1178 538 m 7 Y s 1225 538 m 7 Y s 1271 538 m 7 Y s 1318 538 m 7 Y s 1364 531 m 14 Y s 1411 538 m 7 Y s 1457 538 m 7
 Y s 1504 538 m 7 Y s 1550 538 m 7 Y s 1597 531 m 14 Y s 1643 538 m 7 Y s 1690 538 m 7 Y s 1737 538 m 7 Y s 1783 538 m 7 Y s 1830 531 m 14 Y s 1876 538 m 7 Y s 1923 538 m 7 Y s 1969 538 m 7 Y s 2016 538 m 7 Y s 2062 531 m 14 Y s 434 531 m 14 Y s 388
 538 m 7 Y s 341 538 m 7 Y s 2062 531 m 14 Y s 2109 538 m 7 Y s 2155 538 m 7 Y s 318 187 m 358 Y s
 gsave  2254 561 2 2 C 166.096 284.736 t 90 r /Helvetica findfont 67.9729 sf 0 0 m (Data/SM) show NC gr  361 203 m -43 X s 339 220 m -21 X s 339 236 m -21 X s 339 252 m -21 X s 339 268 m -21 X s 361 285 m -43 X s 339 301 m -21 X s 339 317 m -21 X s
 339 334 m -21 X s 339 350 m -21 X s 361 366 m -43 X s 339 382 m -21 X s 339 399 m -21 X s 339 415 m -21 X s 339 431 m -21 X s 361 447 m -43 X s 339 464 m -21 X s 339 480 m -21 X s 339 496 m -21 X s 339 512 m -21 X s 361 529 m -43 X s 361 203 m -43 X
 s 339 187 m -21 X s 361 529 m -43 X s
 gsave  2254 561 2 2 C 261.008 183.044 t 0 r /Helvetica findfont 57.777 sf 0 0 m (0) show NC gr 
 gsave  2254 561 2 2 C 213.552 261.008 t 0 r /Helvetica findfont 57.777 sf 0 0 m (0.5) show NC gr 
 gsave  2254 561 2 2 C 271.177 342.361 t 0 r /Helvetica findfont 57.777 sf 0 0 m (1) show NC gr 
 gsave  2254 561 2 2 C 213.552 423.714 t 0 r /Helvetica findfont 57.777 sf 0 0 m (1.5) show NC gr 
 gsave  2254 561 2 2 C 261.008 505.067 t 0 r /Helvetica findfont 57.777 sf 0 0 m (2) show NC gr  2178 187 m 358 Y s 2135 203 m 43 X s 2157 220 m 21 X s 2157 236 m 21 X s 2157 252 m 21 X s 2157 268 m 21 X s 2135 285 m 43 X s 2157 301 m 21 X s 2157 317
 m 21 X s 2157 334 m 21 X s 2157 350 m 21 X s 2135 366 m 43 X s 2157 382 m 21 X s 2157 399 m 21 X s 2157 415 m 21 X s 2157 431 m 21 X s 2135 447 m 43 X s 2157 464 m 21 X s 2157 480 m 21 X s 2157 496 m 21 X s 2157 512 m 21 X s 2135 529 m 43 X s 2135
 203 m 43 X s 2157 187 m 21 X s 2135 529 m 43 X s 9 lw 829 316 m 8 Y s 829 324 m cl s 829 289 m -7 Y s 829 282 m cl s 923 314 m 22 Y s 923 336 m cl s 923 287 m -20 Y s 923 267 m cl s 1016 253 m 32 Y s 1016 285 m cl s 1016 225 m -15 Y s 1016 210 m cl
 s 1295 413 m 132 Y s 1295 545 m cl s 1295 386 m -148 Y s 1295 238 m cl s 3 lw 364 355 457 332 550 311 643 310 736 292 829 302 923 301 1016 239 8 { m20} R 9 lw 3 lw 1295 399 m20 9 lw 1 0 0 c 6 lw black 3 lw 1 0 0 c 2155 203 m cl s 2127 203 m cl s
 2098 203 m cl s 2069 203 m cl s 2040 203 m cl s 2012 203 m cl s 1983 203 m cl s 1954 203 m cl s 1926 203 m cl s 1897 203 m cl s 1868 203 m cl s 1840 203 m cl s 1811 203 m cl s 1782 203 m cl s 1754 203 m cl s 1725 203 m cl s 1713 220 m s 1713 249 m
 -20 -21 d s 1713 278 m -49 -50 d s 1713 306 m -78 -78 d s 1713 335 m -93 -93 d s 1713 363 m -121 -121 d s 1713 392 m -150 -150 d s 1713 421 m -179 -179 d s 1713 449 m -186 -185 d s 1713 478 m -200 -200 d s 1710 504 m -226 -226 d s 1682 504 m -226
 -226 d s 1653 504 m -241 -241 d s 1624 504 m -4 -5 d s 1610 490 m -227 -227 d s 1582 490 m -227 -227 d s 1553 490 m -26 -26 d s 1517 454 m -180 -179 d s 1488 454 m -179 -179 d s 1460 454 m -180 -179 d s 1434 457 m -183 -182 d s 1417 469 m -169 -169
 d s 1389 469 m -170 -169 d s 1360 469 m -169 -169 d s 1320 457 m -158 -157 d s 1291 457 m -136 -135 d s 1262 457 m -14 -14 d s 1237 432 m -107 -107 d s 1208 432 m -107 -107 d s 1179 432 m -24 -24 d s 1155 407 m -83 -82 d s 1126 407 m -68 -67 d s
 1097 407 m -67 -67 d s 1068 407 m -6 -6 d s 1054 392 m -53 -52 d s 1025 392 m -53 -52 d s 996 392 m -42 -42 d s 957 382 m -32 -32 d s 928 382 m -31 -32 d s 900 382 m -28 -28 d s 867 378 m -23 -24 d s 838 378 m -23 -24 d s 809 378 m -23 -24 d s 778
 375 m -18 -18 d s 750 375 m -19 -18 d s 721 375 m -19 -18 d s 692 375 m -16 -16 d s 662 373 m -15 -14 d s 633 373 m -15 -14 d s 604 373 m -13 -13 d s 574 372 m -12 -12 d s 546 372 m -12 -12 d s 517 372 m -12 -12 d s 486 370 m -7 -8 d s 457 370 m -7
 -8 d s 318 231 m s 428 370 m -7 -8 d s 318 259 m s 399 368 m -5 -4 d s 318 288 m s 370 368 m -5 -4 d s 318 317 m s 341 368 m -5 -4 d s 318 345 m s 6 lw black[ 4 8] 0 sd 3 lw 318 447 m 1860 X s 318 285 m 1860 X s 1 0 0 c[  12 12 ] 0 sd 6 lw 318 366 m
 1860 X s
 gr  gr showpage
end
%%EOF
