%!PS-Adobe-2.0 EPSF-2.0
%%BoundingBox:  0 0 567 521
%%Title: Distributions/jetPt_0__distrCRW_MB-SSd_beforeFit_forThesis.eps: canvas
%%Creator: ROOT Version 6.04/16
%%CreationDate: Tue May 19 22:02:45 2020
%%DocumentNeededResources: ProcSet (FontSetInit)
%%EndComments
%%BeginProlog
80 dict begin
/s {stroke} def /l {lineto} def /m {moveto} def /t {translate} def
/r {rotate} def /rl {roll}  def /R {repeat} def
/d {rlineto} def /rm {rmoveto} def /gr {grestore} def /f {eofill} def
/c {setrgbcolor} def /black {0 setgray} def /sd {setdash} def
/cl {closepath} def /sf {scalefont setfont} def /lw {setlinewidth} def
/box {m dup 0 exch d exch 0 d 0 exch neg d cl} def
/NC{systemdict begin initclip end}def/C{NC box clip newpath}def
/bl {box s} def /bf {gsave box gsave f grestore 1 lw [] 0 sd s grestore} def /Y { 0 exch d} def /X { 0 d} def 
/K {{pop pop 0 moveto} exch kshow} bind def
/ita {/ang 15 def gsave [1 0 ang dup sin exch cos div 1 0 0] concat} def 
/mp {newpath /y exch def /x exch def} def
/side {[w .77 mul w .23 mul] .385 w mul sd w 0 l currentpoint t -144 r} def
/mr {mp x y w2 0 360 arc} def /m24 {mr s} def /m20 {mr f} def
/mb {mp x y w2 add m w2 neg 0 d 0 w neg d w 0 d 0 w d cl} def
/mt {mp x y w2 add m w2 neg w neg d w 0 d cl} def
/m21 {mb f} def /m25 {mb s} def /m22 {mt f} def /m26{mt s} def
/m23 {mp x y w2 sub m w2 w d w neg 0 d cl f} def
/m27 {mp x y w2 add m w3 neg w2 neg d w3 w2 neg d w3 w2 d cl s} def
/m28 {mp x w2 sub y w2 sub w3 add m w3 0 d  0 w3 neg d w3 0 d 0 w3 d w3 0 d  0 w3 d w3 neg 0 d 0 w3 d w3 neg 0 d 0 w3 neg d w3 neg 0 d cl s } def
/m29 {mp gsave x w2 sub y w2 add w3 sub m currentpoint t 4 {side} repeat cl fill gr} def
/m30 {mp gsave x w2 sub y w2 add w3 sub m currentpoint t 4 {side} repeat cl s gr} def
/m31 {mp x y w2 sub m 0 w d x w2 sub y m w 0 d x w2 sub y w2 add m w w neg d x w2 sub y w2 sub m w w d s} def
/m32 {mp x y w2 sub m w2 w d w neg 0 d cl s} def
/m33 {mp x y w2 add m w3 neg w2 neg d w3 w2 neg d w3 w2 d cl f} def
/m34 {mp x w2 sub y w2 sub w3 add m w3 0 d  0 w3 neg d w3 0 d 0 w3 d w3 0 d  0 w3 d w3 neg 0 d 0 w3 d w3 neg 0 d 0 w3 neg d w3 neg 0 d cl f } def
/m2 {mp x y w2 sub m 0 w d x w2 sub y m w 0 d s} def
/m5 {mp x w2 sub y w2 sub m w w d x w2 sub y w2 add m w w neg d s} def
%%IncludeResource: ProcSet (FontSetInit)
%%IncludeResource: font Times-Roman
%%IncludeResource: font Times-Italic
%%IncludeResource: font Times-Bold
%%IncludeResource: font Times-BoldItalic
%%IncludeResource: font Helvetica
%%IncludeResource: font Helvetica-Oblique
%%IncludeResource: font Helvetica-Bold
%%IncludeResource: font Helvetica-BoldOblique
%%IncludeResource: font Courier
%%IncludeResource: font Courier-Oblique
%%IncludeResource: font Courier-Bold
%%IncludeResource: font Courier-BoldOblique
%%IncludeResource: font Symbol
%%IncludeResource: font ZapfDingbats
/reEncode {exch findfont dup length dict begin {1 index /FID eq  {pop pop} {def} ifelse } forall /Encoding exch def currentdict end dup /FontName get exch definefont pop } def [/Times-Bold /Times-Italic /Times-BoldItalic /Helvetica /Helvetica-Oblique
 /Helvetica-Bold /Helvetica-BoldOblique /Courier /Courier-Oblique /Courier-Bold /Courier-BoldOblique /Times-Roman /AvantGarde-Book /AvantGarde-BookOblique /AvantGarde-Demi /AvantGarde-DemiOblique /Bookman-Demi /Bookman-DemiItalic /Bookman-Light
 /Bookman-LightItalic /Helvetica-Narrow /Helvetica-Narrow-Bold /Helvetica-Narrow-BoldOblique /Helvetica-Narrow-Oblique /NewCenturySchlbk-Roman /NewCenturySchlbk-Bold /NewCenturySchlbk-BoldItalic /NewCenturySchlbk-Italic /Palatino-Bold
 /Palatino-BoldItalic /Palatino-Italic /Palatino-Roman ] {ISOLatin1Encoding reEncode } forall
%%EndProlog
%%BeginSetup
%%EndSetup
newpath  gsave  .25 .25 scale  gsave  0 0 t black[  ] 0 sd 3 lw 1 1 1 c 2268 2085 0 0 bf black 1 1 1 c 2263 1770 2 313 bf black 1 1 1 c black 1860 1145 319 584 bl 1 1 1 c black 1860 1145 319 584 bl 6 lw 1 1 1 c black 3 lw /w 33 def /w2 {w 2 div} def
 /w3 {w 3 div} def 366 1256 m20 6 lw 3 lw 459 1238 m20 6 lw 3 lw 552 1193 m20 6 lw 3 lw 645 1132 m20 6 lw 3 lw 738 1073 m20 6 lw 3 lw 831 1011 m20 6 lw 3 lw 924 952 m20 6 lw 1017 855 m 5 Y s 1017 887 m s 3 lw 1017 873 m20 6 lw 1110 824 m 10 Y s 1110
 861 m 3 Y s 3 lw 1110 847 m20 6 lw 1203 688 m 58 Y s 1203 773 m 18 Y s 3 lw 1203 759 m20 6 lw 1296 778 m 21 Y s 1296 826 m 9 Y s 3 lw 1296 813 m20 6 lw 1482 584 m 121 Y s 1482 732 m 27 Y s 3 lw 1482 719 m20 6 lw 3 lw 319 584 m 1860 X s
 gsave  2263 1770 2 313 C 1949.08 376.258 t 0 r /Helvetica findfont 81.3741 sf 0 0 m ( [GeV]) show NC gr 
 gsave  2263 1770 2 313 C 1915.19 332.192 t 0 r /Helvetica findfont 54.2494 sf 0 0 m (T) show NC gr 
 gsave  2263 1770 2 313 C 1630.45 376.258 t 0 r /Helvetica findfont 81.3741 sf 0 0 m (1st jet p) show NC gr  435 584 m cl s 482 584 m cl s 528 584 m cl s 575 584 m cl s 621 584 m cl s 668 584 m cl s 714 584 m cl s 761 584 m cl s 807 584 m cl s 854
 584 m cl s 900 584 m cl s 947 584 m cl s 993 584 m cl s 1040 584 m cl s 1087 584 m cl s 1133 584 m cl s 1180 584 m cl s 1226 584 m cl s 1273 584 m cl s 1319 584 m cl s 1366 584 m cl s 1412 584 m cl s 1459 584 m cl s 1505 584 m cl s 1552 584 m cl s
 1598 584 m cl s 1645 584 m cl s 1691 584 m cl s 1738 584 m cl s 1784 584 m cl s 1831 584 m cl s 1877 584 m cl s 1924 584 m cl s 1970 584 m cl s 2017 584 m cl s 2063 584 m cl s 435 584 m cl s 389 584 m cl s 342 584 m cl s 2063 584 m cl s 2110 584 m
 cl s 2156 584 m cl s 319 1729 m 1860 X s 435 1729 m cl s 482 1729 m cl s 528 1729 m cl s 575 1729 m cl s 621 1729 m cl s 668 1729 m cl s 714 1729 m cl s 761 1729 m cl s 807 1729 m cl s 854 1729 m cl s 900 1729 m cl s 947 1729 m cl s 993 1729 m cl s
 1040 1729 m cl s 1087 1729 m cl s 1133 1729 m cl s 1180 1729 m cl s 1226 1729 m cl s 1273 1729 m cl s 1319 1729 m cl s 1366 1729 m cl s 1412 1729 m cl s 1459 1729 m cl s 1505 1729 m cl s 1552 1729 m cl s 1598 1729 m cl s 1645 1729 m cl s 1691 1729 m
 cl s 1738 1729 m cl s 1784 1729 m cl s 1831 1729 m cl s 1877 1729 m cl s 1924 1729 m cl s 1970 1729 m cl s 2017 1729 m cl s 2063 1729 m cl s 435 1729 m cl s 389 1729 m cl s 342 1729 m cl s 2063 1729 m cl s 2110 1729 m cl s 2156 1729 m cl s 319 584 m
 1145 Y s
 gsave  2263 1770 2 313 C 166.096 1091.49 t 90 r /Helvetica findfont 81.3741 sf 0 0 m (Events / 200 GeV) show NC gr  341 625 m -22 X s 341 649 m -22 X s 341 665 m -22 X s 341 678 m -22 X s 341 689 m -22 X s 341 698 m -22 X s 341 706 m -22 X s 341 713
 m -22 X s 363 719 m -44 X s
 gsave  2263 1770 2 313 C 300.555 691.751 t 0 r  -36 0 t /Helvetica findfont 64.4212 sf 0 0 m (1) show NC gr  341 759 m -22 X s 341 783 m -22 X s 341 800 m -22 X s 341 813 m -22 X s 341 824 m -22 X s 341 833 m -22 X s 341 840 m -22 X s 341 847 m -22
 X s 363 853 m -44 X s
 gsave  2263 1770 2 313 C 300.555 826.311 t 0 r  -73 0 t /Helvetica findfont 64.4212 sf 0 0 m (10) show NC gr  341 894 m -22 X s 341 918 m -22 X s 341 934 m -22 X s 341 947 m -22 X s 341 958 m -22 X s 341 967 m -22 X s 341 975 m -22 X s 341 982 m -22
 X s 363 988 m -44 X s
 gsave  2263 1770 2 313 C 274.567 986.406 t 0 r /Helvetica findfont 44.0776 sf 0 0 m (2) show NC gr 
 gsave  2263 1770 2 313 C 203.383 959.288 t 0 r /Helvetica findfont 64.4212 sf 0 0 m (10) show NC gr  341 1028 m -22 X s 341 1052 m -22 X s 341 1069 m -22 X s 341 1082 m -22 X s 341 1093 m -22 X s 341 1102 m -22 X s 341 1110 m -22 X s 341 1116 m -22
 X s 363 1123 m -44 X s
 gsave  2263 1770 2 313 C 274.567 1125.38 t 0 r /Helvetica findfont 44.0776 sf 0 0 m (3) show NC gr 
 gsave  2263 1770 2 313 C 203.383 1094.88 t 0 r /Helvetica findfont 64.4212 sf 0 0 m (10) show NC gr  341 1163 m -22 X s 341 1187 m -22 X s 341 1204 m -22 X s 341 1217 m -22 X s 341 1227 m -22 X s 341 1236 m -22 X s 341 1244 m -22 X s 341 1251 m -22
 X s 363 1257 m -44 X s
 gsave  2263 1770 2 313 C 274.567 1254.19 t 0 r /Helvetica findfont 44.0776 sf 0 0 m (4) show NC gr 
 gsave  2263 1770 2 313 C 203.383 1227.08 t 0 r /Helvetica findfont 64.4212 sf 0 0 m (10) show NC gr  341 1298 m -22 X s 341 1321 m -22 X s 341 1338 m -22 X s 341 1351 m -22 X s 341 1362 m -22 X s 341 1371 m -22 X s 341 1379 m -22 X s 341 1386 m -22
 X s 363 1392 m -44 X s
 gsave  2263 1770 2 313 C 274.567 1393.17 t 0 r /Helvetica findfont 44.0776 sf 0 0 m (5) show NC gr 
 gsave  2263 1770 2 313 C 203.383 1362.66 t 0 r /Helvetica findfont 64.4212 sf 0 0 m (10) show NC gr  341 1432 m -22 X s 341 1456 m -22 X s 341 1473 m -22 X s 341 1486 m -22 X s 341 1496 m -22 X s 341 1505 m -22 X s 341 1513 m -22 X s 341 1520 m -22
 X s 363 1526 m -44 X s
 gsave  2263 1770 2 313 C 274.567 1528.76 t 0 r /Helvetica findfont 44.0776 sf 0 0 m (6) show NC gr 
 gsave  2263 1770 2 313 C 203.383 1498.25 t 0 r /Helvetica findfont 64.4212 sf 0 0 m (10) show NC gr  341 1567 m -22 X s 341 1590 m -22 X s 341 1607 m -22 X s 341 1620 m -22 X s 341 1631 m -22 X s 341 1640 m -22 X s 341 1648 m -22 X s 341 1655 m -22
 X s 363 1661 m -44 X s
 gsave  2263 1770 2 313 C 274.567 1657.57 t 0 r /Helvetica findfont 44.0776 sf 0 0 m (7) show NC gr 
 gsave  2263 1770 2 313 C 203.383 1630.45 t 0 r /Helvetica findfont 64.4212 sf 0 0 m (10) show NC gr  341 1701 m -22 X s 341 1725 m -22 X s 2179 584 m 1145 Y s 2157 625 m 22 X s 2157 649 m 22 X s 2157 665 m 22 X s 2157 678 m 22 X s 2157 689 m 22 X s
 2157 698 m 22 X s 2157 706 m 22 X s 2157 713 m 22 X s 2136 719 m 43 X s 2157 759 m 22 X s 2157 783 m 22 X s 2157 800 m 22 X s 2157 813 m 22 X s 2157 824 m 22 X s 2157 833 m 22 X s 2157 840 m 22 X s 2157 847 m 22 X s 2136 853 m 43 X s 2157 894 m 22 X
 s 2157 918 m 22 X s 2157 934 m 22 X s 2157 947 m 22 X s 2157 958 m 22 X s 2157 967 m 22 X s 2157 975 m 22 X s 2157 982 m 22 X s 2136 988 m 43 X s 2157 1028 m 22 X s 2157 1052 m 22 X s 2157 1069 m 22 X s 2157 1082 m 22 X s 2157 1093 m 22 X s 2157
 1102 m 22 X s 2157 1110 m 22 X s 2157 1116 m 22 X s 2136 1123 m 43 X s 2157 1163 m 22 X s 2157 1187 m 22 X s 2157 1204 m 22 X s 2157 1217 m 22 X s 2157 1227 m 22 X s 2157 1236 m 22 X s 2157 1244 m 22 X s 2157 1251 m 22 X s 2136 1257 m 43 X s 2157
 1298 m 22 X s 2157 1321 m 22 X s 2157 1338 m 22 X s 2157 1351 m 22 X s 2157 1362 m 22 X s 2157 1371 m 22 X s 2157 1379 m 22 X s 2157 1386 m 22 X s 2136 1392 m 43 X s 2157 1432 m 22 X s 2157 1456 m 22 X s 2157 1473 m 22 X s 2157 1486 m 22 X s 2157
 1496 m 22 X s 2157 1505 m 22 X s 2157 1513 m 22 X s 2157 1520 m 22 X s 2136 1526 m 43 X s 2157 1567 m 22 X s 2157 1590 m 22 X s 2157 1607 m 22 X s 2157 1620 m 22 X s 2157 1631 m 22 X s 2157 1640 m 22 X s 2157 1648 m 22 X s 2157 1655 m 22 X s 2136
 1661 m 43 X s 2157 1701 m 22 X s 2157 1725 m 22 X s 0.4 0.6 1 c black 0.4 0.6 1 c 319 584 m 677 Y 93 X -19 Y 93 X -44 Y 93 X -59 Y 93 X -59 Y 93 X -62 Y 93 X -57 Y 93 X -56 Y 93 X -34 Y 93 X -68 Y 93 X -21 Y 93 X -79 Y 93 X 25 Y 93 X -100 Y 93 X -44
 Y 558 X f black 0.4 0.6 1 c black 319 1261 m 93 X -19 Y 93 X -44 Y 93 X -59 Y 93 X -59 Y 93 X -62 Y 93 X -57 Y 93 X -56 Y 93 X -34 Y 93 X -68 Y 93 X -21 Y 93 X -79 Y 93 X 25 Y 93 X -100 Y 93 X -44 Y 558 X s 0.999 0.999 0.999 c black 0.999 0.999
 0.999 c 319 584 m 574 Y 93 X -25 Y 93 X -44 Y 93 X -59 Y 93 X -57 Y 93 X -55 Y 93 X -58 Y 93 X -55 Y 93 X -33 Y 93 X -58 Y 93 X -130 Y 930 X f black 0.999 0.999 0.999 c black 319 1158 m 93 X -25 Y 93 X -44 Y 93 X -59 Y 93 X -57 Y 93 X -55 Y 93 X -58
 Y 93 X -55 Y 93 X -33 Y 93 X -58 Y 93 X -130 Y 930 X s 1 1 1 c black 319 1158 m 93 X -25 Y 93 X -44 Y 93 X -59 Y 93 X -57 Y 93 X -55 Y 93 X -58 Y 93 X -55 Y 93 X -33 Y 93 X -58 Y 93 X -130 Y 930 X s 0.6 1 0.6 c black 0.6 1 0.6 c 319 584 m 574 Y 93 X
 -25 Y 93 X -44 Y 93 X -59 Y 93 X -57 Y 93 X -55 Y 93 X -58 Y 93 X -55 Y 93 X -33 Y 93 X -58 Y 93 X -130 Y 930 X f black 0.6 1 0.6 c black 319 1158 m 93 X -25 Y 93 X -44 Y 93 X -59 Y 93 X -57 Y 93 X -55 Y 93 X -58 Y 93 X -55 Y 93 X -33 Y 93 X -58 Y
 93 X -130 Y 930 X s 0.999 0.999 0.999 c black 0.999 0.999 0.999 c 319 584 m 510 Y 93 X -18 Y 93 X -39 Y 93 X -60 Y 93 X -63 Y 93 X -62 Y 93 X -48 Y 93 X -65 Y 93 X 6 Y 93 X -107 Y 93 X -54 Y 930 X f black 0.999 0.999 0.999 c black 319 1094 m 93 X
 -18 Y 93 X -39 Y 93 X -60 Y 93 X -63 Y 93 X -62 Y 93 X -48 Y 93 X -65 Y 93 X 6 Y 93 X -107 Y 93 X -54 Y 930 X s 1 1 1 c black 319 1094 m 93 X -18 Y 93 X -39 Y 93 X -60 Y 93 X -63 Y 93 X -62 Y 93 X -48 Y 93 X -65 Y 93 X 6 Y 93 X -107 Y 93 X -54 Y 930
 X s 1 0.8 0.4 c black 1 0.8 0.4 c 319 584 m 510 Y 93 X -18 Y 93 X -39 Y 93 X -60 Y 93 X -63 Y 93 X -62 Y 93 X -48 Y 93 X -65 Y 93 X 6 Y 93 X -107 Y 93 X -54 Y 930 X f black 1 0.8 0.4 c black 319 1094 m 93 X -18 Y 93 X -39 Y 93 X -60 Y 93 X -63 Y 93
 X -62 Y 93 X -48 Y 93 X -65 Y 93 X 6 Y 93 X -107 Y 93 X -54 Y 930 X s 0.999 0.999 0.999 c black 0.999 0.999 0.999 c 319 584 m 504 Y 93 X -19 Y 93 X -40 Y 93 X -59 Y 93 X -63 Y 93 X -62 Y 93 X -45 Y 93 X -67 Y 93 X -11 Y 93 X -99 Y 93 X -39 Y 930 X f
 black 0.999 0.999 0.999 c black 319 1088 m 93 X -19 Y 93 X -40 Y 93 X -59 Y 93 X -63 Y 93 X -62 Y 93 X -45 Y 93 X -67 Y 93 X -11 Y 93 X -99 Y 93 X -39 Y 930 X s 1 1 1 c black 319 1088 m 93 X -19 Y 93 X -40 Y 93 X -59 Y 93 X -63 Y 93 X -62 Y 93 X -45
 Y 93 X -67 Y 93 X -11 Y 93 X -99 Y 93 X -39 Y 930 X s 1 0.4 0.6 c black 1 0.4 0.6 c 319 584 m 504 Y 93 X -19 Y 93 X -40 Y 93 X -59 Y 93 X -63 Y 93 X -62 Y 93 X -45 Y 93 X -67 Y 93 X -11 Y 93 X -99 Y 93 X -39 Y 930 X f black 1 0.4 0.6 c black 319
 1088 m 93 X -19 Y 93 X -40 Y 93 X -59 Y 93 X -63 Y 93 X -62 Y 93 X -45 Y 93 X -67 Y 93 X -11 Y 93 X -99 Y 93 X -39 Y 930 X s 1 0 0 c 6 lw 1 1 1 c black 1 0 0 c 319 1261 m 93 X -19 Y 93 X -44 Y 93 X -59 Y 93 X -59 Y 93 X -62 Y 93 X -57 Y 93 X -56 Y
 93 X -34 Y 93 X -68 Y 93 X -21 Y 93 X -79 Y 93 X 25 Y 93 X -100 Y 93 X -44 Y 558 X s black 3 lw 1 0 0 c 1 lw << /PatternType 1 /PaintType 2 /TilingType 1 /BBox [ 0 0 100 100 ] /XStep 100 /YStep 100 /PaintProc { begin gsave 0 100 m 100 0 l s gr end }
 >> [ 0.24 0 0 0.24 0 0 ] makepattern /P05 exch def /cs {[/Pattern /DeviceRGB] setcolorspace} def /FA {f [/DeviceRGB] setcolorspace} def cs 1 0 0 P05 setcolor 319 584 m 679 Y 93 X -19 Y 93 X -44 Y 93 X -60 Y 93 X -59 Y 93 X -61 Y 93 X -55 Y 93 X -55
 Y 93 X -31 Y 93 X -63 Y 93 X -18 Y 93 X -81 Y 93 X 47 Y 93 X -109 Y 93 X -71 Y -93 X 41 Y -93 X 58 Y -93 X 77 Y -93 X 27 Y -93 X 73 Y -93 X 40 Y -93 X 57 Y -93 X 58 Y -93 X 63 Y -93 X 59 Y -93 X 60 Y -93 X 43 Y -93 X 18 Y -93 X -674 Y FA 6 lw 1 1 1
 c 15 lw 1110 827 m -3 Y s 1110 824 m cl s 1203 780 m 14 Y s 1203 794 m cl s 1203 739 m -40 Y s 1203 699 m cl s 1296 833 m 3 Y s 1296 836 m cl s 1296 793 m -13 Y s 1296 780 m cl s 1482 739 m 28 Y s 1482 767 m cl s 1482 699 m -82 Y s 1482 617 m cl s
 black 1 1 1 c 3 lw /w 43 def /w2 {w 2 div} def /w3 {w 3 div} def 366 1256 459 1238 552 1193 645 1132 738 1073 831 1011 924 952 1017 873 1110 847 1203 759 1296 813 11 { m20} R 15 lw 3 lw 1482 719 m20 15 lw black 6 lw 1 1 1 c black 3 lw /w 33 def /w2
 {w 2 div} def /w3 {w 3 div} def 366 1256 m20 6 lw 3 lw 459 1238 m20 6 lw 3 lw 552 1193 m20 6 lw 3 lw 645 1132 m20 6 lw 3 lw 738 1073 m20 6 lw 3 lw 831 1011 m20 6 lw 3 lw 924 952 m20 6 lw 1017 855 m 5 Y s 1017 887 m s 3 lw 1017 873 m20 6 lw 1110 824
 m 10 Y s 1110 861 m 3 Y s 3 lw 1110 847 m20 6 lw 1203 688 m 58 Y s 1203 773 m 18 Y s 3 lw 1203 759 m20 6 lw 1296 778 m 21 Y s 1296 826 m 9 Y s 3 lw 1296 813 m20 6 lw 1482 584 m 121 Y s 1482 732 m 27 Y s 3 lw 1482 719 m20 6 lw 1017 887 m s 1017 887 m
 cl s 1017 860 m -5 Y s 1017 855 m cl s 1110 861 m 4 Y s 1110 865 m cl s 1110 834 m -10 Y s 1110 824 m cl s 1203 773 m 21 Y s 1203 794 m cl s 1203 746 m -47 Y s 1203 699 m cl s 1296 826 m 10 Y s 1296 836 m cl s 1296 799 m -19 Y s 1296 780 m cl s 1482
 732 m 35 Y s 1482 767 m cl s 1482 705 m -88 Y s 1482 617 m cl s 3 lw 366 1256 459 1238 552 1193 645 1132 738 1073 831 1011 924 952 1017 873 1110 847 1203 759 1296 813 11 { m20} R 6 lw 3 lw 1482 719 m20 6 lw 3 lw 319 584 m 1860 X s 435 584 m cl s 482
 584 m cl s 528 584 m cl s 575 584 m cl s 621 584 m cl s 668 584 m cl s 714 584 m cl s 761 584 m cl s 807 584 m cl s 854 584 m cl s 900 584 m cl s 947 584 m cl s 993 584 m cl s 1040 584 m cl s 1087 584 m cl s 1133 584 m cl s 1180 584 m cl s 1226 584
 m cl s 1273 584 m cl s 1319 584 m cl s 1366 584 m cl s 1412 584 m cl s 1459 584 m cl s 1505 584 m cl s 1552 584 m cl s 1598 584 m cl s 1645 584 m cl s 1691 584 m cl s 1738 584 m cl s 1784 584 m cl s 1831 584 m cl s 1877 584 m cl s 1924 584 m cl s
 1970 584 m cl s 2017 584 m cl s 2063 584 m cl s 435 584 m cl s 389 584 m cl s 342 584 m cl s 2063 584 m cl s 2110 584 m cl s 2156 584 m cl s 319 1729 m 1860 X s 435 1729 m cl s 482 1729 m cl s 528 1729 m cl s 575 1729 m cl s 621 1729 m cl s 668 1729
 m cl s 714 1729 m cl s 761 1729 m cl s 807 1729 m cl s 854 1729 m cl s 900 1729 m cl s 947 1729 m cl s 993 1729 m cl s 1040 1729 m cl s 1087 1729 m cl s 1133 1729 m cl s 1180 1729 m cl s 1226 1729 m cl s 1273 1729 m cl s 1319 1729 m cl s 1366 1729 m
 cl s 1412 1729 m cl s 1459 1729 m cl s 1505 1729 m cl s 1552 1729 m cl s 1598 1729 m cl s 1645 1729 m cl s 1691 1729 m cl s 1738 1729 m cl s 1784 1729 m cl s 1831 1729 m cl s 1877 1729 m cl s 1924 1729 m cl s 1970 1729 m cl s 2017 1729 m cl s 2063
 1729 m cl s 435 1729 m cl s 389 1729 m cl s 342 1729 m cl s 2063 1729 m cl s 2110 1729 m cl s 2156 1729 m cl s 319 584 m 1145 Y s 341 625 m -22 X s 341 649 m -22 X s 341 665 m -22 X s 341 678 m -22 X s 341 689 m -22 X s 341 698 m -22 X s 341 706 m
 -22 X s 341 713 m -22 X s 363 719 m -44 X s 341 759 m -22 X s 341 783 m -22 X s 341 800 m -22 X s 341 813 m -22 X s 341 824 m -22 X s 341 833 m -22 X s 341 840 m -22 X s 341 847 m -22 X s 363 853 m -44 X s 341 894 m -22 X s 341 918 m -22 X s 341 934
 m -22 X s 341 947 m -22 X s 341 958 m -22 X s 341 967 m -22 X s 341 975 m -22 X s 341 982 m -22 X s 363 988 m -44 X s 341 1028 m -22 X s 341 1052 m -22 X s 341 1069 m -22 X s 341 1082 m -22 X s 341 1093 m -22 X s 341 1102 m -22 X s 341 1110 m -22 X
 s 341 1116 m -22 X s 363 1123 m -44 X s 341 1163 m -22 X s 341 1187 m -22 X s 341 1204 m -22 X s 341 1217 m -22 X s 341 1227 m -22 X s 341 1236 m -22 X s 341 1244 m -22 X s 341 1251 m -22 X s 363 1257 m -44 X s 341 1298 m -22 X s 341 1321 m -22 X s
 341 1338 m -22 X s 341 1351 m -22 X s 341 1362 m -22 X s 341 1371 m -22 X s 341 1379 m -22 X s 341 1386 m -22 X s 363 1392 m -44 X s 341 1432 m -22 X s 341 1456 m -22 X s 341 1473 m -22 X s 341 1486 m -22 X s 341 1496 m -22 X s 341 1505 m -22 X s
 341 1513 m -22 X s 341 1520 m -22 X s 363 1526 m -44 X s 341 1567 m -22 X s 341 1590 m -22 X s 341 1607 m -22 X s 341 1620 m -22 X s 341 1631 m -22 X s 341 1640 m -22 X s 341 1648 m -22 X s 341 1655 m -22 X s 363 1661 m -44 X s 341 1701 m -22 X s
 341 1725 m -22 X s 2179 584 m 1145 Y s 2157 625 m 22 X s 2157 649 m 22 X s 2157 665 m 22 X s 2157 678 m 22 X s 2157 689 m 22 X s 2157 698 m 22 X s 2157 706 m 22 X s 2157 713 m 22 X s 2136 719 m 43 X s 2157 759 m 22 X s 2157 783 m 22 X s 2157 800 m
 22 X s 2157 813 m 22 X s 2157 824 m 22 X s 2157 833 m 22 X s 2157 840 m 22 X s 2157 847 m 22 X s 2136 853 m 43 X s 2157 894 m 22 X s 2157 918 m 22 X s 2157 934 m 22 X s 2157 947 m 22 X s 2157 958 m 22 X s 2157 967 m 22 X s 2157 975 m 22 X s 2157 982
 m 22 X s 2136 988 m 43 X s 2157 1028 m 22 X s 2157 1052 m 22 X s 2157 1069 m 22 X s 2157 1082 m 22 X s 2157 1093 m 22 X s 2157 1102 m 22 X s 2157 1110 m 22 X s 2157 1116 m 22 X s 2136 1123 m 43 X s 2157 1163 m 22 X s 2157 1187 m 22 X s 2157 1204 m
 22 X s 2157 1217 m 22 X s 2157 1227 m 22 X s 2157 1236 m 22 X s 2157 1244 m 22 X s 2157 1251 m 22 X s 2136 1257 m 43 X s 2157 1298 m 22 X s 2157 1321 m 22 X s 2157 1338 m 22 X s 2157 1351 m 22 X s 2157 1362 m 22 X s 2157 1371 m 22 X s 2157 1379 m 22
 X s 2157 1386 m 22 X s 2136 1392 m 43 X s 2157 1432 m 22 X s 2157 1456 m 22 X s 2157 1473 m 22 X s 2157 1486 m 22 X s 2157 1496 m 22 X s 2157 1505 m 22 X s 2157 1513 m 22 X s 2157 1520 m 22 X s 2136 1526 m 43 X s 2157 1567 m 22 X s 2157 1590 m 22 X
 s 2157 1607 m 22 X s 2157 1620 m 22 X s 2157 1631 m 22 X s 2157 1640 m 22 X s 2157 1648 m 22 X s 2157 1655 m 22 X s 2136 1661 m 43 X s 2157 1701 m 22 X s 2157 1725 m 22 X s
 gsave  2263 1770 2 313 C 406.765 1447.41 t 0 r /Helvetica findfont 64.4212 sf 0 0 m (CRW for MB\255SSd) show NC gr 
 gsave  2263 1770 2 313 C 1464.36 1616.89 t 0 r /Helvetica findfont 64.4212 sf 0 0 m (SM Total) show NC gr  1 1 1 c 1338 1603 m 107 X 74 Y -107 X f 1 0 0 c 6 lw 1338 1640 m 107 X s black
 gsave  2263 1770 2 313 C 1464.36 1511.81 t 0 r /Helvetica findfont 64.4212 sf 0 0 m (Data) show NC gr  1391 1502 m 64 Y s 3 lw 1391 1534 m20 6 lw
 gsave  2263 1770 2 313 C 1464.36 1406.73 t 0 r /Helvetica findfont 64.4212 sf 0 0 m (W+jets) show NC gr  0.4 0.6 1 c 3 lw 1338 1391 m 107 X 74 Y -107 X f 6 lw black 3 lw 1338 1465 m 107 X s 1338 1391 m 107 X s 1445 1391 m 74 Y s 1338 1391 m 74 Y s
 gsave  2263 1770 2 313 C 1498.25 1298.26 t 0 r /Helvetica findfont 64.4212 sf 0 0 m (\(+EW\) & single top) show NC gr 
 gsave  2263 1770 2 313 C 1481.3 1298.26 t 0 r /Helvetica findfont 64.4212 sf 0 0 m (t) show NC gr  1481 1349 m 17 X s
 gsave  2263 1770 2 313 C 1464.36 1298.26 t 0 r /Helvetica findfont 64.4212 sf 0 0 m (t) show NC gr  0.6 1 0.6 c 1338 1284 m 107 X 75 Y -107 X f black 1338 1359 m 107 X s 1338 1284 m 107 X s 1445 1284 m 75 Y s 1338 1284 m 75 Y s
 gsave  2263 1770 2 313 C 1464.36 1193.18 t 0 r /Helvetica findfont 64.4212 sf 0 0 m (Z+jets) show NC gr  1 0.8 0.4 c 1338 1178 m 107 X 75 Y -107 X f black 1338 1253 m 107 X s 1338 1178 m 107 X s 1445 1178 m 75 Y s 1338 1178 m 75 Y s
 gsave  2263 1770 2 313 C 1464.36 1088.1 t 0 r /Helvetica findfont 64.4212 sf 0 0 m (Diboson) show NC gr  1 0.4 0.6 c 1338 1072 m 107 X 74 Y -107 X f black 1338 1146 m 107 X s 1338 1072 m 107 X s 1445 1072 m 74 Y s 1338 1072 m 74 Y s
 gsave  2263 1770 2 313 C 911.832 1566.05 t 0 r /Helvetica findfont 44.0776 sf 0 0 m (\2551) show NC gr 
 gsave  2263 1770 2 313 C 471.17 1535.54 t 0 r /Helvetica findfont 64.4212 sf 0 0 m (=13TeV, 139 fb) show NC gr 
 gsave  2263 1770 2 313 C 440.662 1535.54 t 0 r /Helvetica findfont 64.4212 sf 0 0 m (s) show NC gr  6 lw 420 1573 m 7 -41 d s 3 lw 427 1532 m 7 61 d s 434 1593 m 37 X s 1 1 1 c 2254 561 2 2 bf black 1 1 1 c black 1860 358 318 187 bl 1 1 1 c black
 1860 358 318 187 bl 6 lw 1 1 1 c black 3 lw 364 352 m20 6 lw 3 lw 457 354 m20 6 lw 3 lw 550 352 m20 6 lw 3 lw 643 350 m20 6 lw 3 lw 736 350 m20 6 lw 3 lw 829 347 m20 6 lw 3 lw 923 342 m20 6 lw 3 lw 1016 297 m20 6 lw 3 lw 1109 313 m20 6 lw 3 lw 1202
 280 m20 6 lw 3 lw 1295 478 m20 6 lw 3 lw 1481 342 m20 6 lw 3 lw 318 187 m 1860 X s
 gsave  2254 561 2 2 C 1959.25 44.0662 t 0 r /Helvetica findfont 78.1689 sf 0 0 m ( [GeV]) show NC gr 
 gsave  2254 561 2 2 C 1928.75 -2.35513e-13 t 0 r /Helvetica findfont 50.9797 sf 0 0 m (T) show NC gr 
 gsave  2254 561 2 2 C 1657.57 44.0662 t 0 r /Helvetica findfont 78.1689 sf 0 0 m (1st jet p) show NC gr  434 201 m -14 Y s 481 194 m -7 Y s 527 194 m -7 Y s 574 194 m -7 Y s 620 194 m -7 Y s 667 201 m -14 Y s 713 194 m -7 Y s 760 194 m -7 Y s 806
 194 m -7 Y s 853 194 m -7 Y s 899 201 m -14 Y s 946 194 m -7 Y s 992 194 m -7 Y s 1039 194 m -7 Y s 1085 194 m -7 Y s 1132 201 m -14 Y s 1178 194 m -7 Y s 1225 194 m -7 Y s 1271 194 m -7 Y s 1318 194 m -7 Y s 1364 201 m -14 Y s 1411 194 m -7 Y s
 1457 194 m -7 Y s 1504 194 m -7 Y s 1550 194 m -7 Y s 1597 201 m -14 Y s 1643 194 m -7 Y s 1690 194 m -7 Y s 1737 194 m -7 Y s 1783 194 m -7 Y s 1830 201 m -14 Y s 1876 194 m -7 Y s 1923 194 m -7 Y s 1969 194 m -7 Y s 2016 194 m -7 Y s 2062 201 m
 -14 Y s 434 201 m -14 Y s 388 194 m -7 Y s 341 194 m -7 Y s 2062 201 m -14 Y s 2109 194 m -7 Y s 2155 194 m -7 Y s
 gsave  2254 561 2 2 C 369.478 118.64 t 0 r /Helvetica findfont 78.1689 sf 0 0 m (500) show NC gr 
 gsave  2254 561 2 2 C 576.251 118.64 t 0 r /Helvetica findfont 78.1689 sf 0 0 m (1000) show NC gr 
 gsave  2254 561 2 2 C 810.141 118.64 t 0 r /Helvetica findfont 78.1689 sf 0 0 m (1500) show NC gr 
 gsave  2254 561 2 2 C 1040.64 118.64 t 0 r /Helvetica findfont 78.1689 sf 0 0 m (2000) show NC gr 
 gsave  2254 561 2 2 C 1274.53 118.64 t 0 r /Helvetica findfont 78.1689 sf 0 0 m (2500) show NC gr 
 gsave  2254 561 2 2 C 1508.42 118.64 t 0 r /Helvetica findfont 78.1689 sf 0 0 m (3000) show NC gr 
 gsave  2254 561 2 2 C 1738.92 118.64 t 0 r /Helvetica findfont 78.1689 sf 0 0 m (3500) show NC gr 
 gsave  2254 561 2 2 C 1972.81 118.64 t 0 r /Helvetica findfont 78.1689 sf 0 0 m (4000) show NC gr  318 545 m 1860 X s 434 531 m 14 Y s 481 538 m 7 Y s 527 538 m 7 Y s 574 538 m 7 Y s 620 538 m 7 Y s 667 531 m 14 Y s 713 538 m 7 Y s 760 538 m 7 Y s
 806 538 m 7 Y s 853 538 m 7 Y s 899 531 m 14 Y s 946 538 m 7 Y s 992 538 m 7 Y s 1039 538 m 7 Y s 1085 538 m 7 Y s 1132 531 m 14 Y s 1178 538 m 7 Y s 1225 538 m 7 Y s 1271 538 m 7 Y s 1318 538 m 7 Y s 1364 531 m 14 Y s 1411 538 m 7 Y s 1457 538 m 7
 Y s 1504 538 m 7 Y s 1550 538 m 7 Y s 1597 531 m 14 Y s 1643 538 m 7 Y s 1690 538 m 7 Y s 1737 538 m 7 Y s 1783 538 m 7 Y s 1830 531 m 14 Y s 1876 538 m 7 Y s 1923 538 m 7 Y s 1969 538 m 7 Y s 2016 538 m 7 Y s 2062 531 m 14 Y s 434 531 m 14 Y s 388
 538 m 7 Y s 341 538 m 7 Y s 2062 531 m 14 Y s 2109 538 m 7 Y s 2155 538 m 7 Y s 318 187 m 358 Y s
 gsave  2254 561 2 2 C 166.096 284.736 t 90 r /Helvetica findfont 67.9729 sf 0 0 m (Data/SM) show NC gr  361 203 m -43 X s 339 220 m -21 X s 339 236 m -21 X s 339 252 m -21 X s 339 268 m -21 X s 361 285 m -43 X s 339 301 m -21 X s 339 317 m -21 X s
 339 334 m -21 X s 339 350 m -21 X s 361 366 m -43 X s 339 382 m -21 X s 339 399 m -21 X s 339 415 m -21 X s 339 431 m -21 X s 361 447 m -43 X s 339 464 m -21 X s 339 480 m -21 X s 339 496 m -21 X s 339 512 m -21 X s 361 529 m -43 X s 361 203 m -43 X
 s 339 187 m -21 X s 361 529 m -43 X s
 gsave  2254 561 2 2 C 261.008 183.044 t 0 r /Helvetica findfont 57.777 sf 0 0 m (0) show NC gr 
 gsave  2254 561 2 2 C 213.552 261.008 t 0 r /Helvetica findfont 57.777 sf 0 0 m (0.5) show NC gr 
 gsave  2254 561 2 2 C 271.177 342.361 t 0 r /Helvetica findfont 57.777 sf 0 0 m (1) show NC gr 
 gsave  2254 561 2 2 C 213.552 423.714 t 0 r /Helvetica findfont 57.777 sf 0 0 m (1.5) show NC gr 
 gsave  2254 561 2 2 C 261.008 505.067 t 0 r /Helvetica findfont 57.777 sf 0 0 m (2) show NC gr  2178 187 m 358 Y s 2135 203 m 43 X s 2157 220 m 21 X s 2157 236 m 21 X s 2157 252 m 21 X s 2157 268 m 21 X s 2135 285 m 43 X s 2157 301 m 21 X s 2157 317
 m 21 X s 2157 334 m 21 X s 2157 350 m 21 X s 2135 366 m 43 X s 2157 382 m 21 X s 2157 399 m 21 X s 2157 415 m 21 X s 2157 431 m 21 X s 2135 447 m 43 X s 2157 464 m 21 X s 2157 480 m 21 X s 2157 496 m 21 X s 2157 512 m 21 X s 2135 529 m 43 X s 2135
 203 m 43 X s 2157 187 m 21 X s 2135 529 m 43 X s 9 lw 923 356 m 5 Y s 923 361 m cl s 923 329 m -6 Y s 923 323 m cl s 1016 311 m 12 Y s 1016 323 m cl s 1016 284 m -12 Y s 1016 272 m cl s 1109 326 m 24 Y s 1109 350 m cl s 1109 299 m -22 Y s 1109 277 m
 cl s 1202 294 m 49 Y s 1202 343 m cl s 1202 267 m -36 Y s 1202 231 m cl s 1295 492 m 53 Y s 1295 545 m cl s 1295 465 m -105 Y s 1295 360 m cl s 1481 355 m 165 Y s 1481 520 m cl s 1481 328 m -101 Y s 1481 227 m cl s 3 lw 364 352 457 354 550 352 643
 350 736 350 829 347 923 342 1016 297 1109 313 1202 280 1295 478 11 { m20} R 9 lw 3 lw 1481 342 m20 9 lw 1 0 0 c 6 lw black 3 lw 1 0 0 c 2178 227 m -26 -27 d s 2178 255 m -55 -55 d s 2178 284 m -84 -84 d s 2178 312 m -93 -92 d s 2178 341 m -119 -120
 d s 2178 369 m -148 -148 d s 2178 398 m -177 -177 d s 1992 213 m s 1983 203 m cl s 2178 427 m -186 -186 d s 1954 203 m cl s 2178 455 m -186 -185 d s 1926 203 m cl s 2178 484 m -186 -186 d s 1899 206 m s 2178 512 m -186 -185 d s 1899 234 m s 2169 532
 m -177 -176 d s 1899 263 m s 2141 532 m -149 -148 d s 1899 291 m -18 -18 d s 2112 532 m -120 -119 d s 1899 320 m -47 -47 d s 1806 227 m -27 -27 d s 2062 511 m -70 -70 d s 1899 349 m -76 -76 d s 1806 256 m -56 -56 d s 2033 511 m -41 -41 d s 1899 377
 m -178 -177 d s 2004 511 m -12 -12 d s 1899 406 m -186 -186 d s 1899 434 m -186 -185 d s 1896 459 m -212 -210 d s 1867 459 m -212 -210 d s 1838 459 m -211 -210 d s 1809 459 m -192 -192 d s 1806 485 m -218 -218 d s 1806 513 m -247 -246 d s 1527 235 m
 -4 -4 d s 1796 532 m -265 -265 d s 1527 264 m -32 -33 d s 1768 532 m -302 -301 d s 1739 532 m -26 -26 d s 1690 484 m -253 -253 d s 1662 484 m -228 -227 d s 1633 484 m -13 -13 d s 1614 465 m -180 -180 d s 1585 465 m -151 -151 d s 1557 465 m -145 -145
 d s 1528 465 m -145 -145 d s 1527 493 m -173 -173 d s 1507 501 m -73 -73 d s 1418 412 m -97 -97 d s 1478 501 m -44 -44 d s 1389 412 m -97 -97 d s 1450 501 m -16 -15 d s 1360 412 m -97 -97 d s 1336 417 m -91 -91 d s 1308 417 m -92 -91 d s 1279 417 m
 -91 -91 d s 1250 417 m -2 -2 d s 1240 406 m -81 -80 d s 1211 406 m -67 -66 d s 1183 406 m -67 -66 d s 1140 392 m -53 -52 d s 1111 392 m -49 -49 d s 1083 392 m -40 -39 d s 1041 379 m -27 -26 d s 1012 379 m -27 -26 d s 983 379 m -25 -24 d s 953 378 m
 -23 -23 d s 924 378 m -23 -23 d s 895 378 m -19 -20 d s 862 373 m -14 -14 d s 833 373 m -13 -14 d s 805 373 m -14 -14 d s 774 371 m -10 -10 d s 745 371 m -10 -10 d s 717 371 m -10 -10 d s 686 369 m -6 -6 d s 658 369 m -7 -6 d s 629 369 m -7 -6 d s
 600 369 m -6 -6 d s 571 369 m -6 -6 d s 543 369 m -7 -6 d s 514 369 m -6 -6 d s 487 371 m -10 -10 d s 458 371 m -9 -10 d s 318 231 m s 430 371 m -10 -10 d s 318 259 m s 403 373 m -13 -14 d s 318 288 m s 374 373 m -13 -14 d s 318 317 m s 345 373 m
 -13 -14 d s 318 345 m s 6 lw black[ 4 8] 0 sd 3 lw 318 447 m 1860 X s 318 285 m 1860 X s 1 0 0 c[  12 12 ] 0 sd 6 lw 318 366 m 1860 X s
 gr  gr showpage
end
%%EOF
