%!PS-Adobe-2.0 EPSF-2.0
%%BoundingBox:  0 0 567 521
%%Title: Distributions/jetPt_0__distrVR0LmetSig_MB-SSd_beforeFit_forThesis.eps: canvas
%%Creator: ROOT Version 6.04/16
%%CreationDate: Tue May 19 22:03:29 2020
%%DocumentNeededResources: ProcSet (FontSetInit)
%%EndComments
%%BeginProlog
80 dict begin
/s {stroke} def /l {lineto} def /m {moveto} def /t {translate} def
/r {rotate} def /rl {roll}  def /R {repeat} def
/d {rlineto} def /rm {rmoveto} def /gr {grestore} def /f {eofill} def
/c {setrgbcolor} def /black {0 setgray} def /sd {setdash} def
/cl {closepath} def /sf {scalefont setfont} def /lw {setlinewidth} def
/box {m dup 0 exch d exch 0 d 0 exch neg d cl} def
/NC{systemdict begin initclip end}def/C{NC box clip newpath}def
/bl {box s} def /bf {gsave box gsave f grestore 1 lw [] 0 sd s grestore} def /Y { 0 exch d} def /X { 0 d} def 
/K {{pop pop 0 moveto} exch kshow} bind def
/ita {/ang 15 def gsave [1 0 ang dup sin exch cos div 1 0 0] concat} def 
/mp {newpath /y exch def /x exch def} def
/side {[w .77 mul w .23 mul] .385 w mul sd w 0 l currentpoint t -144 r} def
/mr {mp x y w2 0 360 arc} def /m24 {mr s} def /m20 {mr f} def
/mb {mp x y w2 add m w2 neg 0 d 0 w neg d w 0 d 0 w d cl} def
/mt {mp x y w2 add m w2 neg w neg d w 0 d cl} def
/m21 {mb f} def /m25 {mb s} def /m22 {mt f} def /m26{mt s} def
/m23 {mp x y w2 sub m w2 w d w neg 0 d cl f} def
/m27 {mp x y w2 add m w3 neg w2 neg d w3 w2 neg d w3 w2 d cl s} def
/m28 {mp x w2 sub y w2 sub w3 add m w3 0 d  0 w3 neg d w3 0 d 0 w3 d w3 0 d  0 w3 d w3 neg 0 d 0 w3 d w3 neg 0 d 0 w3 neg d w3 neg 0 d cl s } def
/m29 {mp gsave x w2 sub y w2 add w3 sub m currentpoint t 4 {side} repeat cl fill gr} def
/m30 {mp gsave x w2 sub y w2 add w3 sub m currentpoint t 4 {side} repeat cl s gr} def
/m31 {mp x y w2 sub m 0 w d x w2 sub y m w 0 d x w2 sub y w2 add m w w neg d x w2 sub y w2 sub m w w d s} def
/m32 {mp x y w2 sub m w2 w d w neg 0 d cl s} def
/m33 {mp x y w2 add m w3 neg w2 neg d w3 w2 neg d w3 w2 d cl f} def
/m34 {mp x w2 sub y w2 sub w3 add m w3 0 d  0 w3 neg d w3 0 d 0 w3 d w3 0 d  0 w3 d w3 neg 0 d 0 w3 d w3 neg 0 d 0 w3 neg d w3 neg 0 d cl f } def
/m2 {mp x y w2 sub m 0 w d x w2 sub y m w 0 d s} def
/m5 {mp x w2 sub y w2 sub m w w d x w2 sub y w2 add m w w neg d s} def
%%IncludeResource: ProcSet (FontSetInit)
%%IncludeResource: font Times-Roman
%%IncludeResource: font Times-Italic
%%IncludeResource: font Times-Bold
%%IncludeResource: font Times-BoldItalic
%%IncludeResource: font Helvetica
%%IncludeResource: font Helvetica-Oblique
%%IncludeResource: font Helvetica-Bold
%%IncludeResource: font Helvetica-BoldOblique
%%IncludeResource: font Courier
%%IncludeResource: font Courier-Oblique
%%IncludeResource: font Courier-Bold
%%IncludeResource: font Courier-BoldOblique
%%IncludeResource: font Symbol
%%IncludeResource: font ZapfDingbats
/reEncode {exch findfont dup length dict begin {1 index /FID eq  {pop pop} {def} ifelse } forall /Encoding exch def currentdict end dup /FontName get exch definefont pop } def [/Times-Bold /Times-Italic /Times-BoldItalic /Helvetica /Helvetica-Oblique
 /Helvetica-Bold /Helvetica-BoldOblique /Courier /Courier-Oblique /Courier-Bold /Courier-BoldOblique /Times-Roman /AvantGarde-Book /AvantGarde-BookOblique /AvantGarde-Demi /AvantGarde-DemiOblique /Bookman-Demi /Bookman-DemiItalic /Bookman-Light
 /Bookman-LightItalic /Helvetica-Narrow /Helvetica-Narrow-Bold /Helvetica-Narrow-BoldOblique /Helvetica-Narrow-Oblique /NewCenturySchlbk-Roman /NewCenturySchlbk-Bold /NewCenturySchlbk-BoldItalic /NewCenturySchlbk-Italic /Palatino-Bold
 /Palatino-BoldItalic /Palatino-Italic /Palatino-Roman ] {ISOLatin1Encoding reEncode } forall
%%EndProlog
%%BeginSetup
%%EndSetup
newpath  gsave  .25 .25 scale  gsave  0 0 t black[  ] 0 sd 3 lw 1 1 1 c 2268 2085 0 0 bf black 1 1 1 c 2263 1770 2 313 bf black 1 1 1 c black 1860 1145 319 584 bl 1 1 1 c black 1860 1145 319 584 bl 6 lw 1 1 1 c black 3 lw /w 33 def /w2 {w 2 div} def
 /w3 {w 3 div} def 366 1236 m20 6 lw 3 lw 459 1218 m20 6 lw 3 lw 552 1168 m20 6 lw 3 lw 645 1098 m20 6 lw 3 lw 738 1030 m20 6 lw 3 lw 831 972 m20 6 lw 924 856 m 7 Y s 924 890 m 2 Y s 3 lw 924 876 m20 6 lw 1017 814 m 16 Y s 1017 857 m 6 Y s 3 lw 1017
 843 m20 6 lw 1110 692 m 61 Y s 1110 781 m 19 Y s 3 lw 1110 767 m20 6 lw 3 lw 319 584 m 1860 X s
 gsave  2263 1770 2 313 C 1949.08 376.258 t 0 r /Helvetica findfont 81.3741 sf 0 0 m ( [GeV]) show NC gr 
 gsave  2263 1770 2 313 C 1915.19 332.192 t 0 r /Helvetica findfont 54.2494 sf 0 0 m (T) show NC gr 
 gsave  2263 1770 2 313 C 1630.45 376.258 t 0 r /Helvetica findfont 81.3741 sf 0 0 m (1st jet p) show NC gr  435 584 m cl s 482 584 m cl s 528 584 m cl s 575 584 m cl s 621 584 m cl s 668 584 m cl s 714 584 m cl s 761 584 m cl s 807 584 m cl s 854
 584 m cl s 900 584 m cl s 947 584 m cl s 993 584 m cl s 1040 584 m cl s 1087 584 m cl s 1133 584 m cl s 1180 584 m cl s 1226 584 m cl s 1273 584 m cl s 1319 584 m cl s 1366 584 m cl s 1412 584 m cl s 1459 584 m cl s 1505 584 m cl s 1552 584 m cl s
 1598 584 m cl s 1645 584 m cl s 1691 584 m cl s 1738 584 m cl s 1784 584 m cl s 1831 584 m cl s 1877 584 m cl s 1924 584 m cl s 1970 584 m cl s 2017 584 m cl s 2063 584 m cl s 435 584 m cl s 389 584 m cl s 342 584 m cl s 2063 584 m cl s 2110 584 m
 cl s 2156 584 m cl s 319 1729 m 1860 X s 435 1729 m cl s 482 1729 m cl s 528 1729 m cl s 575 1729 m cl s 621 1729 m cl s 668 1729 m cl s 714 1729 m cl s 761 1729 m cl s 807 1729 m cl s 854 1729 m cl s 900 1729 m cl s 947 1729 m cl s 993 1729 m cl s
 1040 1729 m cl s 1087 1729 m cl s 1133 1729 m cl s 1180 1729 m cl s 1226 1729 m cl s 1273 1729 m cl s 1319 1729 m cl s 1366 1729 m cl s 1412 1729 m cl s 1459 1729 m cl s 1505 1729 m cl s 1552 1729 m cl s 1598 1729 m cl s 1645 1729 m cl s 1691 1729 m
 cl s 1738 1729 m cl s 1784 1729 m cl s 1831 1729 m cl s 1877 1729 m cl s 1924 1729 m cl s 1970 1729 m cl s 2017 1729 m cl s 2063 1729 m cl s 435 1729 m cl s 389 1729 m cl s 342 1729 m cl s 2063 1729 m cl s 2110 1729 m cl s 2156 1729 m cl s 319 584 m
 1145 Y s
 gsave  2263 1770 2 313 C 166.096 1091.49 t 90 r /Helvetica findfont 81.3741 sf 0 0 m (Events / 200 GeV) show NC gr  341 627 m -22 X s 341 651 m -22 X s 341 669 m -22 X s 341 682 m -22 X s 341 694 m -22 X s 341 703 m -22 X s 341 711 m -22 X s 341 718
 m -22 X s 363 725 m -44 X s
 gsave  2263 1770 2 313 C 300.555 697.642 t 0 r  -36 0 t /Helvetica findfont 64.4212 sf 0 0 m (1) show NC gr  341 767 m -22 X s 341 792 m -22 X s 341 809 m -22 X s 341 823 m -22 X s 341 834 m -22 X s 341 843 m -22 X s 341 852 m -22 X s 341 859 m -22
 X s 363 865 m -44 X s
 gsave  2263 1770 2 313 C 300.555 838.093 t 0 r  -73 0 t /Helvetica findfont 64.4212 sf 0 0 m (10) show NC gr  341 907 m -22 X s 341 932 m -22 X s 341 950 m -22 X s 341 963 m -22 X s 341 975 m -22 X s 341 984 m -22 X s 341 992 m -22 X s 341 999 m -22
 X s 363 1006 m -44 X s
 gsave  2263 1770 2 313 C 274.567 1003.35 t 0 r /Helvetica findfont 44.0776 sf 0 0 m (2) show NC gr 
 gsave  2263 1770 2 313 C 203.383 976.237 t 0 r /Helvetica findfont 64.4212 sf 0 0 m (10) show NC gr  341 1048 m -22 X s 341 1073 m -22 X s 341 1090 m -22 X s 341 1104 m -22 X s 341 1115 m -22 X s 341 1124 m -22 X s 341 1132 m -22 X s 341 1140 m -22
 X s 363 1146 m -44 X s
 gsave  2263 1770 2 313 C 274.567 1149.11 t 0 r /Helvetica findfont 44.0776 sf 0 0 m (3) show NC gr 
 gsave  2263 1770 2 313 C 203.383 1118.6 t 0 r /Helvetica findfont 64.4212 sf 0 0 m (10) show NC gr  341 1188 m -22 X s 341 1213 m -22 X s 341 1231 m -22 X s 341 1244 m -22 X s 341 1255 m -22 X s 341 1265 m -22 X s 341 1273 m -22 X s 341 1280 m -22 X
 s 363 1287 m -44 X s
 gsave  2263 1770 2 313 C 274.567 1284.7 t 0 r /Helvetica findfont 44.0776 sf 0 0 m (4) show NC gr 
 gsave  2263 1770 2 313 C 203.383 1257.58 t 0 r /Helvetica findfont 64.4212 sf 0 0 m (10) show NC gr  341 1329 m -22 X s 341 1354 m -22 X s 341 1371 m -22 X s 341 1385 m -22 X s 341 1396 m -22 X s 341 1405 m -22 X s 341 1413 m -22 X s 341 1421 m -22
 X s 363 1427 m -44 X s
 gsave  2263 1770 2 313 C 274.567 1427.07 t 0 r /Helvetica findfont 44.0776 sf 0 0 m (5) show NC gr 
 gsave  2263 1770 2 313 C 203.383 1396.56 t 0 r /Helvetica findfont 64.4212 sf 0 0 m (10) show NC gr  341 1469 m -22 X s 341 1494 m -22 X s 341 1512 m -22 X s 341 1525 m -22 X s 341 1536 m -22 X s 341 1546 m -22 X s 341 1554 m -22 X s 341 1561 m -22
 X s 363 1567 m -44 X s
 gsave  2263 1770 2 313 C 274.567 1569.44 t 0 r /Helvetica findfont 44.0776 sf 0 0 m (6) show NC gr 
 gsave  2263 1770 2 313 C 203.383 1538.93 t 0 r /Helvetica findfont 64.4212 sf 0 0 m (10) show NC gr  341 1610 m -22 X s 341 1634 m -22 X s 341 1652 m -22 X s 341 1666 m -22 X s 341 1677 m -22 X s 341 1686 m -22 X s 341 1694 m -22 X s 341 1701 m -22
 X s 363 1708 m -44 X s
 gsave  2263 1770 2 313 C 274.567 1705.02 t 0 r /Helvetica findfont 44.0776 sf 0 0 m (7) show NC gr 
 gsave  2263 1770 2 313 C 203.383 1677.91 t 0 r /Helvetica findfont 64.4212 sf 0 0 m (10) show NC gr  2179 584 m 1145 Y s 2157 627 m 22 X s 2157 651 m 22 X s 2157 669 m 22 X s 2157 682 m 22 X s 2157 694 m 22 X s 2157 703 m 22 X s 2157 711 m 22 X s
 2157 718 m 22 X s 2136 725 m 43 X s 2157 767 m 22 X s 2157 792 m 22 X s 2157 809 m 22 X s 2157 823 m 22 X s 2157 834 m 22 X s 2157 843 m 22 X s 2157 852 m 22 X s 2157 859 m 22 X s 2136 865 m 43 X s 2157 907 m 22 X s 2157 932 m 22 X s 2157 950 m 22 X
 s 2157 963 m 22 X s 2157 975 m 22 X s 2157 984 m 22 X s 2157 992 m 22 X s 2157 999 m 22 X s 2136 1006 m 43 X s 2157 1048 m 22 X s 2157 1073 m 22 X s 2157 1090 m 22 X s 2157 1104 m 22 X s 2157 1115 m 22 X s 2157 1124 m 22 X s 2157 1132 m 22 X s 2157
 1140 m 22 X s 2136 1146 m 43 X s 2157 1188 m 22 X s 2157 1213 m 22 X s 2157 1231 m 22 X s 2157 1244 m 22 X s 2157 1255 m 22 X s 2157 1265 m 22 X s 2157 1273 m 22 X s 2157 1280 m 22 X s 2136 1287 m 43 X s 2157 1329 m 22 X s 2157 1354 m 22 X s 2157
 1371 m 22 X s 2157 1385 m 22 X s 2157 1396 m 22 X s 2157 1405 m 22 X s 2157 1413 m 22 X s 2157 1421 m 22 X s 2136 1427 m 43 X s 2157 1469 m 22 X s 2157 1494 m 22 X s 2157 1512 m 22 X s 2157 1525 m 22 X s 2157 1536 m 22 X s 2157 1546 m 22 X s 2157
 1554 m 22 X s 2157 1561 m 22 X s 2136 1567 m 43 X s 2157 1610 m 22 X s 2157 1634 m 22 X s 2157 1652 m 22 X s 2157 1666 m 22 X s 2157 1677 m 22 X s 2157 1686 m 22 X s 2157 1694 m 22 X s 2157 1701 m 22 X s 2136 1708 m 43 X s 0.4 0.6 1 c black 0.4 0.6
 1 c 319 584 m 656 Y 93 X -15 Y 93 X -49 Y 93 X -72 Y 93 X -70 Y 93 X -67 Y 93 X -61 Y 93 X -60 Y 93 X -64 Y 93 X -47 Y 93 X -44 Y 93 X -66 Y 93 X -41 Y 744 X f black 0.4 0.6 1 c black 319 1240 m 93 X -15 Y 93 X -49 Y 93 X -72 Y 93 X -70 Y 93 X -67 Y
 93 X -61 Y 93 X -60 Y 93 X -64 Y 93 X -47 Y 93 X -44 Y 93 X -66 Y 93 X -41 Y 744 X s 0.999 0.999 0.999 c black 0.999 0.999 0.999 c 319 584 m 640 Y 93 X -18 Y 93 X -50 Y 93 X -71 Y 93 X -70 Y 93 X -66 Y 93 X -61 Y 93 X -59 Y 93 X -63 Y 93 X -47 Y 93
 X -41 Y 93 X -94 Y 837 X f black 0.999 0.999 0.999 c black 319 1224 m 93 X -18 Y 93 X -50 Y 93 X -71 Y 93 X -70 Y 93 X -66 Y 93 X -61 Y 93 X -59 Y 93 X -63 Y 93 X -47 Y 93 X -41 Y 93 X -94 Y 837 X s 1 1 1 c black 319 1224 m 93 X -18 Y 93 X -50 Y 93
 X -71 Y 93 X -70 Y 93 X -66 Y 93 X -61 Y 93 X -59 Y 93 X -63 Y 93 X -47 Y 93 X -41 Y 93 X -94 Y 837 X s 0.6 1 0.6 c black 0.6 1 0.6 c 319 584 m 640 Y 93 X -18 Y 93 X -50 Y 93 X -71 Y 93 X -70 Y 93 X -66 Y 93 X -61 Y 93 X -59 Y 93 X -63 Y 93 X -47 Y
 93 X -41 Y 93 X -94 Y 837 X f black 0.6 1 0.6 c black 319 1224 m 93 X -18 Y 93 X -50 Y 93 X -71 Y 93 X -70 Y 93 X -66 Y 93 X -61 Y 93 X -59 Y 93 X -63 Y 93 X -47 Y 93 X -41 Y 93 X -94 Y 837 X s 0.999 0.999 0.999 c black 0.999 0.999 0.999 c 319 584 m
 598 Y 186 X -39 Y 93 X -67 Y 93 X -67 Y 93 X -66 Y 93 X -61 Y 93 X -61 Y 93 X -68 Y 93 X -34 Y 93 X -42 Y 93 X -93 Y 837 X f black 0.999 0.999 0.999 c black 319 1182 m 186 X -39 Y 93 X -67 Y 93 X -67 Y 93 X -66 Y 93 X -61 Y 93 X -61 Y 93 X -68 Y 93
 X -34 Y 93 X -42 Y 93 X -93 Y 837 X s 1 1 1 c black 319 1182 m 186 X -39 Y 93 X -67 Y 93 X -67 Y 93 X -66 Y 93 X -61 Y 93 X -61 Y 93 X -68 Y 93 X -34 Y 93 X -42 Y 93 X -93 Y 837 X s 1 0.8 0.4 c black 1 0.8 0.4 c 319 584 m 598 Y 186 X -39 Y 93 X -67
 Y 93 X -67 Y 93 X -66 Y 93 X -61 Y 93 X -61 Y 93 X -68 Y 93 X -34 Y 93 X -42 Y 93 X -93 Y 837 X f black 1 0.8 0.4 c black 319 1182 m 186 X -39 Y 93 X -67 Y 93 X -67 Y 93 X -66 Y 93 X -61 Y 93 X -61 Y 93 X -68 Y 93 X -34 Y 93 X -42 Y 93 X -93 Y 837 X
 s 0.999 0.999 0.999 c black 0.999 0.999 0.999 c 319 584 m 455 Y 93 X 9 Y 93 X -49 Y 93 X -62 Y 93 X -59 Y 93 X -70 Y 93 X -67 Y 93 X -49 Y 93 X -35 Y 93 X -73 Y 93 X 9 Y 93 X -9 Y 837 X f black 0.999 0.999 0.999 c black 319 1039 m 93 X 9 Y 93 X -49
 Y 93 X -62 Y 93 X -59 Y 93 X -70 Y 93 X -67 Y 93 X -49 Y 93 X -35 Y 93 X -73 Y 93 X 9 Y 93 X -9 Y 837 X s 1 1 1 c black 319 1039 m 93 X 9 Y 93 X -49 Y 93 X -62 Y 93 X -59 Y 93 X -70 Y 93 X -67 Y 93 X -49 Y 93 X -35 Y 93 X -73 Y 93 X 9 Y 93 X -9 Y
 837 X s 1 0.4 0.6 c black 1 0.4 0.6 c 319 584 m 455 Y 93 X 9 Y 93 X -49 Y 93 X -62 Y 93 X -59 Y 93 X -70 Y 93 X -67 Y 93 X -49 Y 93 X -35 Y 93 X -73 Y 93 X 9 Y 93 X -9 Y 837 X f black 1 0.4 0.6 c black 319 1039 m 93 X 9 Y 93 X -49 Y 93 X -62 Y 93 X
 -59 Y 93 X -70 Y 93 X -67 Y 93 X -49 Y 93 X -35 Y 93 X -73 Y 93 X 9 Y 93 X -9 Y 837 X s 0.999 0.999 0.999 c black 0.999 0.999 0.999 c 319 584 m 237 Y 93 X 135 Y 93 X -52 Y 93 X -62 Y 93 X -82 Y 93 X -78 Y 93 X -43 Y 93 X -55 Y 1209 X f black 0.999
 0.999 0.999 c black 319 821 m 93 X 135 Y 93 X -52 Y 93 X -62 Y 93 X -82 Y 93 X -78 Y 93 X -43 Y 93 X -55 Y 1209 X s 1 1 1 c black 319 821 m 93 X 135 Y 93 X -52 Y 93 X -62 Y 93 X -82 Y 93 X -78 Y 93 X -43 Y 93 X -55 Y 1209 X s 0 0 0.4 c black 0 0 0.4
 c 319 584 m 237 Y 93 X 135 Y 93 X -52 Y 93 X -62 Y 93 X -82 Y 93 X -78 Y 93 X -43 Y 93 X -55 Y 1209 X f black 0 0 0.4 c black 319 821 m 93 X 135 Y 93 X -52 Y 93 X -62 Y 93 X -82 Y 93 X -78 Y 93 X -43 Y 93 X -55 Y 1209 X s 1 0 0 c 6 lw 1 1 1 c black
 1 0 0 c 319 1240 m 93 X -15 Y 93 X -49 Y 93 X -72 Y 93 X -70 Y 93 X -67 Y 93 X -61 Y 93 X -60 Y 93 X -64 Y 93 X -47 Y 93 X -44 Y 93 X -66 Y 93 X -41 Y 744 X s black 3 lw 1 0 0 c 1 lw << /PatternType 1 /PaintType 2 /TilingType 1 /BBox [ 0 0 100 100 ]
 /XStep 100 /YStep 100 /PaintProc { begin gsave 0 100 m 100 0 l s gr end } >> [ 0.24 0 0 0.24 0 0 ] makepattern /P05 exch def /cs {[/Pattern /DeviceRGB] setcolorspace} def /FA {f [/DeviceRGB] setcolorspace} def cs 1 0 0 P05 setcolor 319 584 m 661 Y
 93 X -16 Y 93 X -50 Y 93 X -72 Y 93 X -69 Y 93 X -67 Y 93 X -60 Y 93 X -58 Y 93 X -61 Y 93 X -48 Y 93 X -37 Y 93 X -62 Y 93 X -61 Y 11 Y -93 X 75 Y -93 X 53 Y -93 X 48 Y -93 X 67 Y -93 X 63 Y -93 X 62 Y -93 X 67 Y -93 X 70 Y -93 X 73 Y -93 X 48 Y
 -93 X 14 Y -93 X -651 Y FA 6 lw 1 1 1 c 15 lw 1017 823 m -7 Y s 1017 816 m cl s 1110 787 m 16 Y s 1110 803 m cl s 1110 747 m -43 Y s 1110 704 m cl s black 1 1 1 c 3 lw /w 43 def /w2 {w 2 div} def /w3 {w 3 div} def 366 1236 459 1218 552 1168 645 1098
 738 1030 831 972 924 876 1017 843 1110 767 9 { m20} R 15 lw black 6 lw 1 1 1 c black 3 lw /w 33 def /w2 {w 2 div} def /w3 {w 3 div} def 366 1236 m20 6 lw 3 lw 459 1218 m20 6 lw 3 lw 552 1168 m20 6 lw 3 lw 645 1098 m20 6 lw 3 lw 738 1030 m20 6 lw 3
 lw 831 972 m20 6 lw 924 856 m 7 Y s 924 890 m 2 Y s 3 lw 924 876 m20 6 lw 1017 814 m 16 Y s 1017 857 m 6 Y s 3 lw 1017 843 m20 6 lw 1110 692 m 61 Y s 1110 781 m 19 Y s 3 lw 1110 767 m20 6 lw 924 890 m 2 Y s 924 892 m cl s 924 863 m -7 Y s 924 856 m
 cl s 1017 857 m 7 Y s 1017 864 m cl s 1017 830 m -14 Y s 1017 816 m cl s 1110 781 m 22 Y s 1110 803 m cl s 1110 753 m -49 Y s 1110 704 m cl s 3 lw 366 1236 459 1218 552 1168 645 1098 738 1030 831 972 924 876 1017 843 1110 767 9 { m20} R 6 lw 3 lw
 319 584 m 1860 X s 435 584 m cl s 482 584 m cl s 528 584 m cl s 575 584 m cl s 621 584 m cl s 668 584 m cl s 714 584 m cl s 761 584 m cl s 807 584 m cl s 854 584 m cl s 900 584 m cl s 947 584 m cl s 993 584 m cl s 1040 584 m cl s 1087 584 m cl s
 1133 584 m cl s 1180 584 m cl s 1226 584 m cl s 1273 584 m cl s 1319 584 m cl s 1366 584 m cl s 1412 584 m cl s 1459 584 m cl s 1505 584 m cl s 1552 584 m cl s 1598 584 m cl s 1645 584 m cl s 1691 584 m cl s 1738 584 m cl s 1784 584 m cl s 1831 584
 m cl s 1877 584 m cl s 1924 584 m cl s 1970 584 m cl s 2017 584 m cl s 2063 584 m cl s 435 584 m cl s 389 584 m cl s 342 584 m cl s 2063 584 m cl s 2110 584 m cl s 2156 584 m cl s 319 1729 m 1860 X s 435 1729 m cl s 482 1729 m cl s 528 1729 m cl s
 575 1729 m cl s 621 1729 m cl s 668 1729 m cl s 714 1729 m cl s 761 1729 m cl s 807 1729 m cl s 854 1729 m cl s 900 1729 m cl s 947 1729 m cl s 993 1729 m cl s 1040 1729 m cl s 1087 1729 m cl s 1133 1729 m cl s 1180 1729 m cl s 1226 1729 m cl s 1273
 1729 m cl s 1319 1729 m cl s 1366 1729 m cl s 1412 1729 m cl s 1459 1729 m cl s 1505 1729 m cl s 1552 1729 m cl s 1598 1729 m cl s 1645 1729 m cl s 1691 1729 m cl s 1738 1729 m cl s 1784 1729 m cl s 1831 1729 m cl s 1877 1729 m cl s 1924 1729 m cl s
 1970 1729 m cl s 2017 1729 m cl s 2063 1729 m cl s 435 1729 m cl s 389 1729 m cl s 342 1729 m cl s 2063 1729 m cl s 2110 1729 m cl s 2156 1729 m cl s 319 584 m 1145 Y s 341 627 m -22 X s 341 651 m -22 X s 341 669 m -22 X s 341 682 m -22 X s 341 694
 m -22 X s 341 703 m -22 X s 341 711 m -22 X s 341 718 m -22 X s 363 725 m -44 X s 341 767 m -22 X s 341 792 m -22 X s 341 809 m -22 X s 341 823 m -22 X s 341 834 m -22 X s 341 843 m -22 X s 341 852 m -22 X s 341 859 m -22 X s 363 865 m -44 X s 341
 907 m -22 X s 341 932 m -22 X s 341 950 m -22 X s 341 963 m -22 X s 341 975 m -22 X s 341 984 m -22 X s 341 992 m -22 X s 341 999 m -22 X s 363 1006 m -44 X s 341 1048 m -22 X s 341 1073 m -22 X s 341 1090 m -22 X s 341 1104 m -22 X s 341 1115 m -22
 X s 341 1124 m -22 X s 341 1132 m -22 X s 341 1140 m -22 X s 363 1146 m -44 X s 341 1188 m -22 X s 341 1213 m -22 X s 341 1231 m -22 X s 341 1244 m -22 X s 341 1255 m -22 X s 341 1265 m -22 X s 341 1273 m -22 X s 341 1280 m -22 X s 363 1287 m -44 X
 s 341 1329 m -22 X s 341 1354 m -22 X s 341 1371 m -22 X s 341 1385 m -22 X s 341 1396 m -22 X s 341 1405 m -22 X s 341 1413 m -22 X s 341 1421 m -22 X s 363 1427 m -44 X s 341 1469 m -22 X s 341 1494 m -22 X s 341 1512 m -22 X s 341 1525 m -22 X s
 341 1536 m -22 X s 341 1546 m -22 X s 341 1554 m -22 X s 341 1561 m -22 X s 363 1567 m -44 X s 341 1610 m -22 X s 341 1634 m -22 X s 341 1652 m -22 X s 341 1666 m -22 X s 341 1677 m -22 X s 341 1686 m -22 X s 341 1694 m -22 X s 341 1701 m -22 X s
 363 1708 m -44 X s 2179 584 m 1145 Y s 2157 627 m 22 X s 2157 651 m 22 X s 2157 669 m 22 X s 2157 682 m 22 X s 2157 694 m 22 X s 2157 703 m 22 X s 2157 711 m 22 X s 2157 718 m 22 X s 2136 725 m 43 X s 2157 767 m 22 X s 2157 792 m 22 X s 2157 809 m
 22 X s 2157 823 m 22 X s 2157 834 m 22 X s 2157 843 m 22 X s 2157 852 m 22 X s 2157 859 m 22 X s 2136 865 m 43 X s 2157 907 m 22 X s 2157 932 m 22 X s 2157 950 m 22 X s 2157 963 m 22 X s 2157 975 m 22 X s 2157 984 m 22 X s 2157 992 m 22 X s 2157 999
 m 22 X s 2136 1006 m 43 X s 2157 1048 m 22 X s 2157 1073 m 22 X s 2157 1090 m 22 X s 2157 1104 m 22 X s 2157 1115 m 22 X s 2157 1124 m 22 X s 2157 1132 m 22 X s 2157 1140 m 22 X s 2136 1146 m 43 X s 2157 1188 m 22 X s 2157 1213 m 22 X s 2157 1231 m
 22 X s 2157 1244 m 22 X s 2157 1255 m 22 X s 2157 1265 m 22 X s 2157 1273 m 22 X s 2157 1280 m 22 X s 2136 1287 m 43 X s 2157 1329 m 22 X s 2157 1354 m 22 X s 2157 1371 m 22 X s 2157 1385 m 22 X s 2157 1396 m 22 X s 2157 1405 m 22 X s 2157 1413 m 22
 X s 2157 1421 m 22 X s 2136 1427 m 43 X s 2157 1469 m 22 X s 2157 1494 m 22 X s 2157 1512 m 22 X s 2157 1525 m 22 X s 2157 1536 m 22 X s 2157 1546 m 22 X s 2157 1554 m 22 X s 2157 1561 m 22 X s 2136 1567 m 43 X s 2157 1610 m 22 X s 2157 1634 m 22 X
 s 2157 1652 m 22 X s 2157 1666 m 22 X s 2157 1677 m 22 X s 2157 1686 m 22 X s 2157 1694 m 22 X s 2157 1701 m 22 X s 2136 1708 m 43 X s
 gsave  2263 1770 2 313 C 406.765 1447.41 t 0 r /Helvetica findfont 64.4212 sf 0 0 m (VR0LmetSig for MB\255SSd) show NC gr 
 gsave  2263 1770 2 313 C 1464.36 1630.45 t 0 r /Helvetica findfont 64.4212 sf 0 0 m (SM Total) show NC gr  1 1 1 c 1338 1616 m 107 X 64 Y -107 X f 1 0 0 c 6 lw 1338 1648 m 107 X s black
 gsave  2263 1770 2 313 C 1464.36 1538.93 t 0 r /Helvetica findfont 64.4212 sf 0 0 m (Data) show NC gr  1391 1529 m 55 Y s 3 lw 1391 1557 m20 6 lw
 gsave  2263 1770 2 313 C 1464.36 1447.41 t 0 r /Helvetica findfont 64.4212 sf 0 0 m (W+jets) show NC gr  0.4 0.6 1 c 3 lw 1338 1434 m 107 X 64 Y -107 X f 6 lw black 3 lw 1338 1498 m 107 X s 1338 1434 m 107 X s 1445 1434 m 64 Y s 1338 1434 m 64 Y s
 gsave  2263 1770 2 313 C 1498.25 1355.88 t 0 r /Helvetica findfont 64.4212 sf 0 0 m (\(+EW\) & single top) show NC gr 
 gsave  2263 1770 2 313 C 1481.3 1355.88 t 0 r /Helvetica findfont 64.4212 sf 0 0 m (t) show NC gr  1481 1407 m 17 X s
 gsave  2263 1770 2 313 C 1464.36 1355.88 t 0 r /Helvetica findfont 64.4212 sf 0 0 m (t) show NC gr  0.6 1 0.6 c 1338 1343 m 107 X 63 Y -107 X f black 1338 1406 m 107 X s 1338 1343 m 107 X s 1445 1343 m 63 Y s 1338 1343 m 63 Y s
 gsave  2263 1770 2 313 C 1464.36 1264.36 t 0 r /Helvetica findfont 64.4212 sf 0 0 m (Z+jets) show NC gr  1 0.8 0.4 c 1338 1252 m 107 X 63 Y -107 X f black 1338 1315 m 107 X s 1338 1252 m 107 X s 1445 1252 m 63 Y s 1338 1252 m 63 Y s
 gsave  2263 1770 2 313 C 1464.36 1172.84 t 0 r /Helvetica findfont 64.4212 sf 0 0 m (Diboson) show NC gr  1 0.4 0.6 c 1338 1161 m 107 X 63 Y -107 X f black 1338 1224 m 107 X s 1338 1161 m 107 X s 1445 1161 m 63 Y s 1338 1161 m 63 Y s
 gsave  2263 1770 2 313 C 1464.36 1081.32 t 0 r /Helvetica findfont 64.4212 sf 0 0 m (Multi\255jet) show NC gr  0 0 0.4 c 1338 1070 m 107 X 63 Y -107 X f black 1338 1133 m 107 X s 1338 1070 m 107 X s 1445 1070 m 63 Y s 1338 1070 m 63 Y s
 gsave  2263 1770 2 313 C 911.832 1566.05 t 0 r /Helvetica findfont 44.0776 sf 0 0 m (\2551) show NC gr 
 gsave  2263 1770 2 313 C 471.17 1535.54 t 0 r /Helvetica findfont 64.4212 sf 0 0 m (=13TeV, 139 fb) show NC gr 
 gsave  2263 1770 2 313 C 440.662 1535.54 t 0 r /Helvetica findfont 64.4212 sf 0 0 m (s) show NC gr  6 lw 420 1573 m 7 -41 d s 3 lw 427 1532 m 7 61 d s 434 1593 m 37 X s 1 1 1 c 2254 561 2 2 bf black 1 1 1 c black 1860 358 318 187 bl 1 1 1 c black
 1860 358 318 187 bl 6 lw 1 1 1 c black 3 lw 364 356 m20 6 lw 3 lw 457 349 m20 6 lw 3 lw 550 346 m20 6 lw 3 lw 643 352 m20 6 lw 3 lw 736 355 m20 6 lw 3 lw 829 380 m20 6 lw 3 lw 923 303 m20 6 lw 3 lw 1016 359 m20 6 lw 3 lw 1109 330 m20 6 lw 3 lw 318
 187 m 1860 X s
 gsave  2254 561 2 2 C 1959.25 44.0662 t 0 r /Helvetica findfont 78.1689 sf 0 0 m ( [GeV]) show NC gr 
 gsave  2254 561 2 2 C 1928.75 -2.35513e-13 t 0 r /Helvetica findfont 50.9797 sf 0 0 m (T) show NC gr 
 gsave  2254 561 2 2 C 1657.57 44.0662 t 0 r /Helvetica findfont 78.1689 sf 0 0 m (1st jet p) show NC gr  434 201 m -14 Y s 481 194 m -7 Y s 527 194 m -7 Y s 574 194 m -7 Y s 620 194 m -7 Y s 667 201 m -14 Y s 713 194 m -7 Y s 760 194 m -7 Y s 806
 194 m -7 Y s 853 194 m -7 Y s 899 201 m -14 Y s 946 194 m -7 Y s 992 194 m -7 Y s 1039 194 m -7 Y s 1085 194 m -7 Y s 1132 201 m -14 Y s 1178 194 m -7 Y s 1225 194 m -7 Y s 1271 194 m -7 Y s 1318 194 m -7 Y s 1364 201 m -14 Y s 1411 194 m -7 Y s
 1457 194 m -7 Y s 1504 194 m -7 Y s 1550 194 m -7 Y s 1597 201 m -14 Y s 1643 194 m -7 Y s 1690 194 m -7 Y s 1737 194 m -7 Y s 1783 194 m -7 Y s 1830 201 m -14 Y s 1876 194 m -7 Y s 1923 194 m -7 Y s 1969 194 m -7 Y s 2016 194 m -7 Y s 2062 201 m
 -14 Y s 434 201 m -14 Y s 388 194 m -7 Y s 341 194 m -7 Y s 2062 201 m -14 Y s 2109 194 m -7 Y s 2155 194 m -7 Y s
 gsave  2254 561 2 2 C 369.478 118.64 t 0 r /Helvetica findfont 78.1689 sf 0 0 m (500) show NC gr 
 gsave  2254 561 2 2 C 576.251 118.64 t 0 r /Helvetica findfont 78.1689 sf 0 0 m (1000) show NC gr 
 gsave  2254 561 2 2 C 810.141 118.64 t 0 r /Helvetica findfont 78.1689 sf 0 0 m (1500) show NC gr 
 gsave  2254 561 2 2 C 1040.64 118.64 t 0 r /Helvetica findfont 78.1689 sf 0 0 m (2000) show NC gr 
 gsave  2254 561 2 2 C 1274.53 118.64 t 0 r /Helvetica findfont 78.1689 sf 0 0 m (2500) show NC gr 
 gsave  2254 561 2 2 C 1508.42 118.64 t 0 r /Helvetica findfont 78.1689 sf 0 0 m (3000) show NC gr 
 gsave  2254 561 2 2 C 1738.92 118.64 t 0 r /Helvetica findfont 78.1689 sf 0 0 m (3500) show NC gr 
 gsave  2254 561 2 2 C 1972.81 118.64 t 0 r /Helvetica findfont 78.1689 sf 0 0 m (4000) show NC gr  318 545 m 1860 X s 434 531 m 14 Y s 481 538 m 7 Y s 527 538 m 7 Y s 574 538 m 7 Y s 620 538 m 7 Y s 667 531 m 14 Y s 713 538 m 7 Y s 760 538 m 7 Y s
 806 538 m 7 Y s 853 538 m 7 Y s 899 531 m 14 Y s 946 538 m 7 Y s 992 538 m 7 Y s 1039 538 m 7 Y s 1085 538 m 7 Y s 1132 531 m 14 Y s 1178 538 m 7 Y s 1225 538 m 7 Y s 1271 538 m 7 Y s 1318 538 m 7 Y s 1364 531 m 14 Y s 1411 538 m 7 Y s 1457 538 m 7
 Y s 1504 538 m 7 Y s 1550 538 m 7 Y s 1597 531 m 14 Y s 1643 538 m 7 Y s 1690 538 m 7 Y s 1737 538 m 7 Y s 1783 538 m 7 Y s 1830 531 m 14 Y s 1876 538 m 7 Y s 1923 538 m 7 Y s 1969 538 m 7 Y s 2016 538 m 7 Y s 2062 531 m 14 Y s 434 531 m 14 Y s 388
 538 m 7 Y s 341 538 m 7 Y s 2062 531 m 14 Y s 2109 538 m 7 Y s 2155 538 m 7 Y s 318 187 m 358 Y s
 gsave  2254 561 2 2 C 166.096 284.736 t 90 r /Helvetica findfont 67.9729 sf 0 0 m (Data/SM) show NC gr  361 203 m -43 X s 339 220 m -21 X s 339 236 m -21 X s 339 252 m -21 X s 339 268 m -21 X s 361 285 m -43 X s 339 301 m -21 X s 339 317 m -21 X s
 339 334 m -21 X s 339 350 m -21 X s 361 366 m -43 X s 339 382 m -21 X s 339 399 m -21 X s 339 415 m -21 X s 339 431 m -21 X s 361 447 m -43 X s 339 464 m -21 X s 339 480 m -21 X s 339 496 m -21 X s 339 512 m -21 X s 361 529 m -43 X s 361 203 m -43 X
 s 339 187 m -21 X s 361 529 m -43 X s
 gsave  2254 561 2 2 C 261.008 183.044 t 0 r /Helvetica findfont 57.777 sf 0 0 m (0) show NC gr 
 gsave  2254 561 2 2 C 213.552 261.008 t 0 r /Helvetica findfont 57.777 sf 0 0 m (0.5) show NC gr 
 gsave  2254 561 2 2 C 271.177 342.361 t 0 r /Helvetica findfont 57.777 sf 0 0 m (1) show NC gr 
 gsave  2254 561 2 2 C 213.552 423.714 t 0 r /Helvetica findfont 57.777 sf 0 0 m (1.5) show NC gr 
 gsave  2254 561 2 2 C 261.008 505.067 t 0 r /Helvetica findfont 57.777 sf 0 0 m (2) show NC gr  2178 187 m 358 Y s 2135 203 m 43 X s 2157 220 m 21 X s 2157 236 m 21 X s 2157 252 m 21 X s 2157 268 m 21 X s 2135 285 m 43 X s 2157 301 m 21 X s 2157 317
 m 21 X s 2157 334 m 21 X s 2157 350 m 21 X s 2135 366 m 43 X s 2157 382 m 21 X s 2157 399 m 21 X s 2157 415 m 21 X s 2157 431 m 21 X s 2135 447 m 43 X s 2157 464 m 21 X s 2157 480 m 21 X s 2157 496 m 21 X s 2157 512 m 21 X s 2135 529 m 43 X s 2135
 203 m 43 X s 2157 187 m 21 X s 2135 529 m 43 X s 9 lw 829 394 m 10 Y s 829 404 m cl s 829 367 m -10 Y s 829 357 m cl s 923 317 m 15 Y s 923 332 m cl s 923 290 m -15 Y s 923 275 m cl s 1016 372 m 48 Y s 1016 420 m cl s 1016 345 m -43 Y s 1016 302 m
 cl s 1109 344 m 90 Y s 1109 434 m cl s 1109 317 m -68 Y s 1109 249 m cl s 3 lw 364 356 457 349 550 346 643 352 736 355 829 380 923 303 1016 359 1109 330 9 { m20} R 9 lw 1 0 0 c 6 lw black 3 lw 1 0 0 c 2155 203 m cl s 2127 203 m cl s 2098 203 m cl s
 2069 203 m cl s 2040 203 m cl s 2012 203 m cl s 1992 213 m s 1992 241 m s 1992 270 m s 1992 298 m -28 -28 d s 1992 327 m -57 -57 d s 1992 356 m -86 -86 d s 1899 263 m -13 -14 d s 1992 384 m -135 -135 d s 1992 413 m -164 -164 d s 1992 441 m -186 -185
 d s 1985 462 m -184 -183 d s 1956 462 m -184 -183 d s 1927 462 m -184 -183 d s 1713 249 m -9 -9 d s 1899 463 m -184 -184 d s 1713 278 m -37 -38 d s 1891 483 m -244 -243 d s 1862 483 m -242 -241 d s 1833 483 m -27 -27 d s 1803 453 m -183 -182 d s
 1775 453 m -174 -173 d s 1746 453 m -174 -173 d s 1717 453 m -174 -173 d s 1713 478 m -186 -186 d s 1699 492 m -180 -179 d s 1670 492 m -180 -179 d s 1641 492 m -21 -21 d s 1601 452 m -139 -139 d s 1573 452 m -150 -149 d s 1544 452 m -17 -17 d s
 1511 419 m -116 -116 d s 1483 419 m -117 -116 d s 1454 419 m -113 -112 d s 1434 428 m -110 -109 d s 1406 429 m -110 -110 d s 1377 429 m -110 -110 d s 1349 429 m -8 -8 d s 1333 413 m -85 -84 d s 1304 413 m -75 -74 d s 1275 413 m -74 -74 d s 1227 393
 m -55 -54 d s 1198 393 m -55 -54 d s 1170 393 m -55 -54 d s 1141 393 m -55 -54 d s 1112 393 m -50 -50 d s 1083 393 m -47 -47 d s 1047 386 m -39 -40 d s 1018 386 m -39 -40 d s 990 386 m -34 -34 d s 955 380 m -28 -28 d s 926 380 m -27 -28 d s 898 380
 m -25 -25 d s 866 377 m -22 -22 d s 838 377 m -23 -22 d s 809 377 m -22 -22 d s 779 376 m -20 -20 d s 750 376 m -20 -20 d s 722 376 m -20 -20 d s 693 376 m -20 -20 d s 664 376 m -19 -20 d s 635 376 m -19 -20 d s 607 376 m -19 -19 d s 577 375 m -17
 -18 d s 548 375 m -17 -18 d s 520 375 m -19 -19 d s 492 376 m -20 -20 d s 463 376 m -19 -20 d s 318 231 m s 435 376 m -20 -20 d s 318 259 m s 409 378 m -25 -24 d s 318 288 m s 380 378 m -25 -24 d s 318 317 m s 351 378 m -25 -24 d s 318 345 m s 322
 378 m -4 -4 d s 6 lw black[ 4 8] 0 sd 3 lw 318 447 m 1860 X s 318 285 m 1860 X s 1 0 0 c[  12 12 ] 0 sd 6 lw 318 366 m 1860 X s
 gr  gr showpage
end
%%EOF
