%!PS-Adobe-2.0 EPSF-2.0
%%BoundingBox:  0 0 567 521
%%Title: Distributions/jetPt_0__distrCRY_MB-GGd_beforeFit_forThesis.eps: canvas
%%Creator: ROOT Version 6.04/16
%%CreationDate: Tue May 19 22:03:03 2020
%%DocumentNeededResources: ProcSet (FontSetInit)
%%EndComments
%%BeginProlog
80 dict begin
/s {stroke} def /l {lineto} def /m {moveto} def /t {translate} def
/r {rotate} def /rl {roll}  def /R {repeat} def
/d {rlineto} def /rm {rmoveto} def /gr {grestore} def /f {eofill} def
/c {setrgbcolor} def /black {0 setgray} def /sd {setdash} def
/cl {closepath} def /sf {scalefont setfont} def /lw {setlinewidth} def
/box {m dup 0 exch d exch 0 d 0 exch neg d cl} def
/NC{systemdict begin initclip end}def/C{NC box clip newpath}def
/bl {box s} def /bf {gsave box gsave f grestore 1 lw [] 0 sd s grestore} def /Y { 0 exch d} def /X { 0 d} def 
/K {{pop pop 0 moveto} exch kshow} bind def
/ita {/ang 15 def gsave [1 0 ang dup sin exch cos div 1 0 0] concat} def 
/mp {newpath /y exch def /x exch def} def
/side {[w .77 mul w .23 mul] .385 w mul sd w 0 l currentpoint t -144 r} def
/mr {mp x y w2 0 360 arc} def /m24 {mr s} def /m20 {mr f} def
/mb {mp x y w2 add m w2 neg 0 d 0 w neg d w 0 d 0 w d cl} def
/mt {mp x y w2 add m w2 neg w neg d w 0 d cl} def
/m21 {mb f} def /m25 {mb s} def /m22 {mt f} def /m26{mt s} def
/m23 {mp x y w2 sub m w2 w d w neg 0 d cl f} def
/m27 {mp x y w2 add m w3 neg w2 neg d w3 w2 neg d w3 w2 d cl s} def
/m28 {mp x w2 sub y w2 sub w3 add m w3 0 d  0 w3 neg d w3 0 d 0 w3 d w3 0 d  0 w3 d w3 neg 0 d 0 w3 d w3 neg 0 d 0 w3 neg d w3 neg 0 d cl s } def
/m29 {mp gsave x w2 sub y w2 add w3 sub m currentpoint t 4 {side} repeat cl fill gr} def
/m30 {mp gsave x w2 sub y w2 add w3 sub m currentpoint t 4 {side} repeat cl s gr} def
/m31 {mp x y w2 sub m 0 w d x w2 sub y m w 0 d x w2 sub y w2 add m w w neg d x w2 sub y w2 sub m w w d s} def
/m32 {mp x y w2 sub m w2 w d w neg 0 d cl s} def
/m33 {mp x y w2 add m w3 neg w2 neg d w3 w2 neg d w3 w2 d cl f} def
/m34 {mp x w2 sub y w2 sub w3 add m w3 0 d  0 w3 neg d w3 0 d 0 w3 d w3 0 d  0 w3 d w3 neg 0 d 0 w3 d w3 neg 0 d 0 w3 neg d w3 neg 0 d cl f } def
/m2 {mp x y w2 sub m 0 w d x w2 sub y m w 0 d s} def
/m5 {mp x w2 sub y w2 sub m w w d x w2 sub y w2 add m w w neg d s} def
%%IncludeResource: ProcSet (FontSetInit)
%%IncludeResource: font Times-Roman
%%IncludeResource: font Times-Italic
%%IncludeResource: font Times-Bold
%%IncludeResource: font Times-BoldItalic
%%IncludeResource: font Helvetica
%%IncludeResource: font Helvetica-Oblique
%%IncludeResource: font Helvetica-Bold
%%IncludeResource: font Helvetica-BoldOblique
%%IncludeResource: font Courier
%%IncludeResource: font Courier-Oblique
%%IncludeResource: font Courier-Bold
%%IncludeResource: font Courier-BoldOblique
%%IncludeResource: font Symbol
%%IncludeResource: font ZapfDingbats
/reEncode {exch findfont dup length dict begin {1 index /FID eq  {pop pop} {def} ifelse } forall /Encoding exch def currentdict end dup /FontName get exch definefont pop } def [/Times-Bold /Times-Italic /Times-BoldItalic /Helvetica /Helvetica-Oblique
 /Helvetica-Bold /Helvetica-BoldOblique /Courier /Courier-Oblique /Courier-Bold /Courier-BoldOblique /Times-Roman /AvantGarde-Book /AvantGarde-BookOblique /AvantGarde-Demi /AvantGarde-DemiOblique /Bookman-Demi /Bookman-DemiItalic /Bookman-Light
 /Bookman-LightItalic /Helvetica-Narrow /Helvetica-Narrow-Bold /Helvetica-Narrow-BoldOblique /Helvetica-Narrow-Oblique /NewCenturySchlbk-Roman /NewCenturySchlbk-Bold /NewCenturySchlbk-BoldItalic /NewCenturySchlbk-Italic /Palatino-Bold
 /Palatino-BoldItalic /Palatino-Italic /Palatino-Roman ] {ISOLatin1Encoding reEncode } forall
%%EndProlog
%%BeginSetup
%%EndSetup
newpath  gsave  .25 .25 scale  gsave  0 0 t black[  ] 0 sd 3 lw 1 1 1 c 2268 2085 0 0 bf black 1 1 1 c 2263 1770 2 313 bf black 1 1 1 c black 1860 1145 319 584 bl 1 1 1 c black 1860 1145 319 584 bl 6 lw 1 1 1 c black 3 lw /w 33 def /w2 {w 2 div} def
 /w3 {w 3 div} def 366 1233 m20 6 lw 3 lw 459 1159 m20 6 lw 3 lw 552 1084 m20 6 lw 3 lw 645 1025 m20 6 lw 3 lw 738 960 m20 6 lw 831 862 m 6 Y s 831 895 m 2 Y s 3 lw 831 882 m20 6 lw 924 767 m 29 Y s 924 823 m 12 Y s 3 lw 924 810 m20 6 lw 1017 787 m
 23 Y s 1017 837 m 9 Y s 3 lw 1017 823 m20 6 lw 3 lw 319 584 m 1860 X s
 gsave  2263 1770 2 313 C 1949.08 376.258 t 0 r /Helvetica findfont 81.3741 sf 0 0 m ( [GeV]) show NC gr 
 gsave  2263 1770 2 313 C 1915.19 332.192 t 0 r /Helvetica findfont 54.2494 sf 0 0 m (T) show NC gr 
 gsave  2263 1770 2 313 C 1630.45 376.258 t 0 r /Helvetica findfont 81.3741 sf 0 0 m (1st jet p) show NC gr  435 584 m cl s 482 584 m cl s 528 584 m cl s 575 584 m cl s 621 584 m cl s 668 584 m cl s 714 584 m cl s 761 584 m cl s 807 584 m cl s 854
 584 m cl s 900 584 m cl s 947 584 m cl s 993 584 m cl s 1040 584 m cl s 1087 584 m cl s 1133 584 m cl s 1180 584 m cl s 1226 584 m cl s 1273 584 m cl s 1319 584 m cl s 1366 584 m cl s 1412 584 m cl s 1459 584 m cl s 1505 584 m cl s 1552 584 m cl s
 1598 584 m cl s 1645 584 m cl s 1691 584 m cl s 1738 584 m cl s 1784 584 m cl s 1831 584 m cl s 1877 584 m cl s 1924 584 m cl s 1970 584 m cl s 2017 584 m cl s 2063 584 m cl s 435 584 m cl s 389 584 m cl s 342 584 m cl s 2063 584 m cl s 2110 584 m
 cl s 2156 584 m cl s 319 1729 m 1860 X s 435 1729 m cl s 482 1729 m cl s 528 1729 m cl s 575 1729 m cl s 621 1729 m cl s 668 1729 m cl s 714 1729 m cl s 761 1729 m cl s 807 1729 m cl s 854 1729 m cl s 900 1729 m cl s 947 1729 m cl s 993 1729 m cl s
 1040 1729 m cl s 1087 1729 m cl s 1133 1729 m cl s 1180 1729 m cl s 1226 1729 m cl s 1273 1729 m cl s 1319 1729 m cl s 1366 1729 m cl s 1412 1729 m cl s 1459 1729 m cl s 1505 1729 m cl s 1552 1729 m cl s 1598 1729 m cl s 1645 1729 m cl s 1691 1729 m
 cl s 1738 1729 m cl s 1784 1729 m cl s 1831 1729 m cl s 1877 1729 m cl s 1924 1729 m cl s 1970 1729 m cl s 2017 1729 m cl s 2063 1729 m cl s 435 1729 m cl s 389 1729 m cl s 342 1729 m cl s 2063 1729 m cl s 2110 1729 m cl s 2156 1729 m cl s 319 584 m
 1145 Y s
 gsave  2263 1770 2 313 C 166.096 1091.49 t 90 r /Helvetica findfont 81.3741 sf 0 0 m (Events / 200 GeV) show NC gr  341 627 m -22 X s 341 651 m -22 X s 341 669 m -22 X s 341 683 m -22 X s 341 694 m -22 X s 341 703 m -22 X s 341 711 m -22 X s 341 719
 m -22 X s 363 725 m -44 X s
 gsave  2263 1770 2 313 C 300.555 697.898 t 0 r  -36 0 t /Helvetica findfont 64.4212 sf 0 0 m (1) show NC gr  341 767 m -22 X s 341 792 m -22 X s 341 810 m -22 X s 341 823 m -22 X s 341 835 m -22 X s 341 844 m -22 X s 341 852 m -22 X s 341 859 m -22
 X s 363 866 m -44 X s
 gsave  2263 1770 2 313 C 300.555 838.605 t 0 r  -73 0 t /Helvetica findfont 64.4212 sf 0 0 m (10) show NC gr  341 908 m -22 X s 341 933 m -22 X s 341 950 m -22 X s 341 964 m -22 X s 341 975 m -22 X s 341 985 m -22 X s 341 993 m -22 X s 341 1000 m
 -22 X s 363 1006 m -44 X s
 gsave  2263 1770 2 313 C 274.567 1003.35 t 0 r /Helvetica findfont 44.0776 sf 0 0 m (2) show NC gr 
 gsave  2263 1770 2 313 C 203.383 976.237 t 0 r /Helvetica findfont 64.4212 sf 0 0 m (10) show NC gr  341 1049 m -22 X s 341 1074 m -22 X s 341 1091 m -22 X s 341 1105 m -22 X s 341 1116 m -22 X s 341 1125 m -22 X s 341 1133 m -22 X s 341 1141 m -22
 X s 363 1147 m -44 X s
 gsave  2263 1770 2 313 C 274.567 1149.11 t 0 r /Helvetica findfont 44.0776 sf 0 0 m (3) show NC gr 
 gsave  2263 1770 2 313 C 203.383 1118.6 t 0 r /Helvetica findfont 64.4212 sf 0 0 m (10) show NC gr  341 1189 m -22 X s 341 1214 m -22 X s 341 1232 m -22 X s 341 1245 m -22 X s 341 1257 m -22 X s 341 1266 m -22 X s 341 1274 m -22 X s 341 1281 m -22 X
 s 363 1288 m -44 X s
 gsave  2263 1770 2 313 C 274.567 1284.7 t 0 r /Helvetica findfont 44.0776 sf 0 0 m (4) show NC gr 
 gsave  2263 1770 2 313 C 203.383 1257.58 t 0 r /Helvetica findfont 64.4212 sf 0 0 m (10) show NC gr  341 1330 m -22 X s 341 1355 m -22 X s 341 1373 m -22 X s 341 1386 m -22 X s 341 1397 m -22 X s 341 1407 m -22 X s 341 1415 m -22 X s 341 1422 m -22
 X s 363 1429 m -44 X s
 gsave  2263 1770 2 313 C 274.567 1430.46 t 0 r /Helvetica findfont 44.0776 sf 0 0 m (5) show NC gr 
 gsave  2263 1770 2 313 C 203.383 1399.95 t 0 r /Helvetica findfont 64.4212 sf 0 0 m (10) show NC gr  341 1471 m -22 X s 341 1496 m -22 X s 341 1513 m -22 X s 341 1527 m -22 X s 341 1538 m -22 X s 341 1547 m -22 X s 341 1556 m -22 X s 341 1563 m -22
 X s 363 1569 m -44 X s
 gsave  2263 1770 2 313 C 274.567 1569.44 t 0 r /Helvetica findfont 44.0776 sf 0 0 m (6) show NC gr 
 gsave  2263 1770 2 313 C 203.383 1538.93 t 0 r /Helvetica findfont 64.4212 sf 0 0 m (10) show NC gr  341 1612 m -22 X s 341 1636 m -22 X s 341 1654 m -22 X s 341 1668 m -22 X s 341 1679 m -22 X s 341 1688 m -22 X s 341 1696 m -22 X s 341 1704 m -22
 X s 363 1710 m -44 X s
 gsave  2263 1770 2 313 C 274.567 1708.41 t 0 r /Helvetica findfont 44.0776 sf 0 0 m (7) show NC gr 
 gsave  2263 1770 2 313 C 203.383 1681.3 t 0 r /Helvetica findfont 64.4212 sf 0 0 m (10) show NC gr  2179 584 m 1145 Y s 2157 627 m 22 X s 2157 651 m 22 X s 2157 669 m 22 X s 2157 683 m 22 X s 2157 694 m 22 X s 2157 703 m 22 X s 2157 711 m 22 X s
 2157 719 m 22 X s 2136 725 m 43 X s 2157 767 m 22 X s 2157 792 m 22 X s 2157 810 m 22 X s 2157 823 m 22 X s 2157 835 m 22 X s 2157 844 m 22 X s 2157 852 m 22 X s 2157 859 m 22 X s 2136 866 m 43 X s 2157 908 m 22 X s 2157 933 m 22 X s 2157 950 m 22 X
 s 2157 964 m 22 X s 2157 975 m 22 X s 2157 985 m 22 X s 2157 993 m 22 X s 2157 1000 m 22 X s 2136 1006 m 43 X s 2157 1049 m 22 X s 2157 1074 m 22 X s 2157 1091 m 22 X s 2157 1105 m 22 X s 2157 1116 m 22 X s 2157 1125 m 22 X s 2157 1133 m 22 X s 2157
 1141 m 22 X s 2136 1147 m 43 X s 2157 1189 m 22 X s 2157 1214 m 22 X s 2157 1232 m 22 X s 2157 1245 m 22 X s 2157 1257 m 22 X s 2157 1266 m 22 X s 2157 1274 m 22 X s 2157 1281 m 22 X s 2136 1288 m 43 X s 2157 1330 m 22 X s 2157 1355 m 22 X s 2157
 1373 m 22 X s 2157 1386 m 22 X s 2157 1397 m 22 X s 2157 1407 m 22 X s 2157 1415 m 22 X s 2157 1422 m 22 X s 2136 1429 m 43 X s 2157 1471 m 22 X s 2157 1496 m 22 X s 2157 1513 m 22 X s 2157 1527 m 22 X s 2157 1538 m 22 X s 2157 1547 m 22 X s 2157
 1556 m 22 X s 2157 1563 m 22 X s 2136 1569 m 43 X s 2157 1612 m 22 X s 2157 1636 m 22 X s 2157 1654 m 22 X s 2157 1668 m 22 X s 2157 1679 m 22 X s 2157 1688 m 22 X s 2157 1696 m 22 X s 2157 1704 m 22 X s 2136 1710 m 43 X s 1 1 0 c black 1 1 0 c 319
 584 m 655 Y 93 X -70 Y 93 X -69 Y 93 X -65 Y 93 X -63 Y 93 X -64 Y 93 X -60 Y 93 X -69 Y 93 X -55 Y 93 X -20 Y 93 X -30 Y 93 X -64 Y 93 X -26 Y 744 X f black 1 1 0 c black 319 1239 m 93 X -70 Y 93 X -69 Y 93 X -65 Y 93 X -63 Y 93 X -64 Y 93 X -60 Y
 93 X -69 Y 93 X -55 Y 93 X -20 Y 93 X -30 Y 93 X -64 Y 93 X -26 Y 744 X s 0.999 0.999 0.999 c black 0.999 0.999 0.999 c 319 584 m 399 Y 93 X -89 Y 93 X -48 Y 93 X -102 Y 93 X -20 Y 93 X -65 Y 93 X -29 Y 93 X -46 Y 186 X 53 Y 93 X -53 Y 930 X f black
 0.999 0.999 0.999 c black 319 983 m 93 X -89 Y 93 X -48 Y 93 X -102 Y 93 X -20 Y 93 X -65 Y 93 X -29 Y 93 X -46 Y 186 X 53 Y 93 X -53 Y 930 X s 1 1 1 c black 319 983 m 93 X -89 Y 93 X -48 Y 93 X -102 Y 93 X -20 Y 93 X -65 Y 93 X -29 Y 93 X -46 Y 186
 X 53 Y 93 X -53 Y 930 X s 0.4 0.6 1 c black 0.4 0.6 1 c 319 584 m 399 Y 93 X -89 Y 93 X -48 Y 93 X -102 Y 93 X -20 Y 93 X -65 Y 93 X -29 Y 93 X -46 Y 186 X 53 Y 93 X -53 Y 930 X f black 0.4 0.6 1 c black 319 983 m 93 X -89 Y 93 X -48 Y 93 X -102 Y
 93 X -20 Y 93 X -65 Y 93 X -29 Y 93 X -46 Y 186 X 53 Y 93 X -53 Y 930 X s 0.999 0.999 0.999 c black 0.999 0.999 0.999 c 319 584 m 385 Y 93 X -98 Y 93 X -48 Y 93 X -107 Y 93 X -17 Y 93 X -40 Y 93 X -29 Y 93 X -46 Y 186 X 53 Y 93 X -53 Y 930 X f black
 0.999 0.999 0.999 c black 319 969 m 93 X -98 Y 93 X -48 Y 93 X -107 Y 93 X -17 Y 93 X -40 Y 93 X -29 Y 93 X -46 Y 186 X 53 Y 93 X -53 Y 930 X s 1 1 1 c black 319 969 m 93 X -98 Y 93 X -48 Y 93 X -107 Y 93 X -17 Y 93 X -40 Y 93 X -29 Y 93 X -46 Y 186
 X 53 Y 93 X -53 Y 930 X s 0.6 1 0.6 c black 0.6 1 0.6 c 319 584 m 385 Y 93 X -98 Y 93 X -48 Y 93 X -107 Y 93 X -17 Y 93 X -40 Y 93 X -29 Y 93 X -46 Y 186 X 53 Y 93 X -53 Y 930 X f black 0.6 1 0.6 c black 319 969 m 93 X -98 Y 93 X -48 Y 93 X -107 Y
 93 X -17 Y 93 X -40 Y 93 X -29 Y 93 X -46 Y 186 X 53 Y 93 X -53 Y 930 X s 0.999 0.999 0.999 c black 0.999 0.999 0.999 c 319 584 m 198 Y 93 X -91 Y 93 X -71 Y 93 X -36 Y 1581 X f black 0.999 0.999 0.999 c black 319 782 m 93 X -91 Y 93 X -71 Y 93 X
 -36 Y 1581 X s 1 1 1 c black 319 782 m 93 X -91 Y 93 X -71 Y 93 X -36 Y 1581 X s 1 0.4 0.6 c black 1 0.4 0.6 c 319 584 m 198 Y 93 X -91 Y 93 X -71 Y 93 X -36 Y 1581 X f black 1 0.4 0.6 c black 319 782 m 93 X -91 Y 93 X -71 Y 93 X -36 Y 1581 X s 1 0
 0 c 6 lw 1 1 1 c black 1 0 0 c 319 1239 m 93 X -70 Y 93 X -69 Y 93 X -65 Y 93 X -62 Y 93 X -65 Y 93 X -60 Y 93 X -69 Y 93 X -55 Y 93 X -20 Y 93 X -30 Y 93 X -64 Y 93 X -26 Y 744 X s black 3 lw 1 0 0 c 1 lw << /PatternType 1 /PaintType 2 /TilingType
 1 /BBox [ 0 0 100 100 ] /XStep 100 /YStep 100 /PaintProc { begin gsave 0 100 m 100 0 l s gr end } >> [ 0.24 0 0 0.24 0 0 ] makepattern /P05 exch def /cs {[/Pattern /DeviceRGB] setcolorspace} def /FA {f [/DeviceRGB] setcolorspace} def cs 1 0 0 P05
 setcolor 319 584 m 656 Y 93 X -69 Y 93 X -68 Y 93 X -64 Y 93 X -61 Y 93 X -64 Y 93 X -57 Y 93 X -68 Y 93 X -49 Y 93 X -14 Y 93 X -24 Y 93 X -57 Y 93 X -61 Y -93 X 37 Y -93 X 48 Y -93 X 34 Y -93 X 65 Y -93 X 70 Y -93 X 63 Y -93 X 65 Y -93 X 64 Y -93
 X 68 Y -93 X 70 Y -93 X 71 Y -93 X -655 Y FA 6 lw 1 1 1 c 15 lw 924 830 m 6 Y s 924 836 m cl s 924 789 m -19 Y s 924 770 m cl s 1017 844 m 3 Y s 1017 847 m cl s 1017 803 m -14 Y s 1017 789 m cl s black 1 1 1 c 3 lw /w 43 def /w2 {w 2 div} def /w3 {w
 3 div} def 366 1233 459 1159 552 1084 645 1025 738 960 831 882 924 810 1017 823 8 { m20} R 15 lw black 6 lw 1 1 1 c black 3 lw /w 33 def /w2 {w 2 div} def /w3 {w 3 div} def 366 1233 m20 6 lw 3 lw 459 1159 m20 6 lw 3 lw 552 1084 m20 6 lw 3 lw 645
 1025 m20 6 lw 3 lw 738 960 m20 6 lw 831 862 m 6 Y s 831 895 m 2 Y s 3 lw 831 882 m20 6 lw 924 767 m 29 Y s 924 823 m 12 Y s 3 lw 924 810 m20 6 lw 1017 787 m 23 Y s 1017 837 m 9 Y s 3 lw 1017 823 m20 6 lw 831 895 m 2 Y s 831 897 m cl s 831 868 m -6 Y
 s 831 862 m cl s 924 823 m 13 Y s 924 836 m cl s 924 796 m -26 Y s 924 770 m cl s 1017 837 m 10 Y s 1017 847 m cl s 1017 810 m -21 Y s 1017 789 m cl s 3 lw 366 1233 459 1159 552 1084 645 1025 738 960 831 882 924 810 1017 823 8 { m20} R 6 lw 3 lw 319
 584 m 1860 X s 435 584 m cl s 482 584 m cl s 528 584 m cl s 575 584 m cl s 621 584 m cl s 668 584 m cl s 714 584 m cl s 761 584 m cl s 807 584 m cl s 854 584 m cl s 900 584 m cl s 947 584 m cl s 993 584 m cl s 1040 584 m cl s 1087 584 m cl s 1133
 584 m cl s 1180 584 m cl s 1226 584 m cl s 1273 584 m cl s 1319 584 m cl s 1366 584 m cl s 1412 584 m cl s 1459 584 m cl s 1505 584 m cl s 1552 584 m cl s 1598 584 m cl s 1645 584 m cl s 1691 584 m cl s 1738 584 m cl s 1784 584 m cl s 1831 584 m cl
 s 1877 584 m cl s 1924 584 m cl s 1970 584 m cl s 2017 584 m cl s 2063 584 m cl s 435 584 m cl s 389 584 m cl s 342 584 m cl s 2063 584 m cl s 2110 584 m cl s 2156 584 m cl s 319 1729 m 1860 X s 435 1729 m cl s 482 1729 m cl s 528 1729 m cl s 575
 1729 m cl s 621 1729 m cl s 668 1729 m cl s 714 1729 m cl s 761 1729 m cl s 807 1729 m cl s 854 1729 m cl s 900 1729 m cl s 947 1729 m cl s 993 1729 m cl s 1040 1729 m cl s 1087 1729 m cl s 1133 1729 m cl s 1180 1729 m cl s 1226 1729 m cl s 1273
 1729 m cl s 1319 1729 m cl s 1366 1729 m cl s 1412 1729 m cl s 1459 1729 m cl s 1505 1729 m cl s 1552 1729 m cl s 1598 1729 m cl s 1645 1729 m cl s 1691 1729 m cl s 1738 1729 m cl s 1784 1729 m cl s 1831 1729 m cl s 1877 1729 m cl s 1924 1729 m cl s
 1970 1729 m cl s 2017 1729 m cl s 2063 1729 m cl s 435 1729 m cl s 389 1729 m cl s 342 1729 m cl s 2063 1729 m cl s 2110 1729 m cl s 2156 1729 m cl s 319 584 m 1145 Y s 341 627 m -22 X s 341 651 m -22 X s 341 669 m -22 X s 341 683 m -22 X s 341 694
 m -22 X s 341 703 m -22 X s 341 711 m -22 X s 341 719 m -22 X s 363 725 m -44 X s 341 767 m -22 X s 341 792 m -22 X s 341 810 m -22 X s 341 823 m -22 X s 341 835 m -22 X s 341 844 m -22 X s 341 852 m -22 X s 341 859 m -22 X s 363 866 m -44 X s 341
 908 m -22 X s 341 933 m -22 X s 341 950 m -22 X s 341 964 m -22 X s 341 975 m -22 X s 341 985 m -22 X s 341 993 m -22 X s 341 1000 m -22 X s 363 1006 m -44 X s 341 1049 m -22 X s 341 1074 m -22 X s 341 1091 m -22 X s 341 1105 m -22 X s 341 1116 m
 -22 X s 341 1125 m -22 X s 341 1133 m -22 X s 341 1141 m -22 X s 363 1147 m -44 X s 341 1189 m -22 X s 341 1214 m -22 X s 341 1232 m -22 X s 341 1245 m -22 X s 341 1257 m -22 X s 341 1266 m -22 X s 341 1274 m -22 X s 341 1281 m -22 X s 363 1288 m
 -44 X s 341 1330 m -22 X s 341 1355 m -22 X s 341 1373 m -22 X s 341 1386 m -22 X s 341 1397 m -22 X s 341 1407 m -22 X s 341 1415 m -22 X s 341 1422 m -22 X s 363 1429 m -44 X s 341 1471 m -22 X s 341 1496 m -22 X s 341 1513 m -22 X s 341 1527 m
 -22 X s 341 1538 m -22 X s 341 1547 m -22 X s 341 1556 m -22 X s 341 1563 m -22 X s 363 1569 m -44 X s 341 1612 m -22 X s 341 1636 m -22 X s 341 1654 m -22 X s 341 1668 m -22 X s 341 1679 m -22 X s 341 1688 m -22 X s 341 1696 m -22 X s 341 1704 m
 -22 X s 363 1710 m -44 X s 2179 584 m 1145 Y s 2157 627 m 22 X s 2157 651 m 22 X s 2157 669 m 22 X s 2157 683 m 22 X s 2157 694 m 22 X s 2157 703 m 22 X s 2157 711 m 22 X s 2157 719 m 22 X s 2136 725 m 43 X s 2157 767 m 22 X s 2157 792 m 22 X s 2157
 810 m 22 X s 2157 823 m 22 X s 2157 835 m 22 X s 2157 844 m 22 X s 2157 852 m 22 X s 2157 859 m 22 X s 2136 866 m 43 X s 2157 908 m 22 X s 2157 933 m 22 X s 2157 950 m 22 X s 2157 964 m 22 X s 2157 975 m 22 X s 2157 985 m 22 X s 2157 993 m 22 X s
 2157 1000 m 22 X s 2136 1006 m 43 X s 2157 1049 m 22 X s 2157 1074 m 22 X s 2157 1091 m 22 X s 2157 1105 m 22 X s 2157 1116 m 22 X s 2157 1125 m 22 X s 2157 1133 m 22 X s 2157 1141 m 22 X s 2136 1147 m 43 X s 2157 1189 m 22 X s 2157 1214 m 22 X s
 2157 1232 m 22 X s 2157 1245 m 22 X s 2157 1257 m 22 X s 2157 1266 m 22 X s 2157 1274 m 22 X s 2157 1281 m 22 X s 2136 1288 m 43 X s 2157 1330 m 22 X s 2157 1355 m 22 X s 2157 1373 m 22 X s 2157 1386 m 22 X s 2157 1397 m 22 X s 2157 1407 m 22 X s
 2157 1415 m 22 X s 2157 1422 m 22 X s 2136 1429 m 43 X s 2157 1471 m 22 X s 2157 1496 m 22 X s 2157 1513 m 22 X s 2157 1527 m 22 X s 2157 1538 m 22 X s 2157 1547 m 22 X s 2157 1556 m 22 X s 2157 1563 m 22 X s 2136 1569 m 43 X s 2157 1612 m 22 X s
 2157 1636 m 22 X s 2157 1654 m 22 X s 2157 1668 m 22 X s 2157 1679 m 22 X s 2157 1688 m 22 X s 2157 1696 m 22 X s 2157 1704 m 22 X s 2136 1710 m 43 X s
 gsave  2263 1770 2 313 C 406.765 1447.41 t 0 r /Helvetica findfont 64.4212 sf 0 0 m (CRY for MB\255GGd) show NC gr 
 gsave  2263 1770 2 313 C 1464.36 1616.89 t 0 r /Helvetica findfont 64.4212 sf 0 0 m (SM Total) show NC gr  1 1 1 c 1338 1603 m 107 X 74 Y -107 X f 1 0 0 c 6 lw 1338 1640 m 107 X s black
 gsave  2263 1770 2 313 C 1464.36 1511.81 t 0 r /Helvetica findfont 64.4212 sf 0 0 m (Data) show NC gr  1391 1502 m 64 Y s 3 lw 1391 1534 m20 6 lw
 gsave  2263 1770 2 313 C 1464.36 1406.73 t 0 r /Helvetica findfont 64.4212 sf 0 0 m (GAMMAjets) show NC gr  1 1 0 c 3 lw 1338 1391 m 107 X 74 Y -107 X f 6 lw black 3 lw 1338 1465 m 107 X s 1338 1391 m 107 X s 1445 1391 m 74 Y s 1338 1391 m 74 Y s
 gsave  2263 1770 2 313 C 1464.36 1298.26 t 0 r /Helvetica findfont 64.4212 sf 0 0 m (W+jets) show NC gr  0.4 0.6 1 c 1338 1284 m 107 X 75 Y -107 X f black 1338 1359 m 107 X s 1338 1284 m 107 X s 1445 1284 m 75 Y s 1338 1284 m 75 Y s
 gsave  2263 1770 2 313 C 1498.25 1193.18 t 0 r /Helvetica findfont 64.4212 sf 0 0 m (\(+EW\) & single top) show NC gr 
 gsave  2263 1770 2 313 C 1481.3 1193.18 t 0 r /Helvetica findfont 64.4212 sf 0 0 m (t) show NC gr  1481 1244 m 17 X s
 gsave  2263 1770 2 313 C 1464.36 1193.18 t 0 r /Helvetica findfont 64.4212 sf 0 0 m (t) show NC gr  0.6 1 0.6 c 1338 1178 m 107 X 75 Y -107 X f black 1338 1253 m 107 X s 1338 1178 m 107 X s 1445 1178 m 75 Y s 1338 1178 m 75 Y s
 gsave  2263 1770 2 313 C 1464.36 1088.1 t 0 r /Helvetica findfont 64.4212 sf 0 0 m (Diboson) show NC gr  1 0.4 0.6 c 1338 1072 m 107 X 74 Y -107 X f black 1338 1146 m 107 X s 1338 1072 m 107 X s 1445 1072 m 74 Y s 1338 1072 m 74 Y s
 gsave  2263 1770 2 313 C 911.832 1566.05 t 0 r /Helvetica findfont 44.0776 sf 0 0 m (\2551) show NC gr 
 gsave  2263 1770 2 313 C 471.17 1535.54 t 0 r /Helvetica findfont 64.4212 sf 0 0 m (=13TeV, 139 fb) show NC gr 
 gsave  2263 1770 2 313 C 440.662 1535.54 t 0 r /Helvetica findfont 64.4212 sf 0 0 m (s) show NC gr  6 lw 420 1573 m 7 -41 d s 3 lw 427 1532 m 7 61 d s 434 1593 m 37 X s 1 1 1 c 2254 561 2 2 bf black 1 1 1 c black 1860 358 318 187 bl 1 1 1 c black
 1860 358 318 187 bl 6 lw 1 1 1 c black 3 lw 364 351 m20 6 lw 3 lw 457 341 m20 6 lw 3 lw 550 327 m20 6 lw 3 lw 643 341 m20 6 lw 3 lw 736 337 m20 6 lw 3 lw 829 309 m20 6 lw 3 lw 923 290 m20 6 lw 3 lw 1016 537 m20 6 lw 3 lw 318 187 m 1860 X s
 gsave  2254 561 2 2 C 1959.25 44.0662 t 0 r /Helvetica findfont 78.1689 sf 0 0 m ( [GeV]) show NC gr 
 gsave  2254 561 2 2 C 1928.75 -2.35513e-13 t 0 r /Helvetica findfont 50.9797 sf 0 0 m (T) show NC gr 
 gsave  2254 561 2 2 C 1657.57 44.0662 t 0 r /Helvetica findfont 78.1689 sf 0 0 m (1st jet p) show NC gr  434 201 m -14 Y s 481 194 m -7 Y s 527 194 m -7 Y s 574 194 m -7 Y s 620 194 m -7 Y s 667 201 m -14 Y s 713 194 m -7 Y s 760 194 m -7 Y s 806
 194 m -7 Y s 853 194 m -7 Y s 899 201 m -14 Y s 946 194 m -7 Y s 992 194 m -7 Y s 1039 194 m -7 Y s 1085 194 m -7 Y s 1132 201 m -14 Y s 1178 194 m -7 Y s 1225 194 m -7 Y s 1271 194 m -7 Y s 1318 194 m -7 Y s 1364 201 m -14 Y s 1411 194 m -7 Y s
 1457 194 m -7 Y s 1504 194 m -7 Y s 1550 194 m -7 Y s 1597 201 m -14 Y s 1643 194 m -7 Y s 1690 194 m -7 Y s 1737 194 m -7 Y s 1783 194 m -7 Y s 1830 201 m -14 Y s 1876 194 m -7 Y s 1923 194 m -7 Y s 1969 194 m -7 Y s 2016 194 m -7 Y s 2062 201 m
 -14 Y s 434 201 m -14 Y s 388 194 m -7 Y s 341 194 m -7 Y s 2062 201 m -14 Y s 2109 194 m -7 Y s 2155 194 m -7 Y s
 gsave  2254 561 2 2 C 369.478 118.64 t 0 r /Helvetica findfont 78.1689 sf 0 0 m (500) show NC gr 
 gsave  2254 561 2 2 C 576.251 118.64 t 0 r /Helvetica findfont 78.1689 sf 0 0 m (1000) show NC gr 
 gsave  2254 561 2 2 C 810.141 118.64 t 0 r /Helvetica findfont 78.1689 sf 0 0 m (1500) show NC gr 
 gsave  2254 561 2 2 C 1040.64 118.64 t 0 r /Helvetica findfont 78.1689 sf 0 0 m (2000) show NC gr 
 gsave  2254 561 2 2 C 1274.53 118.64 t 0 r /Helvetica findfont 78.1689 sf 0 0 m (2500) show NC gr 
 gsave  2254 561 2 2 C 1508.42 118.64 t 0 r /Helvetica findfont 78.1689 sf 0 0 m (3000) show NC gr 
 gsave  2254 561 2 2 C 1738.92 118.64 t 0 r /Helvetica findfont 78.1689 sf 0 0 m (3500) show NC gr 
 gsave  2254 561 2 2 C 1972.81 118.64 t 0 r /Helvetica findfont 78.1689 sf 0 0 m (4000) show NC gr  318 545 m 1860 X s 434 531 m 14 Y s 481 538 m 7 Y s 527 538 m 7 Y s 574 538 m 7 Y s 620 538 m 7 Y s 667 531 m 14 Y s 713 538 m 7 Y s 760 538 m 7 Y s
 806 538 m 7 Y s 853 538 m 7 Y s 899 531 m 14 Y s 946 538 m 7 Y s 992 538 m 7 Y s 1039 538 m 7 Y s 1085 538 m 7 Y s 1132 531 m 14 Y s 1178 538 m 7 Y s 1225 538 m 7 Y s 1271 538 m 7 Y s 1318 538 m 7 Y s 1364 531 m 14 Y s 1411 538 m 7 Y s 1457 538 m 7
 Y s 1504 538 m 7 Y s 1550 538 m 7 Y s 1597 531 m 14 Y s 1643 538 m 7 Y s 1690 538 m 7 Y s 1737 538 m 7 Y s 1783 538 m 7 Y s 1830 531 m 14 Y s 1876 538 m 7 Y s 1923 538 m 7 Y s 1969 538 m 7 Y s 2016 538 m 7 Y s 2062 531 m 14 Y s 434 531 m 14 Y s 388
 538 m 7 Y s 341 538 m 7 Y s 2062 531 m 14 Y s 2109 538 m 7 Y s 2155 538 m 7 Y s 318 187 m 358 Y s
 gsave  2254 561 2 2 C 166.096 284.736 t 90 r /Helvetica findfont 67.9729 sf 0 0 m (Data/SM) show NC gr  361 203 m -43 X s 339 220 m -21 X s 339 236 m -21 X s 339 252 m -21 X s 339 268 m -21 X s 361 285 m -43 X s 339 301 m -21 X s 339 317 m -21 X s
 339 334 m -21 X s 339 350 m -21 X s 361 366 m -43 X s 339 382 m -21 X s 339 399 m -21 X s 339 415 m -21 X s 339 431 m -21 X s 361 447 m -43 X s 339 464 m -21 X s 339 480 m -21 X s 339 496 m -21 X s 339 512 m -21 X s 361 529 m -43 X s 361 203 m -43 X
 s 339 187 m -21 X s 361 529 m -43 X s
 gsave  2254 561 2 2 C 261.008 183.044 t 0 r /Helvetica findfont 57.777 sf 0 0 m (0) show NC gr 
 gsave  2254 561 2 2 C 213.552 261.008 t 0 r /Helvetica findfont 57.777 sf 0 0 m (0.5) show NC gr 
 gsave  2254 561 2 2 C 271.177 342.361 t 0 r /Helvetica findfont 57.777 sf 0 0 m (1) show NC gr 
 gsave  2254 561 2 2 C 213.552 423.714 t 0 r /Helvetica findfont 57.777 sf 0 0 m (1.5) show NC gr 
 gsave  2254 561 2 2 C 261.008 505.067 t 0 r /Helvetica findfont 57.777 sf 0 0 m (2) show NC gr  2178 187 m 358 Y s 2135 203 m 43 X s 2157 220 m 21 X s 2157 236 m 21 X s 2157 252 m 21 X s 2157 268 m 21 X s 2135 285 m 43 X s 2157 301 m 21 X s 2157 317
 m 21 X s 2157 334 m 21 X s 2157 350 m 21 X s 2135 366 m 43 X s 2157 382 m 21 X s 2157 399 m 21 X s 2157 415 m 21 X s 2157 431 m 21 X s 2135 447 m 43 X s 2157 464 m 21 X s 2157 480 m 21 X s 2157 496 m 21 X s 2157 512 m 21 X s 2135 529 m 43 X s 2135
 203 m 43 X s 2157 187 m 21 X s 2135 529 m 43 X s 9 lw 736 350 m 6 Y s 736 356 m cl s 736 323 m -6 Y s 736 317 m cl s 829 323 m 16 Y s 829 339 m cl s 829 296 m -15 Y s 829 281 m cl s 923 303 m 33 Y s 923 336 m cl s 923 276 m -27 Y s 923 249 m cl s
 1016 523 m -130 Y s 1016 393 m cl s 3 lw 364 351 457 341 550 327 643 341 736 337 829 309 923 290 1016 537 8 { m20} R 9 lw 1 0 0 c 6 lw black 3 lw 1 0 0 c 2155 203 m cl s 2127 203 m cl s 2098 203 m cl s 2069 203 m cl s 2040 203 m cl s 2012 203 m cl s
 1983 203 m cl s 1954 203 m cl s 1926 203 m cl s 1897 203 m cl s 1868 203 m cl s 1840 203 m cl s 1811 203 m cl s 1782 203 m cl s 1754 203 m cl s 1725 203 m cl s 1696 203 m cl s 1667 203 m cl s 1639 203 m cl s 1620 214 m s 1620 242 m s 1620 271 m -13
 -13 d s 1620 299 m -42 -41 d s 1620 328 m -70 -70 d s 1620 356 m -118 -118 d s 1620 385 m -147 -147 d s 1620 414 m -176 -176 d s 1620 442 m -200 -199 d s 1620 471 m -229 -228 d s 1595 475 m -232 -232 d s 1567 475 m -226 -225 d s 1538 475 m -204 -203
 d s 1527 493 m -221 -221 d s 1500 494 m -223 -222 d s 1471 494 m -223 -222 d s 1442 494 m -198 -198 d s 1409 489 m -194 -193 d s 1380 489 m -194 -193 d s 1352 489 m -11 -10 d s 1323 460 m -166 -164 d s 1294 460 m -142 -141 d s 1265 460 m -17 -17 d s
 1241 436 m -118 -117 d s 1213 436 m -118 -117 d s 1184 436 m -118 -117 d s 1155 436 m s 1132 413 m -76 -75 d s 1104 413 m -76 -75 d s 1075 413 m -13 -12 d s 1056 394 m -57 -56 d s 1027 394 m -57 -56 d s 998 394 m -53 -53 d s 970 394 m -1 X s 966 391
 m -50 -50 d s 937 391 m -49 -50 d s 909 391 m -43 -42 d s 880 391 m -4 -4 d s 873 383 m -35 -34 d s 844 383 m -35 -34 d s 815 383 m -33 -33 d s 787 383 m -34 -33 d s 757 382 m -33 -32 d s 728 382 m -33 -32 d s 699 382 m -28 -28 d s 666 378 m -23 -24
 d s 637 378 m -23 -24 d s 609 378 m -19 -19 d s 575 373 m -14 -14 d s 547 373 m -14 -14 d s 518 373 m -14 -14 d s 486 370 m -8 -8 d s 457 370 m -7 -8 d s 318 231 m s 429 370 m -8 -8 d s 318 259 m s 398 368 m -4 -4 d s 318 288 m s 370 368 m -5 -4 d s
 318 317 m s 341 368 m -4 -4 d s 318 345 m s 6 lw black[ 4 8] 0 sd 3 lw 318 447 m 1860 X s 318 285 m 1860 X s 1 0 0 c[  12 12 ] 0 sd 6 lw 318 366 m 1860 X s
 gr  gr showpage
end
%%EOF
