%!PS-Adobe-2.0 EPSF-2.0
%%BoundingBox:  0 0 567 521
%%Title: Distributions/jetPt_0__distrVR0LdPhi_MB-SSd_beforeFit_forThesis.eps: canvas
%%Creator: ROOT Version 6.04/16
%%CreationDate: Tue May 19 22:03:14 2020
%%DocumentNeededResources: ProcSet (FontSetInit)
%%EndComments
%%BeginProlog
80 dict begin
/s {stroke} def /l {lineto} def /m {moveto} def /t {translate} def
/r {rotate} def /rl {roll}  def /R {repeat} def
/d {rlineto} def /rm {rmoveto} def /gr {grestore} def /f {eofill} def
/c {setrgbcolor} def /black {0 setgray} def /sd {setdash} def
/cl {closepath} def /sf {scalefont setfont} def /lw {setlinewidth} def
/box {m dup 0 exch d exch 0 d 0 exch neg d cl} def
/NC{systemdict begin initclip end}def/C{NC box clip newpath}def
/bl {box s} def /bf {gsave box gsave f grestore 1 lw [] 0 sd s grestore} def /Y { 0 exch d} def /X { 0 d} def 
/K {{pop pop 0 moveto} exch kshow} bind def
/ita {/ang 15 def gsave [1 0 ang dup sin exch cos div 1 0 0] concat} def 
/mp {newpath /y exch def /x exch def} def
/side {[w .77 mul w .23 mul] .385 w mul sd w 0 l currentpoint t -144 r} def
/mr {mp x y w2 0 360 arc} def /m24 {mr s} def /m20 {mr f} def
/mb {mp x y w2 add m w2 neg 0 d 0 w neg d w 0 d 0 w d cl} def
/mt {mp x y w2 add m w2 neg w neg d w 0 d cl} def
/m21 {mb f} def /m25 {mb s} def /m22 {mt f} def /m26{mt s} def
/m23 {mp x y w2 sub m w2 w d w neg 0 d cl f} def
/m27 {mp x y w2 add m w3 neg w2 neg d w3 w2 neg d w3 w2 d cl s} def
/m28 {mp x w2 sub y w2 sub w3 add m w3 0 d  0 w3 neg d w3 0 d 0 w3 d w3 0 d  0 w3 d w3 neg 0 d 0 w3 d w3 neg 0 d 0 w3 neg d w3 neg 0 d cl s } def
/m29 {mp gsave x w2 sub y w2 add w3 sub m currentpoint t 4 {side} repeat cl fill gr} def
/m30 {mp gsave x w2 sub y w2 add w3 sub m currentpoint t 4 {side} repeat cl s gr} def
/m31 {mp x y w2 sub m 0 w d x w2 sub y m w 0 d x w2 sub y w2 add m w w neg d x w2 sub y w2 sub m w w d s} def
/m32 {mp x y w2 sub m w2 w d w neg 0 d cl s} def
/m33 {mp x y w2 add m w3 neg w2 neg d w3 w2 neg d w3 w2 d cl f} def
/m34 {mp x w2 sub y w2 sub w3 add m w3 0 d  0 w3 neg d w3 0 d 0 w3 d w3 0 d  0 w3 d w3 neg 0 d 0 w3 d w3 neg 0 d 0 w3 neg d w3 neg 0 d cl f } def
/m2 {mp x y w2 sub m 0 w d x w2 sub y m w 0 d s} def
/m5 {mp x w2 sub y w2 sub m w w d x w2 sub y w2 add m w w neg d s} def
%%IncludeResource: ProcSet (FontSetInit)
%%IncludeResource: font Times-Roman
%%IncludeResource: font Times-Italic
%%IncludeResource: font Times-Bold
%%IncludeResource: font Times-BoldItalic
%%IncludeResource: font Helvetica
%%IncludeResource: font Helvetica-Oblique
%%IncludeResource: font Helvetica-Bold
%%IncludeResource: font Helvetica-BoldOblique
%%IncludeResource: font Courier
%%IncludeResource: font Courier-Oblique
%%IncludeResource: font Courier-Bold
%%IncludeResource: font Courier-BoldOblique
%%IncludeResource: font Symbol
%%IncludeResource: font ZapfDingbats
/reEncode {exch findfont dup length dict begin {1 index /FID eq  {pop pop} {def} ifelse } forall /Encoding exch def currentdict end dup /FontName get exch definefont pop } def [/Times-Bold /Times-Italic /Times-BoldItalic /Helvetica /Helvetica-Oblique
 /Helvetica-Bold /Helvetica-BoldOblique /Courier /Courier-Oblique /Courier-Bold /Courier-BoldOblique /Times-Roman /AvantGarde-Book /AvantGarde-BookOblique /AvantGarde-Demi /AvantGarde-DemiOblique /Bookman-Demi /Bookman-DemiItalic /Bookman-Light
 /Bookman-LightItalic /Helvetica-Narrow /Helvetica-Narrow-Bold /Helvetica-Narrow-BoldOblique /Helvetica-Narrow-Oblique /NewCenturySchlbk-Roman /NewCenturySchlbk-Bold /NewCenturySchlbk-BoldItalic /NewCenturySchlbk-Italic /Palatino-Bold
 /Palatino-BoldItalic /Palatino-Italic /Palatino-Roman ] {ISOLatin1Encoding reEncode } forall
%%EndProlog
%%BeginSetup
%%EndSetup
newpath  gsave  .25 .25 scale  gsave  0 0 t black[  ] 0 sd 3 lw 1 1 1 c 2268 2085 0 0 bf black 1 1 1 c 2263 1770 2 313 bf black 1 1 1 c black 1860 1145 319 584 bl 1 1 1 c black 1860 1145 319 584 bl 6 lw 1 1 1 c black 3 lw /w 33 def /w2 {w 2 div} def
 /w3 {w 3 div} def 366 1123 m20 6 lw 3 lw 459 1191 m20 6 lw 3 lw 552 1162 m20 6 lw 3 lw 645 1070 m20 6 lw 3 lw 738 973 m20 6 lw 831 887 m 8 Y s 831 922 m 3 Y s 3 lw 831 909 m20 6 lw 924 702 m 68 Y s 924 797 m 23 Y s 3 lw 924 784 m20 6 lw 1203 584 m
 140 Y s 1203 751 m 33 Y s 3 lw 1203 738 m20 6 lw 3 lw 319 584 m 1860 X s
 gsave  2263 1770 2 313 C 1949.08 376.258 t 0 r /Helvetica findfont 81.3741 sf 0 0 m ( [GeV]) show NC gr 
 gsave  2263 1770 2 313 C 1915.19 332.192 t 0 r /Helvetica findfont 54.2494 sf 0 0 m (T) show NC gr 
 gsave  2263 1770 2 313 C 1630.45 376.258 t 0 r /Helvetica findfont 81.3741 sf 0 0 m (1st jet p) show NC gr  435 584 m cl s 482 584 m cl s 528 584 m cl s 575 584 m cl s 621 584 m cl s 668 584 m cl s 714 584 m cl s 761 584 m cl s 807 584 m cl s 854
 584 m cl s 900 584 m cl s 947 584 m cl s 993 584 m cl s 1040 584 m cl s 1087 584 m cl s 1133 584 m cl s 1180 584 m cl s 1226 584 m cl s 1273 584 m cl s 1319 584 m cl s 1366 584 m cl s 1412 584 m cl s 1459 584 m cl s 1505 584 m cl s 1552 584 m cl s
 1598 584 m cl s 1645 584 m cl s 1691 584 m cl s 1738 584 m cl s 1784 584 m cl s 1831 584 m cl s 1877 584 m cl s 1924 584 m cl s 1970 584 m cl s 2017 584 m cl s 2063 584 m cl s 435 584 m cl s 389 584 m cl s 342 584 m cl s 2063 584 m cl s 2110 584 m
 cl s 2156 584 m cl s 319 1729 m 1860 X s 435 1729 m cl s 482 1729 m cl s 528 1729 m cl s 575 1729 m cl s 621 1729 m cl s 668 1729 m cl s 714 1729 m cl s 761 1729 m cl s 807 1729 m cl s 854 1729 m cl s 900 1729 m cl s 947 1729 m cl s 993 1729 m cl s
 1040 1729 m cl s 1087 1729 m cl s 1133 1729 m cl s 1180 1729 m cl s 1226 1729 m cl s 1273 1729 m cl s 1319 1729 m cl s 1366 1729 m cl s 1412 1729 m cl s 1459 1729 m cl s 1505 1729 m cl s 1552 1729 m cl s 1598 1729 m cl s 1645 1729 m cl s 1691 1729 m
 cl s 1738 1729 m cl s 1784 1729 m cl s 1831 1729 m cl s 1877 1729 m cl s 1924 1729 m cl s 1970 1729 m cl s 2017 1729 m cl s 2063 1729 m cl s 435 1729 m cl s 389 1729 m cl s 342 1729 m cl s 2063 1729 m cl s 2110 1729 m cl s 2156 1729 m cl s 319 584 m
 1145 Y s
 gsave  2263 1770 2 313 C 166.096 1091.49 t 90 r /Helvetica findfont 81.3741 sf 0 0 m (Events / 200 GeV) show NC gr  341 630 m -22 X s 341 658 m -22 X s 341 677 m -22 X s 341 692 m -22 X s 341 704 m -22 X s 341 714 m -22 X s 341 723 m -22 X s 341 731
 m -22 X s 363 738 m -44 X s
 gsave  2263 1770 2 313 C 300.555 710.622 t 0 r  -36 0 t /Helvetica findfont 64.4212 sf 0 0 m (1) show NC gr  341 784 m -22 X s 341 811 m -22 X s 341 830 m -22 X s 341 845 m -22 X s 341 857 m -22 X s 341 867 m -22 X s 341 876 m -22 X s 341 884 m -22
 X s 363 891 m -44 X s
 gsave  2263 1770 2 313 C 300.555 864.053 t 0 r  -73 0 t /Helvetica findfont 64.4212 sf 0 0 m (10) show NC gr  341 937 m -22 X s 341 964 m -22 X s 341 984 m -22 X s 341 998 m -22 X s 341 1011 m -22 X s 341 1021 m -22 X s 341 1030 m -22 X s 341 1038 m
 -22 X s 363 1045 m -44 X s
 gsave  2263 1770 2 313 C 274.567 1044.03 t 0 r /Helvetica findfont 44.0776 sf 0 0 m (2) show NC gr 
 gsave  2263 1770 2 313 C 203.383 1016.91 t 0 r /Helvetica findfont 64.4212 sf 0 0 m (10) show NC gr  341 1091 m -22 X s 341 1118 m -22 X s 341 1137 m -22 X s 341 1152 m -22 X s 341 1164 m -22 X s 341 1174 m -22 X s 341 1183 m -22 X s 341 1191 m -22
 X s 363 1198 m -44 X s
 gsave  2263 1770 2 313 C 274.567 1199.96 t 0 r /Helvetica findfont 44.0776 sf 0 0 m (3) show NC gr 
 gsave  2263 1770 2 313 C 203.383 1169.45 t 0 r /Helvetica findfont 64.4212 sf 0 0 m (10) show NC gr  341 1244 m -22 X s 341 1271 m -22 X s 341 1290 m -22 X s 341 1305 m -22 X s 341 1317 m -22 X s 341 1328 m -22 X s 341 1337 m -22 X s 341 1344 m -22
 X s 363 1351 m -44 X s
 gsave  2263 1770 2 313 C 274.567 1349.1 t 0 r /Helvetica findfont 44.0776 sf 0 0 m (4) show NC gr 
 gsave  2263 1770 2 313 C 203.383 1321.99 t 0 r /Helvetica findfont 64.4212 sf 0 0 m (10) show NC gr  341 1398 m -22 X s 341 1425 m -22 X s 341 1444 m -22 X s 341 1459 m -22 X s 341 1471 m -22 X s 341 1481 m -22 X s 341 1490 m -22 X s 341 1498 m -22
 X s 363 1505 m -44 X s
 gsave  2263 1770 2 313 C 274.567 1505.03 t 0 r /Helvetica findfont 44.0776 sf 0 0 m (5) show NC gr 
 gsave  2263 1770 2 313 C 203.383 1474.52 t 0 r /Helvetica findfont 64.4212 sf 0 0 m (10) show NC gr  341 1551 m -22 X s 341 1578 m -22 X s 341 1597 m -22 X s 341 1612 m -22 X s 341 1624 m -22 X s 341 1635 m -22 X s 341 1643 m -22 X s 341 1651 m -22
 X s 363 1658 m -44 X s
 gsave  2263 1770 2 313 C 274.567 1660.96 t 0 r /Helvetica findfont 44.0776 sf 0 0 m (6) show NC gr 
 gsave  2263 1770 2 313 C 203.383 1630.45 t 0 r /Helvetica findfont 64.4212 sf 0 0 m (10) show NC gr  341 1705 m -22 X s 2179 584 m 1145 Y s 2157 630 m 22 X s 2157 658 m 22 X s 2157 677 m 22 X s 2157 692 m 22 X s 2157 704 m 22 X s 2157 714 m 22 X s
 2157 723 m 22 X s 2157 731 m 22 X s 2136 738 m 43 X s 2157 784 m 22 X s 2157 811 m 22 X s 2157 830 m 22 X s 2157 845 m 22 X s 2157 857 m 22 X s 2157 867 m 22 X s 2157 876 m 22 X s 2157 884 m 22 X s 2136 891 m 43 X s 2157 937 m 22 X s 2157 964 m 22 X
 s 2157 984 m 22 X s 2157 998 m 22 X s 2157 1011 m 22 X s 2157 1021 m 22 X s 2157 1030 m 22 X s 2157 1038 m 22 X s 2136 1045 m 43 X s 2157 1091 m 22 X s 2157 1118 m 22 X s 2157 1137 m 22 X s 2157 1152 m 22 X s 2157 1164 m 22 X s 2157 1174 m 22 X s
 2157 1183 m 22 X s 2157 1191 m 22 X s 2136 1198 m 43 X s 2157 1244 m 22 X s 2157 1271 m 22 X s 2157 1290 m 22 X s 2157 1305 m 22 X s 2157 1317 m 22 X s 2157 1328 m 22 X s 2157 1337 m 22 X s 2157 1344 m 22 X s 2136 1351 m 43 X s 2157 1398 m 22 X s
 2157 1425 m 22 X s 2157 1444 m 22 X s 2157 1459 m 22 X s 2157 1471 m 22 X s 2157 1481 m 22 X s 2157 1490 m 22 X s 2157 1498 m 22 X s 2136 1505 m 43 X s 2157 1551 m 22 X s 2157 1578 m 22 X s 2157 1597 m 22 X s 2157 1612 m 22 X s 2157 1624 m 22 X s
 2157 1635 m 22 X s 2157 1643 m 22 X s 2157 1651 m 22 X s 2136 1658 m 43 X s 2157 1705 m 22 X s 0.4 0.6 1 c black 0.4 0.6 1 c 319 584 m 543 Y 93 X 68 Y 93 X -34 Y 93 X -89 Y 93 X -92 Y 93 X -98 Y 93 X -55 Y 93 X -43 Y 93 X -96 Y 93 X -27 Y 93 X -77 Y
 930 X f black 0.4 0.6 1 c black 319 1127 m 93 X 68 Y 93 X -34 Y 93 X -89 Y 93 X -92 Y 93 X -98 Y 93 X -55 Y 93 X -43 Y 93 X -96 Y 93 X -27 Y 93 X -77 Y 930 X s 0.999 0.999 0.999 c black 0.999 0.999 0.999 c 319 584 m 519 Y 93 X 67 Y 93 X -36 Y 93 X
 -87 Y 93 X -92 Y 93 X -104 Y 93 X -45 Y 93 X -45 Y 93 X -86 Y 93 X -24 Y 93 X -67 Y 930 X f black 0.999 0.999 0.999 c black 319 1103 m 93 X 67 Y 93 X -36 Y 93 X -87 Y 93 X -92 Y 93 X -104 Y 93 X -45 Y 93 X -45 Y 93 X -86 Y 93 X -24 Y 93 X -67 Y 930
 X s 1 1 1 c black 319 1103 m 93 X 67 Y 93 X -36 Y 93 X -87 Y 93 X -92 Y 93 X -104 Y 93 X -45 Y 93 X -45 Y 93 X -86 Y 93 X -24 Y 93 X -67 Y 930 X s 0.6 1 0.6 c black 0.6 1 0.6 c 319 584 m 519 Y 93 X 67 Y 93 X -36 Y 93 X -87 Y 93 X -92 Y 93 X -104 Y
 93 X -45 Y 93 X -45 Y 93 X -86 Y 93 X -24 Y 93 X -67 Y 930 X f black 0.6 1 0.6 c black 319 1103 m 93 X 67 Y 93 X -36 Y 93 X -87 Y 93 X -92 Y 93 X -104 Y 93 X -45 Y 93 X -45 Y 93 X -86 Y 93 X -24 Y 93 X -67 Y 930 X s 0.999 0.999 0.999 c black 0.999
 0.999 0.999 c 319 584 m 494 Y 93 X 80 Y 93 X -32 Y 93 X -86 Y 93 X -89 Y 93 X -103 Y 93 X -45 Y 93 X -43 Y 93 X -85 Y 93 X -24 Y 93 X -67 Y 930 X f black 0.999 0.999 0.999 c black 319 1078 m 93 X 80 Y 93 X -32 Y 93 X -86 Y 93 X -89 Y 93 X -103 Y 93
 X -45 Y 93 X -43 Y 93 X -85 Y 93 X -24 Y 93 X -67 Y 930 X s 1 1 1 c black 319 1078 m 93 X 80 Y 93 X -32 Y 93 X -86 Y 93 X -89 Y 93 X -103 Y 93 X -45 Y 93 X -43 Y 93 X -85 Y 93 X -24 Y 93 X -67 Y 930 X s 1 0.8 0.4 c black 1 0.8 0.4 c 319 584 m 494 Y
 93 X 80 Y 93 X -32 Y 93 X -86 Y 93 X -89 Y 93 X -103 Y 93 X -45 Y 93 X -43 Y 93 X -85 Y 93 X -24 Y 93 X -67 Y 930 X f black 1 0.8 0.4 c black 319 1078 m 93 X 80 Y 93 X -32 Y 93 X -86 Y 93 X -89 Y 93 X -103 Y 93 X -45 Y 93 X -43 Y 93 X -85 Y 93 X -24
 Y 93 X -67 Y 930 X s 0.999 0.999 0.999 c black 0.999 0.999 0.999 c 319 584 m 336 Y 93 X 86 Y 93 X -47 Y 93 X -84 Y 93 X -73 Y 93 X -138 Y 93 X -60 Y 93 X -20 Y 1209 X f black 0.999 0.999 0.999 c black 319 920 m 93 X 86 Y 93 X -47 Y 93 X -84 Y 93 X
 -73 Y 93 X -138 Y 93 X -60 Y 93 X -20 Y 1209 X s 1 1 1 c black 319 920 m 93 X 86 Y 93 X -47 Y 93 X -84 Y 93 X -73 Y 93 X -138 Y 93 X -60 Y 93 X -20 Y 1209 X s 1 0.4 0.6 c black 1 0.4 0.6 c 319 584 m 336 Y 93 X 86 Y 93 X -47 Y 93 X -84 Y 93 X -73 Y
 93 X -138 Y 93 X -60 Y 93 X -20 Y 1209 X f black 1 0.4 0.6 c black 319 920 m 93 X 86 Y 93 X -47 Y 93 X -84 Y 93 X -73 Y 93 X -138 Y 93 X -60 Y 93 X -20 Y 1209 X s 0.999 0.999 0.999 c black 0.999 0.999 0.999 c 319 584 m 158 Y 93 X 173 Y 93 X -114 Y
 93 X -105 Y 93 X -112 Y 1488 X f black 0.999 0.999 0.999 c black 319 742 m 93 X 173 Y 93 X -114 Y 93 X -105 Y 93 X -112 Y 1488 X s 1 1 1 c black 319 742 m 93 X 173 Y 93 X -114 Y 93 X -105 Y 93 X -112 Y 1488 X s 0 0 0.4 c black 0 0 0.4 c 319 584 m
 158 Y 93 X 173 Y 93 X -114 Y 93 X -105 Y 93 X -112 Y 1488 X f black 0 0 0.4 c black 319 742 m 93 X 173 Y 93 X -114 Y 93 X -105 Y 93 X -112 Y 1488 X s 1 0 0 c 6 lw 1 1 1 c black 1 0 0 c 319 1127 m 93 X 68 Y 93 X -34 Y 93 X -89 Y 93 X -92 Y 93 X -98 Y
 93 X -55 Y 93 X -43 Y 93 X -96 Y 93 X -27 Y 93 X -77 Y 930 X s black 3 lw 1 0 0 c 1 lw << /PatternType 1 /PaintType 2 /TilingType 1 /BBox [ 0 0 100 100 ] /XStep 100 /YStep 100 /PaintProc { begin gsave 0 100 m 100 0 l s gr end } >> [ 0.24 0 0 0.24 0
 0 ] makepattern /P05 exch def /cs {[/Pattern /DeviceRGB] setcolorspace} def /FA {f [/DeviceRGB] setcolorspace} def cs 1 0 0 P05 setcolor 319 584 m 548 Y 93 X 67 Y 93 X -35 Y 93 X -88 Y 93 X -91 Y 93 X -97 Y 93 X -50 Y 93 X -36 Y 93 X -85 Y 93 X -26
 Y 93 X -107 Y 23 Y -93 X 30 Y -93 X 122 Y -93 X 55 Y -93 X 60 Y -93 X 101 Y -93 X 93 Y -93 X 89 Y -93 X 34 Y -93 X -70 Y -93 X -537 Y FA 6 lw 1 1 1 c 15 lw 831 888 m -1 Y s 831 887 m cl s 924 804 m 20 Y s 924 824 m cl s 924 764 m -49 Y s 924 715 m
 cl s 1203 758 m 35 Y s 1203 793 m cl s 1203 717 m -96 Y s 1203 621 m cl s black 1 1 1 c 3 lw /w 43 def /w2 {w 2 div} def /w3 {w 3 div} def 366 1123 459 1191 552 1162 645 1070 738 973 831 909 924 784 7 { m20} R 15 lw 3 lw 1203 738 m20 15 lw black 6
 lw 1 1 1 c black 3 lw /w 33 def /w2 {w 2 div} def /w3 {w 3 div} def 366 1123 m20 6 lw 3 lw 459 1191 m20 6 lw 3 lw 552 1162 m20 6 lw 3 lw 645 1070 m20 6 lw 3 lw 738 973 m20 6 lw 831 887 m 8 Y s 831 922 m 3 Y s 3 lw 831 909 m20 6 lw 924 702 m 68 Y s
 924 797 m 23 Y s 3 lw 924 784 m20 6 lw 1203 584 m 140 Y s 1203 751 m 33 Y s 3 lw 1203 738 m20 6 lw 831 922 m 3 Y s 831 925 m cl s 831 895 m -8 Y s 831 887 m cl s 924 797 m 27 Y s 924 824 m cl s 924 770 m -55 Y s 924 715 m cl s 1203 751 m 42 Y s 1203
 793 m cl s 1203 724 m -103 Y s 1203 621 m cl s 3 lw 366 1123 459 1191 552 1162 645 1070 738 973 831 909 924 784 7 { m20} R 6 lw 3 lw 1203 738 m20 6 lw 3 lw 319 584 m 1860 X s 435 584 m cl s 482 584 m cl s 528 584 m cl s 575 584 m cl s 621 584 m cl s
 668 584 m cl s 714 584 m cl s 761 584 m cl s 807 584 m cl s 854 584 m cl s 900 584 m cl s 947 584 m cl s 993 584 m cl s 1040 584 m cl s 1087 584 m cl s 1133 584 m cl s 1180 584 m cl s 1226 584 m cl s 1273 584 m cl s 1319 584 m cl s 1366 584 m cl s
 1412 584 m cl s 1459 584 m cl s 1505 584 m cl s 1552 584 m cl s 1598 584 m cl s 1645 584 m cl s 1691 584 m cl s 1738 584 m cl s 1784 584 m cl s 1831 584 m cl s 1877 584 m cl s 1924 584 m cl s 1970 584 m cl s 2017 584 m cl s 2063 584 m cl s 435 584 m
 cl s 389 584 m cl s 342 584 m cl s 2063 584 m cl s 2110 584 m cl s 2156 584 m cl s 319 1729 m 1860 X s 435 1729 m cl s 482 1729 m cl s 528 1729 m cl s 575 1729 m cl s 621 1729 m cl s 668 1729 m cl s 714 1729 m cl s 761 1729 m cl s 807 1729 m cl s
 854 1729 m cl s 900 1729 m cl s 947 1729 m cl s 993 1729 m cl s 1040 1729 m cl s 1087 1729 m cl s 1133 1729 m cl s 1180 1729 m cl s 1226 1729 m cl s 1273 1729 m cl s 1319 1729 m cl s 1366 1729 m cl s 1412 1729 m cl s 1459 1729 m cl s 1505 1729 m cl
 s 1552 1729 m cl s 1598 1729 m cl s 1645 1729 m cl s 1691 1729 m cl s 1738 1729 m cl s 1784 1729 m cl s 1831 1729 m cl s 1877 1729 m cl s 1924 1729 m cl s 1970 1729 m cl s 2017 1729 m cl s 2063 1729 m cl s 435 1729 m cl s 389 1729 m cl s 342 1729 m
 cl s 2063 1729 m cl s 2110 1729 m cl s 2156 1729 m cl s 319 584 m 1145 Y s 341 630 m -22 X s 341 658 m -22 X s 341 677 m -22 X s 341 692 m -22 X s 341 704 m -22 X s 341 714 m -22 X s 341 723 m -22 X s 341 731 m -22 X s 363 738 m -44 X s 341 784 m
 -22 X s 341 811 m -22 X s 341 830 m -22 X s 341 845 m -22 X s 341 857 m -22 X s 341 867 m -22 X s 341 876 m -22 X s 341 884 m -22 X s 363 891 m -44 X s 341 937 m -22 X s 341 964 m -22 X s 341 984 m -22 X s 341 998 m -22 X s 341 1011 m -22 X s 341
 1021 m -22 X s 341 1030 m -22 X s 341 1038 m -22 X s 363 1045 m -44 X s 341 1091 m -22 X s 341 1118 m -22 X s 341 1137 m -22 X s 341 1152 m -22 X s 341 1164 m -22 X s 341 1174 m -22 X s 341 1183 m -22 X s 341 1191 m -22 X s 363 1198 m -44 X s 341
 1244 m -22 X s 341 1271 m -22 X s 341 1290 m -22 X s 341 1305 m -22 X s 341 1317 m -22 X s 341 1328 m -22 X s 341 1337 m -22 X s 341 1344 m -22 X s 363 1351 m -44 X s 341 1398 m -22 X s 341 1425 m -22 X s 341 1444 m -22 X s 341 1459 m -22 X s 341
 1471 m -22 X s 341 1481 m -22 X s 341 1490 m -22 X s 341 1498 m -22 X s 363 1505 m -44 X s 341 1551 m -22 X s 341 1578 m -22 X s 341 1597 m -22 X s 341 1612 m -22 X s 341 1624 m -22 X s 341 1635 m -22 X s 341 1643 m -22 X s 341 1651 m -22 X s 363
 1658 m -44 X s 341 1705 m -22 X s 2179 584 m 1145 Y s 2157 630 m 22 X s 2157 658 m 22 X s 2157 677 m 22 X s 2157 692 m 22 X s 2157 704 m 22 X s 2157 714 m 22 X s 2157 723 m 22 X s 2157 731 m 22 X s 2136 738 m 43 X s 2157 784 m 22 X s 2157 811 m 22 X
 s 2157 830 m 22 X s 2157 845 m 22 X s 2157 857 m 22 X s 2157 867 m 22 X s 2157 876 m 22 X s 2157 884 m 22 X s 2136 891 m 43 X s 2157 937 m 22 X s 2157 964 m 22 X s 2157 984 m 22 X s 2157 998 m 22 X s 2157 1011 m 22 X s 2157 1021 m 22 X s 2157 1030 m
 22 X s 2157 1038 m 22 X s 2136 1045 m 43 X s 2157 1091 m 22 X s 2157 1118 m 22 X s 2157 1137 m 22 X s 2157 1152 m 22 X s 2157 1164 m 22 X s 2157 1174 m 22 X s 2157 1183 m 22 X s 2157 1191 m 22 X s 2136 1198 m 43 X s 2157 1244 m 22 X s 2157 1271 m 22
 X s 2157 1290 m 22 X s 2157 1305 m 22 X s 2157 1317 m 22 X s 2157 1328 m 22 X s 2157 1337 m 22 X s 2157 1344 m 22 X s 2136 1351 m 43 X s 2157 1398 m 22 X s 2157 1425 m 22 X s 2157 1444 m 22 X s 2157 1459 m 22 X s 2157 1471 m 22 X s 2157 1481 m 22 X
 s 2157 1490 m 22 X s 2157 1498 m 22 X s 2136 1505 m 43 X s 2157 1551 m 22 X s 2157 1578 m 22 X s 2157 1597 m 22 X s 2157 1612 m 22 X s 2157 1624 m 22 X s 2157 1635 m 22 X s 2157 1643 m 22 X s 2157 1651 m 22 X s 2136 1658 m 43 X s 2157 1705 m 22 X s
 gsave  2263 1770 2 313 C 406.765 1447.41 t 0 r /Helvetica findfont 64.4212 sf 0 0 m (VR0LdPhi for MB\255SSd) show NC gr 
 gsave  2263 1770 2 313 C 1464.36 1630.45 t 0 r /Helvetica findfont 64.4212 sf 0 0 m (SM Total) show NC gr  1 1 1 c 1338 1616 m 107 X 64 Y -107 X f 1 0 0 c 6 lw 1338 1648 m 107 X s black
 gsave  2263 1770 2 313 C 1464.36 1538.93 t 0 r /Helvetica findfont 64.4212 sf 0 0 m (Data) show NC gr  1391 1529 m 55 Y s 3 lw 1391 1557 m20 6 lw
 gsave  2263 1770 2 313 C 1464.36 1447.41 t 0 r /Helvetica findfont 64.4212 sf 0 0 m (W+jets) show NC gr  0.4 0.6 1 c 3 lw 1338 1434 m 107 X 64 Y -107 X f 6 lw black 3 lw 1338 1498 m 107 X s 1338 1434 m 107 X s 1445 1434 m 64 Y s 1338 1434 m 64 Y s
 gsave  2263 1770 2 313 C 1498.25 1355.88 t 0 r /Helvetica findfont 64.4212 sf 0 0 m (\(+EW\) & single top) show NC gr 
 gsave  2263 1770 2 313 C 1481.3 1355.88 t 0 r /Helvetica findfont 64.4212 sf 0 0 m (t) show NC gr  1481 1407 m 17 X s
 gsave  2263 1770 2 313 C 1464.36 1355.88 t 0 r /Helvetica findfont 64.4212 sf 0 0 m (t) show NC gr  0.6 1 0.6 c 1338 1343 m 107 X 63 Y -107 X f black 1338 1406 m 107 X s 1338 1343 m 107 X s 1445 1343 m 63 Y s 1338 1343 m 63 Y s
 gsave  2263 1770 2 313 C 1464.36 1264.36 t 0 r /Helvetica findfont 64.4212 sf 0 0 m (Z+jets) show NC gr  1 0.8 0.4 c 1338 1252 m 107 X 63 Y -107 X f black 1338 1315 m 107 X s 1338 1252 m 107 X s 1445 1252 m 63 Y s 1338 1252 m 63 Y s
 gsave  2263 1770 2 313 C 1464.36 1172.84 t 0 r /Helvetica findfont 64.4212 sf 0 0 m (Diboson) show NC gr  1 0.4 0.6 c 1338 1161 m 107 X 63 Y -107 X f black 1338 1224 m 107 X s 1338 1161 m 107 X s 1445 1161 m 63 Y s 1338 1161 m 63 Y s
 gsave  2263 1770 2 313 C 1464.36 1081.32 t 0 r /Helvetica findfont 64.4212 sf 0 0 m (Multi\255jet) show NC gr  0 0 0.4 c 1338 1070 m 107 X 63 Y -107 X f black 1338 1133 m 107 X s 1338 1070 m 107 X s 1445 1070 m 63 Y s 1338 1070 m 63 Y s
 gsave  2263 1770 2 313 C 911.832 1566.05 t 0 r /Helvetica findfont 44.0776 sf 0 0 m (\2551) show NC gr 
 gsave  2263 1770 2 313 C 471.17 1535.54 t 0 r /Helvetica findfont 64.4212 sf 0 0 m (=13TeV, 139 fb) show NC gr 
 gsave  2263 1770 2 313 C 440.662 1535.54 t 0 r /Helvetica findfont 64.4212 sf 0 0 m (s) show NC gr  6 lw 420 1573 m 7 -41 d s 3 lw 427 1532 m 7 61 d s 434 1593 m 37 X s 1 1 1 c 2254 561 2 2 bf black 1 1 1 c black 1860 358 318 187 bl 1 1 1 c black
 1860 358 318 187 bl 6 lw 1 1 1 c black 3 lw 364 357 m20 6 lw 3 lw 457 355 m20 6 lw 3 lw 550 369 m20 6 lw 3 lw 643 361 m20 6 lw 3 lw 736 349 m20 6 lw 3 lw 829 447 m20 6 lw 3 lw 923 289 m20 6 lw 3 lw 318 187 m 1860 X s
 gsave  2254 561 2 2 C 1959.25 44.0662 t 0 r /Helvetica findfont 78.1689 sf 0 0 m ( [GeV]) show NC gr 
 gsave  2254 561 2 2 C 1928.75 -2.35513e-13 t 0 r /Helvetica findfont 50.9797 sf 0 0 m (T) show NC gr 
 gsave  2254 561 2 2 C 1657.57 44.0662 t 0 r /Helvetica findfont 78.1689 sf 0 0 m (1st jet p) show NC gr  434 201 m -14 Y s 481 194 m -7 Y s 527 194 m -7 Y s 574 194 m -7 Y s 620 194 m -7 Y s 667 201 m -14 Y s 713 194 m -7 Y s 760 194 m -7 Y s 806
 194 m -7 Y s 853 194 m -7 Y s 899 201 m -14 Y s 946 194 m -7 Y s 992 194 m -7 Y s 1039 194 m -7 Y s 1085 194 m -7 Y s 1132 201 m -14 Y s 1178 194 m -7 Y s 1225 194 m -7 Y s 1271 194 m -7 Y s 1318 194 m -7 Y s 1364 201 m -14 Y s 1411 194 m -7 Y s
 1457 194 m -7 Y s 1504 194 m -7 Y s 1550 194 m -7 Y s 1597 201 m -14 Y s 1643 194 m -7 Y s 1690 194 m -7 Y s 1737 194 m -7 Y s 1783 194 m -7 Y s 1830 201 m -14 Y s 1876 194 m -7 Y s 1923 194 m -7 Y s 1969 194 m -7 Y s 2016 194 m -7 Y s 2062 201 m
 -14 Y s 434 201 m -14 Y s 388 194 m -7 Y s 341 194 m -7 Y s 2062 201 m -14 Y s 2109 194 m -7 Y s 2155 194 m -7 Y s
 gsave  2254 561 2 2 C 369.478 118.64 t 0 r /Helvetica findfont 78.1689 sf 0 0 m (500) show NC gr 
 gsave  2254 561 2 2 C 576.251 118.64 t 0 r /Helvetica findfont 78.1689 sf 0 0 m (1000) show NC gr 
 gsave  2254 561 2 2 C 810.141 118.64 t 0 r /Helvetica findfont 78.1689 sf 0 0 m (1500) show NC gr 
 gsave  2254 561 2 2 C 1040.64 118.64 t 0 r /Helvetica findfont 78.1689 sf 0 0 m (2000) show NC gr 
 gsave  2254 561 2 2 C 1274.53 118.64 t 0 r /Helvetica findfont 78.1689 sf 0 0 m (2500) show NC gr 
 gsave  2254 561 2 2 C 1508.42 118.64 t 0 r /Helvetica findfont 78.1689 sf 0 0 m (3000) show NC gr 
 gsave  2254 561 2 2 C 1738.92 118.64 t 0 r /Helvetica findfont 78.1689 sf 0 0 m (3500) show NC gr 
 gsave  2254 561 2 2 C 1972.81 118.64 t 0 r /Helvetica findfont 78.1689 sf 0 0 m (4000) show NC gr  318 545 m 1860 X s 434 531 m 14 Y s 481 538 m 7 Y s 527 538 m 7 Y s 574 538 m 7 Y s 620 538 m 7 Y s 667 531 m 14 Y s 713 538 m 7 Y s 760 538 m 7 Y s
 806 538 m 7 Y s 853 538 m 7 Y s 899 531 m 14 Y s 946 538 m 7 Y s 992 538 m 7 Y s 1039 538 m 7 Y s 1085 538 m 7 Y s 1132 531 m 14 Y s 1178 538 m 7 Y s 1225 538 m 7 Y s 1271 538 m 7 Y s 1318 538 m 7 Y s 1364 531 m 14 Y s 1411 538 m 7 Y s 1457 538 m 7
 Y s 1504 538 m 7 Y s 1550 538 m 7 Y s 1597 531 m 14 Y s 1643 538 m 7 Y s 1690 538 m 7 Y s 1737 538 m 7 Y s 1783 538 m 7 Y s 1830 531 m 14 Y s 1876 538 m 7 Y s 1923 538 m 7 Y s 1969 538 m 7 Y s 2016 538 m 7 Y s 2062 531 m 14 Y s 434 531 m 14 Y s 388
 538 m 7 Y s 341 538 m 7 Y s 2062 531 m 14 Y s 2109 538 m 7 Y s 2155 538 m 7 Y s 318 187 m 358 Y s
 gsave  2254 561 2 2 C 166.096 284.736 t 90 r /Helvetica findfont 67.9729 sf 0 0 m (Data/SM) show NC gr  361 203 m -43 X s 339 220 m -21 X s 339 236 m -21 X s 339 252 m -21 X s 339 268 m -21 X s 361 285 m -43 X s 339 301 m -21 X s 339 317 m -21 X s
 339 334 m -21 X s 339 350 m -21 X s 361 366 m -43 X s 339 382 m -21 X s 339 399 m -21 X s 339 415 m -21 X s 339 431 m -21 X s 361 447 m -43 X s 339 464 m -21 X s 339 480 m -21 X s 339 496 m -21 X s 339 512 m -21 X s 361 529 m -43 X s 361 203 m -43 X
 s 339 187 m -21 X s 361 529 m -43 X s
 gsave  2254 561 2 2 C 261.008 183.044 t 0 r /Helvetica findfont 57.777 sf 0 0 m (0) show NC gr 
 gsave  2254 561 2 2 C 213.552 261.008 t 0 r /Helvetica findfont 57.777 sf 0 0 m (0.5) show NC gr 
 gsave  2254 561 2 2 C 271.177 342.361 t 0 r /Helvetica findfont 57.777 sf 0 0 m (1) show NC gr 
 gsave  2254 561 2 2 C 213.552 423.714 t 0 r /Helvetica findfont 57.777 sf 0 0 m (1.5) show NC gr 
 gsave  2254 561 2 2 C 261.008 505.067 t 0 r /Helvetica findfont 57.777 sf 0 0 m (2) show NC gr  2178 187 m 358 Y s 2135 203 m 43 X s 2157 220 m 21 X s 2157 236 m 21 X s 2157 252 m 21 X s 2157 268 m 21 X s 2135 285 m 43 X s 2157 301 m 21 X s 2157 317
 m 21 X s 2157 334 m 21 X s 2157 350 m 21 X s 2135 366 m 43 X s 2157 382 m 21 X s 2157 399 m 21 X s 2157 415 m 21 X s 2157 431 m 21 X s 2135 447 m 43 X s 2157 464 m 21 X s 2157 480 m 21 X s 2157 496 m 21 X s 2157 512 m 21 X s 2135 529 m 43 X s 2135
 203 m 43 X s 2157 187 m 21 X s 2135 529 m 43 X s 9 lw 736 363 m 11 Y s 736 374 m cl s 736 335 m -11 Y s 736 324 m cl s 829 461 m 55 Y s 829 516 m cl s 829 434 m -53 Y s 829 381 m cl s 923 302 m 56 Y s 923 358 m cl s 923 275 m -41 Y s 923 234 m cl s
 1202 545 m -252 Y s 1202 293 m cl s 3 lw 364 357 457 355 550 369 643 361 736 349 829 447 923 289 7 { m20} R 9 lw 1 0 0 c 6 lw black 3 lw 1 0 0 c 2178 198 m -6 -6 d s 2178 227 m -35 -35 d s 2178 255 m -63 -63 d s 2178 284 m -92 -92 d s 2178 312 m -93
 -92 d s 2069 203 m cl s 2178 341 m -93 -93 d s 2040 203 m cl s 2178 369 m -93 -92 d s 2012 203 m cl s 2178 398 m -93 -93 d s 1983 203 m cl s 2178 427 m -93 -93 d s 1954 203 m cl s 2178 455 m -93 -92 d s 1926 203 m cl s 2178 484 m -93 -93 d s 1897
 203 m cl s 2178 512 m -93 -92 d s 1868 203 m cl s 2178 540 m -93 -92 d s 1840 203 m cl s 2149 540 m -64 -63 d s 1811 203 m cl s 2120 540 m -35 -34 d s 1782 203 m cl s 2092 540 m -7 -6 d s 1754 203 m cl s 1725 203 m cl s 1696 203 m cl s 1667 203 m cl
 s 1639 203 m cl s 1610 203 m cl s 1581 203 m cl s 1553 203 m cl s 1527 207 m s 1527 235 m s 1527 264 m -24 -24 d s 1527 292 m -53 -52 d s 1527 321 m -81 -81 d s 1527 350 m -93 -93 d s 1527 378 m -94 -94 d s 1527 407 m -123 -123 d s 1341 221 m -15
 -15 d s 1527 435 m -151 -151 d s 1341 250 m -44 -44 d s 1527 464 m -180 -180 d s 1341 278 m -72 -72 d s 1527 492 m -279 -278 d s 1498 492 m -250 -249 d s 1470 492 m -36 -35 d s 1425 448 m -177 -176 d s 1441 492 m -7 -6 d s 1396 448 m -173 -173 d s
 1368 448 m -174 -173 d s 1341 450 m -176 -175 d s 1341 479 m -200 -200 d s 1341 507 m -229 -228 d s 1331 526 m -247 -247 d s 1302 526 m -54 -54 d s 1234 457 m -172 -171 d s 1274 526 m -26 -26 d s 1205 457 m -143 -142 d s 1176 457 m -143 -142 d s
 1143 453 m -138 -138 d s 1114 453 m -138 -138 d s 1086 453 m -24 -24 d s 1050 417 m -81 -80 d s 1021 417 m -80 -80 d s 993 417 m -81 -80 d s 942 395 m -58 -58 d s 913 395 m -46 -46 d s 884 395 m -8 -8 d s 873 383 m -35 -34 d s 844 383 m -35 -34 d s
 815 383 m -32 -32 d s 786 383 m -3 -3 d s 781 378 m -24 -24 d s 752 378 m -24 -24 d s 724 378 m -24 -24 d s 695 378 m -22 -22 d s 664 376 m -19 -20 d s 635 376 m -19 -20 d s 607 376 m -18 -18 d s 577 374 m -17 -16 d s 548 374 m -17 -16 d s 519 374 m
 -17 -17 d s 491 375 m -18 -18 d s 463 375 m -19 -18 d s 318 231 m s 434 375 m -18 -18 d s 318 259 m s 410 380 m -27 -27 d s 318 288 m s 381 380 m -27 -27 d s 318 317 m s 352 380 m -27 -27 d s 318 345 m s 324 380 m -6 -6 d s 6 lw black[ 4 8] 0 sd 3
 lw 318 447 m 1860 X s 318 285 m 1860 X s 1 0 0 c[  12 12 ] 0 sd 6 lw 318 366 m 1860 X s
 gr  gr showpage
end
%%EOF
