%!PS-Adobe-2.0 EPSF-2.0
%%BoundingBox:  0 0 567 521
%%Title: Distributions/jetPt_0__distrVR0LmetSig_MB-GGd_afterFit_forThesis.eps: canvas
%%Creator: ROOT Version 6.04/16
%%CreationDate: Tue May 19 22:03:33 2020
%%DocumentNeededResources: ProcSet (FontSetInit)
%%EndComments
%%BeginProlog
80 dict begin
/s {stroke} def /l {lineto} def /m {moveto} def /t {translate} def
/r {rotate} def /rl {roll}  def /R {repeat} def
/d {rlineto} def /rm {rmoveto} def /gr {grestore} def /f {eofill} def
/c {setrgbcolor} def /black {0 setgray} def /sd {setdash} def
/cl {closepath} def /sf {scalefont setfont} def /lw {setlinewidth} def
/box {m dup 0 exch d exch 0 d 0 exch neg d cl} def
/NC{systemdict begin initclip end}def/C{NC box clip newpath}def
/bl {box s} def /bf {gsave box gsave f grestore 1 lw [] 0 sd s grestore} def /Y { 0 exch d} def /X { 0 d} def 
/K {{pop pop 0 moveto} exch kshow} bind def
/ita {/ang 15 def gsave [1 0 ang dup sin exch cos div 1 0 0] concat} def 
/mp {newpath /y exch def /x exch def} def
/side {[w .77 mul w .23 mul] .385 w mul sd w 0 l currentpoint t -144 r} def
/mr {mp x y w2 0 360 arc} def /m24 {mr s} def /m20 {mr f} def
/mb {mp x y w2 add m w2 neg 0 d 0 w neg d w 0 d 0 w d cl} def
/mt {mp x y w2 add m w2 neg w neg d w 0 d cl} def
/m21 {mb f} def /m25 {mb s} def /m22 {mt f} def /m26{mt s} def
/m23 {mp x y w2 sub m w2 w d w neg 0 d cl f} def
/m27 {mp x y w2 add m w3 neg w2 neg d w3 w2 neg d w3 w2 d cl s} def
/m28 {mp x w2 sub y w2 sub w3 add m w3 0 d  0 w3 neg d w3 0 d 0 w3 d w3 0 d  0 w3 d w3 neg 0 d 0 w3 d w3 neg 0 d 0 w3 neg d w3 neg 0 d cl s } def
/m29 {mp gsave x w2 sub y w2 add w3 sub m currentpoint t 4 {side} repeat cl fill gr} def
/m30 {mp gsave x w2 sub y w2 add w3 sub m currentpoint t 4 {side} repeat cl s gr} def
/m31 {mp x y w2 sub m 0 w d x w2 sub y m w 0 d x w2 sub y w2 add m w w neg d x w2 sub y w2 sub m w w d s} def
/m32 {mp x y w2 sub m w2 w d w neg 0 d cl s} def
/m33 {mp x y w2 add m w3 neg w2 neg d w3 w2 neg d w3 w2 d cl f} def
/m34 {mp x w2 sub y w2 sub w3 add m w3 0 d  0 w3 neg d w3 0 d 0 w3 d w3 0 d  0 w3 d w3 neg 0 d 0 w3 d w3 neg 0 d 0 w3 neg d w3 neg 0 d cl f } def
/m2 {mp x y w2 sub m 0 w d x w2 sub y m w 0 d s} def
/m5 {mp x w2 sub y w2 sub m w w d x w2 sub y w2 add m w w neg d s} def
%%IncludeResource: ProcSet (FontSetInit)
%%IncludeResource: font Times-Roman
%%IncludeResource: font Times-Italic
%%IncludeResource: font Times-Bold
%%IncludeResource: font Times-BoldItalic
%%IncludeResource: font Helvetica
%%IncludeResource: font Helvetica-Oblique
%%IncludeResource: font Helvetica-Bold
%%IncludeResource: font Helvetica-BoldOblique
%%IncludeResource: font Courier
%%IncludeResource: font Courier-Oblique
%%IncludeResource: font Courier-Bold
%%IncludeResource: font Courier-BoldOblique
%%IncludeResource: font Symbol
%%IncludeResource: font ZapfDingbats
/reEncode {exch findfont dup length dict begin {1 index /FID eq  {pop pop} {def} ifelse } forall /Encoding exch def currentdict end dup /FontName get exch definefont pop } def [/Times-Bold /Times-Italic /Times-BoldItalic /Helvetica /Helvetica-Oblique
 /Helvetica-Bold /Helvetica-BoldOblique /Courier /Courier-Oblique /Courier-Bold /Courier-BoldOblique /Times-Roman /AvantGarde-Book /AvantGarde-BookOblique /AvantGarde-Demi /AvantGarde-DemiOblique /Bookman-Demi /Bookman-DemiItalic /Bookman-Light
 /Bookman-LightItalic /Helvetica-Narrow /Helvetica-Narrow-Bold /Helvetica-Narrow-BoldOblique /Helvetica-Narrow-Oblique /NewCenturySchlbk-Roman /NewCenturySchlbk-Bold /NewCenturySchlbk-BoldItalic /NewCenturySchlbk-Italic /Palatino-Bold
 /Palatino-BoldItalic /Palatino-Italic /Palatino-Roman ] {ISOLatin1Encoding reEncode } forall
%%EndProlog
%%BeginSetup
%%EndSetup
newpath  gsave  .25 .25 scale  gsave  0 0 t black[  ] 0 sd 3 lw 1 1 1 c 2268 2085 0 0 bf black 1 1 1 c 2263 1770 2 313 bf black 1 1 1 c black 1860 1145 319 584 bl 1 1 1 c black 1860 1145 319 584 bl 6 lw 1 1 1 c black 3 lw /w 33 def /w2 {w 2 div} def
 /w3 {w 3 div} def 366 1188 m20 6 lw 3 lw 459 1134 m20 6 lw 3 lw 552 1072 m20 6 lw 3 lw 645 999 m20 6 lw 738 895 m 8 Y s 738 930 m 2 Y s 3 lw 738 916 m20 6 lw 831 786 m 33 Y s 831 846 m 13 Y s 3 lw 831 832 m20 6 lw 924 755 m 44 Y s 924 826 m 17 Y s 3
 lw 924 813 m20 6 lw 3 lw 319 584 m 1860 X s
 gsave  2263 1770 2 313 C 1949.08 376.258 t 0 r /Helvetica findfont 81.3741 sf 0 0 m ( [GeV]) show NC gr 
 gsave  2263 1770 2 313 C 1915.19 332.192 t 0 r /Helvetica findfont 54.2494 sf 0 0 m (T) show NC gr 
 gsave  2263 1770 2 313 C 1630.45 376.258 t 0 r /Helvetica findfont 81.3741 sf 0 0 m (1st jet p) show NC gr  435 584 m cl s 482 584 m cl s 528 584 m cl s 575 584 m cl s 621 584 m cl s 668 584 m cl s 714 584 m cl s 761 584 m cl s 807 584 m cl s 854
 584 m cl s 900 584 m cl s 947 584 m cl s 993 584 m cl s 1040 584 m cl s 1087 584 m cl s 1133 584 m cl s 1180 584 m cl s 1226 584 m cl s 1273 584 m cl s 1319 584 m cl s 1366 584 m cl s 1412 584 m cl s 1459 584 m cl s 1505 584 m cl s 1552 584 m cl s
 1598 584 m cl s 1645 584 m cl s 1691 584 m cl s 1738 584 m cl s 1784 584 m cl s 1831 584 m cl s 1877 584 m cl s 1924 584 m cl s 1970 584 m cl s 2017 584 m cl s 2063 584 m cl s 435 584 m cl s 389 584 m cl s 342 584 m cl s 2063 584 m cl s 2110 584 m
 cl s 2156 584 m cl s 319 1729 m 1860 X s 435 1729 m cl s 482 1729 m cl s 528 1729 m cl s 575 1729 m cl s 621 1729 m cl s 668 1729 m cl s 714 1729 m cl s 761 1729 m cl s 807 1729 m cl s 854 1729 m cl s 900 1729 m cl s 947 1729 m cl s 993 1729 m cl s
 1040 1729 m cl s 1087 1729 m cl s 1133 1729 m cl s 1180 1729 m cl s 1226 1729 m cl s 1273 1729 m cl s 1319 1729 m cl s 1366 1729 m cl s 1412 1729 m cl s 1459 1729 m cl s 1505 1729 m cl s 1552 1729 m cl s 1598 1729 m cl s 1645 1729 m cl s 1691 1729 m
 cl s 1738 1729 m cl s 1784 1729 m cl s 1831 1729 m cl s 1877 1729 m cl s 1924 1729 m cl s 1970 1729 m cl s 2017 1729 m cl s 2063 1729 m cl s 435 1729 m cl s 389 1729 m cl s 342 1729 m cl s 2063 1729 m cl s 2110 1729 m cl s 2156 1729 m cl s 319 584 m
 1145 Y s
 gsave  2263 1770 2 313 C 166.096 1091.49 t 90 r /Helvetica findfont 81.3741 sf 0 0 m (Events / 200 GeV) show NC gr  341 631 m -22 X s 341 658 m -22 X s 341 677 m -22 X s 341 692 m -22 X s 341 705 m -22 X s 341 715 m -22 X s 341 724 m -22 X s 341 732
 m -22 X s 363 739 m -44 X s
 gsave  2263 1770 2 313 C 300.555 711.878 t 0 r  -36 0 t /Helvetica findfont 64.4212 sf 0 0 m (1) show NC gr  341 786 m -22 X s 341 813 m -22 X s 341 832 m -22 X s 341 847 m -22 X s 341 859 m -22 X s 341 870 m -22 X s 341 879 m -22 X s 341 887 m -22
 X s 363 894 m -44 X s
 gsave  2263 1770 2 313 C 300.555 866.564 t 0 r  -73 0 t /Helvetica findfont 64.4212 sf 0 0 m (10) show NC gr  341 940 m -22 X s 341 967 m -22 X s 341 987 m -22 X s 341 1002 m -22 X s 341 1014 m -22 X s 341 1024 m -22 X s 341 1033 m -22 X s 341 1041
 m -22 X s 363 1048 m -44 X s
 gsave  2263 1770 2 313 C 274.567 1047.42 t 0 r /Helvetica findfont 44.0776 sf 0 0 m (2) show NC gr 
 gsave  2263 1770 2 313 C 203.383 1020.3 t 0 r /Helvetica findfont 64.4212 sf 0 0 m (10) show NC gr  341 1095 m -22 X s 341 1122 m -22 X s 341 1141 m -22 X s 341 1156 m -22 X s 341 1169 m -22 X s 341 1179 m -22 X s 341 1188 m -22 X s 341 1196 m -22 X
 s 363 1203 m -44 X s
 gsave  2263 1770 2 313 C 274.567 1203.35 t 0 r /Helvetica findfont 44.0776 sf 0 0 m (3) show NC gr 
 gsave  2263 1770 2 313 C 203.383 1172.84 t 0 r /Helvetica findfont 64.4212 sf 0 0 m (10) show NC gr  341 1250 m -22 X s 341 1277 m -22 X s 341 1296 m -22 X s 341 1311 m -22 X s 341 1323 m -22 X s 341 1334 m -22 X s 341 1343 m -22 X s 341 1351 m -22
 X s 363 1358 m -44 X s
 gsave  2263 1770 2 313 C 274.567 1355.88 t 0 r /Helvetica findfont 44.0776 sf 0 0 m (4) show NC gr 
 gsave  2263 1770 2 313 C 203.383 1328.77 t 0 r /Helvetica findfont 64.4212 sf 0 0 m (10) show NC gr  341 1404 m -22 X s 341 1432 m -22 X s 341 1451 m -22 X s 341 1466 m -22 X s 341 1478 m -22 X s 341 1488 m -22 X s 341 1497 m -22 X s 341 1505 m -22
 X s 363 1512 m -44 X s
 gsave  2263 1770 2 313 C 274.567 1515.2 t 0 r /Helvetica findfont 44.0776 sf 0 0 m (5) show NC gr 
 gsave  2263 1770 2 313 C 203.383 1484.69 t 0 r /Helvetica findfont 64.4212 sf 0 0 m (10) show NC gr  341 1559 m -22 X s 341 1586 m -22 X s 341 1606 m -22 X s 341 1621 m -22 X s 341 1633 m -22 X s 341 1643 m -22 X s 341 1652 m -22 X s 341 1660 m -22
 X s 363 1667 m -44 X s
 gsave  2263 1770 2 313 C 274.567 1667.74 t 0 r /Helvetica findfont 44.0776 sf 0 0 m (6) show NC gr 
 gsave  2263 1770 2 313 C 203.383 1637.23 t 0 r /Helvetica findfont 64.4212 sf 0 0 m (10) show NC gr  341 1714 m -22 X s 2179 584 m 1145 Y s 2157 631 m 22 X s 2157 658 m 22 X s 2157 677 m 22 X s 2157 692 m 22 X s 2157 705 m 22 X s 2157 715 m 22 X s
 2157 724 m 22 X s 2157 732 m 22 X s 2136 739 m 43 X s 2157 786 m 22 X s 2157 813 m 22 X s 2157 832 m 22 X s 2157 847 m 22 X s 2157 859 m 22 X s 2157 870 m 22 X s 2157 879 m 22 X s 2157 887 m 22 X s 2136 894 m 43 X s 2157 940 m 22 X s 2157 967 m 22 X
 s 2157 987 m 22 X s 2157 1002 m 22 X s 2157 1014 m 22 X s 2157 1024 m 22 X s 2157 1033 m 22 X s 2157 1041 m 22 X s 2136 1048 m 43 X s 2157 1095 m 22 X s 2157 1122 m 22 X s 2157 1141 m 22 X s 2157 1156 m 22 X s 2157 1169 m 22 X s 2157 1179 m 22 X s
 2157 1188 m 22 X s 2157 1196 m 22 X s 2136 1203 m 43 X s 2157 1250 m 22 X s 2157 1277 m 22 X s 2157 1296 m 22 X s 2157 1311 m 22 X s 2157 1323 m 22 X s 2157 1334 m 22 X s 2157 1343 m 22 X s 2157 1351 m 22 X s 2136 1358 m 43 X s 2157 1404 m 22 X s
 2157 1432 m 22 X s 2157 1451 m 22 X s 2157 1466 m 22 X s 2157 1478 m 22 X s 2157 1488 m 22 X s 2157 1497 m 22 X s 2157 1505 m 22 X s 2136 1512 m 43 X s 2157 1559 m 22 X s 2157 1586 m 22 X s 2157 1606 m 22 X s 2157 1621 m 22 X s 2157 1633 m 22 X s
 2157 1643 m 22 X s 2157 1652 m 22 X s 2157 1660 m 22 X s 2136 1667 m 43 X s 2157 1714 m 22 X s 0.4 0.6 1 c black 0.4 0.6 1 c 319 584 m 607 Y 93 X -59 Y 93 X -61 Y 93 X -59 Y 93 X -67 Y 93 X -65 Y 93 X -65 Y 93 X -55 Y 93 X -51 Y 93 X -90 Y 93 X 19 Y
 93 X -54 Y 837 X f black 0.4 0.6 1 c black 319 1191 m 93 X -59 Y 93 X -61 Y 93 X -59 Y 93 X -67 Y 93 X -65 Y 93 X -65 Y 93 X -55 Y 93 X -51 Y 93 X -90 Y 93 X 19 Y 93 X -54 Y 837 X s 0.999 0.999 0.999 c black 0.999 0.999 0.999 c 319 584 m 590 Y 93 X
 -60 Y 93 X -63 Y 93 X -57 Y 93 X -69 Y 93 X -68 Y 93 X -67 Y 93 X -44 Y 93 X -55 Y 93 X -100 Y 93 X 38 Y 93 X -45 Y 837 X f black 0.999 0.999 0.999 c black 319 1174 m 93 X -60 Y 93 X -63 Y 93 X -57 Y 93 X -69 Y 93 X -68 Y 93 X -67 Y 93 X -44 Y 93 X
 -55 Y 93 X -100 Y 93 X 38 Y 93 X -45 Y 837 X s 1 1 1 c black 319 1174 m 93 X -60 Y 93 X -63 Y 93 X -57 Y 93 X -69 Y 93 X -68 Y 93 X -67 Y 93 X -44 Y 93 X -55 Y 93 X -100 Y 93 X 38 Y 93 X -45 Y 837 X s 0.6 1 0.6 c black 0.6 1 0.6 c 319 584 m 590 Y 93
 X -60 Y 93 X -63 Y 93 X -57 Y 93 X -69 Y 93 X -68 Y 93 X -67 Y 93 X -44 Y 93 X -55 Y 93 X -100 Y 93 X 38 Y 93 X -45 Y 837 X f black 0.6 1 0.6 c black 319 1174 m 93 X -60 Y 93 X -63 Y 93 X -57 Y 93 X -69 Y 93 X -68 Y 93 X -67 Y 93 X -44 Y 93 X -55 Y
 93 X -100 Y 93 X 38 Y 93 X -45 Y 837 X s 0.999 0.999 0.999 c black 0.999 0.999 0.999 c 319 584 m 508 Y 93 X -39 Y 93 X -55 Y 93 X -42 Y 93 X -58 Y 93 X -64 Y 93 X -60 Y 93 X -36 Y 93 X -54 Y 93 X -100 Y 93 X 42 Y 93 X -42 Y 837 X f black 0.999 0.999
 0.999 c black 319 1092 m 93 X -39 Y 93 X -55 Y 93 X -42 Y 93 X -58 Y 93 X -64 Y 93 X -60 Y 93 X -36 Y 93 X -54 Y 93 X -100 Y 93 X 42 Y 93 X -42 Y 837 X s 1 1 1 c black 319 1092 m 93 X -39 Y 93 X -55 Y 93 X -42 Y 93 X -58 Y 93 X -64 Y 93 X -60 Y 93 X
 -36 Y 93 X -54 Y 93 X -100 Y 93 X 42 Y 93 X -42 Y 837 X s 1 0.8 0.4 c black 1 0.8 0.4 c 319 584 m 508 Y 93 X -39 Y 93 X -55 Y 93 X -42 Y 93 X -58 Y 93 X -64 Y 93 X -60 Y 93 X -36 Y 93 X -54 Y 93 X -100 Y 93 X 42 Y 93 X -42 Y 837 X f black 1 0.8 0.4
 c black 319 1092 m 93 X -39 Y 93 X -55 Y 93 X -42 Y 93 X -58 Y 93 X -64 Y 93 X -60 Y 93 X -36 Y 93 X -54 Y 93 X -100 Y 93 X 42 Y 93 X -42 Y 837 X s 0.999 0.999 0.999 c black 0.999 0.999 0.999 c 319 584 m 410 Y 93 X -33 Y 93 X -63 Y 93 X -28 Y 93 X
 -56 Y 93 X -47 Y 93 X -80 Y 93 X -20 Y 93 X -83 Y 186 X 23 Y 93 X -23 Y 837 X f black 0.999 0.999 0.999 c black 319 994 m 93 X -33 Y 93 X -63 Y 93 X -28 Y 93 X -56 Y 93 X -47 Y 93 X -80 Y 93 X -20 Y 93 X -83 Y 186 X 23 Y 93 X -23 Y 837 X s 1 1 1 c
 black 319 994 m 93 X -33 Y 93 X -63 Y 93 X -28 Y 93 X -56 Y 93 X -47 Y 93 X -80 Y 93 X -20 Y 93 X -83 Y 186 X 23 Y 93 X -23 Y 837 X s 1 0.4 0.6 c black 1 0.4 0.6 c 319 584 m 410 Y 93 X -33 Y 93 X -63 Y 93 X -28 Y 93 X -56 Y 93 X -47 Y 93 X -80 Y 93
 X -20 Y 93 X -83 Y 186 X 23 Y 93 X -23 Y 837 X f black 1 0.4 0.6 c black 319 994 m 93 X -33 Y 93 X -63 Y 93 X -28 Y 93 X -56 Y 93 X -47 Y 93 X -80 Y 93 X -20 Y 93 X -83 Y 186 X 23 Y 93 X -23 Y 837 X s 0.999 0.999 0.999 c black 0.999 0.999 0.999 c
 319 584 m 344 Y 93 X -31 Y 93 X -60 Y 93 X -24 Y 93 X -34 Y 93 X -70 Y 93 X -58 Y 93 X -11 Y 93 X -56 Y 186 X 23 Y 93 X -23 Y 837 X f black 0.999 0.999 0.999 c black 319 928 m 93 X -31 Y 93 X -60 Y 93 X -24 Y 93 X -34 Y 93 X -70 Y 93 X -58 Y 93 X
 -11 Y 93 X -56 Y 186 X 23 Y 93 X -23 Y 837 X s 1 1 1 c black 319 928 m 93 X -31 Y 93 X -60 Y 93 X -24 Y 93 X -34 Y 93 X -70 Y 93 X -58 Y 93 X -11 Y 93 X -56 Y 186 X 23 Y 93 X -23 Y 837 X s 0 0 0.4 c black 0 0 0.4 c 319 584 m 344 Y 93 X -31 Y 93 X
 -60 Y 93 X -24 Y 93 X -34 Y 93 X -70 Y 93 X -58 Y 93 X -11 Y 93 X -56 Y 186 X 23 Y 93 X -23 Y 837 X f black 0 0 0.4 c black 319 928 m 93 X -31 Y 93 X -60 Y 93 X -24 Y 93 X -34 Y 93 X -70 Y 93 X -58 Y 93 X -11 Y 93 X -56 Y 186 X 23 Y 93 X -23 Y 837 X
 s 1 0 0 c 6 lw 1 1 1 c black 1 0 0 c 319 1191 m 93 X -59 Y 93 X -61 Y 93 X -59 Y 93 X -67 Y 93 X -65 Y 93 X -65 Y 93 X -55 Y 93 X -51 Y 93 X -90 Y 93 X 19 Y 93 X -54 Y 837 X s black 3 lw 1 0 0 c 1 lw << /PatternType 1 /PaintType 2 /TilingType 1
 /BBox [ 0 0 100 100 ] /XStep 100 /YStep 100 /PaintProc { begin gsave 0 100 m 100 0 l s gr end } >> [ 0.24 0 0 0.24 0 0 ] makepattern /P05 exch def /cs {[/Pattern /DeviceRGB] setcolorspace} def /FA {f [/DeviceRGB] setcolorspace} def cs 1 0 0 P05
 setcolor 319 584 m 610 Y 93 X -58 Y 93 X -61 Y 93 X -57 Y 93 X -65 Y 93 X -65 Y 93 X -62 Y 93 X -50 Y 93 X -42 Y 93 X -92 Y 93 X 33 Y 93 X -91 Y 93 X 5 Y 93 X -5 Y 93 X -372 X 2 Y -93 X 83 Y -93 X 70 Y -93 X 64 Y -93 X 67 Y -93 X 67 Y -93 X 70 Y -93
 X 59 Y -93 X 63 Y -93 X 59 Y -93 X -604 Y FA 6 lw 1 1 1 c 15 lw 738 896 m s 738 896 m cl s 831 852 m 9 Y s 831 861 m cl s 831 812 m -23 Y s 831 789 m cl s 924 833 m 13 Y s 924 846 m cl s 924 792 m -32 Y s 924 760 m cl s black 1 1 1 c 3 lw /w 43 def
 /w2 {w 2 div} def /w3 {w 3 div} def 366 1188 459 1134 552 1072 645 999 738 916 831 832 924 813 7 { m20} R 15 lw black 6 lw 1 1 1 c black 3 lw /w 33 def /w2 {w 2 div} def /w3 {w 3 div} def 366 1188 m20 6 lw 3 lw 459 1134 m20 6 lw 3 lw 552 1072 m20 6
 lw 3 lw 645 999 m20 6 lw 738 895 m 8 Y s 738 930 m 2 Y s 3 lw 738 916 m20 6 lw 831 786 m 33 Y s 831 846 m 13 Y s 3 lw 831 832 m20 6 lw 924 755 m 44 Y s 924 826 m 17 Y s 3 lw 924 813 m20 6 lw 738 930 m 2 Y s 738 932 m cl s 738 903 m -7 Y s 738 896 m
 cl s 831 846 m 15 Y s 831 861 m cl s 831 819 m -30 Y s 831 789 m cl s 924 826 m 20 Y s 924 846 m cl s 924 799 m -39 Y s 924 760 m cl s 3 lw 366 1188 459 1134 552 1072 645 999 738 916 831 832 924 813 7 { m20} R 6 lw 3 lw 319 584 m 1860 X s 435 584 m
 cl s 482 584 m cl s 528 584 m cl s 575 584 m cl s 621 584 m cl s 668 584 m cl s 714 584 m cl s 761 584 m cl s 807 584 m cl s 854 584 m cl s 900 584 m cl s 947 584 m cl s 993 584 m cl s 1040 584 m cl s 1087 584 m cl s 1133 584 m cl s 1180 584 m cl s
 1226 584 m cl s 1273 584 m cl s 1319 584 m cl s 1366 584 m cl s 1412 584 m cl s 1459 584 m cl s 1505 584 m cl s 1552 584 m cl s 1598 584 m cl s 1645 584 m cl s 1691 584 m cl s 1738 584 m cl s 1784 584 m cl s 1831 584 m cl s 1877 584 m cl s 1924 584
 m cl s 1970 584 m cl s 2017 584 m cl s 2063 584 m cl s 435 584 m cl s 389 584 m cl s 342 584 m cl s 2063 584 m cl s 2110 584 m cl s 2156 584 m cl s 319 1729 m 1860 X s 435 1729 m cl s 482 1729 m cl s 528 1729 m cl s 575 1729 m cl s 621 1729 m cl s
 668 1729 m cl s 714 1729 m cl s 761 1729 m cl s 807 1729 m cl s 854 1729 m cl s 900 1729 m cl s 947 1729 m cl s 993 1729 m cl s 1040 1729 m cl s 1087 1729 m cl s 1133 1729 m cl s 1180 1729 m cl s 1226 1729 m cl s 1273 1729 m cl s 1319 1729 m cl s
 1366 1729 m cl s 1412 1729 m cl s 1459 1729 m cl s 1505 1729 m cl s 1552 1729 m cl s 1598 1729 m cl s 1645 1729 m cl s 1691 1729 m cl s 1738 1729 m cl s 1784 1729 m cl s 1831 1729 m cl s 1877 1729 m cl s 1924 1729 m cl s 1970 1729 m cl s 2017 1729 m
 cl s 2063 1729 m cl s 435 1729 m cl s 389 1729 m cl s 342 1729 m cl s 2063 1729 m cl s 2110 1729 m cl s 2156 1729 m cl s 319 584 m 1145 Y s 341 631 m -22 X s 341 658 m -22 X s 341 677 m -22 X s 341 692 m -22 X s 341 705 m -22 X s 341 715 m -22 X s
 341 724 m -22 X s 341 732 m -22 X s 363 739 m -44 X s 341 786 m -22 X s 341 813 m -22 X s 341 832 m -22 X s 341 847 m -22 X s 341 859 m -22 X s 341 870 m -22 X s 341 879 m -22 X s 341 887 m -22 X s 363 894 m -44 X s 341 940 m -22 X s 341 967 m -22 X
 s 341 987 m -22 X s 341 1002 m -22 X s 341 1014 m -22 X s 341 1024 m -22 X s 341 1033 m -22 X s 341 1041 m -22 X s 363 1048 m -44 X s 341 1095 m -22 X s 341 1122 m -22 X s 341 1141 m -22 X s 341 1156 m -22 X s 341 1169 m -22 X s 341 1179 m -22 X s
 341 1188 m -22 X s 341 1196 m -22 X s 363 1203 m -44 X s 341 1250 m -22 X s 341 1277 m -22 X s 341 1296 m -22 X s 341 1311 m -22 X s 341 1323 m -22 X s 341 1334 m -22 X s 341 1343 m -22 X s 341 1351 m -22 X s 363 1358 m -44 X s 341 1404 m -22 X s
 341 1432 m -22 X s 341 1451 m -22 X s 341 1466 m -22 X s 341 1478 m -22 X s 341 1488 m -22 X s 341 1497 m -22 X s 341 1505 m -22 X s 363 1512 m -44 X s 341 1559 m -22 X s 341 1586 m -22 X s 341 1606 m -22 X s 341 1621 m -22 X s 341 1633 m -22 X s
 341 1643 m -22 X s 341 1652 m -22 X s 341 1660 m -22 X s 363 1667 m -44 X s 341 1714 m -22 X s 2179 584 m 1145 Y s 2157 631 m 22 X s 2157 658 m 22 X s 2157 677 m 22 X s 2157 692 m 22 X s 2157 705 m 22 X s 2157 715 m 22 X s 2157 724 m 22 X s 2157 732
 m 22 X s 2136 739 m 43 X s 2157 786 m 22 X s 2157 813 m 22 X s 2157 832 m 22 X s 2157 847 m 22 X s 2157 859 m 22 X s 2157 870 m 22 X s 2157 879 m 22 X s 2157 887 m 22 X s 2136 894 m 43 X s 2157 940 m 22 X s 2157 967 m 22 X s 2157 987 m 22 X s 2157
 1002 m 22 X s 2157 1014 m 22 X s 2157 1024 m 22 X s 2157 1033 m 22 X s 2157 1041 m 22 X s 2136 1048 m 43 X s 2157 1095 m 22 X s 2157 1122 m 22 X s 2157 1141 m 22 X s 2157 1156 m 22 X s 2157 1169 m 22 X s 2157 1179 m 22 X s 2157 1188 m 22 X s 2157
 1196 m 22 X s 2136 1203 m 43 X s 2157 1250 m 22 X s 2157 1277 m 22 X s 2157 1296 m 22 X s 2157 1311 m 22 X s 2157 1323 m 22 X s 2157 1334 m 22 X s 2157 1343 m 22 X s 2157 1351 m 22 X s 2136 1358 m 43 X s 2157 1404 m 22 X s 2157 1432 m 22 X s 2157
 1451 m 22 X s 2157 1466 m 22 X s 2157 1478 m 22 X s 2157 1488 m 22 X s 2157 1497 m 22 X s 2157 1505 m 22 X s 2136 1512 m 43 X s 2157 1559 m 22 X s 2157 1586 m 22 X s 2157 1606 m 22 X s 2157 1621 m 22 X s 2157 1633 m 22 X s 2157 1643 m 22 X s 2157
 1652 m 22 X s 2157 1660 m 22 X s 2136 1667 m 43 X s 2157 1714 m 22 X s
 gsave  2263 1770 2 313 C 406.765 1447.41 t 0 r /Helvetica findfont 64.4212 sf 0 0 m (VR0LmetSig for MB\255GGd) show NC gr 
 gsave  2263 1770 2 313 C 1464.36 1630.45 t 0 r /Helvetica findfont 64.4212 sf 0 0 m (SM Total) show NC gr  1 1 1 c 1338 1616 m 107 X 64 Y -107 X f 1 0 0 c 6 lw 1338 1648 m 107 X s black
 gsave  2263 1770 2 313 C 1464.36 1538.93 t 0 r /Helvetica findfont 64.4212 sf 0 0 m (Data) show NC gr  1391 1529 m 55 Y s 3 lw 1391 1557 m20 6 lw
 gsave  2263 1770 2 313 C 1464.36 1447.41 t 0 r /Helvetica findfont 64.4212 sf 0 0 m (W+jets) show NC gr  0.4 0.6 1 c 3 lw 1338 1434 m 107 X 64 Y -107 X f 6 lw black 3 lw 1338 1498 m 107 X s 1338 1434 m 107 X s 1445 1434 m 64 Y s 1338 1434 m 64 Y s
 gsave  2263 1770 2 313 C 1498.25 1355.88 t 0 r /Helvetica findfont 64.4212 sf 0 0 m (\(+EW\) & single top) show NC gr 
 gsave  2263 1770 2 313 C 1481.3 1355.88 t 0 r /Helvetica findfont 64.4212 sf 0 0 m (t) show NC gr  1481 1407 m 17 X s
 gsave  2263 1770 2 313 C 1464.36 1355.88 t 0 r /Helvetica findfont 64.4212 sf 0 0 m (t) show NC gr  0.6 1 0.6 c 1338 1343 m 107 X 63 Y -107 X f black 1338 1406 m 107 X s 1338 1343 m 107 X s 1445 1343 m 63 Y s 1338 1343 m 63 Y s
 gsave  2263 1770 2 313 C 1464.36 1264.36 t 0 r /Helvetica findfont 64.4212 sf 0 0 m (Z+jets) show NC gr  1 0.8 0.4 c 1338 1252 m 107 X 63 Y -107 X f black 1338 1315 m 107 X s 1338 1252 m 107 X s 1445 1252 m 63 Y s 1338 1252 m 63 Y s
 gsave  2263 1770 2 313 C 1464.36 1172.84 t 0 r /Helvetica findfont 64.4212 sf 0 0 m (Diboson) show NC gr  1 0.4 0.6 c 1338 1161 m 107 X 63 Y -107 X f black 1338 1224 m 107 X s 1338 1161 m 107 X s 1445 1161 m 63 Y s 1338 1161 m 63 Y s
 gsave  2263 1770 2 313 C 1464.36 1081.32 t 0 r /Helvetica findfont 64.4212 sf 0 0 m (Multi\255jet) show NC gr  0 0 0.4 c 1338 1070 m 107 X 63 Y -107 X f black 1338 1133 m 107 X s 1338 1070 m 107 X s 1445 1070 m 63 Y s 1338 1070 m 63 Y s
 gsave  2263 1770 2 313 C 911.832 1566.05 t 0 r /Helvetica findfont 44.0776 sf 0 0 m (\2551) show NC gr 
 gsave  2263 1770 2 313 C 471.17 1535.54 t 0 r /Helvetica findfont 64.4212 sf 0 0 m (=13TeV, 139 fb) show NC gr 
 gsave  2263 1770 2 313 C 440.662 1535.54 t 0 r /Helvetica findfont 64.4212 sf 0 0 m (s) show NC gr  6 lw 420 1573 m 7 -41 d s 3 lw 427 1532 m 7 61 d s 434 1593 m 37 X s 1 1 1 c 2254 561 2 2 bf black 1 1 1 c black 1860 358 318 187 bl 1 1 1 c black
 1860 358 318 187 bl 6 lw 1 1 1 c black 3 lw 364 361 m20 6 lw 3 lw 457 370 m20 6 lw 3 lw 550 371 m20 6 lw 3 lw 643 337 m20 6 lw 3 lw 736 309 m20 6 lw 3 lw 829 283 m20 6 lw 3 lw 923 360 m20 6 lw 3 lw 318 187 m 1860 X s
 gsave  2254 561 2 2 C 1959.25 44.0662 t 0 r /Helvetica findfont 78.1689 sf 0 0 m ( [GeV]) show NC gr 
 gsave  2254 561 2 2 C 1928.75 -2.35513e-13 t 0 r /Helvetica findfont 50.9797 sf 0 0 m (T) show NC gr 
 gsave  2254 561 2 2 C 1657.57 44.0662 t 0 r /Helvetica findfont 78.1689 sf 0 0 m (1st jet p) show NC gr  434 201 m -14 Y s 481 194 m -7 Y s 527 194 m -7 Y s 574 194 m -7 Y s 620 194 m -7 Y s 667 201 m -14 Y s 713 194 m -7 Y s 760 194 m -7 Y s 806
 194 m -7 Y s 853 194 m -7 Y s 899 201 m -14 Y s 946 194 m -7 Y s 992 194 m -7 Y s 1039 194 m -7 Y s 1085 194 m -7 Y s 1132 201 m -14 Y s 1178 194 m -7 Y s 1225 194 m -7 Y s 1271 194 m -7 Y s 1318 194 m -7 Y s 1364 201 m -14 Y s 1411 194 m -7 Y s
 1457 194 m -7 Y s 1504 194 m -7 Y s 1550 194 m -7 Y s 1597 201 m -14 Y s 1643 194 m -7 Y s 1690 194 m -7 Y s 1737 194 m -7 Y s 1783 194 m -7 Y s 1830 201 m -14 Y s 1876 194 m -7 Y s 1923 194 m -7 Y s 1969 194 m -7 Y s 2016 194 m -7 Y s 2062 201 m
 -14 Y s 434 201 m -14 Y s 388 194 m -7 Y s 341 194 m -7 Y s 2062 201 m -14 Y s 2109 194 m -7 Y s 2155 194 m -7 Y s
 gsave  2254 561 2 2 C 369.478 118.64 t 0 r /Helvetica findfont 78.1689 sf 0 0 m (500) show NC gr 
 gsave  2254 561 2 2 C 576.251 118.64 t 0 r /Helvetica findfont 78.1689 sf 0 0 m (1000) show NC gr 
 gsave  2254 561 2 2 C 810.141 118.64 t 0 r /Helvetica findfont 78.1689 sf 0 0 m (1500) show NC gr 
 gsave  2254 561 2 2 C 1040.64 118.64 t 0 r /Helvetica findfont 78.1689 sf 0 0 m (2000) show NC gr 
 gsave  2254 561 2 2 C 1274.53 118.64 t 0 r /Helvetica findfont 78.1689 sf 0 0 m (2500) show NC gr 
 gsave  2254 561 2 2 C 1508.42 118.64 t 0 r /Helvetica findfont 78.1689 sf 0 0 m (3000) show NC gr 
 gsave  2254 561 2 2 C 1738.92 118.64 t 0 r /Helvetica findfont 78.1689 sf 0 0 m (3500) show NC gr 
 gsave  2254 561 2 2 C 1972.81 118.64 t 0 r /Helvetica findfont 78.1689 sf 0 0 m (4000) show NC gr  318 545 m 1860 X s 434 531 m 14 Y s 481 538 m 7 Y s 527 538 m 7 Y s 574 538 m 7 Y s 620 538 m 7 Y s 667 531 m 14 Y s 713 538 m 7 Y s 760 538 m 7 Y s
 806 538 m 7 Y s 853 538 m 7 Y s 899 531 m 14 Y s 946 538 m 7 Y s 992 538 m 7 Y s 1039 538 m 7 Y s 1085 538 m 7 Y s 1132 531 m 14 Y s 1178 538 m 7 Y s 1225 538 m 7 Y s 1271 538 m 7 Y s 1318 538 m 7 Y s 1364 531 m 14 Y s 1411 538 m 7 Y s 1457 538 m 7
 Y s 1504 538 m 7 Y s 1550 538 m 7 Y s 1597 531 m 14 Y s 1643 538 m 7 Y s 1690 538 m 7 Y s 1737 538 m 7 Y s 1783 538 m 7 Y s 1830 531 m 14 Y s 1876 538 m 7 Y s 1923 538 m 7 Y s 1969 538 m 7 Y s 2016 538 m 7 Y s 2062 531 m 14 Y s 434 531 m 14 Y s 388
 538 m 7 Y s 341 538 m 7 Y s 2062 531 m 14 Y s 2109 538 m 7 Y s 2155 538 m 7 Y s 318 187 m 358 Y s
 gsave  2254 561 2 2 C 166.096 284.736 t 90 r /Helvetica findfont 67.9729 sf 0 0 m (Data/SM) show NC gr  361 203 m -43 X s 339 220 m -21 X s 339 236 m -21 X s 339 252 m -21 X s 339 268 m -21 X s 361 285 m -43 X s 339 301 m -21 X s 339 317 m -21 X s
 339 334 m -21 X s 339 350 m -21 X s 361 366 m -43 X s 339 382 m -21 X s 339 399 m -21 X s 339 415 m -21 X s 339 431 m -21 X s 361 447 m -43 X s 339 464 m -21 X s 339 480 m -21 X s 339 496 m -21 X s 339 512 m -21 X s 361 529 m -43 X s 361 203 m -43 X
 s 339 187 m -21 X s 361 529 m -43 X s
 gsave  2254 561 2 2 C 261.008 183.044 t 0 r /Helvetica findfont 57.777 sf 0 0 m (0) show NC gr 
 gsave  2254 561 2 2 C 213.552 261.008 t 0 r /Helvetica findfont 57.777 sf 0 0 m (0.5) show NC gr 
 gsave  2254 561 2 2 C 271.177 342.361 t 0 r /Helvetica findfont 57.777 sf 0 0 m (1) show NC gr 
 gsave  2254 561 2 2 C 213.552 423.714 t 0 r /Helvetica findfont 57.777 sf 0 0 m (1.5) show NC gr 
 gsave  2254 561 2 2 C 261.008 505.067 t 0 r /Helvetica findfont 57.777 sf 0 0 m (2) show NC gr  2178 187 m 358 Y s 2135 203 m 43 X s 2157 220 m 21 X s 2157 236 m 21 X s 2157 252 m 21 X s 2157 268 m 21 X s 2135 285 m 43 X s 2157 301 m 21 X s 2157 317
 m 21 X s 2157 334 m 21 X s 2157 350 m 21 X s 2135 366 m 43 X s 2157 382 m 21 X s 2157 399 m 21 X s 2157 415 m 21 X s 2157 431 m 21 X s 2135 447 m 43 X s 2157 464 m 21 X s 2157 480 m 21 X s 2157 496 m 21 X s 2157 512 m 21 X s 2135 529 m 43 X s 2135
 203 m 43 X s 2157 187 m 21 X s 2135 529 m 43 X s 9 lw 550 384 m 1 Y s 550 385 m cl s 550 357 m s 550 357 m cl s 643 350 m 6 Y s 643 356 m cl s 643 323 m -5 Y s 643 318 m cl s 736 323 m 15 Y s 736 338 m cl s 736 295 m -14 Y s 736 281 m cl s 829 297 m
 29 Y s 829 326 m cl s 829 270 m -25 Y s 829 245 m cl s 923 374 m 86 Y s 923 460 m cl s 923 347 m -72 Y s 923 275 m cl s 3 lw 364 361 457 370 550 371 643 337 736 309 829 283 923 360 7 { m20} R 9 lw 1 0 0 c 6 lw black 3 lw 1 0 0 c 2155 203 m cl s 2127
 203 m cl s 2098 203 m cl s 2069 203 m cl s 2040 203 m cl s 2012 203 m cl s 1983 203 m cl s 1954 203 m cl s 1926 203 m cl s 1897 203 m cl s 1868 203 m cl s 1840 203 m cl s 1811 203 m cl s 1782 203 m cl s 1754 203 m cl s 1725 203 m cl s 1713 220 m -16
 -16 d s 1713 249 m -45 -45 d s 1713 278 m -73 -74 d s 1713 306 m -119 -119 d s 1713 335 m -148 -148 d s 1713 363 m -177 -176 d s 1713 392 m -186 -185 d s 1713 421 m -186 -186 d s 1713 449 m -207 -206 d s 1713 478 m -236 -235 d s 1713 506 m -264 -263
 d s 1434 228 m -8 -8 d s 1706 528 m -309 -308 d s 1677 528 m -308 -308 d s 1649 528 m -308 -307 d s 1620 528 m -281 -281 d s 1608 545 m -298 -298 d s 1580 545 m -53 -52 d s 1524 489 m -243 -242 d s 1551 545 m -24 -24 d s 1495 489 m -242 -242 d s
 1467 489 m -219 -217 d s 1438 489 m -190 -189 d s 1432 512 m -211 -210 d s 1403 512 m -210 -210 d s 1375 512 m -211 -210 d s 1155 293 m -1 -1 d s 1346 512 m -5 -5 d s 1318 485 m -192 -193 d s 1290 485 m -42 -42 d s 1235 430 m -138 -138 d s 1261 485
 m -13 -13 d s 1206 430 m -138 -138 d s 1177 430 m -115 -115 d s 1155 436 m -114 -114 d s 1130 440 m -118 -118 d s 1101 440 m -118 -118 d s 1072 440 m -10 -11 d s 1042 410 m -73 -73 d s 1014 410 m -71 -71 d s 985 410 m -16 -16 d s 968 393 m -54 -54 d
 s 940 393 m -55 -54 d s 911 393 m -49 -49 d s 882 393 m -49 -49 d s 849 388 m -45 -44 d s 820 388 m -41 -41 d s 791 388 m -41 -41 d s 760 385 m -39 -38 d s 731 385 m -38 -38 d s 702 385 m -32 -32 d s 667 379 m -26 -26 d s 639 379 m -26 -26 d s 610
 379 m -23 -23 d s 578 376 m -20 -20 d s 550 376 m -20 -20 d s 521 376 m -19 -18 d s 491 375 m -17 -17 d s 462 375 m -17 -17 d s 318 231 m s 433 375 m -17 -17 d s 318 259 m s 403 373 m -14 -14 d s 318 288 m s 375 373 m -15 -14 d s 318 317 m s 346 373
 m -14 -14 d s 318 345 m s 6 lw black[ 4 8] 0 sd 3 lw 318 447 m 1860 X s 318 285 m 1860 X s 1 0 0 c[  12 12 ] 0 sd 6 lw 318 366 m 1860 X s
 gr  gr showpage
end
%%EOF
