%!PS-Adobe-2.0 EPSF-2.0
%%BoundingBox:  0 0 567 521
%%Title: Distributions/jetPt_0__distrSR_MB-GGd_beforeFit_forThesis.eps: canvas
%%Creator: ROOT Version 6.04/16
%%CreationDate: Tue May 19 22:03:48 2020
%%DocumentNeededResources: ProcSet (FontSetInit)
%%EndComments
%%BeginProlog
80 dict begin
/s {stroke} def /l {lineto} def /m {moveto} def /t {translate} def
/r {rotate} def /rl {roll}  def /R {repeat} def
/d {rlineto} def /rm {rmoveto} def /gr {grestore} def /f {eofill} def
/c {setrgbcolor} def /black {0 setgray} def /sd {setdash} def
/cl {closepath} def /sf {scalefont setfont} def /lw {setlinewidth} def
/box {m dup 0 exch d exch 0 d 0 exch neg d cl} def
/NC{systemdict begin initclip end}def/C{NC box clip newpath}def
/bl {box s} def /bf {gsave box gsave f grestore 1 lw [] 0 sd s grestore} def /Y { 0 exch d} def /X { 0 d} def 
/K {{pop pop 0 moveto} exch kshow} bind def
/ita {/ang 15 def gsave [1 0 ang dup sin exch cos div 1 0 0] concat} def 
/mp {newpath /y exch def /x exch def} def
/side {[w .77 mul w .23 mul] .385 w mul sd w 0 l currentpoint t -144 r} def
/mr {mp x y w2 0 360 arc} def /m24 {mr s} def /m20 {mr f} def
/mb {mp x y w2 add m w2 neg 0 d 0 w neg d w 0 d 0 w d cl} def
/mt {mp x y w2 add m w2 neg w neg d w 0 d cl} def
/m21 {mb f} def /m25 {mb s} def /m22 {mt f} def /m26{mt s} def
/m23 {mp x y w2 sub m w2 w d w neg 0 d cl f} def
/m27 {mp x y w2 add m w3 neg w2 neg d w3 w2 neg d w3 w2 d cl s} def
/m28 {mp x w2 sub y w2 sub w3 add m w3 0 d  0 w3 neg d w3 0 d 0 w3 d w3 0 d  0 w3 d w3 neg 0 d 0 w3 d w3 neg 0 d 0 w3 neg d w3 neg 0 d cl s } def
/m29 {mp gsave x w2 sub y w2 add w3 sub m currentpoint t 4 {side} repeat cl fill gr} def
/m30 {mp gsave x w2 sub y w2 add w3 sub m currentpoint t 4 {side} repeat cl s gr} def
/m31 {mp x y w2 sub m 0 w d x w2 sub y m w 0 d x w2 sub y w2 add m w w neg d x w2 sub y w2 sub m w w d s} def
/m32 {mp x y w2 sub m w2 w d w neg 0 d cl s} def
/m33 {mp x y w2 add m w3 neg w2 neg d w3 w2 neg d w3 w2 d cl f} def
/m34 {mp x w2 sub y w2 sub w3 add m w3 0 d  0 w3 neg d w3 0 d 0 w3 d w3 0 d  0 w3 d w3 neg 0 d 0 w3 d w3 neg 0 d 0 w3 neg d w3 neg 0 d cl f } def
/m2 {mp x y w2 sub m 0 w d x w2 sub y m w 0 d s} def
/m5 {mp x w2 sub y w2 sub m w w d x w2 sub y w2 add m w w neg d s} def
%%IncludeResource: ProcSet (FontSetInit)
%%IncludeResource: font Times-Roman
%%IncludeResource: font Times-Italic
%%IncludeResource: font Times-Bold
%%IncludeResource: font Times-BoldItalic
%%IncludeResource: font Helvetica
%%IncludeResource: font Helvetica-Oblique
%%IncludeResource: font Helvetica-Bold
%%IncludeResource: font Helvetica-BoldOblique
%%IncludeResource: font Courier
%%IncludeResource: font Courier-Oblique
%%IncludeResource: font Courier-Bold
%%IncludeResource: font Courier-BoldOblique
%%IncludeResource: font Symbol
%%IncludeResource: font ZapfDingbats
/reEncode {exch findfont dup length dict begin {1 index /FID eq  {pop pop} {def} ifelse } forall /Encoding exch def currentdict end dup /FontName get exch definefont pop } def [/Times-Bold /Times-Italic /Times-BoldItalic /Helvetica /Helvetica-Oblique
 /Helvetica-Bold /Helvetica-BoldOblique /Courier /Courier-Oblique /Courier-Bold /Courier-BoldOblique /Times-Roman /AvantGarde-Book /AvantGarde-BookOblique /AvantGarde-Demi /AvantGarde-DemiOblique /Bookman-Demi /Bookman-DemiItalic /Bookman-Light
 /Bookman-LightItalic /Helvetica-Narrow /Helvetica-Narrow-Bold /Helvetica-Narrow-BoldOblique /Helvetica-Narrow-Oblique /NewCenturySchlbk-Roman /NewCenturySchlbk-Bold /NewCenturySchlbk-BoldItalic /NewCenturySchlbk-Italic /Palatino-Bold
 /Palatino-BoldItalic /Palatino-Italic /Palatino-Roman ] {ISOLatin1Encoding reEncode } forall
%%EndProlog
%%BeginSetup
%%EndSetup
newpath  gsave  .25 .25 scale  gsave  0 0 t black[  ] 0 sd 3 lw 1 1 1 c 2268 2085 0 0 bf black 1 1 1 c 2263 1770 2 313 bf black 1 1 1 c black 1860 1145 319 584 bl 1 1 1 c black 1860 1145 319 584 bl 6 lw 1 1 1 c black 3 lw /w 33 def /w2 {w 2 div} def
 /w3 {w 3 div} def 366 1208 m20 6 lw 3 lw 459 1103 m20 6 lw 3 lw 552 1010 m20 6 lw 645 913 m 2 Y s 3 lw 645 929 m20 6 lw 738 698 m 66 Y s 738 791 m 21 Y s 3 lw 738 777 m20 6 lw 831 748 m 42 Y s 831 817 m 16 Y s 3 lw 831 803 m20 6 lw 3 lw 319 584 m
 1860 X s
 gsave  2263 1770 2 313 C 1949.08 376.258 t 0 r /Helvetica findfont 81.3741 sf 0 0 m ( [GeV]) show NC gr 
 gsave  2263 1770 2 313 C 1915.19 332.192 t 0 r /Helvetica findfont 54.2494 sf 0 0 m (T) show NC gr 
 gsave  2263 1770 2 313 C 1630.45 376.258 t 0 r /Helvetica findfont 81.3741 sf 0 0 m (1st jet p) show NC gr  435 584 m cl s 482 584 m cl s 528 584 m cl s 575 584 m cl s 621 584 m cl s 668 584 m cl s 714 584 m cl s 761 584 m cl s 807 584 m cl s 854
 584 m cl s 900 584 m cl s 947 584 m cl s 993 584 m cl s 1040 584 m cl s 1087 584 m cl s 1133 584 m cl s 1180 584 m cl s 1226 584 m cl s 1273 584 m cl s 1319 584 m cl s 1366 584 m cl s 1412 584 m cl s 1459 584 m cl s 1505 584 m cl s 1552 584 m cl s
 1598 584 m cl s 1645 584 m cl s 1691 584 m cl s 1738 584 m cl s 1784 584 m cl s 1831 584 m cl s 1877 584 m cl s 1924 584 m cl s 1970 584 m cl s 2017 584 m cl s 2063 584 m cl s 435 584 m cl s 389 584 m cl s 342 584 m cl s 2063 584 m cl s 2110 584 m
 cl s 2156 584 m cl s 319 1729 m 1860 X s 435 1729 m cl s 482 1729 m cl s 528 1729 m cl s 575 1729 m cl s 621 1729 m cl s 668 1729 m cl s 714 1729 m cl s 761 1729 m cl s 807 1729 m cl s 854 1729 m cl s 900 1729 m cl s 947 1729 m cl s 993 1729 m cl s
 1040 1729 m cl s 1087 1729 m cl s 1133 1729 m cl s 1180 1729 m cl s 1226 1729 m cl s 1273 1729 m cl s 1319 1729 m cl s 1366 1729 m cl s 1412 1729 m cl s 1459 1729 m cl s 1505 1729 m cl s 1552 1729 m cl s 1598 1729 m cl s 1645 1729 m cl s 1691 1729 m
 cl s 1738 1729 m cl s 1784 1729 m cl s 1831 1729 m cl s 1877 1729 m cl s 1924 1729 m cl s 1970 1729 m cl s 2017 1729 m cl s 2063 1729 m cl s 435 1729 m cl s 389 1729 m cl s 342 1729 m cl s 2063 1729 m cl s 2110 1729 m cl s 2156 1729 m cl s 319 584 m
 1145 Y s
 gsave  2263 1770 2 313 C 166.096 1091.49 t 90 r /Helvetica findfont 81.3741 sf 0 0 m (Events / 200 GeV) show NC gr  341 629 m -22 X s 341 655 m -22 X s 341 674 m -22 X s 341 688 m -22 X s 341 700 m -22 X s 341 710 m -22 X s 341 718 m -22 X s 341 726
 m -22 X s 363 733 m -44 X s
 gsave  2263 1770 2 313 C 300.555 705.422 t 0 r  -36 0 t /Helvetica findfont 64.4212 sf 0 0 m (1) show NC gr  341 777 m -22 X s 341 803 m -22 X s 341 822 m -22 X s 341 836 m -22 X s 341 848 m -22 X s 341 858 m -22 X s 341 866 m -22 X s 341 874 m -22
 X s 363 881 m -44 X s
 gsave  2263 1770 2 313 C 300.555 853.652 t 0 r  -73 0 t /Helvetica findfont 64.4212 sf 0 0 m (10) show NC gr  341 925 m -22 X s 341 951 m -22 X s 341 970 m -22 X s 341 984 m -22 X s 341 996 m -22 X s 341 1006 m -22 X s 341 1015 m -22 X s 341 1022 m
 -22 X s 363 1029 m -44 X s
 gsave  2263 1770 2 313 C 274.567 1027.08 t 0 r /Helvetica findfont 44.0776 sf 0 0 m (2) show NC gr 
 gsave  2263 1770 2 313 C 203.383 999.965 t 0 r /Helvetica findfont 64.4212 sf 0 0 m (10) show NC gr  341 1074 m -22 X s 341 1100 m -22 X s 341 1118 m -22 X s 341 1133 m -22 X s 341 1144 m -22 X s 341 1154 m -22 X s 341 1163 m -22 X s 341 1170 m -22
 X s 363 1177 m -44 X s
 gsave  2263 1770 2 313 C 274.567 1179.62 t 0 r /Helvetica findfont 44.0776 sf 0 0 m (3) show NC gr 
 gsave  2263 1770 2 313 C 203.383 1149.11 t 0 r /Helvetica findfont 64.4212 sf 0 0 m (10) show NC gr  341 1222 m -22 X s 341 1248 m -22 X s 341 1266 m -22 X s 341 1281 m -22 X s 341 1293 m -22 X s 341 1302 m -22 X s 341 1311 m -22 X s 341 1319 m -22
 X s 363 1325 m -44 X s
 gsave  2263 1770 2 313 C 274.567 1325.38 t 0 r /Helvetica findfont 44.0776 sf 0 0 m (4) show NC gr 
 gsave  2263 1770 2 313 C 203.383 1298.26 t 0 r /Helvetica findfont 64.4212 sf 0 0 m (10) show NC gr  341 1370 m -22 X s 341 1396 m -22 X s 341 1415 m -22 X s 341 1429 m -22 X s 341 1441 m -22 X s 341 1451 m -22 X s 341 1459 m -22 X s 341 1467 m -22
 X s 363 1474 m -44 X s
 gsave  2263 1770 2 313 C 274.567 1474.52 t 0 r /Helvetica findfont 44.0776 sf 0 0 m (5) show NC gr 
 gsave  2263 1770 2 313 C 203.383 1444.02 t 0 r /Helvetica findfont 64.4212 sf 0 0 m (10) show NC gr  341 1518 m -22 X s 341 1544 m -22 X s 341 1563 m -22 X s 341 1577 m -22 X s 341 1589 m -22 X s 341 1599 m -22 X s 341 1608 m -22 X s 341 1615 m -22
 X s 363 1622 m -44 X s
 gsave  2263 1770 2 313 C 274.567 1623.67 t 0 r /Helvetica findfont 44.0776 sf 0 0 m (6) show NC gr 
 gsave  2263 1770 2 313 C 203.383 1593.16 t 0 r /Helvetica findfont 64.4212 sf 0 0 m (10) show NC gr  341 1667 m -22 X s 341 1693 m -22 X s 341 1711 m -22 X s 341 1726 m -22 X s 2179 584 m 1145 Y s 2157 629 m 22 X s 2157 655 m 22 X s 2157 674 m 22 X
 s 2157 688 m 22 X s 2157 700 m 22 X s 2157 710 m 22 X s 2157 718 m 22 X s 2157 726 m 22 X s 2136 733 m 43 X s 2157 777 m 22 X s 2157 803 m 22 X s 2157 822 m 22 X s 2157 836 m 22 X s 2157 848 m 22 X s 2157 858 m 22 X s 2157 866 m 22 X s 2157 874 m 22
 X s 2136 881 m 43 X s 2157 925 m 22 X s 2157 951 m 22 X s 2157 970 m 22 X s 2157 984 m 22 X s 2157 996 m 22 X s 2157 1006 m 22 X s 2157 1015 m 22 X s 2157 1022 m 22 X s 2136 1029 m 43 X s 2157 1074 m 22 X s 2157 1100 m 22 X s 2157 1118 m 22 X s 2157
 1133 m 22 X s 2157 1144 m 22 X s 2157 1154 m 22 X s 2157 1163 m 22 X s 2157 1170 m 22 X s 2136 1177 m 43 X s 2157 1222 m 22 X s 2157 1248 m 22 X s 2157 1266 m 22 X s 2157 1281 m 22 X s 2157 1293 m 22 X s 2157 1302 m 22 X s 2157 1311 m 22 X s 2157
 1319 m 22 X s 2136 1325 m 43 X s 2157 1370 m 22 X s 2157 1396 m 22 X s 2157 1415 m 22 X s 2157 1429 m 22 X s 2157 1441 m 22 X s 2157 1451 m 22 X s 2157 1459 m 22 X s 2157 1467 m 22 X s 2136 1474 m 43 X s 2157 1518 m 22 X s 2157 1544 m 22 X s 2157
 1563 m 22 X s 2157 1577 m 22 X s 2157 1589 m 22 X s 2157 1599 m 22 X s 2157 1608 m 22 X s 2157 1615 m 22 X s 2136 1622 m 43 X s 2157 1667 m 22 X s 2157 1693 m 22 X s 2157 1711 m 22 X s 2157 1726 m 22 X s 0.4 0.6 1 c black 0.4 0.6 1 c 319 584 m 629 Y
 93 X -103 Y 93 X -93 Y 93 X -83 Y 93 X -95 Y 93 X -72 Y 93 X -81 Y 93 X -102 Y 1209 X f black 0.4 0.6 1 c black 319 1213 m 93 X -103 Y 93 X -93 Y 93 X -83 Y 93 X -95 Y 93 X -72 Y 93 X -81 Y 93 X -102 Y 1209 X s 0.999 0.999 0.999 c black 0.999 0.999
 0.999 c 319 584 m 611 Y 93 X -102 Y 93 X -93 Y 93 X -80 Y 93 X -105 Y 93 X -65 Y 93 X -86 Y 93 X -80 Y 1209 X f black 0.999 0.999 0.999 c black 319 1195 m 93 X -102 Y 93 X -93 Y 93 X -80 Y 93 X -105 Y 93 X -65 Y 93 X -86 Y 93 X -80 Y 1209 X s 1 1 1
 c black 319 1195 m 93 X -102 Y 93 X -93 Y 93 X -80 Y 93 X -105 Y 93 X -65 Y 93 X -86 Y 93 X -80 Y 1209 X s 0.6 1 0.6 c black 0.6 1 0.6 c 319 584 m 611 Y 93 X -102 Y 93 X -93 Y 93 X -80 Y 93 X -105 Y 93 X -65 Y 93 X -86 Y 93 X -80 Y 1209 X f black
 0.6 1 0.6 c black 319 1195 m 93 X -102 Y 93 X -93 Y 93 X -80 Y 93 X -105 Y 93 X -65 Y 93 X -86 Y 93 X -80 Y 1209 X s 0.999 0.999 0.999 c black 0.999 0.999 0.999 c 319 584 m 583 Y 93 X -95 Y 93 X -86 Y 93 X -80 Y 93 X -99 Y 93 X -64 Y 93 X -85 Y 93 X
 -74 Y 1209 X f black 0.999 0.999 0.999 c black 319 1167 m 93 X -95 Y 93 X -86 Y 93 X -80 Y 93 X -99 Y 93 X -64 Y 93 X -85 Y 93 X -74 Y 1209 X s 1 1 1 c black 319 1167 m 93 X -95 Y 93 X -86 Y 93 X -80 Y 93 X -99 Y 93 X -64 Y 93 X -85 Y 93 X -74 Y
 1209 X s 1 0.8 0.4 c black 1 0.8 0.4 c 319 584 m 583 Y 93 X -95 Y 93 X -86 Y 93 X -80 Y 93 X -99 Y 93 X -64 Y 93 X -85 Y 93 X -74 Y 1209 X f black 1 0.8 0.4 c black 319 1167 m 93 X -95 Y 93 X -86 Y 93 X -80 Y 93 X -99 Y 93 X -64 Y 93 X -85 Y 93 X
 -74 Y 1209 X s 0.999 0.999 0.999 c black 0.999 0.999 0.999 c 319 584 m 441 Y 93 X -79 Y 93 X -84 Y 93 X -86 Y 93 X -75 Y 93 X -73 Y 93 X -44 Y 1302 X f black 0.999 0.999 0.999 c black 319 1025 m 93 X -79 Y 93 X -84 Y 93 X -86 Y 93 X -75 Y 93 X -73 Y
 93 X -44 Y 1302 X s 1 1 1 c black 319 1025 m 93 X -79 Y 93 X -84 Y 93 X -86 Y 93 X -75 Y 93 X -73 Y 93 X -44 Y 1302 X s 1 0.4 0.6 c black 1 0.4 0.6 c 319 584 m 441 Y 93 X -79 Y 93 X -84 Y 93 X -86 Y 93 X -75 Y 93 X -73 Y 93 X -44 Y 1302 X f black 1
 0.4 0.6 c black 319 1025 m 93 X -79 Y 93 X -84 Y 93 X -86 Y 93 X -75 Y 93 X -73 Y 93 X -44 Y 1302 X s 0.999 0.999 0.999 c black 0.999 0.999 0.999 c 319 584 m 175 Y 93 X -30 Y 93 X -27 Y 93 X -62 Y 93 X -30 Y 93 X -26 Y 1395 X f black 0.999 0.999
 0.999 c black 319 759 m 93 X -30 Y 93 X -27 Y 93 X -62 Y 93 X -30 Y 93 X -26 Y 1395 X s 1 1 1 c black 319 759 m 93 X -30 Y 93 X -27 Y 93 X -62 Y 93 X -30 Y 93 X -26 Y 1395 X s 0 0 0.4 c black 0 0 0.4 c 319 584 m 175 Y 93 X -30 Y 93 X -27 Y 93 X -62
 Y 93 X -30 Y 93 X -26 Y 1395 X f black 0 0 0.4 c black 319 759 m 93 X -30 Y 93 X -27 Y 93 X -62 Y 93 X -30 Y 93 X -26 Y 1395 X s 1 0 0 c 6 lw 1 1 1 c black 1 0 0 c 319 1213 m 93 X -103 Y 93 X -93 Y 93 X -83 Y 93 X -95 Y 93 X -72 Y 93 X -81 Y 93 X
 -102 Y 1209 X s black 3 lw 1 0 0 c 1 lw << /PatternType 1 /PaintType 2 /TilingType 1 /BBox [ 0 0 100 100 ] /XStep 100 /YStep 100 /PaintProc { begin gsave 0 100 m 100 0 l s gr end } >> [ 0.24 0 0 0.24 0 0 ] makepattern /P05 exch def /cs {[/Pattern
 /DeviceRGB] setcolorspace} def /FA {f [/DeviceRGB] setcolorspace} def cs 1 0 0 P05 setcolor 319 584 m 632 Y 93 X -103 Y 93 X -92 Y 93 X -80 Y 93 X -95 Y 93 X -69 Y 93 X -75 Y 93 X -104 Y 93 X -14 Y -93 X 82 Y -93 X 88 Y -93 X 77 Y -93 X 96 Y -93 X
 87 Y -93 X 92 Y -93 X 104 Y -93 X -626 Y FA 6 lw 1 1 1 c 15 lw 738 797 m 18 Y s 738 815 m cl s 738 757 m -46 Y s 738 711 m cl s 831 824 m 11 Y s 831 835 m cl s 831 783 m -30 Y s 831 753 m cl s black 1 1 1 c 3 lw /w 43 def /w2 {w 2 div} def /w3 {w 3
 div} def 366 1208 459 1103 552 1010 645 929 738 777 831 803 6 { m20} R 15 lw black 6 lw 1 1 1 c black 3 lw /w 33 def /w2 {w 2 div} def /w3 {w 3 div} def 366 1208 m20 6 lw 3 lw 459 1103 m20 6 lw 3 lw 552 1010 m20 6 lw 645 913 m 2 Y s 3 lw 645 929 m20
 6 lw 738 698 m 66 Y s 738 791 m 21 Y s 3 lw 738 777 m20 6 lw 831 748 m 42 Y s 831 817 m 16 Y s 3 lw 831 803 m20 6 lw 645 915 m -2 Y s 645 913 m cl s 738 791 m 24 Y s 738 815 m cl s 738 764 m -53 Y s 738 711 m cl s 831 817 m 18 Y s 831 835 m cl s 831
 790 m -37 Y s 831 753 m cl s 3 lw 366 1208 459 1103 552 1010 645 929 738 777 831 803 6 { m20} R 6 lw 3 lw 319 584 m 1860 X s 435 584 m cl s 482 584 m cl s 528 584 m cl s 575 584 m cl s 621 584 m cl s 668 584 m cl s 714 584 m cl s 761 584 m cl s 807
 584 m cl s 854 584 m cl s 900 584 m cl s 947 584 m cl s 993 584 m cl s 1040 584 m cl s 1087 584 m cl s 1133 584 m cl s 1180 584 m cl s 1226 584 m cl s 1273 584 m cl s 1319 584 m cl s 1366 584 m cl s 1412 584 m cl s 1459 584 m cl s 1505 584 m cl s
 1552 584 m cl s 1598 584 m cl s 1645 584 m cl s 1691 584 m cl s 1738 584 m cl s 1784 584 m cl s 1831 584 m cl s 1877 584 m cl s 1924 584 m cl s 1970 584 m cl s 2017 584 m cl s 2063 584 m cl s 435 584 m cl s 389 584 m cl s 342 584 m cl s 2063 584 m
 cl s 2110 584 m cl s 2156 584 m cl s 319 1729 m 1860 X s 435 1729 m cl s 482 1729 m cl s 528 1729 m cl s 575 1729 m cl s 621 1729 m cl s 668 1729 m cl s 714 1729 m cl s 761 1729 m cl s 807 1729 m cl s 854 1729 m cl s 900 1729 m cl s 947 1729 m cl s
 993 1729 m cl s 1040 1729 m cl s 1087 1729 m cl s 1133 1729 m cl s 1180 1729 m cl s 1226 1729 m cl s 1273 1729 m cl s 1319 1729 m cl s 1366 1729 m cl s 1412 1729 m cl s 1459 1729 m cl s 1505 1729 m cl s 1552 1729 m cl s 1598 1729 m cl s 1645 1729 m
 cl s 1691 1729 m cl s 1738 1729 m cl s 1784 1729 m cl s 1831 1729 m cl s 1877 1729 m cl s 1924 1729 m cl s 1970 1729 m cl s 2017 1729 m cl s 2063 1729 m cl s 435 1729 m cl s 389 1729 m cl s 342 1729 m cl s 2063 1729 m cl s 2110 1729 m cl s 2156 1729
 m cl s 319 584 m 1145 Y s 341 629 m -22 X s 341 655 m -22 X s 341 674 m -22 X s 341 688 m -22 X s 341 700 m -22 X s 341 710 m -22 X s 341 718 m -22 X s 341 726 m -22 X s 363 733 m -44 X s 341 777 m -22 X s 341 803 m -22 X s 341 822 m -22 X s 341 836
 m -22 X s 341 848 m -22 X s 341 858 m -22 X s 341 866 m -22 X s 341 874 m -22 X s 363 881 m -44 X s 341 925 m -22 X s 341 951 m -22 X s 341 970 m -22 X s 341 984 m -22 X s 341 996 m -22 X s 341 1006 m -22 X s 341 1015 m -22 X s 341 1022 m -22 X s
 363 1029 m -44 X s 341 1074 m -22 X s 341 1100 m -22 X s 341 1118 m -22 X s 341 1133 m -22 X s 341 1144 m -22 X s 341 1154 m -22 X s 341 1163 m -22 X s 341 1170 m -22 X s 363 1177 m -44 X s 341 1222 m -22 X s 341 1248 m -22 X s 341 1266 m -22 X s
 341 1281 m -22 X s 341 1293 m -22 X s 341 1302 m -22 X s 341 1311 m -22 X s 341 1319 m -22 X s 363 1325 m -44 X s 341 1370 m -22 X s 341 1396 m -22 X s 341 1415 m -22 X s 341 1429 m -22 X s 341 1441 m -22 X s 341 1451 m -22 X s 341 1459 m -22 X s
 341 1467 m -22 X s 363 1474 m -44 X s 341 1518 m -22 X s 341 1544 m -22 X s 341 1563 m -22 X s 341 1577 m -22 X s 341 1589 m -22 X s 341 1599 m -22 X s 341 1608 m -22 X s 341 1615 m -22 X s 363 1622 m -44 X s 341 1667 m -22 X s 341 1693 m -22 X s
 341 1711 m -22 X s 341 1726 m -22 X s 2179 584 m 1145 Y s 2157 629 m 22 X s 2157 655 m 22 X s 2157 674 m 22 X s 2157 688 m 22 X s 2157 700 m 22 X s 2157 710 m 22 X s 2157 718 m 22 X s 2157 726 m 22 X s 2136 733 m 43 X s 2157 777 m 22 X s 2157 803 m
 22 X s 2157 822 m 22 X s 2157 836 m 22 X s 2157 848 m 22 X s 2157 858 m 22 X s 2157 866 m 22 X s 2157 874 m 22 X s 2136 881 m 43 X s 2157 925 m 22 X s 2157 951 m 22 X s 2157 970 m 22 X s 2157 984 m 22 X s 2157 996 m 22 X s 2157 1006 m 22 X s 2157
 1015 m 22 X s 2157 1022 m 22 X s 2136 1029 m 43 X s 2157 1074 m 22 X s 2157 1100 m 22 X s 2157 1118 m 22 X s 2157 1133 m 22 X s 2157 1144 m 22 X s 2157 1154 m 22 X s 2157 1163 m 22 X s 2157 1170 m 22 X s 2136 1177 m 43 X s 2157 1222 m 22 X s 2157
 1248 m 22 X s 2157 1266 m 22 X s 2157 1281 m 22 X s 2157 1293 m 22 X s 2157 1302 m 22 X s 2157 1311 m 22 X s 2157 1319 m 22 X s 2136 1325 m 43 X s 2157 1370 m 22 X s 2157 1396 m 22 X s 2157 1415 m 22 X s 2157 1429 m 22 X s 2157 1441 m 22 X s 2157
 1451 m 22 X s 2157 1459 m 22 X s 2157 1467 m 22 X s 2136 1474 m 43 X s 2157 1518 m 22 X s 2157 1544 m 22 X s 2157 1563 m 22 X s 2157 1577 m 22 X s 2157 1589 m 22 X s 2157 1599 m 22 X s 2157 1608 m 22 X s 2157 1615 m 22 X s 2136 1622 m 43 X s 2157
 1667 m 22 X s 2157 1693 m 22 X s 2157 1711 m 22 X s 2157 1726 m 22 X s
 gsave  2263 1770 2 313 C 406.765 1447.41 t 0 r /Helvetica findfont 64.4212 sf 0 0 m (SR for MB\255GGd) show NC gr 
 gsave  2263 1770 2 313 C 1464.36 1630.45 t 0 r /Helvetica findfont 64.4212 sf 0 0 m (SM Total) show NC gr  1 1 1 c 1338 1616 m 107 X 64 Y -107 X f 1 0 0 c 6 lw 1338 1648 m 107 X s black
 gsave  2263 1770 2 313 C 1464.36 1538.93 t 0 r /Helvetica findfont 64.4212 sf 0 0 m (Data) show NC gr  1391 1529 m 55 Y s 3 lw 1391 1557 m20 6 lw
 gsave  2263 1770 2 313 C 1464.36 1447.41 t 0 r /Helvetica findfont 64.4212 sf 0 0 m (W+jets) show NC gr  0.4 0.6 1 c 3 lw 1338 1434 m 107 X 64 Y -107 X f 6 lw black 3 lw 1338 1498 m 107 X s 1338 1434 m 107 X s 1445 1434 m 64 Y s 1338 1434 m 64 Y s
 gsave  2263 1770 2 313 C 1498.25 1355.88 t 0 r /Helvetica findfont 64.4212 sf 0 0 m (\(+EW\) & single top) show NC gr 
 gsave  2263 1770 2 313 C 1481.3 1355.88 t 0 r /Helvetica findfont 64.4212 sf 0 0 m (t) show NC gr  1481 1407 m 17 X s
 gsave  2263 1770 2 313 C 1464.36 1355.88 t 0 r /Helvetica findfont 64.4212 sf 0 0 m (t) show NC gr  0.6 1 0.6 c 1338 1343 m 107 X 63 Y -107 X f black 1338 1406 m 107 X s 1338 1343 m 107 X s 1445 1343 m 63 Y s 1338 1343 m 63 Y s
 gsave  2263 1770 2 313 C 1464.36 1264.36 t 0 r /Helvetica findfont 64.4212 sf 0 0 m (Z+jets) show NC gr  1 0.8 0.4 c 1338 1252 m 107 X 63 Y -107 X f black 1338 1315 m 107 X s 1338 1252 m 107 X s 1445 1252 m 63 Y s 1338 1252 m 63 Y s
 gsave  2263 1770 2 313 C 1464.36 1172.84 t 0 r /Helvetica findfont 64.4212 sf 0 0 m (Diboson) show NC gr  1 0.4 0.6 c 1338 1161 m 107 X 63 Y -107 X f black 1338 1224 m 107 X s 1338 1161 m 107 X s 1445 1161 m 63 Y s 1338 1161 m 63 Y s
 gsave  2263 1770 2 313 C 1464.36 1081.32 t 0 r /Helvetica findfont 64.4212 sf 0 0 m (Multi\255jet) show NC gr  0 0 0.4 c 1338 1070 m 107 X 63 Y -107 X f black 1338 1133 m 107 X s 1338 1070 m 107 X s 1445 1070 m 63 Y s 1338 1070 m 63 Y s
 gsave  2263 1770 2 313 C 911.832 1566.05 t 0 r /Helvetica findfont 44.0776 sf 0 0 m (\2551) show NC gr 
 gsave  2263 1770 2 313 C 471.17 1535.54 t 0 r /Helvetica findfont 64.4212 sf 0 0 m (=13TeV, 139 fb) show NC gr 
 gsave  2263 1770 2 313 C 440.662 1535.54 t 0 r /Helvetica findfont 64.4212 sf 0 0 m (s) show NC gr  6 lw 420 1573 m 7 -41 d s 3 lw 427 1532 m 7 61 d s 434 1593 m 37 X s 1 1 1 c 2254 561 2 2 bf black 1 1 1 c black 1860 358 318 187 bl 1 1 1 c black
 1860 358 318 187 bl 6 lw 1 1 1 c black 3 lw 364 354 m20 6 lw 3 lw 457 351 m20 6 lw 3 lw 550 349 m20 6 lw 3 lw 643 352 m20 6 lw 3 lw 736 265 m20 6 lw 3 lw 829 490 m20 6 lw 3 lw 318 187 m 1860 X s
 gsave  2254 561 2 2 C 1959.25 44.0662 t 0 r /Helvetica findfont 78.1689 sf 0 0 m ( [GeV]) show NC gr 
 gsave  2254 561 2 2 C 1928.75 -2.35513e-13 t 0 r /Helvetica findfont 50.9797 sf 0 0 m (T) show NC gr 
 gsave  2254 561 2 2 C 1657.57 44.0662 t 0 r /Helvetica findfont 78.1689 sf 0 0 m (1st jet p) show NC gr  434 201 m -14 Y s 481 194 m -7 Y s 527 194 m -7 Y s 574 194 m -7 Y s 620 194 m -7 Y s 667 201 m -14 Y s 713 194 m -7 Y s 760 194 m -7 Y s 806
 194 m -7 Y s 853 194 m -7 Y s 899 201 m -14 Y s 946 194 m -7 Y s 992 194 m -7 Y s 1039 194 m -7 Y s 1085 194 m -7 Y s 1132 201 m -14 Y s 1178 194 m -7 Y s 1225 194 m -7 Y s 1271 194 m -7 Y s 1318 194 m -7 Y s 1364 201 m -14 Y s 1411 194 m -7 Y s
 1457 194 m -7 Y s 1504 194 m -7 Y s 1550 194 m -7 Y s 1597 201 m -14 Y s 1643 194 m -7 Y s 1690 194 m -7 Y s 1737 194 m -7 Y s 1783 194 m -7 Y s 1830 201 m -14 Y s 1876 194 m -7 Y s 1923 194 m -7 Y s 1969 194 m -7 Y s 2016 194 m -7 Y s 2062 201 m
 -14 Y s 434 201 m -14 Y s 388 194 m -7 Y s 341 194 m -7 Y s 2062 201 m -14 Y s 2109 194 m -7 Y s 2155 194 m -7 Y s
 gsave  2254 561 2 2 C 369.478 118.64 t 0 r /Helvetica findfont 78.1689 sf 0 0 m (500) show NC gr 
 gsave  2254 561 2 2 C 576.251 118.64 t 0 r /Helvetica findfont 78.1689 sf 0 0 m (1000) show NC gr 
 gsave  2254 561 2 2 C 810.141 118.64 t 0 r /Helvetica findfont 78.1689 sf 0 0 m (1500) show NC gr 
 gsave  2254 561 2 2 C 1040.64 118.64 t 0 r /Helvetica findfont 78.1689 sf 0 0 m (2000) show NC gr 
 gsave  2254 561 2 2 C 1274.53 118.64 t 0 r /Helvetica findfont 78.1689 sf 0 0 m (2500) show NC gr 
 gsave  2254 561 2 2 C 1508.42 118.64 t 0 r /Helvetica findfont 78.1689 sf 0 0 m (3000) show NC gr 
 gsave  2254 561 2 2 C 1738.92 118.64 t 0 r /Helvetica findfont 78.1689 sf 0 0 m (3500) show NC gr 
 gsave  2254 561 2 2 C 1972.81 118.64 t 0 r /Helvetica findfont 78.1689 sf 0 0 m (4000) show NC gr  318 545 m 1860 X s 434 531 m 14 Y s 481 538 m 7 Y s 527 538 m 7 Y s 574 538 m 7 Y s 620 538 m 7 Y s 667 531 m 14 Y s 713 538 m 7 Y s 760 538 m 7 Y s
 806 538 m 7 Y s 853 538 m 7 Y s 899 531 m 14 Y s 946 538 m 7 Y s 992 538 m 7 Y s 1039 538 m 7 Y s 1085 538 m 7 Y s 1132 531 m 14 Y s 1178 538 m 7 Y s 1225 538 m 7 Y s 1271 538 m 7 Y s 1318 538 m 7 Y s 1364 531 m 14 Y s 1411 538 m 7 Y s 1457 538 m 7
 Y s 1504 538 m 7 Y s 1550 538 m 7 Y s 1597 531 m 14 Y s 1643 538 m 7 Y s 1690 538 m 7 Y s 1737 538 m 7 Y s 1783 538 m 7 Y s 1830 531 m 14 Y s 1876 538 m 7 Y s 1923 538 m 7 Y s 1969 538 m 7 Y s 2016 538 m 7 Y s 2062 531 m 14 Y s 434 531 m 14 Y s 388
 538 m 7 Y s 341 538 m 7 Y s 2062 531 m 14 Y s 2109 538 m 7 Y s 2155 538 m 7 Y s 318 187 m 358 Y s
 gsave  2254 561 2 2 C 166.096 284.736 t 90 r /Helvetica findfont 67.9729 sf 0 0 m (Data/SM) show NC gr  361 203 m -43 X s 339 220 m -21 X s 339 236 m -21 X s 339 252 m -21 X s 339 268 m -21 X s 361 285 m -43 X s 339 301 m -21 X s 339 317 m -21 X s
 339 334 m -21 X s 339 350 m -21 X s 361 366 m -43 X s 339 382 m -21 X s 339 399 m -21 X s 339 415 m -21 X s 339 431 m -21 X s 361 447 m -43 X s 339 464 m -21 X s 339 480 m -21 X s 339 496 m -21 X s 339 512 m -21 X s 361 529 m -43 X s 361 203 m -43 X
 s 339 187 m -21 X s 361 529 m -43 X s
 gsave  2254 561 2 2 C 261.008 183.044 t 0 r /Helvetica findfont 57.777 sf 0 0 m (0) show NC gr 
 gsave  2254 561 2 2 C 213.552 261.008 t 0 r /Helvetica findfont 57.777 sf 0 0 m (0.5) show NC gr 
 gsave  2254 561 2 2 C 271.177 342.361 t 0 r /Helvetica findfont 57.777 sf 0 0 m (1) show NC gr 
 gsave  2254 561 2 2 C 213.552 423.714 t 0 r /Helvetica findfont 57.777 sf 0 0 m (1.5) show NC gr 
 gsave  2254 561 2 2 C 261.008 505.067 t 0 r /Helvetica findfont 57.777 sf 0 0 m (2) show NC gr  2178 187 m 358 Y s 2135 203 m 43 X s 2157 220 m 21 X s 2157 236 m 21 X s 2157 252 m 21 X s 2157 268 m 21 X s 2135 285 m 43 X s 2157 301 m 21 X s 2157 317
 m 21 X s 2157 334 m 21 X s 2157 350 m 21 X s 2135 366 m 43 X s 2157 382 m 21 X s 2157 399 m 21 X s 2157 415 m 21 X s 2157 431 m 21 X s 2135 447 m 43 X s 2157 464 m 21 X s 2157 480 m 21 X s 2157 496 m 21 X s 2157 512 m 21 X s 2135 529 m 43 X s 2135
 203 m 43 X s 2157 187 m 21 X s 2135 529 m 43 X s 9 lw 550 363 m 3 Y s 550 366 m cl s 550 336 m -3 Y s 550 333 m cl s 643 366 m 19 Y s 643 385 m cl s 643 339 m -19 Y s 643 320 m cl s 736 279 m 37 Y s 736 316 m cl s 736 252 m -27 Y s 736 225 m cl s
 829 504 m 41 Y s 829 545 m cl s 829 477 m -142 Y s 829 335 m cl s 3 lw 364 354 457 351 550 349 643 352 736 265 829 490 6 { m20} R 9 lw 1 0 0 c 6 lw black 3 lw 1 0 0 c 2155 203 m cl s 2127 203 m cl s 2098 203 m cl s 2069 203 m cl s 2040 203 m cl s
 2012 203 m cl s 1983 203 m cl s 1954 203 m cl s 1926 203 m cl s 1897 203 m cl s 1868 203 m cl s 1840 203 m cl s 1811 203 m cl s 1782 203 m cl s 1754 203 m cl s 1725 203 m cl s 1696 203 m cl s 1667 203 m cl s 1639 203 m cl s 1610 203 m cl s 1581 203
 m cl s 1553 203 m cl s 1524 203 m cl s 1495 203 m cl s 1467 203 m cl s 1438 203 m cl s 1434 228 m s 1434 257 m s 1434 285 m -21 -21 d s 1434 314 m -50 -50 d s 1341 221 m s 1323 203 m cl s 1434 343 m -78 -79 d s 1341 250 m s 1294 203 m cl s 1434 371
 m -93 -93 d s 1266 203 m cl s 1434 400 m -93 -93 d s 1248 214 m s 1434 428 m -93 -92 d s 1248 243 m s 1434 457 m -93 -93 d s 1248 272 m s 1416 468 m -75 -75 d s 1248 300 m -27 -27 d s 1387 468 m -46 -47 d s 1248 329 m -56 -56 d s 1359 468 m -18 -18
 d s 1248 357 m -85 -84 d s 1248 386 m -93 -93 d s 1248 415 m -97 -97 d s 1248 443 m -125 -125 d s 1236 459 m -142 -141 d s 1062 286 m s 1207 459 m -142 -141 d s 1062 315 m -29 -29 d s 1178 459 m -23 -23 d s 1133 414 m -129 -128 d s 1104 414 m -128
 -128 d s 1075 414 m -106 -106 d s 1062 429 m -108 -107 d s 1050 446 m -124 -124 d s 1022 446 m -125 -124 d s 993 446 m -24 -24 d s 957 410 m -81 -80 d s 928 410 m -73 -73 d s 900 410 m -74 -73 d s 856 395 m -59 -58 d s 827 395 m -48 -48 d s 798 395
 m -48 -48 d s 760 385 m -39 -38 d s 731 385 m -38 -38 d s 702 385 m -37 -37 d s 672 384 m -36 -36 d s 644 384 m -36 -36 d s 615 384 m -28 -28 d s 578 376 m -19 -20 d s 549 376 m -19 -20 d s 520 376 m -17 -18 d s 491 374 m -17 -16 d s 462 374 m -17
 -16 d s 318 231 m s 433 374 m -17 -16 d s 318 259 m s 404 374 m -16 -16 d s 318 288 m s 375 374 m -15 -16 d s 318 317 m s 347 374 m -16 -16 d s 318 345 m s 318 374 m s 6 lw black[ 4 8] 0 sd 3 lw 318 447 m 1860 X s 318 285 m 1860 X s 1 0 0 c[  12 12
 ] 0 sd 6 lw 318 366 m 1860 X s
 gr  gr showpage
end
%%EOF
