%!PS-Adobe-2.0 EPSF-2.0
%%BoundingBox:  0 0 567 521
%%Title: Distributions/jetPt_0__distrCRW_MB-GGd_beforeFit_forThesis.eps: canvas
%%Creator: ROOT Version 6.04/16
%%CreationDate: Tue May 19 22:02:48 2020
%%DocumentNeededResources: ProcSet (FontSetInit)
%%EndComments
%%BeginProlog
80 dict begin
/s {stroke} def /l {lineto} def /m {moveto} def /t {translate} def
/r {rotate} def /rl {roll}  def /R {repeat} def
/d {rlineto} def /rm {rmoveto} def /gr {grestore} def /f {eofill} def
/c {setrgbcolor} def /black {0 setgray} def /sd {setdash} def
/cl {closepath} def /sf {scalefont setfont} def /lw {setlinewidth} def
/box {m dup 0 exch d exch 0 d 0 exch neg d cl} def
/NC{systemdict begin initclip end}def/C{NC box clip newpath}def
/bl {box s} def /bf {gsave box gsave f grestore 1 lw [] 0 sd s grestore} def /Y { 0 exch d} def /X { 0 d} def 
/K {{pop pop 0 moveto} exch kshow} bind def
/ita {/ang 15 def gsave [1 0 ang dup sin exch cos div 1 0 0] concat} def 
/mp {newpath /y exch def /x exch def} def
/side {[w .77 mul w .23 mul] .385 w mul sd w 0 l currentpoint t -144 r} def
/mr {mp x y w2 0 360 arc} def /m24 {mr s} def /m20 {mr f} def
/mb {mp x y w2 add m w2 neg 0 d 0 w neg d w 0 d 0 w d cl} def
/mt {mp x y w2 add m w2 neg w neg d w 0 d cl} def
/m21 {mb f} def /m25 {mb s} def /m22 {mt f} def /m26{mt s} def
/m23 {mp x y w2 sub m w2 w d w neg 0 d cl f} def
/m27 {mp x y w2 add m w3 neg w2 neg d w3 w2 neg d w3 w2 d cl s} def
/m28 {mp x w2 sub y w2 sub w3 add m w3 0 d  0 w3 neg d w3 0 d 0 w3 d w3 0 d  0 w3 d w3 neg 0 d 0 w3 d w3 neg 0 d 0 w3 neg d w3 neg 0 d cl s } def
/m29 {mp gsave x w2 sub y w2 add w3 sub m currentpoint t 4 {side} repeat cl fill gr} def
/m30 {mp gsave x w2 sub y w2 add w3 sub m currentpoint t 4 {side} repeat cl s gr} def
/m31 {mp x y w2 sub m 0 w d x w2 sub y m w 0 d x w2 sub y w2 add m w w neg d x w2 sub y w2 sub m w w d s} def
/m32 {mp x y w2 sub m w2 w d w neg 0 d cl s} def
/m33 {mp x y w2 add m w3 neg w2 neg d w3 w2 neg d w3 w2 d cl f} def
/m34 {mp x w2 sub y w2 sub w3 add m w3 0 d  0 w3 neg d w3 0 d 0 w3 d w3 0 d  0 w3 d w3 neg 0 d 0 w3 d w3 neg 0 d 0 w3 neg d w3 neg 0 d cl f } def
/m2 {mp x y w2 sub m 0 w d x w2 sub y m w 0 d s} def
/m5 {mp x w2 sub y w2 sub m w w d x w2 sub y w2 add m w w neg d s} def
%%IncludeResource: ProcSet (FontSetInit)
%%IncludeResource: font Times-Roman
%%IncludeResource: font Times-Italic
%%IncludeResource: font Times-Bold
%%IncludeResource: font Times-BoldItalic
%%IncludeResource: font Helvetica
%%IncludeResource: font Helvetica-Oblique
%%IncludeResource: font Helvetica-Bold
%%IncludeResource: font Helvetica-BoldOblique
%%IncludeResource: font Courier
%%IncludeResource: font Courier-Oblique
%%IncludeResource: font Courier-Bold
%%IncludeResource: font Courier-BoldOblique
%%IncludeResource: font Symbol
%%IncludeResource: font ZapfDingbats
/reEncode {exch findfont dup length dict begin {1 index /FID eq  {pop pop} {def} ifelse } forall /Encoding exch def currentdict end dup /FontName get exch definefont pop } def [/Times-Bold /Times-Italic /Times-BoldItalic /Helvetica /Helvetica-Oblique
 /Helvetica-Bold /Helvetica-BoldOblique /Courier /Courier-Oblique /Courier-Bold /Courier-BoldOblique /Times-Roman /AvantGarde-Book /AvantGarde-BookOblique /AvantGarde-Demi /AvantGarde-DemiOblique /Bookman-Demi /Bookman-DemiItalic /Bookman-Light
 /Bookman-LightItalic /Helvetica-Narrow /Helvetica-Narrow-Bold /Helvetica-Narrow-BoldOblique /Helvetica-Narrow-Oblique /NewCenturySchlbk-Roman /NewCenturySchlbk-Bold /NewCenturySchlbk-BoldItalic /NewCenturySchlbk-Italic /Palatino-Bold
 /Palatino-BoldItalic /Palatino-Italic /Palatino-Roman ] {ISOLatin1Encoding reEncode } forall
%%EndProlog
%%BeginSetup
%%EndSetup
newpath  gsave  .25 .25 scale  gsave  0 0 t black[  ] 0 sd 3 lw 1 1 1 c 2268 2085 0 0 bf black 1 1 1 c 2263 1770 2 313 bf black 1 1 1 c black 1860 1145 319 584 bl 1 1 1 c black 1860 1145 319 584 bl 6 lw 1 1 1 c black 3 lw /w 33 def /w2 {w 2 div} def
 /w3 {w 3 div} def 366 1210 m20 6 lw 3 lw 459 1162 m20 6 lw 3 lw 552 1100 m20 6 lw 3 lw 645 1057 m20 6 lw 3 lw 738 1011 m20 6 lw 831 917 m 1 Y s 3 lw 831 932 m20 6 lw 924 875 m 7 Y s 924 909 m 2 Y s 3 lw 924 895 m20 6 lw 1017 747 m 41 Y s 1017 815 m
 16 Y s 3 lw 1017 802 m20 6 lw 1110 697 m 65 Y s 1110 789 m 21 Y s 3 lw 1110 776 m20 6 lw 1296 584 m 134 Y s 1296 745 m 31 Y s 3 lw 1296 731 m20 6 lw 1482 584 m 134 Y s 1482 745 m 31 Y s 3 lw 1482 731 m20 6 lw 3 lw 319 584 m 1860 X s
 gsave  2263 1770 2 313 C 1949.08 376.258 t 0 r /Helvetica findfont 81.3741 sf 0 0 m ( [GeV]) show NC gr 
 gsave  2263 1770 2 313 C 1915.19 332.192 t 0 r /Helvetica findfont 54.2494 sf 0 0 m (T) show NC gr 
 gsave  2263 1770 2 313 C 1630.45 376.258 t 0 r /Helvetica findfont 81.3741 sf 0 0 m (1st jet p) show NC gr  435 584 m cl s 482 584 m cl s 528 584 m cl s 575 584 m cl s 621 584 m cl s 668 584 m cl s 714 584 m cl s 761 584 m cl s 807 584 m cl s 854
 584 m cl s 900 584 m cl s 947 584 m cl s 993 584 m cl s 1040 584 m cl s 1087 584 m cl s 1133 584 m cl s 1180 584 m cl s 1226 584 m cl s 1273 584 m cl s 1319 584 m cl s 1366 584 m cl s 1412 584 m cl s 1459 584 m cl s 1505 584 m cl s 1552 584 m cl s
 1598 584 m cl s 1645 584 m cl s 1691 584 m cl s 1738 584 m cl s 1784 584 m cl s 1831 584 m cl s 1877 584 m cl s 1924 584 m cl s 1970 584 m cl s 2017 584 m cl s 2063 584 m cl s 435 584 m cl s 389 584 m cl s 342 584 m cl s 2063 584 m cl s 2110 584 m
 cl s 2156 584 m cl s 319 1729 m 1860 X s 435 1729 m cl s 482 1729 m cl s 528 1729 m cl s 575 1729 m cl s 621 1729 m cl s 668 1729 m cl s 714 1729 m cl s 761 1729 m cl s 807 1729 m cl s 854 1729 m cl s 900 1729 m cl s 947 1729 m cl s 993 1729 m cl s
 1040 1729 m cl s 1087 1729 m cl s 1133 1729 m cl s 1180 1729 m cl s 1226 1729 m cl s 1273 1729 m cl s 1319 1729 m cl s 1366 1729 m cl s 1412 1729 m cl s 1459 1729 m cl s 1505 1729 m cl s 1552 1729 m cl s 1598 1729 m cl s 1645 1729 m cl s 1691 1729 m
 cl s 1738 1729 m cl s 1784 1729 m cl s 1831 1729 m cl s 1877 1729 m cl s 1924 1729 m cl s 1970 1729 m cl s 2017 1729 m cl s 2063 1729 m cl s 435 1729 m cl s 389 1729 m cl s 342 1729 m cl s 2063 1729 m cl s 2110 1729 m cl s 2156 1729 m cl s 319 584 m
 1145 Y s
 gsave  2263 1770 2 313 C 166.096 1091.49 t 90 r /Helvetica findfont 81.3741 sf 0 0 m (Events / 200 GeV) show NC gr  341 629 m -22 X s 341 655 m -22 X s 341 673 m -22 X s 341 687 m -22 X s 341 699 m -22 X s 341 709 m -22 X s 341 717 m -22 X s 341 725
 m -22 X s 363 731 m -44 X s
 gsave  2263 1770 2 313 C 300.555 704.322 t 0 r  -36 0 t /Helvetica findfont 64.4212 sf 0 0 m (1) show NC gr  341 776 m -22 X s 341 802 m -22 X s 341 820 m -22 X s 341 834 m -22 X s 341 846 m -22 X s 341 856 m -22 X s 341 864 m -22 X s 341 872 m -22
 X s 363 879 m -44 X s
 gsave  2263 1770 2 313 C 300.555 851.452 t 0 r  -73 0 t /Helvetica findfont 64.4212 sf 0 0 m (10) show NC gr  341 923 m -22 X s 341 949 m -22 X s 341 967 m -22 X s 341 981 m -22 X s 341 993 m -22 X s 341 1003 m -22 X s 341 1011 m -22 X s 341 1019 m
 -22 X s 363 1026 m -44 X s
 gsave  2263 1770 2 313 C 274.567 1023.69 t 0 r /Helvetica findfont 44.0776 sf 0 0 m (2) show NC gr 
 gsave  2263 1770 2 313 C 203.383 996.575 t 0 r /Helvetica findfont 64.4212 sf 0 0 m (10) show NC gr  341 1070 m -22 X s 341 1096 m -22 X s 341 1114 m -22 X s 341 1129 m -22 X s 341 1140 m -22 X s 341 1150 m -22 X s 341 1159 m -22 X s 341 1166 m -22
 X s 363 1173 m -44 X s
 gsave  2263 1770 2 313 C 274.567 1172.84 t 0 r /Helvetica findfont 44.0776 sf 0 0 m (3) show NC gr 
 gsave  2263 1770 2 313 C 203.383 1142.33 t 0 r /Helvetica findfont 64.4212 sf 0 0 m (10) show NC gr  341 1217 m -22 X s 341 1243 m -22 X s 341 1261 m -22 X s 341 1276 m -22 X s 341 1287 m -22 X s 341 1297 m -22 X s 341 1306 m -22 X s 341 1313 m -22
 X s 363 1320 m -44 X s
 gsave  2263 1770 2 313 C 274.567 1318.6 t 0 r /Helvetica findfont 44.0776 sf 0 0 m (4) show NC gr 
 gsave  2263 1770 2 313 C 203.383 1291.48 t 0 r /Helvetica findfont 64.4212 sf 0 0 m (10) show NC gr  341 1364 m -22 X s 341 1390 m -22 X s 341 1409 m -22 X s 341 1423 m -22 X s 341 1434 m -22 X s 341 1444 m -22 X s 341 1453 m -22 X s 341 1460 m -22
 X s 363 1467 m -44 X s
 gsave  2263 1770 2 313 C 274.567 1467.74 t 0 r /Helvetica findfont 44.0776 sf 0 0 m (5) show NC gr 
 gsave  2263 1770 2 313 C 203.383 1437.24 t 0 r /Helvetica findfont 64.4212 sf 0 0 m (10) show NC gr  341 1511 m -22 X s 341 1537 m -22 X s 341 1556 m -22 X s 341 1570 m -22 X s 341 1582 m -22 X s 341 1591 m -22 X s 341 1600 m -22 X s 341 1607 m -22
 X s 363 1614 m -44 X s
 gsave  2263 1770 2 313 C 274.567 1616.89 t 0 r /Helvetica findfont 44.0776 sf 0 0 m (6) show NC gr 
 gsave  2263 1770 2 313 C 203.383 1586.38 t 0 r /Helvetica findfont 64.4212 sf 0 0 m (10) show NC gr  341 1659 m -22 X s 341 1684 m -22 X s 341 1703 m -22 X s 341 1717 m -22 X s 2179 584 m 1145 Y s 2157 629 m 22 X s 2157 655 m 22 X s 2157 673 m 22 X
 s 2157 687 m 22 X s 2157 699 m 22 X s 2157 709 m 22 X s 2157 717 m 22 X s 2157 725 m 22 X s 2136 731 m 43 X s 2157 776 m 22 X s 2157 802 m 22 X s 2157 820 m 22 X s 2157 834 m 22 X s 2157 846 m 22 X s 2157 856 m 22 X s 2157 864 m 22 X s 2157 872 m 22
 X s 2136 879 m 43 X s 2157 923 m 22 X s 2157 949 m 22 X s 2157 967 m 22 X s 2157 981 m 22 X s 2157 993 m 22 X s 2157 1003 m 22 X s 2157 1011 m 22 X s 2157 1019 m 22 X s 2136 1026 m 43 X s 2157 1070 m 22 X s 2157 1096 m 22 X s 2157 1114 m 22 X s 2157
 1129 m 22 X s 2157 1140 m 22 X s 2157 1150 m 22 X s 2157 1159 m 22 X s 2157 1166 m 22 X s 2136 1173 m 43 X s 2157 1217 m 22 X s 2157 1243 m 22 X s 2157 1261 m 22 X s 2157 1276 m 22 X s 2157 1287 m 22 X s 2157 1297 m 22 X s 2157 1306 m 22 X s 2157
 1313 m 22 X s 2136 1320 m 43 X s 2157 1364 m 22 X s 2157 1390 m 22 X s 2157 1409 m 22 X s 2157 1423 m 22 X s 2157 1434 m 22 X s 2157 1444 m 22 X s 2157 1453 m 22 X s 2157 1460 m 22 X s 2136 1467 m 43 X s 2157 1511 m 22 X s 2157 1537 m 22 X s 2157
 1556 m 22 X s 2157 1570 m 22 X s 2157 1582 m 22 X s 2157 1591 m 22 X s 2157 1600 m 22 X s 2157 1607 m 22 X s 2136 1614 m 43 X s 2157 1659 m 22 X s 2157 1684 m 22 X s 2157 1703 m 22 X s 2157 1717 m 22 X s 0.4 0.6 1 c black 0.4 0.6 1 c 319 584 m 633 Y
 93 X -48 Y 93 X -51 Y 93 X -49 Y 93 X -52 Y 93 X -53 Y 93 X -51 Y 93 X -60 Y 93 X -2 Y 93 X -88 Y 93 X 11 Y 93 X -142 Y 93 X -48 Y 744 X f black 0.4 0.6 1 c black 319 1217 m 93 X -48 Y 93 X -51 Y 93 X -49 Y 93 X -52 Y 93 X -53 Y 93 X -51 Y 93 X -60
 Y 93 X -2 Y 93 X -88 Y 93 X 11 Y 93 X -142 Y 93 X -48 Y 744 X s 0.999 0.999 0.999 c black 0.999 0.999 0.999 c 319 584 m 533 Y 93 X -50 Y 93 X -51 Y 93 X -43 Y 93 X -54 Y 93 X -48 Y 93 X -62 Y 93 X -40 Y 93 X -26 Y 93 X -97 Y 93 X -62 Y 930 X f black
 0.999 0.999 0.999 c black 319 1117 m 93 X -50 Y 93 X -51 Y 93 X -43 Y 93 X -54 Y 93 X -48 Y 93 X -62 Y 93 X -40 Y 93 X -26 Y 93 X -97 Y 93 X -62 Y 930 X s 1 1 1 c black 319 1117 m 93 X -50 Y 93 X -51 Y 93 X -43 Y 93 X -54 Y 93 X -48 Y 93 X -62 Y 93
 X -40 Y 93 X -26 Y 93 X -97 Y 93 X -62 Y 930 X s 0.6 1 0.6 c black 0.6 1 0.6 c 319 584 m 533 Y 93 X -50 Y 93 X -51 Y 93 X -43 Y 93 X -54 Y 93 X -48 Y 93 X -62 Y 93 X -40 Y 93 X -26 Y 93 X -97 Y 93 X -62 Y 930 X f black 0.6 1 0.6 c black 319 1117 m
 93 X -50 Y 93 X -51 Y 93 X -43 Y 93 X -54 Y 93 X -48 Y 93 X -62 Y 93 X -40 Y 93 X -26 Y 93 X -97 Y 93 X -62 Y 930 X s 0.999 0.999 0.999 c black 0.999 0.999 0.999 c 319 584 m 456 Y 93 X -40 Y 93 X -52 Y 93 X -42 Y 93 X -56 Y 93 X -54 Y 93 X -72 Y 93
 X -37 Y 93 X 17 Y 93 X -120 Y 1023 X f black 0.999 0.999 0.999 c black 319 1040 m 93 X -40 Y 93 X -52 Y 93 X -42 Y 93 X -56 Y 93 X -54 Y 93 X -72 Y 93 X -37 Y 93 X 17 Y 93 X -120 Y 1023 X s 1 1 1 c black 319 1040 m 93 X -40 Y 93 X -52 Y 93 X -42 Y
 93 X -56 Y 93 X -54 Y 93 X -72 Y 93 X -37 Y 93 X 17 Y 93 X -120 Y 1023 X s 1 0.8 0.4 c black 1 0.8 0.4 c 319 584 m 456 Y 93 X -40 Y 93 X -52 Y 93 X -42 Y 93 X -56 Y 93 X -54 Y 93 X -72 Y 93 X -37 Y 93 X 17 Y 93 X -120 Y 1023 X f black 1 0.8 0.4 c
 black 319 1040 m 93 X -40 Y 93 X -52 Y 93 X -42 Y 93 X -56 Y 93 X -54 Y 93 X -72 Y 93 X -37 Y 93 X 17 Y 93 X -120 Y 1023 X s 0.999 0.999 0.999 c black 0.999 0.999 0.999 c 319 584 m 449 Y 93 X -40 Y 93 X -53 Y 93 X -40 Y 93 X -57 Y 93 X -53 Y 93 X
 -72 Y 93 X -34 Y 93 X -47 Y 93 X -53 Y 1023 X f black 0.999 0.999 0.999 c black 319 1033 m 93 X -40 Y 93 X -53 Y 93 X -40 Y 93 X -57 Y 93 X -53 Y 93 X -72 Y 93 X -34 Y 93 X -47 Y 93 X -53 Y 1023 X s 1 1 1 c black 319 1033 m 93 X -40 Y 93 X -53 Y 93
 X -40 Y 93 X -57 Y 93 X -53 Y 93 X -72 Y 93 X -34 Y 93 X -47 Y 93 X -53 Y 1023 X s 1 0.4 0.6 c black 1 0.4 0.6 c 319 584 m 449 Y 93 X -40 Y 93 X -53 Y 93 X -40 Y 93 X -57 Y 93 X -53 Y 93 X -72 Y 93 X -34 Y 93 X -47 Y 93 X -53 Y 1023 X f black 1 0.4
 0.6 c black 319 1033 m 93 X -40 Y 93 X -53 Y 93 X -40 Y 93 X -57 Y 93 X -53 Y 93 X -72 Y 93 X -34 Y 93 X -47 Y 93 X -53 Y 1023 X s 1 0 0 c 6 lw 1 1 1 c black 1 0 0 c 319 1217 m 93 X -48 Y 93 X -51 Y 93 X -49 Y 93 X -52 Y 93 X -53 Y 93 X -51 Y 93 X
 -60 Y 93 X -2 Y 93 X -88 Y 93 X 11 Y 93 X -142 Y 93 X -48 Y 744 X s black 3 lw 1 0 0 c 1 lw << /PatternType 1 /PaintType 2 /TilingType 1 /BBox [ 0 0 100 100 ] /XStep 100 /YStep 100 /PaintProc { begin gsave 0 100 m 100 0 l s gr end } >> [ 0.24 0 0
 0.24 0 0 ] makepattern /P05 exch def /cs {[/Pattern /DeviceRGB] setcolorspace} def /FA {f [/DeviceRGB] setcolorspace} def cs 1 0 0 P05 setcolor 319 584 m 634 Y 93 X -48 Y 93 X -51 Y 93 X -47 Y 93 X -51 Y 93 X -53 Y 93 X -48 Y 93 X -58 Y 93 X 6 Y 93
 X -86 Y 93 X 17 Y 93 X -137 Y 93 X -71 Y 93 X -7 Y -186 X 151 Y -186 X 93 Y -93 X 16 Y -93 X 61 Y -93 X 54 Y -93 X 55 Y -93 X 53 Y -93 X 49 Y -93 X 52 Y -93 X 48 Y -93 X -632 Y FA 6 lw 1 1 1 c 15 lw 1017 822 m 11 Y s 1017 833 m cl s 1017 781 m -29 Y
 s 1017 752 m cl s 1110 796 m 18 Y s 1110 814 m cl s 1110 755 m -45 Y s 1110 710 m cl s 1296 752 m 32 Y s 1296 784 m cl s 1296 711 m -91 Y s 1296 620 m cl s 1482 752 m 32 Y s 1482 784 m cl s 1482 711 m -91 Y s 1482 620 m cl s black 1 1 1 c 3 lw /w 43
 def /w2 {w 2 div} def /w3 {w 3 div} def 366 1210 459 1162 552 1100 645 1057 738 1011 831 932 924 895 1017 802 1110 776 9 { m20} R 15 lw 3 lw 1296 731 m20 15 lw 3 lw 1482 731 m20 15 lw black 6 lw 1 1 1 c black 3 lw /w 33 def /w2 {w 2 div} def /w3 {w
 3 div} def 366 1210 m20 6 lw 3 lw 459 1162 m20 6 lw 3 lw 552 1100 m20 6 lw 3 lw 645 1057 m20 6 lw 3 lw 738 1011 m20 6 lw 831 917 m 1 Y s 3 lw 831 932 m20 6 lw 924 875 m 7 Y s 924 909 m 2 Y s 3 lw 924 895 m20 6 lw 1017 747 m 41 Y s 1017 815 m 16 Y s
 3 lw 1017 802 m20 6 lw 1110 697 m 65 Y s 1110 789 m 21 Y s 3 lw 1110 776 m20 6 lw 1296 584 m 134 Y s 1296 745 m 31 Y s 3 lw 1296 731 m20 6 lw 1482 584 m 134 Y s 1482 745 m 31 Y s 3 lw 1482 731 m20 6 lw 831 918 m -1 Y s 831 917 m cl s 924 909 m 2 Y s
 924 911 m cl s 924 882 m -7 Y s 924 875 m cl s 1017 815 m 18 Y s 1017 833 m cl s 1017 788 m -36 Y s 1017 752 m cl s 1110 789 m 25 Y s 1110 814 m cl s 1110 762 m -52 Y s 1110 710 m cl s 1296 745 m 39 Y s 1296 784 m cl s 1296 718 m -98 Y s 1296 620 m
 cl s 1482 745 m 39 Y s 1482 784 m cl s 1482 718 m -98 Y s 1482 620 m cl s 3 lw 366 1210 459 1162 552 1100 645 1057 738 1011 831 932 924 895 1017 802 1110 776 9 { m20} R 6 lw 3 lw 1296 731 m20 6 lw 3 lw 1482 731 m20 6 lw 3 lw 319 584 m 1860 X s 435
 584 m cl s 482 584 m cl s 528 584 m cl s 575 584 m cl s 621 584 m cl s 668 584 m cl s 714 584 m cl s 761 584 m cl s 807 584 m cl s 854 584 m cl s 900 584 m cl s 947 584 m cl s 993 584 m cl s 1040 584 m cl s 1087 584 m cl s 1133 584 m cl s 1180 584 m
 cl s 1226 584 m cl s 1273 584 m cl s 1319 584 m cl s 1366 584 m cl s 1412 584 m cl s 1459 584 m cl s 1505 584 m cl s 1552 584 m cl s 1598 584 m cl s 1645 584 m cl s 1691 584 m cl s 1738 584 m cl s 1784 584 m cl s 1831 584 m cl s 1877 584 m cl s 1924
 584 m cl s 1970 584 m cl s 2017 584 m cl s 2063 584 m cl s 435 584 m cl s 389 584 m cl s 342 584 m cl s 2063 584 m cl s 2110 584 m cl s 2156 584 m cl s 319 1729 m 1860 X s 435 1729 m cl s 482 1729 m cl s 528 1729 m cl s 575 1729 m cl s 621 1729 m cl
 s 668 1729 m cl s 714 1729 m cl s 761 1729 m cl s 807 1729 m cl s 854 1729 m cl s 900 1729 m cl s 947 1729 m cl s 993 1729 m cl s 1040 1729 m cl s 1087 1729 m cl s 1133 1729 m cl s 1180 1729 m cl s 1226 1729 m cl s 1273 1729 m cl s 1319 1729 m cl s
 1366 1729 m cl s 1412 1729 m cl s 1459 1729 m cl s 1505 1729 m cl s 1552 1729 m cl s 1598 1729 m cl s 1645 1729 m cl s 1691 1729 m cl s 1738 1729 m cl s 1784 1729 m cl s 1831 1729 m cl s 1877 1729 m cl s 1924 1729 m cl s 1970 1729 m cl s 2017 1729 m
 cl s 2063 1729 m cl s 435 1729 m cl s 389 1729 m cl s 342 1729 m cl s 2063 1729 m cl s 2110 1729 m cl s 2156 1729 m cl s 319 584 m 1145 Y s 341 629 m -22 X s 341 655 m -22 X s 341 673 m -22 X s 341 687 m -22 X s 341 699 m -22 X s 341 709 m -22 X s
 341 717 m -22 X s 341 725 m -22 X s 363 731 m -44 X s 341 776 m -22 X s 341 802 m -22 X s 341 820 m -22 X s 341 834 m -22 X s 341 846 m -22 X s 341 856 m -22 X s 341 864 m -22 X s 341 872 m -22 X s 363 879 m -44 X s 341 923 m -22 X s 341 949 m -22 X
 s 341 967 m -22 X s 341 981 m -22 X s 341 993 m -22 X s 341 1003 m -22 X s 341 1011 m -22 X s 341 1019 m -22 X s 363 1026 m -44 X s 341 1070 m -22 X s 341 1096 m -22 X s 341 1114 m -22 X s 341 1129 m -22 X s 341 1140 m -22 X s 341 1150 m -22 X s 341
 1159 m -22 X s 341 1166 m -22 X s 363 1173 m -44 X s 341 1217 m -22 X s 341 1243 m -22 X s 341 1261 m -22 X s 341 1276 m -22 X s 341 1287 m -22 X s 341 1297 m -22 X s 341 1306 m -22 X s 341 1313 m -22 X s 363 1320 m -44 X s 341 1364 m -22 X s 341
 1390 m -22 X s 341 1409 m -22 X s 341 1423 m -22 X s 341 1434 m -22 X s 341 1444 m -22 X s 341 1453 m -22 X s 341 1460 m -22 X s 363 1467 m -44 X s 341 1511 m -22 X s 341 1537 m -22 X s 341 1556 m -22 X s 341 1570 m -22 X s 341 1582 m -22 X s 341
 1591 m -22 X s 341 1600 m -22 X s 341 1607 m -22 X s 363 1614 m -44 X s 341 1659 m -22 X s 341 1684 m -22 X s 341 1703 m -22 X s 341 1717 m -22 X s 2179 584 m 1145 Y s 2157 629 m 22 X s 2157 655 m 22 X s 2157 673 m 22 X s 2157 687 m 22 X s 2157 699
 m 22 X s 2157 709 m 22 X s 2157 717 m 22 X s 2157 725 m 22 X s 2136 731 m 43 X s 2157 776 m 22 X s 2157 802 m 22 X s 2157 820 m 22 X s 2157 834 m 22 X s 2157 846 m 22 X s 2157 856 m 22 X s 2157 864 m 22 X s 2157 872 m 22 X s 2136 879 m 43 X s 2157
 923 m 22 X s 2157 949 m 22 X s 2157 967 m 22 X s 2157 981 m 22 X s 2157 993 m 22 X s 2157 1003 m 22 X s 2157 1011 m 22 X s 2157 1019 m 22 X s 2136 1026 m 43 X s 2157 1070 m 22 X s 2157 1096 m 22 X s 2157 1114 m 22 X s 2157 1129 m 22 X s 2157 1140 m
 22 X s 2157 1150 m 22 X s 2157 1159 m 22 X s 2157 1166 m 22 X s 2136 1173 m 43 X s 2157 1217 m 22 X s 2157 1243 m 22 X s 2157 1261 m 22 X s 2157 1276 m 22 X s 2157 1287 m 22 X s 2157 1297 m 22 X s 2157 1306 m 22 X s 2157 1313 m 22 X s 2136 1320 m 43
 X s 2157 1364 m 22 X s 2157 1390 m 22 X s 2157 1409 m 22 X s 2157 1423 m 22 X s 2157 1434 m 22 X s 2157 1444 m 22 X s 2157 1453 m 22 X s 2157 1460 m 22 X s 2136 1467 m 43 X s 2157 1511 m 22 X s 2157 1537 m 22 X s 2157 1556 m 22 X s 2157 1570 m 22 X
 s 2157 1582 m 22 X s 2157 1591 m 22 X s 2157 1600 m 22 X s 2157 1607 m 22 X s 2136 1614 m 43 X s 2157 1659 m 22 X s 2157 1684 m 22 X s 2157 1703 m 22 X s 2157 1717 m 22 X s
 gsave  2263 1770 2 313 C 406.765 1447.41 t 0 r /Helvetica findfont 64.4212 sf 0 0 m (CRW for MB\255GGd) show NC gr 
 gsave  2263 1770 2 313 C 1464.36 1616.89 t 0 r /Helvetica findfont 64.4212 sf 0 0 m (SM Total) show NC gr  1 1 1 c 1338 1603 m 107 X 74 Y -107 X f 1 0 0 c 6 lw 1338 1640 m 107 X s black
 gsave  2263 1770 2 313 C 1464.36 1511.81 t 0 r /Helvetica findfont 64.4212 sf 0 0 m (Data) show NC gr  1391 1502 m 64 Y s 3 lw 1391 1534 m20 6 lw
 gsave  2263 1770 2 313 C 1464.36 1406.73 t 0 r /Helvetica findfont 64.4212 sf 0 0 m (W+jets) show NC gr  0.4 0.6 1 c 3 lw 1338 1391 m 107 X 74 Y -107 X f 6 lw black 3 lw 1338 1465 m 107 X s 1338 1391 m 107 X s 1445 1391 m 74 Y s 1338 1391 m 74 Y s
 gsave  2263 1770 2 313 C 1498.25 1298.26 t 0 r /Helvetica findfont 64.4212 sf 0 0 m (\(+EW\) & single top) show NC gr 
 gsave  2263 1770 2 313 C 1481.3 1298.26 t 0 r /Helvetica findfont 64.4212 sf 0 0 m (t) show NC gr  1481 1349 m 17 X s
 gsave  2263 1770 2 313 C 1464.36 1298.26 t 0 r /Helvetica findfont 64.4212 sf 0 0 m (t) show NC gr  0.6 1 0.6 c 1338 1284 m 107 X 75 Y -107 X f black 1338 1359 m 107 X s 1338 1284 m 107 X s 1445 1284 m 75 Y s 1338 1284 m 75 Y s
 gsave  2263 1770 2 313 C 1464.36 1193.18 t 0 r /Helvetica findfont 64.4212 sf 0 0 m (Z+jets) show NC gr  1 0.8 0.4 c 1338 1178 m 107 X 75 Y -107 X f black 1338 1253 m 107 X s 1338 1178 m 107 X s 1445 1178 m 75 Y s 1338 1178 m 75 Y s
 gsave  2263 1770 2 313 C 1464.36 1088.1 t 0 r /Helvetica findfont 64.4212 sf 0 0 m (Diboson) show NC gr  1 0.4 0.6 c 1338 1072 m 107 X 74 Y -107 X f black 1338 1146 m 107 X s 1338 1072 m 107 X s 1445 1072 m 74 Y s 1338 1072 m 74 Y s
 gsave  2263 1770 2 313 C 911.832 1566.05 t 0 r /Helvetica findfont 44.0776 sf 0 0 m (\2551) show NC gr 
 gsave  2263 1770 2 313 C 471.17 1535.54 t 0 r /Helvetica findfont 64.4212 sf 0 0 m (=13TeV, 139 fb) show NC gr 
 gsave  2263 1770 2 313 C 440.662 1535.54 t 0 r /Helvetica findfont 64.4212 sf 0 0 m (s) show NC gr  6 lw 420 1573 m 7 -41 d s 3 lw 427 1532 m 7 61 d s 434 1593 m 37 X s 1 1 1 c 2254 561 2 2 bf black 1 1 1 c black 1860 358 318 187 bl 1 1 1 c black
 1860 358 318 187 bl 6 lw 1 1 1 c black 3 lw 364 349 m20 6 lw 3 lw 457 350 m20 6 lw 3 lw 550 328 m20 6 lw 3 lw 643 338 m20 6 lw 3 lw 736 352 m20 6 lw 3 lw 829 302 m20 6 lw 3 lw 923 327 m20 6 lw 3 lw 1016 276 m20 6 lw 3 lw 1109 254 m20 6 lw 3 lw 1295
 287 m20 6 lw 3 lw 318 187 m 1860 X s
 gsave  2254 561 2 2 C 1959.25 44.0662 t 0 r /Helvetica findfont 78.1689 sf 0 0 m ( [GeV]) show NC gr 
 gsave  2254 561 2 2 C 1928.75 -2.35513e-13 t 0 r /Helvetica findfont 50.9797 sf 0 0 m (T) show NC gr 
 gsave  2254 561 2 2 C 1657.57 44.0662 t 0 r /Helvetica findfont 78.1689 sf 0 0 m (1st jet p) show NC gr  434 201 m -14 Y s 481 194 m -7 Y s 527 194 m -7 Y s 574 194 m -7 Y s 620 194 m -7 Y s 667 201 m -14 Y s 713 194 m -7 Y s 760 194 m -7 Y s 806
 194 m -7 Y s 853 194 m -7 Y s 899 201 m -14 Y s 946 194 m -7 Y s 992 194 m -7 Y s 1039 194 m -7 Y s 1085 194 m -7 Y s 1132 201 m -14 Y s 1178 194 m -7 Y s 1225 194 m -7 Y s 1271 194 m -7 Y s 1318 194 m -7 Y s 1364 201 m -14 Y s 1411 194 m -7 Y s
 1457 194 m -7 Y s 1504 194 m -7 Y s 1550 194 m -7 Y s 1597 201 m -14 Y s 1643 194 m -7 Y s 1690 194 m -7 Y s 1737 194 m -7 Y s 1783 194 m -7 Y s 1830 201 m -14 Y s 1876 194 m -7 Y s 1923 194 m -7 Y s 1969 194 m -7 Y s 2016 194 m -7 Y s 2062 201 m
 -14 Y s 434 201 m -14 Y s 388 194 m -7 Y s 341 194 m -7 Y s 2062 201 m -14 Y s 2109 194 m -7 Y s 2155 194 m -7 Y s
 gsave  2254 561 2 2 C 369.478 118.64 t 0 r /Helvetica findfont 78.1689 sf 0 0 m (500) show NC gr 
 gsave  2254 561 2 2 C 576.251 118.64 t 0 r /Helvetica findfont 78.1689 sf 0 0 m (1000) show NC gr 
 gsave  2254 561 2 2 C 810.141 118.64 t 0 r /Helvetica findfont 78.1689 sf 0 0 m (1500) show NC gr 
 gsave  2254 561 2 2 C 1040.64 118.64 t 0 r /Helvetica findfont 78.1689 sf 0 0 m (2000) show NC gr 
 gsave  2254 561 2 2 C 1274.53 118.64 t 0 r /Helvetica findfont 78.1689 sf 0 0 m (2500) show NC gr 
 gsave  2254 561 2 2 C 1508.42 118.64 t 0 r /Helvetica findfont 78.1689 sf 0 0 m (3000) show NC gr 
 gsave  2254 561 2 2 C 1738.92 118.64 t 0 r /Helvetica findfont 78.1689 sf 0 0 m (3500) show NC gr 
 gsave  2254 561 2 2 C 1972.81 118.64 t 0 r /Helvetica findfont 78.1689 sf 0 0 m (4000) show NC gr  318 545 m 1860 X s 434 531 m 14 Y s 481 538 m 7 Y s 527 538 m 7 Y s 574 538 m 7 Y s 620 538 m 7 Y s 667 531 m 14 Y s 713 538 m 7 Y s 760 538 m 7 Y s
 806 538 m 7 Y s 853 538 m 7 Y s 899 531 m 14 Y s 946 538 m 7 Y s 992 538 m 7 Y s 1039 538 m 7 Y s 1085 538 m 7 Y s 1132 531 m 14 Y s 1178 538 m 7 Y s 1225 538 m 7 Y s 1271 538 m 7 Y s 1318 538 m 7 Y s 1364 531 m 14 Y s 1411 538 m 7 Y s 1457 538 m 7
 Y s 1504 538 m 7 Y s 1550 538 m 7 Y s 1597 531 m 14 Y s 1643 538 m 7 Y s 1690 538 m 7 Y s 1737 538 m 7 Y s 1783 538 m 7 Y s 1830 531 m 14 Y s 1876 538 m 7 Y s 1923 538 m 7 Y s 1969 538 m 7 Y s 2016 538 m 7 Y s 2062 531 m 14 Y s 434 531 m 14 Y s 388
 538 m 7 Y s 341 538 m 7 Y s 2062 531 m 14 Y s 2109 538 m 7 Y s 2155 538 m 7 Y s 318 187 m 358 Y s
 gsave  2254 561 2 2 C 166.096 284.736 t 90 r /Helvetica findfont 67.9729 sf 0 0 m (Data/SM) show NC gr  361 203 m -43 X s 339 220 m -21 X s 339 236 m -21 X s 339 252 m -21 X s 339 268 m -21 X s 361 285 m -43 X s 339 301 m -21 X s 339 317 m -21 X s
 339 334 m -21 X s 339 350 m -21 X s 361 366 m -43 X s 339 382 m -21 X s 339 399 m -21 X s 339 415 m -21 X s 339 431 m -21 X s 361 447 m -43 X s 339 464 m -21 X s 339 480 m -21 X s 339 496 m -21 X s 339 512 m -21 X s 361 529 m -43 X s 361 203 m -43 X
 s 339 187 m -21 X s 361 529 m -43 X s
 gsave  2254 561 2 2 C 261.008 183.044 t 0 r /Helvetica findfont 57.777 sf 0 0 m (0) show NC gr 
 gsave  2254 561 2 2 C 213.552 261.008 t 0 r /Helvetica findfont 57.777 sf 0 0 m (0.5) show NC gr 
 gsave  2254 561 2 2 C 271.177 342.361 t 0 r /Helvetica findfont 57.777 sf 0 0 m (1) show NC gr 
 gsave  2254 561 2 2 C 213.552 423.714 t 0 r /Helvetica findfont 57.777 sf 0 0 m (1.5) show NC gr 
 gsave  2254 561 2 2 C 261.008 505.067 t 0 r /Helvetica findfont 57.777 sf 0 0 m (2) show NC gr  2178 187 m 358 Y s 2135 203 m 43 X s 2157 220 m 21 X s 2157 236 m 21 X s 2157 252 m 21 X s 2157 268 m 21 X s 2135 285 m 43 X s 2157 301 m 21 X s 2157 317
 m 21 X s 2157 334 m 21 X s 2157 350 m 21 X s 2135 366 m 43 X s 2157 382 m 21 X s 2157 399 m 21 X s 2157 415 m 21 X s 2157 431 m 21 X s 2135 447 m 43 X s 2157 464 m 21 X s 2157 480 m 21 X s 2157 496 m 21 X s 2157 512 m 21 X s 2135 529 m 43 X s 2135
 203 m 43 X s 2157 187 m 21 X s 2135 529 m 43 X s 9 lw 736 365 m 3 Y s 736 368 m cl s 736 338 m -3 Y s 736 335 m cl s 829 315 m 8 Y s 829 323 m cl s 829 288 m -6 Y s 829 282 m cl s 923 340 m 22 Y s 923 362 m cl s 923 313 m -20 Y s 923 293 m cl s 1016
 289 m 33 Y s 1016 322 m cl s 1016 262 m -25 Y s 1016 237 m cl s 1109 267 m 27 Y s 1109 294 m cl s 1109 240 m -19 Y s 1109 221 m cl s 1295 300 m 94 Y s 1295 394 m cl s 1295 273 m -55 Y s 1295 218 m cl s 3 lw 364 349 457 350 550 328 643 338 736 352
 829 302 923 327 1016 276 1109 254 9 { m20} R 9 lw 3 lw 1295 287 m20 9 lw 1 0 0 c 6 lw black 3 lw 1 0 0 c 2178 198 m -2 -3 d s 2178 227 m -31 -32 d s 2178 255 m -60 -60 d s 2178 284 m -88 -89 d s 2178 312 m -117 -117 d s 2178 341 m -146 -146 d s 2178
 369 m -175 -174 d s 2178 398 m -186 -185 d s 1983 203 m cl s 2178 427 m -186 -186 d s 1954 203 m cl s 2178 455 m -186 -185 d s 1926 203 m cl s 2178 484 m -186 -186 d s 1899 206 m -10 -11 d s 2178 512 m -186 -185 d s 1899 234 m -39 -39 d s 2174 537 m
 -182 -181 d s 1899 263 m -68 -68 d s 2146 537 m -154 -153 d s 1899 291 m -96 -96 d s 2117 537 m -125 -124 d s 1899 320 m -125 -125 d s 2088 537 m -96 -96 d s 1899 349 m -154 -154 d s 2059 537 m -67 -67 d s 1899 377 m -182 -182 d s 2031 537 m -39 -38
 d s 1899 406 m -186 -186 d s 1696 203 m cl s 2002 537 m -10 -10 d s 1899 434 m -186 -185 d s 1667 203 m cl s 1899 463 m -186 -185 d s 1639 203 m cl s 1899 492 m -186 -186 d s 1620 214 m s 1899 520 m -186 -185 d s 1620 242 m s 1887 537 m -174 -174 d
 s 1620 271 m -6 -6 d s 1859 537 m -146 -145 d s 1620 299 m -35 -34 d s 1830 537 m -117 -116 d s 1620 328 m -63 -63 d s 1801 537 m -88 -88 d s 1620 356 m -92 -91 d s 1773 537 m -60 -59 d s 1620 385 m -94 -94 d s 1744 537 m -31 -31 d s 1620 414 m -123
 -123 d s 1715 537 m -2 -2 d s 1620 442 m -152 -151 d s 1617 468 m -177 -177 d s 1434 285 m -14 -13 d s 1588 468 m -196 -196 d s 1560 468 m -197 -196 d s 1531 468 m -4 -4 d s 1504 441 m -163 -163 d s 1476 441 m -151 -150 d s 1447 441 m -151 -150 d s
 1434 457 m -166 -166 d s 1409 461 m -161 -161 d s 1380 461 m -151 -152 d s 1352 461 m -11 -11 d s 1332 441 m -132 -132 d s 1304 441 m -133 -132 d s 1275 441 m -125 -124 d s 1228 423 m -106 -106 d s 1199 423 m -106 -106 d s 1170 423 m -106 -106 d s
 1134 415 m -72 -72 d s 1105 415 m -71 -71 d s 1076 415 m -14 -14 d s 1050 388 m -45 -44 d s 1021 388 m -45 -44 d s 992 388 m -41 -41 d s 960 385 m -38 -38 d s 931 385 m -37 -38 d s 903 385 m -31 -31 d s 867 378 m -23 -24 d s 838 378 m -23 -24 d s
 809 378 m -23 -24 d s 778 375 m -18 -18 d s 749 375 m -17 -18 d s 720 375 m -17 -18 d s 692 375 m -2 -2 d s 689 372 m -12 -12 d s 660 372 m -12 -12 d s 632 372 m -12 -12 d s 603 372 m -10 -10 d s 572 370 m -8 -8 d s 544 370 m -9 -8 d s 515 370 m -8
 -8 d s 484 368 m -3 -4 d s 455 368 m -3 -4 d s 318 231 m s 426 368 m -3 -4 d s 318 259 m s 398 368 m -4 -4 d s 318 288 m s 370 368 m -5 -4 d s 318 317 m s 341 368 m -4 -4 d s 318 345 m s 6 lw black[ 4 8] 0 sd 3 lw 318 447 m 1860 X s 318 285 m 1860 X
 s 1 0 0 c[  12 12 ] 0 sd 6 lw 318 366 m 1860 X s
 gr  gr showpage
end
%%EOF
