%!PS-Adobe-2.0 EPSF-2.0
%%BoundingBox:  0 0 567 521
%%Title: Distributions/jetPt_0__distrCRY_MB-GGd_afterFit_forThesis.eps: canvas
%%Creator: ROOT Version 6.04/16
%%CreationDate: Tue May 19 22:03:03 2020
%%DocumentNeededResources: ProcSet (FontSetInit)
%%EndComments
%%BeginProlog
80 dict begin
/s {stroke} def /l {lineto} def /m {moveto} def /t {translate} def
/r {rotate} def /rl {roll}  def /R {repeat} def
/d {rlineto} def /rm {rmoveto} def /gr {grestore} def /f {eofill} def
/c {setrgbcolor} def /black {0 setgray} def /sd {setdash} def
/cl {closepath} def /sf {scalefont setfont} def /lw {setlinewidth} def
/box {m dup 0 exch d exch 0 d 0 exch neg d cl} def
/NC{systemdict begin initclip end}def/C{NC box clip newpath}def
/bl {box s} def /bf {gsave box gsave f grestore 1 lw [] 0 sd s grestore} def /Y { 0 exch d} def /X { 0 d} def 
/K {{pop pop 0 moveto} exch kshow} bind def
/ita {/ang 15 def gsave [1 0 ang dup sin exch cos div 1 0 0] concat} def 
/mp {newpath /y exch def /x exch def} def
/side {[w .77 mul w .23 mul] .385 w mul sd w 0 l currentpoint t -144 r} def
/mr {mp x y w2 0 360 arc} def /m24 {mr s} def /m20 {mr f} def
/mb {mp x y w2 add m w2 neg 0 d 0 w neg d w 0 d 0 w d cl} def
/mt {mp x y w2 add m w2 neg w neg d w 0 d cl} def
/m21 {mb f} def /m25 {mb s} def /m22 {mt f} def /m26{mt s} def
/m23 {mp x y w2 sub m w2 w d w neg 0 d cl f} def
/m27 {mp x y w2 add m w3 neg w2 neg d w3 w2 neg d w3 w2 d cl s} def
/m28 {mp x w2 sub y w2 sub w3 add m w3 0 d  0 w3 neg d w3 0 d 0 w3 d w3 0 d  0 w3 d w3 neg 0 d 0 w3 d w3 neg 0 d 0 w3 neg d w3 neg 0 d cl s } def
/m29 {mp gsave x w2 sub y w2 add w3 sub m currentpoint t 4 {side} repeat cl fill gr} def
/m30 {mp gsave x w2 sub y w2 add w3 sub m currentpoint t 4 {side} repeat cl s gr} def
/m31 {mp x y w2 sub m 0 w d x w2 sub y m w 0 d x w2 sub y w2 add m w w neg d x w2 sub y w2 sub m w w d s} def
/m32 {mp x y w2 sub m w2 w d w neg 0 d cl s} def
/m33 {mp x y w2 add m w3 neg w2 neg d w3 w2 neg d w3 w2 d cl f} def
/m34 {mp x w2 sub y w2 sub w3 add m w3 0 d  0 w3 neg d w3 0 d 0 w3 d w3 0 d  0 w3 d w3 neg 0 d 0 w3 d w3 neg 0 d 0 w3 neg d w3 neg 0 d cl f } def
/m2 {mp x y w2 sub m 0 w d x w2 sub y m w 0 d s} def
/m5 {mp x w2 sub y w2 sub m w w d x w2 sub y w2 add m w w neg d s} def
%%IncludeResource: ProcSet (FontSetInit)
%%IncludeResource: font Times-Roman
%%IncludeResource: font Times-Italic
%%IncludeResource: font Times-Bold
%%IncludeResource: font Times-BoldItalic
%%IncludeResource: font Helvetica
%%IncludeResource: font Helvetica-Oblique
%%IncludeResource: font Helvetica-Bold
%%IncludeResource: font Helvetica-BoldOblique
%%IncludeResource: font Courier
%%IncludeResource: font Courier-Oblique
%%IncludeResource: font Courier-Bold
%%IncludeResource: font Courier-BoldOblique
%%IncludeResource: font Symbol
%%IncludeResource: font ZapfDingbats
/reEncode {exch findfont dup length dict begin {1 index /FID eq  {pop pop} {def} ifelse } forall /Encoding exch def currentdict end dup /FontName get exch definefont pop } def [/Times-Bold /Times-Italic /Times-BoldItalic /Helvetica /Helvetica-Oblique
 /Helvetica-Bold /Helvetica-BoldOblique /Courier /Courier-Oblique /Courier-Bold /Courier-BoldOblique /Times-Roman /AvantGarde-Book /AvantGarde-BookOblique /AvantGarde-Demi /AvantGarde-DemiOblique /Bookman-Demi /Bookman-DemiItalic /Bookman-Light
 /Bookman-LightItalic /Helvetica-Narrow /Helvetica-Narrow-Bold /Helvetica-Narrow-BoldOblique /Helvetica-Narrow-Oblique /NewCenturySchlbk-Roman /NewCenturySchlbk-Bold /NewCenturySchlbk-BoldItalic /NewCenturySchlbk-Italic /Palatino-Bold
 /Palatino-BoldItalic /Palatino-Italic /Palatino-Roman ] {ISOLatin1Encoding reEncode } forall
%%EndProlog
%%BeginSetup
%%EndSetup
newpath  gsave  .25 .25 scale  gsave  0 0 t black[  ] 0 sd 3 lw 1 1 1 c 2268 2085 0 0 bf black 1 1 1 c 2263 1770 2 313 bf black 1 1 1 c black 1860 1145 319 584 bl 1 1 1 c black 1860 1145 319 584 bl 6 lw 1 1 1 c black 3 lw /w 33 def /w2 {w 2 div} def
 /w3 {w 3 div} def 366 1237 m20 6 lw 3 lw 459 1162 m20 6 lw 3 lw 552 1086 m20 6 lw 3 lw 645 1027 m20 6 lw 3 lw 738 962 m20 6 lw 831 863 m 7 Y s 831 897 m 1 Y s 3 lw 831 883 m20 6 lw 924 768 m 29 Y s 924 824 m 12 Y s 3 lw 924 811 m20 6 lw 1017 788 m
 23 Y s 1017 838 m 9 Y s 3 lw 1017 825 m20 6 lw 3 lw 319 584 m 1860 X s
 gsave  2263 1770 2 313 C 1949.08 376.258 t 0 r /Helvetica findfont 81.3741 sf 0 0 m ( [GeV]) show NC gr 
 gsave  2263 1770 2 313 C 1915.19 332.192 t 0 r /Helvetica findfont 54.2494 sf 0 0 m (T) show NC gr 
 gsave  2263 1770 2 313 C 1630.45 376.258 t 0 r /Helvetica findfont 81.3741 sf 0 0 m (1st jet p) show NC gr  435 584 m cl s 482 584 m cl s 528 584 m cl s 575 584 m cl s 621 584 m cl s 668 584 m cl s 714 584 m cl s 761 584 m cl s 807 584 m cl s 854
 584 m cl s 900 584 m cl s 947 584 m cl s 993 584 m cl s 1040 584 m cl s 1087 584 m cl s 1133 584 m cl s 1180 584 m cl s 1226 584 m cl s 1273 584 m cl s 1319 584 m cl s 1366 584 m cl s 1412 584 m cl s 1459 584 m cl s 1505 584 m cl s 1552 584 m cl s
 1598 584 m cl s 1645 584 m cl s 1691 584 m cl s 1738 584 m cl s 1784 584 m cl s 1831 584 m cl s 1877 584 m cl s 1924 584 m cl s 1970 584 m cl s 2017 584 m cl s 2063 584 m cl s 435 584 m cl s 389 584 m cl s 342 584 m cl s 2063 584 m cl s 2110 584 m
 cl s 2156 584 m cl s 319 1729 m 1860 X s 435 1729 m cl s 482 1729 m cl s 528 1729 m cl s 575 1729 m cl s 621 1729 m cl s 668 1729 m cl s 714 1729 m cl s 761 1729 m cl s 807 1729 m cl s 854 1729 m cl s 900 1729 m cl s 947 1729 m cl s 993 1729 m cl s
 1040 1729 m cl s 1087 1729 m cl s 1133 1729 m cl s 1180 1729 m cl s 1226 1729 m cl s 1273 1729 m cl s 1319 1729 m cl s 1366 1729 m cl s 1412 1729 m cl s 1459 1729 m cl s 1505 1729 m cl s 1552 1729 m cl s 1598 1729 m cl s 1645 1729 m cl s 1691 1729 m
 cl s 1738 1729 m cl s 1784 1729 m cl s 1831 1729 m cl s 1877 1729 m cl s 1924 1729 m cl s 1970 1729 m cl s 2017 1729 m cl s 2063 1729 m cl s 435 1729 m cl s 389 1729 m cl s 342 1729 m cl s 2063 1729 m cl s 2110 1729 m cl s 2156 1729 m cl s 319 584 m
 1145 Y s
 gsave  2263 1770 2 313 C 166.096 1091.49 t 90 r /Helvetica findfont 81.3741 sf 0 0 m (Events / 200 GeV) show NC gr  341 627 m -22 X s 341 652 m -22 X s 341 669 m -22 X s 341 683 m -22 X s 341 694 m -22 X s 341 704 m -22 X s 341 712 m -22 X s 341 719
 m -22 X s 363 726 m -44 X s
 gsave  2263 1770 2 313 C 300.555 698.634 t 0 r  -36 0 t /Helvetica findfont 64.4212 sf 0 0 m (1) show NC gr  341 768 m -22 X s 341 793 m -22 X s 341 811 m -22 X s 341 825 m -22 X s 341 836 m -22 X s 341 845 m -22 X s 341 853 m -22 X s 341 861 m -22
 X s 363 867 m -44 X s
 gsave  2263 1770 2 313 C 300.555 840.077 t 0 r  -73 0 t /Helvetica findfont 64.4212 sf 0 0 m (10) show NC gr  341 910 m -22 X s 341 935 m -22 X s 341 952 m -22 X s 341 966 m -22 X s 341 977 m -22 X s 341 987 m -22 X s 341 995 m -22 X s 341 1002 m
 -22 X s 363 1009 m -44 X s
 gsave  2263 1770 2 313 C 274.567 1006.74 t 0 r /Helvetica findfont 44.0776 sf 0 0 m (2) show NC gr 
 gsave  2263 1770 2 313 C 203.383 979.626 t 0 r /Helvetica findfont 64.4212 sf 0 0 m (10) show NC gr  341 1051 m -22 X s 341 1076 m -22 X s 341 1094 m -22 X s 341 1108 m -22 X s 341 1119 m -22 X s 341 1128 m -22 X s 341 1136 m -22 X s 341 1144 m -22
 X s 363 1150 m -44 X s
 gsave  2263 1770 2 313 C 274.567 1152.5 t 0 r /Helvetica findfont 44.0776 sf 0 0 m (3) show NC gr 
 gsave  2263 1770 2 313 C 203.383 1121.99 t 0 r /Helvetica findfont 64.4212 sf 0 0 m (10) show NC gr  341 1193 m -22 X s 341 1218 m -22 X s 341 1235 m -22 X s 341 1249 m -22 X s 341 1260 m -22 X s 341 1270 m -22 X s 341 1278 m -22 X s 341 1285 m -22
 X s 363 1292 m -44 X s
 gsave  2263 1770 2 313 C 274.567 1291.48 t 0 r /Helvetica findfont 44.0776 sf 0 0 m (4) show NC gr 
 gsave  2263 1770 2 313 C 203.383 1264.36 t 0 r /Helvetica findfont 64.4212 sf 0 0 m (10) show NC gr  341 1334 m -22 X s 341 1359 m -22 X s 341 1377 m -22 X s 341 1390 m -22 X s 341 1402 m -22 X s 341 1411 m -22 X s 341 1419 m -22 X s 341 1426 m -22
 X s 363 1433 m -44 X s
 gsave  2263 1770 2 313 C 274.567 1433.85 t 0 r /Helvetica findfont 44.0776 sf 0 0 m (5) show NC gr 
 gsave  2263 1770 2 313 C 203.383 1403.34 t 0 r /Helvetica findfont 64.4212 sf 0 0 m (10) show NC gr  341 1476 m -22 X s 341 1500 m -22 X s 341 1518 m -22 X s 341 1532 m -22 X s 341 1543 m -22 X s 341 1552 m -22 X s 341 1561 m -22 X s 341 1568 m -22
 X s 363 1574 m -44 X s
 gsave  2263 1770 2 313 C 274.567 1576.22 t 0 r /Helvetica findfont 44.0776 sf 0 0 m (6) show NC gr 
 gsave  2263 1770 2 313 C 203.383 1545.71 t 0 r /Helvetica findfont 64.4212 sf 0 0 m (10) show NC gr  341 1617 m -22 X s 341 1642 m -22 X s 341 1660 m -22 X s 341 1673 m -22 X s 341 1684 m -22 X s 341 1694 m -22 X s 341 1702 m -22 X s 341 1709 m -22
 X s 363 1716 m -44 X s
 gsave  2263 1770 2 313 C 274.567 1715.19 t 0 r /Helvetica findfont 44.0776 sf 0 0 m (7) show NC gr 
 gsave  2263 1770 2 313 C 203.383 1688.08 t 0 r /Helvetica findfont 64.4212 sf 0 0 m (10) show NC gr  2179 584 m 1145 Y s 2157 627 m 22 X s 2157 652 m 22 X s 2157 669 m 22 X s 2157 683 m 22 X s 2157 694 m 22 X s 2157 704 m 22 X s 2157 712 m 22 X s
 2157 719 m 22 X s 2136 726 m 43 X s 2157 768 m 22 X s 2157 793 m 22 X s 2157 811 m 22 X s 2157 825 m 22 X s 2157 836 m 22 X s 2157 845 m 22 X s 2157 853 m 22 X s 2157 861 m 22 X s 2136 867 m 43 X s 2157 910 m 22 X s 2157 935 m 22 X s 2157 952 m 22 X
 s 2157 966 m 22 X s 2157 977 m 22 X s 2157 987 m 22 X s 2157 995 m 22 X s 2157 1002 m 22 X s 2136 1009 m 43 X s 2157 1051 m 22 X s 2157 1076 m 22 X s 2157 1094 m 22 X s 2157 1108 m 22 X s 2157 1119 m 22 X s 2157 1128 m 22 X s 2157 1136 m 22 X s 2157
 1144 m 22 X s 2136 1150 m 43 X s 2157 1193 m 22 X s 2157 1218 m 22 X s 2157 1235 m 22 X s 2157 1249 m 22 X s 2157 1260 m 22 X s 2157 1270 m 22 X s 2157 1278 m 22 X s 2157 1285 m 22 X s 2136 1292 m 43 X s 2157 1334 m 22 X s 2157 1359 m 22 X s 2157
 1377 m 22 X s 2157 1390 m 22 X s 2157 1402 m 22 X s 2157 1411 m 22 X s 2157 1419 m 22 X s 2157 1426 m 22 X s 2136 1433 m 43 X s 2157 1476 m 22 X s 2157 1500 m 22 X s 2157 1518 m 22 X s 2157 1532 m 22 X s 2157 1543 m 22 X s 2157 1552 m 22 X s 2157
 1561 m 22 X s 2157 1568 m 22 X s 2136 1574 m 43 X s 2157 1617 m 22 X s 2157 1642 m 22 X s 2157 1660 m 22 X s 2157 1673 m 22 X s 2157 1684 m 22 X s 2157 1694 m 22 X s 2157 1702 m 22 X s 2157 1709 m 22 X s 2136 1716 m 43 X s 1 1 0 c black 1 1 0 c 319
 584 m 651 Y 93 X -71 Y 93 X -70 Y 93 X -67 Y 93 X -63 Y 93 X -65 Y 93 X -61 Y 93 X -68 Y 93 X -56 Y 93 X -32 Y 93 X -19 Y 93 X -63 Y 93 X -16 Y 744 X f black 1 1 0 c black 319 1235 m 93 X -71 Y 93 X -70 Y 93 X -67 Y 93 X -63 Y 93 X -65 Y 93 X -61 Y
 93 X -68 Y 93 X -56 Y 93 X -32 Y 93 X -19 Y 93 X -63 Y 93 X -16 Y 744 X s 0.999 0.999 0.999 c black 0.999 0.999 0.999 c 319 584 m 395 Y 93 X -95 Y 93 X -52 Y 93 X -106 Y 93 X -36 Y 93 X -106 Y 1395 X f black 0.999 0.999 0.999 c black 319 979 m 93 X
 -95 Y 93 X -52 Y 93 X -106 Y 93 X -36 Y 93 X -106 Y 1395 X s 1 1 1 c black 319 979 m 93 X -95 Y 93 X -52 Y 93 X -106 Y 93 X -36 Y 93 X -106 Y 1395 X s 0.4 0.6 1 c black 0.4 0.6 1 c 319 584 m 395 Y 93 X -95 Y 93 X -52 Y 93 X -106 Y 93 X -36 Y 93 X
 -106 Y 1395 X f black 0.4 0.6 1 c black 319 979 m 93 X -95 Y 93 X -52 Y 93 X -106 Y 93 X -36 Y 93 X -106 Y 1395 X s 0.999 0.999 0.999 c black 0.999 0.999 0.999 c 319 584 m 381 Y 93 X -105 Y 93 X -54 Y 93 X -114 Y 93 X -43 Y 93 X -65 Y 1395 X f black
 0.999 0.999 0.999 c black 319 965 m 93 X -105 Y 93 X -54 Y 93 X -114 Y 93 X -43 Y 93 X -65 Y 1395 X s 1 1 1 c black 319 965 m 93 X -105 Y 93 X -54 Y 93 X -114 Y 93 X -43 Y 93 X -65 Y 1395 X s 0.6 1 0.6 c black 0.6 1 0.6 c 319 584 m 381 Y 93 X -105 Y
 93 X -54 Y 93 X -114 Y 93 X -43 Y 93 X -65 Y 1395 X f black 0.6 1 0.6 c black 319 965 m 93 X -105 Y 93 X -54 Y 93 X -114 Y 93 X -43 Y 93 X -65 Y 1395 X s 0.999 0.999 0.999 c black 0.999 0.999 0.999 c 319 584 m 196 Y 93 X -84 Y 93 X -75 Y 93 X -37 Y
 1581 X f black 0.999 0.999 0.999 c black 319 780 m 93 X -84 Y 93 X -75 Y 93 X -37 Y 1581 X s 1 1 1 c black 319 780 m 93 X -84 Y 93 X -75 Y 93 X -37 Y 1581 X s 1 0.4 0.6 c black 1 0.4 0.6 c 319 584 m 196 Y 93 X -84 Y 93 X -75 Y 93 X -37 Y 1581 X f
 black 1 0.4 0.6 c black 319 780 m 93 X -84 Y 93 X -75 Y 93 X -37 Y 1581 X s 1 0 0 c 6 lw 1 1 1 c black 1 0 0 c 319 1235 m 93 X -71 Y 93 X -70 Y 93 X -67 Y 93 X -63 Y 93 X -65 Y 93 X -61 Y 93 X -68 Y 93 X -56 Y 93 X -32 Y 93 X -19 Y 93 X -63 Y 93 X
 -16 Y 744 X s black 3 lw 1 0 0 c 1 lw << /PatternType 1 /PaintType 2 /TilingType 1 /BBox [ 0 0 100 100 ] /XStep 100 /YStep 100 /PaintProc { begin gsave 0 100 m 100 0 l s gr end } >> [ 0.24 0 0 0.24 0 0 ] makepattern /P05 exch def /cs {[/Pattern
 /DeviceRGB] setcolorspace} def /FA {f [/DeviceRGB] setcolorspace} def cs 1 0 0 P05 setcolor 319 584 m 653 Y 93 X -71 Y 93 X -70 Y 93 X -65 Y 93 X -62 Y 93 X -65 Y 93 X -58 Y 93 X -67 Y 93 X -49 Y 93 X -25 Y 93 X -14 Y 93 X -57 Y 93 X -50 Y -93 X 27
 Y -93 X 34 Y -93 X 49 Y -93 X 65 Y -93 X 70 Y -93 X 63 Y -93 X 66 Y -93 X 65 Y -93 X 68 Y -93 X 71 Y -93 X 72 Y -93 X -650 Y FA 6 lw 1 1 1 c 15 lw 924 831 m 6 Y s 924 837 m cl s 924 791 m -20 Y s 924 771 m cl s 1017 845 m 3 Y s 1017 848 m cl s 1017
 804 m -14 Y s 1017 790 m cl s black 1 1 1 c 3 lw /w 43 def /w2 {w 2 div} def /w3 {w 3 div} def 366 1237 459 1162 552 1086 645 1027 738 962 831 883 924 811 1017 825 8 { m20} R 15 lw black 6 lw 1 1 1 c black 3 lw /w 33 def /w2 {w 2 div} def /w3 {w 3
 div} def 366 1237 m20 6 lw 3 lw 459 1162 m20 6 lw 3 lw 552 1086 m20 6 lw 3 lw 645 1027 m20 6 lw 3 lw 738 962 m20 6 lw 831 863 m 7 Y s 831 897 m 1 Y s 3 lw 831 883 m20 6 lw 924 768 m 29 Y s 924 824 m 12 Y s 3 lw 924 811 m20 6 lw 1017 788 m 23 Y s
 1017 838 m 9 Y s 3 lw 1017 825 m20 6 lw 831 897 m 2 Y s 831 899 m cl s 831 870 m -6 Y s 831 864 m cl s 924 824 m 13 Y s 924 837 m cl s 924 797 m -26 Y s 924 771 m cl s 1017 838 m 10 Y s 1017 848 m cl s 1017 811 m -21 Y s 1017 790 m cl s 3 lw 366
 1237 459 1162 552 1086 645 1027 738 962 831 883 924 811 1017 825 8 { m20} R 6 lw 3 lw 319 584 m 1860 X s 435 584 m cl s 482 584 m cl s 528 584 m cl s 575 584 m cl s 621 584 m cl s 668 584 m cl s 714 584 m cl s 761 584 m cl s 807 584 m cl s 854 584 m
 cl s 900 584 m cl s 947 584 m cl s 993 584 m cl s 1040 584 m cl s 1087 584 m cl s 1133 584 m cl s 1180 584 m cl s 1226 584 m cl s 1273 584 m cl s 1319 584 m cl s 1366 584 m cl s 1412 584 m cl s 1459 584 m cl s 1505 584 m cl s 1552 584 m cl s 1598
 584 m cl s 1645 584 m cl s 1691 584 m cl s 1738 584 m cl s 1784 584 m cl s 1831 584 m cl s 1877 584 m cl s 1924 584 m cl s 1970 584 m cl s 2017 584 m cl s 2063 584 m cl s 435 584 m cl s 389 584 m cl s 342 584 m cl s 2063 584 m cl s 2110 584 m cl s
 2156 584 m cl s 319 1729 m 1860 X s 435 1729 m cl s 482 1729 m cl s 528 1729 m cl s 575 1729 m cl s 621 1729 m cl s 668 1729 m cl s 714 1729 m cl s 761 1729 m cl s 807 1729 m cl s 854 1729 m cl s 900 1729 m cl s 947 1729 m cl s 993 1729 m cl s 1040
 1729 m cl s 1087 1729 m cl s 1133 1729 m cl s 1180 1729 m cl s 1226 1729 m cl s 1273 1729 m cl s 1319 1729 m cl s 1366 1729 m cl s 1412 1729 m cl s 1459 1729 m cl s 1505 1729 m cl s 1552 1729 m cl s 1598 1729 m cl s 1645 1729 m cl s 1691 1729 m cl s
 1738 1729 m cl s 1784 1729 m cl s 1831 1729 m cl s 1877 1729 m cl s 1924 1729 m cl s 1970 1729 m cl s 2017 1729 m cl s 2063 1729 m cl s 435 1729 m cl s 389 1729 m cl s 342 1729 m cl s 2063 1729 m cl s 2110 1729 m cl s 2156 1729 m cl s 319 584 m 1145
 Y s 341 627 m -22 X s 341 652 m -22 X s 341 669 m -22 X s 341 683 m -22 X s 341 694 m -22 X s 341 704 m -22 X s 341 712 m -22 X s 341 719 m -22 X s 363 726 m -44 X s 341 768 m -22 X s 341 793 m -22 X s 341 811 m -22 X s 341 825 m -22 X s 341 836 m
 -22 X s 341 845 m -22 X s 341 853 m -22 X s 341 861 m -22 X s 363 867 m -44 X s 341 910 m -22 X s 341 935 m -22 X s 341 952 m -22 X s 341 966 m -22 X s 341 977 m -22 X s 341 987 m -22 X s 341 995 m -22 X s 341 1002 m -22 X s 363 1009 m -44 X s 341
 1051 m -22 X s 341 1076 m -22 X s 341 1094 m -22 X s 341 1108 m -22 X s 341 1119 m -22 X s 341 1128 m -22 X s 341 1136 m -22 X s 341 1144 m -22 X s 363 1150 m -44 X s 341 1193 m -22 X s 341 1218 m -22 X s 341 1235 m -22 X s 341 1249 m -22 X s 341
 1260 m -22 X s 341 1270 m -22 X s 341 1278 m -22 X s 341 1285 m -22 X s 363 1292 m -44 X s 341 1334 m -22 X s 341 1359 m -22 X s 341 1377 m -22 X s 341 1390 m -22 X s 341 1402 m -22 X s 341 1411 m -22 X s 341 1419 m -22 X s 341 1426 m -22 X s 363
 1433 m -44 X s 341 1476 m -22 X s 341 1500 m -22 X s 341 1518 m -22 X s 341 1532 m -22 X s 341 1543 m -22 X s 341 1552 m -22 X s 341 1561 m -22 X s 341 1568 m -22 X s 363 1574 m -44 X s 341 1617 m -22 X s 341 1642 m -22 X s 341 1660 m -22 X s 341
 1673 m -22 X s 341 1684 m -22 X s 341 1694 m -22 X s 341 1702 m -22 X s 341 1709 m -22 X s 363 1716 m -44 X s 2179 584 m 1145 Y s 2157 627 m 22 X s 2157 652 m 22 X s 2157 669 m 22 X s 2157 683 m 22 X s 2157 694 m 22 X s 2157 704 m 22 X s 2157 712 m
 22 X s 2157 719 m 22 X s 2136 726 m 43 X s 2157 768 m 22 X s 2157 793 m 22 X s 2157 811 m 22 X s 2157 825 m 22 X s 2157 836 m 22 X s 2157 845 m 22 X s 2157 853 m 22 X s 2157 861 m 22 X s 2136 867 m 43 X s 2157 910 m 22 X s 2157 935 m 22 X s 2157 952
 m 22 X s 2157 966 m 22 X s 2157 977 m 22 X s 2157 987 m 22 X s 2157 995 m 22 X s 2157 1002 m 22 X s 2136 1009 m 43 X s 2157 1051 m 22 X s 2157 1076 m 22 X s 2157 1094 m 22 X s 2157 1108 m 22 X s 2157 1119 m 22 X s 2157 1128 m 22 X s 2157 1136 m 22 X
 s 2157 1144 m 22 X s 2136 1150 m 43 X s 2157 1193 m 22 X s 2157 1218 m 22 X s 2157 1235 m 22 X s 2157 1249 m 22 X s 2157 1260 m 22 X s 2157 1270 m 22 X s 2157 1278 m 22 X s 2157 1285 m 22 X s 2136 1292 m 43 X s 2157 1334 m 22 X s 2157 1359 m 22 X s
 2157 1377 m 22 X s 2157 1390 m 22 X s 2157 1402 m 22 X s 2157 1411 m 22 X s 2157 1419 m 22 X s 2157 1426 m 22 X s 2136 1433 m 43 X s 2157 1476 m 22 X s 2157 1500 m 22 X s 2157 1518 m 22 X s 2157 1532 m 22 X s 2157 1543 m 22 X s 2157 1552 m 22 X s
 2157 1561 m 22 X s 2157 1568 m 22 X s 2136 1574 m 43 X s 2157 1617 m 22 X s 2157 1642 m 22 X s 2157 1660 m 22 X s 2157 1673 m 22 X s 2157 1684 m 22 X s 2157 1694 m 22 X s 2157 1702 m 22 X s 2157 1709 m 22 X s 2136 1716 m 43 X s
 gsave  2263 1770 2 313 C 406.765 1447.41 t 0 r /Helvetica findfont 64.4212 sf 0 0 m (CRY for MB\255GGd) show NC gr 
 gsave  2263 1770 2 313 C 1464.36 1616.89 t 0 r /Helvetica findfont 64.4212 sf 0 0 m (SM Total) show NC gr  1 1 1 c 1338 1603 m 107 X 74 Y -107 X f 1 0 0 c 6 lw 1338 1640 m 107 X s black
 gsave  2263 1770 2 313 C 1464.36 1511.81 t 0 r /Helvetica findfont 64.4212 sf 0 0 m (Data) show NC gr  1391 1502 m 64 Y s 3 lw 1391 1534 m20 6 lw
 gsave  2263 1770 2 313 C 1464.36 1406.73 t 0 r /Helvetica findfont 64.4212 sf 0 0 m (GAMMAjets) show NC gr  1 1 0 c 3 lw 1338 1391 m 107 X 74 Y -107 X f 6 lw black 3 lw 1338 1465 m 107 X s 1338 1391 m 107 X s 1445 1391 m 74 Y s 1338 1391 m 74 Y s
 gsave  2263 1770 2 313 C 1464.36 1298.26 t 0 r /Helvetica findfont 64.4212 sf 0 0 m (W+jets) show NC gr  0.4 0.6 1 c 1338 1284 m 107 X 75 Y -107 X f black 1338 1359 m 107 X s 1338 1284 m 107 X s 1445 1284 m 75 Y s 1338 1284 m 75 Y s
 gsave  2263 1770 2 313 C 1498.25 1193.18 t 0 r /Helvetica findfont 64.4212 sf 0 0 m (\(+EW\) & single top) show NC gr 
 gsave  2263 1770 2 313 C 1481.3 1193.18 t 0 r /Helvetica findfont 64.4212 sf 0 0 m (t) show NC gr  1481 1244 m 17 X s
 gsave  2263 1770 2 313 C 1464.36 1193.18 t 0 r /Helvetica findfont 64.4212 sf 0 0 m (t) show NC gr  0.6 1 0.6 c 1338 1178 m 107 X 75 Y -107 X f black 1338 1253 m 107 X s 1338 1178 m 107 X s 1445 1178 m 75 Y s 1338 1178 m 75 Y s
 gsave  2263 1770 2 313 C 1464.36 1088.1 t 0 r /Helvetica findfont 64.4212 sf 0 0 m (Diboson) show NC gr  1 0.4 0.6 c 1338 1072 m 107 X 74 Y -107 X f black 1338 1146 m 107 X s 1338 1072 m 107 X s 1445 1072 m 74 Y s 1338 1072 m 74 Y s
 gsave  2263 1770 2 313 C 911.832 1566.05 t 0 r /Helvetica findfont 44.0776 sf 0 0 m (\2551) show NC gr 
 gsave  2263 1770 2 313 C 471.17 1535.54 t 0 r /Helvetica findfont 64.4212 sf 0 0 m (=13TeV, 139 fb) show NC gr 
 gsave  2263 1770 2 313 C 440.662 1535.54 t 0 r /Helvetica findfont 64.4212 sf 0 0 m (s) show NC gr  6 lw 420 1573 m 7 -41 d s 3 lw 427 1532 m 7 61 d s 434 1593 m 37 X s 1 1 1 c 2254 561 2 2 bf black 1 1 1 c black 1860 358 318 187 bl 1 1 1 c black
 1860 358 318 187 bl 6 lw 1 1 1 c black 3 lw 364 370 m20 6 lw 3 lw 457 361 m20 6 lw 3 lw 550 347 m20 6 lw 3 lw 643 366 m20 6 lw 3 lw 736 362 m20 6 lw 3 lw 829 330 m20 6 lw 3 lw 923 308 m20 6 lw 3 lw 318 187 m 1860 X s
 gsave  2254 561 2 2 C 1959.25 44.0662 t 0 r /Helvetica findfont 78.1689 sf 0 0 m ( [GeV]) show NC gr 
 gsave  2254 561 2 2 C 1928.75 -2.35513e-13 t 0 r /Helvetica findfont 50.9797 sf 0 0 m (T) show NC gr 
 gsave  2254 561 2 2 C 1657.57 44.0662 t 0 r /Helvetica findfont 78.1689 sf 0 0 m (1st jet p) show NC gr  434 201 m -14 Y s 481 194 m -7 Y s 527 194 m -7 Y s 574 194 m -7 Y s 620 194 m -7 Y s 667 201 m -14 Y s 713 194 m -7 Y s 760 194 m -7 Y s 806
 194 m -7 Y s 853 194 m -7 Y s 899 201 m -14 Y s 946 194 m -7 Y s 992 194 m -7 Y s 1039 194 m -7 Y s 1085 194 m -7 Y s 1132 201 m -14 Y s 1178 194 m -7 Y s 1225 194 m -7 Y s 1271 194 m -7 Y s 1318 194 m -7 Y s 1364 201 m -14 Y s 1411 194 m -7 Y s
 1457 194 m -7 Y s 1504 194 m -7 Y s 1550 194 m -7 Y s 1597 201 m -14 Y s 1643 194 m -7 Y s 1690 194 m -7 Y s 1737 194 m -7 Y s 1783 194 m -7 Y s 1830 201 m -14 Y s 1876 194 m -7 Y s 1923 194 m -7 Y s 1969 194 m -7 Y s 2016 194 m -7 Y s 2062 201 m
 -14 Y s 434 201 m -14 Y s 388 194 m -7 Y s 341 194 m -7 Y s 2062 201 m -14 Y s 2109 194 m -7 Y s 2155 194 m -7 Y s
 gsave  2254 561 2 2 C 369.478 118.64 t 0 r /Helvetica findfont 78.1689 sf 0 0 m (500) show NC gr 
 gsave  2254 561 2 2 C 576.251 118.64 t 0 r /Helvetica findfont 78.1689 sf 0 0 m (1000) show NC gr 
 gsave  2254 561 2 2 C 810.141 118.64 t 0 r /Helvetica findfont 78.1689 sf 0 0 m (1500) show NC gr 
 gsave  2254 561 2 2 C 1040.64 118.64 t 0 r /Helvetica findfont 78.1689 sf 0 0 m (2000) show NC gr 
 gsave  2254 561 2 2 C 1274.53 118.64 t 0 r /Helvetica findfont 78.1689 sf 0 0 m (2500) show NC gr 
 gsave  2254 561 2 2 C 1508.42 118.64 t 0 r /Helvetica findfont 78.1689 sf 0 0 m (3000) show NC gr 
 gsave  2254 561 2 2 C 1738.92 118.64 t 0 r /Helvetica findfont 78.1689 sf 0 0 m (3500) show NC gr 
 gsave  2254 561 2 2 C 1972.81 118.64 t 0 r /Helvetica findfont 78.1689 sf 0 0 m (4000) show NC gr  318 545 m 1860 X s 434 531 m 14 Y s 481 538 m 7 Y s 527 538 m 7 Y s 574 538 m 7 Y s 620 538 m 7 Y s 667 531 m 14 Y s 713 538 m 7 Y s 760 538 m 7 Y s
 806 538 m 7 Y s 853 538 m 7 Y s 899 531 m 14 Y s 946 538 m 7 Y s 992 538 m 7 Y s 1039 538 m 7 Y s 1085 538 m 7 Y s 1132 531 m 14 Y s 1178 538 m 7 Y s 1225 538 m 7 Y s 1271 538 m 7 Y s 1318 538 m 7 Y s 1364 531 m 14 Y s 1411 538 m 7 Y s 1457 538 m 7
 Y s 1504 538 m 7 Y s 1550 538 m 7 Y s 1597 531 m 14 Y s 1643 538 m 7 Y s 1690 538 m 7 Y s 1737 538 m 7 Y s 1783 538 m 7 Y s 1830 531 m 14 Y s 1876 538 m 7 Y s 1923 538 m 7 Y s 1969 538 m 7 Y s 2016 538 m 7 Y s 2062 531 m 14 Y s 434 531 m 14 Y s 388
 538 m 7 Y s 341 538 m 7 Y s 2062 531 m 14 Y s 2109 538 m 7 Y s 2155 538 m 7 Y s 318 187 m 358 Y s
 gsave  2254 561 2 2 C 166.096 284.736 t 90 r /Helvetica findfont 67.9729 sf 0 0 m (Data/SM) show NC gr  361 203 m -43 X s 339 220 m -21 X s 339 236 m -21 X s 339 252 m -21 X s 339 268 m -21 X s 361 285 m -43 X s 339 301 m -21 X s 339 317 m -21 X s
 339 334 m -21 X s 339 350 m -21 X s 361 366 m -43 X s 339 382 m -21 X s 339 399 m -21 X s 339 415 m -21 X s 339 431 m -21 X s 361 447 m -43 X s 339 464 m -21 X s 339 480 m -21 X s 339 496 m -21 X s 339 512 m -21 X s 361 529 m -43 X s 361 203 m -43 X
 s 339 187 m -21 X s 361 529 m -43 X s
 gsave  2254 561 2 2 C 261.008 183.044 t 0 r /Helvetica findfont 57.777 sf 0 0 m (0) show NC gr 
 gsave  2254 561 2 2 C 213.552 261.008 t 0 r /Helvetica findfont 57.777 sf 0 0 m (0.5) show NC gr 
 gsave  2254 561 2 2 C 271.177 342.361 t 0 r /Helvetica findfont 57.777 sf 0 0 m (1) show NC gr 
 gsave  2254 561 2 2 C 213.552 423.714 t 0 r /Helvetica findfont 57.777 sf 0 0 m (1.5) show NC gr 
 gsave  2254 561 2 2 C 261.008 505.067 t 0 r /Helvetica findfont 57.777 sf 0 0 m (2) show NC gr  2178 187 m 358 Y s 2135 203 m 43 X s 2157 220 m 21 X s 2157 236 m 21 X s 2157 252 m 21 X s 2157 268 m 21 X s 2135 285 m 43 X s 2157 301 m 21 X s 2157 317
 m 21 X s 2157 334 m 21 X s 2157 350 m 21 X s 2135 366 m 43 X s 2157 382 m 21 X s 2157 399 m 21 X s 2157 415 m 21 X s 2157 431 m 21 X s 2135 447 m 43 X s 2157 464 m 21 X s 2157 480 m 21 X s 2157 496 m 21 X s 2157 512 m 21 X s 2135 529 m 43 X s 2135
 203 m 43 X s 2157 187 m 21 X s 2135 529 m 43 X s 9 lw 643 380 m s 643 380 m cl s 643 352 m s 643 352 m cl s 736 375 m 10 Y s 736 385 m cl s 736 348 m -9 Y s 736 339 m cl s 829 344 m 22 Y s 829 366 m cl s 829 317 m -21 Y s 829 296 m cl s 923 322 m 42
 Y s 923 364 m cl s 923 294 m -36 Y s 923 258 m cl s 1016 545 m -116 Y s 1016 429 m cl s 3 lw 364 370 457 361 550 347 643 366 736 362 829 330 923 308 7 { m20} R 9 lw 1 0 0 c 6 lw black 3 lw 1 0 0 c 2155 203 m cl s 2127 203 m cl s 2098 203 m cl s 2069
 203 m cl s 2040 203 m cl s 2012 203 m cl s 1983 203 m cl s 1954 203 m cl s 1926 203 m cl s 1897 203 m cl s 1868 203 m cl s 1840 203 m cl s 1811 203 m cl s 1782 203 m cl s 1754 203 m cl s 1725 203 m cl s 1696 203 m cl s 1667 203 m cl s 1639 203 m cl
 s 1620 214 m s 1620 242 m s 1620 271 m -12 -13 d s 1620 299 m -41 -41 d s 1620 328 m -70 -70 d s 1620 356 m -118 -117 d s 1620 385 m -146 -146 d s 1620 414 m -175 -175 d s 1620 442 m -199 -198 d s 1620 471 m -228 -227 d s 1594 474 m -231 -230 d s
 1566 474 m -225 -224 d s 1537 474 m -202 -201 d s 1527 493 m -220 -220 d s 1499 493 m -221 -220 d s 1470 493 m -221 -220 d s 1442 493 m -202 -201 d s 1408 489 m -197 -197 d s 1380 489 m -197 -197 d s 1351 489 m -10 -10 d s 1322 459 m -167 -166 d s
 1293 459 m -139 -139 d s 1264 459 m -16 -16 d s 1245 440 m -120 -120 d s 1216 440 m -120 -120 d s 1188 440 m -121 -120 d s 1159 440 m -4 -4 d s 1131 412 m -72 -72 d s 1102 412 m -72 -72 d s 1073 412 m -11 -11 d s 1053 392 m -52 -52 d s 1025 392 m
 -52 -52 d s 996 392 m -49 -49 d s 964 389 m -46 -46 d s 936 389 m -46 -46 d s 907 389 m -39 -39 d s 878 389 m -2 -2 d s 871 382 m -32 -32 d s 842 382 m -31 -32 d s 814 382 m -31 -31 d s 785 382 m -31 -31 d s 755 381 m -30 -30 d s 727 381 m -30 -30 d
 s 698 381 m -26 -26 d s 665 377 m -21 -22 d s 636 377 m -21 -22 d s 608 377 m -17 -17 d s 575 372 m -13 -12 d s 546 372 m -13 -12 d s 517 372 m -12 -12 d s 486 370 m -8 -8 d s 458 370 m -9 -8 d s 318 231 m s 429 370 m -8 -8 d s 318 259 m s 400 369 m
 -7 -6 d s 318 288 m s 371 369 m -7 -6 d s 318 317 m s 342 369 m -7 -6 d s 318 345 m s 6 lw black[ 4 8] 0 sd 3 lw 318 447 m 1860 X s 318 285 m 1860 X s 1 0 0 c[  12 12 ] 0 sd 6 lw 318 366 m 1860 X s
 gr  gr showpage
end
%%EOF
