%!PS-Adobe-2.0 EPSF-2.0
%%BoundingBox:  0 0 567 521
%%Title: Distributions/jetPt_0__distrSR_MB-SSd_beforeFit_forThesis.eps: canvas
%%Creator: ROOT Version 6.04/16
%%CreationDate: Tue May 19 22:03:44 2020
%%DocumentNeededResources: ProcSet (FontSetInit)
%%EndComments
%%BeginProlog
80 dict begin
/s {stroke} def /l {lineto} def /m {moveto} def /t {translate} def
/r {rotate} def /rl {roll}  def /R {repeat} def
/d {rlineto} def /rm {rmoveto} def /gr {grestore} def /f {eofill} def
/c {setrgbcolor} def /black {0 setgray} def /sd {setdash} def
/cl {closepath} def /sf {scalefont setfont} def /lw {setlinewidth} def
/box {m dup 0 exch d exch 0 d 0 exch neg d cl} def
/NC{systemdict begin initclip end}def/C{NC box clip newpath}def
/bl {box s} def /bf {gsave box gsave f grestore 1 lw [] 0 sd s grestore} def /Y { 0 exch d} def /X { 0 d} def 
/K {{pop pop 0 moveto} exch kshow} bind def
/ita {/ang 15 def gsave [1 0 ang dup sin exch cos div 1 0 0] concat} def 
/mp {newpath /y exch def /x exch def} def
/side {[w .77 mul w .23 mul] .385 w mul sd w 0 l currentpoint t -144 r} def
/mr {mp x y w2 0 360 arc} def /m24 {mr s} def /m20 {mr f} def
/mb {mp x y w2 add m w2 neg 0 d 0 w neg d w 0 d 0 w d cl} def
/mt {mp x y w2 add m w2 neg w neg d w 0 d cl} def
/m21 {mb f} def /m25 {mb s} def /m22 {mt f} def /m26{mt s} def
/m23 {mp x y w2 sub m w2 w d w neg 0 d cl f} def
/m27 {mp x y w2 add m w3 neg w2 neg d w3 w2 neg d w3 w2 d cl s} def
/m28 {mp x w2 sub y w2 sub w3 add m w3 0 d  0 w3 neg d w3 0 d 0 w3 d w3 0 d  0 w3 d w3 neg 0 d 0 w3 d w3 neg 0 d 0 w3 neg d w3 neg 0 d cl s } def
/m29 {mp gsave x w2 sub y w2 add w3 sub m currentpoint t 4 {side} repeat cl fill gr} def
/m30 {mp gsave x w2 sub y w2 add w3 sub m currentpoint t 4 {side} repeat cl s gr} def
/m31 {mp x y w2 sub m 0 w d x w2 sub y m w 0 d x w2 sub y w2 add m w w neg d x w2 sub y w2 sub m w w d s} def
/m32 {mp x y w2 sub m w2 w d w neg 0 d cl s} def
/m33 {mp x y w2 add m w3 neg w2 neg d w3 w2 neg d w3 w2 d cl f} def
/m34 {mp x w2 sub y w2 sub w3 add m w3 0 d  0 w3 neg d w3 0 d 0 w3 d w3 0 d  0 w3 d w3 neg 0 d 0 w3 d w3 neg 0 d 0 w3 neg d w3 neg 0 d cl f } def
/m2 {mp x y w2 sub m 0 w d x w2 sub y m w 0 d s} def
/m5 {mp x w2 sub y w2 sub m w w d x w2 sub y w2 add m w w neg d s} def
%%IncludeResource: ProcSet (FontSetInit)
%%IncludeResource: font Times-Roman
%%IncludeResource: font Times-Italic
%%IncludeResource: font Times-Bold
%%IncludeResource: font Times-BoldItalic
%%IncludeResource: font Helvetica
%%IncludeResource: font Helvetica-Oblique
%%IncludeResource: font Helvetica-Bold
%%IncludeResource: font Helvetica-BoldOblique
%%IncludeResource: font Courier
%%IncludeResource: font Courier-Oblique
%%IncludeResource: font Courier-Bold
%%IncludeResource: font Courier-BoldOblique
%%IncludeResource: font Symbol
%%IncludeResource: font ZapfDingbats
/reEncode {exch findfont dup length dict begin {1 index /FID eq  {pop pop} {def} ifelse } forall /Encoding exch def currentdict end dup /FontName get exch definefont pop } def [/Times-Bold /Times-Italic /Times-BoldItalic /Helvetica /Helvetica-Oblique
 /Helvetica-Bold /Helvetica-BoldOblique /Courier /Courier-Oblique /Courier-Bold /Courier-BoldOblique /Times-Roman /AvantGarde-Book /AvantGarde-BookOblique /AvantGarde-Demi /AvantGarde-DemiOblique /Bookman-Demi /Bookman-DemiItalic /Bookman-Light
 /Bookman-LightItalic /Helvetica-Narrow /Helvetica-Narrow-Bold /Helvetica-Narrow-BoldOblique /Helvetica-Narrow-Oblique /NewCenturySchlbk-Roman /NewCenturySchlbk-Bold /NewCenturySchlbk-BoldItalic /NewCenturySchlbk-Italic /Palatino-Bold
 /Palatino-BoldItalic /Palatino-Italic /Palatino-Roman ] {ISOLatin1Encoding reEncode } forall
%%EndProlog
%%BeginSetup
%%EndSetup
newpath  gsave  .25 .25 scale  gsave  0 0 t black[  ] 0 sd 3 lw 1 1 1 c 2268 2085 0 0 bf black 1 1 1 c 2263 1770 2 313 bf black 1 1 1 c black 1860 1145 319 584 bl 1 1 1 c black 1860 1145 319 584 bl 6 lw 1 1 1 c black 3 lw /w 33 def /w2 {w 2 div} def
 /w3 {w 3 div} def 366 1271 m20 6 lw 3 lw 459 1227 m20 6 lw 3 lw 552 1147 m20 6 lw 3 lw 645 1070 m20 6 lw 3 lw 738 989 m20 6 lw 3 lw 831 933 m20 6 lw 924 843 m 5 Y s 924 875 m s 3 lw 924 861 m20 6 lw 1017 817 m 10 Y s 1017 854 m 3 Y s 3 lw 1017 841
 m20 6 lw 1110 729 m 35 Y s 1110 792 m 12 Y s 3 lw 1110 778 m20 6 lw 1203 584 m 118 Y s 1203 729 m 26 Y s 3 lw 1203 715 m20 6 lw 3 lw 319 584 m 1860 X s
 gsave  2263 1770 2 313 C 1949.08 376.258 t 0 r /Helvetica findfont 81.3741 sf 0 0 m ( [GeV]) show NC gr 
 gsave  2263 1770 2 313 C 1915.19 332.192 t 0 r /Helvetica findfont 54.2494 sf 0 0 m (T) show NC gr 
 gsave  2263 1770 2 313 C 1630.45 376.258 t 0 r /Helvetica findfont 81.3741 sf 0 0 m (1st jet p) show NC gr  435 584 m cl s 482 584 m cl s 528 584 m cl s 575 584 m cl s 621 584 m cl s 668 584 m cl s 714 584 m cl s 761 584 m cl s 807 584 m cl s 854
 584 m cl s 900 584 m cl s 947 584 m cl s 993 584 m cl s 1040 584 m cl s 1087 584 m cl s 1133 584 m cl s 1180 584 m cl s 1226 584 m cl s 1273 584 m cl s 1319 584 m cl s 1366 584 m cl s 1412 584 m cl s 1459 584 m cl s 1505 584 m cl s 1552 584 m cl s
 1598 584 m cl s 1645 584 m cl s 1691 584 m cl s 1738 584 m cl s 1784 584 m cl s 1831 584 m cl s 1877 584 m cl s 1924 584 m cl s 1970 584 m cl s 2017 584 m cl s 2063 584 m cl s 435 584 m cl s 389 584 m cl s 342 584 m cl s 2063 584 m cl s 2110 584 m
 cl s 2156 584 m cl s 319 1729 m 1860 X s 435 1729 m cl s 482 1729 m cl s 528 1729 m cl s 575 1729 m cl s 621 1729 m cl s 668 1729 m cl s 714 1729 m cl s 761 1729 m cl s 807 1729 m cl s 854 1729 m cl s 900 1729 m cl s 947 1729 m cl s 993 1729 m cl s
 1040 1729 m cl s 1087 1729 m cl s 1133 1729 m cl s 1180 1729 m cl s 1226 1729 m cl s 1273 1729 m cl s 1319 1729 m cl s 1366 1729 m cl s 1412 1729 m cl s 1459 1729 m cl s 1505 1729 m cl s 1552 1729 m cl s 1598 1729 m cl s 1645 1729 m cl s 1691 1729 m
 cl s 1738 1729 m cl s 1784 1729 m cl s 1831 1729 m cl s 1877 1729 m cl s 1924 1729 m cl s 1970 1729 m cl s 2017 1729 m cl s 2063 1729 m cl s 435 1729 m cl s 389 1729 m cl s 342 1729 m cl s 2063 1729 m cl s 2110 1729 m cl s 2156 1729 m cl s 319 584 m
 1145 Y s
 gsave  2263 1770 2 313 C 166.096 1091.49 t 90 r /Helvetica findfont 81.3741 sf 0 0 m (Events / 200 GeV) show NC gr  341 624 m -22 X s 341 647 m -22 X s 341 663 m -22 X s 341 676 m -22 X s 341 686 m -22 X s 341 695 m -22 X s 341 703 m -22 X s 341 709
 m -22 X s 363 715 m -44 X s
 gsave  2263 1770 2 313 C 300.555 688.288 t 0 r  -36 0 t /Helvetica findfont 64.4212 sf 0 0 m (1) show NC gr  341 755 m -22 X s 341 778 m -22 X s 341 794 m -22 X s 341 807 m -22 X s 341 817 m -22 X s 341 826 m -22 X s 341 834 m -22 X s 341 841 m -22
 X s 363 847 m -44 X s
 gsave  2263 1770 2 313 C 300.555 819.383 t 0 r  -73 0 t /Helvetica findfont 64.4212 sf 0 0 m (10) show NC gr  341 886 m -22 X s 341 909 m -22 X s 341 925 m -22 X s 341 938 m -22 X s 341 949 m -22 X s 341 957 m -22 X s 341 965 m -22 X s 341 972 m -22
 X s 363 978 m -44 X s
 gsave  2263 1770 2 313 C 274.567 976.237 t 0 r /Helvetica findfont 44.0776 sf 0 0 m (2) show NC gr 
 gsave  2263 1770 2 313 C 203.383 949.119 t 0 r /Helvetica findfont 64.4212 sf 0 0 m (10) show NC gr  341 1017 m -22 X s 341 1040 m -22 X s 341 1057 m -22 X s 341 1069 m -22 X s 341 1080 m -22 X s 341 1088 m -22 X s 341 1096 m -22 X s 341 1103 m -22
 X s 363 1109 m -44 X s
 gsave  2263 1770 2 313 C 274.567 1111.83 t 0 r /Helvetica findfont 44.0776 sf 0 0 m (3) show NC gr 
 gsave  2263 1770 2 313 C 203.383 1081.32 t 0 r /Helvetica findfont 64.4212 sf 0 0 m (10) show NC gr  341 1148 m -22 X s 341 1171 m -22 X s 341 1188 m -22 X s 341 1200 m -22 X s 341 1211 m -22 X s 341 1219 m -22 X s 341 1227 m -22 X s 341 1234 m -22
 X s 363 1240 m -44 X s
 gsave  2263 1770 2 313 C 274.567 1237.24 t 0 r /Helvetica findfont 44.0776 sf 0 0 m (4) show NC gr 
 gsave  2263 1770 2 313 C 203.383 1210.13 t 0 r /Helvetica findfont 64.4212 sf 0 0 m (10) show NC gr  341 1279 m -22 X s 341 1302 m -22 X s 341 1319 m -22 X s 341 1331 m -22 X s 341 1342 m -22 X s 341 1351 m -22 X s 341 1358 m -22 X s 341 1365 m -22
 X s 363 1371 m -44 X s
 gsave  2263 1770 2 313 C 274.567 1372.83 t 0 r /Helvetica findfont 44.0776 sf 0 0 m (5) show NC gr 
 gsave  2263 1770 2 313 C 203.383 1342.33 t 0 r /Helvetica findfont 64.4212 sf 0 0 m (10) show NC gr  341 1410 m -22 X s 341 1433 m -22 X s 341 1450 m -22 X s 341 1463 m -22 X s 341 1473 m -22 X s 341 1482 m -22 X s 341 1489 m -22 X s 341 1496 m -22
 X s 363 1502 m -44 X s
 gsave  2263 1770 2 313 C 274.567 1505.03 t 0 r /Helvetica findfont 44.0776 sf 0 0 m (6) show NC gr 
 gsave  2263 1770 2 313 C 203.383 1474.52 t 0 r /Helvetica findfont 64.4212 sf 0 0 m (10) show NC gr  341 1541 m -22 X s 341 1565 m -22 X s 341 1581 m -22 X s 341 1594 m -22 X s 341 1604 m -22 X s 341 1613 m -22 X s 341 1620 m -22 X s 341 1627 m -22
 X s 363 1633 m -44 X s
 gsave  2263 1770 2 313 C 274.567 1630.45 t 0 r /Helvetica findfont 44.0776 sf 0 0 m (7) show NC gr 
 gsave  2263 1770 2 313 C 203.383 1603.33 t 0 r /Helvetica findfont 64.4212 sf 0 0 m (10) show NC gr  341 1673 m -22 X s 341 1696 m -22 X s 341 1712 m -22 X s 341 1725 m -22 X s 2179 584 m 1145 Y s 2157 624 m 22 X s 2157 647 m 22 X s 2157 663 m 22 X
 s 2157 676 m 22 X s 2157 686 m 22 X s 2157 695 m 22 X s 2157 703 m 22 X s 2157 709 m 22 X s 2136 715 m 43 X s 2157 755 m 22 X s 2157 778 m 22 X s 2157 794 m 22 X s 2157 807 m 22 X s 2157 817 m 22 X s 2157 826 m 22 X s 2157 834 m 22 X s 2157 841 m 22
 X s 2136 847 m 43 X s 2157 886 m 22 X s 2157 909 m 22 X s 2157 925 m 22 X s 2157 938 m 22 X s 2157 949 m 22 X s 2157 957 m 22 X s 2157 965 m 22 X s 2157 972 m 22 X s 2136 978 m 43 X s 2157 1017 m 22 X s 2157 1040 m 22 X s 2157 1057 m 22 X s 2157
 1069 m 22 X s 2157 1080 m 22 X s 2157 1088 m 22 X s 2157 1096 m 22 X s 2157 1103 m 22 X s 2136 1109 m 43 X s 2157 1148 m 22 X s 2157 1171 m 22 X s 2157 1188 m 22 X s 2157 1200 m 22 X s 2157 1211 m 22 X s 2157 1219 m 22 X s 2157 1227 m 22 X s 2157
 1234 m 22 X s 2136 1240 m 43 X s 2157 1279 m 22 X s 2157 1302 m 22 X s 2157 1319 m 22 X s 2157 1331 m 22 X s 2157 1342 m 22 X s 2157 1351 m 22 X s 2157 1358 m 22 X s 2157 1365 m 22 X s 2136 1371 m 43 X s 2157 1410 m 22 X s 2157 1433 m 22 X s 2157
 1450 m 22 X s 2157 1463 m 22 X s 2157 1473 m 22 X s 2157 1482 m 22 X s 2157 1489 m 22 X s 2157 1496 m 22 X s 2136 1502 m 43 X s 2157 1541 m 22 X s 2157 1565 m 22 X s 2157 1581 m 22 X s 2157 1594 m 22 X s 2157 1604 m 22 X s 2157 1613 m 22 X s 2157
 1620 m 22 X s 2157 1627 m 22 X s 2136 1633 m 43 X s 2157 1673 m 22 X s 2157 1696 m 22 X s 2157 1712 m 22 X s 2157 1725 m 22 X s 0.4 0.6 1 c black 0.4 0.6 1 c 319 584 m 689 Y 93 X -46 Y 93 X -78 Y 93 X -79 Y 93 X -73 Y 93 X -64 Y 93 X -74 Y 93 X -50
 Y 93 X -70 Y 93 X -85 Y 93 X -6 Y 93 X -64 Y 837 X f black 0.4 0.6 1 c black 319 1273 m 93 X -46 Y 93 X -78 Y 93 X -79 Y 93 X -73 Y 93 X -64 Y 93 X -74 Y 93 X -50 Y 93 X -70 Y 93 X -85 Y 93 X -6 Y 93 X -64 Y 837 X s 0.999 0.999 0.999 c black 0.999
 0.999 0.999 c 319 584 m 670 Y 93 X -46 Y 93 X -77 Y 93 X -78 Y 93 X -71 Y 93 X -64 Y 93 X -75 Y 93 X -49 Y 93 X -68 Y 93 X -92 Y 93 X -4 Y 93 X -46 Y 837 X f black 0.999 0.999 0.999 c black 319 1254 m 93 X -46 Y 93 X -77 Y 93 X -78 Y 93 X -71 Y 93 X
 -64 Y 93 X -75 Y 93 X -49 Y 93 X -68 Y 93 X -92 Y 93 X -4 Y 93 X -46 Y 837 X s 1 1 1 c black 319 1254 m 93 X -46 Y 93 X -77 Y 93 X -78 Y 93 X -71 Y 93 X -64 Y 93 X -75 Y 93 X -49 Y 93 X -68 Y 93 X -92 Y 93 X -4 Y 93 X -46 Y 837 X s 0.6 1 0.6 c black
 0.6 1 0.6 c 319 584 m 670 Y 93 X -46 Y 93 X -77 Y 93 X -78 Y 93 X -71 Y 93 X -64 Y 93 X -75 Y 93 X -49 Y 93 X -68 Y 93 X -92 Y 93 X -4 Y 93 X -46 Y 837 X f black 0.6 1 0.6 c black 319 1254 m 93 X -46 Y 93 X -77 Y 93 X -78 Y 93 X -71 Y 93 X -64 Y 93
 X -75 Y 93 X -49 Y 93 X -68 Y 93 X -92 Y 93 X -4 Y 93 X -46 Y 837 X s 0.999 0.999 0.999 c black 0.999 0.999 0.999 c 319 584 m 660 Y 93 X -41 Y 93 X -76 Y 93 X -77 Y 93 X -71 Y 93 X -63 Y 93 X -76 Y 93 X -46 Y 93 X -68 Y 93 X -92 Y 93 X -4 Y 93 X -46
 Y 837 X f black 0.999 0.999 0.999 c black 319 1244 m 93 X -41 Y 93 X -76 Y 93 X -77 Y 93 X -71 Y 93 X -63 Y 93 X -76 Y 93 X -46 Y 93 X -68 Y 93 X -92 Y 93 X -4 Y 93 X -46 Y 837 X s 1 1 1 c black 319 1244 m 93 X -41 Y 93 X -76 Y 93 X -77 Y 93 X -71 Y
 93 X -63 Y 93 X -76 Y 93 X -46 Y 93 X -68 Y 93 X -92 Y 93 X -4 Y 93 X -46 Y 837 X s 1 0.8 0.4 c black 1 0.8 0.4 c 319 584 m 660 Y 93 X -41 Y 93 X -76 Y 93 X -77 Y 93 X -71 Y 93 X -63 Y 93 X -76 Y 93 X -46 Y 93 X -68 Y 93 X -92 Y 93 X -4 Y 93 X -46 Y
 837 X f black 1 0.8 0.4 c black 319 1244 m 93 X -41 Y 93 X -76 Y 93 X -77 Y 93 X -71 Y 93 X -63 Y 93 X -76 Y 93 X -46 Y 93 X -68 Y 93 X -92 Y 93 X -4 Y 93 X -46 Y 837 X s 0.999 0.999 0.999 c black 0.999 0.999 0.999 c 319 584 m 517 Y 93 X -45 Y 93 X
 -72 Y 93 X -75 Y 93 X -70 Y 93 X -63 Y 93 X -69 Y 93 X -85 Y 93 X -9 Y 93 X -29 Y 1023 X f black 0.999 0.999 0.999 c black 319 1101 m 93 X -45 Y 93 X -72 Y 93 X -75 Y 93 X -70 Y 93 X -63 Y 93 X -69 Y 93 X -85 Y 93 X -9 Y 93 X -29 Y 1023 X s 1 1 1 c
 black 319 1101 m 93 X -45 Y 93 X -72 Y 93 X -75 Y 93 X -70 Y 93 X -63 Y 93 X -69 Y 93 X -85 Y 93 X -9 Y 93 X -29 Y 1023 X s 1 0.4 0.6 c black 1 0.4 0.6 c 319 584 m 517 Y 93 X -45 Y 93 X -72 Y 93 X -75 Y 93 X -70 Y 93 X -63 Y 93 X -69 Y 93 X -85 Y 93
 X -9 Y 93 X -29 Y 1023 X f black 1 0.4 0.6 c black 319 1101 m 93 X -45 Y 93 X -72 Y 93 X -75 Y 93 X -70 Y 93 X -63 Y 93 X -69 Y 93 X -85 Y 93 X -9 Y 93 X -29 Y 1023 X s 0.999 0.999 0.999 c black 0.999 0.999 0.999 c 319 584 m 304 Y 186 X -146 Y 93 X
 -81 Y 93 X -67 Y 93 X -10 Y 1395 X f black 0.999 0.999 0.999 c black 319 888 m 186 X -146 Y 93 X -81 Y 93 X -67 Y 93 X -10 Y 1395 X s 1 1 1 c black 319 888 m 186 X -146 Y 93 X -81 Y 93 X -67 Y 93 X -10 Y 1395 X s 0 0 0.4 c black 0 0 0.4 c 319 584 m
 304 Y 186 X -146 Y 93 X -81 Y 93 X -67 Y 93 X -10 Y 1395 X f black 0 0 0.4 c black 319 888 m 186 X -146 Y 93 X -81 Y 93 X -67 Y 93 X -10 Y 1395 X s 1 0 0 c 6 lw 1 1 1 c black 1 0 0 c 319 1273 m 93 X -46 Y 93 X -78 Y 93 X -79 Y 93 X -73 Y 93 X -64 Y
 93 X -74 Y 93 X -50 Y 93 X -70 Y 93 X -85 Y 93 X -6 Y 93 X -64 Y 837 X s black 3 lw 1 0 0 c 1 lw << /PatternType 1 /PaintType 2 /TilingType 1 /BBox [ 0 0 100 100 ] /XStep 100 /YStep 100 /PaintProc { begin gsave 0 100 m 100 0 l s gr end } >> [ 0.24 0
 0 0.24 0 0 ] makepattern /P05 exch def /cs {[/Pattern /DeviceRGB] setcolorspace} def /FA {f [/DeviceRGB] setcolorspace} def cs 1 0 0 P05 setcolor 319 584 m 692 Y 93 X -46 Y 93 X -78 Y 93 X -79 Y 93 X -73 Y 93 X -63 Y 93 X -73 Y 93 X -49 Y 93 X -67 Y
 93 X -80 Y 93 X 1 Y 93 X -59 Y 93 X -26 Y -93 X 31 Y -93 X 22 Y -93 X 91 Y -93 X 73 Y -93 X 52 Y -93 X 75 Y -93 X 66 Y -93 X 73 Y -93 X 79 Y -93 X 78 Y -93 X 45 Y -93 X -685 Y FA 6 lw 1 1 1 c 15 lw 1017 820 m -2 Y s 1017 818 m cl s 1110 798 m 8 Y s
 1110 806 m cl s 1110 758 m -25 Y s 1110 733 m cl s 1203 736 m 27 Y s 1203 763 m cl s 1203 695 m -79 Y s 1203 616 m cl s black 1 1 1 c 3 lw /w 43 def /w2 {w 2 div} def /w3 {w 3 div} def 366 1271 459 1227 552 1147 645 1070 738 989 831 933 924 861 1017
 841 1110 778 1203 715 10 { m20} R 15 lw black 6 lw 1 1 1 c black 3 lw /w 33 def /w2 {w 2 div} def /w3 {w 3 div} def 366 1271 m20 6 lw 3 lw 459 1227 m20 6 lw 3 lw 552 1147 m20 6 lw 3 lw 645 1070 m20 6 lw 3 lw 738 989 m20 6 lw 3 lw 831 933 m20 6 lw
 924 843 m 5 Y s 924 875 m s 3 lw 924 861 m20 6 lw 1017 817 m 10 Y s 1017 854 m 3 Y s 3 lw 1017 841 m20 6 lw 1110 729 m 35 Y s 1110 792 m 12 Y s 3 lw 1110 778 m20 6 lw 1203 584 m 118 Y s 1203 729 m 26 Y s 3 lw 1203 715 m20 6 lw 924 875 m 1 Y s 924
 876 m cl s 924 848 m -5 Y s 924 843 m cl s 1017 854 m 3 Y s 1017 857 m cl s 1017 827 m -9 Y s 1017 818 m cl s 1110 792 m 14 Y s 1110 806 m cl s 1110 764 m -31 Y s 1110 733 m cl s 1203 729 m 34 Y s 1203 763 m cl s 1203 702 m -86 Y s 1203 616 m cl s 3
 lw 366 1271 459 1227 552 1147 645 1070 738 989 831 933 924 861 1017 841 1110 778 1203 715 10 { m20} R 6 lw 3 lw 319 584 m 1860 X s 435 584 m cl s 482 584 m cl s 528 584 m cl s 575 584 m cl s 621 584 m cl s 668 584 m cl s 714 584 m cl s 761 584 m cl
 s 807 584 m cl s 854 584 m cl s 900 584 m cl s 947 584 m cl s 993 584 m cl s 1040 584 m cl s 1087 584 m cl s 1133 584 m cl s 1180 584 m cl s 1226 584 m cl s 1273 584 m cl s 1319 584 m cl s 1366 584 m cl s 1412 584 m cl s 1459 584 m cl s 1505 584 m
 cl s 1552 584 m cl s 1598 584 m cl s 1645 584 m cl s 1691 584 m cl s 1738 584 m cl s 1784 584 m cl s 1831 584 m cl s 1877 584 m cl s 1924 584 m cl s 1970 584 m cl s 2017 584 m cl s 2063 584 m cl s 435 584 m cl s 389 584 m cl s 342 584 m cl s 2063
 584 m cl s 2110 584 m cl s 2156 584 m cl s 319 1729 m 1860 X s 435 1729 m cl s 482 1729 m cl s 528 1729 m cl s 575 1729 m cl s 621 1729 m cl s 668 1729 m cl s 714 1729 m cl s 761 1729 m cl s 807 1729 m cl s 854 1729 m cl s 900 1729 m cl s 947 1729 m
 cl s 993 1729 m cl s 1040 1729 m cl s 1087 1729 m cl s 1133 1729 m cl s 1180 1729 m cl s 1226 1729 m cl s 1273 1729 m cl s 1319 1729 m cl s 1366 1729 m cl s 1412 1729 m cl s 1459 1729 m cl s 1505 1729 m cl s 1552 1729 m cl s 1598 1729 m cl s 1645
 1729 m cl s 1691 1729 m cl s 1738 1729 m cl s 1784 1729 m cl s 1831 1729 m cl s 1877 1729 m cl s 1924 1729 m cl s 1970 1729 m cl s 2017 1729 m cl s 2063 1729 m cl s 435 1729 m cl s 389 1729 m cl s 342 1729 m cl s 2063 1729 m cl s 2110 1729 m cl s
 2156 1729 m cl s 319 584 m 1145 Y s 341 624 m -22 X s 341 647 m -22 X s 341 663 m -22 X s 341 676 m -22 X s 341 686 m -22 X s 341 695 m -22 X s 341 703 m -22 X s 341 709 m -22 X s 363 715 m -44 X s 341 755 m -22 X s 341 778 m -22 X s 341 794 m -22 X
 s 341 807 m -22 X s 341 817 m -22 X s 341 826 m -22 X s 341 834 m -22 X s 341 841 m -22 X s 363 847 m -44 X s 341 886 m -22 X s 341 909 m -22 X s 341 925 m -22 X s 341 938 m -22 X s 341 949 m -22 X s 341 957 m -22 X s 341 965 m -22 X s 341 972 m -22
 X s 363 978 m -44 X s 341 1017 m -22 X s 341 1040 m -22 X s 341 1057 m -22 X s 341 1069 m -22 X s 341 1080 m -22 X s 341 1088 m -22 X s 341 1096 m -22 X s 341 1103 m -22 X s 363 1109 m -44 X s 341 1148 m -22 X s 341 1171 m -22 X s 341 1188 m -22 X s
 341 1200 m -22 X s 341 1211 m -22 X s 341 1219 m -22 X s 341 1227 m -22 X s 341 1234 m -22 X s 363 1240 m -44 X s 341 1279 m -22 X s 341 1302 m -22 X s 341 1319 m -22 X s 341 1331 m -22 X s 341 1342 m -22 X s 341 1351 m -22 X s 341 1358 m -22 X s
 341 1365 m -22 X s 363 1371 m -44 X s 341 1410 m -22 X s 341 1433 m -22 X s 341 1450 m -22 X s 341 1463 m -22 X s 341 1473 m -22 X s 341 1482 m -22 X s 341 1489 m -22 X s 341 1496 m -22 X s 363 1502 m -44 X s 341 1541 m -22 X s 341 1565 m -22 X s
 341 1581 m -22 X s 341 1594 m -22 X s 341 1604 m -22 X s 341 1613 m -22 X s 341 1620 m -22 X s 341 1627 m -22 X s 363 1633 m -44 X s 341 1673 m -22 X s 341 1696 m -22 X s 341 1712 m -22 X s 341 1725 m -22 X s 2179 584 m 1145 Y s 2157 624 m 22 X s
 2157 647 m 22 X s 2157 663 m 22 X s 2157 676 m 22 X s 2157 686 m 22 X s 2157 695 m 22 X s 2157 703 m 22 X s 2157 709 m 22 X s 2136 715 m 43 X s 2157 755 m 22 X s 2157 778 m 22 X s 2157 794 m 22 X s 2157 807 m 22 X s 2157 817 m 22 X s 2157 826 m 22 X
 s 2157 834 m 22 X s 2157 841 m 22 X s 2136 847 m 43 X s 2157 886 m 22 X s 2157 909 m 22 X s 2157 925 m 22 X s 2157 938 m 22 X s 2157 949 m 22 X s 2157 957 m 22 X s 2157 965 m 22 X s 2157 972 m 22 X s 2136 978 m 43 X s 2157 1017 m 22 X s 2157 1040 m
 22 X s 2157 1057 m 22 X s 2157 1069 m 22 X s 2157 1080 m 22 X s 2157 1088 m 22 X s 2157 1096 m 22 X s 2157 1103 m 22 X s 2136 1109 m 43 X s 2157 1148 m 22 X s 2157 1171 m 22 X s 2157 1188 m 22 X s 2157 1200 m 22 X s 2157 1211 m 22 X s 2157 1219 m 22
 X s 2157 1227 m 22 X s 2157 1234 m 22 X s 2136 1240 m 43 X s 2157 1279 m 22 X s 2157 1302 m 22 X s 2157 1319 m 22 X s 2157 1331 m 22 X s 2157 1342 m 22 X s 2157 1351 m 22 X s 2157 1358 m 22 X s 2157 1365 m 22 X s 2136 1371 m 43 X s 2157 1410 m 22 X
 s 2157 1433 m 22 X s 2157 1450 m 22 X s 2157 1463 m 22 X s 2157 1473 m 22 X s 2157 1482 m 22 X s 2157 1489 m 22 X s 2157 1496 m 22 X s 2136 1502 m 43 X s 2157 1541 m 22 X s 2157 1565 m 22 X s 2157 1581 m 22 X s 2157 1594 m 22 X s 2157 1604 m 22 X s
 2157 1613 m 22 X s 2157 1620 m 22 X s 2157 1627 m 22 X s 2136 1633 m 43 X s 2157 1673 m 22 X s 2157 1696 m 22 X s 2157 1712 m 22 X s 2157 1725 m 22 X s
 gsave  2263 1770 2 313 C 406.765 1447.41 t 0 r /Helvetica findfont 64.4212 sf 0 0 m (SR for MB\255SSd) show NC gr 
 gsave  2263 1770 2 313 C 1464.36 1630.45 t 0 r /Helvetica findfont 64.4212 sf 0 0 m (SM Total) show NC gr  1 1 1 c 1338 1616 m 107 X 64 Y -107 X f 1 0 0 c 6 lw 1338 1648 m 107 X s black
 gsave  2263 1770 2 313 C 1464.36 1538.93 t 0 r /Helvetica findfont 64.4212 sf 0 0 m (Data) show NC gr  1391 1529 m 55 Y s 3 lw 1391 1557 m20 6 lw
 gsave  2263 1770 2 313 C 1464.36 1447.41 t 0 r /Helvetica findfont 64.4212 sf 0 0 m (W+jets) show NC gr  0.4 0.6 1 c 3 lw 1338 1434 m 107 X 64 Y -107 X f 6 lw black 3 lw 1338 1498 m 107 X s 1338 1434 m 107 X s 1445 1434 m 64 Y s 1338 1434 m 64 Y s
 gsave  2263 1770 2 313 C 1498.25 1355.88 t 0 r /Helvetica findfont 64.4212 sf 0 0 m (\(+EW\) & single top) show NC gr 
 gsave  2263 1770 2 313 C 1481.3 1355.88 t 0 r /Helvetica findfont 64.4212 sf 0 0 m (t) show NC gr  1481 1407 m 17 X s
 gsave  2263 1770 2 313 C 1464.36 1355.88 t 0 r /Helvetica findfont 64.4212 sf 0 0 m (t) show NC gr  0.6 1 0.6 c 1338 1343 m 107 X 63 Y -107 X f black 1338 1406 m 107 X s 1338 1343 m 107 X s 1445 1343 m 63 Y s 1338 1343 m 63 Y s
 gsave  2263 1770 2 313 C 1464.36 1264.36 t 0 r /Helvetica findfont 64.4212 sf 0 0 m (Z+jets) show NC gr  1 0.8 0.4 c 1338 1252 m 107 X 63 Y -107 X f black 1338 1315 m 107 X s 1338 1252 m 107 X s 1445 1252 m 63 Y s 1338 1252 m 63 Y s
 gsave  2263 1770 2 313 C 1464.36 1172.84 t 0 r /Helvetica findfont 64.4212 sf 0 0 m (Diboson) show NC gr  1 0.4 0.6 c 1338 1161 m 107 X 63 Y -107 X f black 1338 1224 m 107 X s 1338 1161 m 107 X s 1445 1161 m 63 Y s 1338 1161 m 63 Y s
 gsave  2263 1770 2 313 C 1464.36 1081.32 t 0 r /Helvetica findfont 64.4212 sf 0 0 m (Multi\255jet) show NC gr  0 0 0.4 c 1338 1070 m 107 X 63 Y -107 X f black 1338 1133 m 107 X s 1338 1070 m 107 X s 1445 1070 m 63 Y s 1338 1070 m 63 Y s
 gsave  2263 1770 2 313 C 911.832 1566.05 t 0 r /Helvetica findfont 44.0776 sf 0 0 m (\2551) show NC gr 
 gsave  2263 1770 2 313 C 471.17 1535.54 t 0 r /Helvetica findfont 64.4212 sf 0 0 m (=13TeV, 139 fb) show NC gr 
 gsave  2263 1770 2 313 C 440.662 1535.54 t 0 r /Helvetica findfont 64.4212 sf 0 0 m (s) show NC gr  6 lw 420 1573 m 7 -41 d s 3 lw 427 1532 m 7 61 d s 434 1593 m 37 X s 1 1 1 c 2254 561 2 2 bf black 1 1 1 c black 1860 358 318 187 bl 1 1 1 c black
 1860 358 318 187 bl 6 lw 1 1 1 c black 3 lw 364 362 m20 6 lw 3 lw 457 366 m20 6 lw 3 lw 550 360 m20 6 lw 3 lw 643 366 m20 6 lw 3 lw 736 345 m20 6 lw 3 lw 829 368 m20 6 lw 3 lw 923 373 m20 6 lw 3 lw 1016 488 m20 6 lw 3 lw 1109 525 m20 6 lw 3 lw 318
 187 m 1860 X s
 gsave  2254 561 2 2 C 1959.25 44.0662 t 0 r /Helvetica findfont 78.1689 sf 0 0 m ( [GeV]) show NC gr 
 gsave  2254 561 2 2 C 1928.75 -2.35513e-13 t 0 r /Helvetica findfont 50.9797 sf 0 0 m (T) show NC gr 
 gsave  2254 561 2 2 C 1657.57 44.0662 t 0 r /Helvetica findfont 78.1689 sf 0 0 m (1st jet p) show NC gr  434 201 m -14 Y s 481 194 m -7 Y s 527 194 m -7 Y s 574 194 m -7 Y s 620 194 m -7 Y s 667 201 m -14 Y s 713 194 m -7 Y s 760 194 m -7 Y s 806
 194 m -7 Y s 853 194 m -7 Y s 899 201 m -14 Y s 946 194 m -7 Y s 992 194 m -7 Y s 1039 194 m -7 Y s 1085 194 m -7 Y s 1132 201 m -14 Y s 1178 194 m -7 Y s 1225 194 m -7 Y s 1271 194 m -7 Y s 1318 194 m -7 Y s 1364 201 m -14 Y s 1411 194 m -7 Y s
 1457 194 m -7 Y s 1504 194 m -7 Y s 1550 194 m -7 Y s 1597 201 m -14 Y s 1643 194 m -7 Y s 1690 194 m -7 Y s 1737 194 m -7 Y s 1783 194 m -7 Y s 1830 201 m -14 Y s 1876 194 m -7 Y s 1923 194 m -7 Y s 1969 194 m -7 Y s 2016 194 m -7 Y s 2062 201 m
 -14 Y s 434 201 m -14 Y s 388 194 m -7 Y s 341 194 m -7 Y s 2062 201 m -14 Y s 2109 194 m -7 Y s 2155 194 m -7 Y s
 gsave  2254 561 2 2 C 369.478 118.64 t 0 r /Helvetica findfont 78.1689 sf 0 0 m (500) show NC gr 
 gsave  2254 561 2 2 C 576.251 118.64 t 0 r /Helvetica findfont 78.1689 sf 0 0 m (1000) show NC gr 
 gsave  2254 561 2 2 C 810.141 118.64 t 0 r /Helvetica findfont 78.1689 sf 0 0 m (1500) show NC gr 
 gsave  2254 561 2 2 C 1040.64 118.64 t 0 r /Helvetica findfont 78.1689 sf 0 0 m (2000) show NC gr 
 gsave  2254 561 2 2 C 1274.53 118.64 t 0 r /Helvetica findfont 78.1689 sf 0 0 m (2500) show NC gr 
 gsave  2254 561 2 2 C 1508.42 118.64 t 0 r /Helvetica findfont 78.1689 sf 0 0 m (3000) show NC gr 
 gsave  2254 561 2 2 C 1738.92 118.64 t 0 r /Helvetica findfont 78.1689 sf 0 0 m (3500) show NC gr 
 gsave  2254 561 2 2 C 1972.81 118.64 t 0 r /Helvetica findfont 78.1689 sf 0 0 m (4000) show NC gr  318 545 m 1860 X s 434 531 m 14 Y s 481 538 m 7 Y s 527 538 m 7 Y s 574 538 m 7 Y s 620 538 m 7 Y s 667 531 m 14 Y s 713 538 m 7 Y s 760 538 m 7 Y s
 806 538 m 7 Y s 853 538 m 7 Y s 899 531 m 14 Y s 946 538 m 7 Y s 992 538 m 7 Y s 1039 538 m 7 Y s 1085 538 m 7 Y s 1132 531 m 14 Y s 1178 538 m 7 Y s 1225 538 m 7 Y s 1271 538 m 7 Y s 1318 538 m 7 Y s 1364 531 m 14 Y s 1411 538 m 7 Y s 1457 538 m 7
 Y s 1504 538 m 7 Y s 1550 538 m 7 Y s 1597 531 m 14 Y s 1643 538 m 7 Y s 1690 538 m 7 Y s 1737 538 m 7 Y s 1783 538 m 7 Y s 1830 531 m 14 Y s 1876 538 m 7 Y s 1923 538 m 7 Y s 1969 538 m 7 Y s 2016 538 m 7 Y s 2062 531 m 14 Y s 434 531 m 14 Y s 388
 538 m 7 Y s 341 538 m 7 Y s 2062 531 m 14 Y s 2109 538 m 7 Y s 2155 538 m 7 Y s 318 187 m 358 Y s
 gsave  2254 561 2 2 C 166.096 284.736 t 90 r /Helvetica findfont 67.9729 sf 0 0 m (Data/SM) show NC gr  361 203 m -43 X s 339 220 m -21 X s 339 236 m -21 X s 339 252 m -21 X s 339 268 m -21 X s 361 285 m -43 X s 339 301 m -21 X s 339 317 m -21 X s
 339 334 m -21 X s 339 350 m -21 X s 361 366 m -43 X s 339 382 m -21 X s 339 399 m -21 X s 339 415 m -21 X s 339 431 m -21 X s 361 447 m -43 X s 339 464 m -21 X s 339 480 m -21 X s 339 496 m -21 X s 339 512 m -21 X s 361 529 m -43 X s 361 203 m -43 X
 s 339 187 m -21 X s 361 529 m -43 X s
 gsave  2254 561 2 2 C 261.008 183.044 t 0 r /Helvetica findfont 57.777 sf 0 0 m (0) show NC gr 
 gsave  2254 561 2 2 C 213.552 261.008 t 0 r /Helvetica findfont 57.777 sf 0 0 m (0.5) show NC gr 
 gsave  2254 561 2 2 C 271.177 342.361 t 0 r /Helvetica findfont 57.777 sf 0 0 m (1) show NC gr 
 gsave  2254 561 2 2 C 213.552 423.714 t 0 r /Helvetica findfont 57.777 sf 0 0 m (1.5) show NC gr 
 gsave  2254 561 2 2 C 261.008 505.067 t 0 r /Helvetica findfont 57.777 sf 0 0 m (2) show NC gr  2178 187 m 358 Y s 2135 203 m 43 X s 2157 220 m 21 X s 2157 236 m 21 X s 2157 252 m 21 X s 2157 268 m 21 X s 2135 285 m 43 X s 2157 301 m 21 X s 2157 317
 m 21 X s 2157 334 m 21 X s 2157 350 m 21 X s 2135 366 m 43 X s 2157 382 m 21 X s 2157 399 m 21 X s 2157 415 m 21 X s 2157 431 m 21 X s 2135 447 m 43 X s 2157 464 m 21 X s 2157 480 m 21 X s 2157 496 m 21 X s 2157 512 m 21 X s 2135 529 m 43 X s 2135
 203 m 43 X s 2157 187 m 21 X s 2135 529 m 43 X s 9 lw 829 381 m 11 Y s 829 392 m cl s 829 354 m -10 Y s 829 344 m cl s 923 387 m 34 Y s 923 421 m cl s 923 360 m -33 Y s 923 327 m cl s 1016 502 m 43 Y s 1016 545 m cl s 1016 475 m -79 Y s 1016 396 m
 cl s 1109 538 m 7 Y s 1109 545 m cl s 1109 511 m -161 Y s 1109 350 m cl s 1202 545 m -259 Y s 1202 286 m cl s 3 lw 364 362 457 366 550 360 643 366 736 345 829 368 923 373 1016 488 1109 525 9 { m20} R 9 lw 1 0 0 c 6 lw black 3 lw 1 0 0 c 2155 203 m
 cl s 2127 203 m cl s 2098 203 m cl s 2069 203 m cl s 2040 203 m cl s 2012 203 m cl s 1983 203 m cl s 1954 203 m cl s 1926 203 m cl s 1897 203 m cl s 1868 203 m cl s 1840 203 m cl s 1811 203 m cl s 1806 227 m -22 -22 d s 1806 256 m -51 -51 d s 1806
 285 m -79 -80 d s 1806 313 m -93 -93 d s 1806 342 m -93 -93 d s 1806 370 m -100 -100 d s 1806 399 m -129 -129 d s 1806 428 m -158 -158 d s 1806 456 m -214 -213 d s 1806 485 m -242 -242 d s 1806 513 m -271 -270 d s 1527 235 m -25 -25 d s 1791 527 m
 -318 -317 d s 1762 527 m -49 -49 d s 1697 462 m -253 -252 d s 1734 527 m -21 -21 d s 1669 462 m -258 -256 d s 1640 462 m -257 -256 d s 1620 471 m -266 -265 d s 1610 489 m -269 -268 d s 1581 489 m -240 -239 d s 1552 489 m -211 -211 d s 1527 493 m
 -198 -198 d s 1527 521 m -227 -226 d s 1500 522 m -229 -227 d s 1471 522 m -223 -222 d s 1442 522 m -200 -199 d s 1418 526 m -77 -76 d s 1328 437 m -115 -114 d s 1389 526 m -48 -47 d s 1300 437 m -115 -114 d s 1360 526 m -19 -19 d s 1271 437 m -23
 -22 d s 1243 409 m -87 -86 d s 1214 409 m -72 -72 d s 1185 409 m -72 -72 d s 1157 409 m -2 -1 d s 1142 395 m -58 -58 d s 1114 395 m -52 -52 d s 1085 395 m -49 -49 d s 1047 386 m -40 -40 d s 1019 386 m -40 -40 d s 990 386 m -36 -36 d s 957 382 m -32
 -32 d s 928 382 m -31 -32 d s 900 382 m -28 -28 d s 867 378 m -24 -24 d s 839 378 m -25 -24 d s 810 378 m -24 -24 d s 778 375 m -18 -18 d s 750 375 m -19 -18 d s 721 375 m -19 -18 d s 692 375 m -18 -17 d s 663 375 m -17 -17 d s 634 375 m -17 -17 d s
 606 375 m -17 -17 d s 576 374 m -16 -16 d s 548 374 m -16 -16 d s 519 374 m -16 -16 d s 490 374 m -16 -16 d s 461 374 m -15 -16 d s 318 231 m s 433 374 m -16 -16 d s 318 259 m s 406 376 m -20 -20 d s 318 288 m s 377 376 m -19 -20 d s 318 317 m s 348
 376 m -19 -20 d s 318 345 m s 320 376 m -2 -2 d s 6 lw black[ 4 8] 0 sd 3 lw 318 447 m 1860 X s 318 285 m 1860 X s 1 0 0 c[  12 12 ] 0 sd 6 lw 318 366 m 1860 X s
 gr  gr showpage
end
%%EOF
