%!PS-Adobe-2.0 EPSF-2.0
%%BoundingBox:  0 0 567 521
%%Title: Distributions/jetPt_0__distrSR_MB-GGo_afterFit_forThesis.eps: canvas
%%Creator: ROOT Version 6.04/16
%%CreationDate: Tue May 19 22:03:55 2020
%%DocumentNeededResources: ProcSet (FontSetInit)
%%EndComments
%%BeginProlog
80 dict begin
/s {stroke} def /l {lineto} def /m {moveto} def /t {translate} def
/r {rotate} def /rl {roll}  def /R {repeat} def
/d {rlineto} def /rm {rmoveto} def /gr {grestore} def /f {eofill} def
/c {setrgbcolor} def /black {0 setgray} def /sd {setdash} def
/cl {closepath} def /sf {scalefont setfont} def /lw {setlinewidth} def
/box {m dup 0 exch d exch 0 d 0 exch neg d cl} def
/NC{systemdict begin initclip end}def/C{NC box clip newpath}def
/bl {box s} def /bf {gsave box gsave f grestore 1 lw [] 0 sd s grestore} def /Y { 0 exch d} def /X { 0 d} def 
/K {{pop pop 0 moveto} exch kshow} bind def
/ita {/ang 15 def gsave [1 0 ang dup sin exch cos div 1 0 0] concat} def 
/mp {newpath /y exch def /x exch def} def
/side {[w .77 mul w .23 mul] .385 w mul sd w 0 l currentpoint t -144 r} def
/mr {mp x y w2 0 360 arc} def /m24 {mr s} def /m20 {mr f} def
/mb {mp x y w2 add m w2 neg 0 d 0 w neg d w 0 d 0 w d cl} def
/mt {mp x y w2 add m w2 neg w neg d w 0 d cl} def
/m21 {mb f} def /m25 {mb s} def /m22 {mt f} def /m26{mt s} def
/m23 {mp x y w2 sub m w2 w d w neg 0 d cl f} def
/m27 {mp x y w2 add m w3 neg w2 neg d w3 w2 neg d w3 w2 d cl s} def
/m28 {mp x w2 sub y w2 sub w3 add m w3 0 d  0 w3 neg d w3 0 d 0 w3 d w3 0 d  0 w3 d w3 neg 0 d 0 w3 d w3 neg 0 d 0 w3 neg d w3 neg 0 d cl s } def
/m29 {mp gsave x w2 sub y w2 add w3 sub m currentpoint t 4 {side} repeat cl fill gr} def
/m30 {mp gsave x w2 sub y w2 add w3 sub m currentpoint t 4 {side} repeat cl s gr} def
/m31 {mp x y w2 sub m 0 w d x w2 sub y m w 0 d x w2 sub y w2 add m w w neg d x w2 sub y w2 sub m w w d s} def
/m32 {mp x y w2 sub m w2 w d w neg 0 d cl s} def
/m33 {mp x y w2 add m w3 neg w2 neg d w3 w2 neg d w3 w2 d cl f} def
/m34 {mp x w2 sub y w2 sub w3 add m w3 0 d  0 w3 neg d w3 0 d 0 w3 d w3 0 d  0 w3 d w3 neg 0 d 0 w3 d w3 neg 0 d 0 w3 neg d w3 neg 0 d cl f } def
/m2 {mp x y w2 sub m 0 w d x w2 sub y m w 0 d s} def
/m5 {mp x w2 sub y w2 sub m w w d x w2 sub y w2 add m w w neg d s} def
%%IncludeResource: ProcSet (FontSetInit)
%%IncludeResource: font Times-Roman
%%IncludeResource: font Times-Italic
%%IncludeResource: font Times-Bold
%%IncludeResource: font Times-BoldItalic
%%IncludeResource: font Helvetica
%%IncludeResource: font Helvetica-Oblique
%%IncludeResource: font Helvetica-Bold
%%IncludeResource: font Helvetica-BoldOblique
%%IncludeResource: font Courier
%%IncludeResource: font Courier-Oblique
%%IncludeResource: font Courier-Bold
%%IncludeResource: font Courier-BoldOblique
%%IncludeResource: font Symbol
%%IncludeResource: font ZapfDingbats
/reEncode {exch findfont dup length dict begin {1 index /FID eq  {pop pop} {def} ifelse } forall /Encoding exch def currentdict end dup /FontName get exch definefont pop } def [/Times-Bold /Times-Italic /Times-BoldItalic /Helvetica /Helvetica-Oblique
 /Helvetica-Bold /Helvetica-BoldOblique /Courier /Courier-Oblique /Courier-Bold /Courier-BoldOblique /Times-Roman /AvantGarde-Book /AvantGarde-BookOblique /AvantGarde-Demi /AvantGarde-DemiOblique /Bookman-Demi /Bookman-DemiItalic /Bookman-Light
 /Bookman-LightItalic /Helvetica-Narrow /Helvetica-Narrow-Bold /Helvetica-Narrow-BoldOblique /Helvetica-Narrow-Oblique /NewCenturySchlbk-Roman /NewCenturySchlbk-Bold /NewCenturySchlbk-BoldItalic /NewCenturySchlbk-Italic /Palatino-Bold
 /Palatino-BoldItalic /Palatino-Italic /Palatino-Roman ] {ISOLatin1Encoding reEncode } forall
%%EndProlog
%%BeginSetup
%%EndSetup
newpath  gsave  .25 .25 scale  gsave  0 0 t black[  ] 0 sd 3 lw 1 1 1 c 2268 2085 0 0 bf black 1 1 1 c 2263 1770 2 313 bf black 1 1 1 c black 1860 1145 319 584 bl 1 1 1 c black 1860 1145 319 584 bl 6 lw 1 1 1 c black 3 lw /w 33 def /w2 {w 2 div} def
 /w3 {w 3 div} def 366 1116 m20 6 lw 459 950 m 9 Y s 459 986 m 3 Y s 3 lw 459 972 m20 6 lw 552 873 m 23 Y s 552 923 m 11 Y s 3 lw 552 909 m20 6 lw 3 lw 319 584 m 1860 X s
 gsave  2263 1770 2 313 C 1949.08 376.258 t 0 r /Helvetica findfont 81.3741 sf 0 0 m ( [GeV]) show NC gr 
 gsave  2263 1770 2 313 C 1915.19 332.192 t 0 r /Helvetica findfont 54.2494 sf 0 0 m (T) show NC gr 
 gsave  2263 1770 2 313 C 1630.45 376.258 t 0 r /Helvetica findfont 81.3741 sf 0 0 m (1st jet p) show NC gr  435 584 m cl s 482 584 m cl s 528 584 m cl s 575 584 m cl s 621 584 m cl s 668 584 m cl s 714 584 m cl s 761 584 m cl s 807 584 m cl s 854
 584 m cl s 900 584 m cl s 947 584 m cl s 993 584 m cl s 1040 584 m cl s 1087 584 m cl s 1133 584 m cl s 1180 584 m cl s 1226 584 m cl s 1273 584 m cl s 1319 584 m cl s 1366 584 m cl s 1412 584 m cl s 1459 584 m cl s 1505 584 m cl s 1552 584 m cl s
 1598 584 m cl s 1645 584 m cl s 1691 584 m cl s 1738 584 m cl s 1784 584 m cl s 1831 584 m cl s 1877 584 m cl s 1924 584 m cl s 1970 584 m cl s 2017 584 m cl s 2063 584 m cl s 435 584 m cl s 389 584 m cl s 342 584 m cl s 2063 584 m cl s 2110 584 m
 cl s 2156 584 m cl s 319 1729 m 1860 X s 435 1729 m cl s 482 1729 m cl s 528 1729 m cl s 575 1729 m cl s 621 1729 m cl s 668 1729 m cl s 714 1729 m cl s 761 1729 m cl s 807 1729 m cl s 854 1729 m cl s 900 1729 m cl s 947 1729 m cl s 993 1729 m cl s
 1040 1729 m cl s 1087 1729 m cl s 1133 1729 m cl s 1180 1729 m cl s 1226 1729 m cl s 1273 1729 m cl s 1319 1729 m cl s 1366 1729 m cl s 1412 1729 m cl s 1459 1729 m cl s 1505 1729 m cl s 1552 1729 m cl s 1598 1729 m cl s 1645 1729 m cl s 1691 1729 m
 cl s 1738 1729 m cl s 1784 1729 m cl s 1831 1729 m cl s 1877 1729 m cl s 1924 1729 m cl s 1970 1729 m cl s 2017 1729 m cl s 2063 1729 m cl s 435 1729 m cl s 389 1729 m cl s 342 1729 m cl s 2063 1729 m cl s 2110 1729 m cl s 2156 1729 m cl s 319 584 m
 1145 Y s
 gsave  2263 1770 2 313 C 166.096 1091.49 t 90 r /Helvetica findfont 81.3741 sf 0 0 m (Events / 200 GeV) show NC gr  341 637 m -22 X s 341 668 m -22 X s 341 690 m -22 X s 341 707 m -22 X s 341 721 m -22 X s 341 733 m -22 X s 341 743 m -22 X s 341 752
 m -22 X s 363 760 m -44 X s
 gsave  2263 1770 2 313 C 300.555 733.201 t 0 r  -36 0 t /Helvetica findfont 64.4212 sf 0 0 m (1) show NC gr  341 813 m -22 X s 341 844 m -22 X s 341 866 m -22 X s 341 883 m -22 X s 341 897 m -22 X s 341 909 m -22 X s 341 919 m -22 X s 341 928 m -22
 X s 363 936 m -44 X s
 gsave  2263 1770 2 313 C 300.555 909.21 t 0 r  -73 0 t /Helvetica findfont 64.4212 sf 0 0 m (10) show NC gr  341 989 m -22 X s 341 1020 m -22 X s 341 1042 m -22 X s 341 1059 m -22 X s 341 1073 m -22 X s 341 1085 m -22 X s 341 1095 m -22 X s 341 1104
 m -22 X s 363 1112 m -44 X s
 gsave  2263 1770 2 313 C 274.567 1111.83 t 0 r /Helvetica findfont 44.0776 sf 0 0 m (2) show NC gr 
 gsave  2263 1770 2 313 C 203.383 1084.71 t 0 r /Helvetica findfont 64.4212 sf 0 0 m (10) show NC gr  341 1165 m -22 X s 341 1196 m -22 X s 341 1218 m -22 X s 341 1235 m -22 X s 341 1249 m -22 X s 341 1261 m -22 X s 341 1271 m -22 X s 341 1280 m -22
 X s 363 1288 m -44 X s
 gsave  2263 1770 2 313 C 274.567 1291.48 t 0 r /Helvetica findfont 44.0776 sf 0 0 m (3) show NC gr 
 gsave  2263 1770 2 313 C 203.383 1260.97 t 0 r /Helvetica findfont 64.4212 sf 0 0 m (10) show NC gr  341 1341 m -22 X s 341 1372 m -22 X s 341 1394 m -22 X s 341 1411 m -22 X s 341 1425 m -22 X s 341 1437 m -22 X s 341 1447 m -22 X s 341 1456 m -22
 X s 363 1464 m -44 X s
 gsave  2263 1770 2 313 C 274.567 1464.36 t 0 r /Helvetica findfont 44.0776 sf 0 0 m (4) show NC gr 
 gsave  2263 1770 2 313 C 203.383 1437.24 t 0 r /Helvetica findfont 64.4212 sf 0 0 m (10) show NC gr  341 1517 m -22 X s 341 1548 m -22 X s 341 1570 m -22 X s 341 1587 m -22 X s 341 1601 m -22 X s 341 1613 m -22 X s 341 1623 m -22 X s 341 1632 m -22
 X s 363 1640 m -44 X s
 gsave  2263 1770 2 313 C 274.567 1640.62 t 0 r /Helvetica findfont 44.0776 sf 0 0 m (5) show NC gr 
 gsave  2263 1770 2 313 C 203.383 1610.11 t 0 r /Helvetica findfont 64.4212 sf 0 0 m (10) show NC gr  341 1693 m -22 X s 341 1724 m -22 X s 2179 584 m 1145 Y s 2157 637 m 22 X s 2157 668 m 22 X s 2157 690 m 22 X s 2157 707 m 22 X s 2157 721 m 22 X s
 2157 733 m 22 X s 2157 743 m 22 X s 2157 752 m 22 X s 2136 760 m 43 X s 2157 813 m 22 X s 2157 844 m 22 X s 2157 866 m 22 X s 2157 883 m 22 X s 2157 897 m 22 X s 2157 909 m 22 X s 2157 919 m 22 X s 2157 928 m 22 X s 2136 936 m 43 X s 2157 989 m 22 X
 s 2157 1020 m 22 X s 2157 1042 m 22 X s 2157 1059 m 22 X s 2157 1073 m 22 X s 2157 1085 m 22 X s 2157 1095 m 22 X s 2157 1104 m 22 X s 2136 1112 m 43 X s 2157 1165 m 22 X s 2157 1196 m 22 X s 2157 1218 m 22 X s 2157 1235 m 22 X s 2157 1249 m 22 X s
 2157 1261 m 22 X s 2157 1271 m 22 X s 2157 1280 m 22 X s 2136 1288 m 43 X s 2157 1341 m 22 X s 2157 1372 m 22 X s 2157 1394 m 22 X s 2157 1411 m 22 X s 2157 1425 m 22 X s 2157 1437 m 22 X s 2157 1447 m 22 X s 2157 1456 m 22 X s 2136 1464 m 43 X s
 2157 1517 m 22 X s 2157 1548 m 22 X s 2157 1570 m 22 X s 2157 1587 m 22 X s 2157 1601 m 22 X s 2157 1613 m 22 X s 2157 1623 m 22 X s 2157 1632 m 22 X s 2136 1640 m 43 X s 2157 1693 m 22 X s 2157 1724 m 22 X s 0.4 0.6 1 c black 0.4 0.6 1 c 319 584 m
 533 Y 93 X -130 Y 93 X -118 Y 93 X -132 Y 93 X -83 Y 93 X -32 Y 93 X 10 Y 93 X -48 Y 1209 X f black 0.4 0.6 1 c black 319 1117 m 93 X -130 Y 93 X -118 Y 93 X -132 Y 93 X -83 Y 93 X -32 Y 93 X 10 Y 93 X -48 Y 1209 X s 0.999 0.999 0.999 c black 0.999
 0.999 0.999 c 319 584 m 515 Y 93 X -130 Y 93 X -120 Y 93 X -147 Y 93 X -93 Y 93 X -9 Y 93 X -16 Y 1302 X f black 0.999 0.999 0.999 c black 319 1099 m 93 X -130 Y 93 X -120 Y 93 X -147 Y 93 X -93 Y 93 X -9 Y 93 X -16 Y 1302 X s 1 1 1 c black 319 1099
 m 93 X -130 Y 93 X -120 Y 93 X -147 Y 93 X -93 Y 93 X -9 Y 93 X -16 Y 1302 X s 0.6 1 0.6 c black 0.6 1 0.6 c 319 584 m 515 Y 93 X -130 Y 93 X -120 Y 93 X -147 Y 93 X -93 Y 93 X -9 Y 93 X -16 Y 1302 X f black 0.6 1 0.6 c black 319 1099 m 93 X -130 Y
 93 X -120 Y 93 X -147 Y 93 X -93 Y 93 X -9 Y 93 X -16 Y 1302 X s 0.999 0.999 0.999 c black 0.999 0.999 0.999 c 319 584 m 434 Y 93 X -100 Y 93 X -104 Y 93 X -144 Y 93 X -86 Y 93 X 13 Y 93 X -13 Y 1302 X f black 0.999 0.999 0.999 c black 319 1018 m 93
 X -100 Y 93 X -104 Y 93 X -144 Y 93 X -86 Y 93 X 13 Y 93 X -13 Y 1302 X s 1 1 1 c black 319 1018 m 93 X -100 Y 93 X -104 Y 93 X -144 Y 93 X -86 Y 93 X 13 Y 93 X -13 Y 1302 X s 1 0.8 0.4 c black 1 0.8 0.4 c 319 584 m 434 Y 93 X -100 Y 93 X -104 Y 93
 X -144 Y 93 X -86 Y 93 X 13 Y 93 X -13 Y 1302 X f black 1 0.8 0.4 c black 319 1018 m 93 X -100 Y 93 X -104 Y 93 X -144 Y 93 X -86 Y 93 X 13 Y 93 X -13 Y 1302 X s 0.999 0.999 0.999 c black 0.999 0.999 0.999 c 319 584 m 306 Y 93 X -103 Y 93 X -101 Y
 93 X -69 Y 93 X -33 Y 1488 X f black 0.999 0.999 0.999 c black 319 890 m 93 X -103 Y 93 X -101 Y 93 X -69 Y 93 X -33 Y 1488 X s 1 1 1 c black 319 890 m 93 X -103 Y 93 X -101 Y 93 X -69 Y 93 X -33 Y 1488 X s 1 0.4 0.6 c black 1 0.4 0.6 c 319 584 m
 306 Y 93 X -103 Y 93 X -101 Y 93 X -69 Y 93 X -33 Y 1488 X f black 1 0.4 0.6 c black 319 890 m 93 X -103 Y 93 X -101 Y 93 X -69 Y 93 X -33 Y 1488 X s 0.999 0.999 0.999 c black 0.999 0.999 0.999 c 319 584 m 19 Y 93 X -19 Y 1767 X f black 0.999 0.999
 0.999 c black 319 603 m 93 X -19 Y 1767 X s 1 1 1 c black 319 603 m 93 X -19 Y 1767 X s 0 0 0.4 c black 0 0 0.4 c 319 584 m 19 Y 93 X -19 Y 1767 X f black 0 0 0.4 c black 319 603 m 93 X -19 Y 1767 X s 1 0 0 c 6 lw 1 1 1 c black 1 0 0 c 319 1117 m 93
 X -130 Y 93 X -118 Y 93 X -132 Y 93 X -83 Y 93 X -32 Y 93 X 10 Y 93 X -48 Y 1209 X s black 3 lw 1 0 0 c 1 lw << /PatternType 1 /PaintType 2 /TilingType 1 /BBox [ 0 0 100 100 ] /XStep 100 /YStep 100 /PaintProc { begin gsave 0 100 m 100 0 l s gr end }
 >> [ 0.24 0 0 0.24 0 0 ] makepattern /P05 exch def /cs {[/Pattern /DeviceRGB] setcolorspace} def /FA {f [/DeviceRGB] setcolorspace} def cs 1 0 0 P05 setcolor 319 584 m 538 Y 93 X -128 Y 93 X -115 Y 93 X -131 Y 93 X -79 Y 93 X -12 Y 93 X 29 Y 93 X
 -102 Y -186 X 52 Y -93 X 87 Y -93 X 134 Y -93 X 122 Y -93 X 131 Y -93 X -526 Y FA 6 lw 1 1 1 c 15 lw 459 952 m -1 Y s 459 951 m cl s 552 929 m 5 Y s 552 934 m cl s 552 889 m -15 Y s 552 874 m cl s black 1 1 1 c 3 lw /w 43 def /w2 {w 2 div} def /w3
 {w 3 div} def 366 1116 459 972 552 909 3 { m20} R 15 lw black 6 lw 1 1 1 c black 3 lw /w 33 def /w2 {w 2 div} def /w3 {w 3 div} def 366 1116 m20 6 lw 459 950 m 9 Y s 459 986 m 3 Y s 3 lw 459 972 m20 6 lw 552 873 m 23 Y s 552 923 m 11 Y s 3 lw 552
 909 m20 6 lw 459 986 m 4 Y s 459 990 m cl s 459 959 m -8 Y s 459 951 m cl s 552 923 m 11 Y s 552 934 m cl s 552 896 m -22 Y s 552 874 m cl s 3 lw 366 1116 459 972 552 909 3 { m20} R 6 lw 3 lw 319 584 m 1860 X s 435 584 m cl s 482 584 m cl s 528 584
 m cl s 575 584 m cl s 621 584 m cl s 668 584 m cl s 714 584 m cl s 761 584 m cl s 807 584 m cl s 854 584 m cl s 900 584 m cl s 947 584 m cl s 993 584 m cl s 1040 584 m cl s 1087 584 m cl s 1133 584 m cl s 1180 584 m cl s 1226 584 m cl s 1273 584 m
 cl s 1319 584 m cl s 1366 584 m cl s 1412 584 m cl s 1459 584 m cl s 1505 584 m cl s 1552 584 m cl s 1598 584 m cl s 1645 584 m cl s 1691 584 m cl s 1738 584 m cl s 1784 584 m cl s 1831 584 m cl s 1877 584 m cl s 1924 584 m cl s 1970 584 m cl s 2017
 584 m cl s 2063 584 m cl s 435 584 m cl s 389 584 m cl s 342 584 m cl s 2063 584 m cl s 2110 584 m cl s 2156 584 m cl s 319 1729 m 1860 X s 435 1729 m cl s 482 1729 m cl s 528 1729 m cl s 575 1729 m cl s 621 1729 m cl s 668 1729 m cl s 714 1729 m cl
 s 761 1729 m cl s 807 1729 m cl s 854 1729 m cl s 900 1729 m cl s 947 1729 m cl s 993 1729 m cl s 1040 1729 m cl s 1087 1729 m cl s 1133 1729 m cl s 1180 1729 m cl s 1226 1729 m cl s 1273 1729 m cl s 1319 1729 m cl s 1366 1729 m cl s 1412 1729 m cl
 s 1459 1729 m cl s 1505 1729 m cl s 1552 1729 m cl s 1598 1729 m cl s 1645 1729 m cl s 1691 1729 m cl s 1738 1729 m cl s 1784 1729 m cl s 1831 1729 m cl s 1877 1729 m cl s 1924 1729 m cl s 1970 1729 m cl s 2017 1729 m cl s 2063 1729 m cl s 435 1729
 m cl s 389 1729 m cl s 342 1729 m cl s 2063 1729 m cl s 2110 1729 m cl s 2156 1729 m cl s 319 584 m 1145 Y s 341 637 m -22 X s 341 668 m -22 X s 341 690 m -22 X s 341 707 m -22 X s 341 721 m -22 X s 341 733 m -22 X s 341 743 m -22 X s 341 752 m -22
 X s 363 760 m -44 X s 341 813 m -22 X s 341 844 m -22 X s 341 866 m -22 X s 341 883 m -22 X s 341 897 m -22 X s 341 909 m -22 X s 341 919 m -22 X s 341 928 m -22 X s 363 936 m -44 X s 341 989 m -22 X s 341 1020 m -22 X s 341 1042 m -22 X s 341 1059
 m -22 X s 341 1073 m -22 X s 341 1085 m -22 X s 341 1095 m -22 X s 341 1104 m -22 X s 363 1112 m -44 X s 341 1165 m -22 X s 341 1196 m -22 X s 341 1218 m -22 X s 341 1235 m -22 X s 341 1249 m -22 X s 341 1261 m -22 X s 341 1271 m -22 X s 341 1280 m
 -22 X s 363 1288 m -44 X s 341 1341 m -22 X s 341 1372 m -22 X s 341 1394 m -22 X s 341 1411 m -22 X s 341 1425 m -22 X s 341 1437 m -22 X s 341 1447 m -22 X s 341 1456 m -22 X s 363 1464 m -44 X s 341 1517 m -22 X s 341 1548 m -22 X s 341 1570 m
 -22 X s 341 1587 m -22 X s 341 1601 m -22 X s 341 1613 m -22 X s 341 1623 m -22 X s 341 1632 m -22 X s 363 1640 m -44 X s 341 1693 m -22 X s 341 1724 m -22 X s 2179 584 m 1145 Y s 2157 637 m 22 X s 2157 668 m 22 X s 2157 690 m 22 X s 2157 707 m 22 X
 s 2157 721 m 22 X s 2157 733 m 22 X s 2157 743 m 22 X s 2157 752 m 22 X s 2136 760 m 43 X s 2157 813 m 22 X s 2157 844 m 22 X s 2157 866 m 22 X s 2157 883 m 22 X s 2157 897 m 22 X s 2157 909 m 22 X s 2157 919 m 22 X s 2157 928 m 22 X s 2136 936 m 43
 X s 2157 989 m 22 X s 2157 1020 m 22 X s 2157 1042 m 22 X s 2157 1059 m 22 X s 2157 1073 m 22 X s 2157 1085 m 22 X s 2157 1095 m 22 X s 2157 1104 m 22 X s 2136 1112 m 43 X s 2157 1165 m 22 X s 2157 1196 m 22 X s 2157 1218 m 22 X s 2157 1235 m 22 X s
 2157 1249 m 22 X s 2157 1261 m 22 X s 2157 1271 m 22 X s 2157 1280 m 22 X s 2136 1288 m 43 X s 2157 1341 m 22 X s 2157 1372 m 22 X s 2157 1394 m 22 X s 2157 1411 m 22 X s 2157 1425 m 22 X s 2157 1437 m 22 X s 2157 1447 m 22 X s 2157 1456 m 22 X s
 2136 1464 m 43 X s 2157 1517 m 22 X s 2157 1548 m 22 X s 2157 1570 m 22 X s 2157 1587 m 22 X s 2157 1601 m 22 X s 2157 1613 m 22 X s 2157 1623 m 22 X s 2157 1632 m 22 X s 2136 1640 m 43 X s 2157 1693 m 22 X s 2157 1724 m 22 X s
 gsave  2263 1770 2 313 C 406.765 1447.41 t 0 r /Helvetica findfont 64.4212 sf 0 0 m (SR for MB\255GGo) show NC gr 
 gsave  2263 1770 2 313 C 1464.36 1630.45 t 0 r /Helvetica findfont 64.4212 sf 0 0 m (SM Total) show NC gr  1 1 1 c 1338 1616 m 107 X 64 Y -107 X f 1 0 0 c 6 lw 1338 1648 m 107 X s black
 gsave  2263 1770 2 313 C 1464.36 1538.93 t 0 r /Helvetica findfont 64.4212 sf 0 0 m (Data) show NC gr  1391 1529 m 55 Y s 3 lw 1391 1557 m20 6 lw
 gsave  2263 1770 2 313 C 1464.36 1447.41 t 0 r /Helvetica findfont 64.4212 sf 0 0 m (W+jets) show NC gr  0.4 0.6 1 c 3 lw 1338 1434 m 107 X 64 Y -107 X f 6 lw black 3 lw 1338 1498 m 107 X s 1338 1434 m 107 X s 1445 1434 m 64 Y s 1338 1434 m 64 Y s
 gsave  2263 1770 2 313 C 1498.25 1355.88 t 0 r /Helvetica findfont 64.4212 sf 0 0 m (\(+EW\) & single top) show NC gr 
 gsave  2263 1770 2 313 C 1481.3 1355.88 t 0 r /Helvetica findfont 64.4212 sf 0 0 m (t) show NC gr  1481 1407 m 17 X s
 gsave  2263 1770 2 313 C 1464.36 1355.88 t 0 r /Helvetica findfont 64.4212 sf 0 0 m (t) show NC gr  0.6 1 0.6 c 1338 1343 m 107 X 63 Y -107 X f black 1338 1406 m 107 X s 1338 1343 m 107 X s 1445 1343 m 63 Y s 1338 1343 m 63 Y s
 gsave  2263 1770 2 313 C 1464.36 1264.36 t 0 r /Helvetica findfont 64.4212 sf 0 0 m (Z+jets) show NC gr  1 0.8 0.4 c 1338 1252 m 107 X 63 Y -107 X f black 1338 1315 m 107 X s 1338 1252 m 107 X s 1445 1252 m 63 Y s 1338 1252 m 63 Y s
 gsave  2263 1770 2 313 C 1464.36 1172.84 t 0 r /Helvetica findfont 64.4212 sf 0 0 m (Diboson) show NC gr  1 0.4 0.6 c 1338 1161 m 107 X 63 Y -107 X f black 1338 1224 m 107 X s 1338 1161 m 107 X s 1445 1161 m 63 Y s 1338 1161 m 63 Y s
 gsave  2263 1770 2 313 C 1464.36 1081.32 t 0 r /Helvetica findfont 64.4212 sf 0 0 m (Multi\255jet) show NC gr  0 0 0.4 c 1338 1070 m 107 X 63 Y -107 X f black 1338 1133 m 107 X s 1338 1070 m 107 X s 1445 1070 m 63 Y s 1338 1070 m 63 Y s
 gsave  2263 1770 2 313 C 911.832 1566.05 t 0 r /Helvetica findfont 44.0776 sf 0 0 m (\2551) show NC gr 
 gsave  2263 1770 2 313 C 471.17 1535.54 t 0 r /Helvetica findfont 64.4212 sf 0 0 m (=13TeV, 139 fb) show NC gr 
 gsave  2263 1770 2 313 C 440.662 1535.54 t 0 r /Helvetica findfont 64.4212 sf 0 0 m (s) show NC gr  6 lw 420 1573 m 7 -41 d s 3 lw 427 1532 m 7 61 d s 434 1593 m 37 X s 1 1 1 c 2254 561 2 2 bf black 1 1 1 c black 1860 358 318 187 bl 1 1 1 c black
 1860 358 318 187 bl 6 lw 1 1 1 c black 3 lw 364 365 m20 6 lw 3 lw 457 337 m20 6 lw 3 lw 550 479 m20 6 lw 3 lw 318 187 m 1860 X s
 gsave  2254 561 2 2 C 1959.25 44.0662 t 0 r /Helvetica findfont 78.1689 sf 0 0 m ( [GeV]) show NC gr 
 gsave  2254 561 2 2 C 1928.75 -2.35513e-13 t 0 r /Helvetica findfont 50.9797 sf 0 0 m (T) show NC gr 
 gsave  2254 561 2 2 C 1657.57 44.0662 t 0 r /Helvetica findfont 78.1689 sf 0 0 m (1st jet p) show NC gr  434 201 m -14 Y s 481 194 m -7 Y s 527 194 m -7 Y s 574 194 m -7 Y s 620 194 m -7 Y s 667 201 m -14 Y s 713 194 m -7 Y s 760 194 m -7 Y s 806
 194 m -7 Y s 853 194 m -7 Y s 899 201 m -14 Y s 946 194 m -7 Y s 992 194 m -7 Y s 1039 194 m -7 Y s 1085 194 m -7 Y s 1132 201 m -14 Y s 1178 194 m -7 Y s 1225 194 m -7 Y s 1271 194 m -7 Y s 1318 194 m -7 Y s 1364 201 m -14 Y s 1411 194 m -7 Y s
 1457 194 m -7 Y s 1504 194 m -7 Y s 1550 194 m -7 Y s 1597 201 m -14 Y s 1643 194 m -7 Y s 1690 194 m -7 Y s 1737 194 m -7 Y s 1783 194 m -7 Y s 1830 201 m -14 Y s 1876 194 m -7 Y s 1923 194 m -7 Y s 1969 194 m -7 Y s 2016 194 m -7 Y s 2062 201 m
 -14 Y s 434 201 m -14 Y s 388 194 m -7 Y s 341 194 m -7 Y s 2062 201 m -14 Y s 2109 194 m -7 Y s 2155 194 m -7 Y s
 gsave  2254 561 2 2 C 369.478 118.64 t 0 r /Helvetica findfont 78.1689 sf 0 0 m (500) show NC gr 
 gsave  2254 561 2 2 C 576.251 118.64 t 0 r /Helvetica findfont 78.1689 sf 0 0 m (1000) show NC gr 
 gsave  2254 561 2 2 C 810.141 118.64 t 0 r /Helvetica findfont 78.1689 sf 0 0 m (1500) show NC gr 
 gsave  2254 561 2 2 C 1040.64 118.64 t 0 r /Helvetica findfont 78.1689 sf 0 0 m (2000) show NC gr 
 gsave  2254 561 2 2 C 1274.53 118.64 t 0 r /Helvetica findfont 78.1689 sf 0 0 m (2500) show NC gr 
 gsave  2254 561 2 2 C 1508.42 118.64 t 0 r /Helvetica findfont 78.1689 sf 0 0 m (3000) show NC gr 
 gsave  2254 561 2 2 C 1738.92 118.64 t 0 r /Helvetica findfont 78.1689 sf 0 0 m (3500) show NC gr 
 gsave  2254 561 2 2 C 1972.81 118.64 t 0 r /Helvetica findfont 78.1689 sf 0 0 m (4000) show NC gr  318 545 m 1860 X s 434 531 m 14 Y s 481 538 m 7 Y s 527 538 m 7 Y s 574 538 m 7 Y s 620 538 m 7 Y s 667 531 m 14 Y s 713 538 m 7 Y s 760 538 m 7 Y s
 806 538 m 7 Y s 853 538 m 7 Y s 899 531 m 14 Y s 946 538 m 7 Y s 992 538 m 7 Y s 1039 538 m 7 Y s 1085 538 m 7 Y s 1132 531 m 14 Y s 1178 538 m 7 Y s 1225 538 m 7 Y s 1271 538 m 7 Y s 1318 538 m 7 Y s 1364 531 m 14 Y s 1411 538 m 7 Y s 1457 538 m 7
 Y s 1504 538 m 7 Y s 1550 538 m 7 Y s 1597 531 m 14 Y s 1643 538 m 7 Y s 1690 538 m 7 Y s 1737 538 m 7 Y s 1783 538 m 7 Y s 1830 531 m 14 Y s 1876 538 m 7 Y s 1923 538 m 7 Y s 1969 538 m 7 Y s 2016 538 m 7 Y s 2062 531 m 14 Y s 434 531 m 14 Y s 388
 538 m 7 Y s 341 538 m 7 Y s 2062 531 m 14 Y s 2109 538 m 7 Y s 2155 538 m 7 Y s 318 187 m 358 Y s
 gsave  2254 561 2 2 C 166.096 284.736 t 90 r /Helvetica findfont 67.9729 sf 0 0 m (Data/SM) show NC gr  361 203 m -43 X s 339 220 m -21 X s 339 236 m -21 X s 339 252 m -21 X s 339 268 m -21 X s 361 285 m -43 X s 339 301 m -21 X s 339 317 m -21 X s
 339 334 m -21 X s 339 350 m -21 X s 361 366 m -43 X s 339 382 m -21 X s 339 399 m -21 X s 339 415 m -21 X s 339 431 m -21 X s 361 447 m -43 X s 339 464 m -21 X s 339 480 m -21 X s 339 496 m -21 X s 339 512 m -21 X s 361 529 m -43 X s 361 203 m -43 X
 s 339 187 m -21 X s 361 529 m -43 X s
 gsave  2254 561 2 2 C 261.008 183.044 t 0 r /Helvetica findfont 57.777 sf 0 0 m (0) show NC gr 
 gsave  2254 561 2 2 C 213.552 261.008 t 0 r /Helvetica findfont 57.777 sf 0 0 m (0.5) show NC gr 
 gsave  2254 561 2 2 C 271.177 342.361 t 0 r /Helvetica findfont 57.777 sf 0 0 m (1) show NC gr 
 gsave  2254 561 2 2 C 213.552 423.714 t 0 r /Helvetica findfont 57.777 sf 0 0 m (1.5) show NC gr 
 gsave  2254 561 2 2 C 261.008 505.067 t 0 r /Helvetica findfont 57.777 sf 0 0 m (2) show NC gr  2178 187 m 358 Y s 2135 203 m 43 X s 2157 220 m 21 X s 2157 236 m 21 X s 2157 252 m 21 X s 2157 268 m 21 X s 2135 285 m 43 X s 2157 301 m 21 X s 2157 317
 m 21 X s 2157 334 m 21 X s 2157 350 m 21 X s 2135 366 m 43 X s 2157 382 m 21 X s 2157 399 m 21 X s 2157 415 m 21 X s 2157 431 m 21 X s 2135 447 m 43 X s 2157 464 m 21 X s 2157 480 m 21 X s 2157 496 m 21 X s 2157 512 m 21 X s 2135 529 m 43 X s 2135
 203 m 43 X s 2157 187 m 21 X s 2135 529 m 43 X s 9 lw 364 378 m 3 Y s 364 381 m cl s 364 351 m -2 Y s 364 349 m cl s 457 351 m 20 Y s 457 371 m cl s 457 324 m -20 Y s 457 304 m cl s 550 493 m 52 Y s 550 545 m cl s 550 466 m -88 Y s 550 378 m cl s 3
 lw 364 365 457 337 550 479 3 { m20} R 9 lw 1 0 0 c 6 lw black 3 lw 1 0 0 c 2155 203 m cl s 2127 203 m cl s 2098 203 m cl s 2069 203 m cl s 2040 203 m cl s 2012 203 m cl s 1983 203 m cl s 1954 203 m cl s 1926 203 m cl s 1897 203 m cl s 1868 203 m cl
 s 1840 203 m cl s 1811 203 m cl s 1782 203 m cl s 1754 203 m cl s 1725 203 m cl s 1696 203 m cl s 1667 203 m cl s 1639 203 m cl s 1610 203 m cl s 1581 203 m cl s 1553 203 m cl s 1524 203 m cl s 1495 203 m cl s 1467 203 m cl s 1438 203 m cl s 1434
 228 m -26 -26 d s 1434 257 m -55 -55 d s 1434 285 m -83 -83 d s 1434 314 m -93 -93 d s 1323 203 m cl s 1434 343 m -93 -93 d s 1294 203 m cl s 1434 371 m -93 -93 d s 1266 203 m cl s 1434 400 m -93 -93 d s 1248 214 m -12 -12 d s 1434 428 m -93 -92 d s
 1248 243 m -41 -41 d s 1434 457 m -93 -93 d s 1248 272 m -69 -70 d s 1434 486 m -93 -93 d s 1248 300 m -93 -93 d s 1151 203 m cl s 1434 514 m -93 -93 d s 1248 329 m -93 -93 d s 1122 203 m cl s 1421 530 m -80 -80 d s 1248 357 m -93 -92 d s 1094 203 m
 cl s 1393 530 m -52 -51 d s 1248 386 m -93 -93 d s 1065 203 m cl s 1062 200 m -1 X s 1364 530 m -23 -23 d s 1248 415 m -93 -93 d s 1062 229 m -29 -29 d s 1248 443 m -93 -93 d s 1062 258 m -58 -58 d s 1248 472 m -93 -93 d s 1062 286 m -87 -86 d s
 1248 500 m -93 -92 d s 1062 315 m -115 -115 d s 1248 529 m -93 -93 d s 1062 343 m -144 -143 d s 1220 530 m -65 -65 d s 1062 372 m -172 -172 d s 1192 530 m -37 -37 d s 1062 401 m -186 -186 d s 1163 530 m -8 -8 d s 1062 429 m -186 -185 d s 1062 458 m
 -190 -190 d s 1062 486 m -219 -218 d s 1062 515 m -247 -247 d s 1051 532 m -265 -264 d s 1022 532 m -239 -238 d s 993 532 m -210 -209 d s 964 532 m -200 -200 d s 935 532 m -59 -59 d s 867 464 m -132 -132 d s 907 532 m -31 -31 d s 838 464 m -55 -56 d
 s 775 400 m -69 -68 d s 878 532 m -2 -2 d s 810 464 m -27 -27 d s 746 400 m -60 -60 d s 717 400 m -60 -60 d s 680 392 m -51 -52 d s 651 392 m -51 -52 d s 623 392 m -49 -49 d s 592 389 m -47 -46 d s 563 389 m -47 -46 d s 534 389 m -39 -39 d s 506 389
 m -2 -1 d s 498 382 m -32 -32 d s 470 382 m -32 -32 d s 318 231 m s 441 382 m -30 -30 d s 318 259 m s 412 382 m -1 -1 d s 409 379 m -26 -26 d s 318 288 m s 380 379 m -25 -26 d s 318 317 m s 352 379 m -26 -26 d s 318 345 m s 323 379 m -5 -5 d s 6 lw
 black[ 4 8] 0 sd 3 lw 318 447 m 1860 X s 318 285 m 1860 X s 1 0 0 c[  12 12 ] 0 sd 6 lw 318 366 m 1860 X s
 gr  gr showpage
end
%%EOF
