%!PS-Adobe-2.0 EPSF-2.0
%%BoundingBox:  0 0 567 521
%%Title: Distributions/jetPt_0__distrCRT_MB-C_beforeFit_forThesis.eps: canvas
%%Creator: ROOT Version 6.04/16
%%CreationDate: Tue May 19 22:02:37 2020
%%DocumentNeededResources: ProcSet (FontSetInit)
%%EndComments
%%BeginProlog
80 dict begin
/s {stroke} def /l {lineto} def /m {moveto} def /t {translate} def
/r {rotate} def /rl {roll}  def /R {repeat} def
/d {rlineto} def /rm {rmoveto} def /gr {grestore} def /f {eofill} def
/c {setrgbcolor} def /black {0 setgray} def /sd {setdash} def
/cl {closepath} def /sf {scalefont setfont} def /lw {setlinewidth} def
/box {m dup 0 exch d exch 0 d 0 exch neg d cl} def
/NC{systemdict begin initclip end}def/C{NC box clip newpath}def
/bl {box s} def /bf {gsave box gsave f grestore 1 lw [] 0 sd s grestore} def /Y { 0 exch d} def /X { 0 d} def 
/K {{pop pop 0 moveto} exch kshow} bind def
/ita {/ang 15 def gsave [1 0 ang dup sin exch cos div 1 0 0] concat} def 
/mp {newpath /y exch def /x exch def} def
/side {[w .77 mul w .23 mul] .385 w mul sd w 0 l currentpoint t -144 r} def
/mr {mp x y w2 0 360 arc} def /m24 {mr s} def /m20 {mr f} def
/mb {mp x y w2 add m w2 neg 0 d 0 w neg d w 0 d 0 w d cl} def
/mt {mp x y w2 add m w2 neg w neg d w 0 d cl} def
/m21 {mb f} def /m25 {mb s} def /m22 {mt f} def /m26{mt s} def
/m23 {mp x y w2 sub m w2 w d w neg 0 d cl f} def
/m27 {mp x y w2 add m w3 neg w2 neg d w3 w2 neg d w3 w2 d cl s} def
/m28 {mp x w2 sub y w2 sub w3 add m w3 0 d  0 w3 neg d w3 0 d 0 w3 d w3 0 d  0 w3 d w3 neg 0 d 0 w3 d w3 neg 0 d 0 w3 neg d w3 neg 0 d cl s } def
/m29 {mp gsave x w2 sub y w2 add w3 sub m currentpoint t 4 {side} repeat cl fill gr} def
/m30 {mp gsave x w2 sub y w2 add w3 sub m currentpoint t 4 {side} repeat cl s gr} def
/m31 {mp x y w2 sub m 0 w d x w2 sub y m w 0 d x w2 sub y w2 add m w w neg d x w2 sub y w2 sub m w w d s} def
/m32 {mp x y w2 sub m w2 w d w neg 0 d cl s} def
/m33 {mp x y w2 add m w3 neg w2 neg d w3 w2 neg d w3 w2 d cl f} def
/m34 {mp x w2 sub y w2 sub w3 add m w3 0 d  0 w3 neg d w3 0 d 0 w3 d w3 0 d  0 w3 d w3 neg 0 d 0 w3 d w3 neg 0 d 0 w3 neg d w3 neg 0 d cl f } def
/m2 {mp x y w2 sub m 0 w d x w2 sub y m w 0 d s} def
/m5 {mp x w2 sub y w2 sub m w w d x w2 sub y w2 add m w w neg d s} def
%%IncludeResource: ProcSet (FontSetInit)
%%IncludeResource: font Times-Roman
%%IncludeResource: font Times-Italic
%%IncludeResource: font Times-Bold
%%IncludeResource: font Times-BoldItalic
%%IncludeResource: font Helvetica
%%IncludeResource: font Helvetica-Oblique
%%IncludeResource: font Helvetica-Bold
%%IncludeResource: font Helvetica-BoldOblique
%%IncludeResource: font Courier
%%IncludeResource: font Courier-Oblique
%%IncludeResource: font Courier-Bold
%%IncludeResource: font Courier-BoldOblique
%%IncludeResource: font Symbol
%%IncludeResource: font ZapfDingbats
/reEncode {exch findfont dup length dict begin {1 index /FID eq  {pop pop} {def} ifelse } forall /Encoding exch def currentdict end dup /FontName get exch definefont pop } def [/Times-Bold /Times-Italic /Times-BoldItalic /Helvetica /Helvetica-Oblique
 /Helvetica-Bold /Helvetica-BoldOblique /Courier /Courier-Oblique /Courier-Bold /Courier-BoldOblique /Times-Roman /AvantGarde-Book /AvantGarde-BookOblique /AvantGarde-Demi /AvantGarde-DemiOblique /Bookman-Demi /Bookman-DemiItalic /Bookman-Light
 /Bookman-LightItalic /Helvetica-Narrow /Helvetica-Narrow-Bold /Helvetica-Narrow-BoldOblique /Helvetica-Narrow-Oblique /NewCenturySchlbk-Roman /NewCenturySchlbk-Bold /NewCenturySchlbk-BoldItalic /NewCenturySchlbk-Italic /Palatino-Bold
 /Palatino-BoldItalic /Palatino-Italic /Palatino-Roman ] {ISOLatin1Encoding reEncode } forall
%%EndProlog
%%BeginSetup
%%EndSetup
newpath  gsave  .25 .25 scale  gsave  0 0 t black[  ] 0 sd 3 lw 1 1 1 c 2268 2085 0 0 bf black 1 1 1 c 2263 1770 2 313 bf black 1 1 1 c black 1860 1145 319 584 bl 1 1 1 c black 1860 1145 319 584 bl 6 lw 1 1 1 c black 3 lw /w 33 def /w2 {w 2 div} def
 /w3 {w 3 div} def 459 1030 m20 6 lw 3 lw 552 1123 m20 6 lw 3 lw 645 1091 m20 6 lw 3 lw 738 1018 m20 6 lw 3 lw 831 959 m20 6 lw 924 867 m 3 Y s 3 lw 924 883 m20 6 lw 1017 759 m 26 Y s 1017 812 m 11 Y s 3 lw 1017 799 m20 6 lw 1110 584 m 121 Y s 1110
 732 m 27 Y s 3 lw 1110 718 m20 6 lw 1296 584 m 121 Y s 1296 732 m 27 Y s 3 lw 1296 718 m20 6 lw 3 lw 319 584 m 1860 X s
 gsave  2263 1770 2 313 C 1949.08 376.258 t 0 r /Helvetica findfont 81.3741 sf 0 0 m ( [GeV]) show NC gr 
 gsave  2263 1770 2 313 C 1915.19 332.192 t 0 r /Helvetica findfont 54.2494 sf 0 0 m (T) show NC gr 
 gsave  2263 1770 2 313 C 1630.45 376.258 t 0 r /Helvetica findfont 81.3741 sf 0 0 m (1st jet p) show NC gr  435 584 m cl s 482 584 m cl s 528 584 m cl s 575 584 m cl s 621 584 m cl s 668 584 m cl s 714 584 m cl s 761 584 m cl s 807 584 m cl s 854
 584 m cl s 900 584 m cl s 947 584 m cl s 993 584 m cl s 1040 584 m cl s 1087 584 m cl s 1133 584 m cl s 1180 584 m cl s 1226 584 m cl s 1273 584 m cl s 1319 584 m cl s 1366 584 m cl s 1412 584 m cl s 1459 584 m cl s 1505 584 m cl s 1552 584 m cl s
 1598 584 m cl s 1645 584 m cl s 1691 584 m cl s 1738 584 m cl s 1784 584 m cl s 1831 584 m cl s 1877 584 m cl s 1924 584 m cl s 1970 584 m cl s 2017 584 m cl s 2063 584 m cl s 435 584 m cl s 389 584 m cl s 342 584 m cl s 2063 584 m cl s 2110 584 m
 cl s 2156 584 m cl s 319 1729 m 1860 X s 435 1729 m cl s 482 1729 m cl s 528 1729 m cl s 575 1729 m cl s 621 1729 m cl s 668 1729 m cl s 714 1729 m cl s 761 1729 m cl s 807 1729 m cl s 854 1729 m cl s 900 1729 m cl s 947 1729 m cl s 993 1729 m cl s
 1040 1729 m cl s 1087 1729 m cl s 1133 1729 m cl s 1180 1729 m cl s 1226 1729 m cl s 1273 1729 m cl s 1319 1729 m cl s 1366 1729 m cl s 1412 1729 m cl s 1459 1729 m cl s 1505 1729 m cl s 1552 1729 m cl s 1598 1729 m cl s 1645 1729 m cl s 1691 1729 m
 cl s 1738 1729 m cl s 1784 1729 m cl s 1831 1729 m cl s 1877 1729 m cl s 1924 1729 m cl s 1970 1729 m cl s 2017 1729 m cl s 2063 1729 m cl s 435 1729 m cl s 389 1729 m cl s 342 1729 m cl s 2063 1729 m cl s 2110 1729 m cl s 2156 1729 m cl s 319 584 m
 1145 Y s
 gsave  2263 1770 2 313 C 166.096 1091.49 t 90 r /Helvetica findfont 81.3741 sf 0 0 m (Events / 200 GeV) show NC gr  341 625 m -22 X s 341 648 m -22 X s 341 665 m -22 X s 341 678 m -22 X s 341 689 m -22 X s 341 698 m -22 X s 341 705 m -22 X s 341 712
 m -22 X s 363 718 m -44 X s
 gsave  2263 1770 2 313 C 300.555 691.153 t 0 r  -36 0 t /Helvetica findfont 64.4212 sf 0 0 m (1) show NC gr  341 759 m -22 X s 341 782 m -22 X s 341 799 m -22 X s 341 812 m -22 X s 341 823 m -22 X s 341 831 m -22 X s 341 839 m -22 X s 341 846 m -22
 X s 363 852 m -44 X s
 gsave  2263 1770 2 313 C 300.555 825.114 t 0 r  -73 0 t /Helvetica findfont 64.4212 sf 0 0 m (10) show NC gr  341 893 m -22 X s 341 916 m -22 X s 341 933 m -22 X s 341 946 m -22 X s 341 956 m -22 X s 341 965 m -22 X s 341 973 m -22 X s 341 980 m -22
 X s 363 986 m -44 X s
 gsave  2263 1770 2 313 C 274.567 983.016 t 0 r /Helvetica findfont 44.0776 sf 0 0 m (2) show NC gr 
 gsave  2263 1770 2 313 C 203.383 955.898 t 0 r /Helvetica findfont 64.4212 sf 0 0 m (10) show NC gr  341 1027 m -22 X s 341 1050 m -22 X s 341 1067 m -22 X s 341 1080 m -22 X s 341 1090 m -22 X s 341 1099 m -22 X s 341 1107 m -22 X s 341 1114 m -22
 X s 363 1120 m -44 X s
 gsave  2263 1770 2 313 C 274.567 1121.99 t 0 r /Helvetica findfont 44.0776 sf 0 0 m (3) show NC gr 
 gsave  2263 1770 2 313 C 203.383 1091.49 t 0 r /Helvetica findfont 64.4212 sf 0 0 m (10) show NC gr  341 1160 m -22 X s 341 1184 m -22 X s 341 1201 m -22 X s 341 1214 m -22 X s 341 1224 m -22 X s 341 1233 m -22 X s 341 1241 m -22 X s 341 1248 m -22
 X s 363 1254 m -44 X s
 gsave  2263 1770 2 313 C 274.567 1250.8 t 0 r /Helvetica findfont 44.0776 sf 0 0 m (4) show NC gr 
 gsave  2263 1770 2 313 C 203.383 1223.69 t 0 r /Helvetica findfont 64.4212 sf 0 0 m (10) show NC gr  341 1294 m -22 X s 341 1318 m -22 X s 341 1335 m -22 X s 341 1348 m -22 X s 341 1358 m -22 X s 341 1367 m -22 X s 341 1375 m -22 X s 341 1382 m -22
 X s 363 1388 m -44 X s
 gsave  2263 1770 2 313 C 274.567 1389.78 t 0 r /Helvetica findfont 44.0776 sf 0 0 m (5) show NC gr 
 gsave  2263 1770 2 313 C 203.383 1359.27 t 0 r /Helvetica findfont 64.4212 sf 0 0 m (10) show NC gr  341 1428 m -22 X s 341 1452 m -22 X s 341 1469 m -22 X s 341 1482 m -22 X s 341 1492 m -22 X s 341 1501 m -22 X s 341 1509 m -22 X s 341 1516 m -22
 X s 363 1522 m -44 X s
 gsave  2263 1770 2 313 C 274.567 1525.37 t 0 r /Helvetica findfont 44.0776 sf 0 0 m (6) show NC gr 
 gsave  2263 1770 2 313 C 203.383 1494.86 t 0 r /Helvetica findfont 64.4212 sf 0 0 m (10) show NC gr  341 1562 m -22 X s 341 1586 m -22 X s 341 1603 m -22 X s 341 1616 m -22 X s 341 1626 m -22 X s 341 1635 m -22 X s 341 1643 m -22 X s 341 1650 m -22
 X s 363 1656 m -44 X s
 gsave  2263 1770 2 313 C 274.567 1654.18 t 0 r /Helvetica findfont 44.0776 sf 0 0 m (7) show NC gr 
 gsave  2263 1770 2 313 C 203.383 1627.06 t 0 r /Helvetica findfont 64.4212 sf 0 0 m (10) show NC gr  341 1696 m -22 X s 341 1720 m -22 X s 2179 584 m 1145 Y s 2157 625 m 22 X s 2157 648 m 22 X s 2157 665 m 22 X s 2157 678 m 22 X s 2157 689 m 22 X s
 2157 698 m 22 X s 2157 705 m 22 X s 2157 712 m 22 X s 2136 718 m 43 X s 2157 759 m 22 X s 2157 782 m 22 X s 2157 799 m 22 X s 2157 812 m 22 X s 2157 823 m 22 X s 2157 831 m 22 X s 2157 839 m 22 X s 2157 846 m 22 X s 2136 852 m 43 X s 2157 893 m 22 X
 s 2157 916 m 22 X s 2157 933 m 22 X s 2157 946 m 22 X s 2157 956 m 22 X s 2157 965 m 22 X s 2157 973 m 22 X s 2157 980 m 22 X s 2136 986 m 43 X s 2157 1027 m 22 X s 2157 1050 m 22 X s 2157 1067 m 22 X s 2157 1080 m 22 X s 2157 1090 m 22 X s 2157
 1099 m 22 X s 2157 1107 m 22 X s 2157 1114 m 22 X s 2136 1120 m 43 X s 2157 1160 m 22 X s 2157 1184 m 22 X s 2157 1201 m 22 X s 2157 1214 m 22 X s 2157 1224 m 22 X s 2157 1233 m 22 X s 2157 1241 m 22 X s 2157 1248 m 22 X s 2136 1254 m 43 X s 2157
 1294 m 22 X s 2157 1318 m 22 X s 2157 1335 m 22 X s 2157 1348 m 22 X s 2157 1358 m 22 X s 2157 1367 m 22 X s 2157 1375 m 22 X s 2157 1382 m 22 X s 2136 1388 m 43 X s 2157 1428 m 22 X s 2157 1452 m 22 X s 2157 1469 m 22 X s 2157 1482 m 22 X s 2157
 1492 m 22 X s 2157 1501 m 22 X s 2157 1509 m 22 X s 2157 1516 m 22 X s 2136 1522 m 43 X s 2157 1562 m 22 X s 2157 1586 m 22 X s 2157 1603 m 22 X s 2157 1616 m 22 X s 2157 1626 m 22 X s 2157 1635 m 22 X s 2157 1643 m 22 X s 2157 1650 m 22 X s 2136
 1656 m 43 X s 2157 1696 m 22 X s 2157 1720 m 22 X s 0.6 1 0.6 c black 0.6 1 0.6 c 319 584 m 93 X 463 Y 93 X 92 Y 93 X -29 Y 93 X -67 Y 93 X -61 Y 93 X -64 Y 93 X -62 Y 93 X -48 Y 93 X -35 Y 93 X -47 Y 93 X -89 Y 93 X -53 Y 744 X f black 0.6 1 0.6 c
 black 319 584 m 93 X 463 Y 93 X 92 Y 93 X -29 Y 93 X -67 Y 93 X -61 Y 93 X -64 Y 93 X -62 Y 93 X -48 Y 93 X -35 Y 93 X -47 Y 93 X -89 Y 93 X -53 Y 744 X s 0.999 0.999 0.999 c black 0.999 0.999 0.999 c 319 584 m 93 X 384 Y 93 X 95 Y 93 X -32 Y 93 X
 -66 Y 93 X -58 Y 93 X -63 Y 93 X -58 Y 93 X -38 Y 93 X -32 Y 93 X -60 Y 93 X -44 Y 93 X -28 Y 744 X f black 0.999 0.999 0.999 c black 319 584 m 93 X 384 Y 93 X 95 Y 93 X -32 Y 93 X -66 Y 93 X -58 Y 93 X -63 Y 93 X -58 Y 93 X -38 Y 93 X -32 Y 93 X
 -60 Y 93 X -44 Y 93 X -28 Y 744 X s 1 1 1 c black 319 584 m 93 X 384 Y 93 X 95 Y 93 X -32 Y 93 X -66 Y 93 X -58 Y 93 X -63 Y 93 X -58 Y 93 X -38 Y 93 X -32 Y 93 X -60 Y 93 X -44 Y 93 X -28 Y 744 X s 0.4 0.6 1 c black 0.4 0.6 1 c 319 584 m 93 X 384 Y
 93 X 95 Y 93 X -32 Y 93 X -66 Y 93 X -58 Y 93 X -63 Y 93 X -58 Y 93 X -38 Y 93 X -32 Y 93 X -60 Y 93 X -44 Y 93 X -28 Y 744 X f black 0.4 0.6 1 c black 319 584 m 93 X 384 Y 93 X 95 Y 93 X -32 Y 93 X -66 Y 93 X -58 Y 93 X -63 Y 93 X -58 Y 93 X -38 Y
 93 X -32 Y 93 X -60 Y 93 X -44 Y 93 X -28 Y 744 X s 0.999 0.999 0.999 c black 0.999 0.999 0.999 c 319 584 m 93 X 261 Y 93 X 80 Y 93 X -24 Y 93 X -77 Y 93 X -63 Y 93 X -42 Y 93 X -49 Y 93 X -15 Y 93 X -63 Y 93 X -8 Y 930 X f black 0.999 0.999 0.999 c
 black 319 584 m 93 X 261 Y 93 X 80 Y 93 X -24 Y 93 X -77 Y 93 X -63 Y 93 X -42 Y 93 X -49 Y 93 X -15 Y 93 X -63 Y 93 X -8 Y 930 X s 1 1 1 c black 319 584 m 93 X 261 Y 93 X 80 Y 93 X -24 Y 93 X -77 Y 93 X -63 Y 93 X -42 Y 93 X -49 Y 93 X -15 Y 93 X
 -63 Y 93 X -8 Y 930 X s 1 0.8 0.4 c black 1 0.8 0.4 c 319 584 m 93 X 261 Y 93 X 80 Y 93 X -24 Y 93 X -77 Y 93 X -63 Y 93 X -42 Y 93 X -49 Y 93 X -15 Y 93 X -63 Y 93 X -8 Y 930 X f black 1 0.8 0.4 c black 319 584 m 93 X 261 Y 93 X 80 Y 93 X -24 Y 93
 X -77 Y 93 X -63 Y 93 X -42 Y 93 X -49 Y 93 X -15 Y 93 X -63 Y 93 X -8 Y 930 X s 0.999 0.999 0.999 c black 0.999 0.999 0.999 c 319 584 m 93 X 256 Y 93 X 79 Y 93 X -25 Y 93 X -77 Y 93 X -62 Y 93 X -40 Y 93 X -47 Y 93 X -17 Y 93 X -67 Y 1023 X f black
 0.999 0.999 0.999 c black 319 584 m 93 X 256 Y 93 X 79 Y 93 X -25 Y 93 X -77 Y 93 X -62 Y 93 X -40 Y 93 X -47 Y 93 X -17 Y 93 X -67 Y 1023 X s 1 1 1 c black 319 584 m 93 X 256 Y 93 X 79 Y 93 X -25 Y 93 X -77 Y 93 X -62 Y 93 X -40 Y 93 X -47 Y 93 X
 -17 Y 93 X -67 Y 1023 X s 1 0.4 0.6 c black 1 0.4 0.6 c 319 584 m 93 X 256 Y 93 X 79 Y 93 X -25 Y 93 X -77 Y 93 X -62 Y 93 X -40 Y 93 X -47 Y 93 X -17 Y 93 X -67 Y 1023 X f black 1 0.4 0.6 c black 319 584 m 93 X 256 Y 93 X 79 Y 93 X -25 Y 93 X -77 Y
 93 X -62 Y 93 X -40 Y 93 X -47 Y 93 X -17 Y 93 X -67 Y 1023 X s 1 0 0 c 6 lw 1 1 1 c black 1 0 0 c 319 584 m 93 X 463 Y 93 X 92 Y 93 X -29 Y 93 X -67 Y 93 X -61 Y 93 X -64 Y 93 X -62 Y 93 X -48 Y 93 X -35 Y 93 X -47 Y 93 X -89 Y 93 X -53 Y 744 X s
 black 3 lw 1 0 0 c 1 lw << /PatternType 1 /PaintType 2 /TilingType 1 /BBox [ 0 0 100 100 ] /XStep 100 /YStep 100 /PaintProc { begin gsave 0 100 m 100 0 l s gr end } >> [ 0.24 0 0 0.24 0 0 ] makepattern /P05 exch def /cs {[/Pattern /DeviceRGB]
 setcolorspace} def /FA {f [/DeviceRGB] setcolorspace} def cs 1 0 0 P05 setcolor 412 584 m 466 Y 93 X 92 Y 93 X -30 Y 93 X -66 Y 93 X -61 Y 93 X -64 Y 93 X -59 Y 93 X -46 Y 93 X -31 Y 93 X -41 Y 93 X -86 Y 93 X -70 Y 93 X -4 Y -93 X 21 Y -93 X 93 Y
 -93 X 59 Y -93 X 43 Y -93 X 50 Y -93 X 63 Y -93 X 65 Y -93 X 62 Y -93 X 68 Y -93 X 29 Y -93 X -93 Y -93 X -460 Y FA 6 lw 1 1 1 c 15 lw 1017 819 m 5 Y s 1017 824 m cl s 1017 779 m -18 Y s 1017 761 m cl s 1110 739 m 27 Y s 1110 766 m cl s 1110 698 m
 -81 Y s 1110 617 m cl s 1296 739 m 27 Y s 1296 766 m cl s 1296 698 m -81 Y s 1296 617 m cl s black 1 1 1 c 3 lw /w 43 def /w2 {w 2 div} def /w3 {w 3 div} def 459 1030 552 1123 645 1091 738 1018 831 959 924 883 1017 799 1110 718 8 { m20} R 15 lw 3 lw
 1296 718 m20 15 lw black 6 lw 1 1 1 c black 3 lw /w 33 def /w2 {w 2 div} def /w3 {w 3 div} def 459 1030 m20 6 lw 3 lw 552 1123 m20 6 lw 3 lw 645 1091 m20 6 lw 3 lw 738 1018 m20 6 lw 3 lw 831 959 m20 6 lw 924 867 m 3 Y s 3 lw 924 883 m20 6 lw 1017
 759 m 26 Y s 1017 812 m 11 Y s 3 lw 1017 799 m20 6 lw 1110 584 m 121 Y s 1110 732 m 27 Y s 3 lw 1110 718 m20 6 lw 1296 584 m 121 Y s 1296 732 m 27 Y s 3 lw 1296 718 m20 6 lw 924 870 m -3 Y s 924 867 m cl s 1017 812 m 12 Y s 1017 824 m cl s 1017 785
 m -24 Y s 1017 761 m cl s 1110 732 m 34 Y s 1110 766 m cl s 1110 705 m -88 Y s 1110 617 m cl s 1296 732 m 34 Y s 1296 766 m cl s 1296 705 m -88 Y s 1296 617 m cl s 3 lw 459 1030 552 1123 645 1091 738 1018 831 959 924 883 1017 799 1110 718 8 { m20} R
 6 lw 3 lw 1296 718 m20 6 lw 3 lw 319 584 m 1860 X s 435 584 m cl s 482 584 m cl s 528 584 m cl s 575 584 m cl s 621 584 m cl s 668 584 m cl s 714 584 m cl s 761 584 m cl s 807 584 m cl s 854 584 m cl s 900 584 m cl s 947 584 m cl s 993 584 m cl s
 1040 584 m cl s 1087 584 m cl s 1133 584 m cl s 1180 584 m cl s 1226 584 m cl s 1273 584 m cl s 1319 584 m cl s 1366 584 m cl s 1412 584 m cl s 1459 584 m cl s 1505 584 m cl s 1552 584 m cl s 1598 584 m cl s 1645 584 m cl s 1691 584 m cl s 1738 584
 m cl s 1784 584 m cl s 1831 584 m cl s 1877 584 m cl s 1924 584 m cl s 1970 584 m cl s 2017 584 m cl s 2063 584 m cl s 435 584 m cl s 389 584 m cl s 342 584 m cl s 2063 584 m cl s 2110 584 m cl s 2156 584 m cl s 319 1729 m 1860 X s 435 1729 m cl s
 482 1729 m cl s 528 1729 m cl s 575 1729 m cl s 621 1729 m cl s 668 1729 m cl s 714 1729 m cl s 761 1729 m cl s 807 1729 m cl s 854 1729 m cl s 900 1729 m cl s 947 1729 m cl s 993 1729 m cl s 1040 1729 m cl s 1087 1729 m cl s 1133 1729 m cl s 1180
 1729 m cl s 1226 1729 m cl s 1273 1729 m cl s 1319 1729 m cl s 1366 1729 m cl s 1412 1729 m cl s 1459 1729 m cl s 1505 1729 m cl s 1552 1729 m cl s 1598 1729 m cl s 1645 1729 m cl s 1691 1729 m cl s 1738 1729 m cl s 1784 1729 m cl s 1831 1729 m cl s
 1877 1729 m cl s 1924 1729 m cl s 1970 1729 m cl s 2017 1729 m cl s 2063 1729 m cl s 435 1729 m cl s 389 1729 m cl s 342 1729 m cl s 2063 1729 m cl s 2110 1729 m cl s 2156 1729 m cl s 319 584 m 1145 Y s 341 625 m -22 X s 341 648 m -22 X s 341 665 m
 -22 X s 341 678 m -22 X s 341 689 m -22 X s 341 698 m -22 X s 341 705 m -22 X s 341 712 m -22 X s 363 718 m -44 X s 341 759 m -22 X s 341 782 m -22 X s 341 799 m -22 X s 341 812 m -22 X s 341 823 m -22 X s 341 831 m -22 X s 341 839 m -22 X s 341 846
 m -22 X s 363 852 m -44 X s 341 893 m -22 X s 341 916 m -22 X s 341 933 m -22 X s 341 946 m -22 X s 341 956 m -22 X s 341 965 m -22 X s 341 973 m -22 X s 341 980 m -22 X s 363 986 m -44 X s 341 1027 m -22 X s 341 1050 m -22 X s 341 1067 m -22 X s
 341 1080 m -22 X s 341 1090 m -22 X s 341 1099 m -22 X s 341 1107 m -22 X s 341 1114 m -22 X s 363 1120 m -44 X s 341 1160 m -22 X s 341 1184 m -22 X s 341 1201 m -22 X s 341 1214 m -22 X s 341 1224 m -22 X s 341 1233 m -22 X s 341 1241 m -22 X s
 341 1248 m -22 X s 363 1254 m -44 X s 341 1294 m -22 X s 341 1318 m -22 X s 341 1335 m -22 X s 341 1348 m -22 X s 341 1358 m -22 X s 341 1367 m -22 X s 341 1375 m -22 X s 341 1382 m -22 X s 363 1388 m -44 X s 341 1428 m -22 X s 341 1452 m -22 X s
 341 1469 m -22 X s 341 1482 m -22 X s 341 1492 m -22 X s 341 1501 m -22 X s 341 1509 m -22 X s 341 1516 m -22 X s 363 1522 m -44 X s 341 1562 m -22 X s 341 1586 m -22 X s 341 1603 m -22 X s 341 1616 m -22 X s 341 1626 m -22 X s 341 1635 m -22 X s
 341 1643 m -22 X s 341 1650 m -22 X s 363 1656 m -44 X s 341 1696 m -22 X s 341 1720 m -22 X s 2179 584 m 1145 Y s 2157 625 m 22 X s 2157 648 m 22 X s 2157 665 m 22 X s 2157 678 m 22 X s 2157 689 m 22 X s 2157 698 m 22 X s 2157 705 m 22 X s 2157 712
 m 22 X s 2136 718 m 43 X s 2157 759 m 22 X s 2157 782 m 22 X s 2157 799 m 22 X s 2157 812 m 22 X s 2157 823 m 22 X s 2157 831 m 22 X s 2157 839 m 22 X s 2157 846 m 22 X s 2136 852 m 43 X s 2157 893 m 22 X s 2157 916 m 22 X s 2157 933 m 22 X s 2157
 946 m 22 X s 2157 956 m 22 X s 2157 965 m 22 X s 2157 973 m 22 X s 2157 980 m 22 X s 2136 986 m 43 X s 2157 1027 m 22 X s 2157 1050 m 22 X s 2157 1067 m 22 X s 2157 1080 m 22 X s 2157 1090 m 22 X s 2157 1099 m 22 X s 2157 1107 m 22 X s 2157 1114 m
 22 X s 2136 1120 m 43 X s 2157 1160 m 22 X s 2157 1184 m 22 X s 2157 1201 m 22 X s 2157 1214 m 22 X s 2157 1224 m 22 X s 2157 1233 m 22 X s 2157 1241 m 22 X s 2157 1248 m 22 X s 2136 1254 m 43 X s 2157 1294 m 22 X s 2157 1318 m 22 X s 2157 1335 m 22
 X s 2157 1348 m 22 X s 2157 1358 m 22 X s 2157 1367 m 22 X s 2157 1375 m 22 X s 2157 1382 m 22 X s 2136 1388 m 43 X s 2157 1428 m 22 X s 2157 1452 m 22 X s 2157 1469 m 22 X s 2157 1482 m 22 X s 2157 1492 m 22 X s 2157 1501 m 22 X s 2157 1509 m 22 X
 s 2157 1516 m 22 X s 2136 1522 m 43 X s 2157 1562 m 22 X s 2157 1586 m 22 X s 2157 1603 m 22 X s 2157 1616 m 22 X s 2157 1626 m 22 X s 2157 1635 m 22 X s 2157 1643 m 22 X s 2157 1650 m 22 X s 2136 1656 m 43 X s 2157 1696 m 22 X s 2157 1720 m 22 X s
 gsave  2263 1770 2 313 C 406.765 1447.41 t 0 r /Helvetica findfont 64.4212 sf 0 0 m (CRT for MB\255C) show NC gr 
 gsave  2263 1770 2 313 C 1464.36 1616.89 t 0 r /Helvetica findfont 64.4212 sf 0 0 m (SM Total) show NC gr  1 1 1 c 1338 1603 m 107 X 74 Y -107 X f 1 0 0 c 6 lw 1338 1640 m 107 X s black
 gsave  2263 1770 2 313 C 1464.36 1511.81 t 0 r /Helvetica findfont 64.4212 sf 0 0 m (Data) show NC gr  1391 1502 m 64 Y s 3 lw 1391 1534 m20 6 lw
 gsave  2263 1770 2 313 C 1498.25 1406.73 t 0 r /Helvetica findfont 64.4212 sf 0 0 m (\(+EW\) & single top) show NC gr 
 gsave  2263 1770 2 313 C 1481.3 1406.73 t 0 r /Helvetica findfont 64.4212 sf 0 0 m (t) show NC gr  3 lw 1481 1458 m 17 X s
 gsave  2263 1770 2 313 C 1464.36 1406.73 t 0 r /Helvetica findfont 64.4212 sf 0 0 m (t) show NC gr  0.6 1 0.6 c 1338 1391 m 107 X 74 Y -107 X f black 1338 1465 m 107 X s 1338 1391 m 107 X s 1445 1391 m 74 Y s 1338 1391 m 74 Y s
 gsave  2263 1770 2 313 C 1464.36 1298.26 t 0 r /Helvetica findfont 64.4212 sf 0 0 m (W+jets) show NC gr  0.4 0.6 1 c 1338 1284 m 107 X 75 Y -107 X f black 1338 1359 m 107 X s 1338 1284 m 107 X s 1445 1284 m 75 Y s 1338 1284 m 75 Y s
 gsave  2263 1770 2 313 C 1464.36 1193.18 t 0 r /Helvetica findfont 64.4212 sf 0 0 m (Z+jets) show NC gr  1 0.8 0.4 c 1338 1178 m 107 X 75 Y -107 X f black 1338 1253 m 107 X s 1338 1178 m 107 X s 1445 1178 m 75 Y s 1338 1178 m 75 Y s
 gsave  2263 1770 2 313 C 1464.36 1088.1 t 0 r /Helvetica findfont 64.4212 sf 0 0 m (Diboson) show NC gr  1 0.4 0.6 c 1338 1072 m 107 X 74 Y -107 X f black 1338 1146 m 107 X s 1338 1072 m 107 X s 1445 1072 m 74 Y s 1338 1072 m 74 Y s
 gsave  2263 1770 2 313 C 911.832 1566.05 t 0 r /Helvetica findfont 44.0776 sf 0 0 m (\2551) show NC gr 
 gsave  2263 1770 2 313 C 471.17 1535.54 t 0 r /Helvetica findfont 64.4212 sf 0 0 m (=13TeV, 139 fb) show NC gr 
 gsave  2263 1770 2 313 C 440.662 1535.54 t 0 r /Helvetica findfont 64.4212 sf 0 0 m (s) show NC gr  6 lw 420 1573 m 7 -41 d s 3 lw 427 1532 m 7 61 d s 434 1593 m 37 X s 1 1 1 c 2254 561 2 2 bf black 1 1 1 c black 1860 358 318 187 bl 1 1 1 c black
 1860 358 318 187 bl 6 lw 1 1 1 c black 3 lw 457 324 m20 6 lw 3 lw 550 327 m20 6 lw 3 lw 643 321 m20 6 lw 3 lw 736 310 m20 6 lw 3 lw 829 314 m20 6 lw 3 lw 923 293 m20 6 lw 3 lw 1016 264 m20 6 lw 3 lw 1109 238 m20 6 lw 3 lw 1295 346 m20 6 lw 3 lw 318
 187 m 1860 X s
 gsave  2254 561 2 2 C 1959.25 44.0662 t 0 r /Helvetica findfont 78.1689 sf 0 0 m ( [GeV]) show NC gr 
 gsave  2254 561 2 2 C 1928.75 -2.35513e-13 t 0 r /Helvetica findfont 50.9797 sf 0 0 m (T) show NC gr 
 gsave  2254 561 2 2 C 1657.57 44.0662 t 0 r /Helvetica findfont 78.1689 sf 0 0 m (1st jet p) show NC gr  434 201 m -14 Y s 481 194 m -7 Y s 527 194 m -7 Y s 574 194 m -7 Y s 620 194 m -7 Y s 667 201 m -14 Y s 713 194 m -7 Y s 760 194 m -7 Y s 806
 194 m -7 Y s 853 194 m -7 Y s 899 201 m -14 Y s 946 194 m -7 Y s 992 194 m -7 Y s 1039 194 m -7 Y s 1085 194 m -7 Y s 1132 201 m -14 Y s 1178 194 m -7 Y s 1225 194 m -7 Y s 1271 194 m -7 Y s 1318 194 m -7 Y s 1364 201 m -14 Y s 1411 194 m -7 Y s
 1457 194 m -7 Y s 1504 194 m -7 Y s 1550 194 m -7 Y s 1597 201 m -14 Y s 1643 194 m -7 Y s 1690 194 m -7 Y s 1737 194 m -7 Y s 1783 194 m -7 Y s 1830 201 m -14 Y s 1876 194 m -7 Y s 1923 194 m -7 Y s 1969 194 m -7 Y s 2016 194 m -7 Y s 2062 201 m
 -14 Y s 434 201 m -14 Y s 388 194 m -7 Y s 341 194 m -7 Y s 2062 201 m -14 Y s 2109 194 m -7 Y s 2155 194 m -7 Y s
 gsave  2254 561 2 2 C 369.478 118.64 t 0 r /Helvetica findfont 78.1689 sf 0 0 m (500) show NC gr 
 gsave  2254 561 2 2 C 576.251 118.64 t 0 r /Helvetica findfont 78.1689 sf 0 0 m (1000) show NC gr 
 gsave  2254 561 2 2 C 810.141 118.64 t 0 r /Helvetica findfont 78.1689 sf 0 0 m (1500) show NC gr 
 gsave  2254 561 2 2 C 1040.64 118.64 t 0 r /Helvetica findfont 78.1689 sf 0 0 m (2000) show NC gr 
 gsave  2254 561 2 2 C 1274.53 118.64 t 0 r /Helvetica findfont 78.1689 sf 0 0 m (2500) show NC gr 
 gsave  2254 561 2 2 C 1508.42 118.64 t 0 r /Helvetica findfont 78.1689 sf 0 0 m (3000) show NC gr 
 gsave  2254 561 2 2 C 1738.92 118.64 t 0 r /Helvetica findfont 78.1689 sf 0 0 m (3500) show NC gr 
 gsave  2254 561 2 2 C 1972.81 118.64 t 0 r /Helvetica findfont 78.1689 sf 0 0 m (4000) show NC gr  318 545 m 1860 X s 434 531 m 14 Y s 481 538 m 7 Y s 527 538 m 7 Y s 574 538 m 7 Y s 620 538 m 7 Y s 667 531 m 14 Y s 713 538 m 7 Y s 760 538 m 7 Y s
 806 538 m 7 Y s 853 538 m 7 Y s 899 531 m 14 Y s 946 538 m 7 Y s 992 538 m 7 Y s 1039 538 m 7 Y s 1085 538 m 7 Y s 1132 531 m 14 Y s 1178 538 m 7 Y s 1225 538 m 7 Y s 1271 538 m 7 Y s 1318 538 m 7 Y s 1364 531 m 14 Y s 1411 538 m 7 Y s 1457 538 m 7
 Y s 1504 538 m 7 Y s 1550 538 m 7 Y s 1597 531 m 14 Y s 1643 538 m 7 Y s 1690 538 m 7 Y s 1737 538 m 7 Y s 1783 538 m 7 Y s 1830 531 m 14 Y s 1876 538 m 7 Y s 1923 538 m 7 Y s 1969 538 m 7 Y s 2016 538 m 7 Y s 2062 531 m 14 Y s 434 531 m 14 Y s 388
 538 m 7 Y s 341 538 m 7 Y s 2062 531 m 14 Y s 2109 538 m 7 Y s 2155 538 m 7 Y s 318 187 m 358 Y s
 gsave  2254 561 2 2 C 166.096 284.736 t 90 r /Helvetica findfont 67.9729 sf 0 0 m (Data/SM) show NC gr  361 203 m -43 X s 339 220 m -21 X s 339 236 m -21 X s 339 252 m -21 X s 339 268 m -21 X s 361 285 m -43 X s 339 301 m -21 X s 339 317 m -21 X s
 339 334 m -21 X s 339 350 m -21 X s 361 366 m -43 X s 339 382 m -21 X s 339 399 m -21 X s 339 415 m -21 X s 339 431 m -21 X s 361 447 m -43 X s 339 464 m -21 X s 339 480 m -21 X s 339 496 m -21 X s 339 512 m -21 X s 361 529 m -43 X s 361 203 m -43 X
 s 339 187 m -21 X s 361 529 m -43 X s
 gsave  2254 561 2 2 C 261.008 183.044 t 0 r /Helvetica findfont 57.777 sf 0 0 m (0) show NC gr 
 gsave  2254 561 2 2 C 213.552 261.008 t 0 r /Helvetica findfont 57.777 sf 0 0 m (0.5) show NC gr 
 gsave  2254 561 2 2 C 271.177 342.361 t 0 r /Helvetica findfont 57.777 sf 0 0 m (1) show NC gr 
 gsave  2254 561 2 2 C 213.552 423.714 t 0 r /Helvetica findfont 57.777 sf 0 0 m (1.5) show NC gr 
 gsave  2254 561 2 2 C 261.008 505.067 t 0 r /Helvetica findfont 57.777 sf 0 0 m (2) show NC gr  2178 187 m 358 Y s 2135 203 m 43 X s 2157 220 m 21 X s 2157 236 m 21 X s 2157 252 m 21 X s 2157 268 m 21 X s 2135 285 m 43 X s 2157 301 m 21 X s 2157 317
 m 21 X s 2157 334 m 21 X s 2157 350 m 21 X s 2135 366 m 43 X s 2157 382 m 21 X s 2157 399 m 21 X s 2157 415 m 21 X s 2157 431 m 21 X s 2135 447 m 43 X s 2157 464 m 21 X s 2157 480 m 21 X s 2157 496 m 21 X s 2157 512 m 21 X s 2135 529 m 43 X s 2135
 203 m 43 X s 2157 187 m 21 X s 2135 529 m 43 X s 9 lw 829 327 m 1 Y s 829 328 m cl s 829 300 m s 829 300 m cl s 923 307 m 8 Y s 923 315 m cl s 923 280 m -8 Y s 923 272 m cl s 1016 277 m 19 Y s 1016 296 m cl s 1016 250 m -15 Y s 1016 235 m cl s 1109
 252 m 31 Y s 1109 283 m cl s 1109 224 m -15 Y s 1109 209 m cl s 1295 360 m 170 Y s 1295 530 m cl s 1295 333 m -105 Y s 1295 228 m cl s 3 lw 457 324 550 327 643 321 736 310 829 314 923 293 1016 264 1109 238 8 { m20} R 9 lw 3 lw 1295 346 m20 9 lw 1 0
 0 c 6 lw black 3 lw 1 0 0 c 2155 203 m cl s 2127 203 m cl s 2098 203 m cl s 2069 203 m cl s 2040 203 m cl s 2012 203 m cl s 1983 203 m cl s 1954 203 m cl s 1926 203 m cl s 1897 203 m cl s 1868 203 m cl s 1840 203 m cl s 1811 203 m cl s 1782 203 m cl
 s 1754 203 m cl s 1725 203 m cl s 1713 220 m s 1713 249 m -17 -17 d s 1713 278 m -46 -46 d s 1713 306 m -74 -74 d s 1713 335 m -93 -93 d s 1713 363 m -96 -95 d s 1713 392 m -125 -124 d s 1713 421 m -153 -153 d s 1713 449 m -182 -181 d s 1713 478 m
 -186 -186 d s 1707 500 m -187 -187 d s 1678 500 m -187 -187 d s 1650 500 m -30 -29 d s 1614 464 m -152 -151 d s 1621 500 m -1 -1 d s 1585 464 m -169 -168 d s 1556 464 m -29 -29 d s 1510 419 m -122 -123 d s 1528 464 m -1 X s 1482 419 m -123 -123 d s
 1453 419 m -114 -114 d s 1434 428 m -124 -123 d s 1413 436 m -132 -131 d s 1384 436 m -131 -131 d s 1355 436 m -109 -109 d s 1318 427 m -101 -100 d s 1290 427 m -102 -100 d s 1261 427 m -13 -12 d s 1239 406 m -79 -79 d s 1210 406 m -62 -63 d s 1182
 406 m -63 -63 d s 1136 389 m -45 -46 d s 1107 389 m -45 -46 d s 1079 389 m -40 -40 d s 1044 383 m -33 -34 d s 1015 383 m -33 -34 d s 987 383 m -29 -28 d s 953 377 m -23 -22 d s 924 377 m -23 -22 d s 895 377 m -20 -20 d s 864 375 m -18 -18 d s 836
 375 m -19 -18 d s 807 375 m -18 -18 d s 777 374 m -16 -16 d s 748 374 m -15 -16 d s 719 374 m -15 -16 d s 691 374 m -1 -1 d s 689 372 m -12 -12 d s 660 372 m -12 -12 d s 632 372 m -12 -12 d s 603 372 m -13 -13 d s 575 373 m -13 -14 d s 411 209 m s
 405 203 m cl s 546 373 m -13 -14 d s 411 238 m s 376 203 m cl s 518 373 m -14 -14 d s 504 359 m -2 -2 d s 411 266 m s 348 203 m cl s 491 375 m -17 -18 d s 411 295 m s 319 203 m cl s 462 375 m -17 -18 d s 411 324 m s 433 375 m -17 -18 d s 411 352 m s
 6 lw black[ 4 8] 0 sd 3 lw 318 447 m 1860 X s 318 285 m 1860 X s 1 0 0 c[  12 12 ] 0 sd 6 lw 318 366 m 1860 X s
 gr  gr showpage
end
%%EOF
