%!PS-Adobe-2.0 EPSF-2.0
%%BoundingBox:  0 0 567 521
%%Title: Distributions/jetPt_0__distrCRW_MB-SSd_afterFit_forThesis.eps: canvas
%%Creator: ROOT Version 6.04/16
%%CreationDate: Tue May 19 22:02:44 2020
%%DocumentNeededResources: ProcSet (FontSetInit)
%%EndComments
%%BeginProlog
80 dict begin
/s {stroke} def /l {lineto} def /m {moveto} def /t {translate} def
/r {rotate} def /rl {roll}  def /R {repeat} def
/d {rlineto} def /rm {rmoveto} def /gr {grestore} def /f {eofill} def
/c {setrgbcolor} def /black {0 setgray} def /sd {setdash} def
/cl {closepath} def /sf {scalefont setfont} def /lw {setlinewidth} def
/box {m dup 0 exch d exch 0 d 0 exch neg d cl} def
/NC{systemdict begin initclip end}def/C{NC box clip newpath}def
/bl {box s} def /bf {gsave box gsave f grestore 1 lw [] 0 sd s grestore} def /Y { 0 exch d} def /X { 0 d} def 
/K {{pop pop 0 moveto} exch kshow} bind def
/ita {/ang 15 def gsave [1 0 ang dup sin exch cos div 1 0 0] concat} def 
/mp {newpath /y exch def /x exch def} def
/side {[w .77 mul w .23 mul] .385 w mul sd w 0 l currentpoint t -144 r} def
/mr {mp x y w2 0 360 arc} def /m24 {mr s} def /m20 {mr f} def
/mb {mp x y w2 add m w2 neg 0 d 0 w neg d w 0 d 0 w d cl} def
/mt {mp x y w2 add m w2 neg w neg d w 0 d cl} def
/m21 {mb f} def /m25 {mb s} def /m22 {mt f} def /m26{mt s} def
/m23 {mp x y w2 sub m w2 w d w neg 0 d cl f} def
/m27 {mp x y w2 add m w3 neg w2 neg d w3 w2 neg d w3 w2 d cl s} def
/m28 {mp x w2 sub y w2 sub w3 add m w3 0 d  0 w3 neg d w3 0 d 0 w3 d w3 0 d  0 w3 d w3 neg 0 d 0 w3 d w3 neg 0 d 0 w3 neg d w3 neg 0 d cl s } def
/m29 {mp gsave x w2 sub y w2 add w3 sub m currentpoint t 4 {side} repeat cl fill gr} def
/m30 {mp gsave x w2 sub y w2 add w3 sub m currentpoint t 4 {side} repeat cl s gr} def
/m31 {mp x y w2 sub m 0 w d x w2 sub y m w 0 d x w2 sub y w2 add m w w neg d x w2 sub y w2 sub m w w d s} def
/m32 {mp x y w2 sub m w2 w d w neg 0 d cl s} def
/m33 {mp x y w2 add m w3 neg w2 neg d w3 w2 neg d w3 w2 d cl f} def
/m34 {mp x w2 sub y w2 sub w3 add m w3 0 d  0 w3 neg d w3 0 d 0 w3 d w3 0 d  0 w3 d w3 neg 0 d 0 w3 d w3 neg 0 d 0 w3 neg d w3 neg 0 d cl f } def
/m2 {mp x y w2 sub m 0 w d x w2 sub y m w 0 d s} def
/m5 {mp x w2 sub y w2 sub m w w d x w2 sub y w2 add m w w neg d s} def
%%IncludeResource: ProcSet (FontSetInit)
%%IncludeResource: font Times-Roman
%%IncludeResource: font Times-Italic
%%IncludeResource: font Times-Bold
%%IncludeResource: font Times-BoldItalic
%%IncludeResource: font Helvetica
%%IncludeResource: font Helvetica-Oblique
%%IncludeResource: font Helvetica-Bold
%%IncludeResource: font Helvetica-BoldOblique
%%IncludeResource: font Courier
%%IncludeResource: font Courier-Oblique
%%IncludeResource: font Courier-Bold
%%IncludeResource: font Courier-BoldOblique
%%IncludeResource: font Symbol
%%IncludeResource: font ZapfDingbats
/reEncode {exch findfont dup length dict begin {1 index /FID eq  {pop pop} {def} ifelse } forall /Encoding exch def currentdict end dup /FontName get exch definefont pop } def [/Times-Bold /Times-Italic /Times-BoldItalic /Helvetica /Helvetica-Oblique
 /Helvetica-Bold /Helvetica-BoldOblique /Courier /Courier-Oblique /Courier-Bold /Courier-BoldOblique /Times-Roman /AvantGarde-Book /AvantGarde-BookOblique /AvantGarde-Demi /AvantGarde-DemiOblique /Bookman-Demi /Bookman-DemiItalic /Bookman-Light
 /Bookman-LightItalic /Helvetica-Narrow /Helvetica-Narrow-Bold /Helvetica-Narrow-BoldOblique /Helvetica-Narrow-Oblique /NewCenturySchlbk-Roman /NewCenturySchlbk-Bold /NewCenturySchlbk-BoldItalic /NewCenturySchlbk-Italic /Palatino-Bold
 /Palatino-BoldItalic /Palatino-Italic /Palatino-Roman ] {ISOLatin1Encoding reEncode } forall
%%EndProlog
%%BeginSetup
%%EndSetup
newpath  gsave  .25 .25 scale  gsave  0 0 t black[  ] 0 sd 3 lw 1 1 1 c 2268 2085 0 0 bf black 1 1 1 c 2263 1770 2 313 bf black 1 1 1 c black 1860 1145 319 584 bl 1 1 1 c black 1860 1145 319 584 bl 6 lw 1 1 1 c black 3 lw /w 33 def /w2 {w 2 div} def
 /w3 {w 3 div} def 366 1259 m20 6 lw 3 lw 459 1241 m20 6 lw 3 lw 552 1196 m20 6 lw 3 lw 645 1135 m20 6 lw 3 lw 738 1076 m20 6 lw 3 lw 831 1012 m20 6 lw 3 lw 924 954 m20 6 lw 1017 856 m 5 Y s 1017 888 m s 3 lw 1017 874 m20 6 lw 1110 825 m 10 Y s 1110
 862 m 3 Y s 3 lw 1110 848 m20 6 lw 1203 688 m 59 Y s 1203 774 m 18 Y s 3 lw 1203 760 m20 6 lw 1296 779 m 21 Y s 1296 828 m 8 Y s 3 lw 1296 814 m20 6 lw 1482 584 m 122 Y s 1482 733 m 27 Y s 3 lw 1482 719 m20 6 lw 3 lw 319 584 m 1860 X s
 gsave  2263 1770 2 313 C 1949.08 376.258 t 0 r /Helvetica findfont 81.3741 sf 0 0 m ( [GeV]) show NC gr 
 gsave  2263 1770 2 313 C 1915.19 332.192 t 0 r /Helvetica findfont 54.2494 sf 0 0 m (T) show NC gr 
 gsave  2263 1770 2 313 C 1630.45 376.258 t 0 r /Helvetica findfont 81.3741 sf 0 0 m (1st jet p) show NC gr  435 584 m cl s 482 584 m cl s 528 584 m cl s 575 584 m cl s 621 584 m cl s 668 584 m cl s 714 584 m cl s 761 584 m cl s 807 584 m cl s 854
 584 m cl s 900 584 m cl s 947 584 m cl s 993 584 m cl s 1040 584 m cl s 1087 584 m cl s 1133 584 m cl s 1180 584 m cl s 1226 584 m cl s 1273 584 m cl s 1319 584 m cl s 1366 584 m cl s 1412 584 m cl s 1459 584 m cl s 1505 584 m cl s 1552 584 m cl s
 1598 584 m cl s 1645 584 m cl s 1691 584 m cl s 1738 584 m cl s 1784 584 m cl s 1831 584 m cl s 1877 584 m cl s 1924 584 m cl s 1970 584 m cl s 2017 584 m cl s 2063 584 m cl s 435 584 m cl s 389 584 m cl s 342 584 m cl s 2063 584 m cl s 2110 584 m
 cl s 2156 584 m cl s 319 1729 m 1860 X s 435 1729 m cl s 482 1729 m cl s 528 1729 m cl s 575 1729 m cl s 621 1729 m cl s 668 1729 m cl s 714 1729 m cl s 761 1729 m cl s 807 1729 m cl s 854 1729 m cl s 900 1729 m cl s 947 1729 m cl s 993 1729 m cl s
 1040 1729 m cl s 1087 1729 m cl s 1133 1729 m cl s 1180 1729 m cl s 1226 1729 m cl s 1273 1729 m cl s 1319 1729 m cl s 1366 1729 m cl s 1412 1729 m cl s 1459 1729 m cl s 1505 1729 m cl s 1552 1729 m cl s 1598 1729 m cl s 1645 1729 m cl s 1691 1729 m
 cl s 1738 1729 m cl s 1784 1729 m cl s 1831 1729 m cl s 1877 1729 m cl s 1924 1729 m cl s 1970 1729 m cl s 2017 1729 m cl s 2063 1729 m cl s 435 1729 m cl s 389 1729 m cl s 342 1729 m cl s 2063 1729 m cl s 2110 1729 m cl s 2156 1729 m cl s 319 584 m
 1145 Y s
 gsave  2263 1770 2 313 C 166.096 1091.49 t 90 r /Helvetica findfont 81.3741 sf 0 0 m (Events / 200 GeV) show NC gr  341 625 m -22 X s 341 649 m -22 X s 341 666 m -22 X s 341 679 m -22 X s 341 689 m -22 X s 341 699 m -22 X s 341 706 m -22 X s 341 713
 m -22 X s 363 719 m -44 X s
 gsave  2263 1770 2 313 C 300.555 692.358 t 0 r  -36 0 t /Helvetica findfont 64.4212 sf 0 0 m (1) show NC gr  341 760 m -22 X s 341 784 m -22 X s 341 801 m -22 X s 341 814 m -22 X s 341 825 m -22 X s 341 834 m -22 X s 341 842 m -22 X s 341 848 m -22
 X s 363 855 m -44 X s
 gsave  2263 1770 2 313 C 300.555 827.525 t 0 r  -73 0 t /Helvetica findfont 64.4212 sf 0 0 m (10) show NC gr  341 895 m -22 X s 341 919 m -22 X s 341 936 m -22 X s 341 949 m -22 X s 341 960 m -22 X s 341 969 m -22 X s 341 977 m -22 X s 341 984 m -22
 X s 363 990 m -44 X s
 gsave  2263 1770 2 313 C 274.567 989.796 t 0 r /Helvetica findfont 44.0776 sf 0 0 m (2) show NC gr 
 gsave  2263 1770 2 313 C 203.383 962.678 t 0 r /Helvetica findfont 64.4212 sf 0 0 m (10) show NC gr  341 1030 m -22 X s 341 1054 m -22 X s 341 1071 m -22 X s 341 1084 m -22 X s 341 1095 m -22 X s 341 1104 m -22 X s 341 1112 m -22 X s 341 1119 m -22
 X s 363 1125 m -44 X s
 gsave  2263 1770 2 313 C 274.567 1125.38 t 0 r /Helvetica findfont 44.0776 sf 0 0 m (3) show NC gr 
 gsave  2263 1770 2 313 C 203.383 1094.88 t 0 r /Helvetica findfont 64.4212 sf 0 0 m (10) show NC gr  341 1166 m -22 X s 341 1189 m -22 X s 341 1206 m -22 X s 341 1219 m -22 X s 341 1230 m -22 X s 341 1239 m -22 X s 341 1247 m -22 X s 341 1254 m -22
 X s 363 1260 m -44 X s
 gsave  2263 1770 2 313 C 274.567 1257.58 t 0 r /Helvetica findfont 44.0776 sf 0 0 m (4) show NC gr 
 gsave  2263 1770 2 313 C 203.383 1230.47 t 0 r /Helvetica findfont 64.4212 sf 0 0 m (10) show NC gr  341 1301 m -22 X s 341 1325 m -22 X s 341 1342 m -22 X s 341 1355 m -22 X s 341 1365 m -22 X s 341 1374 m -22 X s 341 1382 m -22 X s 341 1389 m -22
 X s 363 1395 m -44 X s
 gsave  2263 1770 2 313 C 274.567 1396.56 t 0 r /Helvetica findfont 44.0776 sf 0 0 m (5) show NC gr 
 gsave  2263 1770 2 313 C 203.383 1366.05 t 0 r /Helvetica findfont 64.4212 sf 0 0 m (10) show NC gr  341 1436 m -22 X s 341 1460 m -22 X s 341 1477 m -22 X s 341 1490 m -22 X s 341 1500 m -22 X s 341 1510 m -22 X s 341 1517 m -22 X s 341 1524 m -22
 X s 363 1530 m -44 X s
 gsave  2263 1770 2 313 C 274.567 1532.15 t 0 r /Helvetica findfont 44.0776 sf 0 0 m (6) show NC gr 
 gsave  2263 1770 2 313 C 203.383 1501.64 t 0 r /Helvetica findfont 64.4212 sf 0 0 m (10) show NC gr  341 1571 m -22 X s 341 1595 m -22 X s 341 1612 m -22 X s 341 1625 m -22 X s 341 1636 m -22 X s 341 1645 m -22 X s 341 1653 m -22 X s 341 1659 m -22
 X s 363 1666 m -44 X s
 gsave  2263 1770 2 313 C 274.567 1664.35 t 0 r /Helvetica findfont 44.0776 sf 0 0 m (7) show NC gr 
 gsave  2263 1770 2 313 C 203.383 1637.23 t 0 r /Helvetica findfont 64.4212 sf 0 0 m (10) show NC gr  341 1706 m -22 X s 2179 584 m 1145 Y s 2157 625 m 22 X s 2157 649 m 22 X s 2157 666 m 22 X s 2157 679 m 22 X s 2157 689 m 22 X s 2157 699 m 22 X s
 2157 706 m 22 X s 2157 713 m 22 X s 2136 719 m 43 X s 2157 760 m 22 X s 2157 784 m 22 X s 2157 801 m 22 X s 2157 814 m 22 X s 2157 825 m 22 X s 2157 834 m 22 X s 2157 842 m 22 X s 2157 848 m 22 X s 2136 855 m 43 X s 2157 895 m 22 X s 2157 919 m 22 X
 s 2157 936 m 22 X s 2157 949 m 22 X s 2157 960 m 22 X s 2157 969 m 22 X s 2157 977 m 22 X s 2157 984 m 22 X s 2136 990 m 43 X s 2157 1030 m 22 X s 2157 1054 m 22 X s 2157 1071 m 22 X s 2157 1084 m 22 X s 2157 1095 m 22 X s 2157 1104 m 22 X s 2157
 1112 m 22 X s 2157 1119 m 22 X s 2136 1125 m 43 X s 2157 1166 m 22 X s 2157 1189 m 22 X s 2157 1206 m 22 X s 2157 1219 m 22 X s 2157 1230 m 22 X s 2157 1239 m 22 X s 2157 1247 m 22 X s 2157 1254 m 22 X s 2136 1260 m 43 X s 2157 1301 m 22 X s 2157
 1325 m 22 X s 2157 1342 m 22 X s 2157 1355 m 22 X s 2157 1365 m 22 X s 2157 1374 m 22 X s 2157 1382 m 22 X s 2157 1389 m 22 X s 2136 1395 m 43 X s 2157 1436 m 22 X s 2157 1460 m 22 X s 2157 1477 m 22 X s 2157 1490 m 22 X s 2157 1500 m 22 X s 2157
 1510 m 22 X s 2157 1517 m 22 X s 2157 1524 m 22 X s 2136 1530 m 43 X s 2157 1571 m 22 X s 2157 1595 m 22 X s 2157 1612 m 22 X s 2157 1625 m 22 X s 2157 1636 m 22 X s 2157 1645 m 22 X s 2157 1653 m 22 X s 2157 1659 m 22 X s 2136 1666 m 43 X s 2157
 1706 m 22 X s 0.4 0.6 1 c black 0.4 0.6 1 c 319 584 m 674 Y 93 X -17 Y 93 X -44 Y 93 X -60 Y 93 X -61 Y 93 X -63 Y 93 X -57 Y 93 X -55 Y 93 X -32 Y 93 X -73 Y 93 X -14 Y 93 X -82 Y 93 X 29 Y 93 X -101 Y 93 X -44 Y 558 X f black 0.4 0.6 1 c black 319
 1258 m 93 X -17 Y 93 X -44 Y 93 X -60 Y 93 X -61 Y 93 X -63 Y 93 X -57 Y 93 X -55 Y 93 X -32 Y 93 X -73 Y 93 X -14 Y 93 X -82 Y 93 X 29 Y 93 X -101 Y 93 X -44 Y 558 X s 0.999 0.999 0.999 c black 0.999 0.999 0.999 c 319 584 m 572 Y 93 X -25 Y 93 X
 -47 Y 93 X -65 Y 93 X -63 Y 93 X -61 Y 93 X -64 Y 93 X -59 Y 93 X -13 Y 93 X -96 Y 93 X -79 Y 930 X f black 0.999 0.999 0.999 c black 319 1156 m 93 X -25 Y 93 X -47 Y 93 X -65 Y 93 X -63 Y 93 X -61 Y 93 X -64 Y 93 X -59 Y 93 X -13 Y 93 X -96 Y 93 X
 -79 Y 930 X s 1 1 1 c black 319 1156 m 93 X -25 Y 93 X -47 Y 93 X -65 Y 93 X -63 Y 93 X -61 Y 93 X -64 Y 93 X -59 Y 93 X -13 Y 93 X -96 Y 93 X -79 Y 930 X s 0.6 1 0.6 c black 0.6 1 0.6 c 319 584 m 572 Y 93 X -25 Y 93 X -47 Y 93 X -65 Y 93 X -63 Y 93
 X -61 Y 93 X -64 Y 93 X -59 Y 93 X -13 Y 93 X -96 Y 93 X -79 Y 930 X f black 0.6 1 0.6 c black 319 1156 m 93 X -25 Y 93 X -47 Y 93 X -65 Y 93 X -63 Y 93 X -61 Y 93 X -64 Y 93 X -59 Y 93 X -13 Y 93 X -96 Y 93 X -79 Y 930 X s 0.999 0.999 0.999 c black
 0.999 0.999 0.999 c 319 584 m 512 Y 93 X -18 Y 93 X -39 Y 93 X -61 Y 93 X -64 Y 93 X -62 Y 93 X -48 Y 93 X -59 Y 93 X 5 Y 93 X -132 Y 93 X -34 Y 930 X f black 0.999 0.999 0.999 c black 319 1096 m 93 X -18 Y 93 X -39 Y 93 X -61 Y 93 X -64 Y 93 X -62
 Y 93 X -48 Y 93 X -59 Y 93 X 5 Y 93 X -132 Y 93 X -34 Y 930 X s 1 1 1 c black 319 1096 m 93 X -18 Y 93 X -39 Y 93 X -61 Y 93 X -64 Y 93 X -62 Y 93 X -48 Y 93 X -59 Y 93 X 5 Y 93 X -132 Y 93 X -34 Y 930 X s 1 0.8 0.4 c black 1 0.8 0.4 c 319 584 m 512
 Y 93 X -18 Y 93 X -39 Y 93 X -61 Y 93 X -64 Y 93 X -62 Y 93 X -48 Y 93 X -59 Y 93 X 5 Y 93 X -132 Y 93 X -34 Y 930 X f black 1 0.8 0.4 c black 319 1096 m 93 X -18 Y 93 X -39 Y 93 X -61 Y 93 X -64 Y 93 X -62 Y 93 X -48 Y 93 X -59 Y 93 X 5 Y 93 X -132
 Y 93 X -34 Y 930 X s 0.999 0.999 0.999 c black 0.999 0.999 0.999 c 319 584 m 506 Y 93 X -20 Y 93 X -39 Y 93 X -60 Y 93 X -65 Y 93 X -62 Y 93 X -44 Y 93 X -62 Y 93 X -14 Y 93 X -119 Y 93 X -21 Y 930 X f black 0.999 0.999 0.999 c black 319 1090 m 93 X
 -20 Y 93 X -39 Y 93 X -60 Y 93 X -65 Y 93 X -62 Y 93 X -44 Y 93 X -62 Y 93 X -14 Y 93 X -119 Y 93 X -21 Y 930 X s 1 1 1 c black 319 1090 m 93 X -20 Y 93 X -39 Y 93 X -60 Y 93 X -65 Y 93 X -62 Y 93 X -44 Y 93 X -62 Y 93 X -14 Y 93 X -119 Y 93 X -21 Y
 930 X s 1 0.4 0.6 c black 1 0.4 0.6 c 319 584 m 506 Y 93 X -20 Y 93 X -39 Y 93 X -60 Y 93 X -65 Y 93 X -62 Y 93 X -44 Y 93 X -62 Y 93 X -14 Y 93 X -119 Y 93 X -21 Y 930 X f black 1 0.4 0.6 c black 319 1090 m 93 X -20 Y 93 X -39 Y 93 X -60 Y 93 X -65
 Y 93 X -62 Y 93 X -44 Y 93 X -62 Y 93 X -14 Y 93 X -119 Y 93 X -21 Y 930 X s 1 0 0 c 6 lw 1 1 1 c black 1 0 0 c 319 1258 m 93 X -17 Y 93 X -44 Y 93 X -60 Y 93 X -61 Y 93 X -63 Y 93 X -57 Y 93 X -55 Y 93 X -32 Y 93 X -73 Y 93 X -14 Y 93 X -82 Y 93 X
 29 Y 93 X -101 Y 93 X -44 Y 558 X s black 3 lw 1 0 0 c 1 lw << /PatternType 1 /PaintType 2 /TilingType 1 /BBox [ 0 0 100 100 ] /XStep 100 /YStep 100 /PaintProc { begin gsave 0 100 m 100 0 l s gr end } >> [ 0.24 0 0 0.24 0 0 ] makepattern /P05 exch
 def /cs {[/Pattern /DeviceRGB] setcolorspace} def /FA {f [/DeviceRGB] setcolorspace} def cs 1 0 0 P05 setcolor 319 584 m 674 Y 93 X -17 Y 93 X -43 Y 93 X -60 Y 93 X -60 Y 93 X -63 Y 93 X -55 Y 93 X -55 Y 93 X -28 Y 93 X -70 Y 93 X -11 Y 93 X -83 Y
 93 X 51 Y 93 X -109 Y 93 X -71 Y -93 X 45 Y -93 X 55 Y -93 X 79 Y -93 X 19 Y -93 X 78 Y -93 X 37 Y -93 X 55 Y -93 X 59 Y -93 X 64 Y -93 X 61 Y -93 X 61 Y -93 X 43 Y -93 X 17 Y -93 X -673 Y FA 6 lw 1 1 1 c 15 lw 1110 828 m -3 Y s 1110 825 m cl s 1203
 781 m 14 Y s 1203 795 m cl s 1203 740 m -40 Y s 1203 700 m cl s 1296 834 m 3 Y s 1296 837 m cl s 1296 794 m -13 Y s 1296 781 m cl s 1482 740 m 28 Y s 1482 768 m cl s 1482 699 m -82 Y s 1482 617 m cl s black 1 1 1 c 3 lw /w 43 def /w2 {w 2 div} def
 /w3 {w 3 div} def 366 1259 459 1241 552 1196 645 1135 738 1076 831 1012 924 954 1017 874 1110 848 1203 760 1296 814 11 { m20} R 15 lw 3 lw 1482 719 m20 15 lw black 6 lw 1 1 1 c black 3 lw /w 33 def /w2 {w 2 div} def /w3 {w 3 div} def 366 1259 m20 6
 lw 3 lw 459 1241 m20 6 lw 3 lw 552 1196 m20 6 lw 3 lw 645 1135 m20 6 lw 3 lw 738 1076 m20 6 lw 3 lw 831 1012 m20 6 lw 3 lw 924 954 m20 6 lw 1017 856 m 5 Y s 1017 888 m s 3 lw 1017 874 m20 6 lw 1110 825 m 10 Y s 1110 862 m 3 Y s 3 lw 1110 848 m20 6
 lw 1203 688 m 59 Y s 1203 774 m 18 Y s 3 lw 1203 760 m20 6 lw 1296 779 m 21 Y s 1296 828 m 8 Y s 3 lw 1296 814 m20 6 lw 1482 584 m 122 Y s 1482 733 m 27 Y s 3 lw 1482 719 m20 6 lw 1017 888 m 1 Y s 1017 889 m cl s 1017 861 m -5 Y s 1017 856 m cl s
 1110 862 m 4 Y s 1110 866 m cl s 1110 835 m -10 Y s 1110 825 m cl s 1203 774 m 21 Y s 1203 795 m cl s 1203 747 m -47 Y s 1203 700 m cl s 1296 828 m 9 Y s 1296 837 m cl s 1296 800 m -19 Y s 1296 781 m cl s 1482 733 m 35 Y s 1482 768 m cl s 1482 706 m
 -89 Y s 1482 617 m cl s 3 lw 366 1259 459 1241 552 1196 645 1135 738 1076 831 1012 924 954 1017 874 1110 848 1203 760 1296 814 11 { m20} R 6 lw 3 lw 1482 719 m20 6 lw 3 lw 319 584 m 1860 X s 435 584 m cl s 482 584 m cl s 528 584 m cl s 575 584 m cl
 s 621 584 m cl s 668 584 m cl s 714 584 m cl s 761 584 m cl s 807 584 m cl s 854 584 m cl s 900 584 m cl s 947 584 m cl s 993 584 m cl s 1040 584 m cl s 1087 584 m cl s 1133 584 m cl s 1180 584 m cl s 1226 584 m cl s 1273 584 m cl s 1319 584 m cl s
 1366 584 m cl s 1412 584 m cl s 1459 584 m cl s 1505 584 m cl s 1552 584 m cl s 1598 584 m cl s 1645 584 m cl s 1691 584 m cl s 1738 584 m cl s 1784 584 m cl s 1831 584 m cl s 1877 584 m cl s 1924 584 m cl s 1970 584 m cl s 2017 584 m cl s 2063 584
 m cl s 435 584 m cl s 389 584 m cl s 342 584 m cl s 2063 584 m cl s 2110 584 m cl s 2156 584 m cl s 319 1729 m 1860 X s 435 1729 m cl s 482 1729 m cl s 528 1729 m cl s 575 1729 m cl s 621 1729 m cl s 668 1729 m cl s 714 1729 m cl s 761 1729 m cl s
 807 1729 m cl s 854 1729 m cl s 900 1729 m cl s 947 1729 m cl s 993 1729 m cl s 1040 1729 m cl s 1087 1729 m cl s 1133 1729 m cl s 1180 1729 m cl s 1226 1729 m cl s 1273 1729 m cl s 1319 1729 m cl s 1366 1729 m cl s 1412 1729 m cl s 1459 1729 m cl s
 1505 1729 m cl s 1552 1729 m cl s 1598 1729 m cl s 1645 1729 m cl s 1691 1729 m cl s 1738 1729 m cl s 1784 1729 m cl s 1831 1729 m cl s 1877 1729 m cl s 1924 1729 m cl s 1970 1729 m cl s 2017 1729 m cl s 2063 1729 m cl s 435 1729 m cl s 389 1729 m
 cl s 342 1729 m cl s 2063 1729 m cl s 2110 1729 m cl s 2156 1729 m cl s 319 584 m 1145 Y s 341 625 m -22 X s 341 649 m -22 X s 341 666 m -22 X s 341 679 m -22 X s 341 689 m -22 X s 341 699 m -22 X s 341 706 m -22 X s 341 713 m -22 X s 363 719 m -44
 X s 341 760 m -22 X s 341 784 m -22 X s 341 801 m -22 X s 341 814 m -22 X s 341 825 m -22 X s 341 834 m -22 X s 341 842 m -22 X s 341 848 m -22 X s 363 855 m -44 X s 341 895 m -22 X s 341 919 m -22 X s 341 936 m -22 X s 341 949 m -22 X s 341 960 m
 -22 X s 341 969 m -22 X s 341 977 m -22 X s 341 984 m -22 X s 363 990 m -44 X s 341 1030 m -22 X s 341 1054 m -22 X s 341 1071 m -22 X s 341 1084 m -22 X s 341 1095 m -22 X s 341 1104 m -22 X s 341 1112 m -22 X s 341 1119 m -22 X s 363 1125 m -44 X
 s 341 1166 m -22 X s 341 1189 m -22 X s 341 1206 m -22 X s 341 1219 m -22 X s 341 1230 m -22 X s 341 1239 m -22 X s 341 1247 m -22 X s 341 1254 m -22 X s 363 1260 m -44 X s 341 1301 m -22 X s 341 1325 m -22 X s 341 1342 m -22 X s 341 1355 m -22 X s
 341 1365 m -22 X s 341 1374 m -22 X s 341 1382 m -22 X s 341 1389 m -22 X s 363 1395 m -44 X s 341 1436 m -22 X s 341 1460 m -22 X s 341 1477 m -22 X s 341 1490 m -22 X s 341 1500 m -22 X s 341 1510 m -22 X s 341 1517 m -22 X s 341 1524 m -22 X s
 363 1530 m -44 X s 341 1571 m -22 X s 341 1595 m -22 X s 341 1612 m -22 X s 341 1625 m -22 X s 341 1636 m -22 X s 341 1645 m -22 X s 341 1653 m -22 X s 341 1659 m -22 X s 363 1666 m -44 X s 341 1706 m -22 X s 2179 584 m 1145 Y s 2157 625 m 22 X s
 2157 649 m 22 X s 2157 666 m 22 X s 2157 679 m 22 X s 2157 689 m 22 X s 2157 699 m 22 X s 2157 706 m 22 X s 2157 713 m 22 X s 2136 719 m 43 X s 2157 760 m 22 X s 2157 784 m 22 X s 2157 801 m 22 X s 2157 814 m 22 X s 2157 825 m 22 X s 2157 834 m 22 X
 s 2157 842 m 22 X s 2157 848 m 22 X s 2136 855 m 43 X s 2157 895 m 22 X s 2157 919 m 22 X s 2157 936 m 22 X s 2157 949 m 22 X s 2157 960 m 22 X s 2157 969 m 22 X s 2157 977 m 22 X s 2157 984 m 22 X s 2136 990 m 43 X s 2157 1030 m 22 X s 2157 1054 m
 22 X s 2157 1071 m 22 X s 2157 1084 m 22 X s 2157 1095 m 22 X s 2157 1104 m 22 X s 2157 1112 m 22 X s 2157 1119 m 22 X s 2136 1125 m 43 X s 2157 1166 m 22 X s 2157 1189 m 22 X s 2157 1206 m 22 X s 2157 1219 m 22 X s 2157 1230 m 22 X s 2157 1239 m 22
 X s 2157 1247 m 22 X s 2157 1254 m 22 X s 2136 1260 m 43 X s 2157 1301 m 22 X s 2157 1325 m 22 X s 2157 1342 m 22 X s 2157 1355 m 22 X s 2157 1365 m 22 X s 2157 1374 m 22 X s 2157 1382 m 22 X s 2157 1389 m 22 X s 2136 1395 m 43 X s 2157 1436 m 22 X
 s 2157 1460 m 22 X s 2157 1477 m 22 X s 2157 1490 m 22 X s 2157 1500 m 22 X s 2157 1510 m 22 X s 2157 1517 m 22 X s 2157 1524 m 22 X s 2136 1530 m 43 X s 2157 1571 m 22 X s 2157 1595 m 22 X s 2157 1612 m 22 X s 2157 1625 m 22 X s 2157 1636 m 22 X s
 2157 1645 m 22 X s 2157 1653 m 22 X s 2157 1659 m 22 X s 2136 1666 m 43 X s 2157 1706 m 22 X s
 gsave  2263 1770 2 313 C 406.765 1447.41 t 0 r /Helvetica findfont 64.4212 sf 0 0 m (CRW for MB\255SSd) show NC gr 
 gsave  2263 1770 2 313 C 1464.36 1616.89 t 0 r /Helvetica findfont 64.4212 sf 0 0 m (SM Total) show NC gr  1 1 1 c 1338 1603 m 107 X 74 Y -107 X f 1 0 0 c 6 lw 1338 1640 m 107 X s black
 gsave  2263 1770 2 313 C 1464.36 1511.81 t 0 r /Helvetica findfont 64.4212 sf 0 0 m (Data) show NC gr  1391 1502 m 64 Y s 3 lw 1391 1534 m20 6 lw
 gsave  2263 1770 2 313 C 1464.36 1406.73 t 0 r /Helvetica findfont 64.4212 sf 0 0 m (W+jets) show NC gr  0.4 0.6 1 c 3 lw 1338 1391 m 107 X 74 Y -107 X f 6 lw black 3 lw 1338 1465 m 107 X s 1338 1391 m 107 X s 1445 1391 m 74 Y s 1338 1391 m 74 Y s
 gsave  2263 1770 2 313 C 1498.25 1298.26 t 0 r /Helvetica findfont 64.4212 sf 0 0 m (\(+EW\) & single top) show NC gr 
 gsave  2263 1770 2 313 C 1481.3 1298.26 t 0 r /Helvetica findfont 64.4212 sf 0 0 m (t) show NC gr  1481 1349 m 17 X s
 gsave  2263 1770 2 313 C 1464.36 1298.26 t 0 r /Helvetica findfont 64.4212 sf 0 0 m (t) show NC gr  0.6 1 0.6 c 1338 1284 m 107 X 75 Y -107 X f black 1338 1359 m 107 X s 1338 1284 m 107 X s 1445 1284 m 75 Y s 1338 1284 m 75 Y s
 gsave  2263 1770 2 313 C 1464.36 1193.18 t 0 r /Helvetica findfont 64.4212 sf 0 0 m (Z+jets) show NC gr  1 0.8 0.4 c 1338 1178 m 107 X 75 Y -107 X f black 1338 1253 m 107 X s 1338 1178 m 107 X s 1445 1178 m 75 Y s 1338 1178 m 75 Y s
 gsave  2263 1770 2 313 C 1464.36 1088.1 t 0 r /Helvetica findfont 64.4212 sf 0 0 m (Diboson) show NC gr  1 0.4 0.6 c 1338 1072 m 107 X 74 Y -107 X f black 1338 1146 m 107 X s 1338 1072 m 107 X s 1445 1072 m 74 Y s 1338 1072 m 74 Y s
 gsave  2263 1770 2 313 C 911.832 1566.05 t 0 r /Helvetica findfont 44.0776 sf 0 0 m (\2551) show NC gr 
 gsave  2263 1770 2 313 C 471.17 1535.54 t 0 r /Helvetica findfont 64.4212 sf 0 0 m (=13TeV, 139 fb) show NC gr 
 gsave  2263 1770 2 313 C 440.662 1535.54 t 0 r /Helvetica findfont 64.4212 sf 0 0 m (s) show NC gr  6 lw 420 1573 m 7 -41 d s 3 lw 427 1532 m 7 61 d s 434 1593 m 37 X s 1 1 1 c 2254 561 2 2 bf black 1 1 1 c black 1860 358 318 187 bl 1 1 1 c black
 1860 358 318 187 bl 6 lw 1 1 1 c black 3 lw 364 368 m20 6 lw 3 lw 457 367 m20 6 lw 3 lw 550 362 m20 6 lw 3 lw 643 361 m20 6 lw 3 lw 736 364 m20 6 lw 3 lw 829 364 m20 6 lw 3 lw 923 359 m20 6 lw 3 lw 1016 306 m20 6 lw 3 lw 1109 318 m20 6 lw 3 lw 1202
 291 m20 6 lw 3 lw 1295 485 m20 6 lw 3 lw 1481 342 m20 6 lw 3 lw 318 187 m 1860 X s
 gsave  2254 561 2 2 C 1959.25 44.0662 t 0 r /Helvetica findfont 78.1689 sf 0 0 m ( [GeV]) show NC gr 
 gsave  2254 561 2 2 C 1928.75 -2.35513e-13 t 0 r /Helvetica findfont 50.9797 sf 0 0 m (T) show NC gr 
 gsave  2254 561 2 2 C 1657.57 44.0662 t 0 r /Helvetica findfont 78.1689 sf 0 0 m (1st jet p) show NC gr  434 201 m -14 Y s 481 194 m -7 Y s 527 194 m -7 Y s 574 194 m -7 Y s 620 194 m -7 Y s 667 201 m -14 Y s 713 194 m -7 Y s 760 194 m -7 Y s 806
 194 m -7 Y s 853 194 m -7 Y s 899 201 m -14 Y s 946 194 m -7 Y s 992 194 m -7 Y s 1039 194 m -7 Y s 1085 194 m -7 Y s 1132 201 m -14 Y s 1178 194 m -7 Y s 1225 194 m -7 Y s 1271 194 m -7 Y s 1318 194 m -7 Y s 1364 201 m -14 Y s 1411 194 m -7 Y s
 1457 194 m -7 Y s 1504 194 m -7 Y s 1550 194 m -7 Y s 1597 201 m -14 Y s 1643 194 m -7 Y s 1690 194 m -7 Y s 1737 194 m -7 Y s 1783 194 m -7 Y s 1830 201 m -14 Y s 1876 194 m -7 Y s 1923 194 m -7 Y s 1969 194 m -7 Y s 2016 194 m -7 Y s 2062 201 m
 -14 Y s 434 201 m -14 Y s 388 194 m -7 Y s 341 194 m -7 Y s 2062 201 m -14 Y s 2109 194 m -7 Y s 2155 194 m -7 Y s
 gsave  2254 561 2 2 C 369.478 118.64 t 0 r /Helvetica findfont 78.1689 sf 0 0 m (500) show NC gr 
 gsave  2254 561 2 2 C 576.251 118.64 t 0 r /Helvetica findfont 78.1689 sf 0 0 m (1000) show NC gr 
 gsave  2254 561 2 2 C 810.141 118.64 t 0 r /Helvetica findfont 78.1689 sf 0 0 m (1500) show NC gr 
 gsave  2254 561 2 2 C 1040.64 118.64 t 0 r /Helvetica findfont 78.1689 sf 0 0 m (2000) show NC gr 
 gsave  2254 561 2 2 C 1274.53 118.64 t 0 r /Helvetica findfont 78.1689 sf 0 0 m (2500) show NC gr 
 gsave  2254 561 2 2 C 1508.42 118.64 t 0 r /Helvetica findfont 78.1689 sf 0 0 m (3000) show NC gr 
 gsave  2254 561 2 2 C 1738.92 118.64 t 0 r /Helvetica findfont 78.1689 sf 0 0 m (3500) show NC gr 
 gsave  2254 561 2 2 C 1972.81 118.64 t 0 r /Helvetica findfont 78.1689 sf 0 0 m (4000) show NC gr  318 545 m 1860 X s 434 531 m 14 Y s 481 538 m 7 Y s 527 538 m 7 Y s 574 538 m 7 Y s 620 538 m 7 Y s 667 531 m 14 Y s 713 538 m 7 Y s 760 538 m 7 Y s
 806 538 m 7 Y s 853 538 m 7 Y s 899 531 m 14 Y s 946 538 m 7 Y s 992 538 m 7 Y s 1039 538 m 7 Y s 1085 538 m 7 Y s 1132 531 m 14 Y s 1178 538 m 7 Y s 1225 538 m 7 Y s 1271 538 m 7 Y s 1318 538 m 7 Y s 1364 531 m 14 Y s 1411 538 m 7 Y s 1457 538 m 7
 Y s 1504 538 m 7 Y s 1550 538 m 7 Y s 1597 531 m 14 Y s 1643 538 m 7 Y s 1690 538 m 7 Y s 1737 538 m 7 Y s 1783 538 m 7 Y s 1830 531 m 14 Y s 1876 538 m 7 Y s 1923 538 m 7 Y s 1969 538 m 7 Y s 2016 538 m 7 Y s 2062 531 m 14 Y s 434 531 m 14 Y s 388
 538 m 7 Y s 341 538 m 7 Y s 2062 531 m 14 Y s 2109 538 m 7 Y s 2155 538 m 7 Y s 318 187 m 358 Y s
 gsave  2254 561 2 2 C 166.096 284.736 t 90 r /Helvetica findfont 67.9729 sf 0 0 m (Data/SM) show NC gr  361 203 m -43 X s 339 220 m -21 X s 339 236 m -21 X s 339 252 m -21 X s 339 268 m -21 X s 361 285 m -43 X s 339 301 m -21 X s 339 317 m -21 X s
 339 334 m -21 X s 339 350 m -21 X s 361 366 m -43 X s 339 382 m -21 X s 339 399 m -21 X s 339 415 m -21 X s 339 431 m -21 X s 361 447 m -43 X s 339 464 m -21 X s 339 480 m -21 X s 339 496 m -21 X s 339 512 m -21 X s 361 529 m -43 X s 361 203 m -43 X
 s 339 187 m -21 X s 361 529 m -43 X s
 gsave  2254 561 2 2 C 261.008 183.044 t 0 r /Helvetica findfont 57.777 sf 0 0 m (0) show NC gr 
 gsave  2254 561 2 2 C 213.552 261.008 t 0 r /Helvetica findfont 57.777 sf 0 0 m (0.5) show NC gr 
 gsave  2254 561 2 2 C 271.177 342.361 t 0 r /Helvetica findfont 57.777 sf 0 0 m (1) show NC gr 
 gsave  2254 561 2 2 C 213.552 423.714 t 0 r /Helvetica findfont 57.777 sf 0 0 m (1.5) show NC gr 
 gsave  2254 561 2 2 C 261.008 505.067 t 0 r /Helvetica findfont 57.777 sf 0 0 m (2) show NC gr  2178 187 m 358 Y s 2135 203 m 43 X s 2157 220 m 21 X s 2157 236 m 21 X s 2157 252 m 21 X s 2157 268 m 21 X s 2135 285 m 43 X s 2157 301 m 21 X s 2157 317
 m 21 X s 2157 334 m 21 X s 2157 350 m 21 X s 2135 366 m 43 X s 2157 382 m 21 X s 2157 399 m 21 X s 2157 415 m 21 X s 2157 431 m 21 X s 2135 447 m 43 X s 2157 464 m 21 X s 2157 480 m 21 X s 2157 496 m 21 X s 2157 512 m 21 X s 2135 529 m 43 X s 2135
 203 m 43 X s 2157 187 m 21 X s 2135 529 m 43 X s 9 lw 923 373 m 8 Y s 923 381 m cl s 923 346 m -8 Y s 923 338 m cl s 1016 320 m 14 Y s 1016 334 m cl s 1016 293 m -14 Y s 1016 279 m cl s 1109 331 m 26 Y s 1109 357 m cl s 1109 304 m -23 Y s 1109 281 m
 cl s 1202 305 m 58 Y s 1202 363 m cl s 1202 278 m -43 Y s 1202 235 m cl s 1295 498 m 47 Y s 1295 545 m cl s 1295 471 m -107 Y s 1295 364 m cl s 1481 356 m 165 Y s 1481 521 m cl s 1481 328 m -100 Y s 1481 228 m cl s 3 lw 364 368 457 367 550 362 643
 361 736 364 829 364 923 359 1016 306 1109 318 1202 291 1295 485 11 { m20} R 9 lw 3 lw 1481 342 m20 9 lw 1 0 0 c 6 lw black 3 lw 1 0 0 c 2178 227 m -25 -25 d s 2178 255 m -53 -53 d s 2178 284 m -82 -82 d s 2178 312 m -93 -92 d s 2178 341 m -118 -118
 d s 2178 369 m -146 -146 d s 2178 398 m -175 -175 d s 1992 213 m s 1983 203 m cl s 2178 427 m -186 -186 d s 1954 203 m cl s 2178 455 m -186 -185 d s 1926 203 m cl s 2178 484 m -186 -186 d s 1899 206 m s 2178 512 m -186 -185 d s 1899 234 m s 2168 530
 m -176 -174 d s 1899 263 m s 2139 530 m -147 -146 d s 1899 291 m -16 -15 d s 2110 530 m -118 -117 d s 1899 320 m -44 -44 d s 1806 227 m -26 -25 d s 2060 509 m -68 -68 d s 1899 349 m -73 -73 d s 1806 256 m -54 -54 d s 2031 509 m -39 -39 d s 1899 377
 m -176 -175 d s 2003 509 m -11 -10 d s 1899 406 m -186 -186 d s 1899 434 m -186 -185 d s 1893 456 m -207 -205 d s 1864 456 m -206 -205 d s 1835 456 m -206 -205 d s 1807 456 m -187 -186 d s 1806 485 m -215 -215 d s 1806 513 m -244 -243 d s 1527 235 m
 -2 -2 d s 1795 530 m -262 -260 d s 1527 264 m -30 -31 d s 1766 530 m -298 -297 d s 1737 530 m -24 -24 d s 1688 481 m -249 -248 d s 1659 481 m -225 -224 d s 1631 481 m -11 -10 d s 1611 462 m -177 -177 d s 1583 462 m -149 -148 d s 1554 462 m -136 -136
 d s 1527 464 m -138 -138 d s 1527 493 m -167 -167 d s 1505 499 m -71 -71 d s 1412 406 m -86 -85 d s 1476 499 m -42 -42 d s 1383 406 m -85 -85 d s 1448 499 m -14 -13 d s 1354 406 m -85 -85 d s 1331 411 m -83 -82 d s 1302 411 m -79 -79 d s 1273 411 m
 -79 -79 d s 1233 400 m -68 -68 d s 1205 400 m -58 -57 d s 1176 400 m -57 -57 d s 1137 389 m -47 -46 d s 1108 389 m -46 -46 d s 1079 389 m -34 -34 d s 1039 377 m -23 -22 d s 1010 377 m -23 -22 d s 981 377 m -21 -21 d s 951 376 m -20 -20 d s 922 376 m
 -19 -20 d s 894 376 m -18 -18 d s 860 371 m -10 -10 d s 832 371 m -11 -10 d s 803 371 m -10 -10 d s 773 370 m -8 -8 d s 744 370 m -8 -8 d s 716 370 m -8 -8 d s 686 369 m -6 -6 d s 657 369 m -5 -6 d s 628 369 m -5 -6 d s 600 369 m -5 -5 d s 570 368 m
 -4 -4 d s 542 368 m -5 -4 d s 513 368 m -4 -4 d s 483 367 m -2 -2 d s 455 367 m -3 -2 d s 318 231 m s 426 367 m -2 -2 d s 318 259 m s 397 367 m -2 -2 d s 318 288 m s 369 367 m -3 -2 d s 318 317 m s 340 367 m -2 -2 d s 318 345 m s 6 lw black[ 4 8] 0
 sd 3 lw 318 447 m 1860 X s 318 285 m 1860 X s 1 0 0 c[  12 12 ] 0 sd 6 lw 318 366 m 1860 X s
 gr  gr showpage
end
%%EOF
