%!PS-Adobe-2.0 EPSF-2.0
%%BoundingBox:  0 0 567 521
%%Title: Distributions/jetPt_0__distrVR0LmetSig_MB-GGo_beforeFit_forThesis.eps: canvas
%%Creator: ROOT Version 6.04/16
%%CreationDate: Tue May 19 22:03:41 2020
%%DocumentNeededResources: ProcSet (FontSetInit)
%%EndComments
%%BeginProlog
80 dict begin
/s {stroke} def /l {lineto} def /m {moveto} def /t {translate} def
/r {rotate} def /rl {roll}  def /R {repeat} def
/d {rlineto} def /rm {rmoveto} def /gr {grestore} def /f {eofill} def
/c {setrgbcolor} def /black {0 setgray} def /sd {setdash} def
/cl {closepath} def /sf {scalefont setfont} def /lw {setlinewidth} def
/box {m dup 0 exch d exch 0 d 0 exch neg d cl} def
/NC{systemdict begin initclip end}def/C{NC box clip newpath}def
/bl {box s} def /bf {gsave box gsave f grestore 1 lw [] 0 sd s grestore} def /Y { 0 exch d} def /X { 0 d} def 
/K {{pop pop 0 moveto} exch kshow} bind def
/ita {/ang 15 def gsave [1 0 ang dup sin exch cos div 1 0 0] concat} def 
/mp {newpath /y exch def /x exch def} def
/side {[w .77 mul w .23 mul] .385 w mul sd w 0 l currentpoint t -144 r} def
/mr {mp x y w2 0 360 arc} def /m24 {mr s} def /m20 {mr f} def
/mb {mp x y w2 add m w2 neg 0 d 0 w neg d w 0 d 0 w d cl} def
/mt {mp x y w2 add m w2 neg w neg d w 0 d cl} def
/m21 {mb f} def /m25 {mb s} def /m22 {mt f} def /m26{mt s} def
/m23 {mp x y w2 sub m w2 w d w neg 0 d cl f} def
/m27 {mp x y w2 add m w3 neg w2 neg d w3 w2 neg d w3 w2 d cl s} def
/m28 {mp x w2 sub y w2 sub w3 add m w3 0 d  0 w3 neg d w3 0 d 0 w3 d w3 0 d  0 w3 d w3 neg 0 d 0 w3 d w3 neg 0 d 0 w3 neg d w3 neg 0 d cl s } def
/m29 {mp gsave x w2 sub y w2 add w3 sub m currentpoint t 4 {side} repeat cl fill gr} def
/m30 {mp gsave x w2 sub y w2 add w3 sub m currentpoint t 4 {side} repeat cl s gr} def
/m31 {mp x y w2 sub m 0 w d x w2 sub y m w 0 d x w2 sub y w2 add m w w neg d x w2 sub y w2 sub m w w d s} def
/m32 {mp x y w2 sub m w2 w d w neg 0 d cl s} def
/m33 {mp x y w2 add m w3 neg w2 neg d w3 w2 neg d w3 w2 d cl f} def
/m34 {mp x w2 sub y w2 sub w3 add m w3 0 d  0 w3 neg d w3 0 d 0 w3 d w3 0 d  0 w3 d w3 neg 0 d 0 w3 d w3 neg 0 d 0 w3 neg d w3 neg 0 d cl f } def
/m2 {mp x y w2 sub m 0 w d x w2 sub y m w 0 d s} def
/m5 {mp x w2 sub y w2 sub m w w d x w2 sub y w2 add m w w neg d s} def
%%IncludeResource: ProcSet (FontSetInit)
%%IncludeResource: font Times-Roman
%%IncludeResource: font Times-Italic
%%IncludeResource: font Times-Bold
%%IncludeResource: font Times-BoldItalic
%%IncludeResource: font Helvetica
%%IncludeResource: font Helvetica-Oblique
%%IncludeResource: font Helvetica-Bold
%%IncludeResource: font Helvetica-BoldOblique
%%IncludeResource: font Courier
%%IncludeResource: font Courier-Oblique
%%IncludeResource: font Courier-Bold
%%IncludeResource: font Courier-BoldOblique
%%IncludeResource: font Symbol
%%IncludeResource: font ZapfDingbats
/reEncode {exch findfont dup length dict begin {1 index /FID eq  {pop pop} {def} ifelse } forall /Encoding exch def currentdict end dup /FontName get exch definefont pop } def [/Times-Bold /Times-Italic /Times-BoldItalic /Helvetica /Helvetica-Oblique
 /Helvetica-Bold /Helvetica-BoldOblique /Courier /Courier-Oblique /Courier-Bold /Courier-BoldOblique /Times-Roman /AvantGarde-Book /AvantGarde-BookOblique /AvantGarde-Demi /AvantGarde-DemiOblique /Bookman-Demi /Bookman-DemiItalic /Bookman-Light
 /Bookman-LightItalic /Helvetica-Narrow /Helvetica-Narrow-Bold /Helvetica-Narrow-BoldOblique /Helvetica-Narrow-Oblique /NewCenturySchlbk-Roman /NewCenturySchlbk-Bold /NewCenturySchlbk-BoldItalic /NewCenturySchlbk-Italic /Palatino-Bold
 /Palatino-BoldItalic /Palatino-Italic /Palatino-Roman ] {ISOLatin1Encoding reEncode } forall
%%EndProlog
%%BeginSetup
%%EndSetup
newpath  gsave  .25 .25 scale  gsave  0 0 t black[  ] 0 sd 3 lw 1 1 1 c 2268 2085 0 0 bf black 1 1 1 c 2263 1770 2 313 bf black 1 1 1 c black 1860 1145 319 584 bl 1 1 1 c black 1860 1145 319 584 bl 6 lw 1 1 1 c black 3 lw /w 33 def /w2 {w 2 div} def
 /w3 {w 3 div} def 366 1105 m20 6 lw 459 999 m 3 Y s 459 1029 m 1 Y s 3 lw 459 1016 m20 6 lw 552 944 m 10 Y s 552 981 m 5 Y s 3 lw 552 968 m20 6 lw 645 817 m 40 Y s 645 884 m 18 Y s 3 lw 645 870 m20 6 lw 738 721 m 82 Y s 738 830 m 28 Y s 3 lw 738 817
 m20 6 lw 831 584 m 165 Y s 831 776 m 41 Y s 3 lw 831 763 m20 6 lw 3 lw 319 584 m 1860 X s
 gsave  2263 1770 2 313 C 1949.08 376.258 t 0 r /Helvetica findfont 81.3741 sf 0 0 m ( [GeV]) show NC gr 
 gsave  2263 1770 2 313 C 1915.19 332.192 t 0 r /Helvetica findfont 54.2494 sf 0 0 m (T) show NC gr 
 gsave  2263 1770 2 313 C 1630.45 376.258 t 0 r /Helvetica findfont 81.3741 sf 0 0 m (1st jet p) show NC gr  435 584 m cl s 482 584 m cl s 528 584 m cl s 575 584 m cl s 621 584 m cl s 668 584 m cl s 714 584 m cl s 761 584 m cl s 807 584 m cl s 854
 584 m cl s 900 584 m cl s 947 584 m cl s 993 584 m cl s 1040 584 m cl s 1087 584 m cl s 1133 584 m cl s 1180 584 m cl s 1226 584 m cl s 1273 584 m cl s 1319 584 m cl s 1366 584 m cl s 1412 584 m cl s 1459 584 m cl s 1505 584 m cl s 1552 584 m cl s
 1598 584 m cl s 1645 584 m cl s 1691 584 m cl s 1738 584 m cl s 1784 584 m cl s 1831 584 m cl s 1877 584 m cl s 1924 584 m cl s 1970 584 m cl s 2017 584 m cl s 2063 584 m cl s 435 584 m cl s 389 584 m cl s 342 584 m cl s 2063 584 m cl s 2110 584 m
 cl s 2156 584 m cl s 319 1729 m 1860 X s 435 1729 m cl s 482 1729 m cl s 528 1729 m cl s 575 1729 m cl s 621 1729 m cl s 668 1729 m cl s 714 1729 m cl s 761 1729 m cl s 807 1729 m cl s 854 1729 m cl s 900 1729 m cl s 947 1729 m cl s 993 1729 m cl s
 1040 1729 m cl s 1087 1729 m cl s 1133 1729 m cl s 1180 1729 m cl s 1226 1729 m cl s 1273 1729 m cl s 1319 1729 m cl s 1366 1729 m cl s 1412 1729 m cl s 1459 1729 m cl s 1505 1729 m cl s 1552 1729 m cl s 1598 1729 m cl s 1645 1729 m cl s 1691 1729 m
 cl s 1738 1729 m cl s 1784 1729 m cl s 1831 1729 m cl s 1877 1729 m cl s 1924 1729 m cl s 1970 1729 m cl s 2017 1729 m cl s 2063 1729 m cl s 435 1729 m cl s 389 1729 m cl s 342 1729 m cl s 2063 1729 m cl s 2110 1729 m cl s 2156 1729 m cl s 319 584 m
 1145 Y s
 gsave  2263 1770 2 313 C 166.096 1091.49 t 90 r /Helvetica findfont 81.3741 sf 0 0 m (Events / 200 GeV) show NC gr  341 638 m -22 X s 341 670 m -22 X s 341 692 m -22 X s 341 709 m -22 X s 341 723 m -22 X s 341 735 m -22 X s 341 746 m -22 X s 341 755
 m -22 X s 363 763 m -44 X s
 gsave  2263 1770 2 313 C 300.555 735.801 t 0 r  -36 0 t /Helvetica findfont 64.4212 sf 0 0 m (1) show NC gr  341 817 m -22 X s 341 848 m -22 X s 341 870 m -22 X s 341 888 m -22 X s 341 902 m -22 X s 341 914 m -22 X s 341 924 m -22 X s 341 933 m -22
 X s 363 942 m -44 X s
 gsave  2263 1770 2 313 C 300.555 914.41 t 0 r  -73 0 t /Helvetica findfont 64.4212 sf 0 0 m (10) show NC gr  341 995 m -22 X s 341 1027 m -22 X s 341 1049 m -22 X s 341 1066 m -22 X s 341 1081 m -22 X s 341 1092 m -22 X s 341 1103 m -22 X s 341 1112
 m -22 X s 363 1120 m -44 X s
 gsave  2263 1770 2 313 C 274.567 1118.6 t 0 r /Helvetica findfont 44.0776 sf 0 0 m (2) show NC gr 
 gsave  2263 1770 2 313 C 203.383 1091.49 t 0 r /Helvetica findfont 64.4212 sf 0 0 m (10) show NC gr  341 1174 m -22 X s 341 1205 m -22 X s 341 1228 m -22 X s 341 1245 m -22 X s 341 1259 m -22 X s 341 1271 m -22 X s 341 1281 m -22 X s 341 1291 m -22
 X s 363 1299 m -44 X s
 gsave  2263 1770 2 313 C 274.567 1301.65 t 0 r /Helvetica findfont 44.0776 sf 0 0 m (3) show NC gr 
 gsave  2263 1770 2 313 C 203.383 1271.14 t 0 r /Helvetica findfont 64.4212 sf 0 0 m (10) show NC gr  341 1353 m -22 X s 341 1384 m -22 X s 341 1406 m -22 X s 341 1424 m -22 X s 341 1438 m -22 X s 341 1450 m -22 X s 341 1460 m -22 X s 341 1469 m -22
 X s 363 1477 m -44 X s
 gsave  2263 1770 2 313 C 274.567 1474.52 t 0 r /Helvetica findfont 44.0776 sf 0 0 m (4) show NC gr 
 gsave  2263 1770 2 313 C 203.383 1447.41 t 0 r /Helvetica findfont 64.4212 sf 0 0 m (10) show NC gr  341 1531 m -22 X s 341 1563 m -22 X s 341 1585 m -22 X s 341 1602 m -22 X s 341 1616 m -22 X s 341 1628 m -22 X s 341 1639 m -22 X s 341 1648 m -22
 X s 363 1656 m -44 X s
 gsave  2263 1770 2 313 C 274.567 1657.57 t 0 r /Helvetica findfont 44.0776 sf 0 0 m (5) show NC gr 
 gsave  2263 1770 2 313 C 203.383 1627.06 t 0 r /Helvetica findfont 64.4212 sf 0 0 m (10) show NC gr  341 1710 m -22 X s 2179 584 m 1145 Y s 2157 638 m 22 X s 2157 670 m 22 X s 2157 692 m 22 X s 2157 709 m 22 X s 2157 723 m 22 X s 2157 735 m 22 X s
 2157 746 m 22 X s 2157 755 m 22 X s 2136 763 m 43 X s 2157 817 m 22 X s 2157 848 m 22 X s 2157 870 m 22 X s 2157 888 m 22 X s 2157 902 m 22 X s 2157 914 m 22 X s 2157 924 m 22 X s 2157 933 m 22 X s 2136 942 m 43 X s 2157 995 m 22 X s 2157 1027 m 22
 X s 2157 1049 m 22 X s 2157 1066 m 22 X s 2157 1081 m 22 X s 2157 1092 m 22 X s 2157 1103 m 22 X s 2157 1112 m 22 X s 2136 1120 m 43 X s 2157 1174 m 22 X s 2157 1205 m 22 X s 2157 1228 m 22 X s 2157 1245 m 22 X s 2157 1259 m 22 X s 2157 1271 m 22 X
 s 2157 1281 m 22 X s 2157 1291 m 22 X s 2136 1299 m 43 X s 2157 1353 m 22 X s 2157 1384 m 22 X s 2157 1406 m 22 X s 2157 1424 m 22 X s 2157 1438 m 22 X s 2157 1450 m 22 X s 2157 1460 m 22 X s 2157 1469 m 22 X s 2136 1477 m 43 X s 2157 1531 m 22 X s
 2157 1563 m 22 X s 2157 1585 m 22 X s 2157 1602 m 22 X s 2157 1616 m 22 X s 2157 1628 m 22 X s 2157 1639 m 22 X s 2157 1648 m 22 X s 2136 1656 m 43 X s 2157 1710 m 22 X s 0.4 0.6 1 c black 0.4 0.6 1 c 319 584 m 524 Y 93 X -60 Y 93 X -60 Y 93 X -54 Y
 93 X -55 Y 93 X -64 Y 93 X -64 Y 93 X -76 Y 93 X -91 Y 1116 X f black 0.4 0.6 1 c black 319 1108 m 93 X -60 Y 93 X -60 Y 93 X -54 Y 93 X -55 Y 93 X -64 Y 93 X -64 Y 93 X -76 Y 93 X -91 Y 1116 X s 0.999 0.999 0.999 c black 0.999 0.999 0.999 c 319 584
 m 511 Y 93 X -60 Y 93 X -60 Y 93 X -52 Y 93 X -54 Y 93 X -72 Y 93 X -73 Y 93 X -68 Y 93 X -72 Y 1116 X f black 0.999 0.999 0.999 c black 319 1095 m 93 X -60 Y 93 X -60 Y 93 X -52 Y 93 X -54 Y 93 X -72 Y 93 X -73 Y 93 X -68 Y 93 X -72 Y 1116 X s 1 1
 1 c black 319 1095 m 93 X -60 Y 93 X -60 Y 93 X -52 Y 93 X -54 Y 93 X -72 Y 93 X -73 Y 93 X -68 Y 93 X -72 Y 1116 X s 0.6 1 0.6 c black 0.6 1 0.6 c 319 584 m 511 Y 93 X -60 Y 93 X -60 Y 93 X -52 Y 93 X -54 Y 93 X -72 Y 93 X -73 Y 93 X -68 Y 93 X -72
 Y 1116 X f black 0.6 1 0.6 c black 319 1095 m 93 X -60 Y 93 X -60 Y 93 X -52 Y 93 X -54 Y 93 X -72 Y 93 X -73 Y 93 X -68 Y 93 X -72 Y 1116 X s 0.999 0.999 0.999 c black 0.999 0.999 0.999 c 319 584 m 384 Y 93 X -66 Y 93 X -59 Y 93 X -50 Y 93 X 1 Y 93
 X -71 Y 93 X -52 Y 93 X -87 Y 1209 X f black 0.999 0.999 0.999 c black 319 968 m 93 X -66 Y 93 X -59 Y 93 X -50 Y 93 X 1 Y 93 X -71 Y 93 X -52 Y 93 X -87 Y 1209 X s 1 1 1 c black 319 968 m 93 X -66 Y 93 X -59 Y 93 X -50 Y 93 X 1 Y 93 X -71 Y 93 X
 -52 Y 93 X -87 Y 1209 X s 1 0.8 0.4 c black 1 0.8 0.4 c 319 584 m 384 Y 93 X -66 Y 93 X -59 Y 93 X -50 Y 93 X 1 Y 93 X -71 Y 93 X -52 Y 93 X -87 Y 1209 X f black 1 0.8 0.4 c black 319 968 m 93 X -66 Y 93 X -59 Y 93 X -50 Y 93 X 1 Y 93 X -71 Y 93 X
 -52 Y 93 X -87 Y 1209 X s 0.999 0.999 0.999 c black 0.999 0.999 0.999 c 319 584 m 276 Y 93 X -49 Y 93 X -99 Y 93 X -89 Y 93 X 43 Y 93 X 31 Y 93 X -113 Y 1302 X f black 0.999 0.999 0.999 c black 319 860 m 93 X -49 Y 93 X -99 Y 93 X -89 Y 93 X 43 Y 93
 X 31 Y 93 X -113 Y 1302 X s 1 1 1 c black 319 860 m 93 X -49 Y 93 X -99 Y 93 X -89 Y 93 X 43 Y 93 X 31 Y 93 X -113 Y 1302 X s 1 0.4 0.6 c black 1 0.4 0.6 c 319 584 m 276 Y 93 X -49 Y 93 X -99 Y 93 X -89 Y 93 X 43 Y 93 X 31 Y 93 X -113 Y 1302 X f
 black 1 0.4 0.6 c black 319 860 m 93 X -49 Y 93 X -99 Y 93 X -89 Y 93 X 43 Y 93 X 31 Y 93 X -113 Y 1302 X s 0.999 0.999 0.999 c black 0.999 0.999 0.999 c 319 584 m 155 Y 93 X -64 Y 93 X -44 Y 93 X -47 Y 1581 X f black 0.999 0.999 0.999 c black 319
 739 m 93 X -64 Y 93 X -44 Y 93 X -47 Y 1581 X s 1 1 1 c black 319 739 m 93 X -64 Y 93 X -44 Y 93 X -47 Y 1581 X s 0 0 0.4 c black 0 0 0.4 c 319 584 m 155 Y 93 X -64 Y 93 X -44 Y 93 X -47 Y 1581 X f black 0 0 0.4 c black 319 739 m 93 X -64 Y 93 X -44
 Y 93 X -47 Y 1581 X s 1 0 0 c 6 lw 1 1 1 c black 1 0 0 c 319 1108 m 93 X -60 Y 93 X -60 Y 93 X -54 Y 93 X -55 Y 93 X -64 Y 93 X -64 Y 93 X -76 Y 93 X -91 Y 1116 X s black 3 lw 1 0 0 c 1 lw << /PatternType 1 /PaintType 2 /TilingType 1 /BBox [ 0 0 100
 100 ] /XStep 100 /YStep 100 /PaintProc { begin gsave 0 100 m 100 0 l s gr end } >> [ 0.24 0 0 0.24 0 0 ] makepattern /P05 exch def /cs {[/Pattern /DeviceRGB] setcolorspace} def /FA {f [/DeviceRGB] setcolorspace} def cs 1 0 0 P05 setcolor 319 584 m
 530 Y 93 X -56 Y 93 X -58 Y 93 X -52 Y 93 X -53 Y 93 X -62 Y 93 X -61 Y 93 X -78 Y 93 X -110 Y 66 Y -93 X 71 Y -93 X 69 Y -93 X 69 Y -93 X 58 Y -93 X 57 Y -93 X 63 Y -93 X 63 Y -93 X -516 Y FA 6 lw 1 1 1 c 15 lw 552 947 m -3 Y s 552 944 m cl s 645
 891 m 13 Y s 645 904 m cl s 645 850 m -30 Y s 645 820 m cl s 738 837 m 26 Y s 738 863 m cl s 738 796 m -59 Y s 738 737 m cl s 831 783 m 44 Y s 831 827 m cl s 831 743 m -116 Y s 831 627 m cl s black 1 1 1 c 3 lw /w 43 def /w2 {w 2 div} def /w3 {w 3
 div} def 366 1105 459 1016 552 968 645 870 738 817 831 763 6 { m20} R 15 lw black 6 lw 1 1 1 c black 3 lw /w 33 def /w2 {w 2 div} def /w3 {w 3 div} def 366 1105 m20 6 lw 459 999 m 3 Y s 459 1029 m 1 Y s 3 lw 459 1016 m20 6 lw 552 944 m 10 Y s 552
 981 m 5 Y s 3 lw 552 968 m20 6 lw 645 817 m 40 Y s 645 884 m 18 Y s 3 lw 645 870 m20 6 lw 738 721 m 82 Y s 738 830 m 28 Y s 3 lw 738 817 m20 6 lw 831 584 m 165 Y s 831 776 m 41 Y s 3 lw 831 763 m20 6 lw 459 1029 m 1 Y s 459 1030 m cl s 459 1002 m -3
 Y s 459 999 m cl s 552 981 m 5 Y s 552 986 m cl s 552 954 m -10 Y s 552 944 m cl s 645 884 m 20 Y s 645 904 m cl s 645 857 m -37 Y s 645 820 m cl s 738 830 m 33 Y s 738 863 m cl s 738 803 m -66 Y s 738 737 m cl s 831 776 m 51 Y s 831 827 m cl s 831
 749 m -122 Y s 831 627 m cl s 3 lw 366 1105 459 1016 552 968 645 870 738 817 831 763 6 { m20} R 6 lw 3 lw 319 584 m 1860 X s 435 584 m cl s 482 584 m cl s 528 584 m cl s 575 584 m cl s 621 584 m cl s 668 584 m cl s 714 584 m cl s 761 584 m cl s 807
 584 m cl s 854 584 m cl s 900 584 m cl s 947 584 m cl s 993 584 m cl s 1040 584 m cl s 1087 584 m cl s 1133 584 m cl s 1180 584 m cl s 1226 584 m cl s 1273 584 m cl s 1319 584 m cl s 1366 584 m cl s 1412 584 m cl s 1459 584 m cl s 1505 584 m cl s
 1552 584 m cl s 1598 584 m cl s 1645 584 m cl s 1691 584 m cl s 1738 584 m cl s 1784 584 m cl s 1831 584 m cl s 1877 584 m cl s 1924 584 m cl s 1970 584 m cl s 2017 584 m cl s 2063 584 m cl s 435 584 m cl s 389 584 m cl s 342 584 m cl s 2063 584 m
 cl s 2110 584 m cl s 2156 584 m cl s 319 1729 m 1860 X s 435 1729 m cl s 482 1729 m cl s 528 1729 m cl s 575 1729 m cl s 621 1729 m cl s 668 1729 m cl s 714 1729 m cl s 761 1729 m cl s 807 1729 m cl s 854 1729 m cl s 900 1729 m cl s 947 1729 m cl s
 993 1729 m cl s 1040 1729 m cl s 1087 1729 m cl s 1133 1729 m cl s 1180 1729 m cl s 1226 1729 m cl s 1273 1729 m cl s 1319 1729 m cl s 1366 1729 m cl s 1412 1729 m cl s 1459 1729 m cl s 1505 1729 m cl s 1552 1729 m cl s 1598 1729 m cl s 1645 1729 m
 cl s 1691 1729 m cl s 1738 1729 m cl s 1784 1729 m cl s 1831 1729 m cl s 1877 1729 m cl s 1924 1729 m cl s 1970 1729 m cl s 2017 1729 m cl s 2063 1729 m cl s 435 1729 m cl s 389 1729 m cl s 342 1729 m cl s 2063 1729 m cl s 2110 1729 m cl s 2156 1729
 m cl s 319 584 m 1145 Y s 341 638 m -22 X s 341 670 m -22 X s 341 692 m -22 X s 341 709 m -22 X s 341 723 m -22 X s 341 735 m -22 X s 341 746 m -22 X s 341 755 m -22 X s 363 763 m -44 X s 341 817 m -22 X s 341 848 m -22 X s 341 870 m -22 X s 341 888
 m -22 X s 341 902 m -22 X s 341 914 m -22 X s 341 924 m -22 X s 341 933 m -22 X s 363 942 m -44 X s 341 995 m -22 X s 341 1027 m -22 X s 341 1049 m -22 X s 341 1066 m -22 X s 341 1081 m -22 X s 341 1092 m -22 X s 341 1103 m -22 X s 341 1112 m -22 X
 s 363 1120 m -44 X s 341 1174 m -22 X s 341 1205 m -22 X s 341 1228 m -22 X s 341 1245 m -22 X s 341 1259 m -22 X s 341 1271 m -22 X s 341 1281 m -22 X s 341 1291 m -22 X s 363 1299 m -44 X s 341 1353 m -22 X s 341 1384 m -22 X s 341 1406 m -22 X s
 341 1424 m -22 X s 341 1438 m -22 X s 341 1450 m -22 X s 341 1460 m -22 X s 341 1469 m -22 X s 363 1477 m -44 X s 341 1531 m -22 X s 341 1563 m -22 X s 341 1585 m -22 X s 341 1602 m -22 X s 341 1616 m -22 X s 341 1628 m -22 X s 341 1639 m -22 X s
 341 1648 m -22 X s 363 1656 m -44 X s 341 1710 m -22 X s 2179 584 m 1145 Y s 2157 638 m 22 X s 2157 670 m 22 X s 2157 692 m 22 X s 2157 709 m 22 X s 2157 723 m 22 X s 2157 735 m 22 X s 2157 746 m 22 X s 2157 755 m 22 X s 2136 763 m 43 X s 2157 817 m
 22 X s 2157 848 m 22 X s 2157 870 m 22 X s 2157 888 m 22 X s 2157 902 m 22 X s 2157 914 m 22 X s 2157 924 m 22 X s 2157 933 m 22 X s 2136 942 m 43 X s 2157 995 m 22 X s 2157 1027 m 22 X s 2157 1049 m 22 X s 2157 1066 m 22 X s 2157 1081 m 22 X s 2157
 1092 m 22 X s 2157 1103 m 22 X s 2157 1112 m 22 X s 2136 1120 m 43 X s 2157 1174 m 22 X s 2157 1205 m 22 X s 2157 1228 m 22 X s 2157 1245 m 22 X s 2157 1259 m 22 X s 2157 1271 m 22 X s 2157 1281 m 22 X s 2157 1291 m 22 X s 2136 1299 m 43 X s 2157
 1353 m 22 X s 2157 1384 m 22 X s 2157 1406 m 22 X s 2157 1424 m 22 X s 2157 1438 m 22 X s 2157 1450 m 22 X s 2157 1460 m 22 X s 2157 1469 m 22 X s 2136 1477 m 43 X s 2157 1531 m 22 X s 2157 1563 m 22 X s 2157 1585 m 22 X s 2157 1602 m 22 X s 2157
 1616 m 22 X s 2157 1628 m 22 X s 2157 1639 m 22 X s 2157 1648 m 22 X s 2136 1656 m 43 X s 2157 1710 m 22 X s
 gsave  2263 1770 2 313 C 406.765 1447.41 t 0 r /Helvetica findfont 64.4212 sf 0 0 m (VR0LmetSig for MB\255GGo) show NC gr 
 gsave  2263 1770 2 313 C 1464.36 1630.45 t 0 r /Helvetica findfont 64.4212 sf 0 0 m (SM Total) show NC gr  1 1 1 c 1338 1616 m 107 X 64 Y -107 X f 1 0 0 c 6 lw 1338 1648 m 107 X s black
 gsave  2263 1770 2 313 C 1464.36 1538.93 t 0 r /Helvetica findfont 64.4212 sf 0 0 m (Data) show NC gr  1391 1529 m 55 Y s 3 lw 1391 1557 m20 6 lw
 gsave  2263 1770 2 313 C 1464.36 1447.41 t 0 r /Helvetica findfont 64.4212 sf 0 0 m (W+jets) show NC gr  0.4 0.6 1 c 3 lw 1338 1434 m 107 X 64 Y -107 X f 6 lw black 3 lw 1338 1498 m 107 X s 1338 1434 m 107 X s 1445 1434 m 64 Y s 1338 1434 m 64 Y s
 gsave  2263 1770 2 313 C 1498.25 1355.88 t 0 r /Helvetica findfont 64.4212 sf 0 0 m (\(+EW\) & single top) show NC gr 
 gsave  2263 1770 2 313 C 1481.3 1355.88 t 0 r /Helvetica findfont 64.4212 sf 0 0 m (t) show NC gr  1481 1407 m 17 X s
 gsave  2263 1770 2 313 C 1464.36 1355.88 t 0 r /Helvetica findfont 64.4212 sf 0 0 m (t) show NC gr  0.6 1 0.6 c 1338 1343 m 107 X 63 Y -107 X f black 1338 1406 m 107 X s 1338 1343 m 107 X s 1445 1343 m 63 Y s 1338 1343 m 63 Y s
 gsave  2263 1770 2 313 C 1464.36 1264.36 t 0 r /Helvetica findfont 64.4212 sf 0 0 m (Z+jets) show NC gr  1 0.8 0.4 c 1338 1252 m 107 X 63 Y -107 X f black 1338 1315 m 107 X s 1338 1252 m 107 X s 1445 1252 m 63 Y s 1338 1252 m 63 Y s
 gsave  2263 1770 2 313 C 1464.36 1172.84 t 0 r /Helvetica findfont 64.4212 sf 0 0 m (Diboson) show NC gr  1 0.4 0.6 c 1338 1161 m 107 X 63 Y -107 X f black 1338 1224 m 107 X s 1338 1161 m 107 X s 1445 1161 m 63 Y s 1338 1161 m 63 Y s
 gsave  2263 1770 2 313 C 1464.36 1081.32 t 0 r /Helvetica findfont 64.4212 sf 0 0 m (Multi\255jet) show NC gr  0 0 0.4 c 1338 1070 m 107 X 63 Y -107 X f black 1338 1133 m 107 X s 1338 1070 m 107 X s 1445 1070 m 63 Y s 1338 1070 m 63 Y s
 gsave  2263 1770 2 313 C 911.832 1566.05 t 0 r /Helvetica findfont 44.0776 sf 0 0 m (\2551) show NC gr 
 gsave  2263 1770 2 313 C 471.17 1535.54 t 0 r /Helvetica findfont 64.4212 sf 0 0 m (=13TeV, 139 fb) show NC gr 
 gsave  2263 1770 2 313 C 440.662 1535.54 t 0 r /Helvetica findfont 64.4212 sf 0 0 m (s) show NC gr  6 lw 420 1573 m 7 -41 d s 3 lw 427 1532 m 7 61 d s 434 1593 m 37 X s 1 1 1 c 2254 561 2 2 bf black 1 1 1 c black 1860 358 318 187 bl 1 1 1 c black
 1860 358 318 187 bl 6 lw 1 1 1 c black 3 lw 364 360 m20 6 lw 3 lw 457 310 m20 6 lw 3 lw 550 329 m20 6 lw 3 lw 643 275 m20 6 lw 3 lw 736 276 m20 6 lw 3 lw 829 287 m20 6 lw 3 lw 318 187 m 1860 X s
 gsave  2254 561 2 2 C 1959.25 44.0662 t 0 r /Helvetica findfont 78.1689 sf 0 0 m ( [GeV]) show NC gr 
 gsave  2254 561 2 2 C 1928.75 -2.35513e-13 t 0 r /Helvetica findfont 50.9797 sf 0 0 m (T) show NC gr 
 gsave  2254 561 2 2 C 1657.57 44.0662 t 0 r /Helvetica findfont 78.1689 sf 0 0 m (1st jet p) show NC gr  434 201 m -14 Y s 481 194 m -7 Y s 527 194 m -7 Y s 574 194 m -7 Y s 620 194 m -7 Y s 667 201 m -14 Y s 713 194 m -7 Y s 760 194 m -7 Y s 806
 194 m -7 Y s 853 194 m -7 Y s 899 201 m -14 Y s 946 194 m -7 Y s 992 194 m -7 Y s 1039 194 m -7 Y s 1085 194 m -7 Y s 1132 201 m -14 Y s 1178 194 m -7 Y s 1225 194 m -7 Y s 1271 194 m -7 Y s 1318 194 m -7 Y s 1364 201 m -14 Y s 1411 194 m -7 Y s
 1457 194 m -7 Y s 1504 194 m -7 Y s 1550 194 m -7 Y s 1597 201 m -14 Y s 1643 194 m -7 Y s 1690 194 m -7 Y s 1737 194 m -7 Y s 1783 194 m -7 Y s 1830 201 m -14 Y s 1876 194 m -7 Y s 1923 194 m -7 Y s 1969 194 m -7 Y s 2016 194 m -7 Y s 2062 201 m
 -14 Y s 434 201 m -14 Y s 388 194 m -7 Y s 341 194 m -7 Y s 2062 201 m -14 Y s 2109 194 m -7 Y s 2155 194 m -7 Y s
 gsave  2254 561 2 2 C 369.478 118.64 t 0 r /Helvetica findfont 78.1689 sf 0 0 m (500) show NC gr 
 gsave  2254 561 2 2 C 576.251 118.64 t 0 r /Helvetica findfont 78.1689 sf 0 0 m (1000) show NC gr 
 gsave  2254 561 2 2 C 810.141 118.64 t 0 r /Helvetica findfont 78.1689 sf 0 0 m (1500) show NC gr 
 gsave  2254 561 2 2 C 1040.64 118.64 t 0 r /Helvetica findfont 78.1689 sf 0 0 m (2000) show NC gr 
 gsave  2254 561 2 2 C 1274.53 118.64 t 0 r /Helvetica findfont 78.1689 sf 0 0 m (2500) show NC gr 
 gsave  2254 561 2 2 C 1508.42 118.64 t 0 r /Helvetica findfont 78.1689 sf 0 0 m (3000) show NC gr 
 gsave  2254 561 2 2 C 1738.92 118.64 t 0 r /Helvetica findfont 78.1689 sf 0 0 m (3500) show NC gr 
 gsave  2254 561 2 2 C 1972.81 118.64 t 0 r /Helvetica findfont 78.1689 sf 0 0 m (4000) show NC gr  318 545 m 1860 X s 434 531 m 14 Y s 481 538 m 7 Y s 527 538 m 7 Y s 574 538 m 7 Y s 620 538 m 7 Y s 667 531 m 14 Y s 713 538 m 7 Y s 760 538 m 7 Y s
 806 538 m 7 Y s 853 538 m 7 Y s 899 531 m 14 Y s 946 538 m 7 Y s 992 538 m 7 Y s 1039 538 m 7 Y s 1085 538 m 7 Y s 1132 531 m 14 Y s 1178 538 m 7 Y s 1225 538 m 7 Y s 1271 538 m 7 Y s 1318 538 m 7 Y s 1364 531 m 14 Y s 1411 538 m 7 Y s 1457 538 m 7
 Y s 1504 538 m 7 Y s 1550 538 m 7 Y s 1597 531 m 14 Y s 1643 538 m 7 Y s 1690 538 m 7 Y s 1737 538 m 7 Y s 1783 538 m 7 Y s 1830 531 m 14 Y s 1876 538 m 7 Y s 1923 538 m 7 Y s 1969 538 m 7 Y s 2016 538 m 7 Y s 2062 531 m 14 Y s 434 531 m 14 Y s 388
 538 m 7 Y s 341 538 m 7 Y s 2062 531 m 14 Y s 2109 538 m 7 Y s 2155 538 m 7 Y s 318 187 m 358 Y s
 gsave  2254 561 2 2 C 166.096 284.736 t 90 r /Helvetica findfont 67.9729 sf 0 0 m (Data/SM) show NC gr  361 203 m -43 X s 339 220 m -21 X s 339 236 m -21 X s 339 252 m -21 X s 339 268 m -21 X s 361 285 m -43 X s 339 301 m -21 X s 339 317 m -21 X s
 339 334 m -21 X s 339 350 m -21 X s 361 366 m -43 X s 339 382 m -21 X s 339 399 m -21 X s 339 415 m -21 X s 339 431 m -21 X s 361 447 m -43 X s 339 464 m -21 X s 339 480 m -21 X s 339 496 m -21 X s 339 512 m -21 X s 361 529 m -43 X s 361 203 m -43 X
 s 339 187 m -21 X s 361 529 m -43 X s
 gsave  2254 561 2 2 C 261.008 183.044 t 0 r /Helvetica findfont 57.777 sf 0 0 m (0) show NC gr 
 gsave  2254 561 2 2 C 213.552 261.008 t 0 r /Helvetica findfont 57.777 sf 0 0 m (0.5) show NC gr 
 gsave  2254 561 2 2 C 271.177 342.361 t 0 r /Helvetica findfont 57.777 sf 0 0 m (1) show NC gr 
 gsave  2254 561 2 2 C 213.552 423.714 t 0 r /Helvetica findfont 57.777 sf 0 0 m (1.5) show NC gr 
 gsave  2254 561 2 2 C 261.008 505.067 t 0 r /Helvetica findfont 57.777 sf 0 0 m (2) show NC gr  2178 187 m 358 Y s 2135 203 m 43 X s 2157 220 m 21 X s 2157 236 m 21 X s 2157 252 m 21 X s 2157 268 m 21 X s 2135 285 m 43 X s 2157 301 m 21 X s 2157 317
 m 21 X s 2157 334 m 21 X s 2157 350 m 21 X s 2135 366 m 43 X s 2157 382 m 21 X s 2157 399 m 21 X s 2157 415 m 21 X s 2157 431 m 21 X s 2135 447 m 43 X s 2157 464 m 21 X s 2157 480 m 21 X s 2157 496 m 21 X s 2157 512 m 21 X s 2135 529 m 43 X s 2135
 203 m 43 X s 2157 187 m 21 X s 2135 529 m 43 X s 9 lw 364 374 m 4 Y s 364 378 m cl s 364 347 m -4 Y s 364 343 m cl s 457 324 m 7 Y s 457 331 m cl s 457 297 m -8 Y s 457 289 m cl s 550 342 m 21 Y s 550 363 m cl s 550 315 m -19 Y s 550 296 m cl s 643
 289 m 24 Y s 643 313 m cl s 643 261 m -20 Y s 643 241 m cl s 736 290 m 45 Y s 736 335 m cl s 736 263 m -34 Y s 736 229 m cl s 829 300 m 94 Y s 829 394 m cl s 829 273 m -55 Y s 829 218 m cl s 3 lw 364 360 457 310 550 329 643 275 736 276 829 287 6 {
 m20} R 9 lw 1 0 0 c 6 lw black 3 lw 1 0 0 c 2155 203 m cl s 2127 203 m cl s 2098 203 m cl s 2069 203 m cl s 2040 203 m cl s 2012 203 m cl s 1992 213 m -16 -17 d s 1992 241 m -45 -45 d s 1992 270 m -74 -74 d s 1992 298 m -93 -92 d s 1897 203 m cl s
 1992 327 m -93 -93 d s 1868 203 m cl s 1992 356 m -93 -93 d s 1840 203 m cl s 1992 384 m -93 -93 d s 1811 203 m cl s 1992 413 m -93 -93 d s 1782 203 m cl s 1992 441 m -93 -92 d s 1754 203 m cl s 1992 470 m -93 -93 d s 1725 203 m cl s 1992 499 m -93
 -93 d s 1696 203 m cl s 1992 527 m -93 -93 d s 1667 203 m cl s 1973 536 m -74 -73 d s 1639 203 m cl s 1944 536 m -45 -44 d s 1610 203 m cl s 1915 536 m -16 -16 d s 1581 203 m cl s 1553 203 m cl s 1527 207 m -2 -3 d s 1527 235 m -31 -31 d s 1527 264
 m -60 -60 d s 1527 292 m -88 -88 d s 1527 321 m -93 -93 d s 1527 350 m -95 -96 d s 1527 378 m -124 -124 d s 1341 193 m -5 -6 d s 1527 407 m -153 -153 d s 1341 221 m -34 -34 d s 1527 435 m -182 -181 d s 1341 250 m -63 -63 d s 1527 464 m -278 -277 d s
 1527 493 m -279 -279 d s 1527 521 m -279 -278 d s 1505 528 m -257 -256 d s 1477 528 m -43 -42 d s 1426 478 m -205 -205 d s 1448 528 m -14 -14 d s 1398 478 m -206 -205 d s 1369 478 m -206 -205 d s 1341 479 m -194 -194 d s 1341 507 m -223 -222 d s
 1341 536 m -252 -251 d s 1322 545 m -74 -73 d s 1236 459 m -174 -173 d s 1293 545 m -45 -45 d s 1207 459 m -145 -144 d s 1264 545 m -16 -16 d s 1178 459 m -138 -137 d s 1138 447 m -127 -125 d s 1109 447 m -126 -125 d s 1080 447 m -18 -18 d s 1043
 410 m -96 -95 d s 1015 410 m -97 -95 d s 986 410 m -96 -95 d s 964 418 m -96 -96 d s 936 418 m -96 -96 d s 907 418 m -96 -96 d s 878 418 m -2 -3 d s 871 410 m -88 -87 d s 842 410 m -81 -80 d s 813 410 m -80 -80 d s 785 410 m -2 -2 d s 777 402 m -73
 -72 d s 748 402 m -69 -68 d s 720 402 m -69 -68 d s 691 402 m -1 X s 687 398 m -65 -64 d s 658 398 m -61 -61 d s 629 398 m -60 -60 d s 601 398 m -4 -3 d s 596 394 m -55 -56 d s 567 394 m -55 -56 d s 539 394 m -50 -49 d s 510 394 m -6 -6 d s 504 388
 m -43 -43 d s 475 388 m -43 -43 d s 318 231 m s 446 388 m -36 -37 d s 318 259 m s 418 388 m -7 -7 d s 411 381 m -30 -30 d s 318 288 m s 382 381 m -29 -30 d s 318 317 m s 353 381 m -29 -30 d s 318 345 m s 325 381 m -7 -7 d s 6 lw black[ 4 8] 0 sd 3
 lw 318 447 m 1860 X s 318 285 m 1860 X s 1 0 0 c[  12 12 ] 0 sd 6 lw 318 366 m 1860 X s
 gr  gr showpage
end
%%EOF
