%!PS-Adobe-2.0 EPSF-2.0
%%BoundingBox:  0 0 567 521
%%Title: Distributions/jetPt_0__distrVR0LmetSig_MB-GGd_beforeFit_forThesis.eps: canvas
%%Creator: ROOT Version 6.04/16
%%CreationDate: Tue May 19 22:03:33 2020
%%DocumentNeededResources: ProcSet (FontSetInit)
%%EndComments
%%BeginProlog
80 dict begin
/s {stroke} def /l {lineto} def /m {moveto} def /t {translate} def
/r {rotate} def /rl {roll}  def /R {repeat} def
/d {rlineto} def /rm {rmoveto} def /gr {grestore} def /f {eofill} def
/c {setrgbcolor} def /black {0 setgray} def /sd {setdash} def
/cl {closepath} def /sf {scalefont setfont} def /lw {setlinewidth} def
/box {m dup 0 exch d exch 0 d 0 exch neg d cl} def
/NC{systemdict begin initclip end}def/C{NC box clip newpath}def
/bl {box s} def /bf {gsave box gsave f grestore 1 lw [] 0 sd s grestore} def /Y { 0 exch d} def /X { 0 d} def 
/K {{pop pop 0 moveto} exch kshow} bind def
/ita {/ang 15 def gsave [1 0 ang dup sin exch cos div 1 0 0] concat} def 
/mp {newpath /y exch def /x exch def} def
/side {[w .77 mul w .23 mul] .385 w mul sd w 0 l currentpoint t -144 r} def
/mr {mp x y w2 0 360 arc} def /m24 {mr s} def /m20 {mr f} def
/mb {mp x y w2 add m w2 neg 0 d 0 w neg d w 0 d 0 w d cl} def
/mt {mp x y w2 add m w2 neg w neg d w 0 d cl} def
/m21 {mb f} def /m25 {mb s} def /m22 {mt f} def /m26{mt s} def
/m23 {mp x y w2 sub m w2 w d w neg 0 d cl f} def
/m27 {mp x y w2 add m w3 neg w2 neg d w3 w2 neg d w3 w2 d cl s} def
/m28 {mp x w2 sub y w2 sub w3 add m w3 0 d  0 w3 neg d w3 0 d 0 w3 d w3 0 d  0 w3 d w3 neg 0 d 0 w3 d w3 neg 0 d 0 w3 neg d w3 neg 0 d cl s } def
/m29 {mp gsave x w2 sub y w2 add w3 sub m currentpoint t 4 {side} repeat cl fill gr} def
/m30 {mp gsave x w2 sub y w2 add w3 sub m currentpoint t 4 {side} repeat cl s gr} def
/m31 {mp x y w2 sub m 0 w d x w2 sub y m w 0 d x w2 sub y w2 add m w w neg d x w2 sub y w2 sub m w w d s} def
/m32 {mp x y w2 sub m w2 w d w neg 0 d cl s} def
/m33 {mp x y w2 add m w3 neg w2 neg d w3 w2 neg d w3 w2 d cl f} def
/m34 {mp x w2 sub y w2 sub w3 add m w3 0 d  0 w3 neg d w3 0 d 0 w3 d w3 0 d  0 w3 d w3 neg 0 d 0 w3 d w3 neg 0 d 0 w3 neg d w3 neg 0 d cl f } def
/m2 {mp x y w2 sub m 0 w d x w2 sub y m w 0 d s} def
/m5 {mp x w2 sub y w2 sub m w w d x w2 sub y w2 add m w w neg d s} def
%%IncludeResource: ProcSet (FontSetInit)
%%IncludeResource: font Times-Roman
%%IncludeResource: font Times-Italic
%%IncludeResource: font Times-Bold
%%IncludeResource: font Times-BoldItalic
%%IncludeResource: font Helvetica
%%IncludeResource: font Helvetica-Oblique
%%IncludeResource: font Helvetica-Bold
%%IncludeResource: font Helvetica-BoldOblique
%%IncludeResource: font Courier
%%IncludeResource: font Courier-Oblique
%%IncludeResource: font Courier-Bold
%%IncludeResource: font Courier-BoldOblique
%%IncludeResource: font Symbol
%%IncludeResource: font ZapfDingbats
/reEncode {exch findfont dup length dict begin {1 index /FID eq  {pop pop} {def} ifelse } forall /Encoding exch def currentdict end dup /FontName get exch definefont pop } def [/Times-Bold /Times-Italic /Times-BoldItalic /Helvetica /Helvetica-Oblique
 /Helvetica-Bold /Helvetica-BoldOblique /Courier /Courier-Oblique /Courier-Bold /Courier-BoldOblique /Times-Roman /AvantGarde-Book /AvantGarde-BookOblique /AvantGarde-Demi /AvantGarde-DemiOblique /Bookman-Demi /Bookman-DemiItalic /Bookman-Light
 /Bookman-LightItalic /Helvetica-Narrow /Helvetica-Narrow-Bold /Helvetica-Narrow-BoldOblique /Helvetica-Narrow-Oblique /NewCenturySchlbk-Roman /NewCenturySchlbk-Bold /NewCenturySchlbk-BoldItalic /NewCenturySchlbk-Italic /Palatino-Bold
 /Palatino-BoldItalic /Palatino-Italic /Palatino-Roman ] {ISOLatin1Encoding reEncode } forall
%%EndProlog
%%BeginSetup
%%EndSetup
newpath  gsave  .25 .25 scale  gsave  0 0 t black[  ] 0 sd 3 lw 1 1 1 c 2268 2085 0 0 bf black 1 1 1 c 2263 1770 2 313 bf black 1 1 1 c black 1860 1145 319 584 bl 1 1 1 c black 1860 1145 319 584 bl 6 lw 1 1 1 c black 3 lw /w 33 def /w2 {w 2 div} def
 /w3 {w 3 div} def 366 1185 m20 6 lw 3 lw 459 1131 m20 6 lw 3 lw 552 1070 m20 6 lw 3 lw 645 997 m20 6 lw 738 894 m 7 Y s 738 928 m 2 Y s 3 lw 738 914 m20 6 lw 831 784 m 33 Y s 831 844 m 14 Y s 3 lw 831 831 m20 6 lw 924 754 m 44 Y s 924 825 m 17 Y s 3
 lw 924 812 m20 6 lw 3 lw 319 584 m 1860 X s
 gsave  2263 1770 2 313 C 1949.08 376.258 t 0 r /Helvetica findfont 81.3741 sf 0 0 m ( [GeV]) show NC gr 
 gsave  2263 1770 2 313 C 1915.19 332.192 t 0 r /Helvetica findfont 54.2494 sf 0 0 m (T) show NC gr 
 gsave  2263 1770 2 313 C 1630.45 376.258 t 0 r /Helvetica findfont 81.3741 sf 0 0 m (1st jet p) show NC gr  435 584 m cl s 482 584 m cl s 528 584 m cl s 575 584 m cl s 621 584 m cl s 668 584 m cl s 714 584 m cl s 761 584 m cl s 807 584 m cl s 854
 584 m cl s 900 584 m cl s 947 584 m cl s 993 584 m cl s 1040 584 m cl s 1087 584 m cl s 1133 584 m cl s 1180 584 m cl s 1226 584 m cl s 1273 584 m cl s 1319 584 m cl s 1366 584 m cl s 1412 584 m cl s 1459 584 m cl s 1505 584 m cl s 1552 584 m cl s
 1598 584 m cl s 1645 584 m cl s 1691 584 m cl s 1738 584 m cl s 1784 584 m cl s 1831 584 m cl s 1877 584 m cl s 1924 584 m cl s 1970 584 m cl s 2017 584 m cl s 2063 584 m cl s 435 584 m cl s 389 584 m cl s 342 584 m cl s 2063 584 m cl s 2110 584 m
 cl s 2156 584 m cl s 319 1729 m 1860 X s 435 1729 m cl s 482 1729 m cl s 528 1729 m cl s 575 1729 m cl s 621 1729 m cl s 668 1729 m cl s 714 1729 m cl s 761 1729 m cl s 807 1729 m cl s 854 1729 m cl s 900 1729 m cl s 947 1729 m cl s 993 1729 m cl s
 1040 1729 m cl s 1087 1729 m cl s 1133 1729 m cl s 1180 1729 m cl s 1226 1729 m cl s 1273 1729 m cl s 1319 1729 m cl s 1366 1729 m cl s 1412 1729 m cl s 1459 1729 m cl s 1505 1729 m cl s 1552 1729 m cl s 1598 1729 m cl s 1645 1729 m cl s 1691 1729 m
 cl s 1738 1729 m cl s 1784 1729 m cl s 1831 1729 m cl s 1877 1729 m cl s 1924 1729 m cl s 1970 1729 m cl s 2017 1729 m cl s 2063 1729 m cl s 435 1729 m cl s 389 1729 m cl s 342 1729 m cl s 2063 1729 m cl s 2110 1729 m cl s 2156 1729 m cl s 319 584 m
 1145 Y s
 gsave  2263 1770 2 313 C 166.096 1091.49 t 90 r /Helvetica findfont 81.3741 sf 0 0 m (Events / 200 GeV) show NC gr  341 631 m -22 X s 341 658 m -22 X s 341 677 m -22 X s 341 692 m -22 X s 341 704 m -22 X s 341 714 m -22 X s 341 723 m -22 X s 341 731
 m -22 X s 363 738 m -44 X s
 gsave  2263 1770 2 313 C 300.555 711.01 t 0 r  -36 0 t /Helvetica findfont 64.4212 sf 0 0 m (1) show NC gr  341 784 m -22 X s 341 812 m -22 X s 341 831 m -22 X s 341 846 m -22 X s 341 858 m -22 X s 341 868 m -22 X s 341 877 m -22 X s 341 885 m -22 X
 s 363 892 m -44 X s
 gsave  2263 1770 2 313 C 300.555 864.828 t 0 r  -73 0 t /Helvetica findfont 64.4212 sf 0 0 m (10) show NC gr  341 938 m -22 X s 341 965 m -22 X s 341 985 m -22 X s 341 999 m -22 X s 341 1012 m -22 X s 341 1022 m -22 X s 341 1031 m -22 X s 341 1039 m
 -22 X s 363 1046 m -44 X s
 gsave  2263 1770 2 313 C 274.567 1044.03 t 0 r /Helvetica findfont 44.0776 sf 0 0 m (2) show NC gr 
 gsave  2263 1770 2 313 C 203.383 1016.91 t 0 r /Helvetica findfont 64.4212 sf 0 0 m (10) show NC gr  341 1092 m -22 X s 341 1119 m -22 X s 341 1138 m -22 X s 341 1153 m -22 X s 341 1165 m -22 X s 341 1176 m -22 X s 341 1185 m -22 X s 341 1193 m -22
 X s 363 1200 m -44 X s
 gsave  2263 1770 2 313 C 274.567 1199.96 t 0 r /Helvetica findfont 44.0776 sf 0 0 m (3) show NC gr 
 gsave  2263 1770 2 313 C 203.383 1169.45 t 0 r /Helvetica findfont 64.4212 sf 0 0 m (10) show NC gr  341 1246 m -22 X s 341 1273 m -22 X s 341 1292 m -22 X s 341 1307 m -22 X s 341 1319 m -22 X s 341 1330 m -22 X s 341 1338 m -22 X s 341 1346 m -22
 X s 363 1353 m -44 X s
 gsave  2263 1770 2 313 C 274.567 1352.49 t 0 r /Helvetica findfont 44.0776 sf 0 0 m (4) show NC gr 
 gsave  2263 1770 2 313 C 203.383 1325.38 t 0 r /Helvetica findfont 64.4212 sf 0 0 m (10) show NC gr  341 1400 m -22 X s 341 1427 m -22 X s 341 1446 m -22 X s 341 1461 m -22 X s 341 1473 m -22 X s 341 1483 m -22 X s 341 1492 m -22 X s 341 1500 m -22
 X s 363 1507 m -44 X s
 gsave  2263 1770 2 313 C 274.567 1508.42 t 0 r /Helvetica findfont 44.0776 sf 0 0 m (5) show NC gr 
 gsave  2263 1770 2 313 C 203.383 1477.91 t 0 r /Helvetica findfont 64.4212 sf 0 0 m (10) show NC gr  341 1554 m -22 X s 341 1581 m -22 X s 341 1600 m -22 X s 341 1615 m -22 X s 341 1627 m -22 X s 341 1637 m -22 X s 341 1646 m -22 X s 341 1654 m -22
 X s 363 1661 m -44 X s
 gsave  2263 1770 2 313 C 274.567 1664.35 t 0 r /Helvetica findfont 44.0776 sf 0 0 m (6) show NC gr 
 gsave  2263 1770 2 313 C 203.383 1633.84 t 0 r /Helvetica findfont 64.4212 sf 0 0 m (10) show NC gr  341 1707 m -22 X s 2179 584 m 1145 Y s 2157 631 m 22 X s 2157 658 m 22 X s 2157 677 m 22 X s 2157 692 m 22 X s 2157 704 m 22 X s 2157 714 m 22 X s
 2157 723 m 22 X s 2157 731 m 22 X s 2136 738 m 43 X s 2157 784 m 22 X s 2157 812 m 22 X s 2157 831 m 22 X s 2157 846 m 22 X s 2157 858 m 22 X s 2157 868 m 22 X s 2157 877 m 22 X s 2157 885 m 22 X s 2136 892 m 43 X s 2157 938 m 22 X s 2157 965 m 22 X
 s 2157 985 m 22 X s 2157 999 m 22 X s 2157 1012 m 22 X s 2157 1022 m 22 X s 2157 1031 m 22 X s 2157 1039 m 22 X s 2136 1046 m 43 X s 2157 1092 m 22 X s 2157 1119 m 22 X s 2157 1138 m 22 X s 2157 1153 m 22 X s 2157 1165 m 22 X s 2157 1176 m 22 X s
 2157 1185 m 22 X s 2157 1193 m 22 X s 2136 1200 m 43 X s 2157 1246 m 22 X s 2157 1273 m 22 X s 2157 1292 m 22 X s 2157 1307 m 22 X s 2157 1319 m 22 X s 2157 1330 m 22 X s 2157 1338 m 22 X s 2157 1346 m 22 X s 2136 1353 m 43 X s 2157 1400 m 22 X s
 2157 1427 m 22 X s 2157 1446 m 22 X s 2157 1461 m 22 X s 2157 1473 m 22 X s 2157 1483 m 22 X s 2157 1492 m 22 X s 2157 1500 m 22 X s 2136 1507 m 43 X s 2157 1554 m 22 X s 2157 1581 m 22 X s 2157 1600 m 22 X s 2157 1615 m 22 X s 2157 1627 m 22 X s
 2157 1637 m 22 X s 2157 1646 m 22 X s 2157 1654 m 22 X s 2136 1661 m 43 X s 2157 1707 m 22 X s 0.4 0.6 1 c black 0.4 0.6 1 c 319 584 m 610 Y 93 X -56 Y 93 X -58 Y 93 X -55 Y 93 X -62 Y 93 X -62 Y 93 X -63 Y 93 X -59 Y 93 X -52 Y 93 X -86 Y 93 X -25
 Y 93 X -32 Y 837 X f black 0.4 0.6 1 c black 319 1194 m 93 X -56 Y 93 X -58 Y 93 X -55 Y 93 X -62 Y 93 X -62 Y 93 X -63 Y 93 X -59 Y 93 X -52 Y 93 X -86 Y 93 X -25 Y 93 X -32 Y 837 X s 0.999 0.999 0.999 c black 0.999 0.999 0.999 c 319 584 m 592 Y 93
 X -56 Y 93 X -59 Y 93 X -53 Y 93 X -62 Y 93 X -63 Y 93 X -65 Y 93 X -52 Y 93 X -57 Y 93 X -93 Y 93 X -18 Y 93 X -14 Y 837 X f black 0.999 0.999 0.999 c black 319 1176 m 93 X -56 Y 93 X -59 Y 93 X -53 Y 93 X -62 Y 93 X -63 Y 93 X -65 Y 93 X -52 Y 93
 X -57 Y 93 X -93 Y 93 X -18 Y 93 X -14 Y 837 X s 1 1 1 c black 319 1176 m 93 X -56 Y 93 X -59 Y 93 X -53 Y 93 X -62 Y 93 X -63 Y 93 X -65 Y 93 X -52 Y 93 X -57 Y 93 X -93 Y 93 X -18 Y 93 X -14 Y 837 X s 0.6 1 0.6 c black 0.6 1 0.6 c 319 584 m 592 Y
 93 X -56 Y 93 X -59 Y 93 X -53 Y 93 X -62 Y 93 X -63 Y 93 X -65 Y 93 X -52 Y 93 X -57 Y 93 X -93 Y 93 X -18 Y 93 X -14 Y 837 X f black 0.6 1 0.6 c black 319 1176 m 93 X -56 Y 93 X -59 Y 93 X -53 Y 93 X -62 Y 93 X -63 Y 93 X -65 Y 93 X -52 Y 93 X -57
 Y 93 X -93 Y 93 X -18 Y 93 X -14 Y 837 X s 0.999 0.999 0.999 c black 0.999 0.999 0.999 c 319 584 m 508 Y 93 X -39 Y 93 X -55 Y 93 X -43 Y 93 X -59 Y 93 X -64 Y 93 X -58 Y 93 X -38 Y 93 X -45 Y 93 X -90 Y 93 X -16 Y 93 X -1 Y 837 X f black 0.999
 0.999 0.999 c black 319 1092 m 93 X -39 Y 93 X -55 Y 93 X -43 Y 93 X -59 Y 93 X -64 Y 93 X -58 Y 93 X -38 Y 93 X -45 Y 93 X -90 Y 93 X -16 Y 93 X -1 Y 837 X s 1 1 1 c black 319 1092 m 93 X -39 Y 93 X -55 Y 93 X -43 Y 93 X -59 Y 93 X -64 Y 93 X -58 Y
 93 X -38 Y 93 X -45 Y 93 X -90 Y 93 X -16 Y 93 X -1 Y 837 X s 1 0.8 0.4 c black 1 0.8 0.4 c 319 584 m 508 Y 93 X -39 Y 93 X -55 Y 93 X -43 Y 93 X -59 Y 93 X -64 Y 93 X -58 Y 93 X -38 Y 93 X -45 Y 93 X -90 Y 93 X -16 Y 93 X -1 Y 837 X f black 1 0.8
 0.4 c black 319 1092 m 93 X -39 Y 93 X -55 Y 93 X -43 Y 93 X -59 Y 93 X -64 Y 93 X -58 Y 93 X -38 Y 93 X -45 Y 93 X -90 Y 93 X -16 Y 93 X -1 Y 837 X s 0.999 0.999 0.999 c black 0.999 0.999 0.999 c 319 584 m 400 Y 93 X -36 Y 93 X -65 Y 93 X -30 Y 93
 X -63 Y 93 X -42 Y 93 X -83 Y 93 X -35 Y 93 X -46 Y 1116 X f black 0.999 0.999 0.999 c black 319 984 m 93 X -36 Y 93 X -65 Y 93 X -30 Y 93 X -63 Y 93 X -42 Y 93 X -83 Y 93 X -35 Y 93 X -46 Y 1116 X s 1 1 1 c black 319 984 m 93 X -36 Y 93 X -65 Y 93
 X -30 Y 93 X -63 Y 93 X -42 Y 93 X -83 Y 93 X -35 Y 93 X -46 Y 1116 X s 1 0.4 0.6 c black 1 0.4 0.6 c 319 584 m 400 Y 93 X -36 Y 93 X -65 Y 93 X -30 Y 93 X -63 Y 93 X -42 Y 93 X -83 Y 93 X -35 Y 93 X -46 Y 1116 X f black 1 0.4 0.6 c black 319 984 m
 93 X -36 Y 93 X -65 Y 93 X -30 Y 93 X -63 Y 93 X -42 Y 93 X -83 Y 93 X -35 Y 93 X -46 Y 1116 X s 0.999 0.999 0.999 c black 0.999 0.999 0.999 c 319 584 m 325 Y 93 X -34 Y 93 X -68 Y 93 X -26 Y 93 X -40 Y 93 X -81 Y 93 X -59 Y 93 X -17 Y 1209 X f
 black 0.999 0.999 0.999 c black 319 909 m 93 X -34 Y 93 X -68 Y 93 X -26 Y 93 X -40 Y 93 X -81 Y 93 X -59 Y 93 X -17 Y 1209 X s 1 1 1 c black 319 909 m 93 X -34 Y 93 X -68 Y 93 X -26 Y 93 X -40 Y 93 X -81 Y 93 X -59 Y 93 X -17 Y 1209 X s 0 0 0.4 c
 black 0 0 0.4 c 319 584 m 325 Y 93 X -34 Y 93 X -68 Y 93 X -26 Y 93 X -40 Y 93 X -81 Y 93 X -59 Y 93 X -17 Y 1209 X f black 0 0 0.4 c black 319 909 m 93 X -34 Y 93 X -68 Y 93 X -26 Y 93 X -40 Y 93 X -81 Y 93 X -59 Y 93 X -17 Y 1209 X s 1 0 0 c 6 lw
 1 1 1 c black 1 0 0 c 319 1194 m 93 X -56 Y 93 X -58 Y 93 X -55 Y 93 X -62 Y 93 X -62 Y 93 X -63 Y 93 X -59 Y 93 X -52 Y 93 X -86 Y 93 X -25 Y 93 X -32 Y 837 X s black 3 lw 1 0 0 c 1 lw << /PatternType 1 /PaintType 2 /TilingType 1 /BBox [ 0 0 100
 100 ] /XStep 100 /YStep 100 /PaintProc { begin gsave 0 100 m 100 0 l s gr end } >> [ 0.24 0 0 0.24 0 0 ] makepattern /P05 exch def /cs {[/Pattern /DeviceRGB] setcolorspace} def /FA {f [/DeviceRGB] setcolorspace} def cs 1 0 0 P05 setcolor 319 584 m
 613 Y 93 X -56 Y 93 X -57 Y 93 X -53 Y 93 X -61 Y 93 X -59 Y 93 X -61 Y 93 X -55 Y 93 X -36 Y 93 X -93 Y 93 X -27 Y 93 X -55 Y 186 X 25 Y 93 X -25 Y -372 X 19 Y -93 X 61 Y -93 X 96 Y -93 X 63 Y -93 X 67 Y -93 X 64 Y -93 X 65 Y -93 X 57 Y -93 X 58 Y
 -93 X 57 Y -93 X -607 Y FA 6 lw 1 1 1 c 15 lw 738 894 m s 738 894 m cl s 831 851 m 8 Y s 831 859 m cl s 831 810 m -23 Y s 831 787 m cl s 924 832 m 12 Y s 924 844 m cl s 924 791 m -32 Y s 924 759 m cl s black 1 1 1 c 3 lw /w 43 def /w2 {w 2 div} def
 /w3 {w 3 div} def 366 1185 459 1131 552 1070 645 997 738 914 831 831 924 812 7 { m20} R 15 lw black 6 lw 1 1 1 c black 3 lw /w 33 def /w2 {w 2 div} def /w3 {w 3 div} def 366 1185 m20 6 lw 3 lw 459 1131 m20 6 lw 3 lw 552 1070 m20 6 lw 3 lw 645 997
 m20 6 lw 738 894 m 7 Y s 738 928 m 2 Y s 3 lw 738 914 m20 6 lw 831 784 m 33 Y s 831 844 m 14 Y s 3 lw 831 831 m20 6 lw 924 754 m 44 Y s 924 825 m 17 Y s 3 lw 924 812 m20 6 lw 738 928 m 2 Y s 738 930 m cl s 738 901 m -7 Y s 738 894 m cl s 831 844 m
 15 Y s 831 859 m cl s 831 817 m -30 Y s 831 787 m cl s 924 825 m 19 Y s 924 844 m cl s 924 798 m -39 Y s 924 759 m cl s 3 lw 366 1185 459 1131 552 1070 645 997 738 914 831 831 924 812 7 { m20} R 6 lw 3 lw 319 584 m 1860 X s 435 584 m cl s 482 584 m
 cl s 528 584 m cl s 575 584 m cl s 621 584 m cl s 668 584 m cl s 714 584 m cl s 761 584 m cl s 807 584 m cl s 854 584 m cl s 900 584 m cl s 947 584 m cl s 993 584 m cl s 1040 584 m cl s 1087 584 m cl s 1133 584 m cl s 1180 584 m cl s 1226 584 m cl s
 1273 584 m cl s 1319 584 m cl s 1366 584 m cl s 1412 584 m cl s 1459 584 m cl s 1505 584 m cl s 1552 584 m cl s 1598 584 m cl s 1645 584 m cl s 1691 584 m cl s 1738 584 m cl s 1784 584 m cl s 1831 584 m cl s 1877 584 m cl s 1924 584 m cl s 1970 584
 m cl s 2017 584 m cl s 2063 584 m cl s 435 584 m cl s 389 584 m cl s 342 584 m cl s 2063 584 m cl s 2110 584 m cl s 2156 584 m cl s 319 1729 m 1860 X s 435 1729 m cl s 482 1729 m cl s 528 1729 m cl s 575 1729 m cl s 621 1729 m cl s 668 1729 m cl s
 714 1729 m cl s 761 1729 m cl s 807 1729 m cl s 854 1729 m cl s 900 1729 m cl s 947 1729 m cl s 993 1729 m cl s 1040 1729 m cl s 1087 1729 m cl s 1133 1729 m cl s 1180 1729 m cl s 1226 1729 m cl s 1273 1729 m cl s 1319 1729 m cl s 1366 1729 m cl s
 1412 1729 m cl s 1459 1729 m cl s 1505 1729 m cl s 1552 1729 m cl s 1598 1729 m cl s 1645 1729 m cl s 1691 1729 m cl s 1738 1729 m cl s 1784 1729 m cl s 1831 1729 m cl s 1877 1729 m cl s 1924 1729 m cl s 1970 1729 m cl s 2017 1729 m cl s 2063 1729 m
 cl s 435 1729 m cl s 389 1729 m cl s 342 1729 m cl s 2063 1729 m cl s 2110 1729 m cl s 2156 1729 m cl s 319 584 m 1145 Y s 341 631 m -22 X s 341 658 m -22 X s 341 677 m -22 X s 341 692 m -22 X s 341 704 m -22 X s 341 714 m -22 X s 341 723 m -22 X s
 341 731 m -22 X s 363 738 m -44 X s 341 784 m -22 X s 341 812 m -22 X s 341 831 m -22 X s 341 846 m -22 X s 341 858 m -22 X s 341 868 m -22 X s 341 877 m -22 X s 341 885 m -22 X s 363 892 m -44 X s 341 938 m -22 X s 341 965 m -22 X s 341 985 m -22 X
 s 341 999 m -22 X s 341 1012 m -22 X s 341 1022 m -22 X s 341 1031 m -22 X s 341 1039 m -22 X s 363 1046 m -44 X s 341 1092 m -22 X s 341 1119 m -22 X s 341 1138 m -22 X s 341 1153 m -22 X s 341 1165 m -22 X s 341 1176 m -22 X s 341 1185 m -22 X s
 341 1193 m -22 X s 363 1200 m -44 X s 341 1246 m -22 X s 341 1273 m -22 X s 341 1292 m -22 X s 341 1307 m -22 X s 341 1319 m -22 X s 341 1330 m -22 X s 341 1338 m -22 X s 341 1346 m -22 X s 363 1353 m -44 X s 341 1400 m -22 X s 341 1427 m -22 X s
 341 1446 m -22 X s 341 1461 m -22 X s 341 1473 m -22 X s 341 1483 m -22 X s 341 1492 m -22 X s 341 1500 m -22 X s 363 1507 m -44 X s 341 1554 m -22 X s 341 1581 m -22 X s 341 1600 m -22 X s 341 1615 m -22 X s 341 1627 m -22 X s 341 1637 m -22 X s
 341 1646 m -22 X s 341 1654 m -22 X s 363 1661 m -44 X s 341 1707 m -22 X s 2179 584 m 1145 Y s 2157 631 m 22 X s 2157 658 m 22 X s 2157 677 m 22 X s 2157 692 m 22 X s 2157 704 m 22 X s 2157 714 m 22 X s 2157 723 m 22 X s 2157 731 m 22 X s 2136 738
 m 43 X s 2157 784 m 22 X s 2157 812 m 22 X s 2157 831 m 22 X s 2157 846 m 22 X s 2157 858 m 22 X s 2157 868 m 22 X s 2157 877 m 22 X s 2157 885 m 22 X s 2136 892 m 43 X s 2157 938 m 22 X s 2157 965 m 22 X s 2157 985 m 22 X s 2157 999 m 22 X s 2157
 1012 m 22 X s 2157 1022 m 22 X s 2157 1031 m 22 X s 2157 1039 m 22 X s 2136 1046 m 43 X s 2157 1092 m 22 X s 2157 1119 m 22 X s 2157 1138 m 22 X s 2157 1153 m 22 X s 2157 1165 m 22 X s 2157 1176 m 22 X s 2157 1185 m 22 X s 2157 1193 m 22 X s 2136
 1200 m 43 X s 2157 1246 m 22 X s 2157 1273 m 22 X s 2157 1292 m 22 X s 2157 1307 m 22 X s 2157 1319 m 22 X s 2157 1330 m 22 X s 2157 1338 m 22 X s 2157 1346 m 22 X s 2136 1353 m 43 X s 2157 1400 m 22 X s 2157 1427 m 22 X s 2157 1446 m 22 X s 2157
 1461 m 22 X s 2157 1473 m 22 X s 2157 1483 m 22 X s 2157 1492 m 22 X s 2157 1500 m 22 X s 2136 1507 m 43 X s 2157 1554 m 22 X s 2157 1581 m 22 X s 2157 1600 m 22 X s 2157 1615 m 22 X s 2157 1627 m 22 X s 2157 1637 m 22 X s 2157 1646 m 22 X s 2157
 1654 m 22 X s 2136 1661 m 43 X s 2157 1707 m 22 X s
 gsave  2263 1770 2 313 C 406.765 1447.41 t 0 r /Helvetica findfont 64.4212 sf 0 0 m (VR0LmetSig for MB\255GGd) show NC gr 
 gsave  2263 1770 2 313 C 1464.36 1630.45 t 0 r /Helvetica findfont 64.4212 sf 0 0 m (SM Total) show NC gr  1 1 1 c 1338 1616 m 107 X 64 Y -107 X f 1 0 0 c 6 lw 1338 1648 m 107 X s black
 gsave  2263 1770 2 313 C 1464.36 1538.93 t 0 r /Helvetica findfont 64.4212 sf 0 0 m (Data) show NC gr  1391 1529 m 55 Y s 3 lw 1391 1557 m20 6 lw
 gsave  2263 1770 2 313 C 1464.36 1447.41 t 0 r /Helvetica findfont 64.4212 sf 0 0 m (W+jets) show NC gr  0.4 0.6 1 c 3 lw 1338 1434 m 107 X 64 Y -107 X f 6 lw black 3 lw 1338 1498 m 107 X s 1338 1434 m 107 X s 1445 1434 m 64 Y s 1338 1434 m 64 Y s
 gsave  2263 1770 2 313 C 1498.25 1355.88 t 0 r /Helvetica findfont 64.4212 sf 0 0 m (\(+EW\) & single top) show NC gr 
 gsave  2263 1770 2 313 C 1481.3 1355.88 t 0 r /Helvetica findfont 64.4212 sf 0 0 m (t) show NC gr  1481 1407 m 17 X s
 gsave  2263 1770 2 313 C 1464.36 1355.88 t 0 r /Helvetica findfont 64.4212 sf 0 0 m (t) show NC gr  0.6 1 0.6 c 1338 1343 m 107 X 63 Y -107 X f black 1338 1406 m 107 X s 1338 1343 m 107 X s 1445 1343 m 63 Y s 1338 1343 m 63 Y s
 gsave  2263 1770 2 313 C 1464.36 1264.36 t 0 r /Helvetica findfont 64.4212 sf 0 0 m (Z+jets) show NC gr  1 0.8 0.4 c 1338 1252 m 107 X 63 Y -107 X f black 1338 1315 m 107 X s 1338 1252 m 107 X s 1445 1252 m 63 Y s 1338 1252 m 63 Y s
 gsave  2263 1770 2 313 C 1464.36 1172.84 t 0 r /Helvetica findfont 64.4212 sf 0 0 m (Diboson) show NC gr  1 0.4 0.6 c 1338 1161 m 107 X 63 Y -107 X f black 1338 1224 m 107 X s 1338 1161 m 107 X s 1445 1161 m 63 Y s 1338 1161 m 63 Y s
 gsave  2263 1770 2 313 C 1464.36 1081.32 t 0 r /Helvetica findfont 64.4212 sf 0 0 m (Multi\255jet) show NC gr  0 0 0.4 c 1338 1070 m 107 X 63 Y -107 X f black 1338 1133 m 107 X s 1338 1070 m 107 X s 1445 1070 m 63 Y s 1338 1070 m 63 Y s
 gsave  2263 1770 2 313 C 911.832 1566.05 t 0 r /Helvetica findfont 44.0776 sf 0 0 m (\2551) show NC gr 
 gsave  2263 1770 2 313 C 471.17 1535.54 t 0 r /Helvetica findfont 64.4212 sf 0 0 m (=13TeV, 139 fb) show NC gr 
 gsave  2263 1770 2 313 C 440.662 1535.54 t 0 r /Helvetica findfont 64.4212 sf 0 0 m (s) show NC gr  6 lw 420 1573 m 7 -41 d s 3 lw 427 1532 m 7 61 d s 434 1593 m 37 X s 1 1 1 c 2254 561 2 2 bf black 1 1 1 c black 1860 358 318 187 bl 1 1 1 c black
 1860 358 318 187 bl 6 lw 1 1 1 c black 3 lw 364 346 m20 6 lw 3 lw 457 349 m20 6 lw 3 lw 550 342 m20 6 lw 3 lw 643 310 m20 6 lw 3 lw 736 283 m20 6 lw 3 lw 829 260 m20 6 lw 3 lw 923 313 m20 6 lw 3 lw 318 187 m 1860 X s
 gsave  2254 561 2 2 C 1959.25 44.0662 t 0 r /Helvetica findfont 78.1689 sf 0 0 m ( [GeV]) show NC gr 
 gsave  2254 561 2 2 C 1928.75 -2.35513e-13 t 0 r /Helvetica findfont 50.9797 sf 0 0 m (T) show NC gr 
 gsave  2254 561 2 2 C 1657.57 44.0662 t 0 r /Helvetica findfont 78.1689 sf 0 0 m (1st jet p) show NC gr  434 201 m -14 Y s 481 194 m -7 Y s 527 194 m -7 Y s 574 194 m -7 Y s 620 194 m -7 Y s 667 201 m -14 Y s 713 194 m -7 Y s 760 194 m -7 Y s 806
 194 m -7 Y s 853 194 m -7 Y s 899 201 m -14 Y s 946 194 m -7 Y s 992 194 m -7 Y s 1039 194 m -7 Y s 1085 194 m -7 Y s 1132 201 m -14 Y s 1178 194 m -7 Y s 1225 194 m -7 Y s 1271 194 m -7 Y s 1318 194 m -7 Y s 1364 201 m -14 Y s 1411 194 m -7 Y s
 1457 194 m -7 Y s 1504 194 m -7 Y s 1550 194 m -7 Y s 1597 201 m -14 Y s 1643 194 m -7 Y s 1690 194 m -7 Y s 1737 194 m -7 Y s 1783 194 m -7 Y s 1830 201 m -14 Y s 1876 194 m -7 Y s 1923 194 m -7 Y s 1969 194 m -7 Y s 2016 194 m -7 Y s 2062 201 m
 -14 Y s 434 201 m -14 Y s 388 194 m -7 Y s 341 194 m -7 Y s 2062 201 m -14 Y s 2109 194 m -7 Y s 2155 194 m -7 Y s
 gsave  2254 561 2 2 C 369.478 118.64 t 0 r /Helvetica findfont 78.1689 sf 0 0 m (500) show NC gr 
 gsave  2254 561 2 2 C 576.251 118.64 t 0 r /Helvetica findfont 78.1689 sf 0 0 m (1000) show NC gr 
 gsave  2254 561 2 2 C 810.141 118.64 t 0 r /Helvetica findfont 78.1689 sf 0 0 m (1500) show NC gr 
 gsave  2254 561 2 2 C 1040.64 118.64 t 0 r /Helvetica findfont 78.1689 sf 0 0 m (2000) show NC gr 
 gsave  2254 561 2 2 C 1274.53 118.64 t 0 r /Helvetica findfont 78.1689 sf 0 0 m (2500) show NC gr 
 gsave  2254 561 2 2 C 1508.42 118.64 t 0 r /Helvetica findfont 78.1689 sf 0 0 m (3000) show NC gr 
 gsave  2254 561 2 2 C 1738.92 118.64 t 0 r /Helvetica findfont 78.1689 sf 0 0 m (3500) show NC gr 
 gsave  2254 561 2 2 C 1972.81 118.64 t 0 r /Helvetica findfont 78.1689 sf 0 0 m (4000) show NC gr  318 545 m 1860 X s 434 531 m 14 Y s 481 538 m 7 Y s 527 538 m 7 Y s 574 538 m 7 Y s 620 538 m 7 Y s 667 531 m 14 Y s 713 538 m 7 Y s 760 538 m 7 Y s
 806 538 m 7 Y s 853 538 m 7 Y s 899 531 m 14 Y s 946 538 m 7 Y s 992 538 m 7 Y s 1039 538 m 7 Y s 1085 538 m 7 Y s 1132 531 m 14 Y s 1178 538 m 7 Y s 1225 538 m 7 Y s 1271 538 m 7 Y s 1318 538 m 7 Y s 1364 531 m 14 Y s 1411 538 m 7 Y s 1457 538 m 7
 Y s 1504 538 m 7 Y s 1550 538 m 7 Y s 1597 531 m 14 Y s 1643 538 m 7 Y s 1690 538 m 7 Y s 1737 538 m 7 Y s 1783 538 m 7 Y s 1830 531 m 14 Y s 1876 538 m 7 Y s 1923 538 m 7 Y s 1969 538 m 7 Y s 2016 538 m 7 Y s 2062 531 m 14 Y s 434 531 m 14 Y s 388
 538 m 7 Y s 341 538 m 7 Y s 2062 531 m 14 Y s 2109 538 m 7 Y s 2155 538 m 7 Y s 318 187 m 358 Y s
 gsave  2254 561 2 2 C 166.096 284.736 t 90 r /Helvetica findfont 67.9729 sf 0 0 m (Data/SM) show NC gr  361 203 m -43 X s 339 220 m -21 X s 339 236 m -21 X s 339 252 m -21 X s 339 268 m -21 X s 361 285 m -43 X s 339 301 m -21 X s 339 317 m -21 X s
 339 334 m -21 X s 339 350 m -21 X s 361 366 m -43 X s 339 382 m -21 X s 339 399 m -21 X s 339 415 m -21 X s 339 431 m -21 X s 361 447 m -43 X s 339 464 m -21 X s 339 480 m -21 X s 339 496 m -21 X s 339 512 m -21 X s 361 529 m -43 X s 361 203 m -43 X
 s 339 187 m -21 X s 361 529 m -43 X s
 gsave  2254 561 2 2 C 261.008 183.044 t 0 r /Helvetica findfont 57.777 sf 0 0 m (0) show NC gr 
 gsave  2254 561 2 2 C 213.552 261.008 t 0 r /Helvetica findfont 57.777 sf 0 0 m (0.5) show NC gr 
 gsave  2254 561 2 2 C 271.177 342.361 t 0 r /Helvetica findfont 57.777 sf 0 0 m (1) show NC gr 
 gsave  2254 561 2 2 C 213.552 423.714 t 0 r /Helvetica findfont 57.777 sf 0 0 m (1.5) show NC gr 
 gsave  2254 561 2 2 C 261.008 505.067 t 0 r /Helvetica findfont 57.777 sf 0 0 m (2) show NC gr  2178 187 m 358 Y s 2135 203 m 43 X s 2157 220 m 21 X s 2157 236 m 21 X s 2157 252 m 21 X s 2157 268 m 21 X s 2135 285 m 43 X s 2157 301 m 21 X s 2157 317
 m 21 X s 2157 334 m 21 X s 2157 350 m 21 X s 2135 366 m 43 X s 2157 382 m 21 X s 2157 399 m 21 X s 2157 415 m 21 X s 2157 431 m 21 X s 2135 447 m 43 X s 2157 464 m 21 X s 2157 480 m 21 X s 2157 496 m 21 X s 2157 512 m 21 X s 2135 529 m 43 X s 2135
 203 m 43 X s 2157 187 m 21 X s 2135 529 m 43 X s 9 lw 643 323 m 2 Y s 643 325 m cl s 643 296 m -2 Y s 643 294 m cl s 736 296 m 8 Y s 736 304 m cl s 736 269 m -7 Y s 736 262 m cl s 829 273 m 17 Y s 829 290 m cl s 829 246 m -13 Y s 829 233 m cl s 923
 326 m 56 Y s 923 382 m cl s 923 299 m -46 Y s 923 253 m cl s 3 lw 364 346 457 349 550 342 643 310 736 283 829 260 923 313 7 { m20} R 9 lw 1 0 0 c 6 lw black 3 lw 1 0 0 c 2155 203 m cl s 2127 203 m cl s 2098 203 m cl s 2069 203 m cl s 2040 203 m cl s
 2012 203 m cl s 1983 203 m cl s 1954 203 m cl s 1926 203 m cl s 1897 203 m cl s 1868 203 m cl s 1840 203 m cl s 1811 203 m cl s 1782 203 m cl s 1754 203 m cl s 1725 203 m cl s 1713 220 m -17 -17 d s 1713 249 m -46 -46 d s 1713 278 m -74 -75 d s 1713
 306 m -119 -119 d s 1713 335 m -148 -148 d s 1713 363 m -177 -176 d s 1713 392 m -186 -185 d s 1713 421 m -186 -186 d s 1713 449 m -186 -185 d s 1713 478 m -196 -195 d s 1713 506 m -224 -223 d s 1434 228 m -15 -15 d s 1707 529 m -247 -246 d s 1434
 257 m -44 -44 d s 1678 529 m -316 -316 d s 1650 529 m -309 -308 d s 1621 529 m -280 -279 d s 1608 545 m -81 -81 d s 1513 449 m -172 -171 d s 1580 545 m -53 -52 d s 1484 449 m -154 -153 d s 1551 545 m -24 -24 d s 1455 449 m -153 -153 d s 1434 457 m
 -161 -161 d s 1434 486 m -191 -191 d s 1434 514 m -220 -219 d s 1410 519 m -69 -69 d s 1327 436 m -141 -141 d s 1382 519 m -41 -40 d s 1298 436 m -141 -141 d s 1155 293 m -27 -26 d s 1353 519 m -12 -12 d s 1269 436 m -169 -169 d s 1242 437 m -171
 -170 d s 1213 437 m -151 -151 d s 1185 437 m -123 -122 d s 1156 437 m -113 -112 d s 1155 465 m -141 -140 d s 1127 466 m -141 -141 d s 1098 466 m -36 -37 d s 1040 407 m -74 -73 d s 1070 466 m -8 -8 d s 1011 407 m -73 -73 d s 983 407 m -74 -73 d s 945
 398 m -65 -64 d s 916 398 m -57 -57 d s 887 398 m -57 -57 d s 851 391 m -49 -50 d s 823 391 m -45 -44 d s 794 391 m -44 -44 d s 760 385 m -39 -38 d s 731 385 m -39 -38 d s 702 385 m -33 -32 d s 668 380 m -27 -27 d s 639 380 m -27 -27 d s 611 380 m
 -25 -24 d s 579 377 m -21 -21 d s 550 377 m -21 -21 d s 521 377 m -18 -19 d s 491 374 m -17 -16 d s 462 374 m -17 -16 d s 318 231 m s 433 374 m -17 -16 d s 318 259 m s 403 373 m -14 -14 d s 318 288 m s 375 373 m -15 -14 d s 318 317 m s 346 373 m -14
 -14 d s 318 345 m s 6 lw black[ 4 8] 0 sd 3 lw 318 447 m 1860 X s 318 285 m 1860 X s 1 0 0 c[  12 12 ] 0 sd 6 lw 318 366 m 1860 X s
 gr  gr showpage
end
%%EOF
