%!PS-Adobe-2.0 EPSF-2.0
%%BoundingBox:  0 0 567 521
%%Title: Distributions/jetPt_0__distrCRY_MB-GGo_afterFit_forThesis.eps: canvas
%%Creator: ROOT Version 6.04/16
%%CreationDate: Tue May 19 22:03:10 2020
%%DocumentNeededResources: ProcSet (FontSetInit)
%%EndComments
%%BeginProlog
80 dict begin
/s {stroke} def /l {lineto} def /m {moveto} def /t {translate} def
/r {rotate} def /rl {roll}  def /R {repeat} def
/d {rlineto} def /rm {rmoveto} def /gr {grestore} def /f {eofill} def
/c {setrgbcolor} def /black {0 setgray} def /sd {setdash} def
/cl {closepath} def /sf {scalefont setfont} def /lw {setlinewidth} def
/box {m dup 0 exch d exch 0 d 0 exch neg d cl} def
/NC{systemdict begin initclip end}def/C{NC box clip newpath}def
/bl {box s} def /bf {gsave box gsave f grestore 1 lw [] 0 sd s grestore} def /Y { 0 exch d} def /X { 0 d} def 
/K {{pop pop 0 moveto} exch kshow} bind def
/ita {/ang 15 def gsave [1 0 ang dup sin exch cos div 1 0 0] concat} def 
/mp {newpath /y exch def /x exch def} def
/side {[w .77 mul w .23 mul] .385 w mul sd w 0 l currentpoint t -144 r} def
/mr {mp x y w2 0 360 arc} def /m24 {mr s} def /m20 {mr f} def
/mb {mp x y w2 add m w2 neg 0 d 0 w neg d w 0 d 0 w d cl} def
/mt {mp x y w2 add m w2 neg w neg d w 0 d cl} def
/m21 {mb f} def /m25 {mb s} def /m22 {mt f} def /m26{mt s} def
/m23 {mp x y w2 sub m w2 w d w neg 0 d cl f} def
/m27 {mp x y w2 add m w3 neg w2 neg d w3 w2 neg d w3 w2 d cl s} def
/m28 {mp x w2 sub y w2 sub w3 add m w3 0 d  0 w3 neg d w3 0 d 0 w3 d w3 0 d  0 w3 d w3 neg 0 d 0 w3 d w3 neg 0 d 0 w3 neg d w3 neg 0 d cl s } def
/m29 {mp gsave x w2 sub y w2 add w3 sub m currentpoint t 4 {side} repeat cl fill gr} def
/m30 {mp gsave x w2 sub y w2 add w3 sub m currentpoint t 4 {side} repeat cl s gr} def
/m31 {mp x y w2 sub m 0 w d x w2 sub y m w 0 d x w2 sub y w2 add m w w neg d x w2 sub y w2 sub m w w d s} def
/m32 {mp x y w2 sub m w2 w d w neg 0 d cl s} def
/m33 {mp x y w2 add m w3 neg w2 neg d w3 w2 neg d w3 w2 d cl f} def
/m34 {mp x w2 sub y w2 sub w3 add m w3 0 d  0 w3 neg d w3 0 d 0 w3 d w3 0 d  0 w3 d w3 neg 0 d 0 w3 d w3 neg 0 d 0 w3 neg d w3 neg 0 d cl f } def
/m2 {mp x y w2 sub m 0 w d x w2 sub y m w 0 d s} def
/m5 {mp x w2 sub y w2 sub m w w d x w2 sub y w2 add m w w neg d s} def
%%IncludeResource: ProcSet (FontSetInit)
%%IncludeResource: font Times-Roman
%%IncludeResource: font Times-Italic
%%IncludeResource: font Times-Bold
%%IncludeResource: font Times-BoldItalic
%%IncludeResource: font Helvetica
%%IncludeResource: font Helvetica-Oblique
%%IncludeResource: font Helvetica-Bold
%%IncludeResource: font Helvetica-BoldOblique
%%IncludeResource: font Courier
%%IncludeResource: font Courier-Oblique
%%IncludeResource: font Courier-Bold
%%IncludeResource: font Courier-BoldOblique
%%IncludeResource: font Symbol
%%IncludeResource: font ZapfDingbats
/reEncode {exch findfont dup length dict begin {1 index /FID eq  {pop pop} {def} ifelse } forall /Encoding exch def currentdict end dup /FontName get exch definefont pop } def [/Times-Bold /Times-Italic /Times-BoldItalic /Helvetica /Helvetica-Oblique
 /Helvetica-Bold /Helvetica-BoldOblique /Courier /Courier-Oblique /Courier-Bold /Courier-BoldOblique /Times-Roman /AvantGarde-Book /AvantGarde-BookOblique /AvantGarde-Demi /AvantGarde-DemiOblique /Bookman-Demi /Bookman-DemiItalic /Bookman-Light
 /Bookman-LightItalic /Helvetica-Narrow /Helvetica-Narrow-Bold /Helvetica-Narrow-BoldOblique /Helvetica-Narrow-Oblique /NewCenturySchlbk-Roman /NewCenturySchlbk-Bold /NewCenturySchlbk-BoldItalic /NewCenturySchlbk-Italic /Palatino-Bold
 /Palatino-BoldItalic /Palatino-Italic /Palatino-Roman ] {ISOLatin1Encoding reEncode } forall
%%EndProlog
%%BeginSetup
%%EndSetup
newpath  gsave  .25 .25 scale  gsave  0 0 t black[  ] 0 sd 3 lw 1 1 1 c 2268 2085 0 0 bf black 1 1 1 c 2263 1770 2 313 bf black 1 1 1 c black 1860 1145 319 584 bl 1 1 1 c black 1860 1145 319 584 bl 6 lw 1 1 1 c black 3 lw /w 33 def /w2 {w 2 div} def
 /w3 {w 3 div} def 366 1142 m20 6 lw 3 lw 459 1051 m20 6 lw 552 962 m 4 Y s 552 993 m s 3 lw 552 979 m20 6 lw 645 902 m 13 Y s 645 942 m 6 Y s 3 lw 645 929 m20 6 lw 738 804 m 37 Y s 738 868 m 16 Y s 3 lw 738 854 m20 6 lw 831 584 m 155 Y s 831 766 m
 38 Y s 3 lw 831 753 m20 6 lw 1017 584 m 155 Y s 1017 766 m 38 Y s 3 lw 1017 753 m20 6 lw 3 lw 319 584 m 1860 X s
 gsave  2263 1770 2 313 C 1949.08 376.258 t 0 r /Helvetica findfont 81.3741 sf 0 0 m ( [GeV]) show NC gr 
 gsave  2263 1770 2 313 C 1915.19 332.192 t 0 r /Helvetica findfont 54.2494 sf 0 0 m (T) show NC gr 
 gsave  2263 1770 2 313 C 1630.45 376.258 t 0 r /Helvetica findfont 81.3741 sf 0 0 m (1st jet p) show NC gr  435 584 m cl s 482 584 m cl s 528 584 m cl s 575 584 m cl s 621 584 m cl s 668 584 m cl s 714 584 m cl s 761 584 m cl s 807 584 m cl s 854
 584 m cl s 900 584 m cl s 947 584 m cl s 993 584 m cl s 1040 584 m cl s 1087 584 m cl s 1133 584 m cl s 1180 584 m cl s 1226 584 m cl s 1273 584 m cl s 1319 584 m cl s 1366 584 m cl s 1412 584 m cl s 1459 584 m cl s 1505 584 m cl s 1552 584 m cl s
 1598 584 m cl s 1645 584 m cl s 1691 584 m cl s 1738 584 m cl s 1784 584 m cl s 1831 584 m cl s 1877 584 m cl s 1924 584 m cl s 1970 584 m cl s 2017 584 m cl s 2063 584 m cl s 435 584 m cl s 389 584 m cl s 342 584 m cl s 2063 584 m cl s 2110 584 m
 cl s 2156 584 m cl s 319 1729 m 1860 X s 435 1729 m cl s 482 1729 m cl s 528 1729 m cl s 575 1729 m cl s 621 1729 m cl s 668 1729 m cl s 714 1729 m cl s 761 1729 m cl s 807 1729 m cl s 854 1729 m cl s 900 1729 m cl s 947 1729 m cl s 993 1729 m cl s
 1040 1729 m cl s 1087 1729 m cl s 1133 1729 m cl s 1180 1729 m cl s 1226 1729 m cl s 1273 1729 m cl s 1319 1729 m cl s 1366 1729 m cl s 1412 1729 m cl s 1459 1729 m cl s 1505 1729 m cl s 1552 1729 m cl s 1598 1729 m cl s 1645 1729 m cl s 1691 1729 m
 cl s 1738 1729 m cl s 1784 1729 m cl s 1831 1729 m cl s 1877 1729 m cl s 1924 1729 m cl s 1970 1729 m cl s 2017 1729 m cl s 2063 1729 m cl s 435 1729 m cl s 389 1729 m cl s 342 1729 m cl s 2063 1729 m cl s 2110 1729 m cl s 2156 1729 m cl s 319 584 m
 1145 Y s
 gsave  2263 1770 2 313 C 166.096 1091.49 t 90 r /Helvetica findfont 81.3741 sf 0 0 m (Events / 200 GeV) show NC gr  341 635 m -22 X s 341 665 m -22 X s 341 686 m -22 X s 341 702 m -22 X s 341 716 m -22 X s 341 727 m -22 X s 341 737 m -22 X s 341 745
 m -22 X s 363 753 m -44 X s
 gsave  2263 1770 2 313 C 300.555 725.8 t 0 r  -36 0 t /Helvetica findfont 64.4212 sf 0 0 m (1) show NC gr  341 804 m -22 X s 341 833 m -22 X s 341 854 m -22 X s 341 871 m -22 X s 341 884 m -22 X s 341 895 m -22 X s 341 905 m -22 X s 341 914 m -22 X
 s 363 922 m -44 X s
 gsave  2263 1770 2 313 C 300.555 894.408 t 0 r  -73 0 t /Helvetica findfont 64.4212 sf 0 0 m (10) show NC gr  341 972 m -22 X s 341 1002 m -22 X s 341 1023 m -22 X s 341 1039 m -22 X s 341 1053 m -22 X s 341 1064 m -22 X s 341 1074 m -22 X s 341
 1082 m -22 X s 363 1090 m -44 X s
 gsave  2263 1770 2 313 C 274.567 1088.1 t 0 r /Helvetica findfont 44.0776 sf 0 0 m (2) show NC gr 
 gsave  2263 1770 2 313 C 203.383 1060.98 t 0 r /Helvetica findfont 64.4212 sf 0 0 m (10) show NC gr  341 1141 m -22 X s 341 1171 m -22 X s 341 1192 m -22 X s 341 1208 m -22 X s 341 1221 m -22 X s 341 1233 m -22 X s 341 1242 m -22 X s 341 1251 m -22
 X s 363 1259 m -44 X s
 gsave  2263 1770 2 313 C 274.567 1260.97 t 0 r /Helvetica findfont 44.0776 sf 0 0 m (3) show NC gr 
 gsave  2263 1770 2 313 C 203.383 1230.47 t 0 r /Helvetica findfont 64.4212 sf 0 0 m (10) show NC gr  341 1309 m -22 X s 341 1339 m -22 X s 341 1360 m -22 X s 341 1377 m -22 X s 341 1390 m -22 X s 341 1401 m -22 X s 341 1411 m -22 X s 341 1420 m -22
 X s 363 1427 m -44 X s
 gsave  2263 1770 2 313 C 274.567 1427.07 t 0 r /Helvetica findfont 44.0776 sf 0 0 m (4) show NC gr 
 gsave  2263 1770 2 313 C 203.383 1399.95 t 0 r /Helvetica findfont 64.4212 sf 0 0 m (10) show NC gr  341 1478 m -22 X s 341 1508 m -22 X s 341 1529 m -22 X s 341 1545 m -22 X s 341 1559 m -22 X s 341 1570 m -22 X s 341 1580 m -22 X s 341 1588 m -22
 X s 363 1596 m -44 X s
 gsave  2263 1770 2 313 C 274.567 1596.55 t 0 r /Helvetica findfont 44.0776 sf 0 0 m (5) show NC gr 
 gsave  2263 1770 2 313 C 203.383 1566.05 t 0 r /Helvetica findfont 64.4212 sf 0 0 m (10) show NC gr  341 1647 m -22 X s 341 1676 m -22 X s 341 1697 m -22 X s 341 1714 m -22 X s 341 1727 m -22 X s 2179 584 m 1145 Y s 2157 635 m 22 X s 2157 665 m 22 X
 s 2157 686 m 22 X s 2157 702 m 22 X s 2157 716 m 22 X s 2157 727 m 22 X s 2157 737 m 22 X s 2157 745 m 22 X s 2136 753 m 43 X s 2157 804 m 22 X s 2157 833 m 22 X s 2157 854 m 22 X s 2157 871 m 22 X s 2157 884 m 22 X s 2157 895 m 22 X s 2157 905 m 22
 X s 2157 914 m 22 X s 2136 922 m 43 X s 2157 972 m 22 X s 2157 1002 m 22 X s 2157 1023 m 22 X s 2157 1039 m 22 X s 2157 1053 m 22 X s 2157 1064 m 22 X s 2157 1074 m 22 X s 2157 1082 m 22 X s 2136 1090 m 43 X s 2157 1141 m 22 X s 2157 1171 m 22 X s
 2157 1192 m 22 X s 2157 1208 m 22 X s 2157 1221 m 22 X s 2157 1233 m 22 X s 2157 1242 m 22 X s 2157 1251 m 22 X s 2136 1259 m 43 X s 2157 1309 m 22 X s 2157 1339 m 22 X s 2157 1360 m 22 X s 2157 1377 m 22 X s 2157 1390 m 22 X s 2157 1401 m 22 X s
 2157 1411 m 22 X s 2157 1420 m 22 X s 2136 1427 m 43 X s 2157 1478 m 22 X s 2157 1508 m 22 X s 2157 1529 m 22 X s 2157 1545 m 22 X s 2157 1559 m 22 X s 2157 1570 m 22 X s 2157 1580 m 22 X s 2157 1588 m 22 X s 2136 1596 m 43 X s 2157 1647 m 22 X s
 2157 1676 m 22 X s 2157 1697 m 22 X s 2157 1714 m 22 X s 2157 1727 m 22 X s 1 1 0 c black 1 1 0 c 319 584 m 557 Y 93 X -85 Y 93 X -78 Y 93 X -54 Y 93 X -96 Y 93 X -63 Y 93 X -126 Y 93 X -25 Y 93 X -30 Y 186 X 41 Y 93 X -41 Y 837 X f black 1 1 0 c
 black 319 1141 m 93 X -85 Y 93 X -78 Y 93 X -54 Y 93 X -96 Y 93 X -63 Y 93 X -126 Y 93 X -25 Y 93 X -30 Y 186 X 41 Y 93 X -41 Y 837 X s 0.999 0.999 0.999 c black 0.999 0.999 0.999 c 319 584 m 294 Y 93 X -149 Y 93 X -17 Y 93 X -128 Y 1581 X f black
 0.999 0.999 0.999 c black 319 878 m 93 X -149 Y 93 X -17 Y 93 X -128 Y 1581 X s 1 1 1 c black 319 878 m 93 X -149 Y 93 X -17 Y 93 X -128 Y 1581 X s 0.4 0.6 1 c black 0.4 0.6 1 c 319 584 m 294 Y 93 X -149 Y 93 X -17 Y 93 X -128 Y 1581 X f black 0.4
 0.6 1 c black 319 878 m 93 X -149 Y 93 X -17 Y 93 X -128 Y 1581 X s 0.999 0.999 0.999 c black 0.999 0.999 0.999 c 319 584 m 287 Y 93 X -173 Y 93 X -1 Y 93 X -113 Y 1581 X f black 0.999 0.999 0.999 c black 319 871 m 93 X -173 Y 93 X -1 Y 93 X -113 Y
 1581 X s 1 1 1 c black 319 871 m 93 X -173 Y 93 X -1 Y 93 X -113 Y 1581 X s 0.6 1 0.6 c black 0.6 1 0.6 c 319 584 m 287 Y 93 X -173 Y 93 X -1 Y 93 X -113 Y 1581 X f black 0.6 1 0.6 c black 319 871 m 93 X -173 Y 93 X -1 Y 93 X -113 Y 1581 X s 0.999
 0.999 0.999 c black 0.999 0.999 0.999 c 319 584 m 106 Y 93 X -106 Y 1767 X f black 0.999 0.999 0.999 c black 319 690 m 93 X -106 Y 1767 X s 1 1 1 c black 319 690 m 93 X -106 Y 1767 X s 1 0.4 0.6 c black 1 0.4 0.6 c 319 584 m 106 Y 93 X -106 Y 1767 X
 f black 1 0.4 0.6 c black 319 690 m 93 X -106 Y 1767 X s 1 0 0 c 6 lw 1 1 1 c black 1 0 0 c 319 1141 m 93 X -85 Y 93 X -78 Y 93 X -54 Y 93 X -96 Y 93 X -63 Y 93 X -126 Y 93 X -25 Y 93 X -30 Y 186 X 41 Y 93 X -41 Y 837 X s black 3 lw 1 0 0 c 1 lw <<
 /PatternType 1 /PaintType 2 /TilingType 1 /BBox [ 0 0 100 100 ] /XStep 100 /YStep 100 /PaintProc { begin gsave 0 100 m 100 0 l s gr end } >> [ 0.24 0 0 0.24 0 0 ] makepattern /P05 exch def /cs {[/Pattern /DeviceRGB] setcolorspace} def /FA {f
 [/DeviceRGB] setcolorspace} def cs 1 0 0 P05 setcolor 319 584 m 563 Y 93 X -84 Y 93 X -75 Y 93 X -47 Y 93 X -101 Y 93 X -60 Y 93 X -125 Y 93 X -15 Y 93 X -43 Y 93 X 15 Y 93 X 58 Y 93 X -57 Y 93 X -29 Y -465 X 35 Y -93 X 127 Y -93 X 68 Y -93 X 88 Y
 -93 X 65 Y -93 X 82 Y -93 X 85 Y -93 X -550 Y FA 6 lw 1 1 1 c 15 lw 645 908 m -5 Y s 645 903 m cl s 738 875 m 11 Y s 738 886 m cl s 738 834 m -27 Y s 738 807 m cl s 831 773 m 41 Y s 831 814 m cl s 831 733 m -108 Y s 831 625 m cl s 1017 773 m 41 Y s
 1017 814 m cl s 1017 733 m -108 Y s 1017 625 m cl s black 1 1 1 c 3 lw /w 43 def /w2 {w 2 div} def /w3 {w 3 div} def 366 1142 459 1051 552 979 645 929 738 854 831 753 6 { m20} R 15 lw 3 lw 1017 753 m20 15 lw black 6 lw 1 1 1 c black 3 lw /w 33 def
 /w2 {w 2 div} def /w3 {w 3 div} def 366 1142 m20 6 lw 3 lw 459 1051 m20 6 lw 552 962 m 4 Y s 552 993 m s 3 lw 552 979 m20 6 lw 645 902 m 13 Y s 645 942 m 6 Y s 3 lw 645 929 m20 6 lw 738 804 m 37 Y s 738 868 m 16 Y s 3 lw 738 854 m20 6 lw 831 584 m
 155 Y s 831 766 m 38 Y s 3 lw 831 753 m20 6 lw 1017 584 m 155 Y s 1017 766 m 38 Y s 3 lw 1017 753 m20 6 lw 552 993 m 1 Y s 552 994 m cl s 552 966 m -4 Y s 552 962 m cl s 645 942 m 6 Y s 645 948 m cl s 645 915 m -12 Y s 645 903 m cl s 738 868 m 18 Y
 s 738 886 m cl s 738 841 m -34 Y s 738 807 m cl s 831 766 m 48 Y s 831 814 m cl s 831 739 m -114 Y s 831 625 m cl s 1017 766 m 48 Y s 1017 814 m cl s 1017 739 m -114 Y s 1017 625 m cl s 3 lw 366 1142 459 1051 552 979 645 929 738 854 831 753 6 { m20}
 R 6 lw 3 lw 1017 753 m20 6 lw 3 lw 319 584 m 1860 X s 435 584 m cl s 482 584 m cl s 528 584 m cl s 575 584 m cl s 621 584 m cl s 668 584 m cl s 714 584 m cl s 761 584 m cl s 807 584 m cl s 854 584 m cl s 900 584 m cl s 947 584 m cl s 993 584 m cl s
 1040 584 m cl s 1087 584 m cl s 1133 584 m cl s 1180 584 m cl s 1226 584 m cl s 1273 584 m cl s 1319 584 m cl s 1366 584 m cl s 1412 584 m cl s 1459 584 m cl s 1505 584 m cl s 1552 584 m cl s 1598 584 m cl s 1645 584 m cl s 1691 584 m cl s 1738 584
 m cl s 1784 584 m cl s 1831 584 m cl s 1877 584 m cl s 1924 584 m cl s 1970 584 m cl s 2017 584 m cl s 2063 584 m cl s 435 584 m cl s 389 584 m cl s 342 584 m cl s 2063 584 m cl s 2110 584 m cl s 2156 584 m cl s 319 1729 m 1860 X s 435 1729 m cl s
 482 1729 m cl s 528 1729 m cl s 575 1729 m cl s 621 1729 m cl s 668 1729 m cl s 714 1729 m cl s 761 1729 m cl s 807 1729 m cl s 854 1729 m cl s 900 1729 m cl s 947 1729 m cl s 993 1729 m cl s 1040 1729 m cl s 1087 1729 m cl s 1133 1729 m cl s 1180
 1729 m cl s 1226 1729 m cl s 1273 1729 m cl s 1319 1729 m cl s 1366 1729 m cl s 1412 1729 m cl s 1459 1729 m cl s 1505 1729 m cl s 1552 1729 m cl s 1598 1729 m cl s 1645 1729 m cl s 1691 1729 m cl s 1738 1729 m cl s 1784 1729 m cl s 1831 1729 m cl s
 1877 1729 m cl s 1924 1729 m cl s 1970 1729 m cl s 2017 1729 m cl s 2063 1729 m cl s 435 1729 m cl s 389 1729 m cl s 342 1729 m cl s 2063 1729 m cl s 2110 1729 m cl s 2156 1729 m cl s 319 584 m 1145 Y s 341 635 m -22 X s 341 665 m -22 X s 341 686 m
 -22 X s 341 702 m -22 X s 341 716 m -22 X s 341 727 m -22 X s 341 737 m -22 X s 341 745 m -22 X s 363 753 m -44 X s 341 804 m -22 X s 341 833 m -22 X s 341 854 m -22 X s 341 871 m -22 X s 341 884 m -22 X s 341 895 m -22 X s 341 905 m -22 X s 341 914
 m -22 X s 363 922 m -44 X s 341 972 m -22 X s 341 1002 m -22 X s 341 1023 m -22 X s 341 1039 m -22 X s 341 1053 m -22 X s 341 1064 m -22 X s 341 1074 m -22 X s 341 1082 m -22 X s 363 1090 m -44 X s 341 1141 m -22 X s 341 1171 m -22 X s 341 1192 m
 -22 X s 341 1208 m -22 X s 341 1221 m -22 X s 341 1233 m -22 X s 341 1242 m -22 X s 341 1251 m -22 X s 363 1259 m -44 X s 341 1309 m -22 X s 341 1339 m -22 X s 341 1360 m -22 X s 341 1377 m -22 X s 341 1390 m -22 X s 341 1401 m -22 X s 341 1411 m
 -22 X s 341 1420 m -22 X s 363 1427 m -44 X s 341 1478 m -22 X s 341 1508 m -22 X s 341 1529 m -22 X s 341 1545 m -22 X s 341 1559 m -22 X s 341 1570 m -22 X s 341 1580 m -22 X s 341 1588 m -22 X s 363 1596 m -44 X s 341 1647 m -22 X s 341 1676 m
 -22 X s 341 1697 m -22 X s 341 1714 m -22 X s 341 1727 m -22 X s 2179 584 m 1145 Y s 2157 635 m 22 X s 2157 665 m 22 X s 2157 686 m 22 X s 2157 702 m 22 X s 2157 716 m 22 X s 2157 727 m 22 X s 2157 737 m 22 X s 2157 745 m 22 X s 2136 753 m 43 X s
 2157 804 m 22 X s 2157 833 m 22 X s 2157 854 m 22 X s 2157 871 m 22 X s 2157 884 m 22 X s 2157 895 m 22 X s 2157 905 m 22 X s 2157 914 m 22 X s 2136 922 m 43 X s 2157 972 m 22 X s 2157 1002 m 22 X s 2157 1023 m 22 X s 2157 1039 m 22 X s 2157 1053 m
 22 X s 2157 1064 m 22 X s 2157 1074 m 22 X s 2157 1082 m 22 X s 2136 1090 m 43 X s 2157 1141 m 22 X s 2157 1171 m 22 X s 2157 1192 m 22 X s 2157 1208 m 22 X s 2157 1221 m 22 X s 2157 1233 m 22 X s 2157 1242 m 22 X s 2157 1251 m 22 X s 2136 1259 m 43
 X s 2157 1309 m 22 X s 2157 1339 m 22 X s 2157 1360 m 22 X s 2157 1377 m 22 X s 2157 1390 m 22 X s 2157 1401 m 22 X s 2157 1411 m 22 X s 2157 1420 m 22 X s 2136 1427 m 43 X s 2157 1478 m 22 X s 2157 1508 m 22 X s 2157 1529 m 22 X s 2157 1545 m 22 X
 s 2157 1559 m 22 X s 2157 1570 m 22 X s 2157 1580 m 22 X s 2157 1588 m 22 X s 2136 1596 m 43 X s 2157 1647 m 22 X s 2157 1676 m 22 X s 2157 1697 m 22 X s 2157 1714 m 22 X s 2157 1727 m 22 X s
 gsave  2263 1770 2 313 C 406.765 1447.41 t 0 r /Helvetica findfont 64.4212 sf 0 0 m (CRY for MB\255GGo) show NC gr 
 gsave  2263 1770 2 313 C 1464.36 1616.89 t 0 r /Helvetica findfont 64.4212 sf 0 0 m (SM Total) show NC gr  1 1 1 c 1338 1603 m 107 X 74 Y -107 X f 1 0 0 c 6 lw 1338 1640 m 107 X s black
 gsave  2263 1770 2 313 C 1464.36 1511.81 t 0 r /Helvetica findfont 64.4212 sf 0 0 m (Data) show NC gr  1391 1502 m 64 Y s 3 lw 1391 1534 m20 6 lw
 gsave  2263 1770 2 313 C 1464.36 1406.73 t 0 r /Helvetica findfont 64.4212 sf 0 0 m (GAMMAjets) show NC gr  1 1 0 c 3 lw 1338 1391 m 107 X 74 Y -107 X f 6 lw black 3 lw 1338 1465 m 107 X s 1338 1391 m 107 X s 1445 1391 m 74 Y s 1338 1391 m 74 Y s
 gsave  2263 1770 2 313 C 1464.36 1298.26 t 0 r /Helvetica findfont 64.4212 sf 0 0 m (W+jets) show NC gr  0.4 0.6 1 c 1338 1284 m 107 X 75 Y -107 X f black 1338 1359 m 107 X s 1338 1284 m 107 X s 1445 1284 m 75 Y s 1338 1284 m 75 Y s
 gsave  2263 1770 2 313 C 1498.25 1193.18 t 0 r /Helvetica findfont 64.4212 sf 0 0 m (\(+EW\) & single top) show NC gr 
 gsave  2263 1770 2 313 C 1481.3 1193.18 t 0 r /Helvetica findfont 64.4212 sf 0 0 m (t) show NC gr  1481 1244 m 17 X s
 gsave  2263 1770 2 313 C 1464.36 1193.18 t 0 r /Helvetica findfont 64.4212 sf 0 0 m (t) show NC gr  0.6 1 0.6 c 1338 1178 m 107 X 75 Y -107 X f black 1338 1253 m 107 X s 1338 1178 m 107 X s 1445 1178 m 75 Y s 1338 1178 m 75 Y s
 gsave  2263 1770 2 313 C 1464.36 1088.1 t 0 r /Helvetica findfont 64.4212 sf 0 0 m (Diboson) show NC gr  1 0.4 0.6 c 1338 1072 m 107 X 74 Y -107 X f black 1338 1146 m 107 X s 1338 1072 m 107 X s 1445 1072 m 74 Y s 1338 1072 m 74 Y s
 gsave  2263 1770 2 313 C 911.832 1566.05 t 0 r /Helvetica findfont 44.0776 sf 0 0 m (\2551) show NC gr 
 gsave  2263 1770 2 313 C 471.17 1535.54 t 0 r /Helvetica findfont 64.4212 sf 0 0 m (=13TeV, 139 fb) show NC gr 
 gsave  2263 1770 2 313 C 440.662 1535.54 t 0 r /Helvetica findfont 64.4212 sf 0 0 m (s) show NC gr  6 lw 420 1573 m 7 -41 d s 3 lw 427 1532 m 7 61 d s 434 1593 m 37 X s 1 1 1 c 2254 561 2 2 bf black 1 1 1 c black 1860 358 318 187 bl 1 1 1 c black
 1860 358 318 187 bl 6 lw 1 1 1 c black 3 lw 364 370 m20 6 lw 3 lw 457 356 m20 6 lw 3 lw 550 369 m20 6 lw 3 lw 643 376 m20 6 lw 3 lw 736 436 m20 6 lw 3 lw 829 341 m20 6 lw 3 lw 318 187 m 1860 X s
 gsave  2254 561 2 2 C 1959.25 44.0662 t 0 r /Helvetica findfont 78.1689 sf 0 0 m ( [GeV]) show NC gr 
 gsave  2254 561 2 2 C 1928.75 -2.35513e-13 t 0 r /Helvetica findfont 50.9797 sf 0 0 m (T) show NC gr 
 gsave  2254 561 2 2 C 1657.57 44.0662 t 0 r /Helvetica findfont 78.1689 sf 0 0 m (1st jet p) show NC gr  434 201 m -14 Y s 481 194 m -7 Y s 527 194 m -7 Y s 574 194 m -7 Y s 620 194 m -7 Y s 667 201 m -14 Y s 713 194 m -7 Y s 760 194 m -7 Y s 806
 194 m -7 Y s 853 194 m -7 Y s 899 201 m -14 Y s 946 194 m -7 Y s 992 194 m -7 Y s 1039 194 m -7 Y s 1085 194 m -7 Y s 1132 201 m -14 Y s 1178 194 m -7 Y s 1225 194 m -7 Y s 1271 194 m -7 Y s 1318 194 m -7 Y s 1364 201 m -14 Y s 1411 194 m -7 Y s
 1457 194 m -7 Y s 1504 194 m -7 Y s 1550 194 m -7 Y s 1597 201 m -14 Y s 1643 194 m -7 Y s 1690 194 m -7 Y s 1737 194 m -7 Y s 1783 194 m -7 Y s 1830 201 m -14 Y s 1876 194 m -7 Y s 1923 194 m -7 Y s 1969 194 m -7 Y s 2016 194 m -7 Y s 2062 201 m
 -14 Y s 434 201 m -14 Y s 388 194 m -7 Y s 341 194 m -7 Y s 2062 201 m -14 Y s 2109 194 m -7 Y s 2155 194 m -7 Y s
 gsave  2254 561 2 2 C 369.478 118.64 t 0 r /Helvetica findfont 78.1689 sf 0 0 m (500) show NC gr 
 gsave  2254 561 2 2 C 576.251 118.64 t 0 r /Helvetica findfont 78.1689 sf 0 0 m (1000) show NC gr 
 gsave  2254 561 2 2 C 810.141 118.64 t 0 r /Helvetica findfont 78.1689 sf 0 0 m (1500) show NC gr 
 gsave  2254 561 2 2 C 1040.64 118.64 t 0 r /Helvetica findfont 78.1689 sf 0 0 m (2000) show NC gr 
 gsave  2254 561 2 2 C 1274.53 118.64 t 0 r /Helvetica findfont 78.1689 sf 0 0 m (2500) show NC gr 
 gsave  2254 561 2 2 C 1508.42 118.64 t 0 r /Helvetica findfont 78.1689 sf 0 0 m (3000) show NC gr 
 gsave  2254 561 2 2 C 1738.92 118.64 t 0 r /Helvetica findfont 78.1689 sf 0 0 m (3500) show NC gr 
 gsave  2254 561 2 2 C 1972.81 118.64 t 0 r /Helvetica findfont 78.1689 sf 0 0 m (4000) show NC gr  318 545 m 1860 X s 434 531 m 14 Y s 481 538 m 7 Y s 527 538 m 7 Y s 574 538 m 7 Y s 620 538 m 7 Y s 667 531 m 14 Y s 713 538 m 7 Y s 760 538 m 7 Y s
 806 538 m 7 Y s 853 538 m 7 Y s 899 531 m 14 Y s 946 538 m 7 Y s 992 538 m 7 Y s 1039 538 m 7 Y s 1085 538 m 7 Y s 1132 531 m 14 Y s 1178 538 m 7 Y s 1225 538 m 7 Y s 1271 538 m 7 Y s 1318 538 m 7 Y s 1364 531 m 14 Y s 1411 538 m 7 Y s 1457 538 m 7
 Y s 1504 538 m 7 Y s 1550 538 m 7 Y s 1597 531 m 14 Y s 1643 538 m 7 Y s 1690 538 m 7 Y s 1737 538 m 7 Y s 1783 538 m 7 Y s 1830 531 m 14 Y s 1876 538 m 7 Y s 1923 538 m 7 Y s 1969 538 m 7 Y s 2016 538 m 7 Y s 2062 531 m 14 Y s 434 531 m 14 Y s 388
 538 m 7 Y s 341 538 m 7 Y s 2062 531 m 14 Y s 2109 538 m 7 Y s 2155 538 m 7 Y s 318 187 m 358 Y s
 gsave  2254 561 2 2 C 166.096 284.736 t 90 r /Helvetica findfont 67.9729 sf 0 0 m (Data/SM) show NC gr  361 203 m -43 X s 339 220 m -21 X s 339 236 m -21 X s 339 252 m -21 X s 339 268 m -21 X s 361 285 m -43 X s 339 301 m -21 X s 339 317 m -21 X s
 339 334 m -21 X s 339 350 m -21 X s 361 366 m -43 X s 339 382 m -21 X s 339 399 m -21 X s 339 415 m -21 X s 339 431 m -21 X s 361 447 m -43 X s 339 464 m -21 X s 339 480 m -21 X s 339 496 m -21 X s 339 512 m -21 X s 361 529 m -43 X s 361 203 m -43 X
 s 339 187 m -21 X s 361 529 m -43 X s
 gsave  2254 561 2 2 C 261.008 183.044 t 0 r /Helvetica findfont 57.777 sf 0 0 m (0) show NC gr 
 gsave  2254 561 2 2 C 213.552 261.008 t 0 r /Helvetica findfont 57.777 sf 0 0 m (0.5) show NC gr 
 gsave  2254 561 2 2 C 271.177 342.361 t 0 r /Helvetica findfont 57.777 sf 0 0 m (1) show NC gr 
 gsave  2254 561 2 2 C 213.552 423.714 t 0 r /Helvetica findfont 57.777 sf 0 0 m (1.5) show NC gr 
 gsave  2254 561 2 2 C 261.008 505.067 t 0 r /Helvetica findfont 57.777 sf 0 0 m (2) show NC gr  2178 187 m 358 Y s 2135 203 m 43 X s 2157 220 m 21 X s 2157 236 m 21 X s 2157 252 m 21 X s 2157 268 m 21 X s 2135 285 m 43 X s 2157 301 m 21 X s 2157 317
 m 21 X s 2157 334 m 21 X s 2157 350 m 21 X s 2135 366 m 43 X s 2157 382 m 21 X s 2157 399 m 21 X s 2157 415 m 21 X s 2157 431 m 21 X s 2135 447 m 43 X s 2157 464 m 21 X s 2157 480 m 21 X s 2157 496 m 21 X s 2157 512 m 21 X s 2135 529 m 43 X s 2135
 203 m 43 X s 2157 187 m 21 X s 2135 529 m 43 X s 9 lw 457 369 m 7 Y s 457 376 m cl s 457 342 m -6 Y s 457 336 m cl s 550 382 m 22 Y s 550 404 m cl s 550 355 m -21 Y s 550 334 m cl s 643 390 m 39 Y s 643 429 m cl s 643 363 m -38 Y s 643 325 m cl s
 736 450 m 95 Y s 736 545 m cl s 736 423 m -98 Y s 736 325 m cl s 829 354 m 164 Y s 829 518 m cl s 829 327 m -100 Y s 829 227 m cl s 1016 545 m -153 Y s 1016 392 m cl s 3 lw 364 370 457 356 550 369 643 376 736 436 829 341 6 { m20} R 9 lw 1 0 0 c 6 lw
 black 3 lw 1 0 0 c 2155 203 m cl s 2127 203 m cl s 2098 203 m cl s 2069 203 m cl s 2040 203 m cl s 2012 203 m cl s 1983 203 m cl s 1954 203 m cl s 1926 203 m cl s 1897 203 m cl s 1868 203 m cl s 1840 203 m cl s 1811 203 m cl s 1782 203 m cl s 1754
 203 m cl s 1725 203 m cl s 1696 203 m cl s 1667 203 m cl s 1639 203 m cl s 1610 203 m cl s 1581 203 m cl s 1553 203 m cl s 1527 207 m s 1527 235 m s 1527 264 m -15 -15 d s 1527 292 m -43 -43 d s 1527 321 m -72 -72 d s 1434 228 m -23 -23 d s 1527 350
 m -145 -145 d s 1527 378 m -173 -173 d s 1527 407 m -186 -186 d s 1527 435 m -210 -209 d s 1527 464 m -239 -238 d s 1518 483 m -258 -257 d s 1248 214 m -27 -27 d s 1489 483 m -297 -296 d s 1460 483 m -297 -296 d s 1434 486 m -279 -279 d s 1434 514 m
 -279 -278 d s 1418 527 m -290 -290 d s 1390 527 m -291 -290 d s 1361 527 m -20 -20 d s 1340 506 m -270 -269 d s 1312 506 m -250 -248 d s 1283 506 m -221 -220 d s 1254 506 m -209 -208 d s 1248 529 m -232 -231 d s 1236 545 m -248 -247 d s 1207 545 m
 -238 -237 d s 1178 545 m -23 -23 d s 1128 495 m -168 -168 d s 1099 495 m -37 -37 d s 1038 434 m -107 -107 d s 1070 495 m -8 -9 d s 1010 434 m -108 -107 d s 981 434 m -12 -12 d s 952 405 m -77 -76 d s 923 405 m -77 -76 d s 894 405 m -76 -76 d s 864
 403 m -75 -74 d s 835 403 m -67 -66 d s 807 403 m -67 -66 d s 770 395 m -59 -58 d s 741 395 m -72 -72 d s 712 395 m -72 -72 d s 690 402 m -79 -79 d s 669 409 m -72 -72 d s 640 409 m -65 -65 d s 611 409 m -14 -14 d s 591 388 m -45 -44 d s 562 388 m
 -45 -44 d s 533 388 m -37 -37 d s 505 388 m -1 X s 497 381 m -30 -30 d s 469 381 m -31 -30 d s 318 231 m s 440 381 m -29 -29 d s 318 259 m s 411 381 m s 410 380 m -28 -28 d s 318 288 m s 381 380 m -27 -28 d s 318 317 m s 353 380 m -28 -28 d s 318
 345 m s 324 380 m -6 -6 d s 6 lw black[ 4 8] 0 sd 3 lw 318 447 m 1860 X s 318 285 m 1860 X s 1 0 0 c[  12 12 ] 0 sd 6 lw 318 366 m 1860 X s
 gr  gr showpage
end
%%EOF
