%!PS-Adobe-2.0 EPSF-2.0
%%BoundingBox:  0 0 567 521
%%Title: Distributions/meffInc_distrVR0LmetSig_MB-GGd_afterFit_forThesis.eps: canvas
%%Creator: ROOT Version 6.04/16
%%CreationDate: Tue May 19 22:05:06 2020
%%DocumentNeededResources: ProcSet (FontSetInit)
%%EndComments
%%BeginProlog
80 dict begin
/s {stroke} def /l {lineto} def /m {moveto} def /t {translate} def
/r {rotate} def /rl {roll}  def /R {repeat} def
/d {rlineto} def /rm {rmoveto} def /gr {grestore} def /f {eofill} def
/c {setrgbcolor} def /black {0 setgray} def /sd {setdash} def
/cl {closepath} def /sf {scalefont setfont} def /lw {setlinewidth} def
/box {m dup 0 exch d exch 0 d 0 exch neg d cl} def
/NC{systemdict begin initclip end}def/C{NC box clip newpath}def
/bl {box s} def /bf {gsave box gsave f grestore 1 lw [] 0 sd s grestore} def /Y { 0 exch d} def /X { 0 d} def 
/K {{pop pop 0 moveto} exch kshow} bind def
/ita {/ang 15 def gsave [1 0 ang dup sin exch cos div 1 0 0] concat} def 
/mp {newpath /y exch def /x exch def} def
/side {[w .77 mul w .23 mul] .385 w mul sd w 0 l currentpoint t -144 r} def
/mr {mp x y w2 0 360 arc} def /m24 {mr s} def /m20 {mr f} def
/mb {mp x y w2 add m w2 neg 0 d 0 w neg d w 0 d 0 w d cl} def
/mt {mp x y w2 add m w2 neg w neg d w 0 d cl} def
/m21 {mb f} def /m25 {mb s} def /m22 {mt f} def /m26{mt s} def
/m23 {mp x y w2 sub m w2 w d w neg 0 d cl f} def
/m27 {mp x y w2 add m w3 neg w2 neg d w3 w2 neg d w3 w2 d cl s} def
/m28 {mp x w2 sub y w2 sub w3 add m w3 0 d  0 w3 neg d w3 0 d 0 w3 d w3 0 d  0 w3 d w3 neg 0 d 0 w3 d w3 neg 0 d 0 w3 neg d w3 neg 0 d cl s } def
/m29 {mp gsave x w2 sub y w2 add w3 sub m currentpoint t 4 {side} repeat cl fill gr} def
/m30 {mp gsave x w2 sub y w2 add w3 sub m currentpoint t 4 {side} repeat cl s gr} def
/m31 {mp x y w2 sub m 0 w d x w2 sub y m w 0 d x w2 sub y w2 add m w w neg d x w2 sub y w2 sub m w w d s} def
/m32 {mp x y w2 sub m w2 w d w neg 0 d cl s} def
/m33 {mp x y w2 add m w3 neg w2 neg d w3 w2 neg d w3 w2 d cl f} def
/m34 {mp x w2 sub y w2 sub w3 add m w3 0 d  0 w3 neg d w3 0 d 0 w3 d w3 0 d  0 w3 d w3 neg 0 d 0 w3 d w3 neg 0 d 0 w3 neg d w3 neg 0 d cl f } def
/m2 {mp x y w2 sub m 0 w d x w2 sub y m w 0 d s} def
/m5 {mp x w2 sub y w2 sub m w w d x w2 sub y w2 add m w w neg d s} def
%%IncludeResource: ProcSet (FontSetInit)
%%IncludeResource: font Times-Roman
%%IncludeResource: font Times-Italic
%%IncludeResource: font Times-Bold
%%IncludeResource: font Times-BoldItalic
%%IncludeResource: font Helvetica
%%IncludeResource: font Helvetica-Oblique
%%IncludeResource: font Helvetica-Bold
%%IncludeResource: font Helvetica-BoldOblique
%%IncludeResource: font Courier
%%IncludeResource: font Courier-Oblique
%%IncludeResource: font Courier-Bold
%%IncludeResource: font Courier-BoldOblique
%%IncludeResource: font Symbol
%%IncludeResource: font ZapfDingbats
/reEncode {exch findfont dup length dict begin {1 index /FID eq  {pop pop} {def} ifelse } forall /Encoding exch def currentdict end dup /FontName get exch definefont pop } def [/Times-Bold /Times-Italic /Times-BoldItalic /Helvetica /Helvetica-Oblique
 /Helvetica-Bold /Helvetica-BoldOblique /Courier /Courier-Oblique /Courier-Bold /Courier-BoldOblique /Times-Roman /AvantGarde-Book /AvantGarde-BookOblique /AvantGarde-Demi /AvantGarde-DemiOblique /Bookman-Demi /Bookman-DemiItalic /Bookman-Light
 /Bookman-LightItalic /Helvetica-Narrow /Helvetica-Narrow-Bold /Helvetica-Narrow-BoldOblique /Helvetica-Narrow-Oblique /NewCenturySchlbk-Roman /NewCenturySchlbk-Bold /NewCenturySchlbk-BoldItalic /NewCenturySchlbk-Italic /Palatino-Bold
 /Palatino-BoldItalic /Palatino-Italic /Palatino-Roman ] {ISOLatin1Encoding reEncode } forall
%%EndProlog
%%BeginSetup
%%EndSetup
newpath  gsave  .25 .25 scale  gsave  0 0 t black[  ] 0 sd 3 lw 1 1 1 c 2268 2085 0 0 bf black 1 1 1 c 2263 1770 2 313 bf black 1 1 1 c black 1860 1145 319 584 bl 1 1 1 c black 1860 1145 319 584 bl 6 lw 1 1 1 c black 3 lw /w 33 def /w2 {w 2 div} def
 /w3 {w 3 div} def 381 1150 m20 6 lw 3 lw 505 1162 m20 6 lw 3 lw 629 1144 m20 6 lw 3 lw 753 1111 m20 6 lw 3 lw 877 1072 m20 6 lw 3 lw 1001 1039 m20 6 lw 3 lw 1125 998 m20 6 lw 1249 961 m 2 Y s 3 lw 1249 977 m20 6 lw 1373 911 m 8 Y s 1373 946 m 4 Y s
 3 lw 1373 933 m20 6 lw 1497 863 m 17 Y s 1497 907 m 8 Y s 3 lw 1497 893 m20 6 lw 1621 796 m 35 Y s 1621 858 m 15 Y s 3 lw 1621 845 m20 6 lw 1745 709 m 73 Y s 1745 809 m 24 Y s 3 lw 1745 796 m20 6 lw 1869 584 m 149 Y s 1869 760 m 36 Y s 3 lw 1869 747
 m20 6 lw 1993 709 m 73 Y s 1993 809 m 24 Y s 3 lw 1993 796 m20 6 lw 3 lw 319 584 m 1860 X s
 gsave  2263 1770 2 313 C 1949.08 369.478 t 0 r /Helvetica findfont 81.3741 sf 0 0 m ( [GeV]) show NC gr 
 gsave  2263 1770 2 313 C 1888.07 342.361 t 0 r /Helvetica findfont 54.2494 sf 0 0 m (eff) show NC gr 
 gsave  2263 1770 2 313 C 1823.66 369.478 t 0 r /Helvetica findfont 81.3741 sf 0 0 m (m) show NC gr  319 584 m cl s 381 584 m cl s 443 584 m cl s 505 584 m cl s 567 584 m cl s 629 584 m cl s 691 584 m cl s 753 584 m cl s 815 584 m cl s 877 584 m cl s
 939 584 m cl s 1001 584 m cl s 1063 584 m cl s 1125 584 m cl s 1187 584 m cl s 1249 584 m cl s 1311 584 m cl s 1373 584 m cl s 1435 584 m cl s 1497 584 m cl s 1559 584 m cl s 1621 584 m cl s 1683 584 m cl s 1745 584 m cl s 1807 584 m cl s 1869 584 m
 cl s 1931 584 m cl s 1993 584 m cl s 2055 584 m cl s 2117 584 m cl s 2179 584 m cl s 319 1729 m 1860 X s 319 1729 m cl s 381 1729 m cl s 443 1729 m cl s 505 1729 m cl s 567 1729 m cl s 629 1729 m cl s 691 1729 m cl s 753 1729 m cl s 815 1729 m cl s
 877 1729 m cl s 939 1729 m cl s 1001 1729 m cl s 1063 1729 m cl s 1125 1729 m cl s 1187 1729 m cl s 1249 1729 m cl s 1311 1729 m cl s 1373 1729 m cl s 1435 1729 m cl s 1497 1729 m cl s 1559 1729 m cl s 1621 1729 m cl s 1683 1729 m cl s 1745 1729 m
 cl s 1807 1729 m cl s 1869 1729 m cl s 1931 1729 m cl s 1993 1729 m cl s 2055 1729 m cl s 2117 1729 m cl s 2179 1729 m cl s 319 584 m 1145 Y s
 gsave  2263 1770 2 313 C 166.096 1091.49 t 90 r /Helvetica findfont 81.3741 sf 0 0 m (Events / 200 GeV) show NC gr  341 633 m -22 X s 341 662 m -22 X s 341 682 m -22 X s 341 698 m -22 X s 341 711 m -22 X s 341 722 m -22 X s 341 731 m -22 X s 341 739
 m -22 X s 363 747 m -44 X s
 gsave  2263 1770 2 313 C 300.555 719.638 t 0 r  -36 0 t /Helvetica findfont 64.4212 sf 0 0 m (1) show NC gr  341 796 m -22 X s 341 824 m -22 X s 341 845 m -22 X s 341 860 m -22 X s 341 873 m -22 X s 341 884 m -22 X s 341 893 m -22 X s 341 902 m -22
 X s 363 909 m -44 X s
 gsave  2263 1770 2 313 C 300.555 882.084 t 0 r  -73 0 t /Helvetica findfont 64.4212 sf 0 0 m (10) show NC gr  341 958 m -22 X s 341 987 m -22 X s 341 1007 m -22 X s 341 1023 m -22 X s 341 1036 m -22 X s 341 1046 m -22 X s 341 1056 m -22 X s 341 1064
 m -22 X s 363 1072 m -44 X s
 gsave  2263 1770 2 313 C 274.567 1071.15 t 0 r /Helvetica findfont 44.0776 sf 0 0 m (2) show NC gr 
 gsave  2263 1770 2 313 C 203.383 1044.03 t 0 r /Helvetica findfont 64.4212 sf 0 0 m (10) show NC gr  341 1121 m -22 X s 341 1149 m -22 X s 341 1169 m -22 X s 341 1185 m -22 X s 341 1198 m -22 X s 341 1209 m -22 X s 341 1218 m -22 X s 341 1227 m -22
 X s 363 1234 m -44 X s
 gsave  2263 1770 2 313 C 274.567 1237.24 t 0 r /Helvetica findfont 44.0776 sf 0 0 m (3) show NC gr 
 gsave  2263 1770 2 313 C 203.383 1206.74 t 0 r /Helvetica findfont 64.4212 sf 0 0 m (10) show NC gr  341 1283 m -22 X s 341 1312 m -22 X s 341 1332 m -22 X s 341 1348 m -22 X s 341 1361 m -22 X s 341 1371 m -22 X s 341 1381 m -22 X s 341 1389 m -22
 X s 363 1397 m -44 X s
 gsave  2263 1770 2 313 C 274.567 1393.17 t 0 r /Helvetica findfont 44.0776 sf 0 0 m (4) show NC gr 
 gsave  2263 1770 2 313 C 203.383 1366.05 t 0 r /Helvetica findfont 64.4212 sf 0 0 m (10) show NC gr  341 1445 m -22 X s 341 1474 m -22 X s 341 1494 m -22 X s 341 1510 m -22 X s 341 1523 m -22 X s 341 1534 m -22 X s 341 1543 m -22 X s 341 1552 m -22
 X s 363 1559 m -44 X s
 gsave  2263 1770 2 313 C 274.567 1559.27 t 0 r /Helvetica findfont 44.0776 sf 0 0 m (5) show NC gr 
 gsave  2263 1770 2 313 C 203.383 1528.76 t 0 r /Helvetica findfont 64.4212 sf 0 0 m (10) show NC gr  341 1608 m -22 X s 341 1636 m -22 X s 341 1657 m -22 X s 341 1673 m -22 X s 341 1685 m -22 X s 341 1696 m -22 X s 341 1706 m -22 X s 341 1714 m -22
 X s 363 1721 m -44 X s
 gsave  2263 1770 2 313 C 274.567 1721.97 t 0 r /Helvetica findfont 44.0776 sf 0 0 m (6) show NC gr 
 gsave  2263 1770 2 313 C 203.383 1691.47 t 0 r /Helvetica findfont 64.4212 sf 0 0 m (10) show NC gr  2179 584 m 1145 Y s 2157 633 m 22 X s 2157 662 m 22 X s 2157 682 m 22 X s 2157 698 m 22 X s 2157 711 m 22 X s 2157 722 m 22 X s 2157 731 m 22 X s
 2157 739 m 22 X s 2136 747 m 43 X s 2157 796 m 22 X s 2157 824 m 22 X s 2157 845 m 22 X s 2157 860 m 22 X s 2157 873 m 22 X s 2157 884 m 22 X s 2157 893 m 22 X s 2157 902 m 22 X s 2136 909 m 43 X s 2157 958 m 22 X s 2157 987 m 22 X s 2157 1007 m 22
 X s 2157 1023 m 22 X s 2157 1036 m 22 X s 2157 1046 m 22 X s 2157 1056 m 22 X s 2157 1064 m 22 X s 2136 1072 m 43 X s 2157 1121 m 22 X s 2157 1149 m 22 X s 2157 1169 m 22 X s 2157 1185 m 22 X s 2157 1198 m 22 X s 2157 1209 m 22 X s 2157 1218 m 22 X
 s 2157 1227 m 22 X s 2136 1234 m 43 X s 2157 1283 m 22 X s 2157 1312 m 22 X s 2157 1332 m 22 X s 2157 1348 m 22 X s 2157 1361 m 22 X s 2157 1371 m 22 X s 2157 1381 m 22 X s 2157 1389 m 22 X s 2136 1397 m 43 X s 2157 1445 m 22 X s 2157 1474 m 22 X s
 2157 1494 m 22 X s 2157 1510 m 22 X s 2157 1523 m 22 X s 2157 1534 m 22 X s 2157 1543 m 22 X s 2157 1552 m 22 X s 2136 1559 m 43 X s 2157 1608 m 22 X s 2157 1636 m 22 X s 2157 1657 m 22 X s 2157 1673 m 22 X s 2157 1685 m 22 X s 2157 1696 m 22 X s
 2157 1706 m 22 X s 2157 1714 m 22 X s 2136 1721 m 43 X s 0.4 0.6 1 c black 0.4 0.6 1 c 319 584 m 569 Y 124 X 11 Y 124 X -21 Y 124 X -35 Y 124 X -28 Y 124 X -32 Y 124 X -47 Y 124 X -30 Y 124 X -31 Y 124 X -33 Y 124 X -31 Y 124 X -44 Y 124 X -36 Y 124
 X -42 Y 124 X 76 Y 124 X -246 Y f black 0.4 0.6 1 c black 319 1153 m 124 X 11 Y 124 X -21 Y 124 X -35 Y 124 X -28 Y 124 X -32 Y 124 X -47 Y 124 X -30 Y 124 X -31 Y 124 X -33 Y 124 X -31 Y 124 X -44 Y 124 X -36 Y 124 X -42 Y 124 X 76 Y 124 X s 0.999
 0.999 0.999 c black 0.999 0.999 0.999 c 319 584 m 550 Y 124 X 12 Y 124 X -22 Y 124 X -35 Y 124 X -27 Y 124 X -32 Y 124 X -50 Y 124 X -31 Y 124 X -29 Y 124 X -41 Y 124 X -22 Y 124 X -48 Y 124 X -34 Y 124 X -57 Y 124 X 93 Y 124 X -227 Y f black 0.999
 0.999 0.999 c black 319 1134 m 124 X 12 Y 124 X -22 Y 124 X -35 Y 124 X -27 Y 124 X -32 Y 124 X -50 Y 124 X -31 Y 124 X -29 Y 124 X -41 Y 124 X -22 Y 124 X -48 Y 124 X -34 Y 124 X -57 Y 124 X 93 Y 124 X s 1 1 1 c black 319 1134 m 124 X 12 Y 124 X
 -22 Y 124 X -35 Y 124 X -27 Y 124 X -32 Y 124 X -50 Y 124 X -31 Y 124 X -29 Y 124 X -41 Y 124 X -22 Y 124 X -48 Y 124 X -34 Y 124 X -57 Y 124 X 93 Y 124 X s 0.6 1 0.6 c black 0.6 1 0.6 c 319 584 m 550 Y 124 X 12 Y 124 X -22 Y 124 X -35 Y 124 X -27 Y
 124 X -32 Y 124 X -50 Y 124 X -31 Y 124 X -29 Y 124 X -41 Y 124 X -22 Y 124 X -48 Y 124 X -34 Y 124 X -57 Y 124 X 93 Y 124 X -227 Y f black 0.6 1 0.6 c black 319 1134 m 124 X 12 Y 124 X -22 Y 124 X -35 Y 124 X -27 Y 124 X -32 Y 124 X -50 Y 124 X -31
 Y 124 X -29 Y 124 X -41 Y 124 X -22 Y 124 X -48 Y 124 X -34 Y 124 X -57 Y 124 X 93 Y 124 X s 0.999 0.999 0.999 c black 0.999 0.999 0.999 c 319 584 m 453 Y 124 X 28 Y 124 X -14 Y 124 X -26 Y 124 X -21 Y 124 X -35 Y 124 X -25 Y 124 X -25 Y 124 X -32 Y
 124 X -35 Y 124 X -17 Y 124 X -40 Y 124 X -28 Y 124 X -61 Y 124 X 96 Y 124 X -218 Y f black 0.999 0.999 0.999 c black 319 1037 m 124 X 28 Y 124 X -14 Y 124 X -26 Y 124 X -21 Y 124 X -35 Y 124 X -25 Y 124 X -25 Y 124 X -32 Y 124 X -35 Y 124 X -17 Y
 124 X -40 Y 124 X -28 Y 124 X -61 Y 124 X 96 Y 124 X s 1 1 1 c black 319 1037 m 124 X 28 Y 124 X -14 Y 124 X -26 Y 124 X -21 Y 124 X -35 Y 124 X -25 Y 124 X -25 Y 124 X -32 Y 124 X -35 Y 124 X -17 Y 124 X -40 Y 124 X -28 Y 124 X -61 Y 124 X 96 Y 124
 X s 1 0.8 0.4 c black 1 0.8 0.4 c 319 584 m 453 Y 124 X 28 Y 124 X -14 Y 124 X -26 Y 124 X -21 Y 124 X -35 Y 124 X -25 Y 124 X -25 Y 124 X -32 Y 124 X -35 Y 124 X -17 Y 124 X -40 Y 124 X -28 Y 124 X -61 Y 124 X 96 Y 124 X -218 Y f black 1 0.8 0.4 c
 black 319 1037 m 124 X 28 Y 124 X -14 Y 124 X -26 Y 124 X -21 Y 124 X -35 Y 124 X -25 Y 124 X -25 Y 124 X -32 Y 124 X -35 Y 124 X -17 Y 124 X -40 Y 124 X -28 Y 124 X -61 Y 124 X 96 Y 124 X s 0.999 0.999 0.999 c black 0.999 0.999 0.999 c 319 584 m
 359 Y 124 X 26 Y 124 X -22 Y 124 X -29 Y 124 X -23 Y 124 X -16 Y 124 X -49 Y 248 X -41 Y 124 X -20 Y 124 X -3 Y 124 X -81 Y 124 X 21 Y 124 X -77 Y 124 X 74 Y 124 X -119 Y f black 0.999 0.999 0.999 c black 319 943 m 124 X 26 Y 124 X -22 Y 124 X -29 Y
 124 X -23 Y 124 X -16 Y 124 X -49 Y 248 X -41 Y 124 X -20 Y 124 X -3 Y 124 X -81 Y 124 X 21 Y 124 X -77 Y 124 X 74 Y 124 X s 1 1 1 c black 319 943 m 124 X 26 Y 124 X -22 Y 124 X -29 Y 124 X -23 Y 124 X -16 Y 124 X -49 Y 248 X -41 Y 124 X -20 Y 124 X
 -3 Y 124 X -81 Y 124 X 21 Y 124 X -77 Y 124 X 74 Y 124 X s 1 0.4 0.6 c black 1 0.4 0.6 c 319 584 m 359 Y 124 X 26 Y 124 X -22 Y 124 X -29 Y 124 X -23 Y 124 X -16 Y 124 X -49 Y 248 X -41 Y 124 X -20 Y 124 X -3 Y 124 X -81 Y 124 X 21 Y 124 X -77 Y 124
 X 74 Y 124 X -119 Y f black 1 0.4 0.6 c black 319 943 m 124 X 26 Y 124 X -22 Y 124 X -29 Y 124 X -23 Y 124 X -16 Y 124 X -49 Y 248 X -41 Y 124 X -20 Y 124 X -3 Y 124 X -81 Y 124 X 21 Y 124 X -77 Y 124 X 74 Y 124 X s 0.999 0.999 0.999 c black 0.999
 0.999 0.999 c 319 584 m 278 Y 124 X 61 Y 124 X -61 Y 124 X -23 Y 124 X -10 Y 124 X -12 Y 124 X -33 Y 124 X -26 Y 124 X -38 Y 124 X -11 Y 124 X -3 Y 124 X -72 Y 124 X -1 Y 124 X -41 Y 124 X 101 Y 124 X -109 Y f black 0.999 0.999 0.999 c black 319 862
 m 124 X 61 Y 124 X -61 Y 124 X -23 Y 124 X -10 Y 124 X -12 Y 124 X -33 Y 124 X -26 Y 124 X -38 Y 124 X -11 Y 124 X -3 Y 124 X -72 Y 124 X -1 Y 124 X -41 Y 124 X 101 Y 124 X s 1 1 1 c black 319 862 m 124 X 61 Y 124 X -61 Y 124 X -23 Y 124 X -10 Y 124
 X -12 Y 124 X -33 Y 124 X -26 Y 124 X -38 Y 124 X -11 Y 124 X -3 Y 124 X -72 Y 124 X -1 Y 124 X -41 Y 124 X 101 Y 124 X s 0 0 0.4 c black 0 0 0.4 c 319 584 m 278 Y 124 X 61 Y 124 X -61 Y 124 X -23 Y 124 X -10 Y 124 X -12 Y 124 X -33 Y 124 X -26 Y
 124 X -38 Y 124 X -11 Y 124 X -3 Y 124 X -72 Y 124 X -1 Y 124 X -41 Y 124 X 101 Y 124 X -109 Y f black 0 0 0.4 c black 319 862 m 124 X 61 Y 124 X -61 Y 124 X -23 Y 124 X -10 Y 124 X -12 Y 124 X -33 Y 124 X -26 Y 124 X -38 Y 124 X -11 Y 124 X -3 Y
 124 X -72 Y 124 X -1 Y 124 X -41 Y 124 X 101 Y 124 X s 1 0 0 c 6 lw 1 1 1 c black 1 0 0 c 319 1153 m 124 X 11 Y 124 X -21 Y 124 X -35 Y 124 X -28 Y 124 X -32 Y 124 X -47 Y 124 X -30 Y 124 X -31 Y 124 X -33 Y 124 X -31 Y 124 X -44 Y 124 X -36 Y 124 X
 -42 Y 124 X 76 Y 124 X s black 3 lw 1 0 0 c 1 lw << /PatternType 1 /PaintType 2 /TilingType 1 /BBox [ 0 0 100 100 ] /XStep 100 /YStep 100 /PaintProc { begin gsave 0 100 m 100 0 l s gr end } >> [ 0.24 0 0 0.24 0 0 ] makepattern /P05 exch def /cs
 {[/Pattern /DeviceRGB] setcolorspace} def /FA {f [/DeviceRGB] setcolorspace} def cs 1 0 0 P05 setcolor 319 584 m 572 Y 124 X 11 Y 124 X -21 Y 124 X -34 Y 124 X -28 Y 124 X -31 Y 124 X -46 Y 124 X -29 Y 124 X -30 Y 124 X -32 Y 124 X -29 Y 124 X -46 Y
 124 X -31 Y 124 X -42 Y 124 X 77 Y 124 X -261 Y 225 Y -124 X -71 Y -124 X 41 Y -124 X 42 Y -124 X 43 Y -124 X 32 Y -124 X 36 Y -124 X 32 Y -124 X 30 Y -124 X 48 Y -124 X 33 Y -124 X 29 Y -124 X 36 Y -124 X 20 Y -124 X -11 Y -124 X -565 Y FA 6 lw 1 1
 1 c 15 lw 1373 913 m -2 Y s 1373 911 m cl s 1497 914 m 1 Y s 1497 915 m cl s 1497 873 m -9 Y s 1497 864 m cl s 1621 865 m 10 Y s 1621 875 m cl s 1621 824 m -25 Y s 1621 799 m cl s 1745 816 m 22 Y s 1745 838 m cl s 1745 775 m -52 Y s 1745 723 m cl s
 1869 767 m 38 Y s 1869 805 m cl s 1869 726 m -102 Y s 1869 624 m cl s 1993 816 m 22 Y s 1993 838 m cl s 1993 775 m -52 Y s 1993 723 m cl s black 1 1 1 c 3 lw /w 43 def /w2 {w 2 div} def /w3 {w 3 div} def 381 1150 505 1162 629 1144 753 1111 877 1072
 1001 1039 1125 998 1249 977 1373 933 1497 893 1621 845 1745 796 1869 747 1993 796 14 { m20} R 15 lw black 6 lw 1 1 1 c black 3 lw /w 33 def /w2 {w 2 div} def /w3 {w 3 div} def 381 1150 m20 6 lw 3 lw 505 1162 m20 6 lw 3 lw 629 1144 m20 6 lw 3 lw 753
 1111 m20 6 lw 3 lw 877 1072 m20 6 lw 3 lw 1001 1039 m20 6 lw 3 lw 1125 998 m20 6 lw 1249 961 m 2 Y s 3 lw 1249 977 m20 6 lw 1373 911 m 8 Y s 1373 946 m 4 Y s 3 lw 1373 933 m20 6 lw 1497 863 m 17 Y s 1497 907 m 8 Y s 3 lw 1497 893 m20 6 lw 1621 796 m
 35 Y s 1621 858 m 15 Y s 3 lw 1621 845 m20 6 lw 1745 709 m 73 Y s 1745 809 m 24 Y s 3 lw 1745 796 m20 6 lw 1869 584 m 149 Y s 1869 760 m 36 Y s 3 lw 1869 747 m20 6 lw 1993 709 m 73 Y s 1993 809 m 24 Y s 3 lw 1993 796 m20 6 lw 1249 963 m -2 Y s 1249
 961 m cl s 1373 946 m 4 Y s 1373 950 m cl s 1373 919 m -8 Y s 1373 911 m cl s 1497 907 m 8 Y s 1497 915 m cl s 1497 880 m -16 Y s 1497 864 m cl s 1621 858 m 17 Y s 1621 875 m cl s 1621 831 m -32 Y s 1621 799 m cl s 1745 809 m 29 Y s 1745 838 m cl s
 1745 782 m -59 Y s 1745 723 m cl s 1869 760 m 45 Y s 1869 805 m cl s 1869 733 m -109 Y s 1869 624 m cl s 1993 809 m 29 Y s 1993 838 m cl s 1993 782 m -59 Y s 1993 723 m cl s 3 lw 381 1150 505 1162 629 1144 753 1111 877 1072 1001 1039 1125 998 1249
 977 1373 933 1497 893 1621 845 1745 796 1869 747 1993 796 14 { m20} R 6 lw 3 lw 319 584 m 1860 X s 319 584 m cl s 381 584 m cl s 443 584 m cl s 505 584 m cl s 567 584 m cl s 629 584 m cl s 691 584 m cl s 753 584 m cl s 815 584 m cl s 877 584 m cl s
 939 584 m cl s 1001 584 m cl s 1063 584 m cl s 1125 584 m cl s 1187 584 m cl s 1249 584 m cl s 1311 584 m cl s 1373 584 m cl s 1435 584 m cl s 1497 584 m cl s 1559 584 m cl s 1621 584 m cl s 1683 584 m cl s 1745 584 m cl s 1807 584 m cl s 1869 584 m
 cl s 1931 584 m cl s 1993 584 m cl s 2055 584 m cl s 2117 584 m cl s 2179 584 m cl s 319 1729 m 1860 X s 319 1729 m cl s 381 1729 m cl s 443 1729 m cl s 505 1729 m cl s 567 1729 m cl s 629 1729 m cl s 691 1729 m cl s 753 1729 m cl s 815 1729 m cl s
 877 1729 m cl s 939 1729 m cl s 1001 1729 m cl s 1063 1729 m cl s 1125 1729 m cl s 1187 1729 m cl s 1249 1729 m cl s 1311 1729 m cl s 1373 1729 m cl s 1435 1729 m cl s 1497 1729 m cl s 1559 1729 m cl s 1621 1729 m cl s 1683 1729 m cl s 1745 1729 m
 cl s 1807 1729 m cl s 1869 1729 m cl s 1931 1729 m cl s 1993 1729 m cl s 2055 1729 m cl s 2117 1729 m cl s 2179 1729 m cl s 319 584 m 1145 Y s 341 633 m -22 X s 341 662 m -22 X s 341 682 m -22 X s 341 698 m -22 X s 341 711 m -22 X s 341 722 m -22 X
 s 341 731 m -22 X s 341 739 m -22 X s 363 747 m -44 X s 341 796 m -22 X s 341 824 m -22 X s 341 845 m -22 X s 341 860 m -22 X s 341 873 m -22 X s 341 884 m -22 X s 341 893 m -22 X s 341 902 m -22 X s 363 909 m -44 X s 341 958 m -22 X s 341 987 m -22
 X s 341 1007 m -22 X s 341 1023 m -22 X s 341 1036 m -22 X s 341 1046 m -22 X s 341 1056 m -22 X s 341 1064 m -22 X s 363 1072 m -44 X s 341 1121 m -22 X s 341 1149 m -22 X s 341 1169 m -22 X s 341 1185 m -22 X s 341 1198 m -22 X s 341 1209 m -22 X
 s 341 1218 m -22 X s 341 1227 m -22 X s 363 1234 m -44 X s 341 1283 m -22 X s 341 1312 m -22 X s 341 1332 m -22 X s 341 1348 m -22 X s 341 1361 m -22 X s 341 1371 m -22 X s 341 1381 m -22 X s 341 1389 m -22 X s 363 1397 m -44 X s 341 1445 m -22 X s
 341 1474 m -22 X s 341 1494 m -22 X s 341 1510 m -22 X s 341 1523 m -22 X s 341 1534 m -22 X s 341 1543 m -22 X s 341 1552 m -22 X s 363 1559 m -44 X s 341 1608 m -22 X s 341 1636 m -22 X s 341 1657 m -22 X s 341 1673 m -22 X s 341 1685 m -22 X s
 341 1696 m -22 X s 341 1706 m -22 X s 341 1714 m -22 X s 363 1721 m -44 X s 2179 584 m 1145 Y s 2157 633 m 22 X s 2157 662 m 22 X s 2157 682 m 22 X s 2157 698 m 22 X s 2157 711 m 22 X s 2157 722 m 22 X s 2157 731 m 22 X s 2157 739 m 22 X s 2136 747
 m 43 X s 2157 796 m 22 X s 2157 824 m 22 X s 2157 845 m 22 X s 2157 860 m 22 X s 2157 873 m 22 X s 2157 884 m 22 X s 2157 893 m 22 X s 2157 902 m 22 X s 2136 909 m 43 X s 2157 958 m 22 X s 2157 987 m 22 X s 2157 1007 m 22 X s 2157 1023 m 22 X s 2157
 1036 m 22 X s 2157 1046 m 22 X s 2157 1056 m 22 X s 2157 1064 m 22 X s 2136 1072 m 43 X s 2157 1121 m 22 X s 2157 1149 m 22 X s 2157 1169 m 22 X s 2157 1185 m 22 X s 2157 1198 m 22 X s 2157 1209 m 22 X s 2157 1218 m 22 X s 2157 1227 m 22 X s 2136
 1234 m 43 X s 2157 1283 m 22 X s 2157 1312 m 22 X s 2157 1332 m 22 X s 2157 1348 m 22 X s 2157 1361 m 22 X s 2157 1371 m 22 X s 2157 1381 m 22 X s 2157 1389 m 22 X s 2136 1397 m 43 X s 2157 1445 m 22 X s 2157 1474 m 22 X s 2157 1494 m 22 X s 2157
 1510 m 22 X s 2157 1523 m 22 X s 2157 1534 m 22 X s 2157 1543 m 22 X s 2157 1552 m 22 X s 2136 1559 m 43 X s 2157 1608 m 22 X s 2157 1636 m 22 X s 2157 1657 m 22 X s 2157 1673 m 22 X s 2157 1685 m 22 X s 2157 1696 m 22 X s 2157 1706 m 22 X s 2157
 1714 m 22 X s 2136 1721 m 43 X s
 gsave  2263 1770 2 313 C 406.765 1447.41 t 0 r /Helvetica findfont 64.4212 sf 0 0 m (VR0LmetSig for MB\255GGd) show NC gr 
 gsave  2263 1770 2 313 C 1464.36 1630.45 t 0 r /Helvetica findfont 64.4212 sf 0 0 m (SM Total) show NC gr  1 1 1 c 1338 1616 m 107 X 64 Y -107 X f 1 0 0 c 6 lw 1338 1648 m 107 X s black
 gsave  2263 1770 2 313 C 1464.36 1538.93 t 0 r /Helvetica findfont 64.4212 sf 0 0 m (Data) show NC gr  1391 1529 m 55 Y s 3 lw 1391 1557 m20 6 lw
 gsave  2263 1770 2 313 C 1464.36 1447.41 t 0 r /Helvetica findfont 64.4212 sf 0 0 m (W+jets) show NC gr  0.4 0.6 1 c 3 lw 1338 1434 m 107 X 64 Y -107 X f 6 lw black 3 lw 1338 1498 m 107 X s 1338 1434 m 107 X s 1445 1434 m 64 Y s 1338 1434 m 64 Y s
 gsave  2263 1770 2 313 C 1498.25 1355.88 t 0 r /Helvetica findfont 64.4212 sf 0 0 m (\(+EW\) & single top) show NC gr 
 gsave  2263 1770 2 313 C 1481.3 1355.88 t 0 r /Helvetica findfont 64.4212 sf 0 0 m (t) show NC gr  1481 1407 m 17 X s
 gsave  2263 1770 2 313 C 1464.36 1355.88 t 0 r /Helvetica findfont 64.4212 sf 0 0 m (t) show NC gr  0.6 1 0.6 c 1338 1343 m 107 X 63 Y -107 X f black 1338 1406 m 107 X s 1338 1343 m 107 X s 1445 1343 m 63 Y s 1338 1343 m 63 Y s
 gsave  2263 1770 2 313 C 1464.36 1264.36 t 0 r /Helvetica findfont 64.4212 sf 0 0 m (Z+jets) show NC gr  1 0.8 0.4 c 1338 1252 m 107 X 63 Y -107 X f black 1338 1315 m 107 X s 1338 1252 m 107 X s 1445 1252 m 63 Y s 1338 1252 m 63 Y s
 gsave  2263 1770 2 313 C 1464.36 1172.84 t 0 r /Helvetica findfont 64.4212 sf 0 0 m (Diboson) show NC gr  1 0.4 0.6 c 1338 1161 m 107 X 63 Y -107 X f black 1338 1224 m 107 X s 1338 1161 m 107 X s 1445 1161 m 63 Y s 1338 1161 m 63 Y s
 gsave  2263 1770 2 313 C 1464.36 1081.32 t 0 r /Helvetica findfont 64.4212 sf 0 0 m (Multi\255jet) show NC gr  0 0 0.4 c 1338 1070 m 107 X 63 Y -107 X f black 1338 1133 m 107 X s 1338 1070 m 107 X s 1445 1070 m 63 Y s 1338 1070 m 63 Y s
 gsave  2263 1770 2 313 C 911.832 1566.05 t 0 r /Helvetica findfont 44.0776 sf 0 0 m (\2551) show NC gr 
 gsave  2263 1770 2 313 C 471.17 1535.54 t 0 r /Helvetica findfont 64.4212 sf 0 0 m (=13TeV, 139 fb) show NC gr 
 gsave  2263 1770 2 313 C 440.662 1535.54 t 0 r /Helvetica findfont 64.4212 sf 0 0 m (s) show NC gr  6 lw 420 1573 m 7 -41 d s 3 lw 427 1532 m 7 61 d s 434 1593 m 37 X s 1 1 1 c 2254 561 2 2 bf black 1 1 1 c black 1860 358 318 187 bl 1 1 1 c black
 1860 358 318 187 bl 6 lw 1 1 1 c black 3 lw 380 360 m20 6 lw 3 lw 504 362 m20 6 lw 3 lw 628 368 m20 6 lw 3 lw 752 372 m20 6 lw 3 lw 876 349 m20 6 lw 3 lw 1000 347 m20 6 lw 3 lw 1124 359 m20 6 lw 3 lw 1248 379 m20 6 lw 3 lw 1372 350 m20 6 lw 3 lw
 1496 338 m20 6 lw 3 lw 1620 307 m20 6 lw 3 lw 1744 301 m20 6 lw 3 lw 1868 284 m20 6 lw 3 lw 1992 496 m20 6 lw 3 lw 318 187 m 1860 X s
 gsave  2254 561 2 2 C 1959.25 33.8971 t 0 r /Helvetica findfont 78.1689 sf 0 0 m ( [GeV]) show NC gr 
 gsave  2254 561 2 2 C 1901.63 13.5588 t 0 r /Helvetica findfont 50.9797 sf 0 0 m (eff) show NC gr 
 gsave  2254 561 2 2 C 1840.61 33.8971 t 0 r /Helvetica findfont 78.1689 sf 0 0 m (m) show NC gr  318 201 m -14 Y s 380 194 m -7 Y s 442 194 m -7 Y s 504 194 m -7 Y s 566 194 m -7 Y s 628 201 m -14 Y s 690 194 m -7 Y s 752 194 m -7 Y s 814 194 m -7 Y
 s 876 194 m -7 Y s 938 201 m -14 Y s 1000 194 m -7 Y s 1062 194 m -7 Y s 1124 194 m -7 Y s 1186 194 m -7 Y s 1248 201 m -14 Y s 1310 194 m -7 Y s 1372 194 m -7 Y s 1434 194 m -7 Y s 1496 194 m -7 Y s 1558 201 m -14 Y s 1620 194 m -7 Y s 1682 194 m
 -7 Y s 1744 194 m -7 Y s 1806 194 m -7 Y s 1868 201 m -14 Y s 1930 194 m -7 Y s 1992 194 m -7 Y s 2054 194 m -7 Y s 2116 194 m -7 Y s 2178 201 m -14 Y s
 gsave  2254 561 2 2 C 227.111 118.64 t 0 r /Helvetica findfont 78.1689 sf 0 0 m (1000) show NC gr 
 gsave  2254 561 2 2 C 538.964 118.64 t 0 r /Helvetica findfont 78.1689 sf 0 0 m (1500) show NC gr 
 gsave  2254 561 2 2 C 847.428 118.64 t 0 r /Helvetica findfont 78.1689 sf 0 0 m (2000) show NC gr 
 gsave  2254 561 2 2 C 1159.28 118.64 t 0 r /Helvetica findfont 78.1689 sf 0 0 m (2500) show NC gr 
 gsave  2254 561 2 2 C 1467.74 118.64 t 0 r /Helvetica findfont 78.1689 sf 0 0 m (3000) show NC gr 
 gsave  2254 561 2 2 C 1779.6 118.64 t 0 r /Helvetica findfont 78.1689 sf 0 0 m (3500) show NC gr 
 gsave  2254 561 2 2 C 2088.06 118.64 t 0 r /Helvetica findfont 78.1689 sf 0 0 m (4000) show NC gr  318 545 m 1860 X s 318 531 m 14 Y s 380 538 m 7 Y s 442 538 m 7 Y s 504 538 m 7 Y s 566 538 m 7 Y s 628 531 m 14 Y s 690 538 m 7 Y s 752 538 m 7 Y s
 814 538 m 7 Y s 876 538 m 7 Y s 938 531 m 14 Y s 1000 538 m 7 Y s 1062 538 m 7 Y s 1124 538 m 7 Y s 1186 538 m 7 Y s 1248 531 m 14 Y s 1310 538 m 7 Y s 1372 538 m 7 Y s 1434 538 m 7 Y s 1496 538 m 7 Y s 1558 531 m 14 Y s 1620 538 m 7 Y s 1682 538 m
 7 Y s 1744 538 m 7 Y s 1806 538 m 7 Y s 1868 531 m 14 Y s 1930 538 m 7 Y s 1992 538 m 7 Y s 2054 538 m 7 Y s 2116 538 m 7 Y s 2178 531 m 14 Y s 318 187 m 358 Y s
 gsave  2254 561 2 2 C 166.096 284.736 t 90 r /Helvetica findfont 67.9729 sf 0 0 m (Data/SM) show NC gr  361 203 m -43 X s 339 220 m -21 X s 339 236 m -21 X s 339 252 m -21 X s 339 268 m -21 X s 361 285 m -43 X s 339 301 m -21 X s 339 317 m -21 X s
 339 334 m -21 X s 339 350 m -21 X s 361 366 m -43 X s 339 382 m -21 X s 339 399 m -21 X s 339 415 m -21 X s 339 431 m -21 X s 361 447 m -43 X s 339 464 m -21 X s 339 480 m -21 X s 339 496 m -21 X s 339 512 m -21 X s 361 529 m -43 X s 361 203 m -43 X
 s 339 187 m -21 X s 361 529 m -43 X s
 gsave  2254 561 2 2 C 261.008 183.044 t 0 r /Helvetica findfont 57.777 sf 0 0 m (0) show NC gr 
 gsave  2254 561 2 2 C 213.552 261.008 t 0 r /Helvetica findfont 57.777 sf 0 0 m (0.5) show NC gr 
 gsave  2254 561 2 2 C 271.177 342.361 t 0 r /Helvetica findfont 57.777 sf 0 0 m (1) show NC gr 
 gsave  2254 561 2 2 C 213.552 423.714 t 0 r /Helvetica findfont 57.777 sf 0 0 m (1.5) show NC gr 
 gsave  2254 561 2 2 C 261.008 505.067 t 0 r /Helvetica findfont 57.777 sf 0 0 m (2) show NC gr  2178 187 m 358 Y s 2135 203 m 43 X s 2157 220 m 21 X s 2157 236 m 21 X s 2157 252 m 21 X s 2157 268 m 21 X s 2135 285 m 43 X s 2157 301 m 21 X s 2157 317
 m 21 X s 2157 334 m 21 X s 2157 350 m 21 X s 2135 366 m 43 X s 2157 382 m 21 X s 2157 399 m 21 X s 2157 415 m 21 X s 2157 431 m 21 X s 2135 447 m 43 X s 2157 464 m 21 X s 2157 480 m 21 X s 2157 496 m 21 X s 2157 512 m 21 X s 2135 529 m 43 X s 2135
 203 m 43 X s 2157 187 m 21 X s 2135 529 m 43 X s 9 lw 876 363 m 1 Y s 876 364 m cl s 876 336 m -1 Y s 876 335 m cl s 1000 361 m 4 Y s 1000 365 m cl s 1000 333 m -4 Y s 1000 329 m cl s 1124 373 m 13 Y s 1124 386 m cl s 1124 346 m -13 Y s 1124 333 m
 cl s 1248 392 m 21 Y s 1248 413 m cl s 1248 365 m -20 Y s 1248 345 m cl s 1372 363 m 26 Y s 1372 389 m cl s 1372 336 m -25 Y s 1372 311 m cl s 1496 352 m 36 Y s 1496 388 m cl s 1496 325 m -33 Y s 1496 292 m cl s 1620 321 m 42 Y s 1620 363 m cl s
 1620 294 m -36 Y s 1620 258 m cl s 1744 314 m 66 Y s 1744 380 m cl s 1744 287 m -49 Y s 1744 238 m cl s 1868 298 m 90 Y s 1868 388 m cl s 1868 270 m -53 Y s 1868 217 m cl s 1992 509 m 36 Y s 1992 545 m cl s 1992 482 m -175 Y s 1992 307 m cl s 3 lw
 380 360 504 362 628 368 752 372 876 349 1000 347 1124 359 1248 379 1372 350 1496 338 1620 307 1744 301 1868 284 1992 496 14 { m20} R 9 lw 1 0 0 c 6 lw black 3 lw 1 0 0 c 2178 227 m s 2178 255 m s 2178 284 m s 2178 312 m s 2178 341 m -15 -15 d s 2178
 369 m -44 -43 d s 2178 398 m -72 -72 d s 2158 407 m -81 -81 d s 2130 407 m -76 -75 d s 2101 407 m -75 -75 d s 2072 407 m -75 -75 d s 2037 400 m -68 -68 d s 2008 400 m -68 -68 d s 1980 400 m -70 -69 d s 1951 400 m -69 -69 d s 1923 401 m -70 -70 d s
 1894 401 m -70 -70 d s 1866 401 m -60 -59 d s 1837 401 m -57 -57 d s 1808 401 m -2 -2 d s 1796 388 m -45 -44 d s 1767 388 m -45 -44 d s 1738 388 m -44 -44 d s 1709 388 m -48 -48 d s 1682 390 m -50 -50 d s 1656 392 m -53 -52 d s 1628 392 m -53 -52 d
 s 1599 392 m -50 -49 d s 1570 392 m -49 -49 d s 1538 389 m -46 -46 d s 1510 389 m -47 -46 d s 1481 389 m -46 -46 d s 1452 389 m -40 -40 d s 1418 383 m -35 -34 d s 1389 383 m -35 -34 d s 1360 383 m -34 -34 d s 1332 383 m -33 -32 d s 1301 381 m -31
 -30 d s 1272 381 m -31 -30 d s 1244 381 m -31 -30 d s 1215 381 m -31 -30 d s 1186 381 m s 1186 381 m -31 -30 d s 1157 381 m -30 -30 d s 1129 381 m -31 -30 d s 1100 381 m -31 -30 d s 1071 381 m -27 -27 d s 1040 378 m -25 -24 d s 1011 378 m -25 -24 d
 s 982 378 m -24 -24 d s 953 378 m -22 -22 d s 923 376 m -21 -20 d s 894 376 m -20 -20 d s 865 376 m -20 -20 d s 837 376 m -21 -20 d s 808 376 m -20 -20 d s 779 376 m -20 -20 d s 750 376 m -19 -20 d s 722 376 m -20 -20 d s 693 376 m -17 -17 d s 662
 373 m -15 -14 d s 633 373 m -15 -14 d s 604 373 m -14 -14 d s 576 373 m -16 -16 d s 548 375 m -17 -18 d s 520 375 m -18 -18 d s 491 375 m -18 -18 d s 462 375 m -17 -18 d s 318 231 m s 433 374 m -16 -16 d s 318 259 m s 404 374 m -16 -16 d s 318 288 m
 s 376 374 m -17 -16 d s 318 317 m s 347 374 m -16 -16 d s 318 345 m s 318 374 m s 6 lw black[ 4 8] 0 sd 3 lw 318 447 m 1860 X s 318 285 m 1860 X s 1 0 0 c[  12 12 ] 0 sd 6 lw 318 366 m 1860 X s
 gr  gr showpage
end
%%EOF
