%!PS-Adobe-2.0 EPSF-2.0
%%BoundingBox:  0 0 567 521
%%Title: Distributions/meffInc_distrCRW_MB-GGo_afterFit_forThesis.eps: canvas
%%Creator: ROOT Version 6.04/16
%%CreationDate: Tue May 19 22:04:25 2020
%%DocumentNeededResources: ProcSet (FontSetInit)
%%EndComments
%%BeginProlog
80 dict begin
/s {stroke} def /l {lineto} def /m {moveto} def /t {translate} def
/r {rotate} def /rl {roll}  def /R {repeat} def
/d {rlineto} def /rm {rmoveto} def /gr {grestore} def /f {eofill} def
/c {setrgbcolor} def /black {0 setgray} def /sd {setdash} def
/cl {closepath} def /sf {scalefont setfont} def /lw {setlinewidth} def
/box {m dup 0 exch d exch 0 d 0 exch neg d cl} def
/NC{systemdict begin initclip end}def/C{NC box clip newpath}def
/bl {box s} def /bf {gsave box gsave f grestore 1 lw [] 0 sd s grestore} def /Y { 0 exch d} def /X { 0 d} def 
/K {{pop pop 0 moveto} exch kshow} bind def
/ita {/ang 15 def gsave [1 0 ang dup sin exch cos div 1 0 0] concat} def 
/mp {newpath /y exch def /x exch def} def
/side {[w .77 mul w .23 mul] .385 w mul sd w 0 l currentpoint t -144 r} def
/mr {mp x y w2 0 360 arc} def /m24 {mr s} def /m20 {mr f} def
/mb {mp x y w2 add m w2 neg 0 d 0 w neg d w 0 d 0 w d cl} def
/mt {mp x y w2 add m w2 neg w neg d w 0 d cl} def
/m21 {mb f} def /m25 {mb s} def /m22 {mt f} def /m26{mt s} def
/m23 {mp x y w2 sub m w2 w d w neg 0 d cl f} def
/m27 {mp x y w2 add m w3 neg w2 neg d w3 w2 neg d w3 w2 d cl s} def
/m28 {mp x w2 sub y w2 sub w3 add m w3 0 d  0 w3 neg d w3 0 d 0 w3 d w3 0 d  0 w3 d w3 neg 0 d 0 w3 d w3 neg 0 d 0 w3 neg d w3 neg 0 d cl s } def
/m29 {mp gsave x w2 sub y w2 add w3 sub m currentpoint t 4 {side} repeat cl fill gr} def
/m30 {mp gsave x w2 sub y w2 add w3 sub m currentpoint t 4 {side} repeat cl s gr} def
/m31 {mp x y w2 sub m 0 w d x w2 sub y m w 0 d x w2 sub y w2 add m w w neg d x w2 sub y w2 sub m w w d s} def
/m32 {mp x y w2 sub m w2 w d w neg 0 d cl s} def
/m33 {mp x y w2 add m w3 neg w2 neg d w3 w2 neg d w3 w2 d cl f} def
/m34 {mp x w2 sub y w2 sub w3 add m w3 0 d  0 w3 neg d w3 0 d 0 w3 d w3 0 d  0 w3 d w3 neg 0 d 0 w3 d w3 neg 0 d 0 w3 neg d w3 neg 0 d cl f } def
/m2 {mp x y w2 sub m 0 w d x w2 sub y m w 0 d s} def
/m5 {mp x w2 sub y w2 sub m w w d x w2 sub y w2 add m w w neg d s} def
%%IncludeResource: ProcSet (FontSetInit)
%%IncludeResource: font Times-Roman
%%IncludeResource: font Times-Italic
%%IncludeResource: font Times-Bold
%%IncludeResource: font Times-BoldItalic
%%IncludeResource: font Helvetica
%%IncludeResource: font Helvetica-Oblique
%%IncludeResource: font Helvetica-Bold
%%IncludeResource: font Helvetica-BoldOblique
%%IncludeResource: font Courier
%%IncludeResource: font Courier-Oblique
%%IncludeResource: font Courier-Bold
%%IncludeResource: font Courier-BoldOblique
%%IncludeResource: font Symbol
%%IncludeResource: font ZapfDingbats
/reEncode {exch findfont dup length dict begin {1 index /FID eq  {pop pop} {def} ifelse } forall /Encoding exch def currentdict end dup /FontName get exch definefont pop } def [/Times-Bold /Times-Italic /Times-BoldItalic /Helvetica /Helvetica-Oblique
 /Helvetica-Bold /Helvetica-BoldOblique /Courier /Courier-Oblique /Courier-Bold /Courier-BoldOblique /Times-Roman /AvantGarde-Book /AvantGarde-BookOblique /AvantGarde-Demi /AvantGarde-DemiOblique /Bookman-Demi /Bookman-DemiItalic /Bookman-Light
 /Bookman-LightItalic /Helvetica-Narrow /Helvetica-Narrow-Bold /Helvetica-Narrow-BoldOblique /Helvetica-Narrow-Oblique /NewCenturySchlbk-Roman /NewCenturySchlbk-Bold /NewCenturySchlbk-BoldItalic /NewCenturySchlbk-Italic /Palatino-Bold
 /Palatino-BoldItalic /Palatino-Italic /Palatino-Roman ] {ISOLatin1Encoding reEncode } forall
%%EndProlog
%%BeginSetup
%%EndSetup
newpath  gsave  .25 .25 scale  gsave  0 0 t black[  ] 0 sd 3 lw 1 1 1 c 2268 2085 0 0 bf black 1 1 1 c 2263 1770 2 313 bf black 1 1 1 c black 1860 1145 319 584 bl 1 1 1 c black 1860 1145 319 584 bl 6 lw 1 1 1 c black 381 936 m 15 Y s 381 978 m 8 Y s
 3 lw /w 33 def /w2 {w 2 div} def /w3 {w 3 div} def 381 965 m20 6 lw 505 1051 m 1 Y s 3 lw 505 1065 m20 6 lw 629 1046 m 1 Y s 3 lw 629 1061 m20 6 lw 3 lw 753 1081 m20 6 lw 877 1030 m 2 Y s 877 1060 m s 3 lw 877 1046 m20 6 lw 1001 993 m 7 Y s 1001
 1027 m 2 Y s 3 lw 1001 1013 m20 6 lw 1125 966 m 10 Y s 1125 1003 m 5 Y s 3 lw 1125 990 m20 6 lw 1249 944 m 14 Y s 1249 985 m 7 Y s 3 lw 1249 972 m20 6 lw 1373 890 m 25 Y s 1373 942 m 12 Y s 3 lw 1373 928 m20 6 lw 1497 790 m 56 Y s 1497 873 m 23 Y s
 3 lw 1497 860 m20 6 lw 1621 853 m 34 Y s 1621 915 m 16 Y s 3 lw 1621 901 m20 6 lw 1745 790 m 56 Y s 1745 873 m 23 Y s 3 lw 1745 860 m20 6 lw 1869 790 m 56 Y s 1869 873 m 23 Y s 3 lw 1869 860 m20 6 lw 1993 727 m 86 Y s 1993 840 m 30 Y s 3 lw 1993 827
 m20 6 lw 2117 727 m 86 Y s 2117 840 m 30 Y s 3 lw 2117 827 m20 6 lw 3 lw 319 584 m 1860 X s
 gsave  2263 1770 2 313 C 1949.08 369.478 t 0 r /Helvetica findfont 81.3741 sf 0 0 m ( [GeV]) show NC gr 
 gsave  2263 1770 2 313 C 1888.07 342.361 t 0 r /Helvetica findfont 54.2494 sf 0 0 m (eff) show NC gr 
 gsave  2263 1770 2 313 C 1823.66 369.478 t 0 r /Helvetica findfont 81.3741 sf 0 0 m (m) show NC gr  319 584 m cl s 381 584 m cl s 443 584 m cl s 505 584 m cl s 567 584 m cl s 629 584 m cl s 691 584 m cl s 753 584 m cl s 815 584 m cl s 877 584 m cl s
 939 584 m cl s 1001 584 m cl s 1063 584 m cl s 1125 584 m cl s 1187 584 m cl s 1249 584 m cl s 1311 584 m cl s 1373 584 m cl s 1435 584 m cl s 1497 584 m cl s 1559 584 m cl s 1621 584 m cl s 1683 584 m cl s 1745 584 m cl s 1807 584 m cl s 1869 584 m
 cl s 1931 584 m cl s 1993 584 m cl s 2055 584 m cl s 2117 584 m cl s 2179 584 m cl s 319 1729 m 1860 X s 319 1729 m cl s 381 1729 m cl s 443 1729 m cl s 505 1729 m cl s 567 1729 m cl s 629 1729 m cl s 691 1729 m cl s 753 1729 m cl s 815 1729 m cl s
 877 1729 m cl s 939 1729 m cl s 1001 1729 m cl s 1063 1729 m cl s 1125 1729 m cl s 1187 1729 m cl s 1249 1729 m cl s 1311 1729 m cl s 1373 1729 m cl s 1435 1729 m cl s 1497 1729 m cl s 1559 1729 m cl s 1621 1729 m cl s 1683 1729 m cl s 1745 1729 m
 cl s 1807 1729 m cl s 1869 1729 m cl s 1931 1729 m cl s 1993 1729 m cl s 2055 1729 m cl s 2117 1729 m cl s 2179 1729 m cl s 319 584 m 1145 Y s
 gsave  2263 1770 2 313 C 166.096 1091.49 t 90 r /Helvetica findfont 81.3741 sf 0 0 m (Events / 200 GeV) show NC gr  341 640 m -22 X s 341 673 m -22 X s 341 697 m -22 X s 341 715 m -22 X s 341 729 m -22 X s 341 742 m -22 X s 341 753 m -22 X s 341 762
 m -22 X s 363 771 m -44 X s
 gsave  2263 1770 2 313 C 300.555 743.564 t 0 r  -36 0 t /Helvetica findfont 64.4212 sf 0 0 m (1) show NC gr  341 827 m -22 X s 341 860 m -22 X s 341 883 m -22 X s 341 901 m -22 X s 341 916 m -22 X s 341 928 m -22 X s 341 939 m -22 X s 341 949 m -22
 X s 363 957 m -44 X s
 gsave  2263 1770 2 313 C 300.555 929.935 t 0 r  -73 0 t /Helvetica findfont 64.4212 sf 0 0 m (10) show NC gr  341 1013 m -22 X s 341 1046 m -22 X s 341 1069 m -22 X s 341 1087 m -22 X s 341 1102 m -22 X s 341 1115 m -22 X s 341 1125 m -22 X s 341
 1135 m -22 X s 363 1143 m -44 X s
 gsave  2263 1770 2 313 C 274.567 1142.33 t 0 r /Helvetica findfont 44.0776 sf 0 0 m (2) show NC gr 
 gsave  2263 1770 2 313 C 203.383 1115.21 t 0 r /Helvetica findfont 64.4212 sf 0 0 m (10) show NC gr  341 1200 m -22 X s 341 1232 m -22 X s 341 1256 m -22 X s 341 1274 m -22 X s 341 1288 m -22 X s 341 1301 m -22 X s 341 1312 m -22 X s 341 1321 m -22
 X s 363 1330 m -44 X s
 gsave  2263 1770 2 313 C 274.567 1332.16 t 0 r /Helvetica findfont 44.0776 sf 0 0 m (3) show NC gr 
 gsave  2263 1770 2 313 C 203.383 1301.65 t 0 r /Helvetica findfont 64.4212 sf 0 0 m (10) show NC gr  341 1386 m -22 X s 341 1419 m -22 X s 341 1442 m -22 X s 341 1460 m -22 X s 341 1475 m -22 X s 341 1487 m -22 X s 341 1498 m -22 X s 341 1508 m -22
 X s 363 1516 m -44 X s
 gsave  2263 1770 2 313 C 274.567 1515.2 t 0 r /Helvetica findfont 44.0776 sf 0 0 m (4) show NC gr 
 gsave  2263 1770 2 313 C 203.383 1488.08 t 0 r /Helvetica findfont 64.4212 sf 0 0 m (10) show NC gr  341 1572 m -22 X s 341 1605 m -22 X s 341 1628 m -22 X s 341 1646 m -22 X s 341 1661 m -22 X s 341 1674 m -22 X s 341 1684 m -22 X s 341 1694 m -22
 X s 363 1703 m -44 X s
 gsave  2263 1770 2 313 C 274.567 1705.02 t 0 r /Helvetica findfont 44.0776 sf 0 0 m (5) show NC gr 
 gsave  2263 1770 2 313 C 203.383 1674.52 t 0 r /Helvetica findfont 64.4212 sf 0 0 m (10) show NC gr  2179 584 m 1145 Y s 2157 640 m 22 X s 2157 673 m 22 X s 2157 697 m 22 X s 2157 715 m 22 X s 2157 729 m 22 X s 2157 742 m 22 X s 2157 753 m 22 X s
 2157 762 m 22 X s 2136 771 m 43 X s 2157 827 m 22 X s 2157 860 m 22 X s 2157 883 m 22 X s 2157 901 m 22 X s 2157 916 m 22 X s 2157 928 m 22 X s 2157 939 m 22 X s 2157 949 m 22 X s 2136 957 m 43 X s 2157 1013 m 22 X s 2157 1046 m 22 X s 2157 1069 m
 22 X s 2157 1087 m 22 X s 2157 1102 m 22 X s 2157 1115 m 22 X s 2157 1125 m 22 X s 2157 1135 m 22 X s 2136 1143 m 43 X s 2157 1200 m 22 X s 2157 1232 m 22 X s 2157 1256 m 22 X s 2157 1274 m 22 X s 2157 1288 m 22 X s 2157 1301 m 22 X s 2157 1312 m 22
 X s 2157 1321 m 22 X s 2136 1330 m 43 X s 2157 1386 m 22 X s 2157 1419 m 22 X s 2157 1442 m 22 X s 2157 1460 m 22 X s 2157 1475 m 22 X s 2157 1487 m 22 X s 2157 1498 m 22 X s 2157 1508 m 22 X s 2136 1516 m 43 X s 2157 1572 m 22 X s 2157 1605 m 22 X
 s 2157 1628 m 22 X s 2157 1646 m 22 X s 2157 1661 m 22 X s 2157 1674 m 22 X s 2157 1684 m 22 X s 2157 1694 m 22 X s 2136 1703 m 43 X s 0.4 0.6 1 c black 0.4 0.6 1 c 319 584 m 381 Y 124 X 103 Y 124 X 10 Y 124 X -13 Y 124 X -24 Y 124 X -20 Y 124 X -30
 Y 124 X -24 Y 124 X -35 Y 124 X -23 Y 124 X -17 Y 124 X -59 Y 124 X -24 Y 124 X -35 Y 124 X 87 Y 124 X -277 Y f black 0.4 0.6 1 c black 319 965 m 124 X 103 Y 124 X 10 Y 124 X -13 Y 124 X -24 Y 124 X -20 Y 124 X -30 Y 124 X -24 Y 124 X -35 Y 124 X
 -23 Y 124 X -17 Y 124 X -59 Y 124 X -24 Y 124 X -35 Y 124 X 87 Y 124 X s 0.999 0.999 0.999 c black 0.999 0.999 0.999 c 319 584 m 304 Y 124 X 102 Y 124 X 8 Y 124 X -31 Y 124 X -24 Y 124 X -35 Y 124 X -34 Y 124 X -23 Y 124 X -54 Y 124 X -10 Y 124 X
 -25 Y 124 X -60 Y 124 X 19 Y 124 X -62 Y 124 X 28 Y 124 X -103 Y f black 0.999 0.999 0.999 c black 319 888 m 124 X 102 Y 124 X 8 Y 124 X -31 Y 124 X -24 Y 124 X -35 Y 124 X -34 Y 124 X -23 Y 124 X -54 Y 124 X -10 Y 124 X -25 Y 124 X -60 Y 124 X 19 Y
 124 X -62 Y 124 X 28 Y 124 X s 1 1 1 c black 319 888 m 124 X 102 Y 124 X 8 Y 124 X -31 Y 124 X -24 Y 124 X -35 Y 124 X -34 Y 124 X -23 Y 124 X -54 Y 124 X -10 Y 124 X -25 Y 124 X -60 Y 124 X 19 Y 124 X -62 Y 124 X 28 Y 124 X s 0.6 1 0.6 c black 0.6
 1 0.6 c 319 584 m 304 Y 124 X 102 Y 124 X 8 Y 124 X -31 Y 124 X -24 Y 124 X -35 Y 124 X -34 Y 124 X -23 Y 124 X -54 Y 124 X -10 Y 124 X -25 Y 124 X -60 Y 124 X 19 Y 124 X -62 Y 124 X 28 Y 124 X -103 Y f black 0.6 1 0.6 c black 319 888 m 124 X 102 Y
 124 X 8 Y 124 X -31 Y 124 X -24 Y 124 X -35 Y 124 X -34 Y 124 X -23 Y 124 X -54 Y 124 X -10 Y 124 X -25 Y 124 X -60 Y 124 X 19 Y 124 X -62 Y 124 X 28 Y 124 X s 0.999 0.999 0.999 c black 0.999 0.999 0.999 c 319 584 m 177 Y 124 X 93 Y 124 X 42 Y 124 X
 -38 Y 124 X 2 Y 124 X -52 Y 124 X 10 Y 124 X -25 Y 124 X -45 Y 124 X -19 Y 124 X 2 Y 124 X -139 Y 124 X 122 Y 124 X -128 Y 124 X 73 Y 124 X -75 Y f black 0.999 0.999 0.999 c black 319 761 m 124 X 93 Y 124 X 42 Y 124 X -38 Y 124 X 2 Y 124 X -52 Y 124
 X 10 Y 124 X -25 Y 124 X -45 Y 124 X -19 Y 124 X 2 Y 124 X -139 Y 124 X 122 Y 124 X -128 Y 124 X 73 Y 124 X s 1 1 1 c black 319 761 m 124 X 93 Y 124 X 42 Y 124 X -38 Y 124 X 2 Y 124 X -52 Y 124 X 10 Y 124 X -25 Y 124 X -45 Y 124 X -19 Y 124 X 2 Y
 124 X -139 Y 124 X 122 Y 124 X -128 Y 124 X 73 Y 124 X s 1 0.8 0.4 c black 1 0.8 0.4 c 319 584 m 177 Y 124 X 93 Y 124 X 42 Y 124 X -38 Y 124 X 2 Y 124 X -52 Y 124 X 10 Y 124 X -25 Y 124 X -45 Y 124 X -19 Y 124 X 2 Y 124 X -139 Y 124 X 122 Y 124 X
 -128 Y 124 X 73 Y 124 X -75 Y f black 1 0.8 0.4 c black 319 761 m 124 X 93 Y 124 X 42 Y 124 X -38 Y 124 X 2 Y 124 X -52 Y 124 X 10 Y 124 X -25 Y 124 X -45 Y 124 X -19 Y 124 X 2 Y 124 X -139 Y 124 X 122 Y 124 X -128 Y 124 X 73 Y 124 X s 0.999 0.999
 0.999 c black 0.999 0.999 0.999 c 319 584 m 171 Y 124 X 95 Y 124 X 41 Y 124 X -38 Y 124 X 2 Y 124 X -54 Y 124 X 15 Y 124 X -27 Y 124 X -48 Y 124 X -19 Y 124 X 7 Y 124 X -145 Y 124 X 129 Y 124 X -127 Y 124 X 73 Y 124 X -75 Y f black 0.999 0.999 0.999
 c black 319 755 m 124 X 95 Y 124 X 41 Y 124 X -38 Y 124 X 2 Y 124 X -54 Y 124 X 15 Y 124 X -27 Y 124 X -48 Y 124 X -19 Y 124 X 7 Y 124 X -145 Y 124 X 129 Y 124 X -127 Y 124 X 73 Y 124 X s 1 1 1 c black 319 755 m 124 X 95 Y 124 X 41 Y 124 X -38 Y 124
 X 2 Y 124 X -54 Y 124 X 15 Y 124 X -27 Y 124 X -48 Y 124 X -19 Y 124 X 7 Y 124 X -145 Y 124 X 129 Y 124 X -127 Y 124 X 73 Y 124 X s 1 0.4 0.6 c black 1 0.4 0.6 c 319 584 m 171 Y 124 X 95 Y 124 X 41 Y 124 X -38 Y 124 X 2 Y 124 X -54 Y 124 X 15 Y 124
 X -27 Y 124 X -48 Y 124 X -19 Y 124 X 7 Y 124 X -145 Y 124 X 129 Y 124 X -127 Y 124 X 73 Y 124 X -75 Y f black 1 0.4 0.6 c black 319 755 m 124 X 95 Y 124 X 41 Y 124 X -38 Y 124 X 2 Y 124 X -54 Y 124 X 15 Y 124 X -27 Y 124 X -48 Y 124 X -19 Y 124 X 7
 Y 124 X -145 Y 124 X 129 Y 124 X -127 Y 124 X 73 Y 124 X s 1 0 0 c 6 lw 1 1 1 c black 1 0 0 c 319 965 m 124 X 103 Y 124 X 10 Y 124 X -13 Y 124 X -24 Y 124 X -20 Y 124 X -30 Y 124 X -24 Y 124 X -35 Y 124 X -23 Y 124 X -17 Y 124 X -59 Y 124 X -24 Y
 124 X -35 Y 124 X 87 Y 124 X s black 3 lw 1 0 0 c 1 lw << /PatternType 1 /PaintType 2 /TilingType 1 /BBox [ 0 0 100 100 ] /XStep 100 /YStep 100 /PaintProc { begin gsave 0 100 m 100 0 l s gr end } >> [ 0.24 0 0 0.24 0 0 ] makepattern /P05 exch def
 /cs {[/Pattern /DeviceRGB] setcolorspace} def /FA {f [/DeviceRGB] setcolorspace} def cs 1 0 0 P05 setcolor 319 584 m 393 Y 124 X 98 Y 124 X 10 Y 124 X -14 Y 124 X -24 Y 124 X -20 Y 124 X -29 Y 124 X -23 Y 124 X -35 Y 124 X -21 Y 124 X -15 Y 124 X
 -59 Y 124 X -22 Y 124 X -29 Y 124 X 80 Y 124 X -290 Y 261 Y -124 X -96 Y -124 X 42 Y -124 X 28 Y -124 X 60 Y -124 X 19 Y -124 X 26 Y -124 X 35 Y -124 X 24 Y -124 X 31 Y -124 X 20 Y -124 X 25 Y -124 X 12 Y -124 X -11 Y -124 X -108 Y -124 X -368 Y FA
 6 lw 1 1 1 c 15 lw 381 985 m 2 Y s 381 987 m cl s 381 944 m -8 Y s 381 936 m cl s 1125 970 m -4 Y s 1125 966 m cl s 1249 992 m 1 Y s 1249 993 m cl s 1249 951 m -6 Y s 1249 945 m cl s 1373 949 m 6 Y s 1373 955 m cl s 1373 908 m -17 Y s 1373 891 m cl
 s 1497 880 m 19 Y s 1497 899 m cl s 1497 839 m -43 Y s 1497 796 m cl s 1621 921 m 11 Y s 1621 932 m cl s 1621 881 m -26 Y s 1621 855 m cl s 1745 880 m 19 Y s 1745 899 m cl s 1745 839 m -43 Y s 1745 796 m cl s 1869 880 m 19 Y s 1869 899 m cl s 1869
 839 m -43 Y s 1869 796 m cl s 1993 847 m 28 Y s 1993 875 m cl s 1993 806 m -63 Y s 1993 743 m cl s 2117 847 m 28 Y s 2117 875 m cl s 2117 806 m -63 Y s 2117 743 m cl s black 1 1 1 c 3 lw /w 43 def /w2 {w 2 div} def /w3 {w 3 div} def 381 965 505 1065
 629 1061 753 1081 877 1046 1001 1013 1125 990 1249 972 1373 928 1497 860 1621 901 1745 860 1869 860 1993 827 2117 827 15 { m20} R 15 lw black 6 lw 1 1 1 c black 381 936 m 15 Y s 381 978 m 8 Y s 3 lw /w 33 def /w2 {w 2 div} def /w3 {w 3 div} def 381
 965 m20 6 lw 505 1051 m 1 Y s 3 lw 505 1065 m20 6 lw 629 1046 m 1 Y s 3 lw 629 1061 m20 6 lw 3 lw 753 1081 m20 6 lw 877 1030 m 2 Y s 877 1060 m s 3 lw 877 1046 m20 6 lw 1001 993 m 7 Y s 1001 1027 m 2 Y s 3 lw 1001 1013 m20 6 lw 1125 966 m 10 Y s
 1125 1003 m 5 Y s 3 lw 1125 990 m20 6 lw 1249 944 m 14 Y s 1249 985 m 7 Y s 3 lw 1249 972 m20 6 lw 1373 890 m 25 Y s 1373 942 m 12 Y s 3 lw 1373 928 m20 6 lw 1497 790 m 56 Y s 1497 873 m 23 Y s 3 lw 1497 860 m20 6 lw 1621 853 m 34 Y s 1621 915 m 16
 Y s 3 lw 1621 901 m20 6 lw 1745 790 m 56 Y s 1745 873 m 23 Y s 3 lw 1745 860 m20 6 lw 1869 790 m 56 Y s 1869 873 m 23 Y s 3 lw 1869 860 m20 6 lw 1993 727 m 86 Y s 1993 840 m 30 Y s 3 lw 1993 827 m20 6 lw 2117 727 m 86 Y s 2117 840 m 30 Y s 3 lw 2117
 827 m20 6 lw 381 978 m 9 Y s 381 987 m cl s 381 951 m -15 Y s 381 936 m cl s 505 1052 m -1 Y s 505 1051 m cl s 629 1047 m -1 Y s 629 1046 m cl s 877 1060 m s 877 1060 m cl s 877 1032 m -2 Y s 877 1030 m cl s 1001 1027 m 3 Y s 1001 1030 m cl s 1001
 1000 m -7 Y s 1001 993 m cl s 1125 1003 m 6 Y s 1125 1009 m cl s 1125 976 m -10 Y s 1125 966 m cl s 1249 985 m 8 Y s 1249 993 m cl s 1249 958 m -13 Y s 1249 945 m cl s 1373 942 m 13 Y s 1373 955 m cl s 1373 915 m -24 Y s 1373 891 m cl s 1497 873 m
 26 Y s 1497 899 m cl s 1497 846 m -50 Y s 1497 796 m cl s 1621 915 m 17 Y s 1621 932 m cl s 1621 887 m -32 Y s 1621 855 m cl s 1745 873 m 26 Y s 1745 899 m cl s 1745 846 m -50 Y s 1745 796 m cl s 1869 873 m 26 Y s 1869 899 m cl s 1869 846 m -50 Y s
 1869 796 m cl s 1993 840 m 35 Y s 1993 875 m cl s 1993 813 m -70 Y s 1993 743 m cl s 2117 840 m 35 Y s 2117 875 m cl s 2117 813 m -70 Y s 2117 743 m cl s 3 lw 381 965 505 1065 629 1061 753 1081 877 1046 1001 1013 1125 990 1249 972 1373 928 1497 860
 1621 901 1745 860 1869 860 1993 827 2117 827 15 { m20} R 6 lw 3 lw 319 584 m 1860 X s 319 584 m cl s 381 584 m cl s 443 584 m cl s 505 584 m cl s 567 584 m cl s 629 584 m cl s 691 584 m cl s 753 584 m cl s 815 584 m cl s 877 584 m cl s 939 584 m cl
 s 1001 584 m cl s 1063 584 m cl s 1125 584 m cl s 1187 584 m cl s 1249 584 m cl s 1311 584 m cl s 1373 584 m cl s 1435 584 m cl s 1497 584 m cl s 1559 584 m cl s 1621 584 m cl s 1683 584 m cl s 1745 584 m cl s 1807 584 m cl s 1869 584 m cl s 1931
 584 m cl s 1993 584 m cl s 2055 584 m cl s 2117 584 m cl s 2179 584 m cl s 319 1729 m 1860 X s 319 1729 m cl s 381 1729 m cl s 443 1729 m cl s 505 1729 m cl s 567 1729 m cl s 629 1729 m cl s 691 1729 m cl s 753 1729 m cl s 815 1729 m cl s 877 1729 m
 cl s 939 1729 m cl s 1001 1729 m cl s 1063 1729 m cl s 1125 1729 m cl s 1187 1729 m cl s 1249 1729 m cl s 1311 1729 m cl s 1373 1729 m cl s 1435 1729 m cl s 1497 1729 m cl s 1559 1729 m cl s 1621 1729 m cl s 1683 1729 m cl s 1745 1729 m cl s 1807
 1729 m cl s 1869 1729 m cl s 1931 1729 m cl s 1993 1729 m cl s 2055 1729 m cl s 2117 1729 m cl s 2179 1729 m cl s 319 584 m 1145 Y s 341 640 m -22 X s 341 673 m -22 X s 341 697 m -22 X s 341 715 m -22 X s 341 729 m -22 X s 341 742 m -22 X s 341 753
 m -22 X s 341 762 m -22 X s 363 771 m -44 X s 341 827 m -22 X s 341 860 m -22 X s 341 883 m -22 X s 341 901 m -22 X s 341 916 m -22 X s 341 928 m -22 X s 341 939 m -22 X s 341 949 m -22 X s 363 957 m -44 X s 341 1013 m -22 X s 341 1046 m -22 X s 341
 1069 m -22 X s 341 1087 m -22 X s 341 1102 m -22 X s 341 1115 m -22 X s 341 1125 m -22 X s 341 1135 m -22 X s 363 1143 m -44 X s 341 1200 m -22 X s 341 1232 m -22 X s 341 1256 m -22 X s 341 1274 m -22 X s 341 1288 m -22 X s 341 1301 m -22 X s 341
 1312 m -22 X s 341 1321 m -22 X s 363 1330 m -44 X s 341 1386 m -22 X s 341 1419 m -22 X s 341 1442 m -22 X s 341 1460 m -22 X s 341 1475 m -22 X s 341 1487 m -22 X s 341 1498 m -22 X s 341 1508 m -22 X s 363 1516 m -44 X s 341 1572 m -22 X s 341
 1605 m -22 X s 341 1628 m -22 X s 341 1646 m -22 X s 341 1661 m -22 X s 341 1674 m -22 X s 341 1684 m -22 X s 341 1694 m -22 X s 363 1703 m -44 X s 2179 584 m 1145 Y s 2157 640 m 22 X s 2157 673 m 22 X s 2157 697 m 22 X s 2157 715 m 22 X s 2157 729
 m 22 X s 2157 742 m 22 X s 2157 753 m 22 X s 2157 762 m 22 X s 2136 771 m 43 X s 2157 827 m 22 X s 2157 860 m 22 X s 2157 883 m 22 X s 2157 901 m 22 X s 2157 916 m 22 X s 2157 928 m 22 X s 2157 939 m 22 X s 2157 949 m 22 X s 2136 957 m 43 X s 2157
 1013 m 22 X s 2157 1046 m 22 X s 2157 1069 m 22 X s 2157 1087 m 22 X s 2157 1102 m 22 X s 2157 1115 m 22 X s 2157 1125 m 22 X s 2157 1135 m 22 X s 2136 1143 m 43 X s 2157 1200 m 22 X s 2157 1232 m 22 X s 2157 1256 m 22 X s 2157 1274 m 22 X s 2157
 1288 m 22 X s 2157 1301 m 22 X s 2157 1312 m 22 X s 2157 1321 m 22 X s 2136 1330 m 43 X s 2157 1386 m 22 X s 2157 1419 m 22 X s 2157 1442 m 22 X s 2157 1460 m 22 X s 2157 1475 m 22 X s 2157 1487 m 22 X s 2157 1498 m 22 X s 2157 1508 m 22 X s 2136
 1516 m 43 X s 2157 1572 m 22 X s 2157 1605 m 22 X s 2157 1628 m 22 X s 2157 1646 m 22 X s 2157 1661 m 22 X s 2157 1674 m 22 X s 2157 1684 m 22 X s 2157 1694 m 22 X s 2136 1703 m 43 X s
 gsave  2263 1770 2 313 C 406.765 1447.41 t 0 r /Helvetica findfont 64.4212 sf 0 0 m (CRW for MB\255GGo) show NC gr 
 gsave  2263 1770 2 313 C 1464.36 1616.89 t 0 r /Helvetica findfont 64.4212 sf 0 0 m (SM Total) show NC gr  1 1 1 c 1338 1603 m 107 X 74 Y -107 X f 1 0 0 c 6 lw 1338 1640 m 107 X s black
 gsave  2263 1770 2 313 C 1464.36 1511.81 t 0 r /Helvetica findfont 64.4212 sf 0 0 m (Data) show NC gr  1391 1502 m 64 Y s 3 lw 1391 1534 m20 6 lw
 gsave  2263 1770 2 313 C 1464.36 1406.73 t 0 r /Helvetica findfont 64.4212 sf 0 0 m (W+jets) show NC gr  0.4 0.6 1 c 3 lw 1338 1391 m 107 X 74 Y -107 X f 6 lw black 3 lw 1338 1465 m 107 X s 1338 1391 m 107 X s 1445 1391 m 74 Y s 1338 1391 m 74 Y s
 gsave  2263 1770 2 313 C 1498.25 1298.26 t 0 r /Helvetica findfont 64.4212 sf 0 0 m (\(+EW\) & single top) show NC gr 
 gsave  2263 1770 2 313 C 1481.3 1298.26 t 0 r /Helvetica findfont 64.4212 sf 0 0 m (t) show NC gr  1481 1349 m 17 X s
 gsave  2263 1770 2 313 C 1464.36 1298.26 t 0 r /Helvetica findfont 64.4212 sf 0 0 m (t) show NC gr  0.6 1 0.6 c 1338 1284 m 107 X 75 Y -107 X f black 1338 1359 m 107 X s 1338 1284 m 107 X s 1445 1284 m 75 Y s 1338 1284 m 75 Y s
 gsave  2263 1770 2 313 C 1464.36 1193.18 t 0 r /Helvetica findfont 64.4212 sf 0 0 m (Z+jets) show NC gr  1 0.8 0.4 c 1338 1178 m 107 X 75 Y -107 X f black 1338 1253 m 107 X s 1338 1178 m 107 X s 1445 1178 m 75 Y s 1338 1178 m 75 Y s
 gsave  2263 1770 2 313 C 1464.36 1088.1 t 0 r /Helvetica findfont 64.4212 sf 0 0 m (Diboson) show NC gr  1 0.4 0.6 c 1338 1072 m 107 X 74 Y -107 X f black 1338 1146 m 107 X s 1338 1072 m 107 X s 1445 1072 m 74 Y s 1338 1072 m 74 Y s
 gsave  2263 1770 2 313 C 911.832 1566.05 t 0 r /Helvetica findfont 44.0776 sf 0 0 m (\2551) show NC gr 
 gsave  2263 1770 2 313 C 471.17 1535.54 t 0 r /Helvetica findfont 64.4212 sf 0 0 m (=13TeV, 139 fb) show NC gr 
 gsave  2263 1770 2 313 C 440.662 1535.54 t 0 r /Helvetica findfont 64.4212 sf 0 0 m (s) show NC gr  6 lw 420 1573 m 7 -41 d s 3 lw 427 1532 m 7 61 d s 434 1593 m 37 X s 1 1 1 c 2254 561 2 2 bf black 1 1 1 c black 1860 358 318 187 bl 1 1 1 c black
 1860 358 318 187 bl 6 lw 1 1 1 c black 3 lw 380 365 m20 6 lw 3 lw 504 360 m20 6 lw 3 lw 628 334 m20 6 lw 3 lw 752 400 m20 6 lw 3 lw 876 377 m20 6 lw 3 lw 1000 352 m20 6 lw 3 lw 1124 364 m20 6 lw 3 lw 1248 375 m20 6 lw 3 lw 1372 358 m20 6 lw 3 lw
 1496 292 m20 6 lw 3 lw 1620 384 m20 6 lw 3 lw 1744 429 m20 6 lw 3 lw 1868 509 m20 6 lw 3 lw 1992 514 m20 6 lw 3 lw 2116 310 m20 6 lw 3 lw 318 187 m 1860 X s
 gsave  2254 561 2 2 C 1959.25 33.8971 t 0 r /Helvetica findfont 78.1689 sf 0 0 m ( [GeV]) show NC gr 
 gsave  2254 561 2 2 C 1901.63 13.5588 t 0 r /Helvetica findfont 50.9797 sf 0 0 m (eff) show NC gr 
 gsave  2254 561 2 2 C 1840.61 33.8971 t 0 r /Helvetica findfont 78.1689 sf 0 0 m (m) show NC gr  318 201 m -14 Y s 380 194 m -7 Y s 442 194 m -7 Y s 504 194 m -7 Y s 566 194 m -7 Y s 628 201 m -14 Y s 690 194 m -7 Y s 752 194 m -7 Y s 814 194 m -7 Y
 s 876 194 m -7 Y s 938 201 m -14 Y s 1000 194 m -7 Y s 1062 194 m -7 Y s 1124 194 m -7 Y s 1186 194 m -7 Y s 1248 201 m -14 Y s 1310 194 m -7 Y s 1372 194 m -7 Y s 1434 194 m -7 Y s 1496 194 m -7 Y s 1558 201 m -14 Y s 1620 194 m -7 Y s 1682 194 m
 -7 Y s 1744 194 m -7 Y s 1806 194 m -7 Y s 1868 201 m -14 Y s 1930 194 m -7 Y s 1992 194 m -7 Y s 2054 194 m -7 Y s 2116 194 m -7 Y s 2178 201 m -14 Y s
 gsave  2254 561 2 2 C 227.111 118.64 t 0 r /Helvetica findfont 78.1689 sf 0 0 m (1000) show NC gr 
 gsave  2254 561 2 2 C 538.964 118.64 t 0 r /Helvetica findfont 78.1689 sf 0 0 m (1500) show NC gr 
 gsave  2254 561 2 2 C 847.428 118.64 t 0 r /Helvetica findfont 78.1689 sf 0 0 m (2000) show NC gr 
 gsave  2254 561 2 2 C 1159.28 118.64 t 0 r /Helvetica findfont 78.1689 sf 0 0 m (2500) show NC gr 
 gsave  2254 561 2 2 C 1467.74 118.64 t 0 r /Helvetica findfont 78.1689 sf 0 0 m (3000) show NC gr 
 gsave  2254 561 2 2 C 1779.6 118.64 t 0 r /Helvetica findfont 78.1689 sf 0 0 m (3500) show NC gr 
 gsave  2254 561 2 2 C 2088.06 118.64 t 0 r /Helvetica findfont 78.1689 sf 0 0 m (4000) show NC gr  318 545 m 1860 X s 318 531 m 14 Y s 380 538 m 7 Y s 442 538 m 7 Y s 504 538 m 7 Y s 566 538 m 7 Y s 628 531 m 14 Y s 690 538 m 7 Y s 752 538 m 7 Y s
 814 538 m 7 Y s 876 538 m 7 Y s 938 531 m 14 Y s 1000 538 m 7 Y s 1062 538 m 7 Y s 1124 538 m 7 Y s 1186 538 m 7 Y s 1248 531 m 14 Y s 1310 538 m 7 Y s 1372 538 m 7 Y s 1434 538 m 7 Y s 1496 538 m 7 Y s 1558 531 m 14 Y s 1620 538 m 7 Y s 1682 538 m
 7 Y s 1744 538 m 7 Y s 1806 538 m 7 Y s 1868 531 m 14 Y s 1930 538 m 7 Y s 1992 538 m 7 Y s 2054 538 m 7 Y s 2116 538 m 7 Y s 2178 531 m 14 Y s 318 187 m 358 Y s
 gsave  2254 561 2 2 C 166.096 284.736 t 90 r /Helvetica findfont 67.9729 sf 0 0 m (Data/SM) show NC gr  361 203 m -43 X s 339 220 m -21 X s 339 236 m -21 X s 339 252 m -21 X s 339 268 m -21 X s 361 285 m -43 X s 339 301 m -21 X s 339 317 m -21 X s
 339 334 m -21 X s 339 350 m -21 X s 361 366 m -43 X s 339 382 m -21 X s 339 399 m -21 X s 339 415 m -21 X s 339 431 m -21 X s 361 447 m -43 X s 339 464 m -21 X s 339 480 m -21 X s 339 496 m -21 X s 339 512 m -21 X s 361 529 m -43 X s 361 203 m -43 X
 s 339 187 m -21 X s 361 529 m -43 X s
 gsave  2254 561 2 2 C 261.008 183.044 t 0 r /Helvetica findfont 57.777 sf 0 0 m (0) show NC gr 
 gsave  2254 561 2 2 C 213.552 261.008 t 0 r /Helvetica findfont 57.777 sf 0 0 m (0.5) show NC gr 
 gsave  2254 561 2 2 C 271.177 342.361 t 0 r /Helvetica findfont 57.777 sf 0 0 m (1) show NC gr 
 gsave  2254 561 2 2 C 213.552 423.714 t 0 r /Helvetica findfont 57.777 sf 0 0 m (1.5) show NC gr 
 gsave  2254 561 2 2 C 261.008 505.067 t 0 r /Helvetica findfont 57.777 sf 0 0 m (2) show NC gr  2178 187 m 358 Y s 2135 203 m 43 X s 2157 220 m 21 X s 2157 236 m 21 X s 2157 252 m 21 X s 2157 268 m 21 X s 2135 285 m 43 X s 2157 301 m 21 X s 2157 317
 m 21 X s 2157 334 m 21 X s 2157 350 m 21 X s 2135 366 m 43 X s 2157 382 m 21 X s 2157 399 m 21 X s 2157 415 m 21 X s 2157 431 m 21 X s 2135 447 m 43 X s 2157 464 m 21 X s 2157 480 m 21 X s 2157 496 m 21 X s 2157 512 m 21 X s 2135 529 m 43 X s 2135
 203 m 43 X s 2157 187 m 21 X s 2135 529 m 43 X s 9 lw 380 378 m 37 Y s 380 415 m cl s 380 351 m -34 Y s 380 317 m cl s 504 374 m 12 Y s 504 386 m cl s 504 347 m -12 Y s 504 335 m cl s 628 348 m 8 Y s 628 356 m cl s 628 321 m -8 Y s 628 313 m cl s
 752 414 m 15 Y s 752 429 m cl s 752 386 m -15 Y s 752 371 m cl s 876 391 m 18 Y s 876 409 m cl s 876 364 m -18 Y s 876 346 m cl s 1000 365 m 20 Y s 1000 385 m cl s 1000 338 m -19 Y s 1000 319 m cl s 1124 377 m 29 Y s 1124 406 m cl s 1124 350 m -27 Y
 s 1124 323 m cl s 1248 389 m 37 Y s 1248 426 m cl s 1248 361 m -35 Y s 1248 326 m cl s 1372 372 m 47 Y s 1372 419 m cl s 1372 344 m -43 Y s 1372 301 m cl s 1496 305 m 43 Y s 1496 348 m cl s 1496 278 m -34 Y s 1496 244 m cl s 1620 398 m 72 Y s 1620
 470 m cl s 1620 371 m -65 Y s 1620 306 m cl s 1744 443 m 102 Y s 1744 545 m cl s 1744 415 m -108 Y s 1744 307 m cl s 1868 522 m 23 Y s 1868 545 m cl s 1868 495 m -152 Y s 1868 343 m cl s 1992 528 m 17 Y s 1992 545 m cl s 1992 500 m -186 Y s 1992 314
 m cl s 2116 324 m 73 Y s 2116 397 m cl s 2116 297 m -56 Y s 2116 241 m cl s 3 lw 380 365 504 360 628 334 752 400 876 377 1000 352 1124 364 1248 375 1372 358 1496 292 1620 384 1744 429 1868 509 1992 514 2116 310 15 { m20} R 9 lw 1 0 0 c 6 lw black 3
 lw 1 0 0 c 2178 227 m s 2178 255 m s 2178 284 m s 2178 312 m s 2178 341 m -3 -3 d s 2178 369 m -31 -31 d s 2174 394 m -56 -56 d s 2146 394 m -57 -56 d s 2117 394 m -56 -56 d s 2054 332 m -9 -10 d s 2088 394 m -72 -72 d s 2060 394 m -73 -72 d s 2047
 410 m -89 -88 d s 2018 410 m -88 -88 d s 1990 410 m -76 -75 d s 1961 410 m -76 -75 d s 1932 410 m -2 -2 d s 1920 397 m -64 -62 d s 1891 397 m -63 -62 d s 1862 397 m -57 -57 d s 1834 397 m -58 -57 d s 1799 392 m -52 -52 d s 1771 392 m -53 -52 d s
 1742 392 m -52 -52 d s 1713 392 m -50 -50 d s 1685 392 m -51 -50 d s 1654 390 m -49 -48 d s 1626 390 m -49 -48 d s 1597 390 m -45 -45 d s 1568 390 m -45 -45 d s 1536 387 m -42 -42 d s 1507 387 m -42 -42 d s 1479 387 m -42 -42 d s 1450 387 m -38 -37
 d s 1417 382 m -33 -32 d s 1388 382 m -33 -32 d s 1359 382 m -33 -32 d s 1331 382 m -33 -32 d s 1302 382 m -33 -32 d s 1273 382 m -32 -32 d s 1244 382 m -32 -32 d s 1216 382 m -32 -32 d s 1187 382 m -32 -32 d s 1158 382 m -32 -32 d s 1129 382 m -31
 -32 d s 1100 382 m -31 -32 d s 1072 382 m -30 -30 d s 1041 380 m -27 -28 d s 1012 380 m -27 -28 d s 984 380 m -28 -28 d s 955 380 m -27 -27 d s 925 379 m -25 -26 d s 897 379 m -26 -26 d s 868 379 m -26 -26 d s 839 379 m -26 -26 d s 811 379 m -26 -26
 d s 782 379 m -26 -26 d s 753 379 m -26 -26 d s 725 379 m -26 -26 d s 696 379 m -26 -26 d s 668 379 m -27 -26 d s 639 379 m -27 -26 d s 610 379 m -26 -26 d s 582 379 m -29 -29 d s 555 382 m -31 -32 d s 526 382 m -31 -32 d s 498 382 m -31 -32 d s 469
 382 m -41 -41 d s 318 231 m s 442 383 m -42 -42 d s 318 259 m s 421 391 m -50 -50 d s 318 288 m s 393 391 m -51 -50 d s 318 317 m s 364 391 m -46 -46 d s 335 391 m -17 -17 d s 6 lw black[ 4 8] 0 sd 3 lw 318 447 m 1860 X s 318 285 m 1860 X s 1 0 0 c[
  12 12 ] 0 sd 6 lw 318 366 m 1860 X s
 gr  gr showpage
end
%%EOF
