%!PS-Adobe-2.0 EPSF-2.0
%%BoundingBox:  0 0 567 521
%%Title: Distributions/meffInc_distrSR_MB-GGd_afterFit_forThesis.eps: canvas
%%Creator: ROOT Version 6.04/16
%%CreationDate: Tue May 19 22:05:21 2020
%%DocumentNeededResources: ProcSet (FontSetInit)
%%EndComments
%%BeginProlog
80 dict begin
/s {stroke} def /l {lineto} def /m {moveto} def /t {translate} def
/r {rotate} def /rl {roll}  def /R {repeat} def
/d {rlineto} def /rm {rmoveto} def /gr {grestore} def /f {eofill} def
/c {setrgbcolor} def /black {0 setgray} def /sd {setdash} def
/cl {closepath} def /sf {scalefont setfont} def /lw {setlinewidth} def
/box {m dup 0 exch d exch 0 d 0 exch neg d cl} def
/NC{systemdict begin initclip end}def/C{NC box clip newpath}def
/bl {box s} def /bf {gsave box gsave f grestore 1 lw [] 0 sd s grestore} def /Y { 0 exch d} def /X { 0 d} def 
/K {{pop pop 0 moveto} exch kshow} bind def
/ita {/ang 15 def gsave [1 0 ang dup sin exch cos div 1 0 0] concat} def 
/mp {newpath /y exch def /x exch def} def
/side {[w .77 mul w .23 mul] .385 w mul sd w 0 l currentpoint t -144 r} def
/mr {mp x y w2 0 360 arc} def /m24 {mr s} def /m20 {mr f} def
/mb {mp x y w2 add m w2 neg 0 d 0 w neg d w 0 d 0 w d cl} def
/mt {mp x y w2 add m w2 neg w neg d w 0 d cl} def
/m21 {mb f} def /m25 {mb s} def /m22 {mt f} def /m26{mt s} def
/m23 {mp x y w2 sub m w2 w d w neg 0 d cl f} def
/m27 {mp x y w2 add m w3 neg w2 neg d w3 w2 neg d w3 w2 d cl s} def
/m28 {mp x w2 sub y w2 sub w3 add m w3 0 d  0 w3 neg d w3 0 d 0 w3 d w3 0 d  0 w3 d w3 neg 0 d 0 w3 d w3 neg 0 d 0 w3 neg d w3 neg 0 d cl s } def
/m29 {mp gsave x w2 sub y w2 add w3 sub m currentpoint t 4 {side} repeat cl fill gr} def
/m30 {mp gsave x w2 sub y w2 add w3 sub m currentpoint t 4 {side} repeat cl s gr} def
/m31 {mp x y w2 sub m 0 w d x w2 sub y m w 0 d x w2 sub y w2 add m w w neg d x w2 sub y w2 sub m w w d s} def
/m32 {mp x y w2 sub m w2 w d w neg 0 d cl s} def
/m33 {mp x y w2 add m w3 neg w2 neg d w3 w2 neg d w3 w2 d cl f} def
/m34 {mp x w2 sub y w2 sub w3 add m w3 0 d  0 w3 neg d w3 0 d 0 w3 d w3 0 d  0 w3 d w3 neg 0 d 0 w3 d w3 neg 0 d 0 w3 neg d w3 neg 0 d cl f } def
/m2 {mp x y w2 sub m 0 w d x w2 sub y m w 0 d s} def
/m5 {mp x w2 sub y w2 sub m w w d x w2 sub y w2 add m w w neg d s} def
%%IncludeResource: ProcSet (FontSetInit)
%%IncludeResource: font Times-Roman
%%IncludeResource: font Times-Italic
%%IncludeResource: font Times-Bold
%%IncludeResource: font Times-BoldItalic
%%IncludeResource: font Helvetica
%%IncludeResource: font Helvetica-Oblique
%%IncludeResource: font Helvetica-Bold
%%IncludeResource: font Helvetica-BoldOblique
%%IncludeResource: font Courier
%%IncludeResource: font Courier-Oblique
%%IncludeResource: font Courier-Bold
%%IncludeResource: font Courier-BoldOblique
%%IncludeResource: font Symbol
%%IncludeResource: font ZapfDingbats
/reEncode {exch findfont dup length dict begin {1 index /FID eq  {pop pop} {def} ifelse } forall /Encoding exch def currentdict end dup /FontName get exch definefont pop } def [/Times-Bold /Times-Italic /Times-BoldItalic /Helvetica /Helvetica-Oblique
 /Helvetica-Bold /Helvetica-BoldOblique /Courier /Courier-Oblique /Courier-Bold /Courier-BoldOblique /Times-Roman /AvantGarde-Book /AvantGarde-BookOblique /AvantGarde-Demi /AvantGarde-DemiOblique /Bookman-Demi /Bookman-DemiItalic /Bookman-Light
 /Bookman-LightItalic /Helvetica-Narrow /Helvetica-Narrow-Bold /Helvetica-Narrow-BoldOblique /Helvetica-Narrow-Oblique /NewCenturySchlbk-Roman /NewCenturySchlbk-Bold /NewCenturySchlbk-BoldItalic /NewCenturySchlbk-Italic /Palatino-Bold
 /Palatino-BoldItalic /Palatino-Italic /Palatino-Roman ] {ISOLatin1Encoding reEncode } forall
%%EndProlog
%%BeginSetup
%%EndSetup
newpath  gsave  .25 .25 scale  gsave  0 0 t black[  ] 0 sd 3 lw 1 1 1 c 2268 2085 0 0 bf black 1 1 1 c 2263 1770 2 313 bf black 1 1 1 c black 1860 1145 319 584 bl 1 1 1 c black 1860 1145 319 584 bl 6 lw 1 1 1 c black 3 lw /w 33 def /w2 {w 2 div} def
 /w3 {w 3 div} def 381 1182 m20 6 lw 3 lw 505 1177 m20 6 lw 3 lw 629 1141 m20 6 lw 3 lw 753 1102 m20 6 lw 3 lw 877 1064 m20 6 lw 3 lw 1001 1020 m20 6 lw 3 lw 1125 1008 m20 6 lw 1249 949 m 2 Y s 3 lw 1249 964 m20 6 lw 1373 929 m 4 Y s 1373 960 m s 3
 lw 1373 946 m20 6 lw 1497 842 m 19 Y s 1497 888 m 8 Y s 3 lw 1497 875 m20 6 lw 1621 828 m 22 Y s 1621 878 m 9 Y s 3 lw 1621 864 m20 6 lw 1745 789 m 34 Y s 1745 850 m 14 Y s 3 lw 1745 836 m20 6 lw 1869 705 m 70 Y s 1869 803 m 23 Y s 3 lw 1869 789 m20
 6 lw 2117 705 m 70 Y s 2117 803 m 23 Y s 3 lw 2117 789 m20 6 lw 3 lw 319 584 m 1860 X s
 gsave  2263 1770 2 313 C 1949.08 369.478 t 0 r /Helvetica findfont 81.3741 sf 0 0 m ( [GeV]) show NC gr 
 gsave  2263 1770 2 313 C 1888.07 342.361 t 0 r /Helvetica findfont 54.2494 sf 0 0 m (eff) show NC gr 
 gsave  2263 1770 2 313 C 1823.66 369.478 t 0 r /Helvetica findfont 81.3741 sf 0 0 m (m) show NC gr  319 584 m cl s 381 584 m cl s 443 584 m cl s 505 584 m cl s 567 584 m cl s 629 584 m cl s 691 584 m cl s 753 584 m cl s 815 584 m cl s 877 584 m cl s
 939 584 m cl s 1001 584 m cl s 1063 584 m cl s 1125 584 m cl s 1187 584 m cl s 1249 584 m cl s 1311 584 m cl s 1373 584 m cl s 1435 584 m cl s 1497 584 m cl s 1559 584 m cl s 1621 584 m cl s 1683 584 m cl s 1745 584 m cl s 1807 584 m cl s 1869 584 m
 cl s 1931 584 m cl s 1993 584 m cl s 2055 584 m cl s 2117 584 m cl s 2179 584 m cl s 319 1729 m 1860 X s 319 1729 m cl s 381 1729 m cl s 443 1729 m cl s 505 1729 m cl s 567 1729 m cl s 629 1729 m cl s 691 1729 m cl s 753 1729 m cl s 815 1729 m cl s
 877 1729 m cl s 939 1729 m cl s 1001 1729 m cl s 1063 1729 m cl s 1125 1729 m cl s 1187 1729 m cl s 1249 1729 m cl s 1311 1729 m cl s 1373 1729 m cl s 1435 1729 m cl s 1497 1729 m cl s 1559 1729 m cl s 1621 1729 m cl s 1683 1729 m cl s 1745 1729 m
 cl s 1807 1729 m cl s 1869 1729 m cl s 1931 1729 m cl s 1993 1729 m cl s 2055 1729 m cl s 2117 1729 m cl s 2179 1729 m cl s 319 584 m 1145 Y s
 gsave  2263 1770 2 313 C 166.096 1091.49 t 90 r /Helvetica findfont 81.3741 sf 0 0 m (Events / 200 GeV) show NC gr  341 632 m -22 X s 341 659 m -22 X s 341 679 m -22 X s 341 694 m -22 X s 341 707 m -22 X s 341 717 m -22 X s 341 726 m -22 X s 341 734
 m -22 X s 363 742 m -44 X s
 gsave  2263 1770 2 313 C 300.555 714.512 t 0 r  -36 0 t /Helvetica findfont 64.4212 sf 0 0 m (1) show NC gr  341 789 m -22 X s 341 817 m -22 X s 341 836 m -22 X s 341 852 m -22 X s 341 864 m -22 X s 341 875 m -22 X s 341 884 m -22 X s 341 892 m -22
 X s 363 899 m -44 X s
 gsave  2263 1770 2 313 C 300.555 871.833 t 0 r  -73 0 t /Helvetica findfont 64.4212 sf 0 0 m (10) show NC gr  341 946 m -22 X s 341 974 m -22 X s 341 994 m -22 X s 341 1009 m -22 X s 341 1021 m -22 X s 341 1032 m -22 X s 341 1041 m -22 X s 341 1049
 m -22 X s 363 1056 m -44 X s
 gsave  2263 1770 2 313 C 274.567 1054.2 t 0 r /Helvetica findfont 44.0776 sf 0 0 m (2) show NC gr 
 gsave  2263 1770 2 313 C 203.383 1027.08 t 0 r /Helvetica findfont 64.4212 sf 0 0 m (10) show NC gr  341 1104 m -22 X s 341 1131 m -22 X s 341 1151 m -22 X s 341 1166 m -22 X s 341 1179 m -22 X s 341 1189 m -22 X s 341 1198 m -22 X s 341 1206 m -22
 X s 363 1214 m -44 X s
 gsave  2263 1770 2 313 C 274.567 1216.91 t 0 r /Helvetica findfont 44.0776 sf 0 0 m (3) show NC gr 
 gsave  2263 1770 2 313 C 203.383 1186.4 t 0 r /Helvetica findfont 64.4212 sf 0 0 m (10) show NC gr  341 1261 m -22 X s 341 1289 m -22 X s 341 1308 m -22 X s 341 1324 m -22 X s 341 1336 m -22 X s 341 1347 m -22 X s 341 1356 m -22 X s 341 1364 m -22 X
 s 363 1371 m -44 X s
 gsave  2263 1770 2 313 C 274.567 1369.44 t 0 r /Helvetica findfont 44.0776 sf 0 0 m (4) show NC gr 
 gsave  2263 1770 2 313 C 203.383 1342.33 t 0 r /Helvetica findfont 64.4212 sf 0 0 m (10) show NC gr  341 1418 m -22 X s 341 1446 m -22 X s 341 1466 m -22 X s 341 1481 m -22 X s 341 1493 m -22 X s 341 1504 m -22 X s 341 1513 m -22 X s 341 1521 m -22
 X s 363 1528 m -44 X s
 gsave  2263 1770 2 313 C 274.567 1528.76 t 0 r /Helvetica findfont 44.0776 sf 0 0 m (5) show NC gr 
 gsave  2263 1770 2 313 C 203.383 1498.25 t 0 r /Helvetica findfont 64.4212 sf 0 0 m (10) show NC gr  341 1576 m -22 X s 341 1603 m -22 X s 341 1623 m -22 X s 341 1638 m -22 X s 341 1651 m -22 X s 341 1661 m -22 X s 341 1670 m -22 X s 341 1678 m -22
 X s 363 1686 m -44 X s
 gsave  2263 1770 2 313 C 274.567 1688.08 t 0 r /Helvetica findfont 44.0776 sf 0 0 m (6) show NC gr 
 gsave  2263 1770 2 313 C 203.383 1657.57 t 0 r /Helvetica findfont 64.4212 sf 0 0 m (10) show NC gr  2179 584 m 1145 Y s 2157 632 m 22 X s 2157 659 m 22 X s 2157 679 m 22 X s 2157 694 m 22 X s 2157 707 m 22 X s 2157 717 m 22 X s 2157 726 m 22 X s
 2157 734 m 22 X s 2136 742 m 43 X s 2157 789 m 22 X s 2157 817 m 22 X s 2157 836 m 22 X s 2157 852 m 22 X s 2157 864 m 22 X s 2157 875 m 22 X s 2157 884 m 22 X s 2157 892 m 22 X s 2136 899 m 43 X s 2157 946 m 22 X s 2157 974 m 22 X s 2157 994 m 22 X
 s 2157 1009 m 22 X s 2157 1021 m 22 X s 2157 1032 m 22 X s 2157 1041 m 22 X s 2157 1049 m 22 X s 2136 1056 m 43 X s 2157 1104 m 22 X s 2157 1131 m 22 X s 2157 1151 m 22 X s 2157 1166 m 22 X s 2157 1179 m 22 X s 2157 1189 m 22 X s 2157 1198 m 22 X s
 2157 1206 m 22 X s 2136 1214 m 43 X s 2157 1261 m 22 X s 2157 1289 m 22 X s 2157 1308 m 22 X s 2157 1324 m 22 X s 2157 1336 m 22 X s 2157 1347 m 22 X s 2157 1356 m 22 X s 2157 1364 m 22 X s 2136 1371 m 43 X s 2157 1418 m 22 X s 2157 1446 m 22 X s
 2157 1466 m 22 X s 2157 1481 m 22 X s 2157 1493 m 22 X s 2157 1504 m 22 X s 2157 1513 m 22 X s 2157 1521 m 22 X s 2136 1528 m 43 X s 2157 1576 m 22 X s 2157 1603 m 22 X s 2157 1623 m 22 X s 2157 1638 m 22 X s 2157 1651 m 22 X s 2157 1661 m 22 X s
 2157 1670 m 22 X s 2157 1678 m 22 X s 2136 1686 m 43 X s 0.4 0.6 1 c black 0.4 0.6 1 c 319 584 m 590 Y 124 X 6 Y 124 X -34 Y 124 X -42 Y 124 X -38 Y 124 X -40 Y 124 X -38 Y 124 X -30 Y 124 X -39 Y 124 X -41 Y 124 X -37 Y 124 X -31 Y 124 X -38 Y 124
 X -29 Y 124 X 23 Y 124 X -182 Y f black 0.4 0.6 1 c black 319 1174 m 124 X 6 Y 124 X -34 Y 124 X -42 Y 124 X -38 Y 124 X -40 Y 124 X -38 Y 124 X -30 Y 124 X -39 Y 124 X -41 Y 124 X -37 Y 124 X -31 Y 124 X -38 Y 124 X -29 Y 124 X 23 Y 124 X s 0.999
 0.999 0.999 c black 0.999 0.999 0.999 c 319 584 m 572 Y 124 X 5 Y 124 X -33 Y 124 X -43 Y 124 X -37 Y 124 X -40 Y 124 X -38 Y 124 X -28 Y 124 X -38 Y 124 X -45 Y 124 X -32 Y 124 X -46 Y 124 X -17 Y 124 X -41 Y 124 X 26 Y 124 X -165 Y f black 0.999
 0.999 0.999 c black 319 1156 m 124 X 5 Y 124 X -33 Y 124 X -43 Y 124 X -37 Y 124 X -40 Y 124 X -38 Y 124 X -28 Y 124 X -38 Y 124 X -45 Y 124 X -32 Y 124 X -46 Y 124 X -17 Y 124 X -41 Y 124 X 26 Y 124 X s 1 1 1 c black 319 1156 m 124 X 5 Y 124 X -33
 Y 124 X -43 Y 124 X -37 Y 124 X -40 Y 124 X -38 Y 124 X -28 Y 124 X -38 Y 124 X -45 Y 124 X -32 Y 124 X -46 Y 124 X -17 Y 124 X -41 Y 124 X 26 Y 124 X s 0.6 1 0.6 c black 0.6 1 0.6 c 319 584 m 572 Y 124 X 5 Y 124 X -33 Y 124 X -43 Y 124 X -37 Y 124
 X -40 Y 124 X -38 Y 124 X -28 Y 124 X -38 Y 124 X -45 Y 124 X -32 Y 124 X -46 Y 124 X -17 Y 124 X -41 Y 124 X 26 Y 124 X -165 Y f black 0.6 1 0.6 c black 319 1156 m 124 X 5 Y 124 X -33 Y 124 X -43 Y 124 X -37 Y 124 X -40 Y 124 X -38 Y 124 X -28 Y
 124 X -38 Y 124 X -45 Y 124 X -32 Y 124 X -46 Y 124 X -17 Y 124 X -41 Y 124 X 26 Y 124 X s 0.999 0.999 0.999 c black 0.999 0.999 0.999 c 319 584 m 535 Y 124 X 12 Y 124 X -29 Y 124 X -36 Y 124 X -32 Y 124 X -38 Y 124 X -32 Y 124 X -27 Y 124 X -36 Y
 124 X -45 Y 124 X -33 Y 124 X -44 Y 124 X -16 Y 124 X -42 Y 124 X 25 Y 124 X -162 Y f black 0.999 0.999 0.999 c black 319 1119 m 124 X 12 Y 124 X -29 Y 124 X -36 Y 124 X -32 Y 124 X -38 Y 124 X -32 Y 124 X -27 Y 124 X -36 Y 124 X -45 Y 124 X -33 Y
 124 X -44 Y 124 X -16 Y 124 X -42 Y 124 X 25 Y 124 X s 1 1 1 c black 319 1119 m 124 X 12 Y 124 X -29 Y 124 X -36 Y 124 X -32 Y 124 X -38 Y 124 X -32 Y 124 X -27 Y 124 X -36 Y 124 X -45 Y 124 X -33 Y 124 X -44 Y 124 X -16 Y 124 X -42 Y 124 X 25 Y 124
 X s 1 0.8 0.4 c black 1 0.8 0.4 c 319 584 m 535 Y 124 X 12 Y 124 X -29 Y 124 X -36 Y 124 X -32 Y 124 X -38 Y 124 X -32 Y 124 X -27 Y 124 X -36 Y 124 X -45 Y 124 X -33 Y 124 X -44 Y 124 X -16 Y 124 X -42 Y 124 X 25 Y 124 X -162 Y f black 1 0.8 0.4 c
 black 319 1119 m 124 X 12 Y 124 X -29 Y 124 X -36 Y 124 X -32 Y 124 X -38 Y 124 X -32 Y 124 X -27 Y 124 X -36 Y 124 X -45 Y 124 X -33 Y 124 X -44 Y 124 X -16 Y 124 X -42 Y 124 X 25 Y 124 X s 0.999 0.999 0.999 c black 0.999 0.999 0.999 c 319 584 m
 388 Y 124 X 12 Y 124 X -21 Y 124 X -27 Y 124 X -33 Y 124 X -30 Y 124 X -31 Y 124 X -54 Y 124 X -12 Y 124 X -44 Y 124 X -51 Y 124 X -42 Y 124 X -34 Y 124 X -21 Y 124 X 67 Y 124 X -67 Y f black 0.999 0.999 0.999 c black 319 972 m 124 X 12 Y 124 X -21
 Y 124 X -27 Y 124 X -33 Y 124 X -30 Y 124 X -31 Y 124 X -54 Y 124 X -12 Y 124 X -44 Y 124 X -51 Y 124 X -42 Y 124 X -34 Y 124 X -21 Y 124 X 67 Y 124 X s 1 1 1 c black 319 972 m 124 X 12 Y 124 X -21 Y 124 X -27 Y 124 X -33 Y 124 X -30 Y 124 X -31 Y
 124 X -54 Y 124 X -12 Y 124 X -44 Y 124 X -51 Y 124 X -42 Y 124 X -34 Y 124 X -21 Y 124 X 67 Y 124 X s 1 0.4 0.6 c black 1 0.4 0.6 c 319 584 m 388 Y 124 X 12 Y 124 X -21 Y 124 X -27 Y 124 X -33 Y 124 X -30 Y 124 X -31 Y 124 X -54 Y 124 X -12 Y 124 X
 -44 Y 124 X -51 Y 124 X -42 Y 124 X -34 Y 124 X -21 Y 124 X 67 Y 124 X -67 Y f black 1 0.4 0.6 c black 319 972 m 124 X 12 Y 124 X -21 Y 124 X -27 Y 124 X -33 Y 124 X -30 Y 124 X -31 Y 124 X -54 Y 124 X -12 Y 124 X -44 Y 124 X -51 Y 124 X -42 Y 124 X
 -34 Y 124 X -21 Y 124 X 67 Y 124 X s 0.999 0.999 0.999 c black 0.999 0.999 0.999 c 319 584 m 117 Y 124 X 53 Y 124 X -94 Y 124 X 92 Y 124 X -112 Y 124 X 98 Y 124 X -122 Y 124 X -28 Y 124 X -4 Y 124 X 8 Y 124 X -8 Y 620 X f black 0.999 0.999 0.999 c
 black 319 701 m 124 X 53 Y 124 X -94 Y 124 X 92 Y 124 X -112 Y 124 X 98 Y 124 X -122 Y 124 X -28 Y 124 X -4 Y 124 X 8 Y 124 X -8 Y 620 X s 1 1 1 c black 319 701 m 124 X 53 Y 124 X -94 Y 124 X 92 Y 124 X -112 Y 124 X 98 Y 124 X -122 Y 124 X -28 Y 124
 X -4 Y 124 X 8 Y 124 X -8 Y 620 X s 0 0 0.4 c black 0 0 0.4 c 319 584 m 117 Y 124 X 53 Y 124 X -94 Y 124 X 92 Y 124 X -112 Y 124 X 98 Y 124 X -122 Y 124 X -28 Y 124 X -4 Y 124 X 8 Y 124 X -8 Y 620 X f black 0 0 0.4 c black 319 701 m 124 X 53 Y 124 X
 -94 Y 124 X 92 Y 124 X -112 Y 124 X 98 Y 124 X -122 Y 124 X -28 Y 124 X -4 Y 124 X 8 Y 124 X -8 Y 620 X s 1 0 0 c 6 lw 1 1 1 c black 1 0 0 c 319 1174 m 124 X 6 Y 124 X -34 Y 124 X -42 Y 124 X -38 Y 124 X -40 Y 124 X -38 Y 124 X -30 Y 124 X -39 Y 124
 X -41 Y 124 X -37 Y 124 X -31 Y 124 X -38 Y 124 X -29 Y 124 X 23 Y 124 X s black 3 lw 1 0 0 c 1 lw << /PatternType 1 /PaintType 2 /TilingType 1 /BBox [ 0 0 100 100 ] /XStep 100 /YStep 100 /PaintProc { begin gsave 0 100 m 100 0 l s gr end } >> [ 0.24
 0 0 0.24 0 0 ] makepattern /P05 exch def /cs {[/Pattern /DeviceRGB] setcolorspace} def /FA {f [/DeviceRGB] setcolorspace} def cs 1 0 0 P05 setcolor 319 584 m 593 Y 124 X 6 Y 124 X -34 Y 124 X -41 Y 124 X -38 Y 124 X -40 Y 124 X -38 Y 124 X -27 Y 124
 X -40 Y 124 X -41 Y 124 X -35 Y 124 X -30 Y 124 X -32 Y 124 X -27 Y 124 X 16 Y 124 X -192 Y 169 Y -124 X -34 Y -124 X 34 Y -124 X 46 Y -124 X 33 Y -124 X 38 Y -124 X 42 Y -124 X 39 Y -124 X 32 Y -124 X 38 Y -124 X 41 Y -124 X 38 Y -124 X 43 Y -124 X
 34 Y -124 X -6 Y -124 X -587 Y FA 6 lw 1 1 1 c 15 lw 1497 895 m 2 Y s 1497 897 m cl s 1497 854 m -11 Y s 1497 843 m cl s 1621 884 m 4 Y s 1621 888 m cl s 1621 844 m -14 Y s 1621 830 m cl s 1745 857 m 9 Y s 1745 866 m cl s 1745 816 m -24 Y s 1745 792
 m cl s 1869 809 m 21 Y s 1869 830 m cl s 1869 769 m -51 Y s 1869 718 m cl s 2117 809 m 21 Y s 2117 830 m cl s 2117 769 m -51 Y s 2117 718 m cl s black 1 1 1 c 3 lw /w 43 def /w2 {w 2 div} def /w3 {w 3 div} def 381 1182 505 1177 629 1141 753 1102 877
 1064 1001 1020 1125 1008 1249 964 1373 946 1497 875 1621 864 1745 836 1869 789 13 { m20} R 15 lw 3 lw 2117 789 m20 15 lw black 6 lw 1 1 1 c black 3 lw /w 33 def /w2 {w 2 div} def /w3 {w 3 div} def 381 1182 m20 6 lw 3 lw 505 1177 m20 6 lw 3 lw 629
 1141 m20 6 lw 3 lw 753 1102 m20 6 lw 3 lw 877 1064 m20 6 lw 3 lw 1001 1020 m20 6 lw 3 lw 1125 1008 m20 6 lw 1249 949 m 2 Y s 3 lw 1249 964 m20 6 lw 1373 929 m 4 Y s 1373 960 m s 3 lw 1373 946 m20 6 lw 1497 842 m 19 Y s 1497 888 m 8 Y s 3 lw 1497 875
 m20 6 lw 1621 828 m 22 Y s 1621 878 m 9 Y s 3 lw 1621 864 m20 6 lw 1745 789 m 34 Y s 1745 850 m 14 Y s 3 lw 1745 836 m20 6 lw 1869 705 m 70 Y s 1869 803 m 23 Y s 3 lw 1869 789 m20 6 lw 2117 705 m 70 Y s 2117 803 m 23 Y s 3 lw 2117 789 m20 6 lw 1249
 951 m -1 Y s 1249 950 m cl s 1373 960 m s 1373 960 m cl s 1373 933 m -4 Y s 1373 929 m cl s 1497 888 m 9 Y s 1497 897 m cl s 1497 861 m -18 Y s 1497 843 m cl s 1621 878 m 10 Y s 1621 888 m cl s 1621 850 m -20 Y s 1621 830 m cl s 1745 850 m 16 Y s
 1745 866 m cl s 1745 823 m -31 Y s 1745 792 m cl s 1869 803 m 27 Y s 1869 830 m cl s 1869 775 m -57 Y s 1869 718 m cl s 2117 803 m 27 Y s 2117 830 m cl s 2117 775 m -57 Y s 2117 718 m cl s 3 lw 381 1182 505 1177 629 1141 753 1102 877 1064 1001 1020
 1125 1008 1249 964 1373 946 1497 875 1621 864 1745 836 1869 789 13 { m20} R 6 lw 3 lw 2117 789 m20 6 lw 3 lw 319 584 m 1860 X s 319 584 m cl s 381 584 m cl s 443 584 m cl s 505 584 m cl s 567 584 m cl s 629 584 m cl s 691 584 m cl s 753 584 m cl s
 815 584 m cl s 877 584 m cl s 939 584 m cl s 1001 584 m cl s 1063 584 m cl s 1125 584 m cl s 1187 584 m cl s 1249 584 m cl s 1311 584 m cl s 1373 584 m cl s 1435 584 m cl s 1497 584 m cl s 1559 584 m cl s 1621 584 m cl s 1683 584 m cl s 1745 584 m
 cl s 1807 584 m cl s 1869 584 m cl s 1931 584 m cl s 1993 584 m cl s 2055 584 m cl s 2117 584 m cl s 2179 584 m cl s 319 1729 m 1860 X s 319 1729 m cl s 381 1729 m cl s 443 1729 m cl s 505 1729 m cl s 567 1729 m cl s 629 1729 m cl s 691 1729 m cl s
 753 1729 m cl s 815 1729 m cl s 877 1729 m cl s 939 1729 m cl s 1001 1729 m cl s 1063 1729 m cl s 1125 1729 m cl s 1187 1729 m cl s 1249 1729 m cl s 1311 1729 m cl s 1373 1729 m cl s 1435 1729 m cl s 1497 1729 m cl s 1559 1729 m cl s 1621 1729 m cl
 s 1683 1729 m cl s 1745 1729 m cl s 1807 1729 m cl s 1869 1729 m cl s 1931 1729 m cl s 1993 1729 m cl s 2055 1729 m cl s 2117 1729 m cl s 2179 1729 m cl s 319 584 m 1145 Y s 341 632 m -22 X s 341 659 m -22 X s 341 679 m -22 X s 341 694 m -22 X s 341
 707 m -22 X s 341 717 m -22 X s 341 726 m -22 X s 341 734 m -22 X s 363 742 m -44 X s 341 789 m -22 X s 341 817 m -22 X s 341 836 m -22 X s 341 852 m -22 X s 341 864 m -22 X s 341 875 m -22 X s 341 884 m -22 X s 341 892 m -22 X s 363 899 m -44 X s
 341 946 m -22 X s 341 974 m -22 X s 341 994 m -22 X s 341 1009 m -22 X s 341 1021 m -22 X s 341 1032 m -22 X s 341 1041 m -22 X s 341 1049 m -22 X s 363 1056 m -44 X s 341 1104 m -22 X s 341 1131 m -22 X s 341 1151 m -22 X s 341 1166 m -22 X s 341
 1179 m -22 X s 341 1189 m -22 X s 341 1198 m -22 X s 341 1206 m -22 X s 363 1214 m -44 X s 341 1261 m -22 X s 341 1289 m -22 X s 341 1308 m -22 X s 341 1324 m -22 X s 341 1336 m -22 X s 341 1347 m -22 X s 341 1356 m -22 X s 341 1364 m -22 X s 363
 1371 m -44 X s 341 1418 m -22 X s 341 1446 m -22 X s 341 1466 m -22 X s 341 1481 m -22 X s 341 1493 m -22 X s 341 1504 m -22 X s 341 1513 m -22 X s 341 1521 m -22 X s 363 1528 m -44 X s 341 1576 m -22 X s 341 1603 m -22 X s 341 1623 m -22 X s 341
 1638 m -22 X s 341 1651 m -22 X s 341 1661 m -22 X s 341 1670 m -22 X s 341 1678 m -22 X s 363 1686 m -44 X s 2179 584 m 1145 Y s 2157 632 m 22 X s 2157 659 m 22 X s 2157 679 m 22 X s 2157 694 m 22 X s 2157 707 m 22 X s 2157 717 m 22 X s 2157 726 m
 22 X s 2157 734 m 22 X s 2136 742 m 43 X s 2157 789 m 22 X s 2157 817 m 22 X s 2157 836 m 22 X s 2157 852 m 22 X s 2157 864 m 22 X s 2157 875 m 22 X s 2157 884 m 22 X s 2157 892 m 22 X s 2136 899 m 43 X s 2157 946 m 22 X s 2157 974 m 22 X s 2157 994
 m 22 X s 2157 1009 m 22 X s 2157 1021 m 22 X s 2157 1032 m 22 X s 2157 1041 m 22 X s 2157 1049 m 22 X s 2136 1056 m 43 X s 2157 1104 m 22 X s 2157 1131 m 22 X s 2157 1151 m 22 X s 2157 1166 m 22 X s 2157 1179 m 22 X s 2157 1189 m 22 X s 2157 1198 m
 22 X s 2157 1206 m 22 X s 2136 1214 m 43 X s 2157 1261 m 22 X s 2157 1289 m 22 X s 2157 1308 m 22 X s 2157 1324 m 22 X s 2157 1336 m 22 X s 2157 1347 m 22 X s 2157 1356 m 22 X s 2157 1364 m 22 X s 2136 1371 m 43 X s 2157 1418 m 22 X s 2157 1446 m 22
 X s 2157 1466 m 22 X s 2157 1481 m 22 X s 2157 1493 m 22 X s 2157 1504 m 22 X s 2157 1513 m 22 X s 2157 1521 m 22 X s 2136 1528 m 43 X s 2157 1576 m 22 X s 2157 1603 m 22 X s 2157 1623 m 22 X s 2157 1638 m 22 X s 2157 1651 m 22 X s 2157 1661 m 22 X
 s 2157 1670 m 22 X s 2157 1678 m 22 X s 2136 1686 m 43 X s
 gsave  2263 1770 2 313 C 406.765 1447.41 t 0 r /Helvetica findfont 64.4212 sf 0 0 m (SR for MB\255GGd) show NC gr 
 gsave  2263 1770 2 313 C 1464.36 1630.45 t 0 r /Helvetica findfont 64.4212 sf 0 0 m (SM Total) show NC gr  1 1 1 c 1338 1616 m 107 X 64 Y -107 X f 1 0 0 c 6 lw 1338 1648 m 107 X s black
 gsave  2263 1770 2 313 C 1464.36 1538.93 t 0 r /Helvetica findfont 64.4212 sf 0 0 m (Data) show NC gr  1391 1529 m 55 Y s 3 lw 1391 1557 m20 6 lw
 gsave  2263 1770 2 313 C 1464.36 1447.41 t 0 r /Helvetica findfont 64.4212 sf 0 0 m (W+jets) show NC gr  0.4 0.6 1 c 3 lw 1338 1434 m 107 X 64 Y -107 X f 6 lw black 3 lw 1338 1498 m 107 X s 1338 1434 m 107 X s 1445 1434 m 64 Y s 1338 1434 m 64 Y s
 gsave  2263 1770 2 313 C 1498.25 1355.88 t 0 r /Helvetica findfont 64.4212 sf 0 0 m (\(+EW\) & single top) show NC gr 
 gsave  2263 1770 2 313 C 1481.3 1355.88 t 0 r /Helvetica findfont 64.4212 sf 0 0 m (t) show NC gr  1481 1407 m 17 X s
 gsave  2263 1770 2 313 C 1464.36 1355.88 t 0 r /Helvetica findfont 64.4212 sf 0 0 m (t) show NC gr  0.6 1 0.6 c 1338 1343 m 107 X 63 Y -107 X f black 1338 1406 m 107 X s 1338 1343 m 107 X s 1445 1343 m 63 Y s 1338 1343 m 63 Y s
 gsave  2263 1770 2 313 C 1464.36 1264.36 t 0 r /Helvetica findfont 64.4212 sf 0 0 m (Z+jets) show NC gr  1 0.8 0.4 c 1338 1252 m 107 X 63 Y -107 X f black 1338 1315 m 107 X s 1338 1252 m 107 X s 1445 1252 m 63 Y s 1338 1252 m 63 Y s
 gsave  2263 1770 2 313 C 1464.36 1172.84 t 0 r /Helvetica findfont 64.4212 sf 0 0 m (Diboson) show NC gr  1 0.4 0.6 c 1338 1161 m 107 X 63 Y -107 X f black 1338 1224 m 107 X s 1338 1161 m 107 X s 1445 1161 m 63 Y s 1338 1161 m 63 Y s
 gsave  2263 1770 2 313 C 1464.36 1081.32 t 0 r /Helvetica findfont 64.4212 sf 0 0 m (Multi\255jet) show NC gr  0 0 0.4 c 1338 1070 m 107 X 63 Y -107 X f black 1338 1133 m 107 X s 1338 1070 m 107 X s 1445 1070 m 63 Y s 1338 1070 m 63 Y s
 gsave  2263 1770 2 313 C 911.832 1566.05 t 0 r /Helvetica findfont 44.0776 sf 0 0 m (\2551) show NC gr 
 gsave  2263 1770 2 313 C 471.17 1535.54 t 0 r /Helvetica findfont 64.4212 sf 0 0 m (=13TeV, 139 fb) show NC gr 
 gsave  2263 1770 2 313 C 440.662 1535.54 t 0 r /Helvetica findfont 64.4212 sf 0 0 m (s) show NC gr  6 lw 420 1573 m 7 -41 d s 3 lw 427 1532 m 7 61 d s 434 1593 m 37 X s 1 1 1 c 2254 561 2 2 bf black 1 1 1 c black 1860 358 318 187 bl 1 1 1 c black
 1860 358 318 187 bl 6 lw 1 1 1 c black 3 lw 380 385 m20 6 lw 3 lw 504 359 m20 6 lw 3 lw 628 355 m20 6 lw 3 lw 752 362 m20 6 lw 3 lw 876 361 m20 6 lw 3 lw 1000 353 m20 6 lw 3 lw 1124 421 m20 6 lw 3 lw 1248 382 m20 6 lw 3 lw 1372 447 m20 6 lw 3 lw
 1496 359 m20 6 lw 3 lw 1620 430 m20 6 lw 3 lw 1744 444 m20 6 lw 3 lw 1868 412 m20 6 lw 3 lw 2116 432 m20 6 lw 3 lw 318 187 m 1860 X s
 gsave  2254 561 2 2 C 1959.25 33.8971 t 0 r /Helvetica findfont 78.1689 sf 0 0 m ( [GeV]) show NC gr 
 gsave  2254 561 2 2 C 1901.63 13.5588 t 0 r /Helvetica findfont 50.9797 sf 0 0 m (eff) show NC gr 
 gsave  2254 561 2 2 C 1840.61 33.8971 t 0 r /Helvetica findfont 78.1689 sf 0 0 m (m) show NC gr  318 201 m -14 Y s 380 194 m -7 Y s 442 194 m -7 Y s 504 194 m -7 Y s 566 194 m -7 Y s 628 201 m -14 Y s 690 194 m -7 Y s 752 194 m -7 Y s 814 194 m -7 Y
 s 876 194 m -7 Y s 938 201 m -14 Y s 1000 194 m -7 Y s 1062 194 m -7 Y s 1124 194 m -7 Y s 1186 194 m -7 Y s 1248 201 m -14 Y s 1310 194 m -7 Y s 1372 194 m -7 Y s 1434 194 m -7 Y s 1496 194 m -7 Y s 1558 201 m -14 Y s 1620 194 m -7 Y s 1682 194 m
 -7 Y s 1744 194 m -7 Y s 1806 194 m -7 Y s 1868 201 m -14 Y s 1930 194 m -7 Y s 1992 194 m -7 Y s 2054 194 m -7 Y s 2116 194 m -7 Y s 2178 201 m -14 Y s
 gsave  2254 561 2 2 C 227.111 118.64 t 0 r /Helvetica findfont 78.1689 sf 0 0 m (1000) show NC gr 
 gsave  2254 561 2 2 C 538.964 118.64 t 0 r /Helvetica findfont 78.1689 sf 0 0 m (1500) show NC gr 
 gsave  2254 561 2 2 C 847.428 118.64 t 0 r /Helvetica findfont 78.1689 sf 0 0 m (2000) show NC gr 
 gsave  2254 561 2 2 C 1159.28 118.64 t 0 r /Helvetica findfont 78.1689 sf 0 0 m (2500) show NC gr 
 gsave  2254 561 2 2 C 1467.74 118.64 t 0 r /Helvetica findfont 78.1689 sf 0 0 m (3000) show NC gr 
 gsave  2254 561 2 2 C 1779.6 118.64 t 0 r /Helvetica findfont 78.1689 sf 0 0 m (3500) show NC gr 
 gsave  2254 561 2 2 C 2088.06 118.64 t 0 r /Helvetica findfont 78.1689 sf 0 0 m (4000) show NC gr  318 545 m 1860 X s 318 531 m 14 Y s 380 538 m 7 Y s 442 538 m 7 Y s 504 538 m 7 Y s 566 538 m 7 Y s 628 531 m 14 Y s 690 538 m 7 Y s 752 538 m 7 Y s
 814 538 m 7 Y s 876 538 m 7 Y s 938 531 m 14 Y s 1000 538 m 7 Y s 1062 538 m 7 Y s 1124 538 m 7 Y s 1186 538 m 7 Y s 1248 531 m 14 Y s 1310 538 m 7 Y s 1372 538 m 7 Y s 1434 538 m 7 Y s 1496 538 m 7 Y s 1558 531 m 14 Y s 1620 538 m 7 Y s 1682 538 m
 7 Y s 1744 538 m 7 Y s 1806 538 m 7 Y s 1868 531 m 14 Y s 1930 538 m 7 Y s 1992 538 m 7 Y s 2054 538 m 7 Y s 2116 538 m 7 Y s 2178 531 m 14 Y s 318 187 m 358 Y s
 gsave  2254 561 2 2 C 166.096 284.736 t 90 r /Helvetica findfont 67.9729 sf 0 0 m (Data/SM) show NC gr  361 203 m -43 X s 339 220 m -21 X s 339 236 m -21 X s 339 252 m -21 X s 339 268 m -21 X s 361 285 m -43 X s 339 301 m -21 X s 339 317 m -21 X s
 339 334 m -21 X s 339 350 m -21 X s 361 366 m -43 X s 339 382 m -21 X s 339 399 m -21 X s 339 415 m -21 X s 339 431 m -21 X s 361 447 m -43 X s 339 464 m -21 X s 339 480 m -21 X s 339 496 m -21 X s 339 512 m -21 X s 361 529 m -43 X s 361 203 m -43 X
 s 339 187 m -21 X s 361 529 m -43 X s
 gsave  2254 561 2 2 C 261.008 183.044 t 0 r /Helvetica findfont 57.777 sf 0 0 m (0) show NC gr 
 gsave  2254 561 2 2 C 213.552 261.008 t 0 r /Helvetica findfont 57.777 sf 0 0 m (0.5) show NC gr 
 gsave  2254 561 2 2 C 271.177 342.361 t 0 r /Helvetica findfont 57.777 sf 0 0 m (1) show NC gr 
 gsave  2254 561 2 2 C 213.552 423.714 t 0 r /Helvetica findfont 57.777 sf 0 0 m (1.5) show NC gr 
 gsave  2254 561 2 2 C 261.008 505.067 t 0 r /Helvetica findfont 57.777 sf 0 0 m (2) show NC gr  2178 187 m 358 Y s 2135 203 m 43 X s 2157 220 m 21 X s 2157 236 m 21 X s 2157 252 m 21 X s 2157 268 m 21 X s 2135 285 m 43 X s 2157 301 m 21 X s 2157 317
 m 21 X s 2157 334 m 21 X s 2157 350 m 21 X s 2135 366 m 43 X s 2157 382 m 21 X s 2157 399 m 21 X s 2157 415 m 21 X s 2157 431 m 21 X s 2135 447 m 43 X s 2157 464 m 21 X s 2157 480 m 21 X s 2157 496 m 21 X s 2157 512 m 21 X s 2135 529 m 43 X s 2135
 203 m 43 X s 2157 187 m 21 X s 2135 529 m 43 X s 9 lw 876 375 m 1 Y s 876 376 m cl s 876 348 m -2 Y s 876 346 m cl s 1000 367 m 6 Y s 1000 373 m cl s 1000 340 m -6 Y s 1000 334 m cl s 1124 435 m 17 Y s 1124 452 m cl s 1124 408 m -18 Y s 1124 390 m
 cl s 1248 395 m 22 Y s 1248 417 m cl s 1248 368 m -21 Y s 1248 347 m cl s 1372 460 m 42 Y s 1372 502 m cl s 1372 433 m -40 Y s 1372 393 m cl s 1496 372 m 48 Y s 1496 420 m cl s 1496 345 m -43 Y s 1496 302 m cl s 1620 444 m 83 Y s 1620 527 m cl s
 1620 417 m -76 Y s 1620 341 m cl s 1744 457 m 88 Y s 1744 545 m cl s 1744 430 m -101 Y s 1744 329 m cl s 1868 425 m 120 Y s 1868 545 m cl s 1868 398 m -120 Y s 1868 278 m cl s 2116 445 m 100 Y s 2116 545 m cl s 2116 418 m -133 Y s 2116 285 m cl s 3
 lw 380 385 504 359 628 355 752 362 876 361 1000 353 1124 421 1248 382 1372 447 1496 359 1620 430 1744 444 1868 412 13 { m20} R 9 lw 3 lw 2116 432 m20 9 lw 1 0 0 c 6 lw black 3 lw 1 0 0 c 2178 227 m s 2178 255 m s 2178 284 m s 2178 312 m s 2178 341 m
 -2 -2 d s 2178 369 m -31 -30 d s 2174 394 m -55 -55 d s 2145 394 m -55 -55 d s 2116 394 m -55 -55 d s 2054 332 m -13 -14 d s 2088 394 m -76 -76 d s 2059 394 m -75 -76 d s 2051 414 m -96 -96 d s 2022 414 m -92 -92 d s 1993 414 m -87 -87 d s 1965 414
 m -88 -87 d s 1936 414 m -6 -6 d s 1928 406 m -80 -79 d s 1899 406 m -79 -79 d s 1870 406 m -64 -64 d s 1842 406 m -64 -64 d s 1813 406 m -7 -7 d s 1798 390 m -49 -48 d s 1769 390 m -49 -48 d s 1740 390 m -48 -48 d s 1711 390 m -44 -44 d s 1683 390
 m -1 X s 1678 386 m -39 -40 d s 1650 386 m -40 -40 d s 1621 386 m -40 -40 d s 1592 386 m -36 -37 d s 1564 386 m -37 -37 d s 1532 383 m -34 -34 d s 1503 383 m -34 -34 d s 1475 383 m -34 -34 d s 1446 383 m -32 -32 d s 1415 381 m -29 -30 d s 1386 381 m
 -29 -30 d s 1358 381 m -30 -30 d s 1329 381 m -31 -31 d s 1302 382 m -33 -32 d s 1273 382 m -33 -32 d s 1245 382 m -33 -32 d s 1216 382 m -30 -29 d s 1187 382 m -1 -1 d s 1182 377 m -22 -22 d s 1153 377 m -22 -22 d s 1124 377 m -22 -22 d s 1096 377
 m -22 -22 d s 1067 377 m -21 -21 d s 1038 376 m -21 -20 d s 1009 376 m -21 -20 d s 980 376 m -20 -20 d s 952 376 m -20 -19 d s 922 375 m -19 -18 d s 893 375 m -19 -18 d s 865 375 m -19 -18 d s 836 375 m -19 -18 d s 807 375 m -18 -18 d s 778 375 m
 -18 -18 d s 749 375 m -18 -18 d s 721 375 m -18 -18 d s 692 375 m -17 -17 d s 662 374 m -16 -16 d s 634 374 m -16 -16 d s 605 374 m -16 -16 d s 576 374 m -15 -15 d s 547 374 m -15 -15 d s 518 374 m -15 -15 d s 490 374 m -15 -15 d s 461 374 m -15 -15
 d s 318 231 m s 432 374 m -15 -15 d s 318 259 m s 404 374 m -15 -15 d s 318 288 m s 375 374 m -15 -15 d s 318 317 m s 346 374 m -15 -15 d s 318 345 m s 6 lw black[ 4 8] 0 sd 3 lw 318 447 m 1860 X s 318 285 m 1860 X s 1 0 0 c[  12 12 ] 0 sd 6 lw 318
 366 m 1860 X s
 gr  gr showpage
end
%%EOF
