%!PS-Adobe-2.0 EPSF-2.0
%%BoundingBox:  0 0 567 521
%%Title: Distributions/meffInc_distrCRT_MB-C_afterFit_forThesis.eps: canvas
%%Creator: ROOT Version 6.04/16
%%CreationDate: Tue May 19 22:04:06 2020
%%DocumentNeededResources: ProcSet (FontSetInit)
%%EndComments
%%BeginProlog
80 dict begin
/s {stroke} def /l {lineto} def /m {moveto} def /t {translate} def
/r {rotate} def /rl {roll}  def /R {repeat} def
/d {rlineto} def /rm {rmoveto} def /gr {grestore} def /f {eofill} def
/c {setrgbcolor} def /black {0 setgray} def /sd {setdash} def
/cl {closepath} def /sf {scalefont setfont} def /lw {setlinewidth} def
/box {m dup 0 exch d exch 0 d 0 exch neg d cl} def
/NC{systemdict begin initclip end}def/C{NC box clip newpath}def
/bl {box s} def /bf {gsave box gsave f grestore 1 lw [] 0 sd s grestore} def /Y { 0 exch d} def /X { 0 d} def 
/K {{pop pop 0 moveto} exch kshow} bind def
/ita {/ang 15 def gsave [1 0 ang dup sin exch cos div 1 0 0] concat} def 
/mp {newpath /y exch def /x exch def} def
/side {[w .77 mul w .23 mul] .385 w mul sd w 0 l currentpoint t -144 r} def
/mr {mp x y w2 0 360 arc} def /m24 {mr s} def /m20 {mr f} def
/mb {mp x y w2 add m w2 neg 0 d 0 w neg d w 0 d 0 w d cl} def
/mt {mp x y w2 add m w2 neg w neg d w 0 d cl} def
/m21 {mb f} def /m25 {mb s} def /m22 {mt f} def /m26{mt s} def
/m23 {mp x y w2 sub m w2 w d w neg 0 d cl f} def
/m27 {mp x y w2 add m w3 neg w2 neg d w3 w2 neg d w3 w2 d cl s} def
/m28 {mp x w2 sub y w2 sub w3 add m w3 0 d  0 w3 neg d w3 0 d 0 w3 d w3 0 d  0 w3 d w3 neg 0 d 0 w3 d w3 neg 0 d 0 w3 neg d w3 neg 0 d cl s } def
/m29 {mp gsave x w2 sub y w2 add w3 sub m currentpoint t 4 {side} repeat cl fill gr} def
/m30 {mp gsave x w2 sub y w2 add w3 sub m currentpoint t 4 {side} repeat cl s gr} def
/m31 {mp x y w2 sub m 0 w d x w2 sub y m w 0 d x w2 sub y w2 add m w w neg d x w2 sub y w2 sub m w w d s} def
/m32 {mp x y w2 sub m w2 w d w neg 0 d cl s} def
/m33 {mp x y w2 add m w3 neg w2 neg d w3 w2 neg d w3 w2 d cl f} def
/m34 {mp x w2 sub y w2 sub w3 add m w3 0 d  0 w3 neg d w3 0 d 0 w3 d w3 0 d  0 w3 d w3 neg 0 d 0 w3 d w3 neg 0 d 0 w3 neg d w3 neg 0 d cl f } def
/m2 {mp x y w2 sub m 0 w d x w2 sub y m w 0 d s} def
/m5 {mp x w2 sub y w2 sub m w w d x w2 sub y w2 add m w w neg d s} def
%%IncludeResource: ProcSet (FontSetInit)
%%IncludeResource: font Times-Roman
%%IncludeResource: font Times-Italic
%%IncludeResource: font Times-Bold
%%IncludeResource: font Times-BoldItalic
%%IncludeResource: font Helvetica
%%IncludeResource: font Helvetica-Oblique
%%IncludeResource: font Helvetica-Bold
%%IncludeResource: font Helvetica-BoldOblique
%%IncludeResource: font Courier
%%IncludeResource: font Courier-Oblique
%%IncludeResource: font Courier-Bold
%%IncludeResource: font Courier-BoldOblique
%%IncludeResource: font Symbol
%%IncludeResource: font ZapfDingbats
/reEncode {exch findfont dup length dict begin {1 index /FID eq  {pop pop} {def} ifelse } forall /Encoding exch def currentdict end dup /FontName get exch definefont pop } def [/Times-Bold /Times-Italic /Times-BoldItalic /Helvetica /Helvetica-Oblique
 /Helvetica-Bold /Helvetica-BoldOblique /Courier /Courier-Oblique /Courier-Bold /Courier-BoldOblique /Times-Roman /AvantGarde-Book /AvantGarde-BookOblique /AvantGarde-Demi /AvantGarde-DemiOblique /Bookman-Demi /Bookman-DemiItalic /Bookman-Light
 /Bookman-LightItalic /Helvetica-Narrow /Helvetica-Narrow-Bold /Helvetica-Narrow-BoldOblique /Helvetica-Narrow-Oblique /NewCenturySchlbk-Roman /NewCenturySchlbk-Bold /NewCenturySchlbk-BoldItalic /NewCenturySchlbk-Italic /Palatino-Bold
 /Palatino-BoldItalic /Palatino-Italic /Palatino-Roman ] {ISOLatin1Encoding reEncode } forall
%%EndProlog
%%BeginSetup
%%EndSetup
newpath  gsave  .25 .25 scale  gsave  0 0 t black[  ] 0 sd 3 lw 1 1 1 c 2268 2085 0 0 bf black 1 1 1 c 2263 1770 2 313 bf black 1 1 1 c black 1860 1145 319 584 bl 1 1 1 c black 1860 1145 319 584 bl 6 lw 1 1 1 c black 3 lw /w 33 def /w2 {w 2 div} def
 /w3 {w 3 div} def 374 1124 m20 6 lw 3 lw 483 1095 m20 6 lw 3 lw 593 1067 m20 6 lw 3 lw 702 1028 m20 6 lw 3 lw 812 997 m20 6 lw 3 lw 921 983 m20 6 lw 3 lw 1030 940 m20 6 lw 1140 886 m 1 Y s 3 lw 1140 901 m20 6 lw 1249 844 m 7 Y s 1249 878 m 3 Y s 3
 lw 1249 865 m20 6 lw 1359 844 m 7 Y s 1359 878 m 3 Y s 3 lw 1359 865 m20 6 lw 1468 690 m 60 Y s 1468 777 m 18 Y s 3 lw 1468 763 m20 6 lw 1578 690 m 60 Y s 1578 777 m 18 Y s 3 lw 1578 763 m20 6 lw 1687 782 m 22 Y s 1687 831 m 9 Y s 3 lw 1687 818 m20
 6 lw 1796 584 m 124 Y s 1796 735 m 28 Y s 3 lw 1796 722 m20 6 lw 2125 584 m 124 Y s 2125 735 m 28 Y s 3 lw 2125 722 m20 6 lw 3 lw 319 584 m 1860 X s
 gsave  2263 1770 2 313 C 1949.08 369.478 t 0 r /Helvetica findfont 81.3741 sf 0 0 m ( [GeV]) show NC gr 
 gsave  2263 1770 2 313 C 1888.07 342.361 t 0 r /Helvetica findfont 54.2494 sf 0 0 m (eff) show NC gr 
 gsave  2263 1770 2 313 C 1823.66 369.478 t 0 r /Helvetica findfont 81.3741 sf 0 0 m (m) show NC gr  538 584 m cl s 593 584 m cl s 647 584 m cl s 702 584 m cl s 757 584 m cl s 812 584 m cl s 866 584 m cl s 921 584 m cl s 976 584 m cl s 1030 584 m cl
 s 1085 584 m cl s 1140 584 m cl s 1195 584 m cl s 1249 584 m cl s 1304 584 m cl s 1359 584 m cl s 1413 584 m cl s 1468 584 m cl s 1523 584 m cl s 1578 584 m cl s 1632 584 m cl s 1687 584 m cl s 1742 584 m cl s 1796 584 m cl s 1851 584 m cl s 1906
 584 m cl s 1961 584 m cl s 2015 584 m cl s 2070 584 m cl s 2125 584 m cl s 2179 584 m cl s 538 584 m cl s 483 584 m cl s 429 584 m cl s 374 584 m cl s 319 584 m cl s 319 1729 m 1860 X s 538 1729 m cl s 593 1729 m cl s 647 1729 m cl s 702 1729 m cl s
 757 1729 m cl s 812 1729 m cl s 866 1729 m cl s 921 1729 m cl s 976 1729 m cl s 1030 1729 m cl s 1085 1729 m cl s 1140 1729 m cl s 1195 1729 m cl s 1249 1729 m cl s 1304 1729 m cl s 1359 1729 m cl s 1413 1729 m cl s 1468 1729 m cl s 1523 1729 m cl s
 1578 1729 m cl s 1632 1729 m cl s 1687 1729 m cl s 1742 1729 m cl s 1796 1729 m cl s 1851 1729 m cl s 1906 1729 m cl s 1961 1729 m cl s 2015 1729 m cl s 2070 1729 m cl s 2125 1729 m cl s 2179 1729 m cl s 538 1729 m cl s 483 1729 m cl s 429 1729 m cl
 s 374 1729 m cl s 319 1729 m cl s 319 584 m 1145 Y s
 gsave  2263 1770 2 313 C 166.096 1091.49 t 90 r /Helvetica findfont 81.3741 sf 0 0 m (Events / 200 GeV) show NC gr  341 626 m -22 X s 341 650 m -22 X s 341 667 m -22 X s 341 680 m -22 X s 341 691 m -22 X s 341 700 m -22 X s 341 708 m -22 X s 341 715
 m -22 X s 363 722 m -44 X s
 gsave  2263 1770 2 313 C 300.555 694.657 t 0 r  -36 0 t /Helvetica findfont 64.4212 sf 0 0 m (1) show NC gr  341 763 m -22 X s 341 787 m -22 X s 341 805 m -22 X s 341 818 m -22 X s 341 829 m -22 X s 341 838 m -22 X s 341 846 m -22 X s 341 853 m -22
 X s 363 859 m -44 X s
 gsave  2263 1770 2 313 C 300.555 832.123 t 0 r  -73 0 t /Helvetica findfont 64.4212 sf 0 0 m (10) show NC gr  341 901 m -22 X s 341 925 m -22 X s 341 942 m -22 X s 341 955 m -22 X s 341 966 m -22 X s 341 975 m -22 X s 341 983 m -22 X s 341 990 m -22
 X s 363 997 m -44 X s
 gsave  2263 1770 2 313 C 274.567 996.575 t 0 r /Helvetica findfont 44.0776 sf 0 0 m (2) show NC gr 
 gsave  2263 1770 2 313 C 203.383 969.457 t 0 r /Helvetica findfont 64.4212 sf 0 0 m (10) show NC gr  341 1038 m -22 X s 341 1062 m -22 X s 341 1079 m -22 X s 341 1093 m -22 X s 341 1104 m -22 X s 341 1113 m -22 X s 341 1121 m -22 X s 341 1128 m -22
 X s 363 1134 m -44 X s
 gsave  2263 1770 2 313 C 274.567 1135.55 t 0 r /Helvetica findfont 44.0776 sf 0 0 m (3) show NC gr 
 gsave  2263 1770 2 313 C 203.383 1105.05 t 0 r /Helvetica findfont 64.4212 sf 0 0 m (10) show NC gr  341 1176 m -22 X s 341 1200 m -22 X s 341 1217 m -22 X s 341 1230 m -22 X s 341 1241 m -22 X s 341 1250 m -22 X s 341 1258 m -22 X s 341 1265 m -22
 X s 363 1272 m -44 X s
 gsave  2263 1770 2 313 C 274.567 1271.14 t 0 r /Helvetica findfont 44.0776 sf 0 0 m (4) show NC gr 
 gsave  2263 1770 2 313 C 203.383 1244.02 t 0 r /Helvetica findfont 64.4212 sf 0 0 m (10) show NC gr  341 1313 m -22 X s 341 1337 m -22 X s 341 1354 m -22 X s 341 1368 m -22 X s 341 1379 m -22 X s 341 1388 m -22 X s 341 1396 m -22 X s 341 1403 m -22
 X s 363 1409 m -44 X s
 gsave  2263 1770 2 313 C 274.567 1410.12 t 0 r /Helvetica findfont 44.0776 sf 0 0 m (5) show NC gr 
 gsave  2263 1770 2 313 C 203.383 1379.61 t 0 r /Helvetica findfont 64.4212 sf 0 0 m (10) show NC gr  341 1450 m -22 X s 341 1475 m -22 X s 341 1492 m -22 X s 341 1505 m -22 X s 341 1516 m -22 X s 341 1525 m -22 X s 341 1533 m -22 X s 341 1540 m -22
 X s 363 1547 m -44 X s
 gsave  2263 1770 2 313 C 274.567 1549.1 t 0 r /Helvetica findfont 44.0776 sf 0 0 m (6) show NC gr 
 gsave  2263 1770 2 313 C 203.383 1518.59 t 0 r /Helvetica findfont 64.4212 sf 0 0 m (10) show NC gr  341 1588 m -22 X s 341 1612 m -22 X s 341 1629 m -22 X s 341 1643 m -22 X s 341 1654 m -22 X s 341 1663 m -22 X s 341 1671 m -22 X s 341 1678 m -22
 X s 363 1684 m -44 X s
 gsave  2263 1770 2 313 C 274.567 1681.3 t 0 r /Helvetica findfont 44.0776 sf 0 0 m (7) show NC gr 
 gsave  2263 1770 2 313 C 203.383 1654.18 t 0 r /Helvetica findfont 64.4212 sf 0 0 m (10) show NC gr  341 1725 m -22 X s 2179 584 m 1145 Y s 2157 626 m 22 X s 2157 650 m 22 X s 2157 667 m 22 X s 2157 680 m 22 X s 2157 691 m 22 X s 2157 700 m 22 X s
 2157 708 m 22 X s 2157 715 m 22 X s 2136 722 m 43 X s 2157 763 m 22 X s 2157 787 m 22 X s 2157 805 m 22 X s 2157 818 m 22 X s 2157 829 m 22 X s 2157 838 m 22 X s 2157 846 m 22 X s 2157 853 m 22 X s 2136 859 m 43 X s 2157 901 m 22 X s 2157 925 m 22 X
 s 2157 942 m 22 X s 2157 955 m 22 X s 2157 966 m 22 X s 2157 975 m 22 X s 2157 983 m 22 X s 2157 990 m 22 X s 2136 997 m 43 X s 2157 1038 m 22 X s 2157 1062 m 22 X s 2157 1079 m 22 X s 2157 1093 m 22 X s 2157 1104 m 22 X s 2157 1113 m 22 X s 2157
 1121 m 22 X s 2157 1128 m 22 X s 2136 1134 m 43 X s 2157 1176 m 22 X s 2157 1200 m 22 X s 2157 1217 m 22 X s 2157 1230 m 22 X s 2157 1241 m 22 X s 2157 1250 m 22 X s 2157 1258 m 22 X s 2157 1265 m 22 X s 2136 1272 m 43 X s 2157 1313 m 22 X s 2157
 1337 m 22 X s 2157 1354 m 22 X s 2157 1368 m 22 X s 2157 1379 m 22 X s 2157 1388 m 22 X s 2157 1396 m 22 X s 2157 1403 m 22 X s 2136 1409 m 43 X s 2157 1450 m 22 X s 2157 1475 m 22 X s 2157 1492 m 22 X s 2157 1505 m 22 X s 2157 1516 m 22 X s 2157
 1525 m 22 X s 2157 1533 m 22 X s 2157 1540 m 22 X s 2136 1547 m 43 X s 2157 1588 m 22 X s 2157 1612 m 22 X s 2157 1629 m 22 X s 2157 1643 m 22 X s 2157 1654 m 22 X s 2157 1663 m 22 X s 2157 1671 m 22 X s 2157 1678 m 22 X s 2136 1684 m 43 X s 2157
 1725 m 22 X s 0.6 1 0.6 c black 0.6 1 0.6 c 319 584 m 538 Y 110 X -25 Y 109 X -29 Y 109 X -38 Y 110 X -27 Y 109 X -28 Y 110 X -41 Y 109 X -27 Y 110 X -37 Y 109 X -24 Y 109 X -23 Y 110 X -24 Y 109 X -34 Y 110 X -18 Y 109 X 5 Y 110 X -45 Y 109 X 14 Y
 109 X -137 Y f black 0.6 1 0.6 c black 319 1122 m 110 X -25 Y 109 X -29 Y 109 X -38 Y 110 X -27 Y 109 X -28 Y 110 X -41 Y 109 X -27 Y 110 X -37 Y 109 X -24 Y 109 X -23 Y 110 X -24 Y 109 X -34 Y 110 X -18 Y 109 X 5 Y 110 X -45 Y 109 X 14 Y 109 X s
 0.999 0.999 0.999 c black 0.999 0.999 0.999 c 319 584 m 469 Y 110 X -26 Y 109 X -31 Y 109 X -24 Y 110 X -28 Y 109 X -21 Y 110 X -37 Y 109 X -27 Y 110 X -37 Y 109 X -21 Y 109 X -43 Y 110 X -12 Y 109 X -18 Y 110 X -12 Y 109 X 6 Y 110 X -67 Y 109 X 41
 Y 109 X -112 Y f black 0.999 0.999 0.999 c black 319 1053 m 110 X -26 Y 109 X -31 Y 109 X -24 Y 110 X -28 Y 109 X -21 Y 110 X -37 Y 109 X -27 Y 110 X -37 Y 109 X -21 Y 109 X -43 Y 110 X -12 Y 109 X -18 Y 110 X -12 Y 109 X 6 Y 110 X -67 Y 109 X 41 Y
 109 X s 1 1 1 c black 319 1053 m 110 X -26 Y 109 X -31 Y 109 X -24 Y 110 X -28 Y 109 X -21 Y 110 X -37 Y 109 X -27 Y 110 X -37 Y 109 X -21 Y 109 X -43 Y 110 X -12 Y 109 X -18 Y 110 X -12 Y 109 X 6 Y 110 X -67 Y 109 X 41 Y 109 X s 0.4 0.6 1 c black
 0.4 0.6 1 c 319 584 m 469 Y 110 X -26 Y 109 X -31 Y 109 X -24 Y 110 X -28 Y 109 X -21 Y 110 X -37 Y 109 X -27 Y 110 X -37 Y 109 X -21 Y 109 X -43 Y 110 X -12 Y 109 X -18 Y 110 X -12 Y 109 X 6 Y 110 X -67 Y 109 X 41 Y 109 X -112 Y f black 0.4 0.6 1 c
 black 319 1053 m 110 X -26 Y 109 X -31 Y 109 X -24 Y 110 X -28 Y 109 X -21 Y 110 X -37 Y 109 X -27 Y 110 X -37 Y 109 X -21 Y 109 X -43 Y 110 X -12 Y 109 X -18 Y 110 X -12 Y 109 X 6 Y 110 X -67 Y 109 X 41 Y 109 X s 0.999 0.999 0.999 c black 0.999
 0.999 0.999 c 319 584 m 337 Y 110 X -16 Y 109 X -45 Y 109 X -21 Y 110 X -37 Y 109 X -16 Y 110 X -41 Y 109 X -10 Y 110 X -35 Y 109 X -24 Y 109 X -83 Y 110 X 60 Y 109 X -13 Y 110 X -56 Y 109 X 53 Y 110 X -53 Y 218 X f black 0.999 0.999 0.999 c black
 319 921 m 110 X -16 Y 109 X -45 Y 109 X -21 Y 110 X -37 Y 109 X -16 Y 110 X -41 Y 109 X -10 Y 110 X -35 Y 109 X -24 Y 109 X -83 Y 110 X 60 Y 109 X -13 Y 110 X -56 Y 109 X 53 Y 110 X -53 Y 218 X s 1 1 1 c black 319 921 m 110 X -16 Y 109 X -45 Y 109 X
 -21 Y 110 X -37 Y 109 X -16 Y 110 X -41 Y 109 X -10 Y 110 X -35 Y 109 X -24 Y 109 X -83 Y 110 X 60 Y 109 X -13 Y 110 X -56 Y 109 X 53 Y 110 X -53 Y 218 X s 1 0.8 0.4 c black 1 0.8 0.4 c 319 584 m 337 Y 110 X -16 Y 109 X -45 Y 109 X -21 Y 110 X -37 Y
 109 X -16 Y 110 X -41 Y 109 X -10 Y 110 X -35 Y 109 X -24 Y 109 X -83 Y 110 X 60 Y 109 X -13 Y 110 X -56 Y 109 X 53 Y 110 X -53 Y 218 X f black 1 0.8 0.4 c black 319 921 m 110 X -16 Y 109 X -45 Y 109 X -21 Y 110 X -37 Y 109 X -16 Y 110 X -41 Y 109 X
 -10 Y 110 X -35 Y 109 X -24 Y 109 X -83 Y 110 X 60 Y 109 X -13 Y 110 X -56 Y 109 X 53 Y 110 X -53 Y 218 X s 0.999 0.999 0.999 c black 0.999 0.999 0.999 c 319 584 m 330 Y 110 X -14 Y 109 X -46 Y 109 X -21 Y 110 X -35 Y 109 X -17 Y 110 X -43 Y 109 X
 -12 Y 110 X -30 Y 109 X -23 Y 109 X -88 Y 110 X 65 Y 109 X -11 Y 110 X -55 Y 109 X 52 Y 110 X -52 Y 218 X f black 0.999 0.999 0.999 c black 319 914 m 110 X -14 Y 109 X -46 Y 109 X -21 Y 110 X -35 Y 109 X -17 Y 110 X -43 Y 109 X -12 Y 110 X -30 Y 109
 X -23 Y 109 X -88 Y 110 X 65 Y 109 X -11 Y 110 X -55 Y 109 X 52 Y 110 X -52 Y 218 X s 1 1 1 c black 319 914 m 110 X -14 Y 109 X -46 Y 109 X -21 Y 110 X -35 Y 109 X -17 Y 110 X -43 Y 109 X -12 Y 110 X -30 Y 109 X -23 Y 109 X -88 Y 110 X 65 Y 109 X
 -11 Y 110 X -55 Y 109 X 52 Y 110 X -52 Y 218 X s 1 0.4 0.6 c black 1 0.4 0.6 c 319 584 m 330 Y 110 X -14 Y 109 X -46 Y 109 X -21 Y 110 X -35 Y 109 X -17 Y 110 X -43 Y 109 X -12 Y 110 X -30 Y 109 X -23 Y 109 X -88 Y 110 X 65 Y 109 X -11 Y 110 X -55 Y
 109 X 52 Y 110 X -52 Y 218 X f black 1 0.4 0.6 c black 319 914 m 110 X -14 Y 109 X -46 Y 109 X -21 Y 110 X -35 Y 109 X -17 Y 110 X -43 Y 109 X -12 Y 110 X -30 Y 109 X -23 Y 109 X -88 Y 110 X 65 Y 109 X -11 Y 110 X -55 Y 109 X 52 Y 110 X -52 Y 218 X
 s 1 0 0 c 6 lw 1 1 1 c black 1 0 0 c 319 1122 m 110 X -25 Y 109 X -29 Y 109 X -38 Y 110 X -27 Y 109 X -28 Y 110 X -41 Y 109 X -27 Y 110 X -37 Y 109 X -24 Y 109 X -23 Y 110 X -24 Y 109 X -34 Y 110 X -18 Y 109 X 5 Y 110 X -45 Y 109 X 14 Y 109 X s
 black 3 lw 1 0 0 c 1 lw << /PatternType 1 /PaintType 2 /TilingType 1 /BBox [ 0 0 100 100 ] /XStep 100 /YStep 100 /PaintProc { begin gsave 0 100 m 100 0 l s gr end } >> [ 0.24 0 0 0.24 0 0 ] makepattern /P05 exch def /cs {[/Pattern /DeviceRGB]
 setcolorspace} def /FA {f [/DeviceRGB] setcolorspace} def cs 1 0 0 P05 setcolor 319 584 m 539 Y 110 X -24 Y 109 X -29 Y 109 X -37 Y 110 X -27 Y 109 X -27 Y 110 X -39 Y 109 X -27 Y 110 X -36 Y 109 X -24 Y 109 X -21 Y 110 X -24 Y 109 X -33 Y 110 X -16
 Y 109 X 10 Y 110 X -45 Y 109 X 10 Y 109 X -150 Y 121 Y -109 X -21 Y -109 X 46 Y -110 X 1 Y -109 X 23 Y -110 X 34 Y -109 X 24 Y -110 X 26 Y -109 X 25 Y -109 X 37 Y -110 X 27 Y -109 X 45 Y -110 X 27 Y -109 X 27 Y -110 X 41 Y -109 X 28 Y -109 X 25 Y
 -110 X -536 Y FA 6 lw 1 1 1 c 15 lw 1249 845 m -1 Y s 1249 844 m cl s 1359 845 m -1 Y s 1359 844 m cl s 1468 783 m 16 Y s 1468 799 m cl s 1468 743 m -42 Y s 1468 701 m cl s 1578 783 m 16 Y s 1578 799 m cl s 1578 743 m -42 Y s 1578 701 m cl s 1687
 838 m 3 Y s 1687 841 m cl s 1687 798 m -14 Y s 1687 784 m cl s 1796 742 m 29 Y s 1796 771 m cl s 1796 701 m -84 Y s 1796 617 m cl s 2125 742 m 29 Y s 2125 771 m cl s 2125 701 m -84 Y s 2125 617 m cl s black 1 1 1 c 3 lw /w 43 def /w2 {w 2 div} def
 /w3 {w 3 div} def 374 1124 483 1095 593 1067 702 1028 812 997 921 983 1030 940 1140 901 1249 865 1359 865 1468 763 1578 763 1687 818 1796 722 14 { m20} R 15 lw 3 lw 2125 722 m20 15 lw black 6 lw 1 1 1 c black 3 lw /w 33 def /w2 {w 2 div} def /w3 {w
 3 div} def 374 1124 m20 6 lw 3 lw 483 1095 m20 6 lw 3 lw 593 1067 m20 6 lw 3 lw 702 1028 m20 6 lw 3 lw 812 997 m20 6 lw 3 lw 921 983 m20 6 lw 3 lw 1030 940 m20 6 lw 1140 886 m 1 Y s 3 lw 1140 901 m20 6 lw 1249 844 m 7 Y s 1249 878 m 3 Y s 3 lw 1249
 865 m20 6 lw 1359 844 m 7 Y s 1359 878 m 3 Y s 3 lw 1359 865 m20 6 lw 1468 690 m 60 Y s 1468 777 m 18 Y s 3 lw 1468 763 m20 6 lw 1578 690 m 60 Y s 1578 777 m 18 Y s 3 lw 1578 763 m20 6 lw 1687 782 m 22 Y s 1687 831 m 9 Y s 3 lw 1687 818 m20 6 lw
 1796 584 m 124 Y s 1796 735 m 28 Y s 3 lw 1796 722 m20 6 lw 2125 584 m 124 Y s 2125 735 m 28 Y s 3 lw 2125 722 m20 6 lw 1140 887 m -1 Y s 1140 886 m cl s 1249 878 m 3 Y s 1249 881 m cl s 1249 851 m -7 Y s 1249 844 m cl s 1359 878 m 3 Y s 1359 881 m
 cl s 1359 851 m -7 Y s 1359 844 m cl s 1468 777 m 22 Y s 1468 799 m cl s 1468 750 m -49 Y s 1468 701 m cl s 1578 777 m 22 Y s 1578 799 m cl s 1578 750 m -49 Y s 1578 701 m cl s 1687 831 m 10 Y s 1687 841 m cl s 1687 804 m -20 Y s 1687 784 m cl s
 1796 735 m 36 Y s 1796 771 m cl s 1796 708 m -91 Y s 1796 617 m cl s 2125 735 m 36 Y s 2125 771 m cl s 2125 708 m -91 Y s 2125 617 m cl s 3 lw 374 1124 483 1095 593 1067 702 1028 812 997 921 983 1030 940 1140 901 1249 865 1359 865 1468 763 1578 763
 1687 818 1796 722 14 { m20} R 6 lw 3 lw 2125 722 m20 6 lw 3 lw 319 584 m 1860 X s 538 584 m cl s 593 584 m cl s 647 584 m cl s 702 584 m cl s 757 584 m cl s 812 584 m cl s 866 584 m cl s 921 584 m cl s 976 584 m cl s 1030 584 m cl s 1085 584 m cl s
 1140 584 m cl s 1195 584 m cl s 1249 584 m cl s 1304 584 m cl s 1359 584 m cl s 1413 584 m cl s 1468 584 m cl s 1523 584 m cl s 1578 584 m cl s 1632 584 m cl s 1687 584 m cl s 1742 584 m cl s 1796 584 m cl s 1851 584 m cl s 1906 584 m cl s 1961 584
 m cl s 2015 584 m cl s 2070 584 m cl s 2125 584 m cl s 2179 584 m cl s 538 584 m cl s 483 584 m cl s 429 584 m cl s 374 584 m cl s 319 584 m cl s 319 1729 m 1860 X s 538 1729 m cl s 593 1729 m cl s 647 1729 m cl s 702 1729 m cl s 757 1729 m cl s 812
 1729 m cl s 866 1729 m cl s 921 1729 m cl s 976 1729 m cl s 1030 1729 m cl s 1085 1729 m cl s 1140 1729 m cl s 1195 1729 m cl s 1249 1729 m cl s 1304 1729 m cl s 1359 1729 m cl s 1413 1729 m cl s 1468 1729 m cl s 1523 1729 m cl s 1578 1729 m cl s
 1632 1729 m cl s 1687 1729 m cl s 1742 1729 m cl s 1796 1729 m cl s 1851 1729 m cl s 1906 1729 m cl s 1961 1729 m cl s 2015 1729 m cl s 2070 1729 m cl s 2125 1729 m cl s 2179 1729 m cl s 538 1729 m cl s 483 1729 m cl s 429 1729 m cl s 374 1729 m cl
 s 319 1729 m cl s 319 584 m 1145 Y s 341 626 m -22 X s 341 650 m -22 X s 341 667 m -22 X s 341 680 m -22 X s 341 691 m -22 X s 341 700 m -22 X s 341 708 m -22 X s 341 715 m -22 X s 363 722 m -44 X s 341 763 m -22 X s 341 787 m -22 X s 341 805 m -22
 X s 341 818 m -22 X s 341 829 m -22 X s 341 838 m -22 X s 341 846 m -22 X s 341 853 m -22 X s 363 859 m -44 X s 341 901 m -22 X s 341 925 m -22 X s 341 942 m -22 X s 341 955 m -22 X s 341 966 m -22 X s 341 975 m -22 X s 341 983 m -22 X s 341 990 m
 -22 X s 363 997 m -44 X s 341 1038 m -22 X s 341 1062 m -22 X s 341 1079 m -22 X s 341 1093 m -22 X s 341 1104 m -22 X s 341 1113 m -22 X s 341 1121 m -22 X s 341 1128 m -22 X s 363 1134 m -44 X s 341 1176 m -22 X s 341 1200 m -22 X s 341 1217 m -22
 X s 341 1230 m -22 X s 341 1241 m -22 X s 341 1250 m -22 X s 341 1258 m -22 X s 341 1265 m -22 X s 363 1272 m -44 X s 341 1313 m -22 X s 341 1337 m -22 X s 341 1354 m -22 X s 341 1368 m -22 X s 341 1379 m -22 X s 341 1388 m -22 X s 341 1396 m -22 X
 s 341 1403 m -22 X s 363 1409 m -44 X s 341 1450 m -22 X s 341 1475 m -22 X s 341 1492 m -22 X s 341 1505 m -22 X s 341 1516 m -22 X s 341 1525 m -22 X s 341 1533 m -22 X s 341 1540 m -22 X s 363 1547 m -44 X s 341 1588 m -22 X s 341 1612 m -22 X s
 341 1629 m -22 X s 341 1643 m -22 X s 341 1654 m -22 X s 341 1663 m -22 X s 341 1671 m -22 X s 341 1678 m -22 X s 363 1684 m -44 X s 341 1725 m -22 X s 2179 584 m 1145 Y s 2157 626 m 22 X s 2157 650 m 22 X s 2157 667 m 22 X s 2157 680 m 22 X s 2157
 691 m 22 X s 2157 700 m 22 X s 2157 708 m 22 X s 2157 715 m 22 X s 2136 722 m 43 X s 2157 763 m 22 X s 2157 787 m 22 X s 2157 805 m 22 X s 2157 818 m 22 X s 2157 829 m 22 X s 2157 838 m 22 X s 2157 846 m 22 X s 2157 853 m 22 X s 2136 859 m 43 X s
 2157 901 m 22 X s 2157 925 m 22 X s 2157 942 m 22 X s 2157 955 m 22 X s 2157 966 m 22 X s 2157 975 m 22 X s 2157 983 m 22 X s 2157 990 m 22 X s 2136 997 m 43 X s 2157 1038 m 22 X s 2157 1062 m 22 X s 2157 1079 m 22 X s 2157 1093 m 22 X s 2157 1104 m
 22 X s 2157 1113 m 22 X s 2157 1121 m 22 X s 2157 1128 m 22 X s 2136 1134 m 43 X s 2157 1176 m 22 X s 2157 1200 m 22 X s 2157 1217 m 22 X s 2157 1230 m 22 X s 2157 1241 m 22 X s 2157 1250 m 22 X s 2157 1258 m 22 X s 2157 1265 m 22 X s 2136 1272 m 43
 X s 2157 1313 m 22 X s 2157 1337 m 22 X s 2157 1354 m 22 X s 2157 1368 m 22 X s 2157 1379 m 22 X s 2157 1388 m 22 X s 2157 1396 m 22 X s 2157 1403 m 22 X s 2136 1409 m 43 X s 2157 1450 m 22 X s 2157 1475 m 22 X s 2157 1492 m 22 X s 2157 1505 m 22 X
 s 2157 1516 m 22 X s 2157 1525 m 22 X s 2157 1533 m 22 X s 2157 1540 m 22 X s 2136 1547 m 43 X s 2157 1588 m 22 X s 2157 1612 m 22 X s 2157 1629 m 22 X s 2157 1643 m 22 X s 2157 1654 m 22 X s 2157 1663 m 22 X s 2157 1671 m 22 X s 2157 1678 m 22 X s
 2136 1684 m 43 X s 2157 1725 m 22 X s
 gsave  2263 1770 2 313 C 406.765 1447.41 t 0 r /Helvetica findfont 64.4212 sf 0 0 m (CRT for MB\255C) show NC gr 
 gsave  2263 1770 2 313 C 1464.36 1616.89 t 0 r /Helvetica findfont 64.4212 sf 0 0 m (SM Total) show NC gr  1 1 1 c 1338 1603 m 107 X 74 Y -107 X f 1 0 0 c 6 lw 1338 1640 m 107 X s black
 gsave  2263 1770 2 313 C 1464.36 1511.81 t 0 r /Helvetica findfont 64.4212 sf 0 0 m (Data) show NC gr  1391 1502 m 64 Y s 3 lw 1391 1534 m20 6 lw
 gsave  2263 1770 2 313 C 1498.25 1406.73 t 0 r /Helvetica findfont 64.4212 sf 0 0 m (\(+EW\) & single top) show NC gr 
 gsave  2263 1770 2 313 C 1481.3 1406.73 t 0 r /Helvetica findfont 64.4212 sf 0 0 m (t) show NC gr  3 lw 1481 1458 m 17 X s
 gsave  2263 1770 2 313 C 1464.36 1406.73 t 0 r /Helvetica findfont 64.4212 sf 0 0 m (t) show NC gr  0.6 1 0.6 c 1338 1391 m 107 X 74 Y -107 X f black 1338 1465 m 107 X s 1338 1391 m 107 X s 1445 1391 m 74 Y s 1338 1391 m 74 Y s
 gsave  2263 1770 2 313 C 1464.36 1298.26 t 0 r /Helvetica findfont 64.4212 sf 0 0 m (W+jets) show NC gr  0.4 0.6 1 c 1338 1284 m 107 X 75 Y -107 X f black 1338 1359 m 107 X s 1338 1284 m 107 X s 1445 1284 m 75 Y s 1338 1284 m 75 Y s
 gsave  2263 1770 2 313 C 1464.36 1193.18 t 0 r /Helvetica findfont 64.4212 sf 0 0 m (Z+jets) show NC gr  1 0.8 0.4 c 1338 1178 m 107 X 75 Y -107 X f black 1338 1253 m 107 X s 1338 1178 m 107 X s 1445 1178 m 75 Y s 1338 1178 m 75 Y s
 gsave  2263 1770 2 313 C 1464.36 1088.1 t 0 r /Helvetica findfont 64.4212 sf 0 0 m (Diboson) show NC gr  1 0.4 0.6 c 1338 1072 m 107 X 74 Y -107 X f black 1338 1146 m 107 X s 1338 1072 m 107 X s 1445 1072 m 74 Y s 1338 1072 m 74 Y s
 gsave  2263 1770 2 313 C 911.832 1566.05 t 0 r /Helvetica findfont 44.0776 sf 0 0 m (\2551) show NC gr 
 gsave  2263 1770 2 313 C 471.17 1535.54 t 0 r /Helvetica findfont 64.4212 sf 0 0 m (=13TeV, 139 fb) show NC gr 
 gsave  2263 1770 2 313 C 440.662 1535.54 t 0 r /Helvetica findfont 64.4212 sf 0 0 m (s) show NC gr  6 lw 420 1573 m 7 -41 d s 3 lw 427 1532 m 7 61 d s 434 1593 m 37 X s 1 1 1 c 2254 561 2 2 bf black 1 1 1 c black 1860 358 318 187 bl 1 1 1 c black
 1860 358 318 187 bl 6 lw 1 1 1 c black 3 lw 373 372 m20 6 lw 3 lw 482 361 m20 6 lw 3 lw 591 362 m20 6 lw 3 lw 701 362 m20 6 lw 3 lw 810 351 m20 6 lw 3 lw 920 387 m20 6 lw 3 lw 1029 384 m20 6 lw 3 lw 1139 350 m20 6 lw 3 lw 1248 353 m20 6 lw 3 lw 1358
 427 m20 6 lw 3 lw 1467 263 m20 6 lw 3 lw 1576 293 m20 6 lw 3 lw 1795 311 m20 6 lw 3 lw 2124 368 m20 6 lw 3 lw 318 187 m 1860 X s
 gsave  2254 561 2 2 C 1959.25 33.8971 t 0 r /Helvetica findfont 78.1689 sf 0 0 m ( [GeV]) show NC gr 
 gsave  2254 561 2 2 C 1901.63 13.5588 t 0 r /Helvetica findfont 50.9797 sf 0 0 m (eff) show NC gr 
 gsave  2254 561 2 2 C 1840.61 33.8971 t 0 r /Helvetica findfont 78.1689 sf 0 0 m (m) show NC gr  537 201 m -14 Y s 591 194 m -7 Y s 646 194 m -7 Y s 701 194 m -7 Y s 756 194 m -7 Y s 810 201 m -14 Y s 865 194 m -7 Y s 920 194 m -7 Y s 975 194 m -7 Y
 s 1029 194 m -7 Y s 1084 201 m -14 Y s 1139 194 m -7 Y s 1193 194 m -7 Y s 1248 194 m -7 Y s 1303 194 m -7 Y s 1358 201 m -14 Y s 1412 194 m -7 Y s 1467 194 m -7 Y s 1522 194 m -7 Y s 1576 194 m -7 Y s 1631 201 m -14 Y s 1686 194 m -7 Y s 1741 194 m
 -7 Y s 1795 194 m -7 Y s 1850 194 m -7 Y s 1905 201 m -14 Y s 1959 194 m -7 Y s 2014 194 m -7 Y s 2069 194 m -7 Y s 2124 194 m -7 Y s 2178 201 m -14 Y s 537 201 m -14 Y s 482 194 m -7 Y s 427 194 m -7 Y s 373 194 m -7 Y s 318 194 m -7 Y s
 gsave  2254 561 2 2 C 447.442 118.64 t 0 r /Helvetica findfont 78.1689 sf 0 0 m (2000) show NC gr 
 gsave  2254 561 2 2 C 722.008 118.64 t 0 r /Helvetica findfont 78.1689 sf 0 0 m (2500) show NC gr 
 gsave  2254 561 2 2 C 993.185 118.64 t 0 r /Helvetica findfont 78.1689 sf 0 0 m (3000) show NC gr 
 gsave  2254 561 2 2 C 1267.75 118.64 t 0 r /Helvetica findfont 78.1689 sf 0 0 m (3500) show NC gr 
 gsave  2254 561 2 2 C 1542.32 118.64 t 0 r /Helvetica findfont 78.1689 sf 0 0 m (4000) show NC gr 
 gsave  2254 561 2 2 C 1813.5 118.64 t 0 r /Helvetica findfont 78.1689 sf 0 0 m (4500) show NC gr 
 gsave  2254 561 2 2 C 2088.06 118.64 t 0 r /Helvetica findfont 78.1689 sf 0 0 m (5000) show NC gr  318 545 m 1860 X s 537 531 m 14 Y s 591 538 m 7 Y s 646 538 m 7 Y s 701 538 m 7 Y s 756 538 m 7 Y s 810 531 m 14 Y s 865 538 m 7 Y s 920 538 m 7 Y s
 975 538 m 7 Y s 1029 538 m 7 Y s 1084 531 m 14 Y s 1139 538 m 7 Y s 1193 538 m 7 Y s 1248 538 m 7 Y s 1303 538 m 7 Y s 1358 531 m 14 Y s 1412 538 m 7 Y s 1467 538 m 7 Y s 1522 538 m 7 Y s 1576 538 m 7 Y s 1631 531 m 14 Y s 1686 538 m 7 Y s 1741 538
 m 7 Y s 1795 538 m 7 Y s 1850 538 m 7 Y s 1905 531 m 14 Y s 1959 538 m 7 Y s 2014 538 m 7 Y s 2069 538 m 7 Y s 2124 538 m 7 Y s 2178 531 m 14 Y s 537 531 m 14 Y s 482 538 m 7 Y s 427 538 m 7 Y s 373 538 m 7 Y s 318 538 m 7 Y s 318 187 m 358 Y s
 gsave  2254 561 2 2 C 166.096 284.736 t 90 r /Helvetica findfont 67.9729 sf 0 0 m (Data/SM) show NC gr  361 203 m -43 X s 339 220 m -21 X s 339 236 m -21 X s 339 252 m -21 X s 339 268 m -21 X s 361 285 m -43 X s 339 301 m -21 X s 339 317 m -21 X s
 339 334 m -21 X s 339 350 m -21 X s 361 366 m -43 X s 339 382 m -21 X s 339 399 m -21 X s 339 415 m -21 X s 339 431 m -21 X s 361 447 m -43 X s 339 464 m -21 X s 339 480 m -21 X s 339 496 m -21 X s 339 512 m -21 X s 361 529 m -43 X s 361 203 m -43 X
 s 339 187 m -21 X s 361 529 m -43 X s
 gsave  2254 561 2 2 C 261.008 183.044 t 0 r /Helvetica findfont 57.777 sf 0 0 m (0) show NC gr 
 gsave  2254 561 2 2 C 213.552 261.008 t 0 r /Helvetica findfont 57.777 sf 0 0 m (0.5) show NC gr 
 gsave  2254 561 2 2 C 271.177 342.361 t 0 r /Helvetica findfont 57.777 sf 0 0 m (1) show NC gr 
 gsave  2254 561 2 2 C 213.552 423.714 t 0 r /Helvetica findfont 57.777 sf 0 0 m (1.5) show NC gr 
 gsave  2254 561 2 2 C 261.008 505.067 t 0 r /Helvetica findfont 57.777 sf 0 0 m (2) show NC gr  2178 187 m 358 Y s 2135 203 m 43 X s 2157 220 m 21 X s 2157 236 m 21 X s 2157 252 m 21 X s 2157 268 m 21 X s 2135 285 m 43 X s 2157 301 m 21 X s 2157 317
 m 21 X s 2157 334 m 21 X s 2157 350 m 21 X s 2135 366 m 43 X s 2157 382 m 21 X s 2157 399 m 21 X s 2157 415 m 21 X s 2157 431 m 21 X s 2135 447 m 43 X s 2157 464 m 21 X s 2157 480 m 21 X s 2157 496 m 21 X s 2157 512 m 21 X s 2135 529 m 43 X s 2135
 203 m 43 X s 2157 187 m 21 X s 2135 529 m 43 X s 9 lw 810 365 m 1 Y s 810 366 m cl s 810 338 m -1 Y s 810 337 m cl s 920 401 m 7 Y s 920 408 m cl s 920 374 m -7 Y s 920 367 m cl s 1029 398 m 15 Y s 1029 413 m cl s 1029 371 m -15 Y s 1029 356 m cl s
 1139 363 m 20 Y s 1139 383 m cl s 1139 336 m -19 Y s 1139 317 m cl s 1248 366 m 33 Y s 1248 399 m cl s 1248 339 m -30 Y s 1248 309 m cl s 1358 440 m 56 Y s 1358 496 m cl s 1358 413 m -52 Y s 1358 361 m cl s 1467 277 m 35 Y s 1467 312 m cl s 1467 250
 m -25 Y s 1467 225 m cl s 1576 307 m 59 Y s 1576 366 m cl s 1576 280 m -45 Y s 1576 235 m cl s 1686 545 m -119 Y s 1686 426 m cl s 1795 324 m 125 Y s 1795 449 m cl s 1795 297 m -75 Y s 1795 222 m cl s 2124 381 m 164 Y s 2124 545 m cl s 2124 354 m
 -122 Y s 2124 232 m cl s 3 lw 373 372 482 361 591 362 701 362 810 351 920 387 1029 384 1139 350 1248 353 1358 427 1467 263 1576 293 12 { m20} R 9 lw 3 lw 1795 311 m20 9 lw 3 lw 2124 368 m20 9 lw 1 0 0 c 6 lw black 3 lw 1 0 0 c 2178 227 m s 2178 255
 m s 2178 284 m s 2178 312 m s 2178 341 m -12 -13 d s 2178 369 m -41 -41 d s 2178 398 m -70 -70 d s 2155 404 m -75 -76 d s 2069 318 m -5 -5 d s 2127 404 m -92 -91 d s 2098 404 m -91 -91 d s 2069 404 m -91 -91 d s 2056 419 m -105 -104 d s 2027 419 m
 -104 -104 d s 1999 419 m -105 -104 d s 1970 419 m -105 -104 d s 1939 417 m -89 -89 d s 1911 417 m -89 -88 d s 1882 417 m -89 -88 d s 1853 417 m -3 -3 d s 1839 403 m -74 -74 d s 1811 403 m -70 -70 d s 1782 403 m -65 -65 d s 1753 403 m -65 -65 d s
 1715 394 m -56 -56 d s 1686 394 m -55 -55 d s 1658 394 m -54 -54 d s 1627 392 m -52 -52 d s 1599 392 m -53 -52 d s 1570 392 m -52 -52 d s 1541 392 m -52 -52 d s 1512 392 m -52 -52 d s 1484 392 m -52 -52 d s 1455 392 m -47 -47 d s 1426 392 m -47 -47
 d s 1393 387 m -43 -42 d s 1364 387 m -42 -42 d s 1335 387 m -40 -40 d s 1307 387 m -40 -40 d s 1276 385 m -38 -38 d s 1247 385 m -38 -38 d s 1218 385 m -37 -37 d s 1189 384 m -37 -36 d s 1160 384 m -36 -36 d s 1132 384 m -37 -36 d s 1103 384 m -36
 -35 d s 1074 384 m -36 -35 d s 1045 384 m -35 -35 d s 1016 384 m -35 -35 d s 987 384 m -27 -28 d s 951 376 m -19 -20 d s 922 376 m -19 -20 d s 894 376 m -20 -20 d s 865 376 m -20 -20 d s 836 376 m -19 -20 d s 808 376 m -20 -20 d s 779 376 m -20 -20
 d s 750 375 m -19 -18 d s 721 375 m -19 -18 d s 692 375 m -18 -18 d s 664 375 m -18 -17 d s 630 371 m -9 -9 d s 601 371 m -9 -9 d s 573 371 m -9 -9 d s 544 371 m -9 -9 d s 515 371 m -9 -9 d s 487 371 m -9 -9 d s 458 371 m -9 -9 d s 318 231 m s 429
 371 m -8 -9 d s 318 259 m s 400 370 m -8 -8 d s 318 288 m s 372 370 m -9 -8 d s 318 317 m s 343 370 m -8 -8 d s 318 345 m s 6 lw black[ 4 8] 0 sd 3 lw 318 447 m 1860 X s 318 285 m 1860 X s 1 0 0 c[  12 12 ] 0 sd 6 lw 318 366 m 1860 X s
 gr  gr showpage
end
%%EOF
