%!PS-Adobe-2.0 EPSF-2.0
%%BoundingBox:  0 0 567 521
%%Title: Distributions/meffInc_distrCRY_MB-GGo_afterFit_forThesis.eps: canvas
%%Creator: ROOT Version 6.04/16
%%CreationDate: Tue May 19 22:04:40 2020
%%DocumentNeededResources: ProcSet (FontSetInit)
%%EndComments
%%BeginProlog
80 dict begin
/s {stroke} def /l {lineto} def /m {moveto} def /t {translate} def
/r {rotate} def /rl {roll}  def /R {repeat} def
/d {rlineto} def /rm {rmoveto} def /gr {grestore} def /f {eofill} def
/c {setrgbcolor} def /black {0 setgray} def /sd {setdash} def
/cl {closepath} def /sf {scalefont setfont} def /lw {setlinewidth} def
/box {m dup 0 exch d exch 0 d 0 exch neg d cl} def
/NC{systemdict begin initclip end}def/C{NC box clip newpath}def
/bl {box s} def /bf {gsave box gsave f grestore 1 lw [] 0 sd s grestore} def /Y { 0 exch d} def /X { 0 d} def 
/K {{pop pop 0 moveto} exch kshow} bind def
/ita {/ang 15 def gsave [1 0 ang dup sin exch cos div 1 0 0] concat} def 
/mp {newpath /y exch def /x exch def} def
/side {[w .77 mul w .23 mul] .385 w mul sd w 0 l currentpoint t -144 r} def
/mr {mp x y w2 0 360 arc} def /m24 {mr s} def /m20 {mr f} def
/mb {mp x y w2 add m w2 neg 0 d 0 w neg d w 0 d 0 w d cl} def
/mt {mp x y w2 add m w2 neg w neg d w 0 d cl} def
/m21 {mb f} def /m25 {mb s} def /m22 {mt f} def /m26{mt s} def
/m23 {mp x y w2 sub m w2 w d w neg 0 d cl f} def
/m27 {mp x y w2 add m w3 neg w2 neg d w3 w2 neg d w3 w2 d cl s} def
/m28 {mp x w2 sub y w2 sub w3 add m w3 0 d  0 w3 neg d w3 0 d 0 w3 d w3 0 d  0 w3 d w3 neg 0 d 0 w3 d w3 neg 0 d 0 w3 neg d w3 neg 0 d cl s } def
/m29 {mp gsave x w2 sub y w2 add w3 sub m currentpoint t 4 {side} repeat cl fill gr} def
/m30 {mp gsave x w2 sub y w2 add w3 sub m currentpoint t 4 {side} repeat cl s gr} def
/m31 {mp x y w2 sub m 0 w d x w2 sub y m w 0 d x w2 sub y w2 add m w w neg d x w2 sub y w2 sub m w w d s} def
/m32 {mp x y w2 sub m w2 w d w neg 0 d cl s} def
/m33 {mp x y w2 add m w3 neg w2 neg d w3 w2 neg d w3 w2 d cl f} def
/m34 {mp x w2 sub y w2 sub w3 add m w3 0 d  0 w3 neg d w3 0 d 0 w3 d w3 0 d  0 w3 d w3 neg 0 d 0 w3 d w3 neg 0 d 0 w3 neg d w3 neg 0 d cl f } def
/m2 {mp x y w2 sub m 0 w d x w2 sub y m w 0 d s} def
/m5 {mp x w2 sub y w2 sub m w w d x w2 sub y w2 add m w w neg d s} def
%%IncludeResource: ProcSet (FontSetInit)
%%IncludeResource: font Times-Roman
%%IncludeResource: font Times-Italic
%%IncludeResource: font Times-Bold
%%IncludeResource: font Times-BoldItalic
%%IncludeResource: font Helvetica
%%IncludeResource: font Helvetica-Oblique
%%IncludeResource: font Helvetica-Bold
%%IncludeResource: font Helvetica-BoldOblique
%%IncludeResource: font Courier
%%IncludeResource: font Courier-Oblique
%%IncludeResource: font Courier-Bold
%%IncludeResource: font Courier-BoldOblique
%%IncludeResource: font Symbol
%%IncludeResource: font ZapfDingbats
/reEncode {exch findfont dup length dict begin {1 index /FID eq  {pop pop} {def} ifelse } forall /Encoding exch def currentdict end dup /FontName get exch definefont pop } def [/Times-Bold /Times-Italic /Times-BoldItalic /Helvetica /Helvetica-Oblique
 /Helvetica-Bold /Helvetica-BoldOblique /Courier /Courier-Oblique /Courier-Bold /Courier-BoldOblique /Times-Roman /AvantGarde-Book /AvantGarde-BookOblique /AvantGarde-Demi /AvantGarde-DemiOblique /Bookman-Demi /Bookman-DemiItalic /Bookman-Light
 /Bookman-LightItalic /Helvetica-Narrow /Helvetica-Narrow-Bold /Helvetica-Narrow-BoldOblique /Helvetica-Narrow-Oblique /NewCenturySchlbk-Roman /NewCenturySchlbk-Bold /NewCenturySchlbk-BoldItalic /NewCenturySchlbk-Italic /Palatino-Bold
 /Palatino-BoldItalic /Palatino-Italic /Palatino-Roman ] {ISOLatin1Encoding reEncode } forall
%%EndProlog
%%BeginSetup
%%EndSetup
newpath  gsave  .25 .25 scale  gsave  0 0 t black[  ] 0 sd 3 lw 1 1 1 c 2268 2085 0 0 bf black 1 1 1 c 2263 1770 2 313 bf black 1 1 1 c black 1860 1145 319 584 bl 1 1 1 c black 1860 1145 319 584 bl 6 lw 1 1 1 c black 381 948 m 11 Y s 381 986 m 5 Y s
 3 lw /w 33 def /w2 {w 2 div} def /w3 {w 3 div} def 381 972 m20 6 lw 3 lw 505 1100 m20 6 lw 3 lw 629 1092 m20 6 lw 3 lw 753 1066 m20 6 lw 877 1019 m 2 Y s 3 lw 877 1035 m20 6 lw 1001 1007 m 3 Y s 1001 1038 m s 3 lw 1001 1024 m20 6 lw 1125 934 m 13 Y
 s 1125 974 m 6 Y s 3 lw 1125 960 m20 6 lw 1249 925 m 15 Y s 1249 967 m 7 Y s 3 lw 1249 953 m20 6 lw 1373 934 m 13 Y s 1373 974 m 6 Y s 3 lw 1373 960 m20 6 lw 1497 820 m 40 Y s 1497 888 m 18 Y s 3 lw 1497 874 m20 6 lw 1621 820 m 40 Y s 1621 888 m 18
 Y s 3 lw 1621 874 m20 6 lw 1745 723 m 83 Y s 1745 833 m 29 Y s 3 lw 1745 820 m20 6 lw 1869 584 m 168 Y s 1869 779 m 41 Y s 3 lw 1869 765 m20 6 lw 1993 584 m 168 Y s 1993 779 m 41 Y s 3 lw 1993 765 m20 6 lw 2117 723 m 83 Y s 2117 833 m 29 Y s 3 lw
 2117 820 m20 6 lw 3 lw 319 584 m 1860 X s
 gsave  2263 1770 2 313 C 1949.08 369.478 t 0 r /Helvetica findfont 81.3741 sf 0 0 m ( [GeV]) show NC gr 
 gsave  2263 1770 2 313 C 1888.07 342.361 t 0 r /Helvetica findfont 54.2494 sf 0 0 m (eff) show NC gr 
 gsave  2263 1770 2 313 C 1823.66 369.478 t 0 r /Helvetica findfont 81.3741 sf 0 0 m (m) show NC gr  319 584 m cl s 381 584 m cl s 443 584 m cl s 505 584 m cl s 567 584 m cl s 629 584 m cl s 691 584 m cl s 753 584 m cl s 815 584 m cl s 877 584 m cl s
 939 584 m cl s 1001 584 m cl s 1063 584 m cl s 1125 584 m cl s 1187 584 m cl s 1249 584 m cl s 1311 584 m cl s 1373 584 m cl s 1435 584 m cl s 1497 584 m cl s 1559 584 m cl s 1621 584 m cl s 1683 584 m cl s 1745 584 m cl s 1807 584 m cl s 1869 584 m
 cl s 1931 584 m cl s 1993 584 m cl s 2055 584 m cl s 2117 584 m cl s 2179 584 m cl s 319 1729 m 1860 X s 319 1729 m cl s 381 1729 m cl s 443 1729 m cl s 505 1729 m cl s 567 1729 m cl s 629 1729 m cl s 691 1729 m cl s 753 1729 m cl s 815 1729 m cl s
 877 1729 m cl s 939 1729 m cl s 1001 1729 m cl s 1063 1729 m cl s 1125 1729 m cl s 1187 1729 m cl s 1249 1729 m cl s 1311 1729 m cl s 1373 1729 m cl s 1435 1729 m cl s 1497 1729 m cl s 1559 1729 m cl s 1621 1729 m cl s 1683 1729 m cl s 1745 1729 m
 cl s 1807 1729 m cl s 1869 1729 m cl s 1931 1729 m cl s 1993 1729 m cl s 2055 1729 m cl s 2117 1729 m cl s 2179 1729 m cl s 319 584 m 1145 Y s
 gsave  2263 1770 2 313 C 166.096 1091.49 t 90 r /Helvetica findfont 81.3741 sf 0 0 m (Events / 200 GeV) show NC gr  341 639 m -22 X s 341 671 m -22 X s 341 693 m -22 X s 341 711 m -22 X s 341 725 m -22 X s 341 737 m -22 X s 341 748 m -22 X s 341 757
 m -22 X s 363 765 m -44 X s
 gsave  2263 1770 2 313 C 300.555 738.012 t 0 r  -36 0 t /Helvetica findfont 64.4212 sf 0 0 m (1) show NC gr  341 820 m -22 X s 341 851 m -22 X s 341 874 m -22 X s 341 892 m -22 X s 341 906 m -22 X s 341 918 m -22 X s 341 928 m -22 X s 341 938 m -22
 X s 363 946 m -44 X s
 gsave  2263 1770 2 313 C 300.555 918.833 t 0 r  -73 0 t /Helvetica findfont 64.4212 sf 0 0 m (10) show NC gr  341 1000 m -22 X s 341 1032 m -22 X s 341 1055 m -22 X s 341 1072 m -22 X s 341 1087 m -22 X s 341 1099 m -22 X s 341 1109 m -22 X s 341
 1118 m -22 X s 363 1127 m -44 X s
 gsave  2263 1770 2 313 C 274.567 1125.38 t 0 r /Helvetica findfont 44.0776 sf 0 0 m (2) show NC gr 
 gsave  2263 1770 2 313 C 203.383 1098.27 t 0 r /Helvetica findfont 64.4212 sf 0 0 m (10) show NC gr  341 1181 m -22 X s 341 1213 m -22 X s 341 1236 m -22 X s 341 1253 m -22 X s 341 1267 m -22 X s 341 1280 m -22 X s 341 1290 m -22 X s 341 1299 m -22
 X s 363 1308 m -44 X s
 gsave  2263 1770 2 313 C 274.567 1308.43 t 0 r /Helvetica findfont 44.0776 sf 0 0 m (3) show NC gr 
 gsave  2263 1770 2 313 C 203.383 1277.92 t 0 r /Helvetica findfont 64.4212 sf 0 0 m (10) show NC gr  341 1362 m -22 X s 341 1394 m -22 X s 341 1416 m -22 X s 341 1434 m -22 X s 341 1448 m -22 X s 341 1460 m -22 X s 341 1471 m -22 X s 341 1480 m -22
 X s 363 1488 m -44 X s
 gsave  2263 1770 2 313 C 274.567 1488.08 t 0 r /Helvetica findfont 44.0776 sf 0 0 m (4) show NC gr 
 gsave  2263 1770 2 313 C 203.383 1460.97 t 0 r /Helvetica findfont 64.4212 sf 0 0 m (10) show NC gr  341 1543 m -22 X s 341 1575 m -22 X s 341 1597 m -22 X s 341 1615 m -22 X s 341 1629 m -22 X s 341 1641 m -22 X s 341 1652 m -22 X s 341 1661 m -22
 X s 363 1669 m -44 X s
 gsave  2263 1770 2 313 C 274.567 1671.13 t 0 r /Helvetica findfont 44.0776 sf 0 0 m (5) show NC gr 
 gsave  2263 1770 2 313 C 203.383 1640.62 t 0 r /Helvetica findfont 64.4212 sf 0 0 m (10) show NC gr  341 1724 m -22 X s 2179 584 m 1145 Y s 2157 639 m 22 X s 2157 671 m 22 X s 2157 693 m 22 X s 2157 711 m 22 X s 2157 725 m 22 X s 2157 737 m 22 X s
 2157 748 m 22 X s 2157 757 m 22 X s 2136 765 m 43 X s 2157 820 m 22 X s 2157 851 m 22 X s 2157 874 m 22 X s 2157 892 m 22 X s 2157 906 m 22 X s 2157 918 m 22 X s 2157 928 m 22 X s 2157 938 m 22 X s 2136 946 m 43 X s 2157 1000 m 22 X s 2157 1032 m 22
 X s 2157 1055 m 22 X s 2157 1072 m 22 X s 2157 1087 m 22 X s 2157 1099 m 22 X s 2157 1109 m 22 X s 2157 1118 m 22 X s 2136 1127 m 43 X s 2157 1181 m 22 X s 2157 1213 m 22 X s 2157 1236 m 22 X s 2157 1253 m 22 X s 2157 1267 m 22 X s 2157 1280 m 22 X
 s 2157 1290 m 22 X s 2157 1299 m 22 X s 2136 1308 m 43 X s 2157 1362 m 22 X s 2157 1394 m 22 X s 2157 1416 m 22 X s 2157 1434 m 22 X s 2157 1448 m 22 X s 2157 1460 m 22 X s 2157 1471 m 22 X s 2157 1480 m 22 X s 2136 1488 m 43 X s 2157 1543 m 22 X s
 2157 1575 m 22 X s 2157 1597 m 22 X s 2157 1615 m 22 X s 2157 1629 m 22 X s 2157 1641 m 22 X s 2157 1652 m 22 X s 2157 1661 m 22 X s 2136 1669 m 43 X s 2157 1724 m 22 X s 1 1 0 c black 1 1 0 c 319 584 m 398 Y 124 X 96 Y 124 X 15 Y 124 X -29 Y 124 X
 -11 Y 124 X -42 Y 124 X -15 Y 124 X -32 Y 124 X -16 Y 124 X -21 Y 124 X -93 Y 124 X -20 Y 124 X -32 Y 124 X -30 Y 124 X 54 Y 124 X -222 Y f black 1 1 0 c black 319 982 m 124 X 96 Y 124 X 15 Y 124 X -29 Y 124 X -11 Y 124 X -42 Y 124 X -15 Y 124 X -32
 Y 124 X -16 Y 124 X -21 Y 124 X -93 Y 124 X -20 Y 124 X -32 Y 124 X -30 Y 124 X 54 Y 124 X s 0.999 0.999 0.999 c black 0.999 0.999 0.999 c 319 584 m 165 Y 124 X 55 Y 124 X -8 Y 124 X -18 Y 124 X -77 Y 124 X 38 Y 124 X -44 Y 124 X -79 Y 124 X -32 Y
 868 X f black 0.999 0.999 0.999 c black 319 749 m 124 X 55 Y 124 X -8 Y 124 X -18 Y 124 X -77 Y 124 X 38 Y 124 X -44 Y 124 X -79 Y 124 X -32 Y 868 X s 1 1 1 c black 319 749 m 124 X 55 Y 124 X -8 Y 124 X -18 Y 124 X -77 Y 124 X 38 Y 124 X -44 Y 124 X
 -79 Y 124 X -32 Y 868 X s 0.4 0.6 1 c black 0.4 0.6 1 c 319 584 m 165 Y 124 X 55 Y 124 X -8 Y 124 X -18 Y 124 X -77 Y 124 X 38 Y 124 X -44 Y 124 X -79 Y 124 X -32 Y 868 X f black 0.4 0.6 1 c black 319 749 m 124 X 55 Y 124 X -8 Y 124 X -18 Y 124 X
 -77 Y 124 X 38 Y 124 X -44 Y 124 X -79 Y 124 X -32 Y 868 X s 0.999 0.999 0.999 c black 0.999 0.999 0.999 c 319 584 m 165 Y 124 X 53 Y 124 X -21 Y 124 X -12 Y 124 X -96 Y 124 X 55 Y 124 X -58 Y 124 X -86 Y 992 X f black 0.999 0.999 0.999 c black 319
 749 m 124 X 53 Y 124 X -21 Y 124 X -12 Y 124 X -96 Y 124 X 55 Y 124 X -58 Y 124 X -86 Y 992 X s 1 1 1 c black 319 749 m 124 X 53 Y 124 X -21 Y 124 X -12 Y 124 X -96 Y 124 X 55 Y 124 X -58 Y 124 X -86 Y 992 X s 0.6 1 0.6 c black 0.6 1 0.6 c 319 584 m
 165 Y 124 X 53 Y 124 X -21 Y 124 X -12 Y 124 X -96 Y 124 X 55 Y 124 X -58 Y 124 X -86 Y 992 X f black 0.6 1 0.6 c black 319 749 m 124 X 53 Y 124 X -21 Y 124 X -12 Y 124 X -96 Y 124 X 55 Y 124 X -58 Y 124 X -86 Y 992 X s 0.999 0.999 0.999 c black
 0.999 0.999 0.999 c 319 584 m 372 X 84 Y 124 X -84 Y 1364 X f black 0.999 0.999 0.999 c black 319 584 m 372 X 84 Y 124 X -84 Y 1364 X s 1 1 1 c black 319 584 m 372 X 84 Y 124 X -84 Y 1364 X s 1 0.4 0.6 c black 1 0.4 0.6 c 319 584 m 372 X 84 Y 124 X
 -84 Y 1364 X f black 1 0.4 0.6 c black 319 584 m 372 X 84 Y 124 X -84 Y 1364 X s 1 0 0 c 6 lw 1 1 1 c black 1 0 0 c 319 982 m 124 X 96 Y 124 X 15 Y 124 X -29 Y 124 X -11 Y 124 X -42 Y 124 X -15 Y 124 X -32 Y 124 X -16 Y 124 X -21 Y 124 X -93 Y 124 X
 -20 Y 124 X -32 Y 124 X -30 Y 124 X 54 Y 124 X s black 3 lw 1 0 0 c 1 lw << /PatternType 1 /PaintType 2 /TilingType 1 /BBox [ 0 0 100 100 ] /XStep 100 /YStep 100 /PaintProc { begin gsave 0 100 m 100 0 l s gr end } >> [ 0.24 0 0 0.24 0 0 ]
 makepattern /P05 exch def /cs {[/Pattern /DeviceRGB] setcolorspace} def /FA {f [/DeviceRGB] setcolorspace} def cs 1 0 0 P05 setcolor 319 584 m 416 Y 124 X 87 Y 124 X 15 Y 124 X -30 Y 124 X -10 Y 124 X -42 Y 124 X -15 Y 124 X -31 Y 124 X -8 Y 124 X
 -18 Y 124 X -99 Y 124 X -22 Y 124 X -26 Y 124 X -29 Y 124 X 48 Y 124 X -236 Y 205 Y -124 X -63 Y -124 X 31 Y -124 X 41 Y -124 X 19 Y -124 X 82 Y -124 X 24 Y -124 X 28 Y -124 X 34 Y -124 X 16 Y -124 X 42 Y -124 X 11 Y -124 X 29 Y -124 X -15 Y -124 X
 -110 Y -124 X -374 Y FA 6 lw 1 1 1 c 15 lw 381 952 m -4 Y s 381 948 m cl s 1125 940 m -6 Y s 1125 934 m cl s 1249 974 m 1 Y s 1249 975 m cl s 1249 933 m -7 Y s 1249 926 m cl s 1373 940 m -6 Y s 1373 934 m cl s 1497 894 m 14 Y s 1497 908 m cl s 1497
 854 m -31 Y s 1497 823 m cl s 1621 894 m 14 Y s 1621 908 m cl s 1621 854 m -31 Y s 1621 823 m cl s 1745 840 m 26 Y s 1745 866 m cl s 1745 799 m -61 Y s 1745 738 m cl s 1869 785 m 45 Y s 1869 830 m cl s 1869 745 m -117 Y s 1869 628 m cl s 1993 785 m
 45 Y s 1993 830 m cl s 1993 745 m -117 Y s 1993 628 m cl s 2117 840 m 26 Y s 2117 866 m cl s 2117 799 m -61 Y s 2117 738 m cl s black 1 1 1 c 3 lw /w 43 def /w2 {w 2 div} def /w3 {w 3 div} def 381 972 505 1100 629 1092 753 1066 877 1035 1001 1024
 1125 960 1249 953 1373 960 1497 874 1621 874 1745 820 1869 765 1993 765 2117 820 15 { m20} R 15 lw black 6 lw 1 1 1 c black 381 948 m 11 Y s 381 986 m 5 Y s 3 lw /w 33 def /w2 {w 2 div} def /w3 {w 3 div} def 381 972 m20 6 lw 3 lw 505 1100 m20 6 lw 3
 lw 629 1092 m20 6 lw 3 lw 753 1066 m20 6 lw 877 1019 m 2 Y s 3 lw 877 1035 m20 6 lw 1001 1007 m 3 Y s 1001 1038 m s 3 lw 1001 1024 m20 6 lw 1125 934 m 13 Y s 1125 974 m 6 Y s 3 lw 1125 960 m20 6 lw 1249 925 m 15 Y s 1249 967 m 7 Y s 3 lw 1249 953
 m20 6 lw 1373 934 m 13 Y s 1373 974 m 6 Y s 3 lw 1373 960 m20 6 lw 1497 820 m 40 Y s 1497 888 m 18 Y s 3 lw 1497 874 m20 6 lw 1621 820 m 40 Y s 1621 888 m 18 Y s 3 lw 1621 874 m20 6 lw 1745 723 m 83 Y s 1745 833 m 29 Y s 3 lw 1745 820 m20 6 lw 1869
 584 m 168 Y s 1869 779 m 41 Y s 3 lw 1869 765 m20 6 lw 1993 584 m 168 Y s 1993 779 m 41 Y s 3 lw 1993 765 m20 6 lw 2117 723 m 83 Y s 2117 833 m 29 Y s 3 lw 2117 820 m20 6 lw 381 986 m 5 Y s 381 991 m cl s 381 959 m -11 Y s 381 948 m cl s 877 1021 m
 -2 Y s 877 1019 m cl s 1001 1038 m s 1001 1038 m cl s 1001 1010 m -3 Y s 1001 1007 m cl s 1125 974 m 7 Y s 1125 981 m cl s 1125 947 m -13 Y s 1125 934 m cl s 1249 967 m 8 Y s 1249 975 m cl s 1249 940 m -14 Y s 1249 926 m cl s 1373 974 m 7 Y s 1373
 981 m cl s 1373 947 m -13 Y s 1373 934 m cl s 1497 888 m 20 Y s 1497 908 m cl s 1497 860 m -37 Y s 1497 823 m cl s 1621 888 m 20 Y s 1621 908 m cl s 1621 860 m -37 Y s 1621 823 m cl s 1745 833 m 33 Y s 1745 866 m cl s 1745 806 m -68 Y s 1745 738 m
 cl s 1869 779 m 51 Y s 1869 830 m cl s 1869 752 m -124 Y s 1869 628 m cl s 1993 779 m 51 Y s 1993 830 m cl s 1993 752 m -124 Y s 1993 628 m cl s 2117 833 m 33 Y s 2117 866 m cl s 2117 806 m -68 Y s 2117 738 m cl s 3 lw 381 972 505 1100 629 1092 753
 1066 877 1035 1001 1024 1125 960 1249 953 1373 960 1497 874 1621 874 1745 820 1869 765 1993 765 2117 820 15 { m20} R 6 lw 3 lw 319 584 m 1860 X s 319 584 m cl s 381 584 m cl s 443 584 m cl s 505 584 m cl s 567 584 m cl s 629 584 m cl s 691 584 m cl
 s 753 584 m cl s 815 584 m cl s 877 584 m cl s 939 584 m cl s 1001 584 m cl s 1063 584 m cl s 1125 584 m cl s 1187 584 m cl s 1249 584 m cl s 1311 584 m cl s 1373 584 m cl s 1435 584 m cl s 1497 584 m cl s 1559 584 m cl s 1621 584 m cl s 1683 584 m
 cl s 1745 584 m cl s 1807 584 m cl s 1869 584 m cl s 1931 584 m cl s 1993 584 m cl s 2055 584 m cl s 2117 584 m cl s 2179 584 m cl s 319 1729 m 1860 X s 319 1729 m cl s 381 1729 m cl s 443 1729 m cl s 505 1729 m cl s 567 1729 m cl s 629 1729 m cl s
 691 1729 m cl s 753 1729 m cl s 815 1729 m cl s 877 1729 m cl s 939 1729 m cl s 1001 1729 m cl s 1063 1729 m cl s 1125 1729 m cl s 1187 1729 m cl s 1249 1729 m cl s 1311 1729 m cl s 1373 1729 m cl s 1435 1729 m cl s 1497 1729 m cl s 1559 1729 m cl s
 1621 1729 m cl s 1683 1729 m cl s 1745 1729 m cl s 1807 1729 m cl s 1869 1729 m cl s 1931 1729 m cl s 1993 1729 m cl s 2055 1729 m cl s 2117 1729 m cl s 2179 1729 m cl s 319 584 m 1145 Y s 341 639 m -22 X s 341 671 m -22 X s 341 693 m -22 X s 341
 711 m -22 X s 341 725 m -22 X s 341 737 m -22 X s 341 748 m -22 X s 341 757 m -22 X s 363 765 m -44 X s 341 820 m -22 X s 341 851 m -22 X s 341 874 m -22 X s 341 892 m -22 X s 341 906 m -22 X s 341 918 m -22 X s 341 928 m -22 X s 341 938 m -22 X s
 363 946 m -44 X s 341 1000 m -22 X s 341 1032 m -22 X s 341 1055 m -22 X s 341 1072 m -22 X s 341 1087 m -22 X s 341 1099 m -22 X s 341 1109 m -22 X s 341 1118 m -22 X s 363 1127 m -44 X s 341 1181 m -22 X s 341 1213 m -22 X s 341 1236 m -22 X s 341
 1253 m -22 X s 341 1267 m -22 X s 341 1280 m -22 X s 341 1290 m -22 X s 341 1299 m -22 X s 363 1308 m -44 X s 341 1362 m -22 X s 341 1394 m -22 X s 341 1416 m -22 X s 341 1434 m -22 X s 341 1448 m -22 X s 341 1460 m -22 X s 341 1471 m -22 X s 341
 1480 m -22 X s 363 1488 m -44 X s 341 1543 m -22 X s 341 1575 m -22 X s 341 1597 m -22 X s 341 1615 m -22 X s 341 1629 m -22 X s 341 1641 m -22 X s 341 1652 m -22 X s 341 1661 m -22 X s 363 1669 m -44 X s 341 1724 m -22 X s 2179 584 m 1145 Y s 2157
 639 m 22 X s 2157 671 m 22 X s 2157 693 m 22 X s 2157 711 m 22 X s 2157 725 m 22 X s 2157 737 m 22 X s 2157 748 m 22 X s 2157 757 m 22 X s 2136 765 m 43 X s 2157 820 m 22 X s 2157 851 m 22 X s 2157 874 m 22 X s 2157 892 m 22 X s 2157 906 m 22 X s
 2157 918 m 22 X s 2157 928 m 22 X s 2157 938 m 22 X s 2136 946 m 43 X s 2157 1000 m 22 X s 2157 1032 m 22 X s 2157 1055 m 22 X s 2157 1072 m 22 X s 2157 1087 m 22 X s 2157 1099 m 22 X s 2157 1109 m 22 X s 2157 1118 m 22 X s 2136 1127 m 43 X s 2157
 1181 m 22 X s 2157 1213 m 22 X s 2157 1236 m 22 X s 2157 1253 m 22 X s 2157 1267 m 22 X s 2157 1280 m 22 X s 2157 1290 m 22 X s 2157 1299 m 22 X s 2136 1308 m 43 X s 2157 1362 m 22 X s 2157 1394 m 22 X s 2157 1416 m 22 X s 2157 1434 m 22 X s 2157
 1448 m 22 X s 2157 1460 m 22 X s 2157 1471 m 22 X s 2157 1480 m 22 X s 2136 1488 m 43 X s 2157 1543 m 22 X s 2157 1575 m 22 X s 2157 1597 m 22 X s 2157 1615 m 22 X s 2157 1629 m 22 X s 2157 1641 m 22 X s 2157 1652 m 22 X s 2157 1661 m 22 X s 2136
 1669 m 43 X s 2157 1724 m 22 X s
 gsave  2263 1770 2 313 C 406.765 1447.41 t 0 r /Helvetica findfont 64.4212 sf 0 0 m (CRY for MB\255GGo) show NC gr 
 gsave  2263 1770 2 313 C 1464.36 1616.89 t 0 r /Helvetica findfont 64.4212 sf 0 0 m (SM Total) show NC gr  1 1 1 c 1338 1603 m 107 X 74 Y -107 X f 1 0 0 c 6 lw 1338 1640 m 107 X s black
 gsave  2263 1770 2 313 C 1464.36 1511.81 t 0 r /Helvetica findfont 64.4212 sf 0 0 m (Data) show NC gr  1391 1502 m 64 Y s 3 lw 1391 1534 m20 6 lw
 gsave  2263 1770 2 313 C 1464.36 1406.73 t 0 r /Helvetica findfont 64.4212 sf 0 0 m (GAMMAjets) show NC gr  1 1 0 c 3 lw 1338 1391 m 107 X 74 Y -107 X f 6 lw black 3 lw 1338 1465 m 107 X s 1338 1391 m 107 X s 1445 1391 m 74 Y s 1338 1391 m 74 Y s
 gsave  2263 1770 2 313 C 1464.36 1298.26 t 0 r /Helvetica findfont 64.4212 sf 0 0 m (W+jets) show NC gr  0.4 0.6 1 c 1338 1284 m 107 X 75 Y -107 X f black 1338 1359 m 107 X s 1338 1284 m 107 X s 1445 1284 m 75 Y s 1338 1284 m 75 Y s
 gsave  2263 1770 2 313 C 1498.25 1193.18 t 0 r /Helvetica findfont 64.4212 sf 0 0 m (\(+EW\) & single top) show NC gr 
 gsave  2263 1770 2 313 C 1481.3 1193.18 t 0 r /Helvetica findfont 64.4212 sf 0 0 m (t) show NC gr  1481 1244 m 17 X s
 gsave  2263 1770 2 313 C 1464.36 1193.18 t 0 r /Helvetica findfont 64.4212 sf 0 0 m (t) show NC gr  0.6 1 0.6 c 1338 1178 m 107 X 75 Y -107 X f black 1338 1253 m 107 X s 1338 1178 m 107 X s 1445 1178 m 75 Y s 1338 1178 m 75 Y s
 gsave  2263 1770 2 313 C 1464.36 1088.1 t 0 r /Helvetica findfont 64.4212 sf 0 0 m (Diboson) show NC gr  1 0.4 0.6 c 1338 1072 m 107 X 74 Y -107 X f black 1338 1146 m 107 X s 1338 1072 m 107 X s 1445 1072 m 74 Y s 1338 1072 m 74 Y s
 gsave  2263 1770 2 313 C 911.832 1566.05 t 0 r /Helvetica findfont 44.0776 sf 0 0 m (\2551) show NC gr 
 gsave  2263 1770 2 313 C 471.17 1535.54 t 0 r /Helvetica findfont 64.4212 sf 0 0 m (=13TeV, 139 fb) show NC gr 
 gsave  2263 1770 2 313 C 440.662 1535.54 t 0 r /Helvetica findfont 64.4212 sf 0 0 m (s) show NC gr  6 lw 420 1573 m 7 -41 d s 3 lw 427 1532 m 7 61 d s 434 1593 m 37 X s 1 1 1 c 2254 561 2 2 bf black 1 1 1 c black 1860 358 318 187 bl 1 1 1 c black
 1860 358 318 187 bl 6 lw 1 1 1 c black 3 lw 380 348 m20 6 lw 3 lw 504 418 m20 6 lw 3 lw 628 363 m20 6 lw 3 lw 752 370 m20 6 lw 3 lw 876 333 m20 6 lw 3 lw 1000 395 m20 6 lw 3 lw 1124 307 m20 6 lw 3 lw 1248 346 m20 6 lw 3 lw 1372 394 m20 6 lw 3 lw
 1496 286 m20 6 lw 3 lw 1620 473 m20 6 lw 3 lw 1744 378 m20 6 lw 3 lw 1868 334 m20 6 lw 3 lw 1992 396 m20 6 lw 3 lw 2116 397 m20 6 lw 3 lw 318 187 m 1860 X s
 gsave  2254 561 2 2 C 1959.25 33.8971 t 0 r /Helvetica findfont 78.1689 sf 0 0 m ( [GeV]) show NC gr 
 gsave  2254 561 2 2 C 1901.63 13.5588 t 0 r /Helvetica findfont 50.9797 sf 0 0 m (eff) show NC gr 
 gsave  2254 561 2 2 C 1840.61 33.8971 t 0 r /Helvetica findfont 78.1689 sf 0 0 m (m) show NC gr  318 201 m -14 Y s 380 194 m -7 Y s 442 194 m -7 Y s 504 194 m -7 Y s 566 194 m -7 Y s 628 201 m -14 Y s 690 194 m -7 Y s 752 194 m -7 Y s 814 194 m -7 Y
 s 876 194 m -7 Y s 938 201 m -14 Y s 1000 194 m -7 Y s 1062 194 m -7 Y s 1124 194 m -7 Y s 1186 194 m -7 Y s 1248 201 m -14 Y s 1310 194 m -7 Y s 1372 194 m -7 Y s 1434 194 m -7 Y s 1496 194 m -7 Y s 1558 201 m -14 Y s 1620 194 m -7 Y s 1682 194 m
 -7 Y s 1744 194 m -7 Y s 1806 194 m -7 Y s 1868 201 m -14 Y s 1930 194 m -7 Y s 1992 194 m -7 Y s 2054 194 m -7 Y s 2116 194 m -7 Y s 2178 201 m -14 Y s
 gsave  2254 561 2 2 C 227.111 118.64 t 0 r /Helvetica findfont 78.1689 sf 0 0 m (1000) show NC gr 
 gsave  2254 561 2 2 C 538.964 118.64 t 0 r /Helvetica findfont 78.1689 sf 0 0 m (1500) show NC gr 
 gsave  2254 561 2 2 C 847.428 118.64 t 0 r /Helvetica findfont 78.1689 sf 0 0 m (2000) show NC gr 
 gsave  2254 561 2 2 C 1159.28 118.64 t 0 r /Helvetica findfont 78.1689 sf 0 0 m (2500) show NC gr 
 gsave  2254 561 2 2 C 1467.74 118.64 t 0 r /Helvetica findfont 78.1689 sf 0 0 m (3000) show NC gr 
 gsave  2254 561 2 2 C 1779.6 118.64 t 0 r /Helvetica findfont 78.1689 sf 0 0 m (3500) show NC gr 
 gsave  2254 561 2 2 C 2088.06 118.64 t 0 r /Helvetica findfont 78.1689 sf 0 0 m (4000) show NC gr  318 545 m 1860 X s 318 531 m 14 Y s 380 538 m 7 Y s 442 538 m 7 Y s 504 538 m 7 Y s 566 538 m 7 Y s 628 531 m 14 Y s 690 538 m 7 Y s 752 538 m 7 Y s
 814 538 m 7 Y s 876 538 m 7 Y s 938 531 m 14 Y s 1000 538 m 7 Y s 1062 538 m 7 Y s 1124 538 m 7 Y s 1186 538 m 7 Y s 1248 531 m 14 Y s 1310 538 m 7 Y s 1372 538 m 7 Y s 1434 538 m 7 Y s 1496 538 m 7 Y s 1558 531 m 14 Y s 1620 538 m 7 Y s 1682 538 m
 7 Y s 1744 538 m 7 Y s 1806 538 m 7 Y s 1868 531 m 14 Y s 1930 538 m 7 Y s 1992 538 m 7 Y s 2054 538 m 7 Y s 2116 538 m 7 Y s 2178 531 m 14 Y s 318 187 m 358 Y s
 gsave  2254 561 2 2 C 166.096 284.736 t 90 r /Helvetica findfont 67.9729 sf 0 0 m (Data/SM) show NC gr  361 203 m -43 X s 339 220 m -21 X s 339 236 m -21 X s 339 252 m -21 X s 339 268 m -21 X s 361 285 m -43 X s 339 301 m -21 X s 339 317 m -21 X s
 339 334 m -21 X s 339 350 m -21 X s 361 366 m -43 X s 339 382 m -21 X s 339 399 m -21 X s 339 415 m -21 X s 339 431 m -21 X s 361 447 m -43 X s 339 464 m -21 X s 339 480 m -21 X s 339 496 m -21 X s 339 512 m -21 X s 361 529 m -43 X s 361 203 m -43 X
 s 339 187 m -21 X s 361 529 m -43 X s
 gsave  2254 561 2 2 C 261.008 183.044 t 0 r /Helvetica findfont 57.777 sf 0 0 m (0) show NC gr 
 gsave  2254 561 2 2 C 213.552 261.008 t 0 r /Helvetica findfont 57.777 sf 0 0 m (0.5) show NC gr 
 gsave  2254 561 2 2 C 271.177 342.361 t 0 r /Helvetica findfont 57.777 sf 0 0 m (1) show NC gr 
 gsave  2254 561 2 2 C 213.552 423.714 t 0 r /Helvetica findfont 57.777 sf 0 0 m (1.5) show NC gr 
 gsave  2254 561 2 2 C 261.008 505.067 t 0 r /Helvetica findfont 57.777 sf 0 0 m (2) show NC gr  2178 187 m 358 Y s 2135 203 m 43 X s 2157 220 m 21 X s 2157 236 m 21 X s 2157 252 m 21 X s 2157 268 m 21 X s 2135 285 m 43 X s 2157 301 m 21 X s 2157 317
 m 21 X s 2157 334 m 21 X s 2157 350 m 21 X s 2135 366 m 43 X s 2157 382 m 21 X s 2157 399 m 21 X s 2157 415 m 21 X s 2157 431 m 21 X s 2135 447 m 43 X s 2157 464 m 21 X s 2157 480 m 21 X s 2157 496 m 21 X s 2157 512 m 21 X s 2135 529 m 43 X s 2135
 203 m 43 X s 2157 187 m 21 X s 2135 529 m 43 X s 9 lw 380 361 m 26 Y s 380 387 m cl s 380 334 m -24 Y s 380 310 m cl s 504 432 m 12 Y s 504 444 m cl s 504 405 m -12 Y s 504 393 m cl s 628 376 m 7 Y s 628 383 m cl s 628 349 m -6 Y s 628 343 m cl s
 752 384 m 11 Y s 752 395 m cl s 752 357 m -11 Y s 752 346 m cl s 876 346 m 10 Y s 876 356 m cl s 876 319 m -9 Y s 876 310 m cl s 1000 409 m 23 Y s 1000 432 m cl s 1000 382 m -23 Y s 1000 359 m cl s 1124 320 m 17 Y s 1124 337 m cl s 1124 293 m -15 Y
 s 1124 278 m cl s 1248 360 m 30 Y s 1248 390 m cl s 1248 333 m -29 Y s 1248 304 m cl s 1372 408 m 43 Y s 1372 451 m cl s 1372 381 m -41 Y s 1372 340 m cl s 1496 300 m 30 Y s 1496 330 m cl s 1496 272 m -25 Y s 1496 247 m cl s 1620 487 m 58 Y s 1620
 545 m cl s 1620 460 m -115 Y s 1620 345 m cl s 1744 391 m 128 Y s 1744 519 m cl s 1744 364 m -99 Y s 1744 265 m cl s 1868 348 m 155 Y s 1868 503 m cl s 1868 321 m -95 Y s 1868 226 m cl s 1992 409 m 136 Y s 1992 545 m cl s 1992 382 m -145 Y s 1992
 237 m cl s 2116 410 m 135 Y s 2116 545 m cl s 2116 383 m -111 Y s 2116 272 m cl s 3 lw 380 348 504 418 628 363 752 370 876 333 1000 395 1124 307 1248 346 1372 394 1496 286 1620 473 1744 378 1868 334 1992 396 2116 397 15 { m20} R 9 lw 1 0 0 c 6 lw
 black 3 lw 1 0 0 c 2178 227 m s 2178 255 m s 2178 284 m s 2178 312 m s 2178 341 m -7 -7 d s 2178 369 m -36 -35 d s 2178 398 m -64 -64 d s 2150 398 m -65 -64 d s 2121 398 m -65 -64 d s 2054 332 m -11 -12 d s 2093 398 m -79 -78 d s 2064 398 m -79 -78
 d s 2049 412 m -92 -92 d s 2020 412 m -90 -90 d s 1992 412 m -91 -90 d s 1963 412 m -90 -90 d s 1934 412 m -90 -90 d s 1903 410 m -88 -88 d s 1875 410 m -74 -74 d s 1846 410 m -74 -74 d s 1817 410 m -11 -11 d s 1803 396 m -60 -60 d s 1775 396 m -60
 -60 d s 1746 396 m -60 -60 d s 1717 396 m -63 -63 d s 1688 396 m -62 -63 d s 1663 399 m -66 -66 d s 1634 399 m -66 -66 d s 1558 323 m -6 -6 d s 1605 399 m -82 -82 d s 1577 399 m -82 -82 d s 1558 409 m -92 -92 d s 1535 415 m -98 -98 d s 1507 415 m
 -94 -93 d s 1478 415 m -93 -93 d s 1449 415 m -93 -93 d s 1416 410 m -89 -88 d s 1387 410 m -77 -77 d s 1358 410 m -68 -68 d s 1330 410 m -20 -19 d s 1309 390 m -47 -48 d s 1281 390 m -48 -48 d s 1252 390 m -48 -48 d s 1223 390 m -44 -44 d s 1194
 390 m -44 -44 d s 1163 386 m -41 -40 d s 1134 386 m -41 -40 d s 1105 386 m -41 -40 d s 1077 386 m -41 -39 d s 1047 386 m -39 -39 d s 1018 386 m -39 -39 d s 990 386 m -40 -39 d s 961 386 m -40 -40 d s 933 386 m -41 -40 d s 904 386 m -40 -40 d s 875
 386 m -40 -40 d s 847 386 m -39 -38 d s 818 386 m -39 -38 d s 788 384 m -37 -36 d s 759 384 m -37 -36 d s 730 384 m -37 -36 d s 702 384 m -39 -38 d s 674 386 m -40 -40 d s 646 386 m -40 -40 d s 617 386 m -40 -40 d s 588 386 m -40 -40 d s 560 386 m
 -40 -40 d s 531 386 m -40 -40 d s 502 386 m -40 -40 d s 442 326 m -3 -3 d s 473 386 m -63 -63 d s 318 231 m s 445 386 m -63 -63 d s 318 259 m s 439 409 m -86 -86 d s 318 288 m s 410 409 m -86 -86 d s 318 317 m s 382 409 m -64 -64 d s 353 409 m -35
 -35 d s 324 409 m -6 -7 d s 6 lw black[ 4 8] 0 sd 3 lw 318 447 m 1860 X s 318 285 m 1860 X s 1 0 0 c[  12 12 ] 0 sd 6 lw 318 366 m 1860 X s
 gr  gr showpage
end
%%EOF
