%!PS-Adobe-2.0 EPSF-2.0
%%BoundingBox:  0 0 567 521
%%Title: Distributions/meffInc_distrVR0LmetSig_MB-C_beforeFit_forThesis.eps: canvas
%%Creator: ROOT Version 6.04/16
%%CreationDate: Tue May 19 22:04:59 2020
%%DocumentNeededResources: ProcSet (FontSetInit)
%%EndComments
%%BeginProlog
80 dict begin
/s {stroke} def /l {lineto} def /m {moveto} def /t {translate} def
/r {rotate} def /rl {roll}  def /R {repeat} def
/d {rlineto} def /rm {rmoveto} def /gr {grestore} def /f {eofill} def
/c {setrgbcolor} def /black {0 setgray} def /sd {setdash} def
/cl {closepath} def /sf {scalefont setfont} def /lw {setlinewidth} def
/box {m dup 0 exch d exch 0 d 0 exch neg d cl} def
/NC{systemdict begin initclip end}def/C{NC box clip newpath}def
/bl {box s} def /bf {gsave box gsave f grestore 1 lw [] 0 sd s grestore} def /Y { 0 exch d} def /X { 0 d} def 
/K {{pop pop 0 moveto} exch kshow} bind def
/ita {/ang 15 def gsave [1 0 ang dup sin exch cos div 1 0 0] concat} def 
/mp {newpath /y exch def /x exch def} def
/side {[w .77 mul w .23 mul] .385 w mul sd w 0 l currentpoint t -144 r} def
/mr {mp x y w2 0 360 arc} def /m24 {mr s} def /m20 {mr f} def
/mb {mp x y w2 add m w2 neg 0 d 0 w neg d w 0 d 0 w d cl} def
/mt {mp x y w2 add m w2 neg w neg d w 0 d cl} def
/m21 {mb f} def /m25 {mb s} def /m22 {mt f} def /m26{mt s} def
/m23 {mp x y w2 sub m w2 w d w neg 0 d cl f} def
/m27 {mp x y w2 add m w3 neg w2 neg d w3 w2 neg d w3 w2 d cl s} def
/m28 {mp x w2 sub y w2 sub w3 add m w3 0 d  0 w3 neg d w3 0 d 0 w3 d w3 0 d  0 w3 d w3 neg 0 d 0 w3 d w3 neg 0 d 0 w3 neg d w3 neg 0 d cl s } def
/m29 {mp gsave x w2 sub y w2 add w3 sub m currentpoint t 4 {side} repeat cl fill gr} def
/m30 {mp gsave x w2 sub y w2 add w3 sub m currentpoint t 4 {side} repeat cl s gr} def
/m31 {mp x y w2 sub m 0 w d x w2 sub y m w 0 d x w2 sub y w2 add m w w neg d x w2 sub y w2 sub m w w d s} def
/m32 {mp x y w2 sub m w2 w d w neg 0 d cl s} def
/m33 {mp x y w2 add m w3 neg w2 neg d w3 w2 neg d w3 w2 d cl f} def
/m34 {mp x w2 sub y w2 sub w3 add m w3 0 d  0 w3 neg d w3 0 d 0 w3 d w3 0 d  0 w3 d w3 neg 0 d 0 w3 d w3 neg 0 d 0 w3 neg d w3 neg 0 d cl f } def
/m2 {mp x y w2 sub m 0 w d x w2 sub y m w 0 d s} def
/m5 {mp x w2 sub y w2 sub m w w d x w2 sub y w2 add m w w neg d s} def
%%IncludeResource: ProcSet (FontSetInit)
%%IncludeResource: font Times-Roman
%%IncludeResource: font Times-Italic
%%IncludeResource: font Times-Bold
%%IncludeResource: font Times-BoldItalic
%%IncludeResource: font Helvetica
%%IncludeResource: font Helvetica-Oblique
%%IncludeResource: font Helvetica-Bold
%%IncludeResource: font Helvetica-BoldOblique
%%IncludeResource: font Courier
%%IncludeResource: font Courier-Oblique
%%IncludeResource: font Courier-Bold
%%IncludeResource: font Courier-BoldOblique
%%IncludeResource: font Symbol
%%IncludeResource: font ZapfDingbats
/reEncode {exch findfont dup length dict begin {1 index /FID eq  {pop pop} {def} ifelse } forall /Encoding exch def currentdict end dup /FontName get exch definefont pop } def [/Times-Bold /Times-Italic /Times-BoldItalic /Helvetica /Helvetica-Oblique
 /Helvetica-Bold /Helvetica-BoldOblique /Courier /Courier-Oblique /Courier-Bold /Courier-BoldOblique /Times-Roman /AvantGarde-Book /AvantGarde-BookOblique /AvantGarde-Demi /AvantGarde-DemiOblique /Bookman-Demi /Bookman-DemiItalic /Bookman-Light
 /Bookman-LightItalic /Helvetica-Narrow /Helvetica-Narrow-Bold /Helvetica-Narrow-BoldOblique /Helvetica-Narrow-Oblique /NewCenturySchlbk-Roman /NewCenturySchlbk-Bold /NewCenturySchlbk-BoldItalic /NewCenturySchlbk-Italic /Palatino-Bold
 /Palatino-BoldItalic /Palatino-Italic /Palatino-Roman ] {ISOLatin1Encoding reEncode } forall
%%EndProlog
%%BeginSetup
%%EndSetup
newpath  gsave  .25 .25 scale  gsave  0 0 t black[  ] 0 sd 3 lw 1 1 1 c 2268 2085 0 0 bf black 1 1 1 c 2263 1770 2 313 bf black 1 1 1 c black 1860 1145 319 584 bl 1 1 1 c black 1860 1145 319 584 bl 6 lw 1 1 1 c black 3 lw /w 33 def /w2 {w 2 div} def
 /w3 {w 3 div} def 374 1102 m20 6 lw 3 lw 483 1067 m20 6 lw 3 lw 593 1032 m20 6 lw 3 lw 702 1007 m20 6 lw 3 lw 812 972 m20 6 lw 3 lw 921 935 m20 6 lw 1030 898 m 2 Y s 3 lw 1030 913 m20 6 lw 1140 788 m 23 Y s 1140 838 m 10 Y s 3 lw 1140 825 m20 6 lw
 1249 836 m 11 Y s 1249 875 m 4 Y s 3 lw 1249 861 m20 6 lw 1359 788 m 23 Y s 1359 838 m 10 Y s 3 lw 1359 825 m20 6 lw 1468 740 m 40 Y s 1468 807 m 14 Y s 3 lw 1468 793 m20 6 lw 1578 768 m 30 Y s 1578 825 m 11 Y s 3 lw 1578 811 m20 6 lw 1687 693 m 62
 Y s 1687 782 m 19 Y s 3 lw 1687 768 m20 6 lw 3 lw 319 584 m 1860 X s
 gsave  2263 1770 2 313 C 1949.08 369.478 t 0 r /Helvetica findfont 81.3741 sf 0 0 m ( [GeV]) show NC gr 
 gsave  2263 1770 2 313 C 1888.07 342.361 t 0 r /Helvetica findfont 54.2494 sf 0 0 m (eff) show NC gr 
 gsave  2263 1770 2 313 C 1823.66 369.478 t 0 r /Helvetica findfont 81.3741 sf 0 0 m (m) show NC gr  538 584 m cl s 593 584 m cl s 647 584 m cl s 702 584 m cl s 757 584 m cl s 812 584 m cl s 866 584 m cl s 921 584 m cl s 976 584 m cl s 1030 584 m cl
 s 1085 584 m cl s 1140 584 m cl s 1195 584 m cl s 1249 584 m cl s 1304 584 m cl s 1359 584 m cl s 1413 584 m cl s 1468 584 m cl s 1523 584 m cl s 1578 584 m cl s 1632 584 m cl s 1687 584 m cl s 1742 584 m cl s 1796 584 m cl s 1851 584 m cl s 1906
 584 m cl s 1961 584 m cl s 2015 584 m cl s 2070 584 m cl s 2125 584 m cl s 2179 584 m cl s 538 584 m cl s 483 584 m cl s 429 584 m cl s 374 584 m cl s 319 584 m cl s 319 1729 m 1860 X s 538 1729 m cl s 593 1729 m cl s 647 1729 m cl s 702 1729 m cl s
 757 1729 m cl s 812 1729 m cl s 866 1729 m cl s 921 1729 m cl s 976 1729 m cl s 1030 1729 m cl s 1085 1729 m cl s 1140 1729 m cl s 1195 1729 m cl s 1249 1729 m cl s 1304 1729 m cl s 1359 1729 m cl s 1413 1729 m cl s 1468 1729 m cl s 1523 1729 m cl s
 1578 1729 m cl s 1632 1729 m cl s 1687 1729 m cl s 1742 1729 m cl s 1796 1729 m cl s 1851 1729 m cl s 1906 1729 m cl s 1961 1729 m cl s 2015 1729 m cl s 2070 1729 m cl s 2125 1729 m cl s 2179 1729 m cl s 538 1729 m cl s 483 1729 m cl s 429 1729 m cl
 s 374 1729 m cl s 319 1729 m cl s 319 584 m 1145 Y s
 gsave  2263 1770 2 313 C 166.096 1091.49 t 90 r /Helvetica findfont 81.3741 sf 0 0 m (Events / 200 GeV) show NC gr  341 627 m -22 X s 341 652 m -22 X s 341 670 m -22 X s 341 683 m -22 X s 341 694 m -22 X s 341 704 m -22 X s 341 712 m -22 X s 341 719
 m -22 X s 363 726 m -44 X s
 gsave  2263 1770 2 313 C 300.555 698.76 t 0 r  -36 0 t /Helvetica findfont 64.4212 sf 0 0 m (1) show NC gr  341 768 m -22 X s 341 793 m -22 X s 341 811 m -22 X s 341 825 m -22 X s 341 836 m -22 X s 341 846 m -22 X s 341 854 m -22 X s 341 861 m -22 X
 s 363 867 m -44 X s
 gsave  2263 1770 2 313 C 300.555 840.328 t 0 r  -73 0 t /Helvetica findfont 64.4212 sf 0 0 m (10) show NC gr  341 910 m -22 X s 341 935 m -22 X s 341 953 m -22 X s 341 966 m -22 X s 341 978 m -22 X s 341 987 m -22 X s 341 995 m -22 X s 341 1003 m
 -22 X s 363 1009 m -44 X s
 gsave  2263 1770 2 313 C 274.567 1006.74 t 0 r /Helvetica findfont 44.0776 sf 0 0 m (2) show NC gr 
 gsave  2263 1770 2 313 C 203.383 979.626 t 0 r /Helvetica findfont 64.4212 sf 0 0 m (10) show NC gr  341 1052 m -22 X s 341 1077 m -22 X s 341 1094 m -22 X s 341 1108 m -22 X s 341 1119 m -22 X s 341 1129 m -22 X s 341 1137 m -22 X s 341 1144 m -22
 X s 363 1151 m -44 X s
 gsave  2263 1770 2 313 C 274.567 1152.5 t 0 r /Helvetica findfont 44.0776 sf 0 0 m (3) show NC gr 
 gsave  2263 1770 2 313 C 203.383 1121.99 t 0 r /Helvetica findfont 64.4212 sf 0 0 m (10) show NC gr  341 1193 m -22 X s 341 1218 m -22 X s 341 1236 m -22 X s 341 1250 m -22 X s 341 1261 m -22 X s 341 1270 m -22 X s 341 1278 m -22 X s 341 1286 m -22
 X s 363 1292 m -44 X s
 gsave  2263 1770 2 313 C 274.567 1291.48 t 0 r /Helvetica findfont 44.0776 sf 0 0 m (4) show NC gr 
 gsave  2263 1770 2 313 C 203.383 1264.36 t 0 r /Helvetica findfont 64.4212 sf 0 0 m (10) show NC gr  341 1335 m -22 X s 341 1360 m -22 X s 341 1377 m -22 X s 341 1391 m -22 X s 341 1402 m -22 X s 341 1412 m -22 X s 341 1420 m -22 X s 341 1427 m -22
 X s 363 1434 m -44 X s
 gsave  2263 1770 2 313 C 274.567 1433.85 t 0 r /Helvetica findfont 44.0776 sf 0 0 m (5) show NC gr 
 gsave  2263 1770 2 313 C 203.383 1403.34 t 0 r /Helvetica findfont 64.4212 sf 0 0 m (10) show NC gr  341 1476 m -22 X s 341 1501 m -22 X s 341 1519 m -22 X s 341 1533 m -22 X s 341 1544 m -22 X s 341 1553 m -22 X s 341 1562 m -22 X s 341 1569 m -22
 X s 363 1575 m -44 X s
 gsave  2263 1770 2 313 C 274.567 1576.22 t 0 r /Helvetica findfont 44.0776 sf 0 0 m (6) show NC gr 
 gsave  2263 1770 2 313 C 203.383 1545.71 t 0 r /Helvetica findfont 64.4212 sf 0 0 m (10) show NC gr  341 1618 m -22 X s 341 1643 m -22 X s 341 1661 m -22 X s 341 1674 m -22 X s 341 1685 m -22 X s 341 1695 m -22 X s 341 1703 m -22 X s 341 1710 m -22
 X s 363 1717 m -44 X s
 gsave  2263 1770 2 313 C 274.567 1715.19 t 0 r /Helvetica findfont 44.0776 sf 0 0 m (7) show NC gr 
 gsave  2263 1770 2 313 C 203.383 1688.08 t 0 r /Helvetica findfont 64.4212 sf 0 0 m (10) show NC gr  2179 584 m 1145 Y s 2157 627 m 22 X s 2157 652 m 22 X s 2157 670 m 22 X s 2157 683 m 22 X s 2157 694 m 22 X s 2157 704 m 22 X s 2157 712 m 22 X s
 2157 719 m 22 X s 2136 726 m 43 X s 2157 768 m 22 X s 2157 793 m 22 X s 2157 811 m 22 X s 2157 825 m 22 X s 2157 836 m 22 X s 2157 846 m 22 X s 2157 854 m 22 X s 2157 861 m 22 X s 2136 867 m 43 X s 2157 910 m 22 X s 2157 935 m 22 X s 2157 953 m 22 X
 s 2157 966 m 22 X s 2157 978 m 22 X s 2157 987 m 22 X s 2157 995 m 22 X s 2157 1003 m 22 X s 2136 1009 m 43 X s 2157 1052 m 22 X s 2157 1077 m 22 X s 2157 1094 m 22 X s 2157 1108 m 22 X s 2157 1119 m 22 X s 2157 1129 m 22 X s 2157 1137 m 22 X s 2157
 1144 m 22 X s 2136 1151 m 43 X s 2157 1193 m 22 X s 2157 1218 m 22 X s 2157 1236 m 22 X s 2157 1250 m 22 X s 2157 1261 m 22 X s 2157 1270 m 22 X s 2157 1278 m 22 X s 2157 1286 m 22 X s 2136 1292 m 43 X s 2157 1335 m 22 X s 2157 1360 m 22 X s 2157
 1377 m 22 X s 2157 1391 m 22 X s 2157 1402 m 22 X s 2157 1412 m 22 X s 2157 1420 m 22 X s 2157 1427 m 22 X s 2136 1434 m 43 X s 2157 1476 m 22 X s 2157 1501 m 22 X s 2157 1519 m 22 X s 2157 1533 m 22 X s 2157 1544 m 22 X s 2157 1553 m 22 X s 2157
 1562 m 22 X s 2157 1569 m 22 X s 2136 1575 m 43 X s 2157 1618 m 22 X s 2157 1643 m 22 X s 2157 1661 m 22 X s 2157 1674 m 22 X s 2157 1685 m 22 X s 2157 1695 m 22 X s 2157 1703 m 22 X s 2157 1710 m 22 X s 2136 1717 m 43 X s 0.4 0.6 1 c black 0.4 0.6
 1 c 319 584 m 522 Y 110 X -29 Y 109 X -30 Y 109 X -31 Y 110 X -30 Y 109 X -33 Y 110 X -34 Y 109 X -22 Y 110 X -34 Y 109 X -34 Y 109 X -23 Y 219 X -45 Y 110 X -21 Y 109 X -51 Y 110 X -9 Y 109 X 44 Y 109 X -140 Y f black 0.4 0.6 1 c black 319 1106 m
 110 X -29 Y 109 X -30 Y 109 X -31 Y 110 X -30 Y 109 X -33 Y 110 X -34 Y 109 X -22 Y 110 X -34 Y 109 X -34 Y 109 X -23 Y 219 X -45 Y 110 X -21 Y 109 X -51 Y 110 X -9 Y 109 X 44 Y 109 X s 0.999 0.999 0.999 c black 0.999 0.999 0.999 c 319 584 m 492 Y
 110 X -25 Y 109 X -27 Y 109 X -29 Y 110 X -29 Y 109 X -32 Y 110 X -35 Y 109 X -18 Y 110 X -44 Y 109 X -26 Y 109 X -38 Y 110 X 11 Y 109 X -40 Y 110 X -17 Y 109 X -56 Y 110 X -13 Y 109 X 41 Y 109 X -115 Y f black 0.999 0.999 0.999 c black 319 1076 m
 110 X -25 Y 109 X -27 Y 109 X -29 Y 110 X -29 Y 109 X -32 Y 110 X -35 Y 109 X -18 Y 110 X -44 Y 109 X -26 Y 109 X -38 Y 110 X 11 Y 109 X -40 Y 110 X -17 Y 109 X -56 Y 110 X -13 Y 109 X 41 Y 109 X s 1 1 1 c black 319 1076 m 110 X -25 Y 109 X -27 Y
 109 X -29 Y 110 X -29 Y 109 X -32 Y 110 X -35 Y 109 X -18 Y 110 X -44 Y 109 X -26 Y 109 X -38 Y 110 X 11 Y 109 X -40 Y 110 X -17 Y 109 X -56 Y 110 X -13 Y 109 X 41 Y 109 X s 0.6 1 0.6 c black 0.6 1 0.6 c 319 584 m 492 Y 110 X -25 Y 109 X -27 Y 109 X
 -29 Y 110 X -29 Y 109 X -32 Y 110 X -35 Y 109 X -18 Y 110 X -44 Y 109 X -26 Y 109 X -38 Y 110 X 11 Y 109 X -40 Y 110 X -17 Y 109 X -56 Y 110 X -13 Y 109 X 41 Y 109 X -115 Y f black 0.6 1 0.6 c black 319 1076 m 110 X -25 Y 109 X -27 Y 109 X -29 Y 110
 X -29 Y 109 X -32 Y 110 X -35 Y 109 X -18 Y 110 X -44 Y 109 X -26 Y 109 X -38 Y 110 X 11 Y 109 X -40 Y 110 X -17 Y 109 X -56 Y 110 X -13 Y 109 X 41 Y 109 X s 0.999 0.999 0.999 c black 0.999 0.999 0.999 c 319 584 m 468 Y 110 X -26 Y 109 X -27 Y 109 X
 -29 Y 110 X -26 Y 109 X -32 Y 110 X -34 Y 109 X -23 Y 110 X -36 Y 109 X -24 Y 109 X -40 Y 110 X 19 Y 109 X -54 Y 219 X -57 Y 110 X -18 Y 109 X 47 Y 109 X -108 Y f black 0.999 0.999 0.999 c black 319 1052 m 110 X -26 Y 109 X -27 Y 109 X -29 Y 110 X
 -26 Y 109 X -32 Y 110 X -34 Y 109 X -23 Y 110 X -36 Y 109 X -24 Y 109 X -40 Y 110 X 19 Y 109 X -54 Y 219 X -57 Y 110 X -18 Y 109 X 47 Y 109 X s 1 1 1 c black 319 1052 m 110 X -26 Y 109 X -27 Y 109 X -29 Y 110 X -26 Y 109 X -32 Y 110 X -34 Y 109 X
 -23 Y 110 X -36 Y 109 X -24 Y 109 X -40 Y 110 X 19 Y 109 X -54 Y 219 X -57 Y 110 X -18 Y 109 X 47 Y 109 X s 1 0.8 0.4 c black 1 0.8 0.4 c 319 584 m 468 Y 110 X -26 Y 109 X -27 Y 109 X -29 Y 110 X -26 Y 109 X -32 Y 110 X -34 Y 109 X -23 Y 110 X -36 Y
 109 X -24 Y 109 X -40 Y 110 X 19 Y 109 X -54 Y 219 X -57 Y 110 X -18 Y 109 X 47 Y 109 X -108 Y f black 1 0.8 0.4 c black 319 1052 m 110 X -26 Y 109 X -27 Y 109 X -29 Y 110 X -26 Y 109 X -32 Y 110 X -34 Y 109 X -23 Y 110 X -36 Y 109 X -24 Y 109 X -40
 Y 110 X 19 Y 109 X -54 Y 219 X -57 Y 110 X -18 Y 109 X 47 Y 109 X s 0.999 0.999 0.999 c black 0.999 0.999 0.999 c 319 584 m 340 Y 110 X -23 Y 109 X -32 Y 109 X -44 Y 110 X -15 Y 109 X -18 Y 110 X -21 Y 109 X -39 Y 110 X -48 Y 109 X 7 Y 109 X -30 Y
 110 X -74 Y 109 X -3 Y 110 X 81 Y 109 X -81 Y 328 X f black 0.999 0.999 0.999 c black 319 924 m 110 X -23 Y 109 X -32 Y 109 X -44 Y 110 X -15 Y 109 X -18 Y 110 X -21 Y 109 X -39 Y 110 X -48 Y 109 X 7 Y 109 X -30 Y 110 X -74 Y 109 X -3 Y 110 X 81 Y
 109 X -81 Y 328 X s 1 1 1 c black 319 924 m 110 X -23 Y 109 X -32 Y 109 X -44 Y 110 X -15 Y 109 X -18 Y 110 X -21 Y 109 X -39 Y 110 X -48 Y 109 X 7 Y 109 X -30 Y 110 X -74 Y 109 X -3 Y 110 X 81 Y 109 X -81 Y 328 X s 1 0.4 0.6 c black 1 0.4 0.6 c 319
 584 m 340 Y 110 X -23 Y 109 X -32 Y 109 X -44 Y 110 X -15 Y 109 X -18 Y 110 X -21 Y 109 X -39 Y 110 X -48 Y 109 X 7 Y 109 X -30 Y 110 X -74 Y 109 X -3 Y 110 X 81 Y 109 X -81 Y 328 X f black 1 0.4 0.6 c black 319 924 m 110 X -23 Y 109 X -32 Y 109 X
 -44 Y 110 X -15 Y 109 X -18 Y 110 X -21 Y 109 X -39 Y 110 X -48 Y 109 X 7 Y 109 X -30 Y 110 X -74 Y 109 X -3 Y 110 X 81 Y 109 X -81 Y 328 X s 0.999 0.999 0.999 c black 0.999 0.999 0.999 c 319 584 m 64 Y 110 X -43 Y 109 X -21 Y 657 X 34 Y 109 X -29 Y
 109 X -5 Y 766 X f black 0.999 0.999 0.999 c black 319 648 m 110 X -43 Y 109 X -21 Y 657 X 34 Y 109 X -29 Y 109 X -5 Y 766 X s 1 1 1 c black 319 648 m 110 X -43 Y 109 X -21 Y 657 X 34 Y 109 X -29 Y 109 X -5 Y 766 X s 0 0 0.4 c black 0 0 0.4 c 319
 584 m 64 Y 110 X -43 Y 109 X -21 Y 657 X 34 Y 109 X -29 Y 109 X -5 Y 766 X f black 0 0 0.4 c black 319 648 m 110 X -43 Y 109 X -21 Y 657 X 34 Y 109 X -29 Y 109 X -5 Y 766 X s 1 0 0 c 6 lw 1 1 1 c black 1 0 0 c 319 1106 m 110 X -29 Y 109 X -30 Y 109
 X -31 Y 110 X -30 Y 109 X -33 Y 110 X -34 Y 109 X -22 Y 110 X -34 Y 109 X -34 Y 109 X -23 Y 219 X -45 Y 110 X -21 Y 109 X -51 Y 110 X -9 Y 109 X 44 Y 109 X s black 3 lw 1 0 0 c 1 lw << /PatternType 1 /PaintType 2 /TilingType 1 /BBox [ 0 0 100 100 ]
 /XStep 100 /YStep 100 /PaintProc { begin gsave 0 100 m 100 0 l s gr end } >> [ 0.24 0 0 0.24 0 0 ] makepattern /P05 exch def /cs {[/Pattern /DeviceRGB] setcolorspace} def /FA {f [/DeviceRGB] setcolorspace} def cs 1 0 0 P05 setcolor 319 584 m 525 Y
 110 X -29 Y 109 X -30 Y 109 X -30 Y 110 X -30 Y 109 X -33 Y 110 X -33 Y 109 X -21 Y 110 X -34 Y 109 X -31 Y 109 X -23 Y 110 X 3 Y 109 X -46 Y 110 X -18 Y 109 X -54 Y 110 X -1 Y 109 X 35 Y 109 X -150 Y 127 Y -109 X -57 Y -109 X 23 Y -110 X 44 Y -109
 X 27 Y -110 X 42 Y -109 X 5 Y -110 X 24 Y -109 X 37 Y -109 X 34 Y -110 X 23 Y -109 X 35 Y -110 X 34 Y -109 X 30 Y -110 X 32 Y -109 X 30 Y -109 X 29 Y -110 X -519 Y FA 6 lw 1 1 1 c 15 lw 1140 845 m 4 Y s 1140 849 m cl s 1140 804 m -14 Y s 1140 790 m
 cl s 1249 841 m -4 Y s 1249 837 m cl s 1359 845 m 4 Y s 1359 849 m cl s 1359 804 m -14 Y s 1359 790 m cl s 1468 814 m 10 Y s 1468 824 m cl s 1468 773 m -28 Y s 1468 745 m cl s 1578 831 m 7 Y s 1578 838 m cl s 1578 791 m -20 Y s 1578 771 m cl s 1687
 789 m 16 Y s 1687 805 m cl s 1687 748 m -43 Y s 1687 705 m cl s black 1 1 1 c 3 lw /w 43 def /w2 {w 2 div} def /w3 {w 3 div} def 374 1102 483 1067 593 1032 702 1007 812 972 921 935 1030 913 1140 825 1249 861 1359 825 1468 793 1578 811 1687 768 13 {
 m20} R 15 lw black 6 lw 1 1 1 c black 3 lw /w 33 def /w2 {w 2 div} def /w3 {w 3 div} def 374 1102 m20 6 lw 3 lw 483 1067 m20 6 lw 3 lw 593 1032 m20 6 lw 3 lw 702 1007 m20 6 lw 3 lw 812 972 m20 6 lw 3 lw 921 935 m20 6 lw 1030 898 m 2 Y s 3 lw 1030
 913 m20 6 lw 1140 788 m 23 Y s 1140 838 m 10 Y s 3 lw 1140 825 m20 6 lw 1249 836 m 11 Y s 1249 875 m 4 Y s 3 lw 1249 861 m20 6 lw 1359 788 m 23 Y s 1359 838 m 10 Y s 3 lw 1359 825 m20 6 lw 1468 740 m 40 Y s 1468 807 m 14 Y s 3 lw 1468 793 m20 6 lw
 1578 768 m 30 Y s 1578 825 m 11 Y s 3 lw 1578 811 m20 6 lw 1687 693 m 62 Y s 1687 782 m 19 Y s 3 lw 1687 768 m20 6 lw 1030 900 m -2 Y s 1030 898 m cl s 1140 838 m 11 Y s 1140 849 m cl s 1140 811 m -21 Y s 1140 790 m cl s 1249 875 m 4 Y s 1249 879 m
 cl s 1249 847 m -10 Y s 1249 837 m cl s 1359 838 m 11 Y s 1359 849 m cl s 1359 811 m -21 Y s 1359 790 m cl s 1468 807 m 17 Y s 1468 824 m cl s 1468 780 m -35 Y s 1468 745 m cl s 1578 825 m 13 Y s 1578 838 m cl s 1578 798 m -27 Y s 1578 771 m cl s
 1687 782 m 23 Y s 1687 805 m cl s 1687 755 m -50 Y s 1687 705 m cl s 3 lw 374 1102 483 1067 593 1032 702 1007 812 972 921 935 1030 913 1140 825 1249 861 1359 825 1468 793 1578 811 1687 768 13 { m20} R 6 lw 3 lw 319 584 m 1860 X s 538 584 m cl s 593
 584 m cl s 647 584 m cl s 702 584 m cl s 757 584 m cl s 812 584 m cl s 866 584 m cl s 921 584 m cl s 976 584 m cl s 1030 584 m cl s 1085 584 m cl s 1140 584 m cl s 1195 584 m cl s 1249 584 m cl s 1304 584 m cl s 1359 584 m cl s 1413 584 m cl s 1468
 584 m cl s 1523 584 m cl s 1578 584 m cl s 1632 584 m cl s 1687 584 m cl s 1742 584 m cl s 1796 584 m cl s 1851 584 m cl s 1906 584 m cl s 1961 584 m cl s 2015 584 m cl s 2070 584 m cl s 2125 584 m cl s 2179 584 m cl s 538 584 m cl s 483 584 m cl s
 429 584 m cl s 374 584 m cl s 319 584 m cl s 319 1729 m 1860 X s 538 1729 m cl s 593 1729 m cl s 647 1729 m cl s 702 1729 m cl s 757 1729 m cl s 812 1729 m cl s 866 1729 m cl s 921 1729 m cl s 976 1729 m cl s 1030 1729 m cl s 1085 1729 m cl s 1140
 1729 m cl s 1195 1729 m cl s 1249 1729 m cl s 1304 1729 m cl s 1359 1729 m cl s 1413 1729 m cl s 1468 1729 m cl s 1523 1729 m cl s 1578 1729 m cl s 1632 1729 m cl s 1687 1729 m cl s 1742 1729 m cl s 1796 1729 m cl s 1851 1729 m cl s 1906 1729 m cl s
 1961 1729 m cl s 2015 1729 m cl s 2070 1729 m cl s 2125 1729 m cl s 2179 1729 m cl s 538 1729 m cl s 483 1729 m cl s 429 1729 m cl s 374 1729 m cl s 319 1729 m cl s 319 584 m 1145 Y s 341 627 m -22 X s 341 652 m -22 X s 341 670 m -22 X s 341 683 m
 -22 X s 341 694 m -22 X s 341 704 m -22 X s 341 712 m -22 X s 341 719 m -22 X s 363 726 m -44 X s 341 768 m -22 X s 341 793 m -22 X s 341 811 m -22 X s 341 825 m -22 X s 341 836 m -22 X s 341 846 m -22 X s 341 854 m -22 X s 341 861 m -22 X s 363 867
 m -44 X s 341 910 m -22 X s 341 935 m -22 X s 341 953 m -22 X s 341 966 m -22 X s 341 978 m -22 X s 341 987 m -22 X s 341 995 m -22 X s 341 1003 m -22 X s 363 1009 m -44 X s 341 1052 m -22 X s 341 1077 m -22 X s 341 1094 m -22 X s 341 1108 m -22 X s
 341 1119 m -22 X s 341 1129 m -22 X s 341 1137 m -22 X s 341 1144 m -22 X s 363 1151 m -44 X s 341 1193 m -22 X s 341 1218 m -22 X s 341 1236 m -22 X s 341 1250 m -22 X s 341 1261 m -22 X s 341 1270 m -22 X s 341 1278 m -22 X s 341 1286 m -22 X s
 363 1292 m -44 X s 341 1335 m -22 X s 341 1360 m -22 X s 341 1377 m -22 X s 341 1391 m -22 X s 341 1402 m -22 X s 341 1412 m -22 X s 341 1420 m -22 X s 341 1427 m -22 X s 363 1434 m -44 X s 341 1476 m -22 X s 341 1501 m -22 X s 341 1519 m -22 X s
 341 1533 m -22 X s 341 1544 m -22 X s 341 1553 m -22 X s 341 1562 m -22 X s 341 1569 m -22 X s 363 1575 m -44 X s 341 1618 m -22 X s 341 1643 m -22 X s 341 1661 m -22 X s 341 1674 m -22 X s 341 1685 m -22 X s 341 1695 m -22 X s 341 1703 m -22 X s
 341 1710 m -22 X s 363 1717 m -44 X s 2179 584 m 1145 Y s 2157 627 m 22 X s 2157 652 m 22 X s 2157 670 m 22 X s 2157 683 m 22 X s 2157 694 m 22 X s 2157 704 m 22 X s 2157 712 m 22 X s 2157 719 m 22 X s 2136 726 m 43 X s 2157 768 m 22 X s 2157 793 m
 22 X s 2157 811 m 22 X s 2157 825 m 22 X s 2157 836 m 22 X s 2157 846 m 22 X s 2157 854 m 22 X s 2157 861 m 22 X s 2136 867 m 43 X s 2157 910 m 22 X s 2157 935 m 22 X s 2157 953 m 22 X s 2157 966 m 22 X s 2157 978 m 22 X s 2157 987 m 22 X s 2157 995
 m 22 X s 2157 1003 m 22 X s 2136 1009 m 43 X s 2157 1052 m 22 X s 2157 1077 m 22 X s 2157 1094 m 22 X s 2157 1108 m 22 X s 2157 1119 m 22 X s 2157 1129 m 22 X s 2157 1137 m 22 X s 2157 1144 m 22 X s 2136 1151 m 43 X s 2157 1193 m 22 X s 2157 1218 m
 22 X s 2157 1236 m 22 X s 2157 1250 m 22 X s 2157 1261 m 22 X s 2157 1270 m 22 X s 2157 1278 m 22 X s 2157 1286 m 22 X s 2136 1292 m 43 X s 2157 1335 m 22 X s 2157 1360 m 22 X s 2157 1377 m 22 X s 2157 1391 m 22 X s 2157 1402 m 22 X s 2157 1412 m 22
 X s 2157 1420 m 22 X s 2157 1427 m 22 X s 2136 1434 m 43 X s 2157 1476 m 22 X s 2157 1501 m 22 X s 2157 1519 m 22 X s 2157 1533 m 22 X s 2157 1544 m 22 X s 2157 1553 m 22 X s 2157 1562 m 22 X s 2157 1569 m 22 X s 2136 1575 m 43 X s 2157 1618 m 22 X
 s 2157 1643 m 22 X s 2157 1661 m 22 X s 2157 1674 m 22 X s 2157 1685 m 22 X s 2157 1695 m 22 X s 2157 1703 m 22 X s 2157 1710 m 22 X s 2136 1717 m 43 X s
 gsave  2263 1770 2 313 C 406.765 1447.41 t 0 r /Helvetica findfont 64.4212 sf 0 0 m (VR0LmetSig for MB\255C) show NC gr 
 gsave  2263 1770 2 313 C 1464.36 1630.45 t 0 r /Helvetica findfont 64.4212 sf 0 0 m (SM Total) show NC gr  1 1 1 c 1338 1616 m 107 X 64 Y -107 X f 1 0 0 c 6 lw 1338 1648 m 107 X s black
 gsave  2263 1770 2 313 C 1464.36 1538.93 t 0 r /Helvetica findfont 64.4212 sf 0 0 m (Data) show NC gr  1391 1529 m 55 Y s 3 lw 1391 1557 m20 6 lw
 gsave  2263 1770 2 313 C 1464.36 1447.41 t 0 r /Helvetica findfont 64.4212 sf 0 0 m (W+jets) show NC gr  0.4 0.6 1 c 3 lw 1338 1434 m 107 X 64 Y -107 X f 6 lw black 3 lw 1338 1498 m 107 X s 1338 1434 m 107 X s 1445 1434 m 64 Y s 1338 1434 m 64 Y s
 gsave  2263 1770 2 313 C 1498.25 1355.88 t 0 r /Helvetica findfont 64.4212 sf 0 0 m (\(+EW\) & single top) show NC gr 
 gsave  2263 1770 2 313 C 1481.3 1355.88 t 0 r /Helvetica findfont 64.4212 sf 0 0 m (t) show NC gr  1481 1407 m 17 X s
 gsave  2263 1770 2 313 C 1464.36 1355.88 t 0 r /Helvetica findfont 64.4212 sf 0 0 m (t) show NC gr  0.6 1 0.6 c 1338 1343 m 107 X 63 Y -107 X f black 1338 1406 m 107 X s 1338 1343 m 107 X s 1445 1343 m 63 Y s 1338 1343 m 63 Y s
 gsave  2263 1770 2 313 C 1464.36 1264.36 t 0 r /Helvetica findfont 64.4212 sf 0 0 m (Z+jets) show NC gr  1 0.8 0.4 c 1338 1252 m 107 X 63 Y -107 X f black 1338 1315 m 107 X s 1338 1252 m 107 X s 1445 1252 m 63 Y s 1338 1252 m 63 Y s
 gsave  2263 1770 2 313 C 1464.36 1172.84 t 0 r /Helvetica findfont 64.4212 sf 0 0 m (Diboson) show NC gr  1 0.4 0.6 c 1338 1161 m 107 X 63 Y -107 X f black 1338 1224 m 107 X s 1338 1161 m 107 X s 1445 1161 m 63 Y s 1338 1161 m 63 Y s
 gsave  2263 1770 2 313 C 1464.36 1081.32 t 0 r /Helvetica findfont 64.4212 sf 0 0 m (Multi\255jet) show NC gr  0 0 0.4 c 1338 1070 m 107 X 63 Y -107 X f black 1338 1133 m 107 X s 1338 1070 m 107 X s 1445 1070 m 63 Y s 1338 1070 m 63 Y s
 gsave  2263 1770 2 313 C 911.832 1566.05 t 0 r /Helvetica findfont 44.0776 sf 0 0 m (\2551) show NC gr 
 gsave  2263 1770 2 313 C 471.17 1535.54 t 0 r /Helvetica findfont 64.4212 sf 0 0 m (=13TeV, 139 fb) show NC gr 
 gsave  2263 1770 2 313 C 440.662 1535.54 t 0 r /Helvetica findfont 64.4212 sf 0 0 m (s) show NC gr  6 lw 420 1573 m 7 -41 d s 3 lw 427 1532 m 7 61 d s 434 1593 m 37 X s 1 1 1 c 2254 561 2 2 bf black 1 1 1 c black 1860 358 318 187 bl 1 1 1 c black
 1860 358 318 187 bl 6 lw 1 1 1 c black 3 lw 373 355 m20 6 lw 3 lw 482 341 m20 6 lw 3 lw 591 331 m20 6 lw 3 lw 701 344 m20 6 lw 3 lw 810 334 m20 6 lw 3 lw 920 326 m20 6 lw 3 lw 1029 352 m20 6 lw 3 lw 1139 254 m20 6 lw 3 lw 1248 361 m20 6 lw 3 lw 1358
 354 m20 6 lw 3 lw 1467 337 m20 6 lw 3 lw 1576 382 m20 6 lw 3 lw 1686 387 m20 6 lw 3 lw 318 187 m 1860 X s
 gsave  2254 561 2 2 C 1959.25 33.8971 t 0 r /Helvetica findfont 78.1689 sf 0 0 m ( [GeV]) show NC gr 
 gsave  2254 561 2 2 C 1901.63 13.5588 t 0 r /Helvetica findfont 50.9797 sf 0 0 m (eff) show NC gr 
 gsave  2254 561 2 2 C 1840.61 33.8971 t 0 r /Helvetica findfont 78.1689 sf 0 0 m (m) show NC gr  537 201 m -14 Y s 591 194 m -7 Y s 646 194 m -7 Y s 701 194 m -7 Y s 756 194 m -7 Y s 810 201 m -14 Y s 865 194 m -7 Y s 920 194 m -7 Y s 975 194 m -7 Y
 s 1029 194 m -7 Y s 1084 201 m -14 Y s 1139 194 m -7 Y s 1193 194 m -7 Y s 1248 194 m -7 Y s 1303 194 m -7 Y s 1358 201 m -14 Y s 1412 194 m -7 Y s 1467 194 m -7 Y s 1522 194 m -7 Y s 1576 194 m -7 Y s 1631 201 m -14 Y s 1686 194 m -7 Y s 1741 194 m
 -7 Y s 1795 194 m -7 Y s 1850 194 m -7 Y s 1905 201 m -14 Y s 1959 194 m -7 Y s 2014 194 m -7 Y s 2069 194 m -7 Y s 2124 194 m -7 Y s 2178 201 m -14 Y s 537 201 m -14 Y s 482 194 m -7 Y s 427 194 m -7 Y s 373 194 m -7 Y s 318 194 m -7 Y s
 gsave  2254 561 2 2 C 447.442 118.64 t 0 r /Helvetica findfont 78.1689 sf 0 0 m (2000) show NC gr 
 gsave  2254 561 2 2 C 722.008 118.64 t 0 r /Helvetica findfont 78.1689 sf 0 0 m (2500) show NC gr 
 gsave  2254 561 2 2 C 993.185 118.64 t 0 r /Helvetica findfont 78.1689 sf 0 0 m (3000) show NC gr 
 gsave  2254 561 2 2 C 1267.75 118.64 t 0 r /Helvetica findfont 78.1689 sf 0 0 m (3500) show NC gr 
 gsave  2254 561 2 2 C 1542.32 118.64 t 0 r /Helvetica findfont 78.1689 sf 0 0 m (4000) show NC gr 
 gsave  2254 561 2 2 C 1813.5 118.64 t 0 r /Helvetica findfont 78.1689 sf 0 0 m (4500) show NC gr 
 gsave  2254 561 2 2 C 2088.06 118.64 t 0 r /Helvetica findfont 78.1689 sf 0 0 m (5000) show NC gr  318 545 m 1860 X s 537 531 m 14 Y s 591 538 m 7 Y s 646 538 m 7 Y s 701 538 m 7 Y s 756 538 m 7 Y s 810 531 m 14 Y s 865 538 m 7 Y s 920 538 m 7 Y s
 975 538 m 7 Y s 1029 538 m 7 Y s 1084 531 m 14 Y s 1139 538 m 7 Y s 1193 538 m 7 Y s 1248 538 m 7 Y s 1303 538 m 7 Y s 1358 531 m 14 Y s 1412 538 m 7 Y s 1467 538 m 7 Y s 1522 538 m 7 Y s 1576 538 m 7 Y s 1631 531 m 14 Y s 1686 538 m 7 Y s 1741 538
 m 7 Y s 1795 538 m 7 Y s 1850 538 m 7 Y s 1905 531 m 14 Y s 1959 538 m 7 Y s 2014 538 m 7 Y s 2069 538 m 7 Y s 2124 538 m 7 Y s 2178 531 m 14 Y s 537 531 m 14 Y s 482 538 m 7 Y s 427 538 m 7 Y s 373 538 m 7 Y s 318 538 m 7 Y s 318 187 m 358 Y s
 gsave  2254 561 2 2 C 166.096 284.736 t 90 r /Helvetica findfont 67.9729 sf 0 0 m (Data/SM) show NC gr  361 203 m -43 X s 339 220 m -21 X s 339 236 m -21 X s 339 252 m -21 X s 339 268 m -21 X s 361 285 m -43 X s 339 301 m -21 X s 339 317 m -21 X s
 339 334 m -21 X s 339 350 m -21 X s 361 366 m -43 X s 339 382 m -21 X s 339 399 m -21 X s 339 415 m -21 X s 339 431 m -21 X s 361 447 m -43 X s 339 464 m -21 X s 339 480 m -21 X s 339 496 m -21 X s 339 512 m -21 X s 361 529 m -43 X s 361 203 m -43 X
 s 339 187 m -21 X s 361 529 m -43 X s
 gsave  2254 561 2 2 C 261.008 183.044 t 0 r /Helvetica findfont 57.777 sf 0 0 m (0) show NC gr 
 gsave  2254 561 2 2 C 213.552 261.008 t 0 r /Helvetica findfont 57.777 sf 0 0 m (0.5) show NC gr 
 gsave  2254 561 2 2 C 271.177 342.361 t 0 r /Helvetica findfont 57.777 sf 0 0 m (1) show NC gr 
 gsave  2254 561 2 2 C 213.552 423.714 t 0 r /Helvetica findfont 57.777 sf 0 0 m (1.5) show NC gr 
 gsave  2254 561 2 2 C 261.008 505.067 t 0 r /Helvetica findfont 57.777 sf 0 0 m (2) show NC gr  2178 187 m 358 Y s 2135 203 m 43 X s 2157 220 m 21 X s 2157 236 m 21 X s 2157 252 m 21 X s 2157 268 m 21 X s 2135 285 m 43 X s 2157 301 m 21 X s 2157 317
 m 21 X s 2157 334 m 21 X s 2157 350 m 21 X s 2135 366 m 43 X s 2157 382 m 21 X s 2157 399 m 21 X s 2157 415 m 21 X s 2157 431 m 21 X s 2135 447 m 43 X s 2157 464 m 21 X s 2157 480 m 21 X s 2157 496 m 21 X s 2157 512 m 21 X s 2135 529 m 43 X s 2135
 203 m 43 X s 2157 187 m 21 X s 2135 529 m 43 X s 9 lw 701 358 m 1 Y s 701 359 m cl s 701 331 m -1 Y s 701 330 m cl s 810 347 m 4 Y s 810 351 m cl s 810 320 m -4 Y s 810 316 m cl s 920 339 m 9 Y s 920 348 m cl s 920 312 m -8 Y s 920 304 m cl s 1029
 366 m 19 Y s 1029 385 m cl s 1029 339 m -19 Y s 1029 320 m cl s 1139 267 m 10 Y s 1139 277 m cl s 1139 240 m -8 Y s 1139 232 m cl s 1248 374 m 41 Y s 1248 415 m cl s 1248 347 m -38 Y s 1248 309 m cl s 1358 368 m 58 Y s 1358 426 m cl s 1358 341 m -52
 Y s 1358 289 m cl s 1467 350 m 71 Y s 1467 421 m cl s 1467 323 m -59 Y s 1467 264 m cl s 1576 395 m 82 Y s 1576 477 m cl s 1576 368 m -71 Y s 1576 297 m cl s 1686 401 m 135 Y s 1686 536 m cl s 1686 373 m -104 Y s 1686 269 m cl s 3 lw 373 355 482 341
 591 331 701 344 810 334 920 326 1029 352 1139 254 1248 361 1358 354 1467 337 1576 382 1686 387 13 { m20} R 9 lw 1 0 0 c 6 lw black 3 lw 1 0 0 c 2178 227 m s 2178 255 m s 2178 284 m s 2178 312 m s 2178 341 m -5 -5 d s 2178 369 m -34 -33 d s 2177 396
 m -61 -60 d s 2148 396 m -61 -60 d s 2069 318 m -9 -9 d s 2119 396 m -87 -87 d s 2091 396 m -88 -87 d s 2069 403 m -95 -94 d s 2060 423 m -101 -100 d s 2031 423 m -88 -88 d s 2002 423 m -87 -88 d s 1974 423 m -15 -14 d s 1947 397 m -61 -62 d s 1919
 397 m -62 -62 d s 1850 328 m -5 -5 d s 1890 397 m -74 -74 d s 1861 397 m -73 -74 d s 1845 409 m -86 -86 d s 1816 409 m -75 -76 d s 1788 409 m -75 -74 d s 1759 409 m -75 -74 d s 1719 397 m -63 -62 d s 1690 397 m -69 -68 d s 1661 397 m -68 -68 d s
 1633 397 m -69 -68 d s 1609 403 m -74 -74 d s 1581 403 m -64 -64 d s 1552 403 m -64 -64 d s 1523 403 m -1 -2 d s 1513 393 m -53 -54 d s 1484 393 m -53 -54 d s 1456 393 m -53 -53 d s 1427 393 m -53 -53 d s 1397 392 m -51 -52 d s 1369 392 m -52 -52 d
 s 1340 392 m -42 -43 d s 1311 392 m -8 -9 d s 1302 383 m -33 -34 d s 1274 383 m -34 -34 d s 1245 383 m -34 -34 d s 1216 383 m -33 -34 d s 1188 383 m -34 -34 d s 1159 383 m -34 -34 d s 1130 383 m -34 -34 d s 1102 383 m -32 -32 d s 1071 381 m -30 -30
 d s 1042 381 m -30 -30 d s 1014 381 m -30 -30 d s 985 381 m -27 -27 d s 953 378 m -23 -24 d s 924 378 m -23 -24 d s 895 378 m -23 -24 d s 867 378 m -23 -23 d s 837 377 m -21 -22 d s 809 377 m -22 -22 d s 780 377 m -22 -22 d s 750 376 m -20 -20 d s
 722 376 m -20 -20 d s 693 376 m -20 -20 d s 664 376 m -18 -18 d s 634 374 m -17 -16 d s 605 374 m -16 -16 d s 577 374 m -17 -16 d s 548 374 m -16 -16 d s 519 374 m -16 -16 d s 490 374 m -16 -16 d s 461 374 m -15 -16 d s 318 231 m s 433 374 m -15 -15
 d s 318 259 m s 403 373 m -14 -14 d s 318 288 m s 375 373 m -15 -14 d s 318 317 m s 346 373 m -15 -14 d s 318 345 m s 6 lw black[ 4 8] 0 sd 3 lw 318 447 m 1860 X s 318 285 m 1860 X s 1 0 0 c[  12 12 ] 0 sd 6 lw 318 366 m 1860 X s
 gr  gr showpage
end
%%EOF
