%!PS-Adobe-2.0 EPSF-2.0
%%BoundingBox:  0 0 567 521
%%Title: Distributions/meffInc_distrCRT_MB-GGd_beforeFit_forThesis.eps: canvas
%%Creator: ROOT Version 6.04/16
%%CreationDate: Tue May 19 22:04:03 2020
%%DocumentNeededResources: ProcSet (FontSetInit)
%%EndComments
%%BeginProlog
80 dict begin
/s {stroke} def /l {lineto} def /m {moveto} def /t {translate} def
/r {rotate} def /rl {roll}  def /R {repeat} def
/d {rlineto} def /rm {rmoveto} def /gr {grestore} def /f {eofill} def
/c {setrgbcolor} def /black {0 setgray} def /sd {setdash} def
/cl {closepath} def /sf {scalefont setfont} def /lw {setlinewidth} def
/box {m dup 0 exch d exch 0 d 0 exch neg d cl} def
/NC{systemdict begin initclip end}def/C{NC box clip newpath}def
/bl {box s} def /bf {gsave box gsave f grestore 1 lw [] 0 sd s grestore} def /Y { 0 exch d} def /X { 0 d} def 
/K {{pop pop 0 moveto} exch kshow} bind def
/ita {/ang 15 def gsave [1 0 ang dup sin exch cos div 1 0 0] concat} def 
/mp {newpath /y exch def /x exch def} def
/side {[w .77 mul w .23 mul] .385 w mul sd w 0 l currentpoint t -144 r} def
/mr {mp x y w2 0 360 arc} def /m24 {mr s} def /m20 {mr f} def
/mb {mp x y w2 add m w2 neg 0 d 0 w neg d w 0 d 0 w d cl} def
/mt {mp x y w2 add m w2 neg w neg d w 0 d cl} def
/m21 {mb f} def /m25 {mb s} def /m22 {mt f} def /m26{mt s} def
/m23 {mp x y w2 sub m w2 w d w neg 0 d cl f} def
/m27 {mp x y w2 add m w3 neg w2 neg d w3 w2 neg d w3 w2 d cl s} def
/m28 {mp x w2 sub y w2 sub w3 add m w3 0 d  0 w3 neg d w3 0 d 0 w3 d w3 0 d  0 w3 d w3 neg 0 d 0 w3 d w3 neg 0 d 0 w3 neg d w3 neg 0 d cl s } def
/m29 {mp gsave x w2 sub y w2 add w3 sub m currentpoint t 4 {side} repeat cl fill gr} def
/m30 {mp gsave x w2 sub y w2 add w3 sub m currentpoint t 4 {side} repeat cl s gr} def
/m31 {mp x y w2 sub m 0 w d x w2 sub y m w 0 d x w2 sub y w2 add m w w neg d x w2 sub y w2 sub m w w d s} def
/m32 {mp x y w2 sub m w2 w d w neg 0 d cl s} def
/m33 {mp x y w2 add m w3 neg w2 neg d w3 w2 neg d w3 w2 d cl f} def
/m34 {mp x w2 sub y w2 sub w3 add m w3 0 d  0 w3 neg d w3 0 d 0 w3 d w3 0 d  0 w3 d w3 neg 0 d 0 w3 d w3 neg 0 d 0 w3 neg d w3 neg 0 d cl f } def
/m2 {mp x y w2 sub m 0 w d x w2 sub y m w 0 d s} def
/m5 {mp x w2 sub y w2 sub m w w d x w2 sub y w2 add m w w neg d s} def
%%IncludeResource: ProcSet (FontSetInit)
%%IncludeResource: font Times-Roman
%%IncludeResource: font Times-Italic
%%IncludeResource: font Times-Bold
%%IncludeResource: font Times-BoldItalic
%%IncludeResource: font Helvetica
%%IncludeResource: font Helvetica-Oblique
%%IncludeResource: font Helvetica-Bold
%%IncludeResource: font Helvetica-BoldOblique
%%IncludeResource: font Courier
%%IncludeResource: font Courier-Oblique
%%IncludeResource: font Courier-Bold
%%IncludeResource: font Courier-BoldOblique
%%IncludeResource: font Symbol
%%IncludeResource: font ZapfDingbats
/reEncode {exch findfont dup length dict begin {1 index /FID eq  {pop pop} {def} ifelse } forall /Encoding exch def currentdict end dup /FontName get exch definefont pop } def [/Times-Bold /Times-Italic /Times-BoldItalic /Helvetica /Helvetica-Oblique
 /Helvetica-Bold /Helvetica-BoldOblique /Courier /Courier-Oblique /Courier-Bold /Courier-BoldOblique /Times-Roman /AvantGarde-Book /AvantGarde-BookOblique /AvantGarde-Demi /AvantGarde-DemiOblique /Bookman-Demi /Bookman-DemiItalic /Bookman-Light
 /Bookman-LightItalic /Helvetica-Narrow /Helvetica-Narrow-Bold /Helvetica-Narrow-BoldOblique /Helvetica-Narrow-Oblique /NewCenturySchlbk-Roman /NewCenturySchlbk-Bold /NewCenturySchlbk-BoldItalic /NewCenturySchlbk-Italic /Palatino-Bold
 /Palatino-BoldItalic /Palatino-Italic /Palatino-Roman ] {ISOLatin1Encoding reEncode } forall
%%EndProlog
%%BeginSetup
%%EndSetup
newpath  gsave  .25 .25 scale  gsave  0 0 t black[  ] 0 sd 3 lw 1 1 1 c 2268 2085 0 0 bf black 1 1 1 c 2263 1770 2 313 bf black 1 1 1 c black 1860 1145 319 584 bl 1 1 1 c black 1860 1145 319 584 bl 6 lw 1 1 1 c black 3 lw /w 33 def /w2 {w 2 div} def
 /w3 {w 3 div} def 381 1184 m20 6 lw 3 lw 505 1189 m20 6 lw 3 lw 629 1165 m20 6 lw 3 lw 753 1140 m20 6 lw 3 lw 877 1102 m20 6 lw 3 lw 1001 1079 m20 6 lw 3 lw 1125 1025 m20 6 lw 3 lw 1249 1005 m20 6 lw 3 lw 1373 977 m20 6 lw 1497 905 m 5 Y s 1497 937
 m 1 Y s 3 lw 1497 924 m20 6 lw 1621 878 m 9 Y s 1621 914 m 3 Y s 3 lw 1621 901 m20 6 lw 1745 834 m 18 Y s 1745 879 m 7 Y s 3 lw 1745 865 m20 6 lw 1869 804 m 25 Y s 1869 856 m 11 Y s 3 lw 1869 843 m20 6 lw 2117 820 m 21 Y s 2117 868 m 10 Y s 3 lw
 2117 855 m20 6 lw 3 lw 319 584 m 1860 X s
 gsave  2263 1770 2 313 C 1949.08 369.478 t 0 r /Helvetica findfont 81.3741 sf 0 0 m ( [GeV]) show NC gr 
 gsave  2263 1770 2 313 C 1888.07 342.361 t 0 r /Helvetica findfont 54.2494 sf 0 0 m (eff) show NC gr 
 gsave  2263 1770 2 313 C 1823.66 369.478 t 0 r /Helvetica findfont 81.3741 sf 0 0 m (m) show NC gr  319 584 m cl s 381 584 m cl s 443 584 m cl s 505 584 m cl s 567 584 m cl s 629 584 m cl s 691 584 m cl s 753 584 m cl s 815 584 m cl s 877 584 m cl s
 939 584 m cl s 1001 584 m cl s 1063 584 m cl s 1125 584 m cl s 1187 584 m cl s 1249 584 m cl s 1311 584 m cl s 1373 584 m cl s 1435 584 m cl s 1497 584 m cl s 1559 584 m cl s 1621 584 m cl s 1683 584 m cl s 1745 584 m cl s 1807 584 m cl s 1869 584 m
 cl s 1931 584 m cl s 1993 584 m cl s 2055 584 m cl s 2117 584 m cl s 2179 584 m cl s 319 1729 m 1860 X s 319 1729 m cl s 381 1729 m cl s 443 1729 m cl s 505 1729 m cl s 567 1729 m cl s 629 1729 m cl s 691 1729 m cl s 753 1729 m cl s 815 1729 m cl s
 877 1729 m cl s 939 1729 m cl s 1001 1729 m cl s 1063 1729 m cl s 1125 1729 m cl s 1187 1729 m cl s 1249 1729 m cl s 1311 1729 m cl s 1373 1729 m cl s 1435 1729 m cl s 1497 1729 m cl s 1559 1729 m cl s 1621 1729 m cl s 1683 1729 m cl s 1745 1729 m
 cl s 1807 1729 m cl s 1869 1729 m cl s 1931 1729 m cl s 1993 1729 m cl s 2055 1729 m cl s 2117 1729 m cl s 2179 1729 m cl s 319 584 m 1145 Y s
 gsave  2263 1770 2 313 C 166.096 1091.49 t 90 r /Helvetica findfont 81.3741 sf 0 0 m (Events / 200 GeV) show NC gr  341 630 m -22 X s 341 657 m -22 X s 341 676 m -22 X s 341 691 m -22 X s 341 703 m -22 X s 341 713 m -22 X s 341 722 m -22 X s 341 730
 m -22 X s 363 736 m -44 X s
 gsave  2263 1770 2 313 C 300.555 709.378 t 0 r  -36 0 t /Helvetica findfont 64.4212 sf 0 0 m (1) show NC gr  341 782 m -22 X s 341 809 m -22 X s 341 828 m -22 X s 341 843 m -22 X s 341 855 m -22 X s 341 865 m -22 X s 341 874 m -22 X s 341 882 m -22
 X s 363 889 m -44 X s
 gsave  2263 1770 2 313 C 300.555 861.563 t 0 r  -73 0 t /Helvetica findfont 64.4212 sf 0 0 m (10) show NC gr  341 934 m -22 X s 341 961 m -22 X s 341 980 m -22 X s 341 995 m -22 X s 341 1007 m -22 X s 341 1017 m -22 X s 341 1026 m -22 X s 341 1034 m
 -22 X s 363 1041 m -44 X s
 gsave  2263 1770 2 313 C 274.567 1040.64 t 0 r /Helvetica findfont 44.0776 sf 0 0 m (2) show NC gr 
 gsave  2263 1770 2 313 C 203.383 1013.52 t 0 r /Helvetica findfont 64.4212 sf 0 0 m (10) show NC gr  341 1087 m -22 X s 341 1113 m -22 X s 341 1132 m -22 X s 341 1147 m -22 X s 341 1159 m -22 X s 341 1169 m -22 X s 341 1178 m -22 X s 341 1186 m -22
 X s 363 1193 m -44 X s
 gsave  2263 1770 2 313 C 274.567 1193.18 t 0 r /Helvetica findfont 44.0776 sf 0 0 m (3) show NC gr 
 gsave  2263 1770 2 313 C 203.383 1162.67 t 0 r /Helvetica findfont 64.4212 sf 0 0 m (10) show NC gr  341 1239 m -22 X s 341 1266 m -22 X s 341 1285 m -22 X s 341 1299 m -22 X s 341 1311 m -22 X s 341 1322 m -22 X s 341 1330 m -22 X s 341 1338 m -22
 X s 363 1345 m -44 X s
 gsave  2263 1770 2 313 C 274.567 1342.33 t 0 r /Helvetica findfont 44.0776 sf 0 0 m (4) show NC gr 
 gsave  2263 1770 2 313 C 203.383 1315.21 t 0 r /Helvetica findfont 64.4212 sf 0 0 m (10) show NC gr  341 1391 m -22 X s 341 1418 m -22 X s 341 1437 m -22 X s 341 1452 m -22 X s 341 1464 m -22 X s 341 1474 m -22 X s 341 1483 m -22 X s 341 1490 m -22
 X s 363 1497 m -44 X s
 gsave  2263 1770 2 313 C 274.567 1498.25 t 0 r /Helvetica findfont 44.0776 sf 0 0 m (5) show NC gr 
 gsave  2263 1770 2 313 C 203.383 1467.74 t 0 r /Helvetica findfont 64.4212 sf 0 0 m (10) show NC gr  341 1543 m -22 X s 341 1570 m -22 X s 341 1589 m -22 X s 341 1604 m -22 X s 341 1616 m -22 X s 341 1626 m -22 X s 341 1635 m -22 X s 341 1643 m -22
 X s 363 1650 m -44 X s
 gsave  2263 1770 2 313 C 274.567 1650.79 t 0 r /Helvetica findfont 44.0776 sf 0 0 m (6) show NC gr 
 gsave  2263 1770 2 313 C 203.383 1620.28 t 0 r /Helvetica findfont 64.4212 sf 0 0 m (10) show NC gr  341 1695 m -22 X s 341 1722 m -22 X s 2179 584 m 1145 Y s 2157 630 m 22 X s 2157 657 m 22 X s 2157 676 m 22 X s 2157 691 m 22 X s 2157 703 m 22 X s
 2157 713 m 22 X s 2157 722 m 22 X s 2157 730 m 22 X s 2136 736 m 43 X s 2157 782 m 22 X s 2157 809 m 22 X s 2157 828 m 22 X s 2157 843 m 22 X s 2157 855 m 22 X s 2157 865 m 22 X s 2157 874 m 22 X s 2157 882 m 22 X s 2136 889 m 43 X s 2157 934 m 22 X
 s 2157 961 m 22 X s 2157 980 m 22 X s 2157 995 m 22 X s 2157 1007 m 22 X s 2157 1017 m 22 X s 2157 1026 m 22 X s 2157 1034 m 22 X s 2136 1041 m 43 X s 2157 1087 m 22 X s 2157 1113 m 22 X s 2157 1132 m 22 X s 2157 1147 m 22 X s 2157 1159 m 22 X s
 2157 1169 m 22 X s 2157 1178 m 22 X s 2157 1186 m 22 X s 2136 1193 m 43 X s 2157 1239 m 22 X s 2157 1266 m 22 X s 2157 1285 m 22 X s 2157 1299 m 22 X s 2157 1311 m 22 X s 2157 1322 m 22 X s 2157 1330 m 22 X s 2157 1338 m 22 X s 2136 1345 m 43 X s
 2157 1391 m 22 X s 2157 1418 m 22 X s 2157 1437 m 22 X s 2157 1452 m 22 X s 2157 1464 m 22 X s 2157 1474 m 22 X s 2157 1483 m 22 X s 2157 1490 m 22 X s 2136 1497 m 43 X s 2157 1543 m 22 X s 2157 1570 m 22 X s 2157 1589 m 22 X s 2157 1604 m 22 X s
 2157 1616 m 22 X s 2157 1626 m 22 X s 2157 1635 m 22 X s 2157 1643 m 22 X s 2136 1650 m 43 X s 2157 1695 m 22 X s 2157 1722 m 22 X s 0.6 1 0.6 c black 0.6 1 0.6 c 319 584 m 595 Y 124 X 20 Y 124 X -22 Y 124 X -25 Y 124 X -28 Y 124 X -28 Y 124 X -28 Y
 124 X -28 Y 124 X -30 Y 124 X -34 Y 124 X -29 Y 124 X -34 Y 124 X -24 Y 124 X -26 Y 124 X 43 Y 124 X -322 Y f black 0.6 1 0.6 c black 319 1179 m 124 X 20 Y 124 X -22 Y 124 X -25 Y 124 X -28 Y 124 X -28 Y 124 X -28 Y 124 X -28 Y 124 X -30 Y 124 X -34
 Y 124 X -29 Y 124 X -34 Y 124 X -24 Y 124 X -26 Y 124 X 43 Y 124 X s 0.999 0.999 0.999 c black 0.999 0.999 0.999 c 319 584 m 456 Y 124 X 31 Y 124 X -14 Y 124 X -19 Y 124 X -23 Y 124 X -28 Y 124 X -25 Y 124 X -26 Y 124 X -25 Y 124 X -33 Y 124 X -18 Y
 124 X -43 Y 124 X -31 Y 124 X -32 Y 124 X 79 Y 124 X -249 Y f black 0.999 0.999 0.999 c black 319 1040 m 124 X 31 Y 124 X -14 Y 124 X -19 Y 124 X -23 Y 124 X -28 Y 124 X -25 Y 124 X -26 Y 124 X -25 Y 124 X -33 Y 124 X -18 Y 124 X -43 Y 124 X -31 Y
 124 X -32 Y 124 X 79 Y 124 X s 1 1 1 c black 319 1040 m 124 X 31 Y 124 X -14 Y 124 X -19 Y 124 X -23 Y 124 X -28 Y 124 X -25 Y 124 X -26 Y 124 X -25 Y 124 X -33 Y 124 X -18 Y 124 X -43 Y 124 X -31 Y 124 X -32 Y 124 X 79 Y 124 X s 0.4 0.6 1 c black
 0.4 0.6 1 c 319 584 m 456 Y 124 X 31 Y 124 X -14 Y 124 X -19 Y 124 X -23 Y 124 X -28 Y 124 X -25 Y 124 X -26 Y 124 X -25 Y 124 X -33 Y 124 X -18 Y 124 X -43 Y 124 X -31 Y 124 X -32 Y 124 X 79 Y 124 X -249 Y f black 0.4 0.6 1 c black 319 1040 m 124 X
 31 Y 124 X -14 Y 124 X -19 Y 124 X -23 Y 124 X -28 Y 124 X -25 Y 124 X -26 Y 124 X -25 Y 124 X -33 Y 124 X -18 Y 124 X -43 Y 124 X -31 Y 124 X -32 Y 124 X 79 Y 124 X s 0.999 0.999 0.999 c black 0.999 0.999 0.999 c 319 584 m 300 Y 124 X 23 Y 124 X -1
 Y 124 X -13 Y 124 X -6 Y 124 X -53 Y 124 X -22 Y 124 X -19 Y 124 X -42 Y 124 X -33 Y 248 X -56 Y 124 X -38 Y 124 X -39 Y 124 X 123 Y 124 X -124 Y f black 0.999 0.999 0.999 c black 319 884 m 124 X 23 Y 124 X -1 Y 124 X -13 Y 124 X -6 Y 124 X -53 Y
 124 X -22 Y 124 X -19 Y 124 X -42 Y 124 X -33 Y 248 X -56 Y 124 X -38 Y 124 X -39 Y 124 X 123 Y 124 X s 1 1 1 c black 319 884 m 124 X 23 Y 124 X -1 Y 124 X -13 Y 124 X -6 Y 124 X -53 Y 124 X -22 Y 124 X -19 Y 124 X -42 Y 124 X -33 Y 248 X -56 Y 124
 X -38 Y 124 X -39 Y 124 X 123 Y 124 X s 1 0.8 0.4 c black 1 0.8 0.4 c 319 584 m 300 Y 124 X 23 Y 124 X -1 Y 124 X -13 Y 124 X -6 Y 124 X -53 Y 124 X -22 Y 124 X -19 Y 124 X -42 Y 124 X -33 Y 248 X -56 Y 124 X -38 Y 124 X -39 Y 124 X 123 Y 124 X -124
 Y f black 1 0.8 0.4 c black 319 884 m 124 X 23 Y 124 X -1 Y 124 X -13 Y 124 X -6 Y 124 X -53 Y 124 X -22 Y 124 X -19 Y 124 X -42 Y 124 X -33 Y 248 X -56 Y 124 X -38 Y 124 X -39 Y 124 X 123 Y 124 X s 0.999 0.999 0.999 c black 0.999 0.999 0.999 c 319
 584 m 295 Y 124 X 21 Y 124 X -2 Y 124 X -12 Y 124 X -4 Y 124 X -55 Y 124 X -30 Y 124 X -7 Y 124 X -45 Y 124 X -43 Y 124 X 4 Y 124 X -53 Y 124 X -29 Y 124 X -40 Y 124 X 121 Y 124 X -121 Y f black 0.999 0.999 0.999 c black 319 879 m 124 X 21 Y 124 X
 -2 Y 124 X -12 Y 124 X -4 Y 124 X -55 Y 124 X -30 Y 124 X -7 Y 124 X -45 Y 124 X -43 Y 124 X 4 Y 124 X -53 Y 124 X -29 Y 124 X -40 Y 124 X 121 Y 124 X s 1 1 1 c black 319 879 m 124 X 21 Y 124 X -2 Y 124 X -12 Y 124 X -4 Y 124 X -55 Y 124 X -30 Y 124
 X -7 Y 124 X -45 Y 124 X -43 Y 124 X 4 Y 124 X -53 Y 124 X -29 Y 124 X -40 Y 124 X 121 Y 124 X s 1 0.4 0.6 c black 1 0.4 0.6 c 319 584 m 295 Y 124 X 21 Y 124 X -2 Y 124 X -12 Y 124 X -4 Y 124 X -55 Y 124 X -30 Y 124 X -7 Y 124 X -45 Y 124 X -43 Y
 124 X 4 Y 124 X -53 Y 124 X -29 Y 124 X -40 Y 124 X 121 Y 124 X -121 Y f black 1 0.4 0.6 c black 319 879 m 124 X 21 Y 124 X -2 Y 124 X -12 Y 124 X -4 Y 124 X -55 Y 124 X -30 Y 124 X -7 Y 124 X -45 Y 124 X -43 Y 124 X 4 Y 124 X -53 Y 124 X -29 Y 124
 X -40 Y 124 X 121 Y 124 X s 1 0 0 c 6 lw 1 1 1 c black 1 0 0 c 319 1179 m 124 X 20 Y 124 X -22 Y 124 X -25 Y 124 X -28 Y 124 X -28 Y 124 X -28 Y 124 X -28 Y 124 X -30 Y 124 X -34 Y 124 X -29 Y 124 X -34 Y 124 X -24 Y 124 X -26 Y 124 X 43 Y 124 X s
 black 3 lw 1 0 0 c 1 lw << /PatternType 1 /PaintType 2 /TilingType 1 /BBox [ 0 0 100 100 ] /XStep 100 /YStep 100 /PaintProc { begin gsave 0 100 m 100 0 l s gr end } >> [ 0.24 0 0 0.24 0 0 ] makepattern /P05 exch def /cs {[/Pattern /DeviceRGB]
 setcolorspace} def /FA {f [/DeviceRGB] setcolorspace} def cs 1 0 0 P05 setcolor 319 584 m 596 Y 124 X 21 Y 124 X -23 Y 124 X -24 Y 124 X -27 Y 124 X -29 Y 124 X -26 Y 124 X -29 Y 124 X -29 Y 124 X -33 Y 124 X -28 Y 124 X -33 Y 124 X -22 Y 124 X -25
 Y 124 X 43 Y 124 X -332 Y 309 Y -124 X -42 Y -124 X 28 Y -124 X 27 Y -124 X 35 Y -124 X 29 Y -124 X 36 Y -124 X 30 Y -124 X 29 Y -124 X 28 Y -124 X 29 Y -124 X 27 Y -124 X 27 Y -124 X 22 Y -124 X -21 Y -124 X -593 Y FA 6 lw 1 1 1 c 15 lw 1621 880 m
 -1 Y s 1621 879 m cl s 1745 885 m 2 Y s 1745 887 m cl s 1745 845 m -10 Y s 1745 835 m cl s 1869 863 m 5 Y s 1869 868 m cl s 1869 823 m -17 Y s 1869 806 m cl s 2117 875 m 3 Y s 2117 878 m cl s 2117 835 m -13 Y s 2117 822 m cl s black 1 1 1 c 3 lw /w
 43 def /w2 {w 2 div} def /w3 {w 3 div} def 381 1184 505 1189 629 1165 753 1140 877 1102 1001 1079 1125 1025 1249 1005 1373 977 1497 924 1621 901 1745 865 1869 843 13 { m20} R 15 lw 3 lw 2117 855 m20 15 lw black 6 lw 1 1 1 c black 3 lw /w 33 def /w2
 {w 2 div} def /w3 {w 3 div} def 381 1184 m20 6 lw 3 lw 505 1189 m20 6 lw 3 lw 629 1165 m20 6 lw 3 lw 753 1140 m20 6 lw 3 lw 877 1102 m20 6 lw 3 lw 1001 1079 m20 6 lw 3 lw 1125 1025 m20 6 lw 3 lw 1249 1005 m20 6 lw 3 lw 1373 977 m20 6 lw 1497 905 m 5
 Y s 1497 937 m 1 Y s 3 lw 1497 924 m20 6 lw 1621 878 m 9 Y s 1621 914 m 3 Y s 3 lw 1621 901 m20 6 lw 1745 834 m 18 Y s 1745 879 m 7 Y s 3 lw 1745 865 m20 6 lw 1869 804 m 25 Y s 1869 856 m 11 Y s 3 lw 1869 843 m20 6 lw 2117 820 m 21 Y s 2117 868 m 10
 Y s 3 lw 2117 855 m20 6 lw 1497 937 m 1 Y s 1497 938 m cl s 1497 910 m -4 Y s 1497 906 m cl s 1621 914 m 4 Y s 1621 918 m cl s 1621 887 m -8 Y s 1621 879 m cl s 1745 879 m 8 Y s 1745 887 m cl s 1745 852 m -17 Y s 1745 835 m cl s 1869 856 m 12 Y s
 1869 868 m cl s 1869 829 m -23 Y s 1869 806 m cl s 2117 868 m 10 Y s 2117 878 m cl s 2117 841 m -19 Y s 2117 822 m cl s 3 lw 381 1184 505 1189 629 1165 753 1140 877 1102 1001 1079 1125 1025 1249 1005 1373 977 1497 924 1621 901 1745 865 1869 843 13 {
 m20} R 6 lw 3 lw 2117 855 m20 6 lw 3 lw 319 584 m 1860 X s 319 584 m cl s 381 584 m cl s 443 584 m cl s 505 584 m cl s 567 584 m cl s 629 584 m cl s 691 584 m cl s 753 584 m cl s 815 584 m cl s 877 584 m cl s 939 584 m cl s 1001 584 m cl s 1063 584
 m cl s 1125 584 m cl s 1187 584 m cl s 1249 584 m cl s 1311 584 m cl s 1373 584 m cl s 1435 584 m cl s 1497 584 m cl s 1559 584 m cl s 1621 584 m cl s 1683 584 m cl s 1745 584 m cl s 1807 584 m cl s 1869 584 m cl s 1931 584 m cl s 1993 584 m cl s
 2055 584 m cl s 2117 584 m cl s 2179 584 m cl s 319 1729 m 1860 X s 319 1729 m cl s 381 1729 m cl s 443 1729 m cl s 505 1729 m cl s 567 1729 m cl s 629 1729 m cl s 691 1729 m cl s 753 1729 m cl s 815 1729 m cl s 877 1729 m cl s 939 1729 m cl s 1001
 1729 m cl s 1063 1729 m cl s 1125 1729 m cl s 1187 1729 m cl s 1249 1729 m cl s 1311 1729 m cl s 1373 1729 m cl s 1435 1729 m cl s 1497 1729 m cl s 1559 1729 m cl s 1621 1729 m cl s 1683 1729 m cl s 1745 1729 m cl s 1807 1729 m cl s 1869 1729 m cl s
 1931 1729 m cl s 1993 1729 m cl s 2055 1729 m cl s 2117 1729 m cl s 2179 1729 m cl s 319 584 m 1145 Y s 341 630 m -22 X s 341 657 m -22 X s 341 676 m -22 X s 341 691 m -22 X s 341 703 m -22 X s 341 713 m -22 X s 341 722 m -22 X s 341 730 m -22 X s
 363 736 m -44 X s 341 782 m -22 X s 341 809 m -22 X s 341 828 m -22 X s 341 843 m -22 X s 341 855 m -22 X s 341 865 m -22 X s 341 874 m -22 X s 341 882 m -22 X s 363 889 m -44 X s 341 934 m -22 X s 341 961 m -22 X s 341 980 m -22 X s 341 995 m -22 X
 s 341 1007 m -22 X s 341 1017 m -22 X s 341 1026 m -22 X s 341 1034 m -22 X s 363 1041 m -44 X s 341 1087 m -22 X s 341 1113 m -22 X s 341 1132 m -22 X s 341 1147 m -22 X s 341 1159 m -22 X s 341 1169 m -22 X s 341 1178 m -22 X s 341 1186 m -22 X s
 363 1193 m -44 X s 341 1239 m -22 X s 341 1266 m -22 X s 341 1285 m -22 X s 341 1299 m -22 X s 341 1311 m -22 X s 341 1322 m -22 X s 341 1330 m -22 X s 341 1338 m -22 X s 363 1345 m -44 X s 341 1391 m -22 X s 341 1418 m -22 X s 341 1437 m -22 X s
 341 1452 m -22 X s 341 1464 m -22 X s 341 1474 m -22 X s 341 1483 m -22 X s 341 1490 m -22 X s 363 1497 m -44 X s 341 1543 m -22 X s 341 1570 m -22 X s 341 1589 m -22 X s 341 1604 m -22 X s 341 1616 m -22 X s 341 1626 m -22 X s 341 1635 m -22 X s
 341 1643 m -22 X s 363 1650 m -44 X s 341 1695 m -22 X s 341 1722 m -22 X s 2179 584 m 1145 Y s 2157 630 m 22 X s 2157 657 m 22 X s 2157 676 m 22 X s 2157 691 m 22 X s 2157 703 m 22 X s 2157 713 m 22 X s 2157 722 m 22 X s 2157 730 m 22 X s 2136 736
 m 43 X s 2157 782 m 22 X s 2157 809 m 22 X s 2157 828 m 22 X s 2157 843 m 22 X s 2157 855 m 22 X s 2157 865 m 22 X s 2157 874 m 22 X s 2157 882 m 22 X s 2136 889 m 43 X s 2157 934 m 22 X s 2157 961 m 22 X s 2157 980 m 22 X s 2157 995 m 22 X s 2157
 1007 m 22 X s 2157 1017 m 22 X s 2157 1026 m 22 X s 2157 1034 m 22 X s 2136 1041 m 43 X s 2157 1087 m 22 X s 2157 1113 m 22 X s 2157 1132 m 22 X s 2157 1147 m 22 X s 2157 1159 m 22 X s 2157 1169 m 22 X s 2157 1178 m 22 X s 2157 1186 m 22 X s 2136
 1193 m 43 X s 2157 1239 m 22 X s 2157 1266 m 22 X s 2157 1285 m 22 X s 2157 1299 m 22 X s 2157 1311 m 22 X s 2157 1322 m 22 X s 2157 1330 m 22 X s 2157 1338 m 22 X s 2136 1345 m 43 X s 2157 1391 m 22 X s 2157 1418 m 22 X s 2157 1437 m 22 X s 2157
 1452 m 22 X s 2157 1464 m 22 X s 2157 1474 m 22 X s 2157 1483 m 22 X s 2157 1490 m 22 X s 2136 1497 m 43 X s 2157 1543 m 22 X s 2157 1570 m 22 X s 2157 1589 m 22 X s 2157 1604 m 22 X s 2157 1616 m 22 X s 2157 1626 m 22 X s 2157 1635 m 22 X s 2157
 1643 m 22 X s 2136 1650 m 43 X s 2157 1695 m 22 X s 2157 1722 m 22 X s
 gsave  2263 1770 2 313 C 406.765 1447.41 t 0 r /Helvetica findfont 64.4212 sf 0 0 m (CRT for MB\255GGd) show NC gr 
 gsave  2263 1770 2 313 C 1464.36 1616.89 t 0 r /Helvetica findfont 64.4212 sf 0 0 m (SM Total) show NC gr  1 1 1 c 1338 1603 m 107 X 74 Y -107 X f 1 0 0 c 6 lw 1338 1640 m 107 X s black
 gsave  2263 1770 2 313 C 1464.36 1511.81 t 0 r /Helvetica findfont 64.4212 sf 0 0 m (Data) show NC gr  1391 1502 m 64 Y s 3 lw 1391 1534 m20 6 lw
 gsave  2263 1770 2 313 C 1498.25 1406.73 t 0 r /Helvetica findfont 64.4212 sf 0 0 m (\(+EW\) & single top) show NC gr 
 gsave  2263 1770 2 313 C 1481.3 1406.73 t 0 r /Helvetica findfont 64.4212 sf 0 0 m (t) show NC gr  3 lw 1481 1458 m 17 X s
 gsave  2263 1770 2 313 C 1464.36 1406.73 t 0 r /Helvetica findfont 64.4212 sf 0 0 m (t) show NC gr  0.6 1 0.6 c 1338 1391 m 107 X 74 Y -107 X f black 1338 1465 m 107 X s 1338 1391 m 107 X s 1445 1391 m 74 Y s 1338 1391 m 74 Y s
 gsave  2263 1770 2 313 C 1464.36 1298.26 t 0 r /Helvetica findfont 64.4212 sf 0 0 m (W+jets) show NC gr  0.4 0.6 1 c 1338 1284 m 107 X 75 Y -107 X f black 1338 1359 m 107 X s 1338 1284 m 107 X s 1445 1284 m 75 Y s 1338 1284 m 75 Y s
 gsave  2263 1770 2 313 C 1464.36 1193.18 t 0 r /Helvetica findfont 64.4212 sf 0 0 m (Z+jets) show NC gr  1 0.8 0.4 c 1338 1178 m 107 X 75 Y -107 X f black 1338 1253 m 107 X s 1338 1178 m 107 X s 1445 1178 m 75 Y s 1338 1178 m 75 Y s
 gsave  2263 1770 2 313 C 1464.36 1088.1 t 0 r /Helvetica findfont 64.4212 sf 0 0 m (Diboson) show NC gr  1 0.4 0.6 c 1338 1072 m 107 X 74 Y -107 X f black 1338 1146 m 107 X s 1338 1072 m 107 X s 1445 1072 m 74 Y s 1338 1072 m 74 Y s
 gsave  2263 1770 2 313 C 911.832 1566.05 t 0 r /Helvetica findfont 44.0776 sf 0 0 m (\2551) show NC gr 
 gsave  2263 1770 2 313 C 471.17 1535.54 t 0 r /Helvetica findfont 64.4212 sf 0 0 m (=13TeV, 139 fb) show NC gr 
 gsave  2263 1770 2 313 C 440.662 1535.54 t 0 r /Helvetica findfont 64.4212 sf 0 0 m (s) show NC gr  6 lw 420 1573 m 7 -41 d s 3 lw 427 1532 m 7 61 d s 434 1593 m 37 X s 1 1 1 c 2254 561 2 2 bf black 1 1 1 c black 1860 358 318 187 bl 1 1 1 c black
 1860 358 318 187 bl 6 lw 1 1 1 c black 3 lw 380 379 m20 6 lw 3 lw 504 341 m20 6 lw 3 lw 628 340 m20 6 lw 3 lw 752 340 m20 6 lw 3 lw 876 320 m20 6 lw 3 lw 1000 330 m20 6 lw 3 lw 1124 288 m20 6 lw 3 lw 1248 299 m20 6 lw 3 lw 1372 302 m20 6 lw 3 lw
 1496 278 m20 6 lw 3 lw 1620 284 m20 6 lw 3 lw 1744 282 m20 6 lw 3 lw 1868 284 m20 6 lw 3 lw 2116 279 m20 6 lw 3 lw 318 187 m 1860 X s
 gsave  2254 561 2 2 C 1959.25 33.8971 t 0 r /Helvetica findfont 78.1689 sf 0 0 m ( [GeV]) show NC gr 
 gsave  2254 561 2 2 C 1901.63 13.5588 t 0 r /Helvetica findfont 50.9797 sf 0 0 m (eff) show NC gr 
 gsave  2254 561 2 2 C 1840.61 33.8971 t 0 r /Helvetica findfont 78.1689 sf 0 0 m (m) show NC gr  318 201 m -14 Y s 380 194 m -7 Y s 442 194 m -7 Y s 504 194 m -7 Y s 566 194 m -7 Y s 628 201 m -14 Y s 690 194 m -7 Y s 752 194 m -7 Y s 814 194 m -7 Y
 s 876 194 m -7 Y s 938 201 m -14 Y s 1000 194 m -7 Y s 1062 194 m -7 Y s 1124 194 m -7 Y s 1186 194 m -7 Y s 1248 201 m -14 Y s 1310 194 m -7 Y s 1372 194 m -7 Y s 1434 194 m -7 Y s 1496 194 m -7 Y s 1558 201 m -14 Y s 1620 194 m -7 Y s 1682 194 m
 -7 Y s 1744 194 m -7 Y s 1806 194 m -7 Y s 1868 201 m -14 Y s 1930 194 m -7 Y s 1992 194 m -7 Y s 2054 194 m -7 Y s 2116 194 m -7 Y s 2178 201 m -14 Y s
 gsave  2254 561 2 2 C 227.111 118.64 t 0 r /Helvetica findfont 78.1689 sf 0 0 m (1000) show NC gr 
 gsave  2254 561 2 2 C 538.964 118.64 t 0 r /Helvetica findfont 78.1689 sf 0 0 m (1500) show NC gr 
 gsave  2254 561 2 2 C 847.428 118.64 t 0 r /Helvetica findfont 78.1689 sf 0 0 m (2000) show NC gr 
 gsave  2254 561 2 2 C 1159.28 118.64 t 0 r /Helvetica findfont 78.1689 sf 0 0 m (2500) show NC gr 
 gsave  2254 561 2 2 C 1467.74 118.64 t 0 r /Helvetica findfont 78.1689 sf 0 0 m (3000) show NC gr 
 gsave  2254 561 2 2 C 1779.6 118.64 t 0 r /Helvetica findfont 78.1689 sf 0 0 m (3500) show NC gr 
 gsave  2254 561 2 2 C 2088.06 118.64 t 0 r /Helvetica findfont 78.1689 sf 0 0 m (4000) show NC gr  318 545 m 1860 X s 318 531 m 14 Y s 380 538 m 7 Y s 442 538 m 7 Y s 504 538 m 7 Y s 566 538 m 7 Y s 628 531 m 14 Y s 690 538 m 7 Y s 752 538 m 7 Y s
 814 538 m 7 Y s 876 538 m 7 Y s 938 531 m 14 Y s 1000 538 m 7 Y s 1062 538 m 7 Y s 1124 538 m 7 Y s 1186 538 m 7 Y s 1248 531 m 14 Y s 1310 538 m 7 Y s 1372 538 m 7 Y s 1434 538 m 7 Y s 1496 538 m 7 Y s 1558 531 m 14 Y s 1620 538 m 7 Y s 1682 538 m
 7 Y s 1744 538 m 7 Y s 1806 538 m 7 Y s 1868 531 m 14 Y s 1930 538 m 7 Y s 1992 538 m 7 Y s 2054 538 m 7 Y s 2116 538 m 7 Y s 2178 531 m 14 Y s 318 187 m 358 Y s
 gsave  2254 561 2 2 C 166.096 284.736 t 90 r /Helvetica findfont 67.9729 sf 0 0 m (Data/SM) show NC gr  361 203 m -43 X s 339 220 m -21 X s 339 236 m -21 X s 339 252 m -21 X s 339 268 m -21 X s 361 285 m -43 X s 339 301 m -21 X s 339 317 m -21 X s
 339 334 m -21 X s 339 350 m -21 X s 361 366 m -43 X s 339 382 m -21 X s 339 399 m -21 X s 339 415 m -21 X s 339 431 m -21 X s 361 447 m -43 X s 339 464 m -21 X s 339 480 m -21 X s 339 496 m -21 X s 339 512 m -21 X s 361 529 m -43 X s 361 203 m -43 X
 s 339 187 m -21 X s 361 529 m -43 X s
 gsave  2254 561 2 2 C 261.008 183.044 t 0 r /Helvetica findfont 57.777 sf 0 0 m (0) show NC gr 
 gsave  2254 561 2 2 C 213.552 261.008 t 0 r /Helvetica findfont 57.777 sf 0 0 m (0.5) show NC gr 
 gsave  2254 561 2 2 C 271.177 342.361 t 0 r /Helvetica findfont 57.777 sf 0 0 m (1) show NC gr 
 gsave  2254 561 2 2 C 213.552 423.714 t 0 r /Helvetica findfont 57.777 sf 0 0 m (1.5) show NC gr 
 gsave  2254 561 2 2 C 261.008 505.067 t 0 r /Helvetica findfont 57.777 sf 0 0 m (2) show NC gr  2178 187 m 358 Y s 2135 203 m 43 X s 2157 220 m 21 X s 2157 236 m 21 X s 2157 252 m 21 X s 2157 268 m 21 X s 2135 285 m 43 X s 2157 301 m 21 X s 2157 317
 m 21 X s 2157 334 m 21 X s 2157 350 m 21 X s 2135 366 m 43 X s 2157 382 m 21 X s 2157 399 m 21 X s 2157 415 m 21 X s 2157 431 m 21 X s 2135 447 m 43 X s 2157 464 m 21 X s 2157 480 m 21 X s 2157 496 m 21 X s 2157 512 m 21 X s 2135 529 m 43 X s 2135
 203 m 43 X s 2157 187 m 21 X s 2135 529 m 43 X s 9 lw 1372 315 m 3 Y s 1372 318 m cl s 1372 288 m -2 Y s 1372 286 m cl s 1496 291 m 5 Y s 1496 296 m cl s 1496 264 m -4 Y s 1496 260 m cl s 1620 297 m 11 Y s 1620 308 m cl s 1620 270 m -9 Y s 1620 261
 m cl s 1744 296 m 17 Y s 1744 313 m cl s 1744 268 m -15 Y s 1744 253 m cl s 1868 298 m 24 Y s 1868 322 m cl s 1868 270 m -21 Y s 1868 249 m cl s 2116 293 m 18 Y s 2116 311 m cl s 2116 265 m -16 Y s 2116 249 m cl s 3 lw 380 379 504 341 628 340 752
 340 876 320 1000 330 1124 288 1248 299 1372 302 1496 278 1620 284 1744 282 1868 284 13 { m20} R 9 lw 3 lw 2116 279 m20 9 lw 1 0 0 c 6 lw black 3 lw 1 0 0 c 2178 227 m s 2178 255 m s 2178 284 m s 2178 312 m s 2178 341 m -2 -3 d s 2178 369 m -31 -31 d
 s 2174 394 m -56 -56 d s 2145 394 m -55 -56 d s 2117 394 m -56 -56 d s 2088 394 m -54 -54 d s 2059 394 m -54 -54 d s 2029 392 m -53 -52 d s 2001 392 m -53 -52 d s 1972 392 m -50 -49 d s 1943 392 m -50 -49 d s 1912 389 m -48 -46 d s 1883 389 m -47
 -46 d s 1854 389 m -47 -46 d s 1825 389 m -39 -39 d s 1790 382 m -33 -32 d s 1761 382 m -33 -32 d s 1732 382 m -33 -32 d s 1704 382 m -31 -30 d s 1672 380 m -27 -28 d s 1644 380 m -28 -28 d s 1615 380 m -28 -28 d s 1586 380 m -27 -28 d s 1557 379 m
 -26 -26 d s 1528 379 m -26 -26 d s 1500 379 m -27 -26 d s 1471 379 m -27 -26 d s 1442 379 m -23 -23 d s 1410 376 m -20 -20 d s 1382 376 m -21 -20 d s 1353 376 m -20 -20 d s 1324 376 m -19 -19 d s 1295 375 m -19 -18 d s 1266 375 m -19 -18 d s 1238
 375 m -19 -18 d s 1209 375 m -19 -18 d s 1180 375 m -18 -18 d s 1151 375 m -18 -18 d s 1123 375 m -19 -18 d s 1094 375 m -19 -18 d s 1065 375 m -15 -15 d s 1033 372 m -12 -12 d s 1005 372 m -13 -12 d s 976 372 m -12 -12 d s 947 372 m -12 -12 d s 919
 372 m -12 -12 d s 890 372 m -12 -12 d s 861 372 m -12 -12 d s 833 372 m -13 -12 d s 804 372 m -12 -12 d s 775 372 m -12 -12 d s 746 372 m -11 -12 d s 718 372 m -12 -12 d s 686 369 m -6 -6 d s 657 369 m -5 -6 d s 628 369 m -5 -6 d s 600 369 m -6 -6 d
 s 571 369 m -6 -6 d s 543 369 m -7 -6 d s 514 369 m -6 -6 d s 485 369 m -6 -6 d s 457 369 m -7 -6 d s 318 231 m s 429 370 m -8 -8 d s 318 259 m s 400 370 m -8 -8 d s 318 288 m s 371 370 m -7 -8 d s 318 317 m s 343 370 m -8 -8 d s 318 345 m s 6 lw
 black[ 4 8] 0 sd 3 lw 318 447 m 1860 X s 318 285 m 1860 X s 1 0 0 c[  12 12 ] 0 sd 6 lw 318 366 m 1860 X s
 gr  gr showpage
end
%%EOF
