%!PS-Adobe-2.0 EPSF-2.0
%%BoundingBox:  0 0 567 521
%%Title: Distributions/meffInc_distrCRT_MB-GGd_afterFit_forThesis.eps: canvas
%%Creator: ROOT Version 6.04/16
%%CreationDate: Tue May 19 22:04:03 2020
%%DocumentNeededResources: ProcSet (FontSetInit)
%%EndComments
%%BeginProlog
80 dict begin
/s {stroke} def /l {lineto} def /m {moveto} def /t {translate} def
/r {rotate} def /rl {roll}  def /R {repeat} def
/d {rlineto} def /rm {rmoveto} def /gr {grestore} def /f {eofill} def
/c {setrgbcolor} def /black {0 setgray} def /sd {setdash} def
/cl {closepath} def /sf {scalefont setfont} def /lw {setlinewidth} def
/box {m dup 0 exch d exch 0 d 0 exch neg d cl} def
/NC{systemdict begin initclip end}def/C{NC box clip newpath}def
/bl {box s} def /bf {gsave box gsave f grestore 1 lw [] 0 sd s grestore} def /Y { 0 exch d} def /X { 0 d} def 
/K {{pop pop 0 moveto} exch kshow} bind def
/ita {/ang 15 def gsave [1 0 ang dup sin exch cos div 1 0 0] concat} def 
/mp {newpath /y exch def /x exch def} def
/side {[w .77 mul w .23 mul] .385 w mul sd w 0 l currentpoint t -144 r} def
/mr {mp x y w2 0 360 arc} def /m24 {mr s} def /m20 {mr f} def
/mb {mp x y w2 add m w2 neg 0 d 0 w neg d w 0 d 0 w d cl} def
/mt {mp x y w2 add m w2 neg w neg d w 0 d cl} def
/m21 {mb f} def /m25 {mb s} def /m22 {mt f} def /m26{mt s} def
/m23 {mp x y w2 sub m w2 w d w neg 0 d cl f} def
/m27 {mp x y w2 add m w3 neg w2 neg d w3 w2 neg d w3 w2 d cl s} def
/m28 {mp x w2 sub y w2 sub w3 add m w3 0 d  0 w3 neg d w3 0 d 0 w3 d w3 0 d  0 w3 d w3 neg 0 d 0 w3 d w3 neg 0 d 0 w3 neg d w3 neg 0 d cl s } def
/m29 {mp gsave x w2 sub y w2 add w3 sub m currentpoint t 4 {side} repeat cl fill gr} def
/m30 {mp gsave x w2 sub y w2 add w3 sub m currentpoint t 4 {side} repeat cl s gr} def
/m31 {mp x y w2 sub m 0 w d x w2 sub y m w 0 d x w2 sub y w2 add m w w neg d x w2 sub y w2 sub m w w d s} def
/m32 {mp x y w2 sub m w2 w d w neg 0 d cl s} def
/m33 {mp x y w2 add m w3 neg w2 neg d w3 w2 neg d w3 w2 d cl f} def
/m34 {mp x w2 sub y w2 sub w3 add m w3 0 d  0 w3 neg d w3 0 d 0 w3 d w3 0 d  0 w3 d w3 neg 0 d 0 w3 d w3 neg 0 d 0 w3 neg d w3 neg 0 d cl f } def
/m2 {mp x y w2 sub m 0 w d x w2 sub y m w 0 d s} def
/m5 {mp x w2 sub y w2 sub m w w d x w2 sub y w2 add m w w neg d s} def
%%IncludeResource: ProcSet (FontSetInit)
%%IncludeResource: font Times-Roman
%%IncludeResource: font Times-Italic
%%IncludeResource: font Times-Bold
%%IncludeResource: font Times-BoldItalic
%%IncludeResource: font Helvetica
%%IncludeResource: font Helvetica-Oblique
%%IncludeResource: font Helvetica-Bold
%%IncludeResource: font Helvetica-BoldOblique
%%IncludeResource: font Courier
%%IncludeResource: font Courier-Oblique
%%IncludeResource: font Courier-Bold
%%IncludeResource: font Courier-BoldOblique
%%IncludeResource: font Symbol
%%IncludeResource: font ZapfDingbats
/reEncode {exch findfont dup length dict begin {1 index /FID eq  {pop pop} {def} ifelse } forall /Encoding exch def currentdict end dup /FontName get exch definefont pop } def [/Times-Bold /Times-Italic /Times-BoldItalic /Helvetica /Helvetica-Oblique
 /Helvetica-Bold /Helvetica-BoldOblique /Courier /Courier-Oblique /Courier-Bold /Courier-BoldOblique /Times-Roman /AvantGarde-Book /AvantGarde-BookOblique /AvantGarde-Demi /AvantGarde-DemiOblique /Bookman-Demi /Bookman-DemiItalic /Bookman-Light
 /Bookman-LightItalic /Helvetica-Narrow /Helvetica-Narrow-Bold /Helvetica-Narrow-BoldOblique /Helvetica-Narrow-Oblique /NewCenturySchlbk-Roman /NewCenturySchlbk-Bold /NewCenturySchlbk-BoldItalic /NewCenturySchlbk-Italic /Palatino-Bold
 /Palatino-BoldItalic /Palatino-Italic /Palatino-Roman ] {ISOLatin1Encoding reEncode } forall
%%EndProlog
%%BeginSetup
%%EndSetup
newpath  gsave  .25 .25 scale  gsave  0 0 t black[  ] 0 sd 3 lw 1 1 1 c 2268 2085 0 0 bf black 1 1 1 c 2263 1770 2 313 bf black 1 1 1 c black 1860 1145 319 584 bl 1 1 1 c black 1860 1145 319 584 bl 6 lw 1 1 1 c black 3 lw /w 33 def /w2 {w 2 div} def
 /w3 {w 3 div} def 381 1187 m20 6 lw 3 lw 505 1192 m20 6 lw 3 lw 629 1168 m20 6 lw 3 lw 753 1143 m20 6 lw 3 lw 877 1105 m20 6 lw 3 lw 1001 1082 m20 6 lw 3 lw 1125 1028 m20 6 lw 3 lw 1249 1007 m20 6 lw 3 lw 1373 979 m20 6 lw 1497 907 m 5 Y s 1497 939
 m 1 Y s 3 lw 1497 925 m20 6 lw 1621 880 m 9 Y s 1621 916 m 3 Y s 3 lw 1621 902 m20 6 lw 1745 835 m 18 Y s 1745 880 m 8 Y s 3 lw 1745 867 m20 6 lw 1869 805 m 26 Y s 1869 858 m 11 Y s 3 lw 1869 844 m20 6 lw 2117 821 m 22 Y s 2117 870 m 9 Y s 3 lw 2117
 856 m20 6 lw 3 lw 319 584 m 1860 X s
 gsave  2263 1770 2 313 C 1949.08 369.478 t 0 r /Helvetica findfont 81.3741 sf 0 0 m ( [GeV]) show NC gr 
 gsave  2263 1770 2 313 C 1888.07 342.361 t 0 r /Helvetica findfont 54.2494 sf 0 0 m (eff) show NC gr 
 gsave  2263 1770 2 313 C 1823.66 369.478 t 0 r /Helvetica findfont 81.3741 sf 0 0 m (m) show NC gr  319 584 m cl s 381 584 m cl s 443 584 m cl s 505 584 m cl s 567 584 m cl s 629 584 m cl s 691 584 m cl s 753 584 m cl s 815 584 m cl s 877 584 m cl s
 939 584 m cl s 1001 584 m cl s 1063 584 m cl s 1125 584 m cl s 1187 584 m cl s 1249 584 m cl s 1311 584 m cl s 1373 584 m cl s 1435 584 m cl s 1497 584 m cl s 1559 584 m cl s 1621 584 m cl s 1683 584 m cl s 1745 584 m cl s 1807 584 m cl s 1869 584 m
 cl s 1931 584 m cl s 1993 584 m cl s 2055 584 m cl s 2117 584 m cl s 2179 584 m cl s 319 1729 m 1860 X s 319 1729 m cl s 381 1729 m cl s 443 1729 m cl s 505 1729 m cl s 567 1729 m cl s 629 1729 m cl s 691 1729 m cl s 753 1729 m cl s 815 1729 m cl s
 877 1729 m cl s 939 1729 m cl s 1001 1729 m cl s 1063 1729 m cl s 1125 1729 m cl s 1187 1729 m cl s 1249 1729 m cl s 1311 1729 m cl s 1373 1729 m cl s 1435 1729 m cl s 1497 1729 m cl s 1559 1729 m cl s 1621 1729 m cl s 1683 1729 m cl s 1745 1729 m
 cl s 1807 1729 m cl s 1869 1729 m cl s 1931 1729 m cl s 1993 1729 m cl s 2055 1729 m cl s 2117 1729 m cl s 2179 1729 m cl s 319 584 m 1145 Y s
 gsave  2263 1770 2 313 C 166.096 1091.49 t 90 r /Helvetica findfont 81.3741 sf 0 0 m (Events / 200 GeV) show NC gr  341 630 m -22 X s 341 657 m -22 X s 341 676 m -22 X s 341 691 m -22 X s 341 703 m -22 X s 341 714 m -22 X s 341 722 m -22 X s 341 730
 m -22 X s 363 737 m -44 X s
 gsave  2263 1770 2 313 C 300.555 710.148 t 0 r  -36 0 t /Helvetica findfont 64.4212 sf 0 0 m (1) show NC gr  341 783 m -22 X s 341 810 m -22 X s 341 829 m -22 X s 341 844 m -22 X s 341 856 m -22 X s 341 867 m -22 X s 341 875 m -22 X s 341 883 m -22
 X s 363 890 m -44 X s
 gsave  2263 1770 2 313 C 300.555 863.105 t 0 r  -73 0 t /Helvetica findfont 64.4212 sf 0 0 m (10) show NC gr  341 936 m -22 X s 341 963 m -22 X s 341 982 m -22 X s 341 997 m -22 X s 341 1009 m -22 X s 341 1019 m -22 X s 341 1028 m -22 X s 341 1036 m
 -22 X s 363 1043 m -44 X s
 gsave  2263 1770 2 313 C 274.567 1040.64 t 0 r /Helvetica findfont 44.0776 sf 0 0 m (2) show NC gr 
 gsave  2263 1770 2 313 C 203.383 1013.52 t 0 r /Helvetica findfont 64.4212 sf 0 0 m (10) show NC gr  341 1089 m -22 X s 341 1116 m -22 X s 341 1135 m -22 X s 341 1150 m -22 X s 341 1162 m -22 X s 341 1172 m -22 X s 341 1181 m -22 X s 341 1189 m -22
 X s 363 1196 m -44 X s
 gsave  2263 1770 2 313 C 274.567 1196.57 t 0 r /Helvetica findfont 44.0776 sf 0 0 m (3) show NC gr 
 gsave  2263 1770 2 313 C 203.383 1166.06 t 0 r /Helvetica findfont 64.4212 sf 0 0 m (10) show NC gr  341 1242 m -22 X s 341 1269 m -22 X s 341 1288 m -22 X s 341 1303 m -22 X s 341 1315 m -22 X s 341 1325 m -22 X s 341 1334 m -22 X s 341 1342 m -22
 X s 363 1349 m -44 X s
 gsave  2263 1770 2 313 C 274.567 1345.72 t 0 r /Helvetica findfont 44.0776 sf 0 0 m (4) show NC gr 
 gsave  2263 1770 2 313 C 203.383 1318.6 t 0 r /Helvetica findfont 64.4212 sf 0 0 m (10) show NC gr  341 1395 m -22 X s 341 1422 m -22 X s 341 1441 m -22 X s 341 1456 m -22 X s 341 1468 m -22 X s 341 1478 m -22 X s 341 1487 m -22 X s 341 1495 m -22 X
 s 363 1502 m -44 X s
 gsave  2263 1770 2 313 C 274.567 1505.03 t 0 r /Helvetica findfont 44.0776 sf 0 0 m (5) show NC gr 
 gsave  2263 1770 2 313 C 203.383 1474.52 t 0 r /Helvetica findfont 64.4212 sf 0 0 m (10) show NC gr  341 1548 m -22 X s 341 1575 m -22 X s 341 1594 m -22 X s 341 1609 m -22 X s 341 1621 m -22 X s 341 1631 m -22 X s 341 1640 m -22 X s 341 1648 m -22
 X s 363 1655 m -44 X s
 gsave  2263 1770 2 313 C 274.567 1657.57 t 0 r /Helvetica findfont 44.0776 sf 0 0 m (6) show NC gr 
 gsave  2263 1770 2 313 C 203.383 1627.06 t 0 r /Helvetica findfont 64.4212 sf 0 0 m (10) show NC gr  341 1701 m -22 X s 341 1728 m -22 X s 2179 584 m 1145 Y s 2157 630 m 22 X s 2157 657 m 22 X s 2157 676 m 22 X s 2157 691 m 22 X s 2157 703 m 22 X s
 2157 714 m 22 X s 2157 722 m 22 X s 2157 730 m 22 X s 2136 737 m 43 X s 2157 783 m 22 X s 2157 810 m 22 X s 2157 829 m 22 X s 2157 844 m 22 X s 2157 856 m 22 X s 2157 867 m 22 X s 2157 875 m 22 X s 2157 883 m 22 X s 2136 890 m 43 X s 2157 936 m 22 X
 s 2157 963 m 22 X s 2157 982 m 22 X s 2157 997 m 22 X s 2157 1009 m 22 X s 2157 1019 m 22 X s 2157 1028 m 22 X s 2157 1036 m 22 X s 2136 1043 m 43 X s 2157 1089 m 22 X s 2157 1116 m 22 X s 2157 1135 m 22 X s 2157 1150 m 22 X s 2157 1162 m 22 X s
 2157 1172 m 22 X s 2157 1181 m 22 X s 2157 1189 m 22 X s 2136 1196 m 43 X s 2157 1242 m 22 X s 2157 1269 m 22 X s 2157 1288 m 22 X s 2157 1303 m 22 X s 2157 1315 m 22 X s 2157 1325 m 22 X s 2157 1334 m 22 X s 2157 1342 m 22 X s 2136 1349 m 43 X s
 2157 1395 m 22 X s 2157 1422 m 22 X s 2157 1441 m 22 X s 2157 1456 m 22 X s 2157 1468 m 22 X s 2157 1478 m 22 X s 2157 1487 m 22 X s 2157 1495 m 22 X s 2136 1502 m 43 X s 2157 1548 m 22 X s 2157 1575 m 22 X s 2157 1594 m 22 X s 2157 1609 m 22 X s
 2157 1621 m 22 X s 2157 1631 m 22 X s 2157 1640 m 22 X s 2157 1648 m 22 X s 2136 1655 m 43 X s 2157 1701 m 22 X s 2157 1728 m 22 X s 0.6 1 0.6 c black 0.6 1 0.6 c 319 584 m 592 Y 124 X 21 Y 124 X -23 Y 124 X -36 Y 124 X -27 Y 124 X -28 Y 124 X -51 Y
 124 X -28 Y 124 X -29 Y 124 X -49 Y 124 X -26 Y 124 X -37 Y 124 X -50 Y 124 X -29 Y 124 X 76 Y 124 X -276 Y f black 0.6 1 0.6 c black 319 1176 m 124 X 21 Y 124 X -23 Y 124 X -36 Y 124 X -27 Y 124 X -28 Y 124 X -51 Y 124 X -28 Y 124 X -29 Y 124 X -49
 Y 124 X -26 Y 124 X -37 Y 124 X -50 Y 124 X -29 Y 124 X 76 Y 124 X s 0.999 0.999 0.999 c black 0.999 0.999 0.999 c 319 584 m 451 Y 124 X 31 Y 124 X -14 Y 124 X -21 Y 124 X -24 Y 124 X -28 Y 124 X -24 Y 124 X -26 Y 124 X -25 Y 124 X -34 Y 124 X -18 Y
 124 X -44 Y 124 X -33 Y 124 X -32 Y 124 X 81 Y 124 X -240 Y f black 0.999 0.999 0.999 c black 319 1035 m 124 X 31 Y 124 X -14 Y 124 X -21 Y 124 X -24 Y 124 X -28 Y 124 X -24 Y 124 X -26 Y 124 X -25 Y 124 X -34 Y 124 X -18 Y 124 X -44 Y 124 X -33 Y
 124 X -32 Y 124 X 81 Y 124 X s 1 1 1 c black 319 1035 m 124 X 31 Y 124 X -14 Y 124 X -21 Y 124 X -24 Y 124 X -28 Y 124 X -24 Y 124 X -26 Y 124 X -25 Y 124 X -34 Y 124 X -18 Y 124 X -44 Y 124 X -33 Y 124 X -32 Y 124 X 81 Y 124 X s 0.4 0.6 1 c black
 0.4 0.6 1 c 319 584 m 451 Y 124 X 31 Y 124 X -14 Y 124 X -21 Y 124 X -24 Y 124 X -28 Y 124 X -24 Y 124 X -26 Y 124 X -25 Y 124 X -34 Y 124 X -18 Y 124 X -44 Y 124 X -33 Y 124 X -32 Y 124 X 81 Y 124 X -240 Y f black 0.4 0.6 1 c black 319 1035 m 124 X
 31 Y 124 X -14 Y 124 X -21 Y 124 X -24 Y 124 X -28 Y 124 X -24 Y 124 X -26 Y 124 X -25 Y 124 X -34 Y 124 X -18 Y 124 X -44 Y 124 X -33 Y 124 X -32 Y 124 X 81 Y 124 X s 0.999 0.999 0.999 c black 0.999 0.999 0.999 c 319 584 m 303 Y 124 X 23 Y 124 X -2
 Y 124 X -22 Y 124 X -6 Y 124 X -53 Y 124 X -14 Y 124 X -18 Y 124 X -42 Y 124 X -36 Y 248 X -56 Y 124 X -52 Y 124 X -25 Y 124 X 123 Y 124 X -123 Y f black 0.999 0.999 0.999 c black 319 887 m 124 X 23 Y 124 X -2 Y 124 X -22 Y 124 X -6 Y 124 X -53 Y
 124 X -14 Y 124 X -18 Y 124 X -42 Y 124 X -36 Y 248 X -56 Y 124 X -52 Y 124 X -25 Y 124 X 123 Y 124 X s 1 1 1 c black 319 887 m 124 X 23 Y 124 X -2 Y 124 X -22 Y 124 X -6 Y 124 X -53 Y 124 X -14 Y 124 X -18 Y 124 X -42 Y 124 X -36 Y 248 X -56 Y 124
 X -52 Y 124 X -25 Y 124 X 123 Y 124 X s 1 0.8 0.4 c black 1 0.8 0.4 c 319 584 m 303 Y 124 X 23 Y 124 X -2 Y 124 X -22 Y 124 X -6 Y 124 X -53 Y 124 X -14 Y 124 X -18 Y 124 X -42 Y 124 X -36 Y 248 X -56 Y 124 X -52 Y 124 X -25 Y 124 X 123 Y 124 X -123
 Y f black 1 0.8 0.4 c black 319 887 m 124 X 23 Y 124 X -2 Y 124 X -22 Y 124 X -6 Y 124 X -53 Y 124 X -14 Y 124 X -18 Y 124 X -42 Y 124 X -36 Y 248 X -56 Y 124 X -52 Y 124 X -25 Y 124 X 123 Y 124 X s 0.999 0.999 0.999 c black 0.999 0.999 0.999 c 319
 584 m 298 Y 124 X 20 Y 124 X -1 Y 124 X -22 Y 124 X -4 Y 124 X -56 Y 124 X -20 Y 124 X -7 Y 124 X -46 Y 124 X -44 Y 124 X 4 Y 124 X -52 Y 124 X -45 Y 124 X -25 Y 124 X 121 Y 124 X -121 Y f black 0.999 0.999 0.999 c black 319 882 m 124 X 20 Y 124 X
 -1 Y 124 X -22 Y 124 X -4 Y 124 X -56 Y 124 X -20 Y 124 X -7 Y 124 X -46 Y 124 X -44 Y 124 X 4 Y 124 X -52 Y 124 X -45 Y 124 X -25 Y 124 X 121 Y 124 X s 1 1 1 c black 319 882 m 124 X 20 Y 124 X -1 Y 124 X -22 Y 124 X -4 Y 124 X -56 Y 124 X -20 Y 124
 X -7 Y 124 X -46 Y 124 X -44 Y 124 X 4 Y 124 X -52 Y 124 X -45 Y 124 X -25 Y 124 X 121 Y 124 X s 1 0.4 0.6 c black 1 0.4 0.6 c 319 584 m 298 Y 124 X 20 Y 124 X -1 Y 124 X -22 Y 124 X -4 Y 124 X -56 Y 124 X -20 Y 124 X -7 Y 124 X -46 Y 124 X -44 Y
 124 X 4 Y 124 X -52 Y 124 X -45 Y 124 X -25 Y 124 X 121 Y 124 X -121 Y f black 1 0.4 0.6 c black 319 882 m 124 X 20 Y 124 X -1 Y 124 X -22 Y 124 X -4 Y 124 X -56 Y 124 X -20 Y 124 X -7 Y 124 X -46 Y 124 X -44 Y 124 X 4 Y 124 X -52 Y 124 X -45 Y 124
 X -25 Y 124 X 121 Y 124 X s 1 0 0 c 6 lw 1 1 1 c black 1 0 0 c 319 1176 m 124 X 21 Y 124 X -23 Y 124 X -36 Y 124 X -27 Y 124 X -28 Y 124 X -51 Y 124 X -28 Y 124 X -29 Y 124 X -49 Y 124 X -26 Y 124 X -37 Y 124 X -50 Y 124 X -29 Y 124 X 76 Y 124 X s
 black 3 lw 1 0 0 c 1 lw << /PatternType 1 /PaintType 2 /TilingType 1 /BBox [ 0 0 100 100 ] /XStep 100 /YStep 100 /PaintProc { begin gsave 0 100 m 100 0 l s gr end } >> [ 0.24 0 0 0.24 0 0 ] makepattern /P05 exch def /cs {[/Pattern /DeviceRGB]
 setcolorspace} def /FA {f [/DeviceRGB] setcolorspace} def cs 1 0 0 P05 setcolor 319 584 m 594 Y 124 X 20 Y 124 X -22 Y 124 X -35 Y 124 X -28 Y 124 X -28 Y 124 X -48 Y 124 X -28 Y 124 X -29 Y 124 X -43 Y 124 X -26 Y 124 X -36 Y 124 X -39 Y 124 X -27
 Y 124 X 72 Y 124 X -297 Y 247 Y -124 X -86 Y -124 X 33 Y -124 X 72 Y -124 X 38 Y -124 X 25 Y -124 X 56 Y -124 X 29 Y -124 X 28 Y -124 X 54 Y -124 X 29 Y -124 X 27 Y -124 X 36 Y -124 X 23 Y -124 X -21 Y -124 X -590 Y FA 6 lw 1 1 1 c 15 lw 1621 882 m
 -2 Y s 1621 880 m cl s 1745 887 m 2 Y s 1745 889 m cl s 1745 846 m -10 Y s 1745 836 m cl s 1869 865 m 5 Y s 1869 870 m cl s 1869 824 m -17 Y s 1869 807 m cl s 2117 877 m 3 Y s 2117 880 m cl s 2117 836 m -13 Y s 2117 823 m cl s black 1 1 1 c 3 lw /w
 43 def /w2 {w 2 div} def /w3 {w 3 div} def 381 1187 505 1192 629 1168 753 1143 877 1105 1001 1082 1125 1028 1249 1007 1373 979 1497 925 1621 902 1745 867 1869 844 13 { m20} R 15 lw 3 lw 2117 856 m20 15 lw black 6 lw 1 1 1 c black 3 lw /w 33 def /w2
 {w 2 div} def /w3 {w 3 div} def 381 1187 m20 6 lw 3 lw 505 1192 m20 6 lw 3 lw 629 1168 m20 6 lw 3 lw 753 1143 m20 6 lw 3 lw 877 1105 m20 6 lw 3 lw 1001 1082 m20 6 lw 3 lw 1125 1028 m20 6 lw 3 lw 1249 1007 m20 6 lw 3 lw 1373 979 m20 6 lw 1497 907 m 5
 Y s 1497 939 m 1 Y s 3 lw 1497 925 m20 6 lw 1621 880 m 9 Y s 1621 916 m 3 Y s 3 lw 1621 902 m20 6 lw 1745 835 m 18 Y s 1745 880 m 8 Y s 3 lw 1745 867 m20 6 lw 1869 805 m 26 Y s 1869 858 m 11 Y s 3 lw 1869 844 m20 6 lw 2117 821 m 22 Y s 2117 870 m 9
 Y s 3 lw 2117 856 m20 6 lw 1497 939 m 1 Y s 1497 940 m cl s 1497 912 m -5 Y s 1497 907 m cl s 1621 916 m 3 Y s 1621 919 m cl s 1621 889 m -9 Y s 1621 880 m cl s 1745 880 m 9 Y s 1745 889 m cl s 1745 853 m -17 Y s 1745 836 m cl s 1869 858 m 12 Y s
 1869 870 m cl s 1869 831 m -24 Y s 1869 807 m cl s 2117 870 m 10 Y s 2117 880 m cl s 2117 843 m -20 Y s 2117 823 m cl s 3 lw 381 1187 505 1192 629 1168 753 1143 877 1105 1001 1082 1125 1028 1249 1007 1373 979 1497 925 1621 902 1745 867 1869 844 13 {
 m20} R 6 lw 3 lw 2117 856 m20 6 lw 3 lw 319 584 m 1860 X s 319 584 m cl s 381 584 m cl s 443 584 m cl s 505 584 m cl s 567 584 m cl s 629 584 m cl s 691 584 m cl s 753 584 m cl s 815 584 m cl s 877 584 m cl s 939 584 m cl s 1001 584 m cl s 1063 584
 m cl s 1125 584 m cl s 1187 584 m cl s 1249 584 m cl s 1311 584 m cl s 1373 584 m cl s 1435 584 m cl s 1497 584 m cl s 1559 584 m cl s 1621 584 m cl s 1683 584 m cl s 1745 584 m cl s 1807 584 m cl s 1869 584 m cl s 1931 584 m cl s 1993 584 m cl s
 2055 584 m cl s 2117 584 m cl s 2179 584 m cl s 319 1729 m 1860 X s 319 1729 m cl s 381 1729 m cl s 443 1729 m cl s 505 1729 m cl s 567 1729 m cl s 629 1729 m cl s 691 1729 m cl s 753 1729 m cl s 815 1729 m cl s 877 1729 m cl s 939 1729 m cl s 1001
 1729 m cl s 1063 1729 m cl s 1125 1729 m cl s 1187 1729 m cl s 1249 1729 m cl s 1311 1729 m cl s 1373 1729 m cl s 1435 1729 m cl s 1497 1729 m cl s 1559 1729 m cl s 1621 1729 m cl s 1683 1729 m cl s 1745 1729 m cl s 1807 1729 m cl s 1869 1729 m cl s
 1931 1729 m cl s 1993 1729 m cl s 2055 1729 m cl s 2117 1729 m cl s 2179 1729 m cl s 319 584 m 1145 Y s 341 630 m -22 X s 341 657 m -22 X s 341 676 m -22 X s 341 691 m -22 X s 341 703 m -22 X s 341 714 m -22 X s 341 722 m -22 X s 341 730 m -22 X s
 363 737 m -44 X s 341 783 m -22 X s 341 810 m -22 X s 341 829 m -22 X s 341 844 m -22 X s 341 856 m -22 X s 341 867 m -22 X s 341 875 m -22 X s 341 883 m -22 X s 363 890 m -44 X s 341 936 m -22 X s 341 963 m -22 X s 341 982 m -22 X s 341 997 m -22 X
 s 341 1009 m -22 X s 341 1019 m -22 X s 341 1028 m -22 X s 341 1036 m -22 X s 363 1043 m -44 X s 341 1089 m -22 X s 341 1116 m -22 X s 341 1135 m -22 X s 341 1150 m -22 X s 341 1162 m -22 X s 341 1172 m -22 X s 341 1181 m -22 X s 341 1189 m -22 X s
 363 1196 m -44 X s 341 1242 m -22 X s 341 1269 m -22 X s 341 1288 m -22 X s 341 1303 m -22 X s 341 1315 m -22 X s 341 1325 m -22 X s 341 1334 m -22 X s 341 1342 m -22 X s 363 1349 m -44 X s 341 1395 m -22 X s 341 1422 m -22 X s 341 1441 m -22 X s
 341 1456 m -22 X s 341 1468 m -22 X s 341 1478 m -22 X s 341 1487 m -22 X s 341 1495 m -22 X s 363 1502 m -44 X s 341 1548 m -22 X s 341 1575 m -22 X s 341 1594 m -22 X s 341 1609 m -22 X s 341 1621 m -22 X s 341 1631 m -22 X s 341 1640 m -22 X s
 341 1648 m -22 X s 363 1655 m -44 X s 341 1701 m -22 X s 341 1728 m -22 X s 2179 584 m 1145 Y s 2157 630 m 22 X s 2157 657 m 22 X s 2157 676 m 22 X s 2157 691 m 22 X s 2157 703 m 22 X s 2157 714 m 22 X s 2157 722 m 22 X s 2157 730 m 22 X s 2136 737
 m 43 X s 2157 783 m 22 X s 2157 810 m 22 X s 2157 829 m 22 X s 2157 844 m 22 X s 2157 856 m 22 X s 2157 867 m 22 X s 2157 875 m 22 X s 2157 883 m 22 X s 2136 890 m 43 X s 2157 936 m 22 X s 2157 963 m 22 X s 2157 982 m 22 X s 2157 997 m 22 X s 2157
 1009 m 22 X s 2157 1019 m 22 X s 2157 1028 m 22 X s 2157 1036 m 22 X s 2136 1043 m 43 X s 2157 1089 m 22 X s 2157 1116 m 22 X s 2157 1135 m 22 X s 2157 1150 m 22 X s 2157 1162 m 22 X s 2157 1172 m 22 X s 2157 1181 m 22 X s 2157 1189 m 22 X s 2136
 1196 m 43 X s 2157 1242 m 22 X s 2157 1269 m 22 X s 2157 1288 m 22 X s 2157 1303 m 22 X s 2157 1315 m 22 X s 2157 1325 m 22 X s 2157 1334 m 22 X s 2157 1342 m 22 X s 2136 1349 m 43 X s 2157 1395 m 22 X s 2157 1422 m 22 X s 2157 1441 m 22 X s 2157
 1456 m 22 X s 2157 1468 m 22 X s 2157 1478 m 22 X s 2157 1487 m 22 X s 2157 1495 m 22 X s 2136 1502 m 43 X s 2157 1548 m 22 X s 2157 1575 m 22 X s 2157 1594 m 22 X s 2157 1609 m 22 X s 2157 1621 m 22 X s 2157 1631 m 22 X s 2157 1640 m 22 X s 2157
 1648 m 22 X s 2136 1655 m 43 X s 2157 1701 m 22 X s 2157 1728 m 22 X s
 gsave  2263 1770 2 313 C 406.765 1447.41 t 0 r /Helvetica findfont 64.4212 sf 0 0 m (CRT for MB\255GGd) show NC gr 
 gsave  2263 1770 2 313 C 1464.36 1616.89 t 0 r /Helvetica findfont 64.4212 sf 0 0 m (SM Total) show NC gr  1 1 1 c 1338 1603 m 107 X 74 Y -107 X f 1 0 0 c 6 lw 1338 1640 m 107 X s black
 gsave  2263 1770 2 313 C 1464.36 1511.81 t 0 r /Helvetica findfont 64.4212 sf 0 0 m (Data) show NC gr  1391 1502 m 64 Y s 3 lw 1391 1534 m20 6 lw
 gsave  2263 1770 2 313 C 1498.25 1406.73 t 0 r /Helvetica findfont 64.4212 sf 0 0 m (\(+EW\) & single top) show NC gr 
 gsave  2263 1770 2 313 C 1481.3 1406.73 t 0 r /Helvetica findfont 64.4212 sf 0 0 m (t) show NC gr  3 lw 1481 1458 m 17 X s
 gsave  2263 1770 2 313 C 1464.36 1406.73 t 0 r /Helvetica findfont 64.4212 sf 0 0 m (t) show NC gr  0.6 1 0.6 c 1338 1391 m 107 X 74 Y -107 X f black 1338 1465 m 107 X s 1338 1391 m 107 X s 1445 1391 m 74 Y s 1338 1391 m 74 Y s
 gsave  2263 1770 2 313 C 1464.36 1298.26 t 0 r /Helvetica findfont 64.4212 sf 0 0 m (W+jets) show NC gr  0.4 0.6 1 c 1338 1284 m 107 X 75 Y -107 X f black 1338 1359 m 107 X s 1338 1284 m 107 X s 1445 1284 m 75 Y s 1338 1284 m 75 Y s
 gsave  2263 1770 2 313 C 1464.36 1193.18 t 0 r /Helvetica findfont 64.4212 sf 0 0 m (Z+jets) show NC gr  1 0.8 0.4 c 1338 1178 m 107 X 75 Y -107 X f black 1338 1253 m 107 X s 1338 1178 m 107 X s 1445 1178 m 75 Y s 1338 1178 m 75 Y s
 gsave  2263 1770 2 313 C 1464.36 1088.1 t 0 r /Helvetica findfont 64.4212 sf 0 0 m (Diboson) show NC gr  1 0.4 0.6 c 1338 1072 m 107 X 74 Y -107 X f black 1338 1146 m 107 X s 1338 1072 m 107 X s 1445 1072 m 74 Y s 1338 1072 m 74 Y s
 gsave  2263 1770 2 313 C 911.832 1566.05 t 0 r /Helvetica findfont 44.0776 sf 0 0 m (\2551) show NC gr 
 gsave  2263 1770 2 313 C 471.17 1535.54 t 0 r /Helvetica findfont 64.4212 sf 0 0 m (=13TeV, 139 fb) show NC gr 
 gsave  2263 1770 2 313 C 440.662 1535.54 t 0 r /Helvetica findfont 64.4212 sf 0 0 m (s) show NC gr  6 lw 420 1573 m 7 -41 d s 3 lw 427 1532 m 7 61 d s 434 1593 m 37 X s 1 1 1 c 2254 561 2 2 bf black 1 1 1 c black 1860 358 318 187 bl 1 1 1 c black
 1860 358 318 187 bl 6 lw 1 1 1 c black 3 lw 380 395 m20 6 lw 3 lw 504 354 m20 6 lw 3 lw 628 352 m20 6 lw 3 lw 752 378 m20 6 lw 3 lw 876 352 m20 6 lw 3 lw 1000 364 m20 6 lw 3 lw 1124 355 m20 6 lw 3 lw 1248 374 m20 6 lw 3 lw 1372 377 m20 6 lw 3 lw
 1496 365 m20 6 lw 3 lw 1620 371 m20 6 lw 3 lw 1744 374 m20 6 lw 3 lw 1868 463 m20 6 lw 3 lw 2116 356 m20 6 lw 3 lw 318 187 m 1860 X s
 gsave  2254 561 2 2 C 1959.25 33.8971 t 0 r /Helvetica findfont 78.1689 sf 0 0 m ( [GeV]) show NC gr 
 gsave  2254 561 2 2 C 1901.63 13.5588 t 0 r /Helvetica findfont 50.9797 sf 0 0 m (eff) show NC gr 
 gsave  2254 561 2 2 C 1840.61 33.8971 t 0 r /Helvetica findfont 78.1689 sf 0 0 m (m) show NC gr  318 201 m -14 Y s 380 194 m -7 Y s 442 194 m -7 Y s 504 194 m -7 Y s 566 194 m -7 Y s 628 201 m -14 Y s 690 194 m -7 Y s 752 194 m -7 Y s 814 194 m -7 Y
 s 876 194 m -7 Y s 938 201 m -14 Y s 1000 194 m -7 Y s 1062 194 m -7 Y s 1124 194 m -7 Y s 1186 194 m -7 Y s 1248 201 m -14 Y s 1310 194 m -7 Y s 1372 194 m -7 Y s 1434 194 m -7 Y s 1496 194 m -7 Y s 1558 201 m -14 Y s 1620 194 m -7 Y s 1682 194 m
 -7 Y s 1744 194 m -7 Y s 1806 194 m -7 Y s 1868 201 m -14 Y s 1930 194 m -7 Y s 1992 194 m -7 Y s 2054 194 m -7 Y s 2116 194 m -7 Y s 2178 201 m -14 Y s
 gsave  2254 561 2 2 C 227.111 118.64 t 0 r /Helvetica findfont 78.1689 sf 0 0 m (1000) show NC gr 
 gsave  2254 561 2 2 C 538.964 118.64 t 0 r /Helvetica findfont 78.1689 sf 0 0 m (1500) show NC gr 
 gsave  2254 561 2 2 C 847.428 118.64 t 0 r /Helvetica findfont 78.1689 sf 0 0 m (2000) show NC gr 
 gsave  2254 561 2 2 C 1159.28 118.64 t 0 r /Helvetica findfont 78.1689 sf 0 0 m (2500) show NC gr 
 gsave  2254 561 2 2 C 1467.74 118.64 t 0 r /Helvetica findfont 78.1689 sf 0 0 m (3000) show NC gr 
 gsave  2254 561 2 2 C 1779.6 118.64 t 0 r /Helvetica findfont 78.1689 sf 0 0 m (3500) show NC gr 
 gsave  2254 561 2 2 C 2088.06 118.64 t 0 r /Helvetica findfont 78.1689 sf 0 0 m (4000) show NC gr  318 545 m 1860 X s 318 531 m 14 Y s 380 538 m 7 Y s 442 538 m 7 Y s 504 538 m 7 Y s 566 538 m 7 Y s 628 531 m 14 Y s 690 538 m 7 Y s 752 538 m 7 Y s
 814 538 m 7 Y s 876 538 m 7 Y s 938 531 m 14 Y s 1000 538 m 7 Y s 1062 538 m 7 Y s 1124 538 m 7 Y s 1186 538 m 7 Y s 1248 531 m 14 Y s 1310 538 m 7 Y s 1372 538 m 7 Y s 1434 538 m 7 Y s 1496 538 m 7 Y s 1558 531 m 14 Y s 1620 538 m 7 Y s 1682 538 m
 7 Y s 1744 538 m 7 Y s 1806 538 m 7 Y s 1868 531 m 14 Y s 1930 538 m 7 Y s 1992 538 m 7 Y s 2054 538 m 7 Y s 2116 538 m 7 Y s 2178 531 m 14 Y s 318 187 m 358 Y s
 gsave  2254 561 2 2 C 166.096 284.736 t 90 r /Helvetica findfont 67.9729 sf 0 0 m (Data/SM) show NC gr  361 203 m -43 X s 339 220 m -21 X s 339 236 m -21 X s 339 252 m -21 X s 339 268 m -21 X s 361 285 m -43 X s 339 301 m -21 X s 339 317 m -21 X s
 339 334 m -21 X s 339 350 m -21 X s 361 366 m -43 X s 339 382 m -21 X s 339 399 m -21 X s 339 415 m -21 X s 339 431 m -21 X s 361 447 m -43 X s 339 464 m -21 X s 339 480 m -21 X s 339 496 m -21 X s 339 512 m -21 X s 361 529 m -43 X s 361 203 m -43 X
 s 339 187 m -21 X s 361 529 m -43 X s
 gsave  2254 561 2 2 C 261.008 183.044 t 0 r /Helvetica findfont 57.777 sf 0 0 m (0) show NC gr 
 gsave  2254 561 2 2 C 213.552 261.008 t 0 r /Helvetica findfont 57.777 sf 0 0 m (0.5) show NC gr 
 gsave  2254 561 2 2 C 271.177 342.361 t 0 r /Helvetica findfont 57.777 sf 0 0 m (1) show NC gr 
 gsave  2254 561 2 2 C 213.552 423.714 t 0 r /Helvetica findfont 57.777 sf 0 0 m (1.5) show NC gr 
 gsave  2254 561 2 2 C 261.008 505.067 t 0 r /Helvetica findfont 57.777 sf 0 0 m (2) show NC gr  2178 187 m 358 Y s 2135 203 m 43 X s 2157 220 m 21 X s 2157 236 m 21 X s 2157 252 m 21 X s 2157 268 m 21 X s 2135 285 m 43 X s 2157 301 m 21 X s 2157 317
 m 21 X s 2157 334 m 21 X s 2157 350 m 21 X s 2135 366 m 43 X s 2157 382 m 21 X s 2157 399 m 21 X s 2157 415 m 21 X s 2157 431 m 21 X s 2135 447 m 43 X s 2157 464 m 21 X s 2157 480 m 21 X s 2157 496 m 21 X s 2157 512 m 21 X s 2135 529 m 43 X s 2135
 203 m 43 X s 2157 187 m 21 X s 2135 529 m 43 X s 9 lw 1124 369 m 3 Y s 1124 372 m cl s 1124 342 m -4 Y s 1124 338 m cl s 1248 388 m 9 Y s 1248 397 m cl s 1248 361 m -9 Y s 1248 352 m cl s 1372 391 m 14 Y s 1372 405 m cl s 1372 363 m -14 Y s 1372 349
 m cl s 1496 378 m 27 Y s 1496 405 m cl s 1496 351 m -25 Y s 1496 326 m cl s 1620 385 m 35 Y s 1620 420 m cl s 1620 357 m -33 Y s 1620 324 m cl s 1744 387 m 54 Y s 1744 441 m cl s 1744 360 m -49 Y s 1744 311 m cl s 1868 477 m 68 Y s 1868 545 m cl s
 1868 449 m -98 Y s 1868 351 m cl s 2116 370 m 52 Y s 2116 422 m cl s 2116 343 m -47 Y s 2116 296 m cl s 3 lw 380 395 504 354 628 352 752 378 876 352 1000 364 1124 355 1248 374 1372 377 1496 365 1620 371 1744 374 1868 463 13 { m20} R 9 lw 3 lw 2116
 356 m20 9 lw 1 0 0 c 6 lw black 3 lw 1 0 0 c 2178 227 m s 2178 255 m s 2178 284 m s 2178 312 m -4 -4 d s 2178 341 m -32 -33 d s 2178 369 m -61 -61 d s 2178 398 m -90 -90 d s 2175 424 m -115 -116 d s 2054 303 m -9 -10 d s 2147 424 m -131 -131 d s
 2118 424 m -131 -131 d s 2089 424 m -130 -131 d s 2061 424 m -131 -130 d s 2047 439 m -141 -140 d s 2018 439 m -140 -140 d s 1990 439 m -141 -140 d s 1961 439 m -141 -140 d s 1932 439 m -2 -2 d s 1927 433 m -121 -120 d s 1898 433 m -98 -97 d s 1870
 433 m -99 -97 d s 1841 433 m -35 -34 d s 1804 396 m -61 -60 d s 1812 433 m -6 -5 d s 1775 396 m -61 -60 d s 1746 396 m -61 -60 d s 1718 396 m -58 -57 d s 1689 396 m -58 -57 d s 1657 393 m -54 -54 d s 1628 393 m -54 -54 d s 1599 393 m -56 -56 d s
 1571 393 m -56 -56 d s 1544 395 m -58 -58 d s 1515 395 m -58 -58 d s 1487 395 m -53 -52 d s 1458 395 m -42 -42 d s 1414 379 m -27 -26 d s 1385 379 m -27 -26 d s 1356 379 m -27 -26 d s 1328 379 m -27 -26 d s 1299 379 m -27 -26 d s 1270 379 m -26 -26
 d s 1241 379 m -26 -26 d s 1213 379 m -27 -26 d s 1184 379 m -26 -26 d s 1155 379 m -26 -26 d s 1127 379 m -27 -26 d s 1098 379 m -26 -26 d s 1069 379 m -19 -19 d s 1033 372 m -12 -12 d s 1005 372 m -13 -12 d s 976 372 m -12 -12 d s 947 372 m -12
 -12 d s 918 372 m -11 -12 d s 890 372 m -12 -12 d s 861 372 m -12 -12 d s 832 372 m -11 -12 d s 804 372 m -12 -12 d s 775 372 m -12 -12 d s 746 372 m -11 -12 d s 718 372 m -12 -12 d s 687 370 m -8 -8 d s 658 370 m -7 -8 d s 629 370 m -7 -8 d s 601
 370 m -8 -8 d s 572 370 m -8 -8 d s 544 370 m -9 -8 d s 515 370 m -8 -8 d s 486 370 m -8 -8 d s 458 370 m -9 -8 d s 318 231 m s 430 371 m -10 -10 d s 318 259 m s 401 371 m -10 -10 d s 318 288 m s 372 371 m -9 -10 d s 318 317 m s 344 371 m -10 -10 d
 s 318 345 m s 6 lw black[ 4 8] 0 sd 3 lw 318 447 m 1860 X s 318 285 m 1860 X s 1 0 0 c[  12 12 ] 0 sd 6 lw 318 366 m 1860 X s
 gr  gr showpage
end
%%EOF
