%!PS-Adobe-2.0 EPSF-2.0
%%BoundingBox:  0 0 567 521
%%Title: Distributions/meffInc_distrSR_MB-GGd_beforeFit_forThesis.eps: canvas
%%Creator: ROOT Version 6.04/16
%%CreationDate: Tue May 19 22:05:21 2020
%%DocumentNeededResources: ProcSet (FontSetInit)
%%EndComments
%%BeginProlog
80 dict begin
/s {stroke} def /l {lineto} def /m {moveto} def /t {translate} def
/r {rotate} def /rl {roll}  def /R {repeat} def
/d {rlineto} def /rm {rmoveto} def /gr {grestore} def /f {eofill} def
/c {setrgbcolor} def /black {0 setgray} def /sd {setdash} def
/cl {closepath} def /sf {scalefont setfont} def /lw {setlinewidth} def
/box {m dup 0 exch d exch 0 d 0 exch neg d cl} def
/NC{systemdict begin initclip end}def/C{NC box clip newpath}def
/bl {box s} def /bf {gsave box gsave f grestore 1 lw [] 0 sd s grestore} def /Y { 0 exch d} def /X { 0 d} def 
/K {{pop pop 0 moveto} exch kshow} bind def
/ita {/ang 15 def gsave [1 0 ang dup sin exch cos div 1 0 0] concat} def 
/mp {newpath /y exch def /x exch def} def
/side {[w .77 mul w .23 mul] .385 w mul sd w 0 l currentpoint t -144 r} def
/mr {mp x y w2 0 360 arc} def /m24 {mr s} def /m20 {mr f} def
/mb {mp x y w2 add m w2 neg 0 d 0 w neg d w 0 d 0 w d cl} def
/mt {mp x y w2 add m w2 neg w neg d w 0 d cl} def
/m21 {mb f} def /m25 {mb s} def /m22 {mt f} def /m26{mt s} def
/m23 {mp x y w2 sub m w2 w d w neg 0 d cl f} def
/m27 {mp x y w2 add m w3 neg w2 neg d w3 w2 neg d w3 w2 d cl s} def
/m28 {mp x w2 sub y w2 sub w3 add m w3 0 d  0 w3 neg d w3 0 d 0 w3 d w3 0 d  0 w3 d w3 neg 0 d 0 w3 d w3 neg 0 d 0 w3 neg d w3 neg 0 d cl s } def
/m29 {mp gsave x w2 sub y w2 add w3 sub m currentpoint t 4 {side} repeat cl fill gr} def
/m30 {mp gsave x w2 sub y w2 add w3 sub m currentpoint t 4 {side} repeat cl s gr} def
/m31 {mp x y w2 sub m 0 w d x w2 sub y m w 0 d x w2 sub y w2 add m w w neg d x w2 sub y w2 sub m w w d s} def
/m32 {mp x y w2 sub m w2 w d w neg 0 d cl s} def
/m33 {mp x y w2 add m w3 neg w2 neg d w3 w2 neg d w3 w2 d cl f} def
/m34 {mp x w2 sub y w2 sub w3 add m w3 0 d  0 w3 neg d w3 0 d 0 w3 d w3 0 d  0 w3 d w3 neg 0 d 0 w3 d w3 neg 0 d 0 w3 neg d w3 neg 0 d cl f } def
/m2 {mp x y w2 sub m 0 w d x w2 sub y m w 0 d s} def
/m5 {mp x w2 sub y w2 sub m w w d x w2 sub y w2 add m w w neg d s} def
%%IncludeResource: ProcSet (FontSetInit)
%%IncludeResource: font Times-Roman
%%IncludeResource: font Times-Italic
%%IncludeResource: font Times-Bold
%%IncludeResource: font Times-BoldItalic
%%IncludeResource: font Helvetica
%%IncludeResource: font Helvetica-Oblique
%%IncludeResource: font Helvetica-Bold
%%IncludeResource: font Helvetica-BoldOblique
%%IncludeResource: font Courier
%%IncludeResource: font Courier-Oblique
%%IncludeResource: font Courier-Bold
%%IncludeResource: font Courier-BoldOblique
%%IncludeResource: font Symbol
%%IncludeResource: font ZapfDingbats
/reEncode {exch findfont dup length dict begin {1 index /FID eq  {pop pop} {def} ifelse } forall /Encoding exch def currentdict end dup /FontName get exch definefont pop } def [/Times-Bold /Times-Italic /Times-BoldItalic /Helvetica /Helvetica-Oblique
 /Helvetica-Bold /Helvetica-BoldOblique /Courier /Courier-Oblique /Courier-Bold /Courier-BoldOblique /Times-Roman /AvantGarde-Book /AvantGarde-BookOblique /AvantGarde-Demi /AvantGarde-DemiOblique /Bookman-Demi /Bookman-DemiItalic /Bookman-Light
 /Bookman-LightItalic /Helvetica-Narrow /Helvetica-Narrow-Bold /Helvetica-Narrow-BoldOblique /Helvetica-Narrow-Oblique /NewCenturySchlbk-Roman /NewCenturySchlbk-Bold /NewCenturySchlbk-BoldItalic /NewCenturySchlbk-Italic /Palatino-Bold
 /Palatino-BoldItalic /Palatino-Italic /Palatino-Roman ] {ISOLatin1Encoding reEncode } forall
%%EndProlog
%%BeginSetup
%%EndSetup
newpath  gsave  .25 .25 scale  gsave  0 0 t black[  ] 0 sd 3 lw 1 1 1 c 2268 2085 0 0 bf black 1 1 1 c 2263 1770 2 313 bf black 1 1 1 c black 1860 1145 319 584 bl 1 1 1 c black 1860 1145 319 584 bl 6 lw 1 1 1 c black 3 lw /w 33 def /w2 {w 2 div} def
 /w3 {w 3 div} def 381 1180 m20 6 lw 3 lw 505 1175 m20 6 lw 3 lw 629 1139 m20 6 lw 3 lw 753 1101 m20 6 lw 3 lw 877 1062 m20 6 lw 3 lw 1001 1019 m20 6 lw 3 lw 1125 1006 m20 6 lw 1249 948 m 1 Y s 3 lw 1249 963 m20 6 lw 1373 928 m 4 Y s 1373 959 m s 3
 lw 1373 945 m20 6 lw 1497 841 m 19 Y s 1497 887 m 8 Y s 3 lw 1497 874 m20 6 lw 1621 827 m 23 Y s 1621 877 m 9 Y s 3 lw 1621 863 m20 6 lw 1745 788 m 34 Y s 1745 849 m 14 Y s 3 lw 1745 836 m20 6 lw 1869 705 m 70 Y s 1869 802 m 23 Y s 3 lw 1869 788 m20
 6 lw 2117 705 m 70 Y s 2117 802 m 23 Y s 3 lw 2117 788 m20 6 lw 3 lw 319 584 m 1860 X s
 gsave  2263 1770 2 313 C 1949.08 369.478 t 0 r /Helvetica findfont 81.3741 sf 0 0 m ( [GeV]) show NC gr 
 gsave  2263 1770 2 313 C 1888.07 342.361 t 0 r /Helvetica findfont 54.2494 sf 0 0 m (eff) show NC gr 
 gsave  2263 1770 2 313 C 1823.66 369.478 t 0 r /Helvetica findfont 81.3741 sf 0 0 m (m) show NC gr  319 584 m cl s 381 584 m cl s 443 584 m cl s 505 584 m cl s 567 584 m cl s 629 584 m cl s 691 584 m cl s 753 584 m cl s 815 584 m cl s 877 584 m cl s
 939 584 m cl s 1001 584 m cl s 1063 584 m cl s 1125 584 m cl s 1187 584 m cl s 1249 584 m cl s 1311 584 m cl s 1373 584 m cl s 1435 584 m cl s 1497 584 m cl s 1559 584 m cl s 1621 584 m cl s 1683 584 m cl s 1745 584 m cl s 1807 584 m cl s 1869 584 m
 cl s 1931 584 m cl s 1993 584 m cl s 2055 584 m cl s 2117 584 m cl s 2179 584 m cl s 319 1729 m 1860 X s 319 1729 m cl s 381 1729 m cl s 443 1729 m cl s 505 1729 m cl s 567 1729 m cl s 629 1729 m cl s 691 1729 m cl s 753 1729 m cl s 815 1729 m cl s
 877 1729 m cl s 939 1729 m cl s 1001 1729 m cl s 1063 1729 m cl s 1125 1729 m cl s 1187 1729 m cl s 1249 1729 m cl s 1311 1729 m cl s 1373 1729 m cl s 1435 1729 m cl s 1497 1729 m cl s 1559 1729 m cl s 1621 1729 m cl s 1683 1729 m cl s 1745 1729 m
 cl s 1807 1729 m cl s 1869 1729 m cl s 1931 1729 m cl s 1993 1729 m cl s 2055 1729 m cl s 2117 1729 m cl s 2179 1729 m cl s 319 584 m 1145 Y s
 gsave  2263 1770 2 313 C 166.096 1091.49 t 90 r /Helvetica findfont 81.3741 sf 0 0 m (Events / 200 GeV) show NC gr  341 632 m -22 X s 341 659 m -22 X s 341 679 m -22 X s 341 694 m -22 X s 341 706 m -22 X s 341 717 m -22 X s 341 726 m -22 X s 341 734
 m -22 X s 363 741 m -44 X s
 gsave  2263 1770 2 313 C 300.555 713.997 t 0 r  -36 0 t /Helvetica findfont 64.4212 sf 0 0 m (1) show NC gr  341 788 m -22 X s 341 816 m -22 X s 341 836 m -22 X s 341 851 m -22 X s 341 863 m -22 X s 341 874 m -22 X s 341 883 m -22 X s 341 891 m -22
 X s 363 898 m -44 X s
 gsave  2263 1770 2 313 C 300.555 870.802 t 0 r  -73 0 t /Helvetica findfont 64.4212 sf 0 0 m (10) show NC gr  341 945 m -22 X s 341 973 m -22 X s 341 992 m -22 X s 341 1008 m -22 X s 341 1020 m -22 X s 341 1030 m -22 X s 341 1040 m -22 X s 341 1048
 m -22 X s 363 1055 m -44 X s
 gsave  2263 1770 2 313 C 274.567 1054.2 t 0 r /Helvetica findfont 44.0776 sf 0 0 m (2) show NC gr 
 gsave  2263 1770 2 313 C 203.383 1027.08 t 0 r /Helvetica findfont 64.4212 sf 0 0 m (10) show NC gr  341 1102 m -22 X s 341 1130 m -22 X s 341 1149 m -22 X s 341 1164 m -22 X s 341 1177 m -22 X s 341 1187 m -22 X s 341 1196 m -22 X s 341 1204 m -22
 X s 363 1212 m -44 X s
 gsave  2263 1770 2 313 C 274.567 1213.52 t 0 r /Helvetica findfont 44.0776 sf 0 0 m (3) show NC gr 
 gsave  2263 1770 2 313 C 203.383 1183.01 t 0 r /Helvetica findfont 64.4212 sf 0 0 m (10) show NC gr  341 1259 m -22 X s 341 1286 m -22 X s 341 1306 m -22 X s 341 1321 m -22 X s 341 1334 m -22 X s 341 1344 m -22 X s 341 1353 m -22 X s 341 1361 m -22
 X s 363 1368 m -44 X s
 gsave  2263 1770 2 313 C 274.567 1366.05 t 0 r /Helvetica findfont 44.0776 sf 0 0 m (4) show NC gr 
 gsave  2263 1770 2 313 C 203.383 1338.94 t 0 r /Helvetica findfont 64.4212 sf 0 0 m (10) show NC gr  341 1416 m -22 X s 341 1443 m -22 X s 341 1463 m -22 X s 341 1478 m -22 X s 341 1490 m -22 X s 341 1501 m -22 X s 341 1510 m -22 X s 341 1518 m -22
 X s 363 1525 m -44 X s
 gsave  2263 1770 2 313 C 274.567 1525.37 t 0 r /Helvetica findfont 44.0776 sf 0 0 m (5) show NC gr 
 gsave  2263 1770 2 313 C 203.383 1494.86 t 0 r /Helvetica findfont 64.4212 sf 0 0 m (10) show NC gr  341 1572 m -22 X s 341 1600 m -22 X s 341 1620 m -22 X s 341 1635 m -22 X s 341 1647 m -22 X s 341 1658 m -22 X s 341 1667 m -22 X s 341 1675 m -22
 X s 363 1682 m -44 X s
 gsave  2263 1770 2 313 C 274.567 1684.69 t 0 r /Helvetica findfont 44.0776 sf 0 0 m (6) show NC gr 
 gsave  2263 1770 2 313 C 203.383 1654.18 t 0 r /Helvetica findfont 64.4212 sf 0 0 m (10) show NC gr  2179 584 m 1145 Y s 2157 632 m 22 X s 2157 659 m 22 X s 2157 679 m 22 X s 2157 694 m 22 X s 2157 706 m 22 X s 2157 717 m 22 X s 2157 726 m 22 X s
 2157 734 m 22 X s 2136 741 m 43 X s 2157 788 m 22 X s 2157 816 m 22 X s 2157 836 m 22 X s 2157 851 m 22 X s 2157 863 m 22 X s 2157 874 m 22 X s 2157 883 m 22 X s 2157 891 m 22 X s 2136 898 m 43 X s 2157 945 m 22 X s 2157 973 m 22 X s 2157 992 m 22 X
 s 2157 1008 m 22 X s 2157 1020 m 22 X s 2157 1030 m 22 X s 2157 1040 m 22 X s 2157 1048 m 22 X s 2136 1055 m 43 X s 2157 1102 m 22 X s 2157 1130 m 22 X s 2157 1149 m 22 X s 2157 1164 m 22 X s 2157 1177 m 22 X s 2157 1187 m 22 X s 2157 1196 m 22 X s
 2157 1204 m 22 X s 2136 1212 m 43 X s 2157 1259 m 22 X s 2157 1286 m 22 X s 2157 1306 m 22 X s 2157 1321 m 22 X s 2157 1334 m 22 X s 2157 1344 m 22 X s 2157 1353 m 22 X s 2157 1361 m 22 X s 2136 1368 m 43 X s 2157 1416 m 22 X s 2157 1443 m 22 X s
 2157 1463 m 22 X s 2157 1478 m 22 X s 2157 1490 m 22 X s 2157 1501 m 22 X s 2157 1510 m 22 X s 2157 1518 m 22 X s 2136 1525 m 43 X s 2157 1572 m 22 X s 2157 1600 m 22 X s 2157 1620 m 22 X s 2157 1635 m 22 X s 2157 1647 m 22 X s 2157 1658 m 22 X s
 2157 1667 m 22 X s 2157 1675 m 22 X s 2136 1682 m 43 X s 0.4 0.6 1 c black 0.4 0.6 1 c 319 584 m 594 Y 124 X 5 Y 124 X -33 Y 124 X -39 Y 124 X -39 Y 124 X -40 Y 124 X -35 Y 124 X -29 Y 124 X -41 Y 124 X -39 Y 124 X -37 Y 124 X -31 Y 124 X -36 Y 124
 X -26 Y 124 X 15 Y 124 X -189 Y f black 0.4 0.6 1 c black 319 1178 m 124 X 5 Y 124 X -33 Y 124 X -39 Y 124 X -39 Y 124 X -40 Y 124 X -35 Y 124 X -29 Y 124 X -41 Y 124 X -39 Y 124 X -37 Y 124 X -31 Y 124 X -36 Y 124 X -26 Y 124 X 15 Y 124 X s 0.999
 0.999 0.999 c black 0.999 0.999 0.999 c 319 584 m 575 Y 124 X 5 Y 124 X -33 Y 124 X -39 Y 124 X -38 Y 124 X -40 Y 124 X -34 Y 124 X -29 Y 124 X -40 Y 124 X -42 Y 124 X -33 Y 124 X -45 Y 124 X -15 Y 124 X -38 Y 124 X 17 Y 124 X -171 Y f black 0.999
 0.999 0.999 c black 319 1159 m 124 X 5 Y 124 X -33 Y 124 X -39 Y 124 X -38 Y 124 X -40 Y 124 X -34 Y 124 X -29 Y 124 X -40 Y 124 X -42 Y 124 X -33 Y 124 X -45 Y 124 X -15 Y 124 X -38 Y 124 X 17 Y 124 X s 1 1 1 c black 319 1159 m 124 X 5 Y 124 X -33
 Y 124 X -39 Y 124 X -38 Y 124 X -40 Y 124 X -34 Y 124 X -29 Y 124 X -40 Y 124 X -42 Y 124 X -33 Y 124 X -45 Y 124 X -15 Y 124 X -38 Y 124 X 17 Y 124 X s 0.6 1 0.6 c black 0.6 1 0.6 c 319 584 m 575 Y 124 X 5 Y 124 X -33 Y 124 X -39 Y 124 X -38 Y 124
 X -40 Y 124 X -34 Y 124 X -29 Y 124 X -40 Y 124 X -42 Y 124 X -33 Y 124 X -45 Y 124 X -15 Y 124 X -38 Y 124 X 17 Y 124 X -171 Y f black 0.6 1 0.6 c black 319 1159 m 124 X 5 Y 124 X -33 Y 124 X -39 Y 124 X -38 Y 124 X -40 Y 124 X -34 Y 124 X -29 Y
 124 X -40 Y 124 X -42 Y 124 X -33 Y 124 X -45 Y 124 X -15 Y 124 X -38 Y 124 X 17 Y 124 X s 0.999 0.999 0.999 c black 0.999 0.999 0.999 c 319 584 m 539 Y 124 X 11 Y 124 X -29 Y 124 X -35 Y 124 X -32 Y 124 X -38 Y 124 X -31 Y 124 X -27 Y 124 X -36 Y
 124 X -46 Y 124 X -33 Y 124 X -43 Y 124 X -12 Y 124 X -39 Y 124 X 17 Y 124 X -166 Y f black 0.999 0.999 0.999 c black 319 1123 m 124 X 11 Y 124 X -29 Y 124 X -35 Y 124 X -32 Y 124 X -38 Y 124 X -31 Y 124 X -27 Y 124 X -36 Y 124 X -46 Y 124 X -33 Y
 124 X -43 Y 124 X -12 Y 124 X -39 Y 124 X 17 Y 124 X s 1 1 1 c black 319 1123 m 124 X 11 Y 124 X -29 Y 124 X -35 Y 124 X -32 Y 124 X -38 Y 124 X -31 Y 124 X -27 Y 124 X -36 Y 124 X -46 Y 124 X -33 Y 124 X -43 Y 124 X -12 Y 124 X -39 Y 124 X 17 Y 124
 X s 1 0.8 0.4 c black 1 0.8 0.4 c 319 584 m 539 Y 124 X 11 Y 124 X -29 Y 124 X -35 Y 124 X -32 Y 124 X -38 Y 124 X -31 Y 124 X -27 Y 124 X -36 Y 124 X -46 Y 124 X -33 Y 124 X -43 Y 124 X -12 Y 124 X -39 Y 124 X 17 Y 124 X -166 Y f black 1 0.8 0.4 c
 black 319 1123 m 124 X 11 Y 124 X -29 Y 124 X -35 Y 124 X -32 Y 124 X -38 Y 124 X -31 Y 124 X -27 Y 124 X -36 Y 124 X -46 Y 124 X -33 Y 124 X -43 Y 124 X -12 Y 124 X -39 Y 124 X 17 Y 124 X s 0.999 0.999 0.999 c black 0.999 0.999 0.999 c 319 584 m
 387 Y 124 X 11 Y 124 X -20 Y 124 X -31 Y 124 X -32 Y 124 X -32 Y 124 X -31 Y 124 X -55 Y 124 X -10 Y 124 X -35 Y 124 X -55 Y 124 X -35 Y 124 X -39 Y 124 X -20 Y 124 X 53 Y 124 X -56 Y f black 0.999 0.999 0.999 c black 319 971 m 124 X 11 Y 124 X -20
 Y 124 X -31 Y 124 X -32 Y 124 X -32 Y 124 X -31 Y 124 X -55 Y 124 X -10 Y 124 X -35 Y 124 X -55 Y 124 X -35 Y 124 X -39 Y 124 X -20 Y 124 X 53 Y 124 X s 1 1 1 c black 319 971 m 124 X 11 Y 124 X -20 Y 124 X -31 Y 124 X -32 Y 124 X -32 Y 124 X -31 Y
 124 X -55 Y 124 X -10 Y 124 X -35 Y 124 X -55 Y 124 X -35 Y 124 X -39 Y 124 X -20 Y 124 X 53 Y 124 X s 1 0.4 0.6 c black 1 0.4 0.6 c 319 584 m 387 Y 124 X 11 Y 124 X -20 Y 124 X -31 Y 124 X -32 Y 124 X -32 Y 124 X -31 Y 124 X -55 Y 124 X -10 Y 124 X
 -35 Y 124 X -55 Y 124 X -35 Y 124 X -39 Y 124 X -20 Y 124 X 53 Y 124 X -56 Y f black 1 0.4 0.6 c black 319 971 m 124 X 11 Y 124 X -20 Y 124 X -31 Y 124 X -32 Y 124 X -32 Y 124 X -31 Y 124 X -55 Y 124 X -10 Y 124 X -35 Y 124 X -55 Y 124 X -35 Y 124 X
 -39 Y 124 X -20 Y 124 X 53 Y 124 X s 0.999 0.999 0.999 c black 0.999 0.999 0.999 c 319 584 m 99 Y 124 X 54 Y 124 X -94 Y 124 X 81 Y 124 X -112 Y 124 X 98 Y 124 X -126 Y 1116 X f black 0.999 0.999 0.999 c black 319 683 m 124 X 54 Y 124 X -94 Y 124 X
 81 Y 124 X -112 Y 124 X 98 Y 124 X -126 Y 1116 X s 1 1 1 c black 319 683 m 124 X 54 Y 124 X -94 Y 124 X 81 Y 124 X -112 Y 124 X 98 Y 124 X -126 Y 1116 X s 0 0 0.4 c black 0 0 0.4 c 319 584 m 99 Y 124 X 54 Y 124 X -94 Y 124 X 81 Y 124 X -112 Y 124 X
 98 Y 124 X -126 Y 1116 X f black 0 0 0.4 c black 319 683 m 124 X 54 Y 124 X -94 Y 124 X 81 Y 124 X -112 Y 124 X 98 Y 124 X -126 Y 1116 X s 1 0 0 c 6 lw 1 1 1 c black 1 0 0 c 319 1178 m 124 X 5 Y 124 X -33 Y 124 X -39 Y 124 X -39 Y 124 X -40 Y 124 X
 -35 Y 124 X -29 Y 124 X -41 Y 124 X -39 Y 124 X -37 Y 124 X -31 Y 124 X -36 Y 124 X -26 Y 124 X 15 Y 124 X s black 3 lw 1 0 0 c 1 lw << /PatternType 1 /PaintType 2 /TilingType 1 /BBox [ 0 0 100 100 ] /XStep 100 /YStep 100 /PaintProc { begin gsave 0
 100 m 100 0 l s gr end } >> [ 0.24 0 0 0.24 0 0 ] makepattern /P05 exch def /cs {[/Pattern /DeviceRGB] setcolorspace} def /FA {f [/DeviceRGB] setcolorspace} def cs 1 0 0 P05 setcolor 319 584 m 597 Y 124 X 6 Y 124 X -34 Y 124 X -39 Y 124 X -38 Y 124
 X -40 Y 124 X -34 Y 124 X -28 Y 124 X -41 Y 124 X -38 Y 124 X -36 Y 124 X -29 Y 124 X -31 Y 124 X -23 Y 124 X 9 Y 124 X -201 Y 174 Y -124 X -24 Y -124 X 31 Y -124 X 43 Y -124 X 34 Y -124 X 38 Y -124 X 40 Y -124 X 40 Y -124 X 32 Y -124 X 35 Y -124 X
 41 Y -124 X 39 Y -124 X 39 Y -124 X 34 Y -124 X -6 Y -124 X -590 Y FA 6 lw 1 1 1 c 15 lw 1497 894 m 2 Y s 1497 896 m cl s 1497 853 m -11 Y s 1497 842 m cl s 1621 883 m 4 Y s 1621 887 m cl s 1621 843 m -14 Y s 1621 829 m cl s 1745 856 m 9 Y s 1745
 865 m cl s 1745 815 m -24 Y s 1745 791 m cl s 1869 809 m 20 Y s 1869 829 m cl s 1869 768 m -50 Y s 1869 718 m cl s 2117 809 m 20 Y s 2117 829 m cl s 2117 768 m -50 Y s 2117 718 m cl s black 1 1 1 c 3 lw /w 43 def /w2 {w 2 div} def /w3 {w 3 div} def
 381 1180 505 1175 629 1139 753 1101 877 1062 1001 1019 1125 1006 1249 963 1373 945 1497 874 1621 863 1745 836 1869 788 13 { m20} R 15 lw 3 lw 2117 788 m20 15 lw black 6 lw 1 1 1 c black 3 lw /w 33 def /w2 {w 2 div} def /w3 {w 3 div} def 381 1180 m20
 6 lw 3 lw 505 1175 m20 6 lw 3 lw 629 1139 m20 6 lw 3 lw 753 1101 m20 6 lw 3 lw 877 1062 m20 6 lw 3 lw 1001 1019 m20 6 lw 3 lw 1125 1006 m20 6 lw 1249 948 m 1 Y s 3 lw 1249 963 m20 6 lw 1373 928 m 4 Y s 1373 959 m s 3 lw 1373 945 m20 6 lw 1497 841 m
 19 Y s 1497 887 m 8 Y s 3 lw 1497 874 m20 6 lw 1621 827 m 23 Y s 1621 877 m 9 Y s 3 lw 1621 863 m20 6 lw 1745 788 m 34 Y s 1745 849 m 14 Y s 3 lw 1745 836 m20 6 lw 1869 705 m 70 Y s 1869 802 m 23 Y s 3 lw 1869 788 m20 6 lw 2117 705 m 70 Y s 2117 802
 m 23 Y s 3 lw 2117 788 m20 6 lw 1249 949 m -1 Y s 1249 948 m cl s 1373 959 m s 1373 959 m cl s 1373 932 m -4 Y s 1373 928 m cl s 1497 887 m 9 Y s 1497 896 m cl s 1497 860 m -18 Y s 1497 842 m cl s 1621 877 m 10 Y s 1621 887 m cl s 1621 850 m -21 Y s
 1621 829 m cl s 1745 849 m 16 Y s 1745 865 m cl s 1745 822 m -31 Y s 1745 791 m cl s 1869 802 m 27 Y s 1869 829 m cl s 1869 775 m -57 Y s 1869 718 m cl s 2117 802 m 27 Y s 2117 829 m cl s 2117 775 m -57 Y s 2117 718 m cl s 3 lw 381 1180 505 1175 629
 1139 753 1101 877 1062 1001 1019 1125 1006 1249 963 1373 945 1497 874 1621 863 1745 836 1869 788 13 { m20} R 6 lw 3 lw 2117 788 m20 6 lw 3 lw 319 584 m 1860 X s 319 584 m cl s 381 584 m cl s 443 584 m cl s 505 584 m cl s 567 584 m cl s 629 584 m cl
 s 691 584 m cl s 753 584 m cl s 815 584 m cl s 877 584 m cl s 939 584 m cl s 1001 584 m cl s 1063 584 m cl s 1125 584 m cl s 1187 584 m cl s 1249 584 m cl s 1311 584 m cl s 1373 584 m cl s 1435 584 m cl s 1497 584 m cl s 1559 584 m cl s 1621 584 m
 cl s 1683 584 m cl s 1745 584 m cl s 1807 584 m cl s 1869 584 m cl s 1931 584 m cl s 1993 584 m cl s 2055 584 m cl s 2117 584 m cl s 2179 584 m cl s 319 1729 m 1860 X s 319 1729 m cl s 381 1729 m cl s 443 1729 m cl s 505 1729 m cl s 567 1729 m cl s
 629 1729 m cl s 691 1729 m cl s 753 1729 m cl s 815 1729 m cl s 877 1729 m cl s 939 1729 m cl s 1001 1729 m cl s 1063 1729 m cl s 1125 1729 m cl s 1187 1729 m cl s 1249 1729 m cl s 1311 1729 m cl s 1373 1729 m cl s 1435 1729 m cl s 1497 1729 m cl s
 1559 1729 m cl s 1621 1729 m cl s 1683 1729 m cl s 1745 1729 m cl s 1807 1729 m cl s 1869 1729 m cl s 1931 1729 m cl s 1993 1729 m cl s 2055 1729 m cl s 2117 1729 m cl s 2179 1729 m cl s 319 584 m 1145 Y s 341 632 m -22 X s 341 659 m -22 X s 341 679
 m -22 X s 341 694 m -22 X s 341 706 m -22 X s 341 717 m -22 X s 341 726 m -22 X s 341 734 m -22 X s 363 741 m -44 X s 341 788 m -22 X s 341 816 m -22 X s 341 836 m -22 X s 341 851 m -22 X s 341 863 m -22 X s 341 874 m -22 X s 341 883 m -22 X s 341
 891 m -22 X s 363 898 m -44 X s 341 945 m -22 X s 341 973 m -22 X s 341 992 m -22 X s 341 1008 m -22 X s 341 1020 m -22 X s 341 1030 m -22 X s 341 1040 m -22 X s 341 1048 m -22 X s 363 1055 m -44 X s 341 1102 m -22 X s 341 1130 m -22 X s 341 1149 m
 -22 X s 341 1164 m -22 X s 341 1177 m -22 X s 341 1187 m -22 X s 341 1196 m -22 X s 341 1204 m -22 X s 363 1212 m -44 X s 341 1259 m -22 X s 341 1286 m -22 X s 341 1306 m -22 X s 341 1321 m -22 X s 341 1334 m -22 X s 341 1344 m -22 X s 341 1353 m
 -22 X s 341 1361 m -22 X s 363 1368 m -44 X s 341 1416 m -22 X s 341 1443 m -22 X s 341 1463 m -22 X s 341 1478 m -22 X s 341 1490 m -22 X s 341 1501 m -22 X s 341 1510 m -22 X s 341 1518 m -22 X s 363 1525 m -44 X s 341 1572 m -22 X s 341 1600 m
 -22 X s 341 1620 m -22 X s 341 1635 m -22 X s 341 1647 m -22 X s 341 1658 m -22 X s 341 1667 m -22 X s 341 1675 m -22 X s 363 1682 m -44 X s 2179 584 m 1145 Y s 2157 632 m 22 X s 2157 659 m 22 X s 2157 679 m 22 X s 2157 694 m 22 X s 2157 706 m 22 X
 s 2157 717 m 22 X s 2157 726 m 22 X s 2157 734 m 22 X s 2136 741 m 43 X s 2157 788 m 22 X s 2157 816 m 22 X s 2157 836 m 22 X s 2157 851 m 22 X s 2157 863 m 22 X s 2157 874 m 22 X s 2157 883 m 22 X s 2157 891 m 22 X s 2136 898 m 43 X s 2157 945 m 22
 X s 2157 973 m 22 X s 2157 992 m 22 X s 2157 1008 m 22 X s 2157 1020 m 22 X s 2157 1030 m 22 X s 2157 1040 m 22 X s 2157 1048 m 22 X s 2136 1055 m 43 X s 2157 1102 m 22 X s 2157 1130 m 22 X s 2157 1149 m 22 X s 2157 1164 m 22 X s 2157 1177 m 22 X s
 2157 1187 m 22 X s 2157 1196 m 22 X s 2157 1204 m 22 X s 2136 1212 m 43 X s 2157 1259 m 22 X s 2157 1286 m 22 X s 2157 1306 m 22 X s 2157 1321 m 22 X s 2157 1334 m 22 X s 2157 1344 m 22 X s 2157 1353 m 22 X s 2157 1361 m 22 X s 2136 1368 m 43 X s
 2157 1416 m 22 X s 2157 1443 m 22 X s 2157 1463 m 22 X s 2157 1478 m 22 X s 2157 1490 m 22 X s 2157 1501 m 22 X s 2157 1510 m 22 X s 2157 1518 m 22 X s 2136 1525 m 43 X s 2157 1572 m 22 X s 2157 1600 m 22 X s 2157 1620 m 22 X s 2157 1635 m 22 X s
 2157 1647 m 22 X s 2157 1658 m 22 X s 2157 1667 m 22 X s 2157 1675 m 22 X s 2136 1682 m 43 X s
 gsave  2263 1770 2 313 C 406.765 1447.41 t 0 r /Helvetica findfont 64.4212 sf 0 0 m (SR for MB\255GGd) show NC gr 
 gsave  2263 1770 2 313 C 1464.36 1630.45 t 0 r /Helvetica findfont 64.4212 sf 0 0 m (SM Total) show NC gr  1 1 1 c 1338 1616 m 107 X 64 Y -107 X f 1 0 0 c 6 lw 1338 1648 m 107 X s black
 gsave  2263 1770 2 313 C 1464.36 1538.93 t 0 r /Helvetica findfont 64.4212 sf 0 0 m (Data) show NC gr  1391 1529 m 55 Y s 3 lw 1391 1557 m20 6 lw
 gsave  2263 1770 2 313 C 1464.36 1447.41 t 0 r /Helvetica findfont 64.4212 sf 0 0 m (W+jets) show NC gr  0.4 0.6 1 c 3 lw 1338 1434 m 107 X 64 Y -107 X f 6 lw black 3 lw 1338 1498 m 107 X s 1338 1434 m 107 X s 1445 1434 m 64 Y s 1338 1434 m 64 Y s
 gsave  2263 1770 2 313 C 1498.25 1355.88 t 0 r /Helvetica findfont 64.4212 sf 0 0 m (\(+EW\) & single top) show NC gr 
 gsave  2263 1770 2 313 C 1481.3 1355.88 t 0 r /Helvetica findfont 64.4212 sf 0 0 m (t) show NC gr  1481 1407 m 17 X s
 gsave  2263 1770 2 313 C 1464.36 1355.88 t 0 r /Helvetica findfont 64.4212 sf 0 0 m (t) show NC gr  0.6 1 0.6 c 1338 1343 m 107 X 63 Y -107 X f black 1338 1406 m 107 X s 1338 1343 m 107 X s 1445 1343 m 63 Y s 1338 1343 m 63 Y s
 gsave  2263 1770 2 313 C 1464.36 1264.36 t 0 r /Helvetica findfont 64.4212 sf 0 0 m (Z+jets) show NC gr  1 0.8 0.4 c 1338 1252 m 107 X 63 Y -107 X f black 1338 1315 m 107 X s 1338 1252 m 107 X s 1445 1252 m 63 Y s 1338 1252 m 63 Y s
 gsave  2263 1770 2 313 C 1464.36 1172.84 t 0 r /Helvetica findfont 64.4212 sf 0 0 m (Diboson) show NC gr  1 0.4 0.6 c 1338 1161 m 107 X 63 Y -107 X f black 1338 1224 m 107 X s 1338 1161 m 107 X s 1445 1161 m 63 Y s 1338 1161 m 63 Y s
 gsave  2263 1770 2 313 C 1464.36 1081.32 t 0 r /Helvetica findfont 64.4212 sf 0 0 m (Multi\255jet) show NC gr  0 0 0.4 c 1338 1070 m 107 X 63 Y -107 X f black 1338 1133 m 107 X s 1338 1070 m 107 X s 1445 1070 m 63 Y s 1338 1070 m 63 Y s
 gsave  2263 1770 2 313 C 911.832 1566.05 t 0 r /Helvetica findfont 44.0776 sf 0 0 m (\2551) show NC gr 
 gsave  2263 1770 2 313 C 471.17 1535.54 t 0 r /Helvetica findfont 64.4212 sf 0 0 m (=13TeV, 139 fb) show NC gr 
 gsave  2263 1770 2 313 C 440.662 1535.54 t 0 r /Helvetica findfont 64.4212 sf 0 0 m (s) show NC gr  6 lw 420 1573 m 7 -41 d s 3 lw 427 1532 m 7 61 d s 434 1593 m 37 X s 1 1 1 c 2254 561 2 2 bf black 1 1 1 c black 1860 358 318 187 bl 1 1 1 c black
 1860 358 318 187 bl 6 lw 1 1 1 c black 3 lw 380 371 m20 6 lw 3 lw 504 347 m20 6 lw 3 lw 628 343 m20 6 lw 3 lw 752 343 m20 6 lw 3 lw 876 344 m20 6 lw 3 lw 1000 338 m20 6 lw 3 lw 1124 389 m20 6 lw 3 lw 1248 356 m20 6 lw 3 lw 1372 416 m20 6 lw 3 lw
 1496 336 m20 6 lw 3 lw 1620 397 m20 6 lw 3 lw 1744 408 m20 6 lw 3 lw 1868 377 m20 6 lw 3 lw 2116 408 m20 6 lw 3 lw 318 187 m 1860 X s
 gsave  2254 561 2 2 C 1959.25 33.8971 t 0 r /Helvetica findfont 78.1689 sf 0 0 m ( [GeV]) show NC gr 
 gsave  2254 561 2 2 C 1901.63 13.5588 t 0 r /Helvetica findfont 50.9797 sf 0 0 m (eff) show NC gr 
 gsave  2254 561 2 2 C 1840.61 33.8971 t 0 r /Helvetica findfont 78.1689 sf 0 0 m (m) show NC gr  318 201 m -14 Y s 380 194 m -7 Y s 442 194 m -7 Y s 504 194 m -7 Y s 566 194 m -7 Y s 628 201 m -14 Y s 690 194 m -7 Y s 752 194 m -7 Y s 814 194 m -7 Y
 s 876 194 m -7 Y s 938 201 m -14 Y s 1000 194 m -7 Y s 1062 194 m -7 Y s 1124 194 m -7 Y s 1186 194 m -7 Y s 1248 201 m -14 Y s 1310 194 m -7 Y s 1372 194 m -7 Y s 1434 194 m -7 Y s 1496 194 m -7 Y s 1558 201 m -14 Y s 1620 194 m -7 Y s 1682 194 m
 -7 Y s 1744 194 m -7 Y s 1806 194 m -7 Y s 1868 201 m -14 Y s 1930 194 m -7 Y s 1992 194 m -7 Y s 2054 194 m -7 Y s 2116 194 m -7 Y s 2178 201 m -14 Y s
 gsave  2254 561 2 2 C 227.111 118.64 t 0 r /Helvetica findfont 78.1689 sf 0 0 m (1000) show NC gr 
 gsave  2254 561 2 2 C 538.964 118.64 t 0 r /Helvetica findfont 78.1689 sf 0 0 m (1500) show NC gr 
 gsave  2254 561 2 2 C 847.428 118.64 t 0 r /Helvetica findfont 78.1689 sf 0 0 m (2000) show NC gr 
 gsave  2254 561 2 2 C 1159.28 118.64 t 0 r /Helvetica findfont 78.1689 sf 0 0 m (2500) show NC gr 
 gsave  2254 561 2 2 C 1467.74 118.64 t 0 r /Helvetica findfont 78.1689 sf 0 0 m (3000) show NC gr 
 gsave  2254 561 2 2 C 1779.6 118.64 t 0 r /Helvetica findfont 78.1689 sf 0 0 m (3500) show NC gr 
 gsave  2254 561 2 2 C 2088.06 118.64 t 0 r /Helvetica findfont 78.1689 sf 0 0 m (4000) show NC gr  318 545 m 1860 X s 318 531 m 14 Y s 380 538 m 7 Y s 442 538 m 7 Y s 504 538 m 7 Y s 566 538 m 7 Y s 628 531 m 14 Y s 690 538 m 7 Y s 752 538 m 7 Y s
 814 538 m 7 Y s 876 538 m 7 Y s 938 531 m 14 Y s 1000 538 m 7 Y s 1062 538 m 7 Y s 1124 538 m 7 Y s 1186 538 m 7 Y s 1248 531 m 14 Y s 1310 538 m 7 Y s 1372 538 m 7 Y s 1434 538 m 7 Y s 1496 538 m 7 Y s 1558 531 m 14 Y s 1620 538 m 7 Y s 1682 538 m
 7 Y s 1744 538 m 7 Y s 1806 538 m 7 Y s 1868 531 m 14 Y s 1930 538 m 7 Y s 1992 538 m 7 Y s 2054 538 m 7 Y s 2116 538 m 7 Y s 2178 531 m 14 Y s 318 187 m 358 Y s
 gsave  2254 561 2 2 C 166.096 284.736 t 90 r /Helvetica findfont 67.9729 sf 0 0 m (Data/SM) show NC gr  361 203 m -43 X s 339 220 m -21 X s 339 236 m -21 X s 339 252 m -21 X s 339 268 m -21 X s 361 285 m -43 X s 339 301 m -21 X s 339 317 m -21 X s
 339 334 m -21 X s 339 350 m -21 X s 361 366 m -43 X s 339 382 m -21 X s 339 399 m -21 X s 339 415 m -21 X s 339 431 m -21 X s 361 447 m -43 X s 339 464 m -21 X s 339 480 m -21 X s 339 496 m -21 X s 339 512 m -21 X s 361 529 m -43 X s 361 203 m -43 X
 s 339 187 m -21 X s 361 529 m -43 X s
 gsave  2254 561 2 2 C 261.008 183.044 t 0 r /Helvetica findfont 57.777 sf 0 0 m (0) show NC gr 
 gsave  2254 561 2 2 C 213.552 261.008 t 0 r /Helvetica findfont 57.777 sf 0 0 m (0.5) show NC gr 
 gsave  2254 561 2 2 C 271.177 342.361 t 0 r /Helvetica findfont 57.777 sf 0 0 m (1) show NC gr 
 gsave  2254 561 2 2 C 213.552 423.714 t 0 r /Helvetica findfont 57.777 sf 0 0 m (1.5) show NC gr 
 gsave  2254 561 2 2 C 261.008 505.067 t 0 r /Helvetica findfont 57.777 sf 0 0 m (2) show NC gr  2178 187 m 358 Y s 2135 203 m 43 X s 2157 220 m 21 X s 2157 236 m 21 X s 2157 252 m 21 X s 2157 268 m 21 X s 2135 285 m 43 X s 2157 301 m 21 X s 2157 317
 m 21 X s 2157 334 m 21 X s 2157 350 m 21 X s 2135 366 m 43 X s 2157 382 m 21 X s 2157 399 m 21 X s 2157 415 m 21 X s 2157 431 m 21 X s 2135 447 m 43 X s 2157 464 m 21 X s 2157 480 m 21 X s 2157 496 m 21 X s 2157 512 m 21 X s 2135 529 m 43 X s 2135
 203 m 43 X s 2157 187 m 21 X s 2135 529 m 43 X s 9 lw 1000 351 m 4 Y s 1000 355 m cl s 1000 324 m -4 Y s 1000 320 m cl s 1124 402 m 13 Y s 1124 415 m cl s 1124 375 m -13 Y s 1124 362 m cl s 1248 369 m 17 Y s 1248 386 m cl s 1248 342 m -16 Y s 1248
 326 m cl s 1372 429 m 34 Y s 1372 463 m cl s 1372 402 m -33 Y s 1372 369 m cl s 1496 349 m 39 Y s 1496 388 m cl s 1496 322 m -35 Y s 1496 287 m cl s 1620 411 m 69 Y s 1620 480 m cl s 1620 383 m -62 Y s 1620 321 m cl s 1744 422 m 96 Y s 1744 518 m cl
 s 1744 395 m -84 Y s 1744 311 m cl s 1868 390 m 128 Y s 1868 518 m cl s 1868 363 m -98 Y s 1868 265 m cl s 2116 421 m 124 Y s 2116 545 m cl s 2116 394 m -118 Y s 2116 276 m cl s 3 lw 380 371 504 347 628 343 752 343 876 344 1000 338 1124 389 1248 356
 1372 416 1496 336 1620 397 1744 408 1868 377 13 { m20} R 9 lw 3 lw 2116 408 m20 9 lw 1 0 0 c 6 lw black 3 lw 1 0 0 c 2178 227 m s 2178 255 m s 2178 284 m s 2178 312 m s 2178 341 m -5 -6 d s 2178 369 m -34 -34 d s 2177 397 m -62 -62 d s 2149 397 m
 -62 -62 d s 2120 397 m -62 -62 d s 2054 332 m -15 -15 d s 2091 397 m -80 -80 d s 2062 397 m -80 -80 d s 2052 416 m -99 -99 d s 2024 416 m -94 -94 d s 1995 416 m -90 -90 d s 1966 416 m -89 -90 d s 1938 416 m -8 -8 d s 1928 406 m -80 -80 d s 1899 406
 m -80 -80 d s 1871 406 m -66 -65 d s 1842 406 m -66 -65 d s 1813 406 m -7 -7 d s 1799 391 m -51 -50 d s 1770 391 m -51 -50 d s 1741 391 m -51 -50 d s 1713 391 m -46 -45 d s 1684 391 m -2 -1 d s 1679 386 m -41 -40 d s 1650 386 m -41 -40 d s 1622 386
 m -41 -40 d s 1593 386 m -38 -38 d s 1564 386 m -38 -38 d s 1533 384 m -36 -36 d s 1504 384 m -35 -36 d s 1475 384 m -35 -36 d s 1447 384 m -33 -33 d s 1416 381 m -31 -30 d s 1387 381 m -31 -30 d s 1358 381 m -30 -30 d s 1330 381 m -33 -32 d s 1303
 383 m -35 -34 d s 1274 383 m -34 -34 d s 1245 383 m -34 -34 d s 1217 383 m -31 -30 d s 1188 383 m -2 -2 d s 1182 377 m -23 -22 d s 1154 377 m -23 -22 d s 1125 377 m -23 -22 d s 1096 377 m -23 -22 d s 1067 377 m -21 -21 d s 1038 376 m -21 -20 d s
 1009 376 m -21 -20 d s 980 376 m -20 -20 d s 951 376 m -19 -19 d s 922 375 m -19 -18 d s 893 375 m -19 -18 d s 865 375 m -19 -18 d s 836 375 m -19 -18 d s 807 375 m -18 -18 d s 778 375 m -18 -18 d s 750 375 m -19 -18 d s 721 375 m -19 -18 d s 692
 375 m -18 -18 d s 663 375 m -17 -18 d s 634 375 m -17 -18 d s 606 375 m -18 -18 d s 577 375 m -17 -17 d s 548 374 m -17 -16 d s 519 374 m -16 -16 d s 490 374 m -16 -16 d s 462 374 m -17 -16 d s 318 231 m s 433 374 m -16 -16 d s 318 259 m s 404 374 m
 -16 -16 d s 318 288 m s 376 374 m -17 -16 d s 318 317 m s 347 374 m -17 -16 d s 318 345 m s 318 374 m s 6 lw black[ 4 8] 0 sd 3 lw 318 447 m 1860 X s 318 285 m 1860 X s 1 0 0 c[  12 12 ] 0 sd 6 lw 318 366 m 1860 X s
 gr  gr showpage
end
%%EOF
