%!PS-Adobe-2.0 EPSF-2.0
%%BoundingBox:  0 0 567 521
%%Title: Distributions/meffInc_distrVR0LmetSig_MB-SSd_afterFit_forThesis.eps: canvas
%%Creator: ROOT Version 6.04/16
%%CreationDate: Tue May 19 22:05:02 2020
%%DocumentNeededResources: ProcSet (FontSetInit)
%%EndComments
%%BeginProlog
80 dict begin
/s {stroke} def /l {lineto} def /m {moveto} def /t {translate} def
/r {rotate} def /rl {roll}  def /R {repeat} def
/d {rlineto} def /rm {rmoveto} def /gr {grestore} def /f {eofill} def
/c {setrgbcolor} def /black {0 setgray} def /sd {setdash} def
/cl {closepath} def /sf {scalefont setfont} def /lw {setlinewidth} def
/box {m dup 0 exch d exch 0 d 0 exch neg d cl} def
/NC{systemdict begin initclip end}def/C{NC box clip newpath}def
/bl {box s} def /bf {gsave box gsave f grestore 1 lw [] 0 sd s grestore} def /Y { 0 exch d} def /X { 0 d} def 
/K {{pop pop 0 moveto} exch kshow} bind def
/ita {/ang 15 def gsave [1 0 ang dup sin exch cos div 1 0 0] concat} def 
/mp {newpath /y exch def /x exch def} def
/side {[w .77 mul w .23 mul] .385 w mul sd w 0 l currentpoint t -144 r} def
/mr {mp x y w2 0 360 arc} def /m24 {mr s} def /m20 {mr f} def
/mb {mp x y w2 add m w2 neg 0 d 0 w neg d w 0 d 0 w d cl} def
/mt {mp x y w2 add m w2 neg w neg d w 0 d cl} def
/m21 {mb f} def /m25 {mb s} def /m22 {mt f} def /m26{mt s} def
/m23 {mp x y w2 sub m w2 w d w neg 0 d cl f} def
/m27 {mp x y w2 add m w3 neg w2 neg d w3 w2 neg d w3 w2 d cl s} def
/m28 {mp x w2 sub y w2 sub w3 add m w3 0 d  0 w3 neg d w3 0 d 0 w3 d w3 0 d  0 w3 d w3 neg 0 d 0 w3 d w3 neg 0 d 0 w3 neg d w3 neg 0 d cl s } def
/m29 {mp gsave x w2 sub y w2 add w3 sub m currentpoint t 4 {side} repeat cl fill gr} def
/m30 {mp gsave x w2 sub y w2 add w3 sub m currentpoint t 4 {side} repeat cl s gr} def
/m31 {mp x y w2 sub m 0 w d x w2 sub y m w 0 d x w2 sub y w2 add m w w neg d x w2 sub y w2 sub m w w d s} def
/m32 {mp x y w2 sub m w2 w d w neg 0 d cl s} def
/m33 {mp x y w2 add m w3 neg w2 neg d w3 w2 neg d w3 w2 d cl f} def
/m34 {mp x w2 sub y w2 sub w3 add m w3 0 d  0 w3 neg d w3 0 d 0 w3 d w3 0 d  0 w3 d w3 neg 0 d 0 w3 d w3 neg 0 d 0 w3 neg d w3 neg 0 d cl f } def
/m2 {mp x y w2 sub m 0 w d x w2 sub y m w 0 d s} def
/m5 {mp x w2 sub y w2 sub m w w d x w2 sub y w2 add m w w neg d s} def
%%IncludeResource: ProcSet (FontSetInit)
%%IncludeResource: font Times-Roman
%%IncludeResource: font Times-Italic
%%IncludeResource: font Times-Bold
%%IncludeResource: font Times-BoldItalic
%%IncludeResource: font Helvetica
%%IncludeResource: font Helvetica-Oblique
%%IncludeResource: font Helvetica-Bold
%%IncludeResource: font Helvetica-BoldOblique
%%IncludeResource: font Courier
%%IncludeResource: font Courier-Oblique
%%IncludeResource: font Courier-Bold
%%IncludeResource: font Courier-BoldOblique
%%IncludeResource: font Symbol
%%IncludeResource: font ZapfDingbats
/reEncode {exch findfont dup length dict begin {1 index /FID eq  {pop pop} {def} ifelse } forall /Encoding exch def currentdict end dup /FontName get exch definefont pop } def [/Times-Bold /Times-Italic /Times-BoldItalic /Helvetica /Helvetica-Oblique
 /Helvetica-Bold /Helvetica-BoldOblique /Courier /Courier-Oblique /Courier-Bold /Courier-BoldOblique /Times-Roman /AvantGarde-Book /AvantGarde-BookOblique /AvantGarde-Demi /AvantGarde-DemiOblique /Bookman-Demi /Bookman-DemiItalic /Bookman-Light
 /Bookman-LightItalic /Helvetica-Narrow /Helvetica-Narrow-Bold /Helvetica-Narrow-BoldOblique /Helvetica-Narrow-Oblique /NewCenturySchlbk-Roman /NewCenturySchlbk-Bold /NewCenturySchlbk-BoldItalic /NewCenturySchlbk-Italic /Palatino-Bold
 /Palatino-BoldItalic /Palatino-Italic /Palatino-Roman ] {ISOLatin1Encoding reEncode } forall
%%EndProlog
%%BeginSetup
%%EndSetup
newpath  gsave  .25 .25 scale  gsave  0 0 t black[  ] 0 sd 3 lw 1 1 1 c 2268 2085 0 0 bf black 1 1 1 c 2263 1770 2 313 bf black 1 1 1 c black 1860 1145 319 584 bl 1 1 1 c black 1860 1145 319 584 bl 6 lw 1 1 1 c black 3 lw /w 33 def /w2 {w 2 div} def
 /w3 {w 3 div} def 366 1233 m20 6 lw 3 lw 459 1218 m20 6 lw 3 lw 552 1181 m20 6 lw 3 lw 645 1142 m20 6 lw 3 lw 738 1101 m20 6 lw 3 lw 831 1075 m20 6 lw 3 lw 924 1042 m20 6 lw 3 lw 1017 1008 m20 6 lw 3 lw 1110 973 m20 6 lw 3 lw 1203 954 m20 6 lw 1296
 885 m 4 Y s 3 lw 1296 902 m20 6 lw 1389 829 m 13 Y s 1389 869 m 5 Y s 3 lw 1389 856 m20 6 lw 1482 805 m 19 Y s 1482 851 m 8 Y s 3 lw 1482 838 m20 6 lw 1575 829 m 13 Y s 1575 869 m 5 Y s 3 lw 1575 856 m20 6 lw 1668 742 m 39 Y s 1668 808 m 15 Y s 3 lw
 1668 795 m20 6 lw 1947 584 m 129 Y s 1947 740 m 30 Y s 3 lw 1947 727 m20 6 lw 3 lw 319 584 m 1860 X s
 gsave  2263 1770 2 313 C 1949.08 369.478 t 0 r /Helvetica findfont 81.3741 sf 0 0 m ( [GeV]) show NC gr 
 gsave  2263 1770 2 313 C 1888.07 342.361 t 0 r /Helvetica findfont 54.2494 sf 0 0 m (eff) show NC gr 
 gsave  2263 1770 2 313 C 1823.66 369.478 t 0 r /Helvetica findfont 81.3741 sf 0 0 m (m) show NC gr  319 584 m cl s 366 584 m cl s 412 584 m cl s 459 584 m cl s 505 584 m cl s 552 584 m cl s 598 584 m cl s 645 584 m cl s 691 584 m cl s 738 584 m cl s
 784 584 m cl s 831 584 m cl s 877 584 m cl s 924 584 m cl s 970 584 m cl s 1017 584 m cl s 1063 584 m cl s 1110 584 m cl s 1156 584 m cl s 1203 584 m cl s 1249 584 m cl s 1296 584 m cl s 1342 584 m cl s 1389 584 m cl s 1435 584 m cl s 1482 584 m cl
 s 1528 584 m cl s 1575 584 m cl s 1621 584 m cl s 1668 584 m cl s 1714 584 m cl s 1761 584 m cl s 1807 584 m cl s 1854 584 m cl s 1900 584 m cl s 1947 584 m cl s 1993 584 m cl s 2040 584 m cl s 2086 584 m cl s 2133 584 m cl s 2179 584 m cl s 319
 1729 m 1860 X s 319 1729 m cl s 366 1729 m cl s 412 1729 m cl s 459 1729 m cl s 505 1729 m cl s 552 1729 m cl s 598 1729 m cl s 645 1729 m cl s 691 1729 m cl s 738 1729 m cl s 784 1729 m cl s 831 1729 m cl s 877 1729 m cl s 924 1729 m cl s 970 1729
 m cl s 1017 1729 m cl s 1063 1729 m cl s 1110 1729 m cl s 1156 1729 m cl s 1203 1729 m cl s 1249 1729 m cl s 1296 1729 m cl s 1342 1729 m cl s 1389 1729 m cl s 1435 1729 m cl s 1482 1729 m cl s 1528 1729 m cl s 1575 1729 m cl s 1621 1729 m cl s 1668
 1729 m cl s 1714 1729 m cl s 1761 1729 m cl s 1807 1729 m cl s 1854 1729 m cl s 1900 1729 m cl s 1947 1729 m cl s 1993 1729 m cl s 2040 1729 m cl s 2086 1729 m cl s 2133 1729 m cl s 2179 1729 m cl s 319 584 m 1145 Y s
 gsave  2263 1770 2 313 C 166.096 1091.49 t 90 r /Helvetica findfont 81.3741 sf 0 0 m (Events / 200 GeV) show NC gr  341 627 m -22 X s 341 652 m -22 X s 341 670 m -22 X s 341 684 m -22 X s 341 695 m -22 X s 341 705 m -22 X s 341 713 m -22 X s 341 720
 m -22 X s 363 727 m -44 X s
 gsave  2263 1770 2 313 C 300.555 699.763 t 0 r  -36 0 t /Helvetica findfont 64.4212 sf 0 0 m (1) show NC gr  341 770 m -22 X s 341 795 m -22 X s 341 813 m -22 X s 341 827 m -22 X s 341 838 m -22 X s 341 847 m -22 X s 341 856 m -22 X s 341 863 m -22
 X s 363 869 m -44 X s
 gsave  2263 1770 2 313 C 300.555 842.334 t 0 r  -73 0 t /Helvetica findfont 64.4212 sf 0 0 m (10) show NC gr  341 912 m -22 X s 341 937 m -22 X s 341 955 m -22 X s 341 969 m -22 X s 341 980 m -22 X s 341 990 m -22 X s 341 998 m -22 X s 341 1005 m
 -22 X s 363 1012 m -44 X s
 gsave  2263 1770 2 313 C 274.567 1010.13 t 0 r /Helvetica findfont 44.0776 sf 0 0 m (2) show NC gr 
 gsave  2263 1770 2 313 C 203.383 983.016 t 0 r /Helvetica findfont 64.4212 sf 0 0 m (10) show NC gr  341 1055 m -22 X s 341 1080 m -22 X s 341 1098 m -22 X s 341 1112 m -22 X s 341 1123 m -22 X s 341 1133 m -22 X s 341 1141 m -22 X s 341 1148 m -22
 X s 363 1155 m -44 X s
 gsave  2263 1770 2 313 C 274.567 1155.89 t 0 r /Helvetica findfont 44.0776 sf 0 0 m (3) show NC gr 
 gsave  2263 1770 2 313 C 203.383 1125.38 t 0 r /Helvetica findfont 64.4212 sf 0 0 m (10) show NC gr  341 1198 m -22 X s 341 1223 m -22 X s 341 1240 m -22 X s 341 1254 m -22 X s 341 1266 m -22 X s 341 1275 m -22 X s 341 1283 m -22 X s 341 1291 m -22
 X s 363 1297 m -44 X s
 gsave  2263 1770 2 313 C 274.567 1294.87 t 0 r /Helvetica findfont 44.0776 sf 0 0 m (4) show NC gr 
 gsave  2263 1770 2 313 C 203.383 1267.75 t 0 r /Helvetica findfont 64.4212 sf 0 0 m (10) show NC gr  341 1340 m -22 X s 341 1365 m -22 X s 341 1383 m -22 X s 341 1397 m -22 X s 341 1408 m -22 X s 341 1418 m -22 X s 341 1426 m -22 X s 341 1433 m -22
 X s 363 1440 m -44 X s
 gsave  2263 1770 2 313 C 274.567 1440.63 t 0 r /Helvetica findfont 44.0776 sf 0 0 m (5) show NC gr 
 gsave  2263 1770 2 313 C 203.383 1410.12 t 0 r /Helvetica findfont 64.4212 sf 0 0 m (10) show NC gr  341 1483 m -22 X s 341 1508 m -22 X s 341 1526 m -22 X s 341 1539 m -22 X s 341 1551 m -22 X s 341 1560 m -22 X s 341 1568 m -22 X s 341 1576 m -22
 X s 363 1582 m -44 X s
 gsave  2263 1770 2 313 C 274.567 1582.99 t 0 r /Helvetica findfont 44.0776 sf 0 0 m (6) show NC gr 
 gsave  2263 1770 2 313 C 203.383 1552.49 t 0 r /Helvetica findfont 64.4212 sf 0 0 m (10) show NC gr  341 1625 m -22 X s 341 1650 m -22 X s 341 1668 m -22 X s 341 1682 m -22 X s 341 1693 m -22 X s 341 1703 m -22 X s 341 1711 m -22 X s 341 1718 m -22
 X s 363 1725 m -44 X s
 gsave  2263 1770 2 313 C 274.567 1721.97 t 0 r /Helvetica findfont 44.0776 sf 0 0 m (7) show NC gr 
 gsave  2263 1770 2 313 C 203.383 1694.86 t 0 r /Helvetica findfont 64.4212 sf 0 0 m (10) show NC gr  2179 584 m 1145 Y s 2157 627 m 22 X s 2157 652 m 22 X s 2157 670 m 22 X s 2157 684 m 22 X s 2157 695 m 22 X s 2157 705 m 22 X s 2157 713 m 22 X s
 2157 720 m 22 X s 2136 727 m 43 X s 2157 770 m 22 X s 2157 795 m 22 X s 2157 813 m 22 X s 2157 827 m 22 X s 2157 838 m 22 X s 2157 847 m 22 X s 2157 856 m 22 X s 2157 863 m 22 X s 2136 869 m 43 X s 2157 912 m 22 X s 2157 937 m 22 X s 2157 955 m 22 X
 s 2157 969 m 22 X s 2157 980 m 22 X s 2157 990 m 22 X s 2157 998 m 22 X s 2157 1005 m 22 X s 2136 1012 m 43 X s 2157 1055 m 22 X s 2157 1080 m 22 X s 2157 1098 m 22 X s 2157 1112 m 22 X s 2157 1123 m 22 X s 2157 1133 m 22 X s 2157 1141 m 22 X s 2157
 1148 m 22 X s 2136 1155 m 43 X s 2157 1198 m 22 X s 2157 1223 m 22 X s 2157 1240 m 22 X s 2157 1254 m 22 X s 2157 1266 m 22 X s 2157 1275 m 22 X s 2157 1283 m 22 X s 2157 1291 m 22 X s 2136 1297 m 43 X s 2157 1340 m 22 X s 2157 1365 m 22 X s 2157
 1383 m 22 X s 2157 1397 m 22 X s 2157 1408 m 22 X s 2157 1418 m 22 X s 2157 1426 m 22 X s 2157 1433 m 22 X s 2136 1440 m 43 X s 2157 1483 m 22 X s 2157 1508 m 22 X s 2157 1526 m 22 X s 2157 1539 m 22 X s 2157 1551 m 22 X s 2157 1560 m 22 X s 2157
 1568 m 22 X s 2157 1576 m 22 X s 2136 1582 m 43 X s 2157 1625 m 22 X s 2157 1650 m 22 X s 2157 1668 m 22 X s 2157 1682 m 22 X s 2157 1693 m 22 X s 2157 1703 m 22 X s 2157 1711 m 22 X s 2157 1718 m 22 X s 2136 1725 m 43 X s 0.4 0.6 1 c black 0.4 0.6
 1 c 319 584 m 649 Y 93 X -11 Y 93 X -36 Y 93 X -40 Y 93 X -38 Y 93 X -35 Y 93 X -34 Y 93 X -33 Y 93 X -33 Y 93 X -31 Y 93 X -33 Y 93 X -26 Y 93 X -26 Y 93 X -32 Y 93 X -28 Y 93 X -40 Y 93 X -24 Y 93 X -9 Y 93 X -41 Y 93 X 29 Y 93 X -128 Y f black
 0.4 0.6 1 c black 319 1233 m 93 X -11 Y 93 X -36 Y 93 X -40 Y 93 X -38 Y 93 X -35 Y 93 X -34 Y 93 X -33 Y 93 X -33 Y 93 X -31 Y 93 X -33 Y 93 X -26 Y 93 X -26 Y 93 X -32 Y 93 X -28 Y 93 X -40 Y 93 X -24 Y 93 X -9 Y 93 X -41 Y 93 X 29 Y 93 X s 0.999
 0.999 0.999 c black 0.999 0.999 0.999 c 319 584 m 632 Y 93 X -12 Y 93 X -37 Y 93 X -40 Y 93 X -38 Y 93 X -34 Y 93 X -35 Y 93 X -31 Y 93 X -34 Y 93 X -30 Y 93 X -34 Y 93 X -23 Y 93 X -28 Y 93 X -35 Y 93 X -25 Y 93 X -46 Y 93 X -19 Y 93 X -7 Y 93 X
 -47 Y 93 X 36 Y 93 X -113 Y f black 0.999 0.999 0.999 c black 319 1216 m 93 X -12 Y 93 X -37 Y 93 X -40 Y 93 X -38 Y 93 X -34 Y 93 X -35 Y 93 X -31 Y 93 X -34 Y 93 X -30 Y 93 X -34 Y 93 X -23 Y 93 X -28 Y 93 X -35 Y 93 X -25 Y 93 X -46 Y 93 X -19 Y
 93 X -7 Y 93 X -47 Y 93 X 36 Y 93 X s 1 1 1 c black 319 1216 m 93 X -12 Y 93 X -37 Y 93 X -40 Y 93 X -38 Y 93 X -34 Y 93 X -35 Y 93 X -31 Y 93 X -34 Y 93 X -30 Y 93 X -34 Y 93 X -23 Y 93 X -28 Y 93 X -35 Y 93 X -25 Y 93 X -46 Y 93 X -19 Y 93 X -7 Y
 93 X -47 Y 93 X 36 Y 93 X s 0.6 1 0.6 c black 0.6 1 0.6 c 319 584 m 632 Y 93 X -12 Y 93 X -37 Y 93 X -40 Y 93 X -38 Y 93 X -34 Y 93 X -35 Y 93 X -31 Y 93 X -34 Y 93 X -30 Y 93 X -34 Y 93 X -23 Y 93 X -28 Y 93 X -35 Y 93 X -25 Y 93 X -46 Y 93 X -19 Y
 93 X -7 Y 93 X -47 Y 93 X 36 Y 93 X -113 Y f black 0.6 1 0.6 c black 319 1216 m 93 X -12 Y 93 X -37 Y 93 X -40 Y 93 X -38 Y 93 X -34 Y 93 X -35 Y 93 X -31 Y 93 X -34 Y 93 X -30 Y 93 X -34 Y 93 X -23 Y 93 X -28 Y 93 X -35 Y 93 X -25 Y 93 X -46 Y 93 X
 -19 Y 93 X -7 Y 93 X -47 Y 93 X 36 Y 93 X s 0.999 0.999 0.999 c black 0.999 0.999 0.999 c 319 584 m 590 Y 93 X 2 Y 93 X -28 Y 93 X -34 Y 93 X -35 Y 93 X -31 Y 93 X -33 Y 93 X -33 Y 93 X -32 Y 93 X -30 Y 93 X -33 Y 93 X -24 Y 93 X -26 Y 93 X -40 Y 93
 X -25 Y 93 X -41 Y 93 X -18 Y 93 X -5 Y 93 X -49 Y 93 X 37 Y 93 X -112 Y f black 0.999 0.999 0.999 c black 319 1174 m 93 X 2 Y 93 X -28 Y 93 X -34 Y 93 X -35 Y 93 X -31 Y 93 X -33 Y 93 X -33 Y 93 X -32 Y 93 X -30 Y 93 X -33 Y 93 X -24 Y 93 X -26 Y
 93 X -40 Y 93 X -25 Y 93 X -41 Y 93 X -18 Y 93 X -5 Y 93 X -49 Y 93 X 37 Y 93 X s 1 1 1 c black 319 1174 m 93 X 2 Y 93 X -28 Y 93 X -34 Y 93 X -35 Y 93 X -31 Y 93 X -33 Y 93 X -33 Y 93 X -32 Y 93 X -30 Y 93 X -33 Y 93 X -24 Y 93 X -26 Y 93 X -40 Y
 93 X -25 Y 93 X -41 Y 93 X -18 Y 93 X -5 Y 93 X -49 Y 93 X 37 Y 93 X s 1 0.8 0.4 c black 1 0.8 0.4 c 319 584 m 590 Y 93 X 2 Y 93 X -28 Y 93 X -34 Y 93 X -35 Y 93 X -31 Y 93 X -33 Y 93 X -33 Y 93 X -32 Y 93 X -30 Y 93 X -33 Y 93 X -24 Y 93 X -26 Y 93
 X -40 Y 93 X -25 Y 93 X -41 Y 93 X -18 Y 93 X -5 Y 93 X -49 Y 93 X 37 Y 93 X -112 Y f black 1 0.8 0.4 c black 319 1174 m 93 X 2 Y 93 X -28 Y 93 X -34 Y 93 X -35 Y 93 X -31 Y 93 X -33 Y 93 X -33 Y 93 X -32 Y 93 X -30 Y 93 X -33 Y 93 X -24 Y 93 X -26
 Y 93 X -40 Y 93 X -25 Y 93 X -41 Y 93 X -18 Y 93 X -5 Y 93 X -49 Y 93 X 37 Y 93 X s 0.999 0.999 0.999 c black 0.999 0.999 0.999 c 319 584 m 452 Y 93 X -3 Y 93 X -29 Y 93 X -26 Y 93 X -37 Y 93 X -25 Y 93 X -34 Y 93 X -28 Y 93 X -42 Y 93 X -24 Y 93 X
 -10 Y 93 X -66 Y 93 X 10 Y 93 X -38 Y 93 X -17 Y 93 X -83 Y 93 X 27 Y 93 X -27 Y 186 X 17 Y 93 X -17 Y f black 0.999 0.999 0.999 c black 319 1036 m 93 X -3 Y 93 X -29 Y 93 X -26 Y 93 X -37 Y 93 X -25 Y 93 X -34 Y 93 X -28 Y 93 X -42 Y 93 X -24 Y 93
 X -10 Y 93 X -66 Y 93 X 10 Y 93 X -38 Y 93 X -17 Y 93 X -83 Y 93 X 27 Y 93 X -27 Y 186 X 17 Y 93 X s 1 1 1 c black 319 1036 m 93 X -3 Y 93 X -29 Y 93 X -26 Y 93 X -37 Y 93 X -25 Y 93 X -34 Y 93 X -28 Y 93 X -42 Y 93 X -24 Y 93 X -10 Y 93 X -66 Y 93
 X 10 Y 93 X -38 Y 93 X -17 Y 93 X -83 Y 93 X 27 Y 93 X -27 Y 186 X 17 Y 93 X s 1 0.4 0.6 c black 1 0.4 0.6 c 319 584 m 452 Y 93 X -3 Y 93 X -29 Y 93 X -26 Y 93 X -37 Y 93 X -25 Y 93 X -34 Y 93 X -28 Y 93 X -42 Y 93 X -24 Y 93 X -10 Y 93 X -66 Y 93 X
 10 Y 93 X -38 Y 93 X -17 Y 93 X -83 Y 93 X 27 Y 93 X -27 Y 186 X 17 Y 93 X -17 Y f black 1 0.4 0.6 c black 319 1036 m 93 X -3 Y 93 X -29 Y 93 X -26 Y 93 X -37 Y 93 X -25 Y 93 X -34 Y 93 X -28 Y 93 X -42 Y 93 X -24 Y 93 X -10 Y 93 X -66 Y 93 X 10 Y
 93 X -38 Y 93 X -17 Y 93 X -83 Y 93 X 27 Y 93 X -27 Y 186 X 17 Y 93 X s 0.999 0.999 0.999 c black 0.999 0.999 0.999 c 319 584 m 327 Y 93 X 24 Y 93 X -30 Y 93 X -41 Y 93 X -28 Y 93 X -33 Y 93 X -42 Y 93 X -22 Y 93 X -36 Y 93 X -19 Y 93 X -28 Y 93 X
 -18 Y 93 X -54 Y 744 X f black 0.999 0.999 0.999 c black 319 911 m 93 X 24 Y 93 X -30 Y 93 X -41 Y 93 X -28 Y 93 X -33 Y 93 X -42 Y 93 X -22 Y 93 X -36 Y 93 X -19 Y 93 X -28 Y 93 X -18 Y 93 X -54 Y 744 X s 1 1 1 c black 319 911 m 93 X 24 Y 93 X -30
 Y 93 X -41 Y 93 X -28 Y 93 X -33 Y 93 X -42 Y 93 X -22 Y 93 X -36 Y 93 X -19 Y 93 X -28 Y 93 X -18 Y 93 X -54 Y 744 X s 0 0 0.4 c black 0 0 0.4 c 319 584 m 327 Y 93 X 24 Y 93 X -30 Y 93 X -41 Y 93 X -28 Y 93 X -33 Y 93 X -42 Y 93 X -22 Y 93 X -36 Y
 93 X -19 Y 93 X -28 Y 93 X -18 Y 93 X -54 Y 744 X f black 0 0 0.4 c black 319 911 m 93 X 24 Y 93 X -30 Y 93 X -41 Y 93 X -28 Y 93 X -33 Y 93 X -42 Y 93 X -22 Y 93 X -36 Y 93 X -19 Y 93 X -28 Y 93 X -18 Y 93 X -54 Y 744 X s 1 0 0 c 6 lw 1 1 1 c black
 1 0 0 c 319 1233 m 93 X -11 Y 93 X -36 Y 93 X -40 Y 93 X -38 Y 93 X -35 Y 93 X -34 Y 93 X -33 Y 93 X -33 Y 93 X -31 Y 93 X -33 Y 93 X -26 Y 93 X -26 Y 93 X -32 Y 93 X -28 Y 93 X -40 Y 93 X -24 Y 93 X -9 Y 93 X -41 Y 93 X 29 Y 93 X s black 3 lw 1 0 0
 c 1 lw << /PatternType 1 /PaintType 2 /TilingType 1 /BBox [ 0 0 100 100 ] /XStep 100 /YStep 100 /PaintProc { begin gsave 0 100 m 100 0 l s gr end } >> [ 0.24 0 0 0.24 0 0 ] makepattern /P05 exch def /cs {[/Pattern /DeviceRGB] setcolorspace} def /FA
 {f [/DeviceRGB] setcolorspace} def cs 1 0 0 P05 setcolor 319 584 m 651 Y 93 X -11 Y 93 X -36 Y 93 X -39 Y 93 X -38 Y 93 X -35 Y 93 X -34 Y 93 X -32 Y 93 X -33 Y 93 X -32 Y 93 X -32 Y 93 X -25 Y 93 X -25 Y 93 X -30 Y 93 X -27 Y 93 X -41 Y 93 X -24 Y
 93 X -5 Y 93 X -40 Y 93 X 28 Y 93 X -140 Y 113 Y -93 X -31 Y -93 X 43 Y -93 X 14 Y -93 X 23 Y -93 X 39 Y -93 X 31 Y -93 X 33 Y -93 X 28 Y -93 X 26 Y -93 X 35 Y -93 X 32 Y -93 X 33 Y -93 X 33 Y -93 X 34 Y -93 X 35 Y -93 X 38 Y -93 X 40 Y -93 X 37 Y
 -93 X 11 Y -93 X -647 Y FA 6 lw 1 1 1 c 15 lw 1389 835 m -6 Y s 1389 829 m cl s 1482 858 m 2 Y s 1482 860 m cl s 1482 817 m -10 Y s 1482 807 m cl s 1575 835 m -6 Y s 1575 829 m cl s 1668 815 m 10 Y s 1668 825 m cl s 1668 775 m -28 Y s 1668 747 m cl
 s 1947 747 m 31 Y s 1947 778 m cl s 1947 707 m -88 Y s 1947 619 m cl s black 1 1 1 c 3 lw /w 43 def /w2 {w 2 div} def /w3 {w 3 div} def 366 1233 459 1218 552 1181 645 1142 738 1101 831 1075 924 1042 1017 1008 1110 973 1203 954 1296 902 1389 856 1482
 838 1575 856 1668 795 15 { m20} R 15 lw 3 lw 1947 727 m20 15 lw black 6 lw 1 1 1 c black 3 lw /w 33 def /w2 {w 2 div} def /w3 {w 3 div} def 366 1233 m20 6 lw 3 lw 459 1218 m20 6 lw 3 lw 552 1181 m20 6 lw 3 lw 645 1142 m20 6 lw 3 lw 738 1101 m20 6 lw
 3 lw 831 1075 m20 6 lw 3 lw 924 1042 m20 6 lw 3 lw 1017 1008 m20 6 lw 3 lw 1110 973 m20 6 lw 3 lw 1203 954 m20 6 lw 1296 885 m 4 Y s 3 lw 1296 902 m20 6 lw 1389 829 m 13 Y s 1389 869 m 5 Y s 3 lw 1389 856 m20 6 lw 1482 805 m 19 Y s 1482 851 m 8 Y s
 3 lw 1482 838 m20 6 lw 1575 829 m 13 Y s 1575 869 m 5 Y s 3 lw 1575 856 m20 6 lw 1668 742 m 39 Y s 1668 808 m 15 Y s 3 lw 1668 795 m20 6 lw 1947 584 m 129 Y s 1947 740 m 30 Y s 3 lw 1947 727 m20 6 lw 1296 916 m s 1296 916 m cl s 1296 889 m -4 Y s
 1296 885 m cl s 1389 869 m 6 Y s 1389 875 m cl s 1389 842 m -13 Y s 1389 829 m cl s 1482 851 m 9 Y s 1482 860 m cl s 1482 824 m -17 Y s 1482 807 m cl s 1575 869 m 6 Y s 1575 875 m cl s 1575 842 m -13 Y s 1575 829 m cl s 1668 808 m 17 Y s 1668 825 m
 cl s 1668 781 m -34 Y s 1668 747 m cl s 1947 740 m 38 Y s 1947 778 m cl s 1947 713 m -94 Y s 1947 619 m cl s 3 lw 366 1233 459 1218 552 1181 645 1142 738 1101 831 1075 924 1042 1017 1008 1110 973 1203 954 1296 902 1389 856 1482 838 1575 856 1668 795
 15 { m20} R 6 lw 3 lw 1947 727 m20 6 lw 3 lw 319 584 m 1860 X s 319 584 m cl s 366 584 m cl s 412 584 m cl s 459 584 m cl s 505 584 m cl s 552 584 m cl s 598 584 m cl s 645 584 m cl s 691 584 m cl s 738 584 m cl s 784 584 m cl s 831 584 m cl s 877
 584 m cl s 924 584 m cl s 970 584 m cl s 1017 584 m cl s 1063 584 m cl s 1110 584 m cl s 1156 584 m cl s 1203 584 m cl s 1249 584 m cl s 1296 584 m cl s 1342 584 m cl s 1389 584 m cl s 1435 584 m cl s 1482 584 m cl s 1528 584 m cl s 1575 584 m cl s
 1621 584 m cl s 1668 584 m cl s 1714 584 m cl s 1761 584 m cl s 1807 584 m cl s 1854 584 m cl s 1900 584 m cl s 1947 584 m cl s 1993 584 m cl s 2040 584 m cl s 2086 584 m cl s 2133 584 m cl s 2179 584 m cl s 319 1729 m 1860 X s 319 1729 m cl s 366
 1729 m cl s 412 1729 m cl s 459 1729 m cl s 505 1729 m cl s 552 1729 m cl s 598 1729 m cl s 645 1729 m cl s 691 1729 m cl s 738 1729 m cl s 784 1729 m cl s 831 1729 m cl s 877 1729 m cl s 924 1729 m cl s 970 1729 m cl s 1017 1729 m cl s 1063 1729 m
 cl s 1110 1729 m cl s 1156 1729 m cl s 1203 1729 m cl s 1249 1729 m cl s 1296 1729 m cl s 1342 1729 m cl s 1389 1729 m cl s 1435 1729 m cl s 1482 1729 m cl s 1528 1729 m cl s 1575 1729 m cl s 1621 1729 m cl s 1668 1729 m cl s 1714 1729 m cl s 1761
 1729 m cl s 1807 1729 m cl s 1854 1729 m cl s 1900 1729 m cl s 1947 1729 m cl s 1993 1729 m cl s 2040 1729 m cl s 2086 1729 m cl s 2133 1729 m cl s 2179 1729 m cl s 319 584 m 1145 Y s 341 627 m -22 X s 341 652 m -22 X s 341 670 m -22 X s 341 684 m
 -22 X s 341 695 m -22 X s 341 705 m -22 X s 341 713 m -22 X s 341 720 m -22 X s 363 727 m -44 X s 341 770 m -22 X s 341 795 m -22 X s 341 813 m -22 X s 341 827 m -22 X s 341 838 m -22 X s 341 847 m -22 X s 341 856 m -22 X s 341 863 m -22 X s 363 869
 m -44 X s 341 912 m -22 X s 341 937 m -22 X s 341 955 m -22 X s 341 969 m -22 X s 341 980 m -22 X s 341 990 m -22 X s 341 998 m -22 X s 341 1005 m -22 X s 363 1012 m -44 X s 341 1055 m -22 X s 341 1080 m -22 X s 341 1098 m -22 X s 341 1112 m -22 X s
 341 1123 m -22 X s 341 1133 m -22 X s 341 1141 m -22 X s 341 1148 m -22 X s 363 1155 m -44 X s 341 1198 m -22 X s 341 1223 m -22 X s 341 1240 m -22 X s 341 1254 m -22 X s 341 1266 m -22 X s 341 1275 m -22 X s 341 1283 m -22 X s 341 1291 m -22 X s
 363 1297 m -44 X s 341 1340 m -22 X s 341 1365 m -22 X s 341 1383 m -22 X s 341 1397 m -22 X s 341 1408 m -22 X s 341 1418 m -22 X s 341 1426 m -22 X s 341 1433 m -22 X s 363 1440 m -44 X s 341 1483 m -22 X s 341 1508 m -22 X s 341 1526 m -22 X s
 341 1539 m -22 X s 341 1551 m -22 X s 341 1560 m -22 X s 341 1568 m -22 X s 341 1576 m -22 X s 363 1582 m -44 X s 341 1625 m -22 X s 341 1650 m -22 X s 341 1668 m -22 X s 341 1682 m -22 X s 341 1693 m -22 X s 341 1703 m -22 X s 341 1711 m -22 X s
 341 1718 m -22 X s 363 1725 m -44 X s 2179 584 m 1145 Y s 2157 627 m 22 X s 2157 652 m 22 X s 2157 670 m 22 X s 2157 684 m 22 X s 2157 695 m 22 X s 2157 705 m 22 X s 2157 713 m 22 X s 2157 720 m 22 X s 2136 727 m 43 X s 2157 770 m 22 X s 2157 795 m
 22 X s 2157 813 m 22 X s 2157 827 m 22 X s 2157 838 m 22 X s 2157 847 m 22 X s 2157 856 m 22 X s 2157 863 m 22 X s 2136 869 m 43 X s 2157 912 m 22 X s 2157 937 m 22 X s 2157 955 m 22 X s 2157 969 m 22 X s 2157 980 m 22 X s 2157 990 m 22 X s 2157 998
 m 22 X s 2157 1005 m 22 X s 2136 1012 m 43 X s 2157 1055 m 22 X s 2157 1080 m 22 X s 2157 1098 m 22 X s 2157 1112 m 22 X s 2157 1123 m 22 X s 2157 1133 m 22 X s 2157 1141 m 22 X s 2157 1148 m 22 X s 2136 1155 m 43 X s 2157 1198 m 22 X s 2157 1223 m
 22 X s 2157 1240 m 22 X s 2157 1254 m 22 X s 2157 1266 m 22 X s 2157 1275 m 22 X s 2157 1283 m 22 X s 2157 1291 m 22 X s 2136 1297 m 43 X s 2157 1340 m 22 X s 2157 1365 m 22 X s 2157 1383 m 22 X s 2157 1397 m 22 X s 2157 1408 m 22 X s 2157 1418 m 22
 X s 2157 1426 m 22 X s 2157 1433 m 22 X s 2136 1440 m 43 X s 2157 1483 m 22 X s 2157 1508 m 22 X s 2157 1526 m 22 X s 2157 1539 m 22 X s 2157 1551 m 22 X s 2157 1560 m 22 X s 2157 1568 m 22 X s 2157 1576 m 22 X s 2136 1582 m 43 X s 2157 1625 m 22 X
 s 2157 1650 m 22 X s 2157 1668 m 22 X s 2157 1682 m 22 X s 2157 1693 m 22 X s 2157 1703 m 22 X s 2157 1711 m 22 X s 2157 1718 m 22 X s 2136 1725 m 43 X s
 gsave  2263 1770 2 313 C 406.765 1447.41 t 0 r /Helvetica findfont 64.4212 sf 0 0 m (VR0LmetSig for MB\255SSd) show NC gr 
 gsave  2263 1770 2 313 C 1464.36 1630.45 t 0 r /Helvetica findfont 64.4212 sf 0 0 m (SM Total) show NC gr  1 1 1 c 1338 1616 m 107 X 64 Y -107 X f 1 0 0 c 6 lw 1338 1648 m 107 X s black
 gsave  2263 1770 2 313 C 1464.36 1538.93 t 0 r /Helvetica findfont 64.4212 sf 0 0 m (Data) show NC gr  1391 1529 m 55 Y s 3 lw 1391 1557 m20 6 lw
 gsave  2263 1770 2 313 C 1464.36 1447.41 t 0 r /Helvetica findfont 64.4212 sf 0 0 m (W+jets) show NC gr  0.4 0.6 1 c 3 lw 1338 1434 m 107 X 64 Y -107 X f 6 lw black 3 lw 1338 1498 m 107 X s 1338 1434 m 107 X s 1445 1434 m 64 Y s 1338 1434 m 64 Y s
 gsave  2263 1770 2 313 C 1498.25 1355.88 t 0 r /Helvetica findfont 64.4212 sf 0 0 m (\(+EW\) & single top) show NC gr 
 gsave  2263 1770 2 313 C 1481.3 1355.88 t 0 r /Helvetica findfont 64.4212 sf 0 0 m (t) show NC gr  1481 1407 m 17 X s
 gsave  2263 1770 2 313 C 1464.36 1355.88 t 0 r /Helvetica findfont 64.4212 sf 0 0 m (t) show NC gr  0.6 1 0.6 c 1338 1343 m 107 X 63 Y -107 X f black 1338 1406 m 107 X s 1338 1343 m 107 X s 1445 1343 m 63 Y s 1338 1343 m 63 Y s
 gsave  2263 1770 2 313 C 1464.36 1264.36 t 0 r /Helvetica findfont 64.4212 sf 0 0 m (Z+jets) show NC gr  1 0.8 0.4 c 1338 1252 m 107 X 63 Y -107 X f black 1338 1315 m 107 X s 1338 1252 m 107 X s 1445 1252 m 63 Y s 1338 1252 m 63 Y s
 gsave  2263 1770 2 313 C 1464.36 1172.84 t 0 r /Helvetica findfont 64.4212 sf 0 0 m (Diboson) show NC gr  1 0.4 0.6 c 1338 1161 m 107 X 63 Y -107 X f black 1338 1224 m 107 X s 1338 1161 m 107 X s 1445 1161 m 63 Y s 1338 1161 m 63 Y s
 gsave  2263 1770 2 313 C 1464.36 1081.32 t 0 r /Helvetica findfont 64.4212 sf 0 0 m (Multi\255jet) show NC gr  0 0 0.4 c 1338 1070 m 107 X 63 Y -107 X f black 1338 1133 m 107 X s 1338 1070 m 107 X s 1445 1070 m 63 Y s 1338 1070 m 63 Y s
 gsave  2263 1770 2 313 C 911.832 1566.05 t 0 r /Helvetica findfont 44.0776 sf 0 0 m (\2551) show NC gr 
 gsave  2263 1770 2 313 C 471.17 1535.54 t 0 r /Helvetica findfont 64.4212 sf 0 0 m (=13TeV, 139 fb) show NC gr 
 gsave  2263 1770 2 313 C 440.662 1535.54 t 0 r /Helvetica findfont 64.4212 sf 0 0 m (s) show NC gr  6 lw 420 1573 m 7 -41 d s 3 lw 427 1532 m 7 61 d s 434 1593 m 37 X s 1 1 1 c 2254 561 2 2 bf black 1 1 1 c black 1860 358 318 187 bl 1 1 1 c black
 1860 358 318 187 bl 6 lw 1 1 1 c black 3 lw 364 366 m20 6 lw 3 lw 457 357 m20 6 lw 3 lw 550 355 m20 6 lw 3 lw 643 356 m20 6 lw 3 lw 736 350 m20 6 lw 3 lw 829 370 m20 6 lw 3 lw 923 373 m20 6 lw 3 lw 1016 371 m20 6 lw 3 lw 1109 364 m20 6 lw 3 lw 1202
 401 m20 6 lw 3 lw 1295 350 m20 6 lw 3 lw 1388 308 m20 6 lw 3 lw 1481 324 m20 6 lw 3 lw 1574 470 m20 6 lw 3 lw 1667 362 m20 6 lw 3 lw 1946 374 m20 6 lw 3 lw 318 187 m 1860 X s
 gsave  2254 561 2 2 C 1959.25 33.8971 t 0 r /Helvetica findfont 78.1689 sf 0 0 m ( [GeV]) show NC gr 
 gsave  2254 561 2 2 C 1901.63 13.5588 t 0 r /Helvetica findfont 50.9797 sf 0 0 m (eff) show NC gr 
 gsave  2254 561 2 2 C 1840.61 33.8971 t 0 r /Helvetica findfont 78.1689 sf 0 0 m (m) show NC gr  318 201 m -14 Y s 364 194 m -7 Y s 411 194 m -7 Y s 457 194 m -7 Y s 504 194 m -7 Y s 550 201 m -14 Y s 597 194 m -7 Y s 643 194 m -7 Y s 690 194 m -7 Y
 s 736 194 m -7 Y s 783 201 m -14 Y s 829 194 m -7 Y s 876 194 m -7 Y s 923 194 m -7 Y s 969 194 m -7 Y s 1016 201 m -14 Y s 1062 194 m -7 Y s 1109 194 m -7 Y s 1155 194 m -7 Y s 1202 194 m -7 Y s 1248 201 m -14 Y s 1295 194 m -7 Y s 1341 194 m -7 Y
 s 1388 194 m -7 Y s 1434 194 m -7 Y s 1481 201 m -14 Y s 1527 194 m -7 Y s 1574 194 m -7 Y s 1620 194 m -7 Y s 1667 194 m -7 Y s 1713 201 m -14 Y s 1760 194 m -7 Y s 1806 194 m -7 Y s 1853 194 m -7 Y s 1899 194 m -7 Y s 1946 201 m -14 Y s 1992 194 m
 -7 Y s 2039 194 m -7 Y s 2085 194 m -7 Y s 2132 194 m -7 Y s 2178 201 m -14 Y s
 gsave  2254 561 2 2 C 227.111 118.64 t 0 r /Helvetica findfont 78.1689 sf 0 0 m (1000) show NC gr 
 gsave  2254 561 2 2 C 461.001 118.64 t 0 r /Helvetica findfont 78.1689 sf 0 0 m (1500) show NC gr 
 gsave  2254 561 2 2 C 691.501 118.64 t 0 r /Helvetica findfont 78.1689 sf 0 0 m (2000) show NC gr 
 gsave  2254 561 2 2 C 925.391 118.64 t 0 r /Helvetica findfont 78.1689 sf 0 0 m (2500) show NC gr 
 gsave  2254 561 2 2 C 1159.28 118.64 t 0 r /Helvetica findfont 78.1689 sf 0 0 m (3000) show NC gr 
 gsave  2254 561 2 2 C 1389.78 118.64 t 0 r /Helvetica findfont 78.1689 sf 0 0 m (3500) show NC gr 
 gsave  2254 561 2 2 C 1623.67 118.64 t 0 r /Helvetica findfont 78.1689 sf 0 0 m (4000) show NC gr 
 gsave  2254 561 2 2 C 1857.56 118.64 t 0 r /Helvetica findfont 78.1689 sf 0 0 m (4500) show NC gr 
 gsave  2254 561 2 2 C 2088.06 118.64 t 0 r /Helvetica findfont 78.1689 sf 0 0 m (5000) show NC gr  318 545 m 1860 X s 318 531 m 14 Y s 364 538 m 7 Y s 411 538 m 7 Y s 457 538 m 7 Y s 504 538 m 7 Y s 550 531 m 14 Y s 597 538 m 7 Y s 643 538 m 7 Y s
 690 538 m 7 Y s 736 538 m 7 Y s 783 531 m 14 Y s 829 538 m 7 Y s 876 538 m 7 Y s 923 538 m 7 Y s 969 538 m 7 Y s 1016 531 m 14 Y s 1062 538 m 7 Y s 1109 538 m 7 Y s 1155 538 m 7 Y s 1202 538 m 7 Y s 1248 531 m 14 Y s 1295 538 m 7 Y s 1341 538 m 7 Y
 s 1388 538 m 7 Y s 1434 538 m 7 Y s 1481 531 m 14 Y s 1527 538 m 7 Y s 1574 538 m 7 Y s 1620 538 m 7 Y s 1667 538 m 7 Y s 1713 531 m 14 Y s 1760 538 m 7 Y s 1806 538 m 7 Y s 1853 538 m 7 Y s 1899 538 m 7 Y s 1946 531 m 14 Y s 1992 538 m 7 Y s 2039
 538 m 7 Y s 2085 538 m 7 Y s 2132 538 m 7 Y s 2178 531 m 14 Y s 318 187 m 358 Y s
 gsave  2254 561 2 2 C 166.096 284.736 t 90 r /Helvetica findfont 67.9729 sf 0 0 m (Data/SM) show NC gr  361 203 m -43 X s 339 220 m -21 X s 339 236 m -21 X s 339 252 m -21 X s 339 268 m -21 X s 361 285 m -43 X s 339 301 m -21 X s 339 317 m -21 X s
 339 334 m -21 X s 339 350 m -21 X s 361 366 m -43 X s 339 382 m -21 X s 339 399 m -21 X s 339 415 m -21 X s 339 431 m -21 X s 361 447 m -43 X s 339 464 m -21 X s 339 480 m -21 X s 339 496 m -21 X s 339 512 m -21 X s 361 529 m -43 X s 361 203 m -43 X
 s 339 187 m -21 X s 361 529 m -43 X s
 gsave  2254 561 2 2 C 261.008 183.044 t 0 r /Helvetica findfont 57.777 sf 0 0 m (0) show NC gr 
 gsave  2254 561 2 2 C 213.552 261.008 t 0 r /Helvetica findfont 57.777 sf 0 0 m (0.5) show NC gr 
 gsave  2254 561 2 2 C 271.177 342.361 t 0 r /Helvetica findfont 57.777 sf 0 0 m (1) show NC gr 
 gsave  2254 561 2 2 C 213.552 423.714 t 0 r /Helvetica findfont 57.777 sf 0 0 m (1.5) show NC gr 
 gsave  2254 561 2 2 C 261.008 505.067 t 0 r /Helvetica findfont 57.777 sf 0 0 m (2) show NC gr  2178 187 m 358 Y s 2135 203 m 43 X s 2157 220 m 21 X s 2157 236 m 21 X s 2157 252 m 21 X s 2157 268 m 21 X s 2135 285 m 43 X s 2157 301 m 21 X s 2157 317
 m 21 X s 2157 334 m 21 X s 2157 350 m 21 X s 2135 366 m 43 X s 2157 382 m 21 X s 2157 399 m 21 X s 2157 415 m 21 X s 2157 431 m 21 X s 2135 447 m 43 X s 2157 464 m 21 X s 2157 480 m 21 X s 2157 496 m 21 X s 2157 512 m 21 X s 2135 529 m 43 X s 2135
 203 m 43 X s 2157 187 m 21 X s 2135 529 m 43 X s 9 lw 1016 384 m 4 Y s 1016 388 m cl s 1016 357 m -3 Y s 1016 354 m cl s 1109 378 m 8 Y s 1109 386 m cl s 1109 351 m -9 Y s 1109 342 m cl s 1202 414 m 18 Y s 1202 432 m cl s 1202 387 m -18 Y s 1202 369
 m cl s 1295 364 m 23 Y s 1295 387 m cl s 1295 337 m -22 Y s 1295 315 m cl s 1388 322 m 25 Y s 1388 347 m cl s 1388 295 m -23 Y s 1388 272 m cl s 1481 337 m 38 Y s 1481 375 m cl s 1481 310 m -34 Y s 1481 276 m cl s 1574 483 m 62 Y s 1574 545 m cl s
 1574 456 m -78 Y s 1574 378 m cl s 1667 375 m 87 Y s 1667 462 m cl s 1667 348 m -72 Y s 1667 276 m cl s 1946 387 m 158 Y s 1946 545 m cl s 1946 360 m -127 Y s 1946 233 m cl s 3 lw 364 366 457 357 550 355 643 356 736 350 829 370 923 373 1016 371 1109
 364 1202 401 1295 350 1388 308 1481 324 1574 470 1667 362 15 { m20} R 9 lw 3 lw 1946 374 m20 9 lw 1 0 0 c 6 lw black 3 lw 1 0 0 c 2178 227 m s 2178 255 m s 2178 284 m s 2178 312 m s 2178 341 m -10 -10 d s 2178 369 m -39 -38 d s 2178 398 m -67 -67 d
 s 2153 401 m -74 -73 d s 2124 401 m -73 -73 d s 2096 401 m -74 -73 d s 2070 404 m -77 -76 d s 2041 404 m -74 -73 d s 2012 404 m -73 -73 d s 1981 401 m -71 -70 d s 1952 401 m -59 -58 d s 1923 401 m -58 -58 d s 1883 389 m -47 -46 d s 1854 389 m -47
 -46 d s 1806 342 m -1 Y s 1825 389 m -48 -48 d s 1798 391 m -50 -50 d s 1769 391 m -49 -50 d s 1741 391 m -53 -53 d s 1713 392 m -54 -54 d s 1687 394 m -57 -56 d s 1658 394 m -50 -50 d s 1629 394 m -50 -50 d s 1595 388 m -45 -44 d s 1566 388 m -41
 -40 d s 1537 388 m -40 -40 d s 1505 384 m -37 -36 d s 1476 384 m -37 -36 d s 1447 384 m -32 -32 d s 1414 380 m -28 -28 d s 1386 380 m -28 -28 d s 1357 380 m -27 -27 d s 1327 379 m -26 -26 d s 1298 379 m -25 -26 d s 1270 379 m -23 -23 d s 1238 376 m
 -20 -20 d s 1209 376 m -20 -20 d s 1181 376 m -20 -20 d s 1151 375 m -18 -18 d s 1122 375 m -18 -18 d s 1094 375 m -18 -18 d s 1065 375 m -18 -18 d s 1037 375 m -19 -18 d s 1008 375 m -19 -18 d s 979 375 m -17 -17 d s 949 374 m -16 -16 d s 921 374 m
 -17 -16 d s 892 374 m -16 -16 d s 863 374 m -16 -16 d s 834 374 m -15 -16 d s 806 374 m -16 -16 d s 777 374 m -16 -16 d s 748 374 m -16 -16 d s 720 374 m -16 -16 d s 691 374 m -15 -15 d s 662 373 m -15 -14 d s 633 373 m -15 -14 d s 604 373 m -13 -13
 d s 574 372 m -12 -12 d s 545 372 m -11 -12 d s 517 372 m -12 -12 d s 488 372 m -11 -12 d s 459 372 m -11 -12 d s 318 231 m s 430 372 m -11 -12 d s 318 259 m s 402 372 m -12 -12 d s 318 288 m s 373 372 m -11 -12 d s 318 317 m s 344 372 m -11 -12 d s
 318 345 m s 6 lw black[ 4 8] 0 sd 3 lw 318 447 m 1860 X s 318 285 m 1860 X s 1 0 0 c[  12 12 ] 0 sd 6 lw 318 366 m 1860 X s
 gr  gr showpage
end
%%EOF
