%!PS-Adobe-2.0 EPSF-2.0
%%BoundingBox:  0 0 567 521
%%Title: Distributions/meffInc_distrVR0LdPhi_MB-SSd_beforeFit_forThesis.eps: canvas
%%Creator: ROOT Version 6.04/16
%%CreationDate: Tue May 19 22:04:44 2020
%%DocumentNeededResources: ProcSet (FontSetInit)
%%EndComments
%%BeginProlog
80 dict begin
/s {stroke} def /l {lineto} def /m {moveto} def /t {translate} def
/r {rotate} def /rl {roll}  def /R {repeat} def
/d {rlineto} def /rm {rmoveto} def /gr {grestore} def /f {eofill} def
/c {setrgbcolor} def /black {0 setgray} def /sd {setdash} def
/cl {closepath} def /sf {scalefont setfont} def /lw {setlinewidth} def
/box {m dup 0 exch d exch 0 d 0 exch neg d cl} def
/NC{systemdict begin initclip end}def/C{NC box clip newpath}def
/bl {box s} def /bf {gsave box gsave f grestore 1 lw [] 0 sd s grestore} def /Y { 0 exch d} def /X { 0 d} def 
/K {{pop pop 0 moveto} exch kshow} bind def
/ita {/ang 15 def gsave [1 0 ang dup sin exch cos div 1 0 0] concat} def 
/mp {newpath /y exch def /x exch def} def
/side {[w .77 mul w .23 mul] .385 w mul sd w 0 l currentpoint t -144 r} def
/mr {mp x y w2 0 360 arc} def /m24 {mr s} def /m20 {mr f} def
/mb {mp x y w2 add m w2 neg 0 d 0 w neg d w 0 d 0 w d cl} def
/mt {mp x y w2 add m w2 neg w neg d w 0 d cl} def
/m21 {mb f} def /m25 {mb s} def /m22 {mt f} def /m26{mt s} def
/m23 {mp x y w2 sub m w2 w d w neg 0 d cl f} def
/m27 {mp x y w2 add m w3 neg w2 neg d w3 w2 neg d w3 w2 d cl s} def
/m28 {mp x w2 sub y w2 sub w3 add m w3 0 d  0 w3 neg d w3 0 d 0 w3 d w3 0 d  0 w3 d w3 neg 0 d 0 w3 d w3 neg 0 d 0 w3 neg d w3 neg 0 d cl s } def
/m29 {mp gsave x w2 sub y w2 add w3 sub m currentpoint t 4 {side} repeat cl fill gr} def
/m30 {mp gsave x w2 sub y w2 add w3 sub m currentpoint t 4 {side} repeat cl s gr} def
/m31 {mp x y w2 sub m 0 w d x w2 sub y m w 0 d x w2 sub y w2 add m w w neg d x w2 sub y w2 sub m w w d s} def
/m32 {mp x y w2 sub m w2 w d w neg 0 d cl s} def
/m33 {mp x y w2 add m w3 neg w2 neg d w3 w2 neg d w3 w2 d cl f} def
/m34 {mp x w2 sub y w2 sub w3 add m w3 0 d  0 w3 neg d w3 0 d 0 w3 d w3 0 d  0 w3 d w3 neg 0 d 0 w3 d w3 neg 0 d 0 w3 neg d w3 neg 0 d cl f } def
/m2 {mp x y w2 sub m 0 w d x w2 sub y m w 0 d s} def
/m5 {mp x w2 sub y w2 sub m w w d x w2 sub y w2 add m w w neg d s} def
%%IncludeResource: ProcSet (FontSetInit)
%%IncludeResource: font Times-Roman
%%IncludeResource: font Times-Italic
%%IncludeResource: font Times-Bold
%%IncludeResource: font Times-BoldItalic
%%IncludeResource: font Helvetica
%%IncludeResource: font Helvetica-Oblique
%%IncludeResource: font Helvetica-Bold
%%IncludeResource: font Helvetica-BoldOblique
%%IncludeResource: font Courier
%%IncludeResource: font Courier-Oblique
%%IncludeResource: font Courier-Bold
%%IncludeResource: font Courier-BoldOblique
%%IncludeResource: font Symbol
%%IncludeResource: font ZapfDingbats
/reEncode {exch findfont dup length dict begin {1 index /FID eq  {pop pop} {def} ifelse } forall /Encoding exch def currentdict end dup /FontName get exch definefont pop } def [/Times-Bold /Times-Italic /Times-BoldItalic /Helvetica /Helvetica-Oblique
 /Helvetica-Bold /Helvetica-BoldOblique /Courier /Courier-Oblique /Courier-Bold /Courier-BoldOblique /Times-Roman /AvantGarde-Book /AvantGarde-BookOblique /AvantGarde-Demi /AvantGarde-DemiOblique /Bookman-Demi /Bookman-DemiItalic /Bookman-Light
 /Bookman-LightItalic /Helvetica-Narrow /Helvetica-Narrow-Bold /Helvetica-Narrow-BoldOblique /Helvetica-Narrow-Oblique /NewCenturySchlbk-Roman /NewCenturySchlbk-Bold /NewCenturySchlbk-BoldItalic /NewCenturySchlbk-Italic /Palatino-Bold
 /Palatino-BoldItalic /Palatino-Italic /Palatino-Roman ] {ISOLatin1Encoding reEncode } forall
%%EndProlog
%%BeginSetup
%%EndSetup
newpath  gsave  .25 .25 scale  gsave  0 0 t black[  ] 0 sd 3 lw 1 1 1 c 2268 2085 0 0 bf black 1 1 1 c 2263 1770 2 313 bf black 1 1 1 c black 1860 1145 319 584 bl 1 1 1 c black 1860 1145 319 584 bl 6 lw 1 1 1 c black 3 lw /w 33 def /w2 {w 2 div} def
 /w3 {w 3 div} def 459 1165 m20 6 lw 3 lw 552 1181 m20 6 lw 3 lw 645 1150 m20 6 lw 3 lw 738 1112 m20 6 lw 3 lw 831 1066 m20 6 lw 3 lw 924 1026 m20 6 lw 1017 946 m 1 Y s 3 lw 1017 961 m20 6 lw 1110 911 m 6 Y s 1110 944 m 2 Y s 3 lw 1110 931 m20 6 lw
 1203 894 m 9 Y s 1203 930 m 3 Y s 3 lw 1203 916 m20 6 lw 1296 789 m 33 Y s 1296 850 m 14 Y s 3 lw 1296 836 m20 6 lw 1389 705 m 70 Y s 1389 802 m 23 Y s 3 lw 1389 789 m20 6 lw 1482 758 m 45 Y s 1482 830 m 17 Y s 3 lw 1482 816 m20 6 lw 1947 584 m 144
 Y s 1947 755 m 34 Y s 3 lw 1947 741 m20 6 lw 3 lw 319 584 m 1860 X s
 gsave  2263 1770 2 313 C 1949.08 369.478 t 0 r /Helvetica findfont 81.3741 sf 0 0 m ( [GeV]) show NC gr 
 gsave  2263 1770 2 313 C 1888.07 342.361 t 0 r /Helvetica findfont 54.2494 sf 0 0 m (eff) show NC gr 
 gsave  2263 1770 2 313 C 1823.66 369.478 t 0 r /Helvetica findfont 81.3741 sf 0 0 m (m) show NC gr  319 584 m cl s 366 584 m cl s 412 584 m cl s 459 584 m cl s 505 584 m cl s 552 584 m cl s 598 584 m cl s 645 584 m cl s 691 584 m cl s 738 584 m cl s
 784 584 m cl s 831 584 m cl s 877 584 m cl s 924 584 m cl s 970 584 m cl s 1017 584 m cl s 1063 584 m cl s 1110 584 m cl s 1156 584 m cl s 1203 584 m cl s 1249 584 m cl s 1296 584 m cl s 1342 584 m cl s 1389 584 m cl s 1435 584 m cl s 1482 584 m cl
 s 1528 584 m cl s 1575 584 m cl s 1621 584 m cl s 1668 584 m cl s 1714 584 m cl s 1761 584 m cl s 1807 584 m cl s 1854 584 m cl s 1900 584 m cl s 1947 584 m cl s 1993 584 m cl s 2040 584 m cl s 2086 584 m cl s 2133 584 m cl s 2179 584 m cl s 319
 1729 m 1860 X s 319 1729 m cl s 366 1729 m cl s 412 1729 m cl s 459 1729 m cl s 505 1729 m cl s 552 1729 m cl s 598 1729 m cl s 645 1729 m cl s 691 1729 m cl s 738 1729 m cl s 784 1729 m cl s 831 1729 m cl s 877 1729 m cl s 924 1729 m cl s 970 1729
 m cl s 1017 1729 m cl s 1063 1729 m cl s 1110 1729 m cl s 1156 1729 m cl s 1203 1729 m cl s 1249 1729 m cl s 1296 1729 m cl s 1342 1729 m cl s 1389 1729 m cl s 1435 1729 m cl s 1482 1729 m cl s 1528 1729 m cl s 1575 1729 m cl s 1621 1729 m cl s 1668
 1729 m cl s 1714 1729 m cl s 1761 1729 m cl s 1807 1729 m cl s 1854 1729 m cl s 1900 1729 m cl s 1947 1729 m cl s 1993 1729 m cl s 2040 1729 m cl s 2086 1729 m cl s 2133 1729 m cl s 2179 1729 m cl s 319 584 m 1145 Y s
 gsave  2263 1770 2 313 C 166.096 1091.49 t 90 r /Helvetica findfont 81.3741 sf 0 0 m (Events / 200 GeV) show NC gr  341 632 m -22 X s 341 659 m -22 X s 341 679 m -22 X s 341 694 m -22 X s 341 707 m -22 X s 341 717 m -22 X s 341 726 m -22 X s 341 734
 m -22 X s 363 741 m -44 X s
 gsave  2263 1770 2 313 C 300.555 714.301 t 0 r  -36 0 t /Helvetica findfont 64.4212 sf 0 0 m (1) show NC gr  341 789 m -22 X s 341 816 m -22 X s 341 836 m -22 X s 341 851 m -22 X s 341 864 m -22 X s 341 874 m -22 X s 341 883 m -22 X s 341 891 m -22
 X s 363 899 m -44 X s
 gsave  2263 1770 2 313 C 300.555 871.411 t 0 r  -73 0 t /Helvetica findfont 64.4212 sf 0 0 m (10) show NC gr  341 946 m -22 X s 341 973 m -22 X s 341 993 m -22 X s 341 1008 m -22 X s 341 1021 m -22 X s 341 1031 m -22 X s 341 1040 m -22 X s 341 1048
 m -22 X s 363 1056 m -44 X s
 gsave  2263 1770 2 313 C 274.567 1054.2 t 0 r /Helvetica findfont 44.0776 sf 0 0 m (2) show NC gr 
 gsave  2263 1770 2 313 C 203.383 1027.08 t 0 r /Helvetica findfont 64.4212 sf 0 0 m (10) show NC gr  341 1103 m -22 X s 341 1131 m -22 X s 341 1150 m -22 X s 341 1165 m -22 X s 341 1178 m -22 X s 341 1188 m -22 X s 341 1198 m -22 X s 341 1206 m -22
 X s 363 1213 m -44 X s
 gsave  2263 1770 2 313 C 274.567 1213.52 t 0 r /Helvetica findfont 44.0776 sf 0 0 m (3) show NC gr 
 gsave  2263 1770 2 313 C 203.383 1183.01 t 0 r /Helvetica findfont 64.4212 sf 0 0 m (10) show NC gr  341 1260 m -22 X s 341 1288 m -22 X s 341 1307 m -22 X s 341 1323 m -22 X s 341 1335 m -22 X s 341 1346 m -22 X s 341 1355 m -22 X s 341 1363 m -22
 X s 363 1370 m -44 X s
 gsave  2263 1770 2 313 C 274.567 1369.44 t 0 r /Helvetica findfont 44.0776 sf 0 0 m (4) show NC gr 
 gsave  2263 1770 2 313 C 203.383 1342.33 t 0 r /Helvetica findfont 64.4212 sf 0 0 m (10) show NC gr  341 1417 m -22 X s 341 1445 m -22 X s 341 1464 m -22 X s 341 1480 m -22 X s 341 1492 m -22 X s 341 1503 m -22 X s 341 1512 m -22 X s 341 1520 m -22
 X s 363 1527 m -44 X s
 gsave  2263 1770 2 313 C 274.567 1528.76 t 0 r /Helvetica findfont 44.0776 sf 0 0 m (5) show NC gr 
 gsave  2263 1770 2 313 C 203.383 1498.25 t 0 r /Helvetica findfont 64.4212 sf 0 0 m (10) show NC gr  341 1574 m -22 X s 341 1602 m -22 X s 341 1622 m -22 X s 341 1637 m -22 X s 341 1649 m -22 X s 341 1660 m -22 X s 341 1669 m -22 X s 341 1677 m -22
 X s 363 1684 m -44 X s
 gsave  2263 1770 2 313 C 274.567 1684.69 t 0 r /Helvetica findfont 44.0776 sf 0 0 m (6) show NC gr 
 gsave  2263 1770 2 313 C 203.383 1654.18 t 0 r /Helvetica findfont 64.4212 sf 0 0 m (10) show NC gr  2179 584 m 1145 Y s 2157 632 m 22 X s 2157 659 m 22 X s 2157 679 m 22 X s 2157 694 m 22 X s 2157 707 m 22 X s 2157 717 m 22 X s 2157 726 m 22 X s
 2157 734 m 22 X s 2136 741 m 43 X s 2157 789 m 22 X s 2157 816 m 22 X s 2157 836 m 22 X s 2157 851 m 22 X s 2157 864 m 22 X s 2157 874 m 22 X s 2157 883 m 22 X s 2157 891 m 22 X s 2136 899 m 43 X s 2157 946 m 22 X s 2157 973 m 22 X s 2157 993 m 22 X
 s 2157 1008 m 22 X s 2157 1021 m 22 X s 2157 1031 m 22 X s 2157 1040 m 22 X s 2157 1048 m 22 X s 2136 1056 m 43 X s 2157 1103 m 22 X s 2157 1131 m 22 X s 2157 1150 m 22 X s 2157 1165 m 22 X s 2157 1178 m 22 X s 2157 1188 m 22 X s 2157 1198 m 22 X s
 2157 1206 m 22 X s 2136 1213 m 43 X s 2157 1260 m 22 X s 2157 1288 m 22 X s 2157 1307 m 22 X s 2157 1323 m 22 X s 2157 1335 m 22 X s 2157 1346 m 22 X s 2157 1355 m 22 X s 2157 1363 m 22 X s 2136 1370 m 43 X s 2157 1417 m 22 X s 2157 1445 m 22 X s
 2157 1464 m 22 X s 2157 1480 m 22 X s 2157 1492 m 22 X s 2157 1503 m 22 X s 2157 1512 m 22 X s 2157 1520 m 22 X s 2136 1527 m 43 X s 2157 1574 m 22 X s 2157 1602 m 22 X s 2157 1622 m 22 X s 2157 1637 m 22 X s 2157 1649 m 22 X s 2157 1660 m 22 X s
 2157 1669 m 22 X s 2157 1677 m 22 X s 2136 1684 m 43 X s 0.4 0.6 1 c black 0.4 0.6 1 c 319 584 m 93 X 580 Y 93 X 18 Y 93 X -21 Y 93 X -50 Y 93 X -44 Y 93 X -44 Y 93 X -44 Y 93 X -34 Y 93 X -39 Y 93 X -55 Y 93 X -31 Y 93 X -32 Y 93 X -36 Y 93 X -4 Y
 93 X -9 Y 93 X -76 Y 93 X -37 Y 93 X 41 Y 93 X -37 Y 93 X -46 Y f black 0.4 0.6 1 c black 319 584 m 93 X 580 Y 93 X 18 Y 93 X -21 Y 93 X -50 Y 93 X -44 Y 93 X -44 Y 93 X -44 Y 93 X -34 Y 93 X -39 Y 93 X -55 Y 93 X -31 Y 93 X -32 Y 93 X -36 Y 93 X -4
 Y 93 X -9 Y 93 X -76 Y 93 X -37 Y 93 X 41 Y 93 X -37 Y 93 X s 0.999 0.999 0.999 c black 0.999 0.999 0.999 c 319 584 m 93 X 554 Y 93 X 17 Y 93 X -20 Y 93 X -50 Y 93 X -43 Y 93 X -44 Y 93 X -42 Y 93 X -35 Y 93 X -40 Y 93 X -69 Y 93 X -16 Y 93 X -26 Y
 93 X -54 Y 93 X 22 Y 93 X -14 Y 93 X -93 Y 93 X -31 Y 93 X 55 Y 93 X -45 Y 93 X -26 Y f black 0.999 0.999 0.999 c black 319 584 m 93 X 554 Y 93 X 17 Y 93 X -20 Y 93 X -50 Y 93 X -43 Y 93 X -44 Y 93 X -42 Y 93 X -35 Y 93 X -40 Y 93 X -69 Y 93 X -16 Y
 93 X -26 Y 93 X -54 Y 93 X 22 Y 93 X -14 Y 93 X -93 Y 93 X -31 Y 93 X 55 Y 93 X -45 Y 93 X s 1 1 1 c black 319 584 m 93 X 554 Y 93 X 17 Y 93 X -20 Y 93 X -50 Y 93 X -43 Y 93 X -44 Y 93 X -42 Y 93 X -35 Y 93 X -40 Y 93 X -69 Y 93 X -16 Y 93 X -26 Y
 93 X -54 Y 93 X 22 Y 93 X -14 Y 93 X -93 Y 93 X -31 Y 93 X 55 Y 93 X -45 Y 93 X s 0.6 1 0.6 c black 0.6 1 0.6 c 319 584 m 93 X 554 Y 93 X 17 Y 93 X -20 Y 93 X -50 Y 93 X -43 Y 93 X -44 Y 93 X -42 Y 93 X -35 Y 93 X -40 Y 93 X -69 Y 93 X -16 Y 93 X
 -26 Y 93 X -54 Y 93 X 22 Y 93 X -14 Y 93 X -93 Y 93 X -31 Y 93 X 55 Y 93 X -45 Y 93 X -26 Y f black 0.6 1 0.6 c black 319 584 m 93 X 554 Y 93 X 17 Y 93 X -20 Y 93 X -50 Y 93 X -43 Y 93 X -44 Y 93 X -42 Y 93 X -35 Y 93 X -40 Y 93 X -69 Y 93 X -16 Y
 93 X -26 Y 93 X -54 Y 93 X 22 Y 93 X -14 Y 93 X -93 Y 93 X -31 Y 93 X 55 Y 93 X -45 Y 93 X s 0.999 0.999 0.999 c black 0.999 0.999 0.999 c 319 584 m 93 X 540 Y 93 X 18 Y 93 X -19 Y 93 X -50 Y 93 X -41 Y 93 X -44 Y 93 X -40 Y 93 X -34 Y 93 X -42 Y 93
 X -68 Y 93 X -12 Y 93 X -24 Y 93 X -59 Y 93 X 29 Y 93 X -15 Y 93 X -92 Y 93 X -31 Y 93 X 54 Y 93 X -50 Y 93 X -20 Y f black 0.999 0.999 0.999 c black 319 584 m 93 X 540 Y 93 X 18 Y 93 X -19 Y 93 X -50 Y 93 X -41 Y 93 X -44 Y 93 X -40 Y 93 X -34 Y 93
 X -42 Y 93 X -68 Y 93 X -12 Y 93 X -24 Y 93 X -59 Y 93 X 29 Y 93 X -15 Y 93 X -92 Y 93 X -31 Y 93 X 54 Y 93 X -50 Y 93 X s 1 1 1 c black 319 584 m 93 X 540 Y 93 X 18 Y 93 X -19 Y 93 X -50 Y 93 X -41 Y 93 X -44 Y 93 X -40 Y 93 X -34 Y 93 X -42 Y 93 X
 -68 Y 93 X -12 Y 93 X -24 Y 93 X -59 Y 93 X 29 Y 93 X -15 Y 93 X -92 Y 93 X -31 Y 93 X 54 Y 93 X -50 Y 93 X s 1 0.8 0.4 c black 1 0.8 0.4 c 319 584 m 93 X 540 Y 93 X 18 Y 93 X -19 Y 93 X -50 Y 93 X -41 Y 93 X -44 Y 93 X -40 Y 93 X -34 Y 93 X -42 Y
 93 X -68 Y 93 X -12 Y 93 X -24 Y 93 X -59 Y 93 X 29 Y 93 X -15 Y 93 X -92 Y 93 X -31 Y 93 X 54 Y 93 X -50 Y 93 X -20 Y f black 1 0.8 0.4 c black 319 584 m 93 X 540 Y 93 X 18 Y 93 X -19 Y 93 X -50 Y 93 X -41 Y 93 X -44 Y 93 X -40 Y 93 X -34 Y 93 X
 -42 Y 93 X -68 Y 93 X -12 Y 93 X -24 Y 93 X -59 Y 93 X 29 Y 93 X -15 Y 93 X -92 Y 93 X -31 Y 93 X 54 Y 93 X -50 Y 93 X s 0.999 0.999 0.999 c black 0.999 0.999 0.999 c 319 584 m 93 X 372 Y 93 X 26 Y 93 X -22 Y 93 X -42 Y 93 X -48 Y 93 X -37 Y 93 X
 -38 Y 93 X -36 Y 93 X -56 Y 93 X -75 Y 93 X -44 Y 837 X f black 0.999 0.999 0.999 c black 319 584 m 93 X 372 Y 93 X 26 Y 93 X -22 Y 93 X -42 Y 93 X -48 Y 93 X -37 Y 93 X -38 Y 93 X -36 Y 93 X -56 Y 93 X -75 Y 93 X -44 Y 837 X s 1 1 1 c black 319 584
 m 93 X 372 Y 93 X 26 Y 93 X -22 Y 93 X -42 Y 93 X -48 Y 93 X -37 Y 93 X -38 Y 93 X -36 Y 93 X -56 Y 93 X -75 Y 93 X -44 Y 837 X s 1 0.4 0.6 c black 1 0.4 0.6 c 319 584 m 93 X 372 Y 93 X 26 Y 93 X -22 Y 93 X -42 Y 93 X -48 Y 93 X -37 Y 93 X -38 Y 93
 X -36 Y 93 X -56 Y 93 X -75 Y 93 X -44 Y 837 X f black 1 0.4 0.6 c black 319 584 m 93 X 372 Y 93 X 26 Y 93 X -22 Y 93 X -42 Y 93 X -48 Y 93 X -37 Y 93 X -38 Y 93 X -36 Y 93 X -56 Y 93 X -75 Y 93 X -44 Y 837 X s 0.999 0.999 0.999 c black 0.999 0.999
 0.999 c 319 584 m 93 X 275 Y 93 X 7 Y 93 X -25 Y 93 X -94 Y 93 X -15 Y 93 X -75 Y 93 X -55 Y 93 X -18 Y 1116 X f black 0.999 0.999 0.999 c black 319 584 m 93 X 275 Y 93 X 7 Y 93 X -25 Y 93 X -94 Y 93 X -15 Y 93 X -75 Y 93 X -55 Y 93 X -18 Y 1116 X s
 1 1 1 c black 319 584 m 93 X 275 Y 93 X 7 Y 93 X -25 Y 93 X -94 Y 93 X -15 Y 93 X -75 Y 93 X -55 Y 93 X -18 Y 1116 X s 0 0 0.4 c black 0 0 0.4 c 319 584 m 93 X 275 Y 93 X 7 Y 93 X -25 Y 93 X -94 Y 93 X -15 Y 93 X -75 Y 93 X -55 Y 93 X -18 Y 1116 X f
 black 0 0 0.4 c black 319 584 m 93 X 275 Y 93 X 7 Y 93 X -25 Y 93 X -94 Y 93 X -15 Y 93 X -75 Y 93 X -55 Y 93 X -18 Y 1116 X s 1 0 0 c 6 lw 1 1 1 c black 1 0 0 c 319 584 m 93 X 580 Y 93 X 18 Y 93 X -21 Y 93 X -50 Y 93 X -44 Y 93 X -44 Y 93 X -44 Y
 93 X -34 Y 93 X -39 Y 93 X -55 Y 93 X -31 Y 93 X -32 Y 93 X -36 Y 93 X -4 Y 93 X -9 Y 93 X -76 Y 93 X -37 Y 93 X 41 Y 93 X -37 Y 93 X s black 3 lw 1 0 0 c 1 lw << /PatternType 1 /PaintType 2 /TilingType 1 /BBox [ 0 0 100 100 ] /XStep 100 /YStep 100
 /PaintProc { begin gsave 0 100 m 100 0 l s gr end } >> [ 0.24 0 0 0.24 0 0 ] makepattern /P05 exch def /cs {[/Pattern /DeviceRGB] setcolorspace} def /FA {f [/DeviceRGB] setcolorspace} def cs 1 0 0 P05 setcolor 412 584 m 584 Y 93 X 18 Y 93 X -22 Y 93
 X -49 Y 93 X -44 Y 93 X -44 Y 93 X -43 Y 93 X -34 Y 93 X -35 Y 93 X -56 Y 93 X -28 Y 93 X -27 Y 93 X -34 Y 93 X 2 Y 93 X -7 Y 93 X -67 Y 93 X -25 Y 93 X 25 Y 93 X -40 Y 93 X -74 Y -93 X 28 Y -93 X -28 Y -93 X 1 Y -93 X 114 Y -93 X 13 Y -93 X 17 Y
 -93 X 40 Y -93 X 37 Y -93 X 36 Y -93 X 53 Y -93 X 44 Y -93 X 35 Y -93 X 44 Y -93 X 45 Y -93 X 44 Y -93 X 50 Y -93 X 21 Y -93 X -19 Y -93 X -575 Y FA 6 lw 1 1 1 c 15 lw 1203 896 m -1 Y s 1203 895 m cl s 1296 856 m 9 Y s 1296 865 m cl s 1296 816 m -24
 Y s 1296 792 m cl s 1389 809 m 20 Y s 1389 829 m cl s 1389 768 m -50 Y s 1389 718 m cl s 1482 837 m 13 Y s 1482 850 m cl s 1482 796 m -33 Y s 1482 763 m cl s 1947 762 m 36 Y s 1947 798 m cl s 1947 721 m -99 Y s 1947 622 m cl s black 1 1 1 c 3 lw /w
 43 def /w2 {w 2 div} def /w3 {w 3 div} def 459 1165 552 1181 645 1150 738 1112 831 1066 924 1026 1017 961 1110 931 1203 916 1296 836 1389 789 1482 816 12 { m20} R 15 lw 3 lw 1947 741 m20 15 lw black 6 lw 1 1 1 c black 3 lw /w 33 def /w2 {w 2 div}
 def /w3 {w 3 div} def 459 1165 m20 6 lw 3 lw 552 1181 m20 6 lw 3 lw 645 1150 m20 6 lw 3 lw 738 1112 m20 6 lw 3 lw 831 1066 m20 6 lw 3 lw 924 1026 m20 6 lw 1017 946 m 1 Y s 3 lw 1017 961 m20 6 lw 1110 911 m 6 Y s 1110 944 m 2 Y s 3 lw 1110 931 m20 6
 lw 1203 894 m 9 Y s 1203 930 m 3 Y s 3 lw 1203 916 m20 6 lw 1296 789 m 33 Y s 1296 850 m 14 Y s 3 lw 1296 836 m20 6 lw 1389 705 m 70 Y s 1389 802 m 23 Y s 3 lw 1389 789 m20 6 lw 1482 758 m 45 Y s 1482 830 m 17 Y s 3 lw 1482 816 m20 6 lw 1947 584 m
 144 Y s 1947 755 m 34 Y s 3 lw 1947 741 m20 6 lw 1017 947 m -1 Y s 1017 946 m cl s 1110 944 m 2 Y s 1110 946 m cl s 1110 917 m -6 Y s 1110 911 m cl s 1203 930 m 3 Y s 1203 933 m cl s 1203 903 m -8 Y s 1203 895 m cl s 1296 850 m 15 Y s 1296 865 m cl
 s 1296 822 m -30 Y s 1296 792 m cl s 1389 802 m 27 Y s 1389 829 m cl s 1389 775 m -57 Y s 1389 718 m cl s 1482 830 m 20 Y s 1482 850 m cl s 1482 803 m -40 Y s 1482 763 m cl s 1947 755 m 43 Y s 1947 798 m cl s 1947 728 m -106 Y s 1947 622 m cl s 3 lw
 459 1165 552 1181 645 1150 738 1112 831 1066 924 1026 1017 961 1110 931 1203 916 1296 836 1389 789 1482 816 12 { m20} R 6 lw 3 lw 1947 741 m20 6 lw 3 lw 319 584 m 1860 X s 319 584 m cl s 366 584 m cl s 412 584 m cl s 459 584 m cl s 505 584 m cl s
 552 584 m cl s 598 584 m cl s 645 584 m cl s 691 584 m cl s 738 584 m cl s 784 584 m cl s 831 584 m cl s 877 584 m cl s 924 584 m cl s 970 584 m cl s 1017 584 m cl s 1063 584 m cl s 1110 584 m cl s 1156 584 m cl s 1203 584 m cl s 1249 584 m cl s
 1296 584 m cl s 1342 584 m cl s 1389 584 m cl s 1435 584 m cl s 1482 584 m cl s 1528 584 m cl s 1575 584 m cl s 1621 584 m cl s 1668 584 m cl s 1714 584 m cl s 1761 584 m cl s 1807 584 m cl s 1854 584 m cl s 1900 584 m cl s 1947 584 m cl s 1993 584
 m cl s 2040 584 m cl s 2086 584 m cl s 2133 584 m cl s 2179 584 m cl s 319 1729 m 1860 X s 319 1729 m cl s 366 1729 m cl s 412 1729 m cl s 459 1729 m cl s 505 1729 m cl s 552 1729 m cl s 598 1729 m cl s 645 1729 m cl s 691 1729 m cl s 738 1729 m cl
 s 784 1729 m cl s 831 1729 m cl s 877 1729 m cl s 924 1729 m cl s 970 1729 m cl s 1017 1729 m cl s 1063 1729 m cl s 1110 1729 m cl s 1156 1729 m cl s 1203 1729 m cl s 1249 1729 m cl s 1296 1729 m cl s 1342 1729 m cl s 1389 1729 m cl s 1435 1729 m cl
 s 1482 1729 m cl s 1528 1729 m cl s 1575 1729 m cl s 1621 1729 m cl s 1668 1729 m cl s 1714 1729 m cl s 1761 1729 m cl s 1807 1729 m cl s 1854 1729 m cl s 1900 1729 m cl s 1947 1729 m cl s 1993 1729 m cl s 2040 1729 m cl s 2086 1729 m cl s 2133 1729
 m cl s 2179 1729 m cl s 319 584 m 1145 Y s 341 632 m -22 X s 341 659 m -22 X s 341 679 m -22 X s 341 694 m -22 X s 341 707 m -22 X s 341 717 m -22 X s 341 726 m -22 X s 341 734 m -22 X s 363 741 m -44 X s 341 789 m -22 X s 341 816 m -22 X s 341 836
 m -22 X s 341 851 m -22 X s 341 864 m -22 X s 341 874 m -22 X s 341 883 m -22 X s 341 891 m -22 X s 363 899 m -44 X s 341 946 m -22 X s 341 973 m -22 X s 341 993 m -22 X s 341 1008 m -22 X s 341 1021 m -22 X s 341 1031 m -22 X s 341 1040 m -22 X s
 341 1048 m -22 X s 363 1056 m -44 X s 341 1103 m -22 X s 341 1131 m -22 X s 341 1150 m -22 X s 341 1165 m -22 X s 341 1178 m -22 X s 341 1188 m -22 X s 341 1198 m -22 X s 341 1206 m -22 X s 363 1213 m -44 X s 341 1260 m -22 X s 341 1288 m -22 X s
 341 1307 m -22 X s 341 1323 m -22 X s 341 1335 m -22 X s 341 1346 m -22 X s 341 1355 m -22 X s 341 1363 m -22 X s 363 1370 m -44 X s 341 1417 m -22 X s 341 1445 m -22 X s 341 1464 m -22 X s 341 1480 m -22 X s 341 1492 m -22 X s 341 1503 m -22 X s
 341 1512 m -22 X s 341 1520 m -22 X s 363 1527 m -44 X s 341 1574 m -22 X s 341 1602 m -22 X s 341 1622 m -22 X s 341 1637 m -22 X s 341 1649 m -22 X s 341 1660 m -22 X s 341 1669 m -22 X s 341 1677 m -22 X s 363 1684 m -44 X s 2179 584 m 1145 Y s
 2157 632 m 22 X s 2157 659 m 22 X s 2157 679 m 22 X s 2157 694 m 22 X s 2157 707 m 22 X s 2157 717 m 22 X s 2157 726 m 22 X s 2157 734 m 22 X s 2136 741 m 43 X s 2157 789 m 22 X s 2157 816 m 22 X s 2157 836 m 22 X s 2157 851 m 22 X s 2157 864 m 22 X
 s 2157 874 m 22 X s 2157 883 m 22 X s 2157 891 m 22 X s 2136 899 m 43 X s 2157 946 m 22 X s 2157 973 m 22 X s 2157 993 m 22 X s 2157 1008 m 22 X s 2157 1021 m 22 X s 2157 1031 m 22 X s 2157 1040 m 22 X s 2157 1048 m 22 X s 2136 1056 m 43 X s 2157
 1103 m 22 X s 2157 1131 m 22 X s 2157 1150 m 22 X s 2157 1165 m 22 X s 2157 1178 m 22 X s 2157 1188 m 22 X s 2157 1198 m 22 X s 2157 1206 m 22 X s 2136 1213 m 43 X s 2157 1260 m 22 X s 2157 1288 m 22 X s 2157 1307 m 22 X s 2157 1323 m 22 X s 2157
 1335 m 22 X s 2157 1346 m 22 X s 2157 1355 m 22 X s 2157 1363 m 22 X s 2136 1370 m 43 X s 2157 1417 m 22 X s 2157 1445 m 22 X s 2157 1464 m 22 X s 2157 1480 m 22 X s 2157 1492 m 22 X s 2157 1503 m 22 X s 2157 1512 m 22 X s 2157 1520 m 22 X s 2136
 1527 m 43 X s 2157 1574 m 22 X s 2157 1602 m 22 X s 2157 1622 m 22 X s 2157 1637 m 22 X s 2157 1649 m 22 X s 2157 1660 m 22 X s 2157 1669 m 22 X s 2157 1677 m 22 X s 2136 1684 m 43 X s
 gsave  2263 1770 2 313 C 406.765 1447.41 t 0 r /Helvetica findfont 64.4212 sf 0 0 m (VR0LdPhi for MB\255SSd) show NC gr 
 gsave  2263 1770 2 313 C 1464.36 1630.45 t 0 r /Helvetica findfont 64.4212 sf 0 0 m (SM Total) show NC gr  1 1 1 c 1338 1616 m 107 X 64 Y -107 X f 1 0 0 c 6 lw 1338 1648 m 107 X s black
 gsave  2263 1770 2 313 C 1464.36 1538.93 t 0 r /Helvetica findfont 64.4212 sf 0 0 m (Data) show NC gr  1391 1529 m 55 Y s 3 lw 1391 1557 m20 6 lw
 gsave  2263 1770 2 313 C 1464.36 1447.41 t 0 r /Helvetica findfont 64.4212 sf 0 0 m (W+jets) show NC gr  0.4 0.6 1 c 3 lw 1338 1434 m 107 X 64 Y -107 X f 6 lw black 3 lw 1338 1498 m 107 X s 1338 1434 m 107 X s 1445 1434 m 64 Y s 1338 1434 m 64 Y s
 gsave  2263 1770 2 313 C 1498.25 1355.88 t 0 r /Helvetica findfont 64.4212 sf 0 0 m (\(+EW\) & single top) show NC gr 
 gsave  2263 1770 2 313 C 1481.3 1355.88 t 0 r /Helvetica findfont 64.4212 sf 0 0 m (t) show NC gr  1481 1407 m 17 X s
 gsave  2263 1770 2 313 C 1464.36 1355.88 t 0 r /Helvetica findfont 64.4212 sf 0 0 m (t) show NC gr  0.6 1 0.6 c 1338 1343 m 107 X 63 Y -107 X f black 1338 1406 m 107 X s 1338 1343 m 107 X s 1445 1343 m 63 Y s 1338 1343 m 63 Y s
 gsave  2263 1770 2 313 C 1464.36 1264.36 t 0 r /Helvetica findfont 64.4212 sf 0 0 m (Z+jets) show NC gr  1 0.8 0.4 c 1338 1252 m 107 X 63 Y -107 X f black 1338 1315 m 107 X s 1338 1252 m 107 X s 1445 1252 m 63 Y s 1338 1252 m 63 Y s
 gsave  2263 1770 2 313 C 1464.36 1172.84 t 0 r /Helvetica findfont 64.4212 sf 0 0 m (Diboson) show NC gr  1 0.4 0.6 c 1338 1161 m 107 X 63 Y -107 X f black 1338 1224 m 107 X s 1338 1161 m 107 X s 1445 1161 m 63 Y s 1338 1161 m 63 Y s
 gsave  2263 1770 2 313 C 1464.36 1081.32 t 0 r /Helvetica findfont 64.4212 sf 0 0 m (Multi\255jet) show NC gr  0 0 0.4 c 1338 1070 m 107 X 63 Y -107 X f black 1338 1133 m 107 X s 1338 1070 m 107 X s 1445 1070 m 63 Y s 1338 1070 m 63 Y s
 gsave  2263 1770 2 313 C 911.832 1566.05 t 0 r /Helvetica findfont 44.0776 sf 0 0 m (\2551) show NC gr 
 gsave  2263 1770 2 313 C 471.17 1535.54 t 0 r /Helvetica findfont 64.4212 sf 0 0 m (=13TeV, 139 fb) show NC gr 
 gsave  2263 1770 2 313 C 440.662 1535.54 t 0 r /Helvetica findfont 64.4212 sf 0 0 m (s) show NC gr  6 lw 420 1573 m 7 -41 d s 3 lw 427 1532 m 7 61 d s 434 1593 m 37 X s 1 1 1 c 2254 561 2 2 bf black 1 1 1 c black 1860 358 318 187 bl 1 1 1 c black
 1860 358 318 187 bl 6 lw 1 1 1 c black 3 lw 457 369 m20 6 lw 3 lw 550 362 m20 6 lw 3 lw 643 343 m20 6 lw 3 lw 736 369 m20 6 lw 3 lw 829 362 m20 6 lw 3 lw 923 374 m20 6 lw 3 lw 1016 328 m20 6 lw 3 lw 1109 336 m20 6 lw 3 lw 1202 394 m20 6 lw 3 lw 1295
 334 m20 6 lw 3 lw 1388 306 m20 6 lw 3 lw 1481 448 m20 6 lw 3 lw 318 187 m 1860 X s
 gsave  2254 561 2 2 C 1959.25 33.8971 t 0 r /Helvetica findfont 78.1689 sf 0 0 m ( [GeV]) show NC gr 
 gsave  2254 561 2 2 C 1901.63 13.5588 t 0 r /Helvetica findfont 50.9797 sf 0 0 m (eff) show NC gr 
 gsave  2254 561 2 2 C 1840.61 33.8971 t 0 r /Helvetica findfont 78.1689 sf 0 0 m (m) show NC gr  318 201 m -14 Y s 364 194 m -7 Y s 411 194 m -7 Y s 457 194 m -7 Y s 504 194 m -7 Y s 550 201 m -14 Y s 597 194 m -7 Y s 643 194 m -7 Y s 690 194 m -7 Y
 s 736 194 m -7 Y s 783 201 m -14 Y s 829 194 m -7 Y s 876 194 m -7 Y s 923 194 m -7 Y s 969 194 m -7 Y s 1016 201 m -14 Y s 1062 194 m -7 Y s 1109 194 m -7 Y s 1155 194 m -7 Y s 1202 194 m -7 Y s 1248 201 m -14 Y s 1295 194 m -7 Y s 1341 194 m -7 Y
 s 1388 194 m -7 Y s 1434 194 m -7 Y s 1481 201 m -14 Y s 1527 194 m -7 Y s 1574 194 m -7 Y s 1620 194 m -7 Y s 1667 194 m -7 Y s 1713 201 m -14 Y s 1760 194 m -7 Y s 1806 194 m -7 Y s 1853 194 m -7 Y s 1899 194 m -7 Y s 1946 201 m -14 Y s 1992 194 m
 -7 Y s 2039 194 m -7 Y s 2085 194 m -7 Y s 2132 194 m -7 Y s 2178 201 m -14 Y s
 gsave  2254 561 2 2 C 227.111 118.64 t 0 r /Helvetica findfont 78.1689 sf 0 0 m (1000) show NC gr 
 gsave  2254 561 2 2 C 461.001 118.64 t 0 r /Helvetica findfont 78.1689 sf 0 0 m (1500) show NC gr 
 gsave  2254 561 2 2 C 691.501 118.64 t 0 r /Helvetica findfont 78.1689 sf 0 0 m (2000) show NC gr 
 gsave  2254 561 2 2 C 925.391 118.64 t 0 r /Helvetica findfont 78.1689 sf 0 0 m (2500) show NC gr 
 gsave  2254 561 2 2 C 1159.28 118.64 t 0 r /Helvetica findfont 78.1689 sf 0 0 m (3000) show NC gr 
 gsave  2254 561 2 2 C 1389.78 118.64 t 0 r /Helvetica findfont 78.1689 sf 0 0 m (3500) show NC gr 
 gsave  2254 561 2 2 C 1623.67 118.64 t 0 r /Helvetica findfont 78.1689 sf 0 0 m (4000) show NC gr 
 gsave  2254 561 2 2 C 1857.56 118.64 t 0 r /Helvetica findfont 78.1689 sf 0 0 m (4500) show NC gr 
 gsave  2254 561 2 2 C 2088.06 118.64 t 0 r /Helvetica findfont 78.1689 sf 0 0 m (5000) show NC gr  318 545 m 1860 X s 318 531 m 14 Y s 364 538 m 7 Y s 411 538 m 7 Y s 457 538 m 7 Y s 504 538 m 7 Y s 550 531 m 14 Y s 597 538 m 7 Y s 643 538 m 7 Y s
 690 538 m 7 Y s 736 538 m 7 Y s 783 531 m 14 Y s 829 538 m 7 Y s 876 538 m 7 Y s 923 538 m 7 Y s 969 538 m 7 Y s 1016 531 m 14 Y s 1062 538 m 7 Y s 1109 538 m 7 Y s 1155 538 m 7 Y s 1202 538 m 7 Y s 1248 531 m 14 Y s 1295 538 m 7 Y s 1341 538 m 7 Y
 s 1388 538 m 7 Y s 1434 538 m 7 Y s 1481 531 m 14 Y s 1527 538 m 7 Y s 1574 538 m 7 Y s 1620 538 m 7 Y s 1667 538 m 7 Y s 1713 531 m 14 Y s 1760 538 m 7 Y s 1806 538 m 7 Y s 1853 538 m 7 Y s 1899 538 m 7 Y s 1946 531 m 14 Y s 1992 538 m 7 Y s 2039
 538 m 7 Y s 2085 538 m 7 Y s 2132 538 m 7 Y s 2178 531 m 14 Y s 318 187 m 358 Y s
 gsave  2254 561 2 2 C 166.096 284.736 t 90 r /Helvetica findfont 67.9729 sf 0 0 m (Data/SM) show NC gr  361 203 m -43 X s 339 220 m -21 X s 339 236 m -21 X s 339 252 m -21 X s 339 268 m -21 X s 361 285 m -43 X s 339 301 m -21 X s 339 317 m -21 X s
 339 334 m -21 X s 339 350 m -21 X s 361 366 m -43 X s 339 382 m -21 X s 339 399 m -21 X s 339 415 m -21 X s 339 431 m -21 X s 361 447 m -43 X s 339 464 m -21 X s 339 480 m -21 X s 339 496 m -21 X s 339 512 m -21 X s 361 529 m -43 X s 361 203 m -43 X
 s 339 187 m -21 X s 361 529 m -43 X s
 gsave  2254 561 2 2 C 261.008 183.044 t 0 r /Helvetica findfont 57.777 sf 0 0 m (0) show NC gr 
 gsave  2254 561 2 2 C 213.552 261.008 t 0 r /Helvetica findfont 57.777 sf 0 0 m (0.5) show NC gr 
 gsave  2254 561 2 2 C 271.177 342.361 t 0 r /Helvetica findfont 57.777 sf 0 0 m (1) show NC gr 
 gsave  2254 561 2 2 C 213.552 423.714 t 0 r /Helvetica findfont 57.777 sf 0 0 m (1.5) show NC gr 
 gsave  2254 561 2 2 C 261.008 505.067 t 0 r /Helvetica findfont 57.777 sf 0 0 m (2) show NC gr  2178 187 m 358 Y s 2135 203 m 43 X s 2157 220 m 21 X s 2157 236 m 21 X s 2157 252 m 21 X s 2157 268 m 21 X s 2135 285 m 43 X s 2157 301 m 21 X s 2157 317
 m 21 X s 2157 334 m 21 X s 2157 350 m 21 X s 2135 366 m 43 X s 2157 382 m 21 X s 2157 399 m 21 X s 2157 415 m 21 X s 2157 431 m 21 X s 2135 447 m 43 X s 2157 464 m 21 X s 2157 480 m 21 X s 2157 496 m 21 X s 2157 512 m 21 X s 2135 529 m 43 X s 2135
 203 m 43 X s 2157 187 m 21 X s 2135 529 m 43 X s 9 lw 829 376 m 1 Y s 829 377 m cl s 829 349 m -2 Y s 829 347 m cl s 923 387 m 8 Y s 923 395 m cl s 923 360 m -7 Y s 923 353 m cl s 1016 341 m 12 Y s 1016 353 m cl s 1016 314 m -11 Y s 1016 303 m cl s
 1109 349 m 20 Y s 1109 369 m cl s 1109 322 m -19 Y s 1109 303 m cl s 1202 407 m 40 Y s 1202 447 m cl s 1202 380 m -38 Y s 1202 342 m cl s 1295 348 m 56 Y s 1295 404 m cl s 1295 320 m -48 Y s 1295 272 m cl s 1388 320 m 70 Y s 1388 390 m cl s 1388 293
 m -53 Y s 1388 240 m cl s 1481 462 m 83 Y s 1481 545 m cl s 1481 435 m -120 Y s 1481 315 m cl s 1946 545 m -187 Y s 1946 358 m cl s 3 lw 457 369 550 362 643 343 736 369 829 362 923 374 1016 328 1109 336 1202 394 1295 334 1388 306 1481 448 12 { m20}
 R 9 lw 1 0 0 c 6 lw black 3 lw 1 0 0 c 2178 227 m s 2178 255 m s 2178 284 m s 2178 312 m -26 -26 d s 2178 341 m -55 -55 d s 2178 369 m -84 -83 d s 2085 277 m -1 -1 d s 2178 398 m -123 -122 d s 1992 213 m -8 -9 d s 2178 427 m -151 -151 d s 1992 241 m
 -37 -37 d s 2170 447 m -172 -171 d s 1992 270 m -66 -66 d s 2141 447 m -242 -241 d s 2112 447 m -213 -213 d s 2085 448 m -193 -192 d s 2065 456 m -202 -200 d s 2036 456 m -201 -200 d s 2007 456 m -201 -200 d s 1992 470 m -186 -185 d s 1992 499 m
 -206 -206 d s 1992 527 m -235 -234 d s 1964 528 m -235 -235 d s 1936 528 m -37 -36 d s 1884 476 m -178 -177 d s 1907 528 m -8 -8 d s 1855 476 m -178 -177 d s 1827 476 m -21 -20 d s 1789 439 m -140 -140 d s 1760 439 m -140 -140 d s 1732 439 m -121
 -120 d s 1697 433 m -115 -114 d s 1668 433 m -114 -114 d s 1640 433 m -20 -19 d s 1620 413 m -93 -92 d s 1591 413 m -88 -88 d s 1563 413 m -89 -88 d s 1534 413 m -89 -88 d s 1499 407 m -71 -71 d s 1470 407 m -71 -71 d s 1441 407 m -7 -7 d s 1430 396
 m -60 -60 d s 1402 396 m -60 -60 d s 1373 396 m -50 -50 d s 1344 396 m -3 -3 d s 1334 386 m -40 -40 d s 1306 386 m -41 -40 d s 1277 386 m -43 -43 d s 1248 386 m -43 -43 d s 1222 389 m -45 -46 d s 1194 389 m -39 -39 d s 1165 389 m -37 -37 d s 1127
 380 m -27 -28 d s 1099 380 m -28 -28 d s 1070 380 m -26 -26 d s 1040 378 m -25 -24 d s 1011 378 m -25 -24 d s 982 378 m -23 -23 d s 952 377 m -22 -22 d s 923 377 m -21 -22 d s 895 377 m -21 -21 d s 865 376 m -20 -20 d s 836 376 m -19 -20 d s 808 376
 m -20 -20 d s 778 375 m -18 -18 d s 750 375 m -19 -18 d s 721 375 m -18 -18 d s 692 375 m -18 -18 d s 663 375 m -18 -18 d s 635 375 m -18 -18 d s 606 375 m -19 -19 d s 578 376 m -20 -20 d s 411 209 m s 405 203 m cl s 550 376 m -21 -20 d s 411 238 m
 s 376 203 m cl s 521 376 m -20 -20 d s 411 266 m s 348 203 m cl s 493 376 m -21 -20 d s 411 295 m s 319 203 m cl s 464 376 m -21 -20 d s 411 324 m s 435 376 m -21 -20 d s 411 352 m s 6 lw black[ 4 8] 0 sd 3 lw 318 447 m 1860 X s 318 285 m 1860 X s 1
 0 0 c[  12 12 ] 0 sd 6 lw 318 366 m 1860 X s
 gr  gr showpage
end
%%EOF
