%!PS-Adobe-2.0 EPSF-2.0
%%BoundingBox:  0 0 567 521
%%Title: Distributions/meffInc_distrVR0LdPhi_MB-GGo_beforeFit_forThesis.eps: canvas
%%Creator: ROOT Version 6.04/16
%%CreationDate: Tue May 19 22:04:55 2020
%%DocumentNeededResources: ProcSet (FontSetInit)
%%EndComments
%%BeginProlog
80 dict begin
/s {stroke} def /l {lineto} def /m {moveto} def /t {translate} def
/r {rotate} def /rl {roll}  def /R {repeat} def
/d {rlineto} def /rm {rmoveto} def /gr {grestore} def /f {eofill} def
/c {setrgbcolor} def /black {0 setgray} def /sd {setdash} def
/cl {closepath} def /sf {scalefont setfont} def /lw {setlinewidth} def
/box {m dup 0 exch d exch 0 d 0 exch neg d cl} def
/NC{systemdict begin initclip end}def/C{NC box clip newpath}def
/bl {box s} def /bf {gsave box gsave f grestore 1 lw [] 0 sd s grestore} def /Y { 0 exch d} def /X { 0 d} def 
/K {{pop pop 0 moveto} exch kshow} bind def
/ita {/ang 15 def gsave [1 0 ang dup sin exch cos div 1 0 0] concat} def 
/mp {newpath /y exch def /x exch def} def
/side {[w .77 mul w .23 mul] .385 w mul sd w 0 l currentpoint t -144 r} def
/mr {mp x y w2 0 360 arc} def /m24 {mr s} def /m20 {mr f} def
/mb {mp x y w2 add m w2 neg 0 d 0 w neg d w 0 d 0 w d cl} def
/mt {mp x y w2 add m w2 neg w neg d w 0 d cl} def
/m21 {mb f} def /m25 {mb s} def /m22 {mt f} def /m26{mt s} def
/m23 {mp x y w2 sub m w2 w d w neg 0 d cl f} def
/m27 {mp x y w2 add m w3 neg w2 neg d w3 w2 neg d w3 w2 d cl s} def
/m28 {mp x w2 sub y w2 sub w3 add m w3 0 d  0 w3 neg d w3 0 d 0 w3 d w3 0 d  0 w3 d w3 neg 0 d 0 w3 d w3 neg 0 d 0 w3 neg d w3 neg 0 d cl s } def
/m29 {mp gsave x w2 sub y w2 add w3 sub m currentpoint t 4 {side} repeat cl fill gr} def
/m30 {mp gsave x w2 sub y w2 add w3 sub m currentpoint t 4 {side} repeat cl s gr} def
/m31 {mp x y w2 sub m 0 w d x w2 sub y m w 0 d x w2 sub y w2 add m w w neg d x w2 sub y w2 sub m w w d s} def
/m32 {mp x y w2 sub m w2 w d w neg 0 d cl s} def
/m33 {mp x y w2 add m w3 neg w2 neg d w3 w2 neg d w3 w2 d cl f} def
/m34 {mp x w2 sub y w2 sub w3 add m w3 0 d  0 w3 neg d w3 0 d 0 w3 d w3 0 d  0 w3 d w3 neg 0 d 0 w3 d w3 neg 0 d 0 w3 neg d w3 neg 0 d cl f } def
/m2 {mp x y w2 sub m 0 w d x w2 sub y m w 0 d s} def
/m5 {mp x w2 sub y w2 sub m w w d x w2 sub y w2 add m w w neg d s} def
%%IncludeResource: ProcSet (FontSetInit)
%%IncludeResource: font Times-Roman
%%IncludeResource: font Times-Italic
%%IncludeResource: font Times-Bold
%%IncludeResource: font Times-BoldItalic
%%IncludeResource: font Helvetica
%%IncludeResource: font Helvetica-Oblique
%%IncludeResource: font Helvetica-Bold
%%IncludeResource: font Helvetica-BoldOblique
%%IncludeResource: font Courier
%%IncludeResource: font Courier-Oblique
%%IncludeResource: font Courier-Bold
%%IncludeResource: font Courier-BoldOblique
%%IncludeResource: font Symbol
%%IncludeResource: font ZapfDingbats
/reEncode {exch findfont dup length dict begin {1 index /FID eq  {pop pop} {def} ifelse } forall /Encoding exch def currentdict end dup /FontName get exch definefont pop } def [/Times-Bold /Times-Italic /Times-BoldItalic /Helvetica /Helvetica-Oblique
 /Helvetica-Bold /Helvetica-BoldOblique /Courier /Courier-Oblique /Courier-Bold /Courier-BoldOblique /Times-Roman /AvantGarde-Book /AvantGarde-BookOblique /AvantGarde-Demi /AvantGarde-DemiOblique /Bookman-Demi /Bookman-DemiItalic /Bookman-Light
 /Bookman-LightItalic /Helvetica-Narrow /Helvetica-Narrow-Bold /Helvetica-Narrow-BoldOblique /Helvetica-Narrow-Oblique /NewCenturySchlbk-Roman /NewCenturySchlbk-Bold /NewCenturySchlbk-BoldItalic /NewCenturySchlbk-Italic /Palatino-Bold
 /Palatino-BoldItalic /Palatino-Italic /Palatino-Roman ] {ISOLatin1Encoding reEncode } forall
%%EndProlog
%%BeginSetup
%%EndSetup
newpath  gsave  .25 .25 scale  gsave  0 0 t black[  ] 0 sd 3 lw 1 1 1 c 2268 2085 0 0 bf black 1 1 1 c 2263 1770 2 313 bf black 1 1 1 c black 1860 1145 319 584 bl 1 1 1 c black 1860 1145 319 584 bl 6 lw 1 1 1 c black 505 939 m 22 Y s 505 988 m 11 Y s
 3 lw /w 33 def /w2 {w 2 div} def /w3 {w 3 div} def 505 975 m20 6 lw 629 986 m 13 Y s 629 1026 m 7 Y s 3 lw 629 1013 m20 6 lw 753 993 m 12 Y s 753 1032 m 7 Y s 3 lw 753 1019 m20 6 lw 877 894 m 32 Y s 877 953 m 16 Y s 3 lw 877 939 m20 6 lw 1001 872 m
 38 Y s 1001 937 m 19 Y s 3 lw 1001 924 m20 6 lw 1125 844 m 47 Y s 1125 918 m 21 Y s 3 lw 1125 904 m20 6 lw 1621 584 m 186 Y s 1621 798 m 46 Y s 3 lw 1621 784 m20 6 lw 3 lw 319 584 m 1860 X s
 gsave  2263 1770 2 313 C 1949.08 369.478 t 0 r /Helvetica findfont 81.3741 sf 0 0 m ( [GeV]) show NC gr 
 gsave  2263 1770 2 313 C 1888.07 342.361 t 0 r /Helvetica findfont 54.2494 sf 0 0 m (eff) show NC gr 
 gsave  2263 1770 2 313 C 1823.66 369.478 t 0 r /Helvetica findfont 81.3741 sf 0 0 m (m) show NC gr  319 584 m cl s 381 584 m cl s 443 584 m cl s 505 584 m cl s 567 584 m cl s 629 584 m cl s 691 584 m cl s 753 584 m cl s 815 584 m cl s 877 584 m cl s
 939 584 m cl s 1001 584 m cl s 1063 584 m cl s 1125 584 m cl s 1187 584 m cl s 1249 584 m cl s 1311 584 m cl s 1373 584 m cl s 1435 584 m cl s 1497 584 m cl s 1559 584 m cl s 1621 584 m cl s 1683 584 m cl s 1745 584 m cl s 1807 584 m cl s 1869 584 m
 cl s 1931 584 m cl s 1993 584 m cl s 2055 584 m cl s 2117 584 m cl s 2179 584 m cl s 319 1729 m 1860 X s 319 1729 m cl s 381 1729 m cl s 443 1729 m cl s 505 1729 m cl s 567 1729 m cl s 629 1729 m cl s 691 1729 m cl s 753 1729 m cl s 815 1729 m cl s
 877 1729 m cl s 939 1729 m cl s 1001 1729 m cl s 1063 1729 m cl s 1125 1729 m cl s 1187 1729 m cl s 1249 1729 m cl s 1311 1729 m cl s 1373 1729 m cl s 1435 1729 m cl s 1497 1729 m cl s 1559 1729 m cl s 1621 1729 m cl s 1683 1729 m cl s 1745 1729 m
 cl s 1807 1729 m cl s 1869 1729 m cl s 1931 1729 m cl s 1993 1729 m cl s 2055 1729 m cl s 2117 1729 m cl s 2179 1729 m cl s 319 584 m 1145 Y s
 gsave  2263 1770 2 313 C 166.096 1091.49 t 90 r /Helvetica findfont 81.3741 sf 0 0 m (Events / 200 GeV) show NC gr  341 644 m -22 X s 341 680 m -22 X s 341 705 m -22 X s 341 724 m -22 X s 341 740 m -22 X s 341 753 m -22 X s 341 765 m -22 X s 341 775
 m -22 X s 363 784 m -44 X s
 gsave  2263 1770 2 313 C 300.555 756.871 t 0 r  -36 0 t /Helvetica findfont 64.4212 sf 0 0 m (1) show NC gr  341 844 m -22 X s 341 879 m -22 X s 341 904 m -22 X s 341 924 m -22 X s 341 939 m -22 X s 341 953 m -22 X s 341 964 m -22 X s 341 975 m -22
 X s 363 984 m -44 X s
 gsave  2263 1770 2 313 C 300.555 956.55 t 0 r  -73 0 t /Helvetica findfont 64.4212 sf 0 0 m (10) show NC gr  341 1044 m -22 X s 341 1079 m -22 X s 341 1104 m -22 X s 341 1123 m -22 X s 341 1139 m -22 X s 341 1152 m -22 X s 341 1164 m -22 X s 341
 1174 m -22 X s 363 1183 m -44 X s
 gsave  2263 1770 2 313 C 274.567 1183.01 t 0 r /Helvetica findfont 44.0776 sf 0 0 m (2) show NC gr 
 gsave  2263 1770 2 313 C 203.383 1155.89 t 0 r /Helvetica findfont 64.4212 sf 0 0 m (10) show NC gr  341 1243 m -22 X s 341 1279 m -22 X s 341 1304 m -22 X s 341 1323 m -22 X s 341 1339 m -22 X s 341 1352 m -22 X s 341 1364 m -22 X s 341 1374 m -22
 X s 363 1383 m -44 X s
 gsave  2263 1770 2 313 C 274.567 1386.39 t 0 r /Helvetica findfont 44.0776 sf 0 0 m (3) show NC gr 
 gsave  2263 1770 2 313 C 203.383 1355.88 t 0 r /Helvetica findfont 64.4212 sf 0 0 m (10) show NC gr  341 1443 m -22 X s 341 1478 m -22 X s 341 1503 m -22 X s 341 1523 m -22 X s 341 1538 m -22 X s 341 1552 m -22 X s 341 1563 m -22 X s 341 1574 m -22
 X s 363 1583 m -44 X s
 gsave  2263 1770 2 313 C 274.567 1579.61 t 0 r /Helvetica findfont 44.0776 sf 0 0 m (4) show NC gr 
 gsave  2263 1770 2 313 C 203.383 1552.49 t 0 r /Helvetica findfont 64.4212 sf 0 0 m (10) show NC gr  341 1643 m -22 X s 341 1678 m -22 X s 341 1703 m -22 X s 341 1722 m -22 X s 2179 584 m 1145 Y s 2157 644 m 22 X s 2157 680 m 22 X s 2157 705 m 22 X
 s 2157 724 m 22 X s 2157 740 m 22 X s 2157 753 m 22 X s 2157 765 m 22 X s 2157 775 m 22 X s 2136 784 m 43 X s 2157 844 m 22 X s 2157 879 m 22 X s 2157 904 m 22 X s 2157 924 m 22 X s 2157 939 m 22 X s 2157 953 m 22 X s 2157 964 m 22 X s 2157 975 m 22
 X s 2136 984 m 43 X s 2157 1044 m 22 X s 2157 1079 m 22 X s 2157 1104 m 22 X s 2157 1123 m 22 X s 2157 1139 m 22 X s 2157 1152 m 22 X s 2157 1164 m 22 X s 2157 1174 m 22 X s 2136 1183 m 43 X s 2157 1243 m 22 X s 2157 1279 m 22 X s 2157 1304 m 22 X s
 2157 1323 m 22 X s 2157 1339 m 22 X s 2157 1352 m 22 X s 2157 1364 m 22 X s 2157 1374 m 22 X s 2136 1383 m 43 X s 2157 1443 m 22 X s 2157 1478 m 22 X s 2157 1503 m 22 X s 2157 1523 m 22 X s 2157 1538 m 22 X s 2157 1552 m 22 X s 2157 1563 m 22 X s
 2157 1574 m 22 X s 2136 1583 m 43 X s 2157 1643 m 22 X s 2157 1678 m 22 X s 2157 1703 m 22 X s 2157 1722 m 22 X s 0.4 0.6 1 c black 0.4 0.6 1 c 319 584 m 124 X 359 Y 124 X 91 Y 124 X -11 Y 124 X -38 Y 124 X -48 Y 124 X -52 Y 124 X -47 Y 124 X -87 Y
 124 X -19 Y 124 X -9 Y 124 X -138 Y 124 X -1 Y 248 X 56 Y 124 X -56 Y f black 0.4 0.6 1 c black 319 584 m 124 X 359 Y 124 X 91 Y 124 X -11 Y 124 X -38 Y 124 X -48 Y 124 X -52 Y 124 X -47 Y 124 X -87 Y 124 X -19 Y 124 X -9 Y 124 X -138 Y 124 X -1 Y
 248 X 56 Y 124 X s 0.999 0.999 0.999 c black 0.999 0.999 0.999 c 319 584 m 124 X 347 Y 124 X 85 Y 124 X -10 Y 124 X -40 Y 124 X -49 Y 124 X -54 Y 124 X -45 Y 124 X -92 Y 124 X -11 Y 124 X -86 Y 124 X -45 Y 372 X 56 Y 124 X -56 Y f black 0.999 0.999
 0.999 c black 319 584 m 124 X 347 Y 124 X 85 Y 124 X -10 Y 124 X -40 Y 124 X -49 Y 124 X -54 Y 124 X -45 Y 124 X -92 Y 124 X -11 Y 124 X -86 Y 124 X -45 Y 372 X 56 Y 124 X s 1 1 1 c black 319 584 m 124 X 347 Y 124 X 85 Y 124 X -10 Y 124 X -40 Y 124
 X -49 Y 124 X -54 Y 124 X -45 Y 124 X -92 Y 124 X -11 Y 124 X -86 Y 124 X -45 Y 372 X 56 Y 124 X s 0.6 1 0.6 c black 0.6 1 0.6 c 319 584 m 124 X 347 Y 124 X 85 Y 124 X -10 Y 124 X -40 Y 124 X -49 Y 124 X -54 Y 124 X -45 Y 124 X -92 Y 124 X -11 Y 124
 X -86 Y 124 X -45 Y 372 X 56 Y 124 X -56 Y f black 0.6 1 0.6 c black 319 584 m 124 X 347 Y 124 X 85 Y 124 X -10 Y 124 X -40 Y 124 X -49 Y 124 X -54 Y 124 X -45 Y 124 X -92 Y 124 X -11 Y 124 X -86 Y 124 X -45 Y 372 X 56 Y 124 X s 0.999 0.999 0.999 c
 black 0.999 0.999 0.999 c 319 584 m 124 X 233 Y 124 X 87 Y 124 X 2 Y 124 X -43 Y 124 X -17 Y 124 X -78 Y 124 X -24 Y 124 X -123 Y 124 X -37 Y 620 X 35 Y 124 X -35 Y f black 0.999 0.999 0.999 c black 319 584 m 124 X 233 Y 124 X 87 Y 124 X 2 Y 124 X
 -43 Y 124 X -17 Y 124 X -78 Y 124 X -24 Y 124 X -123 Y 124 X -37 Y 620 X 35 Y 124 X s 1 1 1 c black 319 584 m 124 X 233 Y 124 X 87 Y 124 X 2 Y 124 X -43 Y 124 X -17 Y 124 X -78 Y 124 X -24 Y 124 X -123 Y 124 X -37 Y 620 X 35 Y 124 X s 1 0.8 0.4 c
 black 1 0.8 0.4 c 319 584 m 124 X 233 Y 124 X 87 Y 124 X 2 Y 124 X -43 Y 124 X -17 Y 124 X -78 Y 124 X -24 Y 124 X -123 Y 124 X -37 Y 620 X 35 Y 124 X -35 Y f black 1 0.8 0.4 c black 319 584 m 124 X 233 Y 124 X 87 Y 124 X 2 Y 124 X -43 Y 124 X -17 Y
 124 X -78 Y 124 X -24 Y 124 X -123 Y 124 X -37 Y 620 X 35 Y 124 X s 0.999 0.999 0.999 c black 0.999 0.999 0.999 c 319 584 m 124 X 93 Y 124 X 82 Y 124 X 24 Y 124 X -56 Y 124 X 13 Y 124 X -150 Y 124 X -6 Y 992 X f black 0.999 0.999 0.999 c black 319
 584 m 124 X 93 Y 124 X 82 Y 124 X 24 Y 124 X -56 Y 124 X 13 Y 124 X -150 Y 124 X -6 Y 992 X s 1 1 1 c black 319 584 m 124 X 93 Y 124 X 82 Y 124 X 24 Y 124 X -56 Y 124 X 13 Y 124 X -150 Y 124 X -6 Y 992 X s 1 0.4 0.6 c black 1 0.4 0.6 c 319 584 m 124
 X 93 Y 124 X 82 Y 124 X 24 Y 124 X -56 Y 124 X 13 Y 124 X -150 Y 124 X -6 Y 992 X f black 1 0.4 0.6 c black 319 584 m 124 X 93 Y 124 X 82 Y 124 X 24 Y 124 X -56 Y 124 X 13 Y 124 X -150 Y 124 X -6 Y 992 X s 0.999 0.999 0.999 c black 0.999 0.999 0.999
 c 319 584 m 248 X 1 Y 124 X 41 Y 124 X -42 Y 124 X 15 Y 124 X -15 Y 1116 X f black 0.999 0.999 0.999 c black 319 584 m 248 X 1 Y 124 X 41 Y 124 X -42 Y 124 X 15 Y 124 X -15 Y 1116 X s 1 1 1 c black 319 584 m 248 X 1 Y 124 X 41 Y 124 X -42 Y 124 X 15
 Y 124 X -15 Y 1116 X s 0 0 0.4 c black 0 0 0.4 c 319 584 m 248 X 1 Y 124 X 41 Y 124 X -42 Y 124 X 15 Y 124 X -15 Y 1116 X f black 0 0 0.4 c black 319 584 m 248 X 1 Y 124 X 41 Y 124 X -42 Y 124 X 15 Y 124 X -15 Y 1116 X s 1 0 0 c 6 lw 1 1 1 c black 1
 0 0 c 319 584 m 124 X 359 Y 124 X 91 Y 124 X -11 Y 124 X -38 Y 124 X -48 Y 124 X -52 Y 124 X -47 Y 124 X -87 Y 124 X -19 Y 124 X -9 Y 124 X -138 Y 124 X -1 Y 248 X 56 Y 124 X s black 3 lw 1 0 0 c 1 lw << /PatternType 1 /PaintType 2 /TilingType 1
 /BBox [ 0 0 100 100 ] /XStep 100 /YStep 100 /PaintProc { begin gsave 0 100 m 100 0 l s gr end } >> [ 0.24 0 0 0.24 0 0 ] makepattern /P05 exch def /cs {[/Pattern /DeviceRGB] setcolorspace} def /FA {f [/DeviceRGB] setcolorspace} def cs 1 0 0 P05
 setcolor 443 584 m 369 Y 124 X 90 Y 124 X -9 Y 124 X -38 Y 124 X -47 Y 124 X -47 Y 124 X -46 Y 124 X -87 Y 124 X -18 Y 124 X 16 Y 124 X -143 Y 124 X -40 Y 248 X 91 Y 124 X -91 Y -496 X 47 Y -124 X 76 Y -124 X 20 Y -124 X 88 Y -124 X 48 Y -124 X 61 Y
 -124 X 48 Y -124 X 39 Y -124 X 13 Y -124 X -94 Y -124 X -346 Y FA 6 lw 1 1 1 c 15 lw 505 995 m 5 Y s 505 1000 m cl s 505 954 m -14 Y s 505 940 m cl s 629 1033 m 1 Y s 629 1034 m cl s 629 993 m -7 Y s 629 986 m cl s 753 998 m -5 Y s 753 993 m cl s
 877 960 m 10 Y s 877 970 m cl s 877 919 m -23 Y s 877 896 m cl s 1001 944 m 13 Y s 1001 957 m cl s 1001 903 m -28 Y s 1001 875 m cl s 1125 925 m 16 Y s 1125 941 m cl s 1125 884 m -36 Y s 1125 848 m cl s 1621 804 m 52 Y s 1621 856 m cl s 1621 764 m
 -131 Y s 1621 633 m cl s black 1 1 1 c 3 lw /w 43 def /w2 {w 2 div} def /w3 {w 3 div} def 505 975 629 1013 753 1019 877 939 1001 924 1125 904 6 { m20} R 15 lw 3 lw 1621 784 m20 15 lw black 6 lw 1 1 1 c black 505 939 m 22 Y s 505 988 m 11 Y s 3 lw /w
 33 def /w2 {w 2 div} def /w3 {w 3 div} def 505 975 m20 6 lw 629 986 m 13 Y s 629 1026 m 7 Y s 3 lw 629 1013 m20 6 lw 753 993 m 12 Y s 753 1032 m 7 Y s 3 lw 753 1019 m20 6 lw 877 894 m 32 Y s 877 953 m 16 Y s 3 lw 877 939 m20 6 lw 1001 872 m 38 Y s
 1001 937 m 19 Y s 3 lw 1001 924 m20 6 lw 1125 844 m 47 Y s 1125 918 m 21 Y s 3 lw 1125 904 m20 6 lw 1621 584 m 186 Y s 1621 798 m 46 Y s 3 lw 1621 784 m20 6 lw 505 988 m 12 Y s 505 1000 m cl s 505 961 m -21 Y s 505 940 m cl s 629 1026 m 8 Y s 629
 1034 m cl s 629 999 m -13 Y s 629 986 m cl s 753 1032 m 7 Y s 753 1039 m cl s 753 1005 m -12 Y s 753 993 m cl s 877 953 m 17 Y s 877 970 m cl s 877 926 m -30 Y s 877 896 m cl s 1001 937 m 20 Y s 1001 957 m cl s 1001 910 m -35 Y s 1001 875 m cl s
 1125 918 m 23 Y s 1125 941 m cl s 1125 891 m -43 Y s 1125 848 m cl s 1621 798 m 58 Y s 1621 856 m cl s 1621 770 m -137 Y s 1621 633 m cl s 3 lw 505 975 629 1013 753 1019 877 939 1001 924 1125 904 6 { m20} R 6 lw 3 lw 1621 784 m20 6 lw 3 lw 319 584 m
 1860 X s 319 584 m cl s 381 584 m cl s 443 584 m cl s 505 584 m cl s 567 584 m cl s 629 584 m cl s 691 584 m cl s 753 584 m cl s 815 584 m cl s 877 584 m cl s 939 584 m cl s 1001 584 m cl s 1063 584 m cl s 1125 584 m cl s 1187 584 m cl s 1249 584 m
 cl s 1311 584 m cl s 1373 584 m cl s 1435 584 m cl s 1497 584 m cl s 1559 584 m cl s 1621 584 m cl s 1683 584 m cl s 1745 584 m cl s 1807 584 m cl s 1869 584 m cl s 1931 584 m cl s 1993 584 m cl s 2055 584 m cl s 2117 584 m cl s 2179 584 m cl s 319
 1729 m 1860 X s 319 1729 m cl s 381 1729 m cl s 443 1729 m cl s 505 1729 m cl s 567 1729 m cl s 629 1729 m cl s 691 1729 m cl s 753 1729 m cl s 815 1729 m cl s 877 1729 m cl s 939 1729 m cl s 1001 1729 m cl s 1063 1729 m cl s 1125 1729 m cl s 1187
 1729 m cl s 1249 1729 m cl s 1311 1729 m cl s 1373 1729 m cl s 1435 1729 m cl s 1497 1729 m cl s 1559 1729 m cl s 1621 1729 m cl s 1683 1729 m cl s 1745 1729 m cl s 1807 1729 m cl s 1869 1729 m cl s 1931 1729 m cl s 1993 1729 m cl s 2055 1729 m cl s
 2117 1729 m cl s 2179 1729 m cl s 319 584 m 1145 Y s 341 644 m -22 X s 341 680 m -22 X s 341 705 m -22 X s 341 724 m -22 X s 341 740 m -22 X s 341 753 m -22 X s 341 765 m -22 X s 341 775 m -22 X s 363 784 m -44 X s 341 844 m -22 X s 341 879 m -22 X
 s 341 904 m -22 X s 341 924 m -22 X s 341 939 m -22 X s 341 953 m -22 X s 341 964 m -22 X s 341 975 m -22 X s 363 984 m -44 X s 341 1044 m -22 X s 341 1079 m -22 X s 341 1104 m -22 X s 341 1123 m -22 X s 341 1139 m -22 X s 341 1152 m -22 X s 341
 1164 m -22 X s 341 1174 m -22 X s 363 1183 m -44 X s 341 1243 m -22 X s 341 1279 m -22 X s 341 1304 m -22 X s 341 1323 m -22 X s 341 1339 m -22 X s 341 1352 m -22 X s 341 1364 m -22 X s 341 1374 m -22 X s 363 1383 m -44 X s 341 1443 m -22 X s 341
 1478 m -22 X s 341 1503 m -22 X s 341 1523 m -22 X s 341 1538 m -22 X s 341 1552 m -22 X s 341 1563 m -22 X s 341 1574 m -22 X s 363 1583 m -44 X s 341 1643 m -22 X s 341 1678 m -22 X s 341 1703 m -22 X s 341 1722 m -22 X s 2179 584 m 1145 Y s 2157
 644 m 22 X s 2157 680 m 22 X s 2157 705 m 22 X s 2157 724 m 22 X s 2157 740 m 22 X s 2157 753 m 22 X s 2157 765 m 22 X s 2157 775 m 22 X s 2136 784 m 43 X s 2157 844 m 22 X s 2157 879 m 22 X s 2157 904 m 22 X s 2157 924 m 22 X s 2157 939 m 22 X s
 2157 953 m 22 X s 2157 964 m 22 X s 2157 975 m 22 X s 2136 984 m 43 X s 2157 1044 m 22 X s 2157 1079 m 22 X s 2157 1104 m 22 X s 2157 1123 m 22 X s 2157 1139 m 22 X s 2157 1152 m 22 X s 2157 1164 m 22 X s 2157 1174 m 22 X s 2136 1183 m 43 X s 2157
 1243 m 22 X s 2157 1279 m 22 X s 2157 1304 m 22 X s 2157 1323 m 22 X s 2157 1339 m 22 X s 2157 1352 m 22 X s 2157 1364 m 22 X s 2157 1374 m 22 X s 2136 1383 m 43 X s 2157 1443 m 22 X s 2157 1478 m 22 X s 2157 1503 m 22 X s 2157 1523 m 22 X s 2157
 1538 m 22 X s 2157 1552 m 22 X s 2157 1563 m 22 X s 2157 1574 m 22 X s 2136 1583 m 43 X s 2157 1643 m 22 X s 2157 1678 m 22 X s 2157 1703 m 22 X s 2157 1722 m 22 X s
 gsave  2263 1770 2 313 C 406.765 1447.41 t 0 r /Helvetica findfont 64.4212 sf 0 0 m (VR0LdPhi for MB\255GGo) show NC gr 
 gsave  2263 1770 2 313 C 1464.36 1630.45 t 0 r /Helvetica findfont 64.4212 sf 0 0 m (SM Total) show NC gr  1 1 1 c 1338 1616 m 107 X 64 Y -107 X f 1 0 0 c 6 lw 1338 1648 m 107 X s black
 gsave  2263 1770 2 313 C 1464.36 1538.93 t 0 r /Helvetica findfont 64.4212 sf 0 0 m (Data) show NC gr  1391 1529 m 55 Y s 3 lw 1391 1557 m20 6 lw
 gsave  2263 1770 2 313 C 1464.36 1447.41 t 0 r /Helvetica findfont 64.4212 sf 0 0 m (W+jets) show NC gr  0.4 0.6 1 c 3 lw 1338 1434 m 107 X 64 Y -107 X f 6 lw black 3 lw 1338 1498 m 107 X s 1338 1434 m 107 X s 1445 1434 m 64 Y s 1338 1434 m 64 Y s
 gsave  2263 1770 2 313 C 1498.25 1355.88 t 0 r /Helvetica findfont 64.4212 sf 0 0 m (\(+EW\) & single top) show NC gr 
 gsave  2263 1770 2 313 C 1481.3 1355.88 t 0 r /Helvetica findfont 64.4212 sf 0 0 m (t) show NC gr  1481 1407 m 17 X s
 gsave  2263 1770 2 313 C 1464.36 1355.88 t 0 r /Helvetica findfont 64.4212 sf 0 0 m (t) show NC gr  0.6 1 0.6 c 1338 1343 m 107 X 63 Y -107 X f black 1338 1406 m 107 X s 1338 1343 m 107 X s 1445 1343 m 63 Y s 1338 1343 m 63 Y s
 gsave  2263 1770 2 313 C 1464.36 1264.36 t 0 r /Helvetica findfont 64.4212 sf 0 0 m (Z+jets) show NC gr  1 0.8 0.4 c 1338 1252 m 107 X 63 Y -107 X f black 1338 1315 m 107 X s 1338 1252 m 107 X s 1445 1252 m 63 Y s 1338 1252 m 63 Y s
 gsave  2263 1770 2 313 C 1464.36 1172.84 t 0 r /Helvetica findfont 64.4212 sf 0 0 m (Diboson) show NC gr  1 0.4 0.6 c 1338 1161 m 107 X 63 Y -107 X f black 1338 1224 m 107 X s 1338 1161 m 107 X s 1445 1161 m 63 Y s 1338 1161 m 63 Y s
 gsave  2263 1770 2 313 C 1464.36 1081.32 t 0 r /Helvetica findfont 64.4212 sf 0 0 m (Multi\255jet) show NC gr  0 0 0.4 c 1338 1070 m 107 X 63 Y -107 X f black 1338 1133 m 107 X s 1338 1070 m 107 X s 1445 1070 m 63 Y s 1338 1070 m 63 Y s
 gsave  2263 1770 2 313 C 911.832 1566.05 t 0 r /Helvetica findfont 44.0776 sf 0 0 m (\2551) show NC gr 
 gsave  2263 1770 2 313 C 471.17 1535.54 t 0 r /Helvetica findfont 64.4212 sf 0 0 m (=13TeV, 139 fb) show NC gr 
 gsave  2263 1770 2 313 C 440.662 1535.54 t 0 r /Helvetica findfont 64.4212 sf 0 0 m (s) show NC gr  6 lw 420 1573 m 7 -41 d s 3 lw 427 1532 m 7 61 d s 434 1593 m 37 X s 1 1 1 c 2254 561 2 2 bf black 1 1 1 c black 1860 358 318 187 bl 1 1 1 c black
 1860 358 318 187 bl 6 lw 1 1 1 c black 3 lw 504 439 m20 6 lw 3 lw 628 330 m20 6 lw 3 lw 752 358 m20 6 lw 3 lw 876 299 m20 6 lw 3 lw 1000 342 m20 6 lw 3 lw 1124 407 m20 6 lw 3 lw 1620 532 m20 6 lw 3 lw 318 187 m 1860 X s
 gsave  2254 561 2 2 C 1959.25 33.8971 t 0 r /Helvetica findfont 78.1689 sf 0 0 m ( [GeV]) show NC gr 
 gsave  2254 561 2 2 C 1901.63 13.5588 t 0 r /Helvetica findfont 50.9797 sf 0 0 m (eff) show NC gr 
 gsave  2254 561 2 2 C 1840.61 33.8971 t 0 r /Helvetica findfont 78.1689 sf 0 0 m (m) show NC gr  318 201 m -14 Y s 380 194 m -7 Y s 442 194 m -7 Y s 504 194 m -7 Y s 566 194 m -7 Y s 628 201 m -14 Y s 690 194 m -7 Y s 752 194 m -7 Y s 814 194 m -7 Y
 s 876 194 m -7 Y s 938 201 m -14 Y s 1000 194 m -7 Y s 1062 194 m -7 Y s 1124 194 m -7 Y s 1186 194 m -7 Y s 1248 201 m -14 Y s 1310 194 m -7 Y s 1372 194 m -7 Y s 1434 194 m -7 Y s 1496 194 m -7 Y s 1558 201 m -14 Y s 1620 194 m -7 Y s 1682 194 m
 -7 Y s 1744 194 m -7 Y s 1806 194 m -7 Y s 1868 201 m -14 Y s 1930 194 m -7 Y s 1992 194 m -7 Y s 2054 194 m -7 Y s 2116 194 m -7 Y s 2178 201 m -14 Y s
 gsave  2254 561 2 2 C 227.111 118.64 t 0 r /Helvetica findfont 78.1689 sf 0 0 m (1000) show NC gr 
 gsave  2254 561 2 2 C 538.964 118.64 t 0 r /Helvetica findfont 78.1689 sf 0 0 m (1500) show NC gr 
 gsave  2254 561 2 2 C 847.428 118.64 t 0 r /Helvetica findfont 78.1689 sf 0 0 m (2000) show NC gr 
 gsave  2254 561 2 2 C 1159.28 118.64 t 0 r /Helvetica findfont 78.1689 sf 0 0 m (2500) show NC gr 
 gsave  2254 561 2 2 C 1467.74 118.64 t 0 r /Helvetica findfont 78.1689 sf 0 0 m (3000) show NC gr 
 gsave  2254 561 2 2 C 1779.6 118.64 t 0 r /Helvetica findfont 78.1689 sf 0 0 m (3500) show NC gr 
 gsave  2254 561 2 2 C 2088.06 118.64 t 0 r /Helvetica findfont 78.1689 sf 0 0 m (4000) show NC gr  318 545 m 1860 X s 318 531 m 14 Y s 380 538 m 7 Y s 442 538 m 7 Y s 504 538 m 7 Y s 566 538 m 7 Y s 628 531 m 14 Y s 690 538 m 7 Y s 752 538 m 7 Y s
 814 538 m 7 Y s 876 538 m 7 Y s 938 531 m 14 Y s 1000 538 m 7 Y s 1062 538 m 7 Y s 1124 538 m 7 Y s 1186 538 m 7 Y s 1248 531 m 14 Y s 1310 538 m 7 Y s 1372 538 m 7 Y s 1434 538 m 7 Y s 1496 538 m 7 Y s 1558 531 m 14 Y s 1620 538 m 7 Y s 1682 538 m
 7 Y s 1744 538 m 7 Y s 1806 538 m 7 Y s 1868 531 m 14 Y s 1930 538 m 7 Y s 1992 538 m 7 Y s 2054 538 m 7 Y s 2116 538 m 7 Y s 2178 531 m 14 Y s 318 187 m 358 Y s
 gsave  2254 561 2 2 C 166.096 284.736 t 90 r /Helvetica findfont 67.9729 sf 0 0 m (Data/SM) show NC gr  361 203 m -43 X s 339 220 m -21 X s 339 236 m -21 X s 339 252 m -21 X s 339 268 m -21 X s 361 285 m -43 X s 339 301 m -21 X s 339 317 m -21 X s
 339 334 m -21 X s 339 350 m -21 X s 361 366 m -43 X s 339 382 m -21 X s 339 399 m -21 X s 339 415 m -21 X s 339 431 m -21 X s 361 447 m -43 X s 339 464 m -21 X s 339 480 m -21 X s 339 496 m -21 X s 339 512 m -21 X s 361 529 m -43 X s 361 203 m -43 X
 s 339 187 m -21 X s 361 529 m -43 X s
 gsave  2254 561 2 2 C 261.008 183.044 t 0 r /Helvetica findfont 57.777 sf 0 0 m (0) show NC gr 
 gsave  2254 561 2 2 C 213.552 261.008 t 0 r /Helvetica findfont 57.777 sf 0 0 m (0.5) show NC gr 
 gsave  2254 561 2 2 C 271.177 342.361 t 0 r /Helvetica findfont 57.777 sf 0 0 m (1) show NC gr 
 gsave  2254 561 2 2 C 213.552 423.714 t 0 r /Helvetica findfont 57.777 sf 0 0 m (1.5) show NC gr 
 gsave  2254 561 2 2 C 261.008 505.067 t 0 r /Helvetica findfont 57.777 sf 0 0 m (2) show NC gr  2178 187 m 358 Y s 2135 203 m 43 X s 2157 220 m 21 X s 2157 236 m 21 X s 2157 252 m 21 X s 2157 268 m 21 X s 2135 285 m 43 X s 2157 301 m 21 X s 2157 317
 m 21 X s 2157 334 m 21 X s 2157 350 m 21 X s 2135 366 m 43 X s 2157 382 m 21 X s 2157 399 m 21 X s 2157 415 m 21 X s 2157 431 m 21 X s 2135 447 m 43 X s 2157 464 m 21 X s 2157 480 m 21 X s 2157 496 m 21 X s 2157 512 m 21 X s 2135 529 m 43 X s 2135
 203 m 43 X s 2157 187 m 21 X s 2135 529 m 43 X s 9 lw 504 452 m 67 Y s 504 519 m cl s 504 425 m -63 Y s 504 362 m cl s 628 344 m 21 Y s 628 365 m cl s 628 317 m -20 Y s 628 297 m cl s 752 371 m 27 Y s 752 398 m cl s 752 344 m -26 Y s 752 318 m cl s
 876 313 m 28 Y s 876 341 m cl s 876 286 m -24 Y s 876 262 m cl s 1000 356 m 52 Y s 1000 408 m cl s 1000 329 m -46 Y s 1000 283 m cl s 1124 420 m 96 Y s 1124 516 m cl s 1124 393 m -83 Y s 1124 310 m cl s 1620 518 m -257 Y s 1620 261 m cl s 3 lw 504
 439 628 330 752 358 876 299 1000 342 1124 407 6 { m20} R 9 lw 3 lw 1620 532 m20 9 lw 1 0 0 c 6 lw black 3 lw 1 0 0 c 2178 227 m s 2178 255 m s 2178 284 m s 2178 312 m -27 -27 d s 2178 341 m -56 -56 d s 2178 369 m -85 -84 d s 2178 398 m -113 -113 d s
 2178 427 m -150 -150 d s 2170 447 m -171 -170 d s 2142 447 m -172 -170 d s 2113 447 m -171 -170 d s 2084 447 m -166 -166 d s 2056 447 m -167 -166 d s 2035 456 m -175 -175 d s 2006 456 m -174 -175 d s 1978 456 m -184 -184 d s 1949 456 m -184 -184 d s
 1916 451 m -180 -179 d s 1887 451 m -179 -179 d s 1858 451 m -191 -191 d s 1829 451 m -191 -191 d s 1806 456 m -197 -196 d s 1781 460 m -201 -200 d s 1753 460 m -195 -194 d s 1724 460 m -166 -165 d s 1695 460 m -137 -137 d s 1679 472 m -147 -146 d s
 1650 472 m -147 -146 d s 1622 472 m -64 -63 d s 1555 406 m -80 -80 d s 1593 472 m -35 -34 d s 1527 406 m -81 -80 d s 1564 472 m -6 -6 d s 1498 406 m -79 -79 d s 1469 406 m -79 -79 d s 1441 406 m -80 -79 d s 1411 405 m -78 -78 d s 1382 405 m -77 -76
 d s 1353 405 m -76 -76 d s 1324 405 m -76 -76 d s 1294 404 m -75 -75 d s 1266 404 m -75 -75 d s 1237 404 m -74 -74 d s 1208 404 m -74 -74 d s 1179 402 m -73 -72 d s 1150 402 m -73 -72 d s 1121 402 m -60 -59 d s 1093 402 m -60 -59 d s 1064 402 m -2
 -1 d s 1051 389 m -47 -46 d s 1022 389 m -47 -46 d s 993 389 m -46 -46 d s 964 389 m -45 -45 d s 935 388 m -44 -44 d s 906 388 m -44 -44 d s 877 388 m -44 -44 d s 849 388 m -44 -43 d s 820 388 m -43 -43 d s 790 387 m -42 -42 d s 762 387 m -43 -42 d
 s 733 387 m -42 -42 d s 704 387 m -39 -39 d s 672 384 m -36 -36 d s 644 384 m -36 -36 d s 615 384 m -36 -36 d s 442 211 m s 434 203 m cl s 586 384 m -39 -40 d s 442 240 m s 405 203 m cl s 561 388 m -43 -44 d s 442 269 m s 376 203 m cl s 533 388 m
 -44 -44 d s 442 297 m s 348 203 m cl s 504 388 m -43 -44 d s 442 326 m s 319 203 m cl s 475 388 m -33 -34 d s 446 388 m -4 -5 d s 6 lw black[ 4 8] 0 sd 3 lw 318 447 m 1860 X s 318 285 m 1860 X s 1 0 0 c[  12 12 ] 0 sd 6 lw 318 366 m 1860 X s
 gr  gr showpage
end
%%EOF
