%!PS-Adobe-2.0 EPSF-2.0
%%BoundingBox:  0 0 567 521
%%Title: Distributions/meffInc_distrCRW_MB-GGo_beforeFit_forThesis.eps: canvas
%%Creator: ROOT Version 6.04/16
%%CreationDate: Tue May 19 22:04:25 2020
%%DocumentNeededResources: ProcSet (FontSetInit)
%%EndComments
%%BeginProlog
80 dict begin
/s {stroke} def /l {lineto} def /m {moveto} def /t {translate} def
/r {rotate} def /rl {roll}  def /R {repeat} def
/d {rlineto} def /rm {rmoveto} def /gr {grestore} def /f {eofill} def
/c {setrgbcolor} def /black {0 setgray} def /sd {setdash} def
/cl {closepath} def /sf {scalefont setfont} def /lw {setlinewidth} def
/box {m dup 0 exch d exch 0 d 0 exch neg d cl} def
/NC{systemdict begin initclip end}def/C{NC box clip newpath}def
/bl {box s} def /bf {gsave box gsave f grestore 1 lw [] 0 sd s grestore} def /Y { 0 exch d} def /X { 0 d} def 
/K {{pop pop 0 moveto} exch kshow} bind def
/ita {/ang 15 def gsave [1 0 ang dup sin exch cos div 1 0 0] concat} def 
/mp {newpath /y exch def /x exch def} def
/side {[w .77 mul w .23 mul] .385 w mul sd w 0 l currentpoint t -144 r} def
/mr {mp x y w2 0 360 arc} def /m24 {mr s} def /m20 {mr f} def
/mb {mp x y w2 add m w2 neg 0 d 0 w neg d w 0 d 0 w d cl} def
/mt {mp x y w2 add m w2 neg w neg d w 0 d cl} def
/m21 {mb f} def /m25 {mb s} def /m22 {mt f} def /m26{mt s} def
/m23 {mp x y w2 sub m w2 w d w neg 0 d cl f} def
/m27 {mp x y w2 add m w3 neg w2 neg d w3 w2 neg d w3 w2 d cl s} def
/m28 {mp x w2 sub y w2 sub w3 add m w3 0 d  0 w3 neg d w3 0 d 0 w3 d w3 0 d  0 w3 d w3 neg 0 d 0 w3 d w3 neg 0 d 0 w3 neg d w3 neg 0 d cl s } def
/m29 {mp gsave x w2 sub y w2 add w3 sub m currentpoint t 4 {side} repeat cl fill gr} def
/m30 {mp gsave x w2 sub y w2 add w3 sub m currentpoint t 4 {side} repeat cl s gr} def
/m31 {mp x y w2 sub m 0 w d x w2 sub y m w 0 d x w2 sub y w2 add m w w neg d x w2 sub y w2 sub m w w d s} def
/m32 {mp x y w2 sub m w2 w d w neg 0 d cl s} def
/m33 {mp x y w2 add m w3 neg w2 neg d w3 w2 neg d w3 w2 d cl f} def
/m34 {mp x w2 sub y w2 sub w3 add m w3 0 d  0 w3 neg d w3 0 d 0 w3 d w3 0 d  0 w3 d w3 neg 0 d 0 w3 d w3 neg 0 d 0 w3 neg d w3 neg 0 d cl f } def
/m2 {mp x y w2 sub m 0 w d x w2 sub y m w 0 d s} def
/m5 {mp x w2 sub y w2 sub m w w d x w2 sub y w2 add m w w neg d s} def
%%IncludeResource: ProcSet (FontSetInit)
%%IncludeResource: font Times-Roman
%%IncludeResource: font Times-Italic
%%IncludeResource: font Times-Bold
%%IncludeResource: font Times-BoldItalic
%%IncludeResource: font Helvetica
%%IncludeResource: font Helvetica-Oblique
%%IncludeResource: font Helvetica-Bold
%%IncludeResource: font Helvetica-BoldOblique
%%IncludeResource: font Courier
%%IncludeResource: font Courier-Oblique
%%IncludeResource: font Courier-Bold
%%IncludeResource: font Courier-BoldOblique
%%IncludeResource: font Symbol
%%IncludeResource: font ZapfDingbats
/reEncode {exch findfont dup length dict begin {1 index /FID eq  {pop pop} {def} ifelse } forall /Encoding exch def currentdict end dup /FontName get exch definefont pop } def [/Times-Bold /Times-Italic /Times-BoldItalic /Helvetica /Helvetica-Oblique
 /Helvetica-Bold /Helvetica-BoldOblique /Courier /Courier-Oblique /Courier-Bold /Courier-BoldOblique /Times-Roman /AvantGarde-Book /AvantGarde-BookOblique /AvantGarde-Demi /AvantGarde-DemiOblique /Bookman-Demi /Bookman-DemiItalic /Bookman-Light
 /Bookman-LightItalic /Helvetica-Narrow /Helvetica-Narrow-Bold /Helvetica-Narrow-BoldOblique /Helvetica-Narrow-Oblique /NewCenturySchlbk-Roman /NewCenturySchlbk-Bold /NewCenturySchlbk-BoldItalic /NewCenturySchlbk-Italic /Palatino-Bold
 /Palatino-BoldItalic /Palatino-Italic /Palatino-Roman ] {ISOLatin1Encoding reEncode } forall
%%EndProlog
%%BeginSetup
%%EndSetup
newpath  gsave  .25 .25 scale  gsave  0 0 t black[  ] 0 sd 3 lw 1 1 1 c 2268 2085 0 0 bf black 1 1 1 c 2263 1770 2 313 bf black 1 1 1 c black 1860 1145 319 584 bl 1 1 1 c black 1860 1145 319 584 bl 6 lw 1 1 1 c black 381 931 m 15 Y s 381 973 m 7 Y s
 3 lw /w 33 def /w2 {w 2 div} def /w3 {w 3 div} def 381 959 m20 6 lw 505 1044 m 1 Y s 3 lw 505 1058 m20 6 lw 629 1039 m 1 Y s 3 lw 629 1054 m20 6 lw 3 lw 753 1074 m20 6 lw 877 1023 m 3 Y s 3 lw 877 1039 m20 6 lw 1001 987 m 7 Y s 1001 1021 m 2 Y s 3
 lw 1001 1007 m20 6 lw 1125 960 m 11 Y s 1125 998 m 4 Y s 3 lw 1125 984 m20 6 lw 1249 939 m 14 Y s 1249 980 m 7 Y s 3 lw 1249 966 m20 6 lw 1373 885 m 25 Y s 1373 937 m 12 Y s 3 lw 1373 923 m20 6 lw 1497 787 m 55 Y s 1497 869 m 23 Y s 3 lw 1497 856
 m20 6 lw 1621 849 m 34 Y s 1621 910 m 16 Y s 3 lw 1621 896 m20 6 lw 1745 787 m 55 Y s 1745 869 m 23 Y s 3 lw 1745 856 m20 6 lw 1869 787 m 55 Y s 1869 869 m 23 Y s 3 lw 1869 856 m20 6 lw 1993 725 m 85 Y s 1993 837 m 29 Y s 3 lw 1993 823 m20 6 lw 2117
 725 m 85 Y s 2117 837 m 29 Y s 3 lw 2117 823 m20 6 lw 3 lw 319 584 m 1860 X s
 gsave  2263 1770 2 313 C 1949.08 369.478 t 0 r /Helvetica findfont 81.3741 sf 0 0 m ( [GeV]) show NC gr 
 gsave  2263 1770 2 313 C 1888.07 342.361 t 0 r /Helvetica findfont 54.2494 sf 0 0 m (eff) show NC gr 
 gsave  2263 1770 2 313 C 1823.66 369.478 t 0 r /Helvetica findfont 81.3741 sf 0 0 m (m) show NC gr  319 584 m cl s 381 584 m cl s 443 584 m cl s 505 584 m cl s 567 584 m cl s 629 584 m cl s 691 584 m cl s 753 584 m cl s 815 584 m cl s 877 584 m cl s
 939 584 m cl s 1001 584 m cl s 1063 584 m cl s 1125 584 m cl s 1187 584 m cl s 1249 584 m cl s 1311 584 m cl s 1373 584 m cl s 1435 584 m cl s 1497 584 m cl s 1559 584 m cl s 1621 584 m cl s 1683 584 m cl s 1745 584 m cl s 1807 584 m cl s 1869 584 m
 cl s 1931 584 m cl s 1993 584 m cl s 2055 584 m cl s 2117 584 m cl s 2179 584 m cl s 319 1729 m 1860 X s 319 1729 m cl s 381 1729 m cl s 443 1729 m cl s 505 1729 m cl s 567 1729 m cl s 629 1729 m cl s 691 1729 m cl s 753 1729 m cl s 815 1729 m cl s
 877 1729 m cl s 939 1729 m cl s 1001 1729 m cl s 1063 1729 m cl s 1125 1729 m cl s 1187 1729 m cl s 1249 1729 m cl s 1311 1729 m cl s 1373 1729 m cl s 1435 1729 m cl s 1497 1729 m cl s 1559 1729 m cl s 1621 1729 m cl s 1683 1729 m cl s 1745 1729 m
 cl s 1807 1729 m cl s 1869 1729 m cl s 1931 1729 m cl s 1993 1729 m cl s 2055 1729 m cl s 2117 1729 m cl s 2179 1729 m cl s 319 584 m 1145 Y s
 gsave  2263 1770 2 313 C 166.096 1091.49 t 90 r /Helvetica findfont 81.3741 sf 0 0 m (Events / 200 GeV) show NC gr  341 640 m -22 X s 341 672 m -22 X s 341 695 m -22 X s 341 713 m -22 X s 341 727 m -22 X s 341 740 m -22 X s 341 750 m -22 X s 341 760
 m -22 X s 363 768 m -44 X s
 gsave  2263 1770 2 313 C 300.555 740.919 t 0 r  -36 0 t /Helvetica findfont 64.4212 sf 0 0 m (1) show NC gr  341 823 m -22 X s 341 856 m -22 X s 341 879 m -22 X s 341 896 m -22 X s 341 911 m -22 X s 341 923 m -22 X s 341 934 m -22 X s 341 943 m -22
 X s 363 952 m -44 X s
 gsave  2263 1770 2 313 C 300.555 924.646 t 0 r  -73 0 t /Helvetica findfont 64.4212 sf 0 0 m (10) show NC gr  341 1007 m -22 X s 341 1039 m -22 X s 341 1062 m -22 X s 341 1080 m -22 X s 341 1095 m -22 X s 341 1107 m -22 X s 341 1118 m -22 X s 341
 1127 m -22 X s 363 1135 m -44 X s
 gsave  2263 1770 2 313 C 274.567 1132.16 t 0 r /Helvetica findfont 44.0776 sf 0 0 m (2) show NC gr 
 gsave  2263 1770 2 313 C 203.383 1105.05 t 0 r /Helvetica findfont 64.4212 sf 0 0 m (10) show NC gr  341 1191 m -22 X s 341 1223 m -22 X s 341 1246 m -22 X s 341 1264 m -22 X s 341 1278 m -22 X s 341 1291 m -22 X s 341 1301 m -22 X s 341 1311 m -22
 X s 363 1319 m -44 X s
 gsave  2263 1770 2 313 C 274.567 1321.99 t 0 r /Helvetica findfont 44.0776 sf 0 0 m (3) show NC gr 
 gsave  2263 1770 2 313 C 203.383 1291.48 t 0 r /Helvetica findfont 64.4212 sf 0 0 m (10) show NC gr  341 1375 m -22 X s 341 1407 m -22 X s 341 1430 m -22 X s 341 1448 m -22 X s 341 1462 m -22 X s 341 1474 m -22 X s 341 1485 m -22 X s 341 1495 m -22
 X s 363 1503 m -44 X s
 gsave  2263 1770 2 313 C 274.567 1501.64 t 0 r /Helvetica findfont 44.0776 sf 0 0 m (4) show NC gr 
 gsave  2263 1770 2 313 C 203.383 1474.52 t 0 r /Helvetica findfont 64.4212 sf 0 0 m (10) show NC gr  341 1558 m -22 X s 341 1591 m -22 X s 341 1614 m -22 X s 341 1631 m -22 X s 341 1646 m -22 X s 341 1658 m -22 X s 341 1669 m -22 X s 341 1678 m -22
 X s 363 1687 m -44 X s
 gsave  2263 1770 2 313 C 274.567 1688.08 t 0 r /Helvetica findfont 44.0776 sf 0 0 m (5) show NC gr 
 gsave  2263 1770 2 313 C 203.383 1657.57 t 0 r /Helvetica findfont 64.4212 sf 0 0 m (10) show NC gr  2179 584 m 1145 Y s 2157 640 m 22 X s 2157 672 m 22 X s 2157 695 m 22 X s 2157 713 m 22 X s 2157 727 m 22 X s 2157 740 m 22 X s 2157 750 m 22 X s
 2157 760 m 22 X s 2136 768 m 43 X s 2157 823 m 22 X s 2157 856 m 22 X s 2157 879 m 22 X s 2157 896 m 22 X s 2157 911 m 22 X s 2157 923 m 22 X s 2157 934 m 22 X s 2157 943 m 22 X s 2136 952 m 43 X s 2157 1007 m 22 X s 2157 1039 m 22 X s 2157 1062 m
 22 X s 2157 1080 m 22 X s 2157 1095 m 22 X s 2157 1107 m 22 X s 2157 1118 m 22 X s 2157 1127 m 22 X s 2136 1135 m 43 X s 2157 1191 m 22 X s 2157 1223 m 22 X s 2157 1246 m 22 X s 2157 1264 m 22 X s 2157 1278 m 22 X s 2157 1291 m 22 X s 2157 1301 m 22
 X s 2157 1311 m 22 X s 2136 1319 m 43 X s 2157 1375 m 22 X s 2157 1407 m 22 X s 2157 1430 m 22 X s 2157 1448 m 22 X s 2157 1462 m 22 X s 2157 1474 m 22 X s 2157 1485 m 22 X s 2157 1495 m 22 X s 2136 1503 m 43 X s 2157 1558 m 22 X s 2157 1591 m 22 X
 s 2157 1614 m 22 X s 2157 1631 m 22 X s 2157 1646 m 22 X s 2157 1658 m 22 X s 2157 1669 m 22 X s 2157 1678 m 22 X s 2136 1687 m 43 X s 0.4 0.6 1 c black 0.4 0.6 1 c 319 584 m 394 Y 124 X 102 Y 124 X 10 Y 124 X -8 Y 124 X -25 Y 124 X -19 Y 124 X -24
 Y 124 X -23 Y 124 X -37 Y 124 X -19 Y 124 X -20 Y 124 X -52 Y 124 X -34 Y 124 X -11 Y 124 X 68 Y 124 X -302 Y f black 0.4 0.6 1 c black 319 978 m 124 X 102 Y 124 X 10 Y 124 X -8 Y 124 X -25 Y 124 X -19 Y 124 X -24 Y 124 X -23 Y 124 X -37 Y 124 X -19
 Y 124 X -20 Y 124 X -52 Y 124 X -34 Y 124 X -11 Y 124 X 68 Y 124 X s 0.999 0.999 0.999 c black 0.999 0.999 0.999 c 319 584 m 305 Y 124 X 101 Y 124 X 7 Y 124 X -15 Y 124 X -26 Y 124 X -33 Y 124 X -17 Y 124 X -21 Y 124 X -57 Y 124 X -1 Y 124 X -37 Y
 124 X -33 Y 124 X -17 Y 124 X 8 Y 124 X -8 Y 124 X -156 Y f black 0.999 0.999 0.999 c black 319 889 m 124 X 101 Y 124 X 7 Y 124 X -15 Y 124 X -26 Y 124 X -33 Y 124 X -17 Y 124 X -21 Y 124 X -57 Y 124 X -1 Y 124 X -37 Y 124 X -33 Y 124 X -17 Y 124 X
 8 Y 124 X -8 Y 124 X s 1 1 1 c black 319 889 m 124 X 101 Y 124 X 7 Y 124 X -15 Y 124 X -26 Y 124 X -33 Y 124 X -17 Y 124 X -21 Y 124 X -57 Y 124 X -1 Y 124 X -37 Y 124 X -33 Y 124 X -17 Y 124 X 8 Y 124 X -8 Y 124 X s 0.6 1 0.6 c black 0.6 1 0.6 c
 319 584 m 305 Y 124 X 101 Y 124 X 7 Y 124 X -15 Y 124 X -26 Y 124 X -33 Y 124 X -17 Y 124 X -21 Y 124 X -57 Y 124 X -1 Y 124 X -37 Y 124 X -33 Y 124 X -17 Y 124 X 8 Y 124 X -8 Y 124 X -156 Y f black 0.6 1 0.6 c black 319 889 m 124 X 101 Y 124 X 7 Y
 124 X -15 Y 124 X -26 Y 124 X -33 Y 124 X -17 Y 124 X -21 Y 124 X -57 Y 124 X -1 Y 124 X -37 Y 124 X -33 Y 124 X -17 Y 124 X 8 Y 124 X -8 Y 124 X s 0.999 0.999 0.999 c black 0.999 0.999 0.999 c 319 584 m 174 Y 124 X 92 Y 124 X 41 Y 124 X -33 Y 124 X
 1 Y 124 X -50 Y 124 X 1 Y 124 X -23 Y 124 X -43 Y 124 X -10 Y 124 X 1 Y 124 X -130 Y 124 X 106 Y 124 X -127 Y 124 X 74 Y 124 X -74 Y f black 0.999 0.999 0.999 c black 319 758 m 124 X 92 Y 124 X 41 Y 124 X -33 Y 124 X 1 Y 124 X -50 Y 124 X 1 Y 124 X
 -23 Y 124 X -43 Y 124 X -10 Y 124 X 1 Y 124 X -130 Y 124 X 106 Y 124 X -127 Y 124 X 74 Y 124 X s 1 1 1 c black 319 758 m 124 X 92 Y 124 X 41 Y 124 X -33 Y 124 X 1 Y 124 X -50 Y 124 X 1 Y 124 X -23 Y 124 X -43 Y 124 X -10 Y 124 X 1 Y 124 X -130 Y 124
 X 106 Y 124 X -127 Y 124 X 74 Y 124 X s 1 0.8 0.4 c black 1 0.8 0.4 c 319 584 m 174 Y 124 X 92 Y 124 X 41 Y 124 X -33 Y 124 X 1 Y 124 X -50 Y 124 X 1 Y 124 X -23 Y 124 X -43 Y 124 X -10 Y 124 X 1 Y 124 X -130 Y 124 X 106 Y 124 X -127 Y 124 X 74 Y
 124 X -74 Y f black 1 0.8 0.4 c black 319 758 m 124 X 92 Y 124 X 41 Y 124 X -33 Y 124 X 1 Y 124 X -50 Y 124 X 1 Y 124 X -23 Y 124 X -43 Y 124 X -10 Y 124 X 1 Y 124 X -130 Y 124 X 106 Y 124 X -127 Y 124 X 74 Y 124 X s 0.999 0.999 0.999 c black 0.999
 0.999 0.999 c 319 584 m 166 Y 124 X 93 Y 124 X 41 Y 124 X -35 Y 124 X 3 Y 124 X -53 Y 124 X 8 Y 124 X -27 Y 124 X -47 Y 124 X -8 Y 124 X 7 Y 124 X -148 Y 124 X 126 Y 124 X -126 Y 124 X 72 Y 124 X -72 Y f black 0.999 0.999 0.999 c black 319 750 m 124
 X 93 Y 124 X 41 Y 124 X -35 Y 124 X 3 Y 124 X -53 Y 124 X 8 Y 124 X -27 Y 124 X -47 Y 124 X -8 Y 124 X 7 Y 124 X -148 Y 124 X 126 Y 124 X -126 Y 124 X 72 Y 124 X s 1 1 1 c black 319 750 m 124 X 93 Y 124 X 41 Y 124 X -35 Y 124 X 3 Y 124 X -53 Y 124 X
 8 Y 124 X -27 Y 124 X -47 Y 124 X -8 Y 124 X 7 Y 124 X -148 Y 124 X 126 Y 124 X -126 Y 124 X 72 Y 124 X s 1 0.4 0.6 c black 1 0.4 0.6 c 319 584 m 166 Y 124 X 93 Y 124 X 41 Y 124 X -35 Y 124 X 3 Y 124 X -53 Y 124 X 8 Y 124 X -27 Y 124 X -47 Y 124 X
 -8 Y 124 X 7 Y 124 X -148 Y 124 X 126 Y 124 X -126 Y 124 X 72 Y 124 X -72 Y f black 1 0.4 0.6 c black 319 750 m 124 X 93 Y 124 X 41 Y 124 X -35 Y 124 X 3 Y 124 X -53 Y 124 X 8 Y 124 X -27 Y 124 X -47 Y 124 X -8 Y 124 X 7 Y 124 X -148 Y 124 X 126 Y
 124 X -126 Y 124 X 72 Y 124 X s 1 0 0 c 6 lw 1 1 1 c black 1 0 0 c 319 978 m 124 X 102 Y 124 X 10 Y 124 X -8 Y 124 X -25 Y 124 X -19 Y 124 X -24 Y 124 X -23 Y 124 X -37 Y 124 X -19 Y 124 X -20 Y 124 X -52 Y 124 X -34 Y 124 X -11 Y 124 X 68 Y 124 X s
 black 3 lw 1 0 0 c 1 lw << /PatternType 1 /PaintType 2 /TilingType 1 /BBox [ 0 0 100 100 ] /XStep 100 /YStep 100 /PaintProc { begin gsave 0 100 m 100 0 l s gr end } >> [ 0.24 0 0 0.24 0 0 ] makepattern /P05 exch def /cs {[/Pattern /DeviceRGB]
 setcolorspace} def /FA {f [/DeviceRGB] setcolorspace} def cs 1 0 0 P05 setcolor 319 584 m 405 Y 124 X 96 Y 124 X 8 Y 124 X -5 Y 124 X -26 Y 124 X -18 Y 124 X -23 Y 124 X -23 Y 124 X -36 Y 124 X -18 Y 124 X -19 Y 124 X -50 Y 124 X -31 Y 124 X -9 Y
 124 X 64 Y 124 X -315 Y 287 Y -124 X -75 Y -124 X 16 Y -124 X 35 Y -124 X 56 Y -124 X 20 Y -124 X 23 Y -124 X 36 Y -124 X 23 Y -124 X 26 Y -124 X 20 Y -124 X 24 Y -124 X 11 Y -124 X -12 Y -124 X -108 Y -124 X -382 Y FA 6 lw 1 1 1 c 15 lw 381 980 m 1
 Y s 381 981 m cl s 381 939 m -8 Y s 381 931 m cl s 1125 964 m -3 Y s 1125 961 m cl s 1249 987 m s 1249 987 m cl s 1249 946 m -6 Y s 1249 940 m cl s 1373 944 m 6 Y s 1373 950 m cl s 1373 903 m -16 Y s 1373 887 m cl s 1497 876 m 19 Y s 1497 895 m cl s
 1497 835 m -42 Y s 1497 793 m cl s 1621 917 m 10 Y s 1621 927 m cl s 1621 876 m -24 Y s 1621 852 m cl s 1745 876 m 19 Y s 1745 895 m cl s 1745 835 m -42 Y s 1745 793 m cl s 1869 876 m 19 Y s 1869 895 m cl s 1869 835 m -42 Y s 1869 793 m cl s 1993
 844 m 27 Y s 1993 871 m cl s 1993 803 m -62 Y s 1993 741 m cl s 2117 844 m 27 Y s 2117 871 m cl s 2117 803 m -62 Y s 2117 741 m cl s black 1 1 1 c 3 lw /w 43 def /w2 {w 2 div} def /w3 {w 3 div} def 381 959 505 1058 629 1054 753 1074 877 1039 1001
 1007 1125 984 1249 966 1373 923 1497 856 1621 896 1745 856 1869 856 1993 823 2117 823 15 { m20} R 15 lw black 6 lw 1 1 1 c black 381 931 m 15 Y s 381 973 m 7 Y s 3 lw /w 33 def /w2 {w 2 div} def /w3 {w 3 div} def 381 959 m20 6 lw 505 1044 m 1 Y s 3
 lw 505 1058 m20 6 lw 629 1039 m 1 Y s 3 lw 629 1054 m20 6 lw 3 lw 753 1074 m20 6 lw 877 1023 m 3 Y s 3 lw 877 1039 m20 6 lw 1001 987 m 7 Y s 1001 1021 m 2 Y s 3 lw 1001 1007 m20 6 lw 1125 960 m 11 Y s 1125 998 m 4 Y s 3 lw 1125 984 m20 6 lw 1249 939
 m 14 Y s 1249 980 m 7 Y s 3 lw 1249 966 m20 6 lw 1373 885 m 25 Y s 1373 937 m 12 Y s 3 lw 1373 923 m20 6 lw 1497 787 m 55 Y s 1497 869 m 23 Y s 3 lw 1497 856 m20 6 lw 1621 849 m 34 Y s 1621 910 m 16 Y s 3 lw 1621 896 m20 6 lw 1745 787 m 55 Y s 1745
 869 m 23 Y s 3 lw 1745 856 m20 6 lw 1869 787 m 55 Y s 1869 869 m 23 Y s 3 lw 1869 856 m20 6 lw 1993 725 m 85 Y s 1993 837 m 29 Y s 3 lw 1993 823 m20 6 lw 2117 725 m 85 Y s 2117 837 m 29 Y s 3 lw 2117 823 m20 6 lw 381 973 m 8 Y s 381 981 m cl s 381
 946 m -15 Y s 381 931 m cl s 505 1045 m -1 Y s 505 1044 m cl s 629 1040 m s 629 1040 m cl s 877 1026 m -2 Y s 877 1024 m cl s 1001 1021 m 2 Y s 1001 1023 m cl s 1001 994 m -7 Y s 1001 987 m cl s 1125 998 m 5 Y s 1125 1003 m cl s 1125 971 m -10 Y s
 1125 961 m cl s 1249 980 m 7 Y s 1249 987 m cl s 1249 953 m -13 Y s 1249 940 m cl s 1373 937 m 13 Y s 1373 950 m cl s 1373 910 m -23 Y s 1373 887 m cl s 1497 869 m 26 Y s 1497 895 m cl s 1497 842 m -49 Y s 1497 793 m cl s 1621 910 m 17 Y s 1621 927
 m cl s 1621 883 m -31 Y s 1621 852 m cl s 1745 869 m 26 Y s 1745 895 m cl s 1745 842 m -49 Y s 1745 793 m cl s 1869 869 m 26 Y s 1869 895 m cl s 1869 842 m -49 Y s 1869 793 m cl s 1993 837 m 34 Y s 1993 871 m cl s 1993 810 m -69 Y s 1993 741 m cl s
 2117 837 m 34 Y s 2117 871 m cl s 2117 810 m -69 Y s 2117 741 m cl s 3 lw 381 959 505 1058 629 1054 753 1074 877 1039 1001 1007 1125 984 1249 966 1373 923 1497 856 1621 896 1745 856 1869 856 1993 823 2117 823 15 { m20} R 6 lw 3 lw 319 584 m 1860 X s
 319 584 m cl s 381 584 m cl s 443 584 m cl s 505 584 m cl s 567 584 m cl s 629 584 m cl s 691 584 m cl s 753 584 m cl s 815 584 m cl s 877 584 m cl s 939 584 m cl s 1001 584 m cl s 1063 584 m cl s 1125 584 m cl s 1187 584 m cl s 1249 584 m cl s 1311
 584 m cl s 1373 584 m cl s 1435 584 m cl s 1497 584 m cl s 1559 584 m cl s 1621 584 m cl s 1683 584 m cl s 1745 584 m cl s 1807 584 m cl s 1869 584 m cl s 1931 584 m cl s 1993 584 m cl s 2055 584 m cl s 2117 584 m cl s 2179 584 m cl s 319 1729 m
 1860 X s 319 1729 m cl s 381 1729 m cl s 443 1729 m cl s 505 1729 m cl s 567 1729 m cl s 629 1729 m cl s 691 1729 m cl s 753 1729 m cl s 815 1729 m cl s 877 1729 m cl s 939 1729 m cl s 1001 1729 m cl s 1063 1729 m cl s 1125 1729 m cl s 1187 1729 m
 cl s 1249 1729 m cl s 1311 1729 m cl s 1373 1729 m cl s 1435 1729 m cl s 1497 1729 m cl s 1559 1729 m cl s 1621 1729 m cl s 1683 1729 m cl s 1745 1729 m cl s 1807 1729 m cl s 1869 1729 m cl s 1931 1729 m cl s 1993 1729 m cl s 2055 1729 m cl s 2117
 1729 m cl s 2179 1729 m cl s 319 584 m 1145 Y s 341 640 m -22 X s 341 672 m -22 X s 341 695 m -22 X s 341 713 m -22 X s 341 727 m -22 X s 341 740 m -22 X s 341 750 m -22 X s 341 760 m -22 X s 363 768 m -44 X s 341 823 m -22 X s 341 856 m -22 X s 341
 879 m -22 X s 341 896 m -22 X s 341 911 m -22 X s 341 923 m -22 X s 341 934 m -22 X s 341 943 m -22 X s 363 952 m -44 X s 341 1007 m -22 X s 341 1039 m -22 X s 341 1062 m -22 X s 341 1080 m -22 X s 341 1095 m -22 X s 341 1107 m -22 X s 341 1118 m
 -22 X s 341 1127 m -22 X s 363 1135 m -44 X s 341 1191 m -22 X s 341 1223 m -22 X s 341 1246 m -22 X s 341 1264 m -22 X s 341 1278 m -22 X s 341 1291 m -22 X s 341 1301 m -22 X s 341 1311 m -22 X s 363 1319 m -44 X s 341 1375 m -22 X s 341 1407 m
 -22 X s 341 1430 m -22 X s 341 1448 m -22 X s 341 1462 m -22 X s 341 1474 m -22 X s 341 1485 m -22 X s 341 1495 m -22 X s 363 1503 m -44 X s 341 1558 m -22 X s 341 1591 m -22 X s 341 1614 m -22 X s 341 1631 m -22 X s 341 1646 m -22 X s 341 1658 m
 -22 X s 341 1669 m -22 X s 341 1678 m -22 X s 363 1687 m -44 X s 2179 584 m 1145 Y s 2157 640 m 22 X s 2157 672 m 22 X s 2157 695 m 22 X s 2157 713 m 22 X s 2157 727 m 22 X s 2157 740 m 22 X s 2157 750 m 22 X s 2157 760 m 22 X s 2136 768 m 43 X s
 2157 823 m 22 X s 2157 856 m 22 X s 2157 879 m 22 X s 2157 896 m 22 X s 2157 911 m 22 X s 2157 923 m 22 X s 2157 934 m 22 X s 2157 943 m 22 X s 2136 952 m 43 X s 2157 1007 m 22 X s 2157 1039 m 22 X s 2157 1062 m 22 X s 2157 1080 m 22 X s 2157 1095 m
 22 X s 2157 1107 m 22 X s 2157 1118 m 22 X s 2157 1127 m 22 X s 2136 1135 m 43 X s 2157 1191 m 22 X s 2157 1223 m 22 X s 2157 1246 m 22 X s 2157 1264 m 22 X s 2157 1278 m 22 X s 2157 1291 m 22 X s 2157 1301 m 22 X s 2157 1311 m 22 X s 2136 1319 m 43
 X s 2157 1375 m 22 X s 2157 1407 m 22 X s 2157 1430 m 22 X s 2157 1448 m 22 X s 2157 1462 m 22 X s 2157 1474 m 22 X s 2157 1485 m 22 X s 2157 1495 m 22 X s 2136 1503 m 43 X s 2157 1558 m 22 X s 2157 1591 m 22 X s 2157 1614 m 22 X s 2157 1631 m 22 X
 s 2157 1646 m 22 X s 2157 1658 m 22 X s 2157 1669 m 22 X s 2157 1678 m 22 X s 2136 1687 m 43 X s
 gsave  2263 1770 2 313 C 406.765 1447.41 t 0 r /Helvetica findfont 64.4212 sf 0 0 m (CRW for MB\255GGo) show NC gr 
 gsave  2263 1770 2 313 C 1464.36 1616.89 t 0 r /Helvetica findfont 64.4212 sf 0 0 m (SM Total) show NC gr  1 1 1 c 1338 1603 m 107 X 74 Y -107 X f 1 0 0 c 6 lw 1338 1640 m 107 X s black
 gsave  2263 1770 2 313 C 1464.36 1511.81 t 0 r /Helvetica findfont 64.4212 sf 0 0 m (Data) show NC gr  1391 1502 m 64 Y s 3 lw 1391 1534 m20 6 lw
 gsave  2263 1770 2 313 C 1464.36 1406.73 t 0 r /Helvetica findfont 64.4212 sf 0 0 m (W+jets) show NC gr  0.4 0.6 1 c 3 lw 1338 1391 m 107 X 74 Y -107 X f 6 lw black 3 lw 1338 1465 m 107 X s 1338 1391 m 107 X s 1445 1391 m 74 Y s 1338 1391 m 74 Y s
 gsave  2263 1770 2 313 C 1498.25 1298.26 t 0 r /Helvetica findfont 64.4212 sf 0 0 m (\(+EW\) & single top) show NC gr 
 gsave  2263 1770 2 313 C 1481.3 1298.26 t 0 r /Helvetica findfont 64.4212 sf 0 0 m (t) show NC gr  1481 1349 m 17 X s
 gsave  2263 1770 2 313 C 1464.36 1298.26 t 0 r /Helvetica findfont 64.4212 sf 0 0 m (t) show NC gr  0.6 1 0.6 c 1338 1284 m 107 X 75 Y -107 X f black 1338 1359 m 107 X s 1338 1284 m 107 X s 1445 1284 m 75 Y s 1338 1284 m 75 Y s
 gsave  2263 1770 2 313 C 1464.36 1193.18 t 0 r /Helvetica findfont 64.4212 sf 0 0 m (Z+jets) show NC gr  1 0.8 0.4 c 1338 1178 m 107 X 75 Y -107 X f black 1338 1253 m 107 X s 1338 1178 m 107 X s 1445 1178 m 75 Y s 1338 1178 m 75 Y s
 gsave  2263 1770 2 313 C 1464.36 1088.1 t 0 r /Helvetica findfont 64.4212 sf 0 0 m (Diboson) show NC gr  1 0.4 0.6 c 1338 1072 m 107 X 74 Y -107 X f black 1338 1146 m 107 X s 1338 1072 m 107 X s 1445 1072 m 74 Y s 1338 1072 m 74 Y s
 gsave  2263 1770 2 313 C 911.832 1566.05 t 0 r /Helvetica findfont 44.0776 sf 0 0 m (\2551) show NC gr 
 gsave  2263 1770 2 313 C 471.17 1535.54 t 0 r /Helvetica findfont 64.4212 sf 0 0 m (=13TeV, 139 fb) show NC gr 
 gsave  2263 1770 2 313 C 440.662 1535.54 t 0 r /Helvetica findfont 64.4212 sf 0 0 m (s) show NC gr  6 lw 420 1573 m 7 -41 d s 3 lw 427 1532 m 7 61 d s 434 1593 m 37 X s 1 1 1 c 2254 561 2 2 bf black 1 1 1 c black 1860 358 318 187 bl 1 1 1 c black
 1860 358 318 187 bl 6 lw 1 1 1 c black 3 lw 380 332 m20 6 lw 3 lw 504 328 m20 6 lw 3 lw 628 307 m20 6 lw 3 lw 752 350 m20 6 lw 3 lw 876 334 m20 6 lw 3 lw 1000 314 m20 6 lw 3 lw 1124 316 m20 6 lw 3 lw 1248 323 m20 6 lw 3 lw 1372 313 m20 6 lw 3 lw
 1496 264 m20 6 lw 3 lw 1620 333 m20 6 lw 3 lw 1744 353 m20 6 lw 3 lw 1868 430 m20 6 lw 3 lw 1992 378 m20 6 lw 3 lw 2116 278 m20 6 lw 3 lw 318 187 m 1860 X s
 gsave  2254 561 2 2 C 1959.25 33.8971 t 0 r /Helvetica findfont 78.1689 sf 0 0 m ( [GeV]) show NC gr 
 gsave  2254 561 2 2 C 1901.63 13.5588 t 0 r /Helvetica findfont 50.9797 sf 0 0 m (eff) show NC gr 
 gsave  2254 561 2 2 C 1840.61 33.8971 t 0 r /Helvetica findfont 78.1689 sf 0 0 m (m) show NC gr  318 201 m -14 Y s 380 194 m -7 Y s 442 194 m -7 Y s 504 194 m -7 Y s 566 194 m -7 Y s 628 201 m -14 Y s 690 194 m -7 Y s 752 194 m -7 Y s 814 194 m -7 Y
 s 876 194 m -7 Y s 938 201 m -14 Y s 1000 194 m -7 Y s 1062 194 m -7 Y s 1124 194 m -7 Y s 1186 194 m -7 Y s 1248 201 m -14 Y s 1310 194 m -7 Y s 1372 194 m -7 Y s 1434 194 m -7 Y s 1496 194 m -7 Y s 1558 201 m -14 Y s 1620 194 m -7 Y s 1682 194 m
 -7 Y s 1744 194 m -7 Y s 1806 194 m -7 Y s 1868 201 m -14 Y s 1930 194 m -7 Y s 1992 194 m -7 Y s 2054 194 m -7 Y s 2116 194 m -7 Y s 2178 201 m -14 Y s
 gsave  2254 561 2 2 C 227.111 118.64 t 0 r /Helvetica findfont 78.1689 sf 0 0 m (1000) show NC gr 
 gsave  2254 561 2 2 C 538.964 118.64 t 0 r /Helvetica findfont 78.1689 sf 0 0 m (1500) show NC gr 
 gsave  2254 561 2 2 C 847.428 118.64 t 0 r /Helvetica findfont 78.1689 sf 0 0 m (2000) show NC gr 
 gsave  2254 561 2 2 C 1159.28 118.64 t 0 r /Helvetica findfont 78.1689 sf 0 0 m (2500) show NC gr 
 gsave  2254 561 2 2 C 1467.74 118.64 t 0 r /Helvetica findfont 78.1689 sf 0 0 m (3000) show NC gr 
 gsave  2254 561 2 2 C 1779.6 118.64 t 0 r /Helvetica findfont 78.1689 sf 0 0 m (3500) show NC gr 
 gsave  2254 561 2 2 C 2088.06 118.64 t 0 r /Helvetica findfont 78.1689 sf 0 0 m (4000) show NC gr  318 545 m 1860 X s 318 531 m 14 Y s 380 538 m 7 Y s 442 538 m 7 Y s 504 538 m 7 Y s 566 538 m 7 Y s 628 531 m 14 Y s 690 538 m 7 Y s 752 538 m 7 Y s
 814 538 m 7 Y s 876 538 m 7 Y s 938 531 m 14 Y s 1000 538 m 7 Y s 1062 538 m 7 Y s 1124 538 m 7 Y s 1186 538 m 7 Y s 1248 531 m 14 Y s 1310 538 m 7 Y s 1372 538 m 7 Y s 1434 538 m 7 Y s 1496 538 m 7 Y s 1558 531 m 14 Y s 1620 538 m 7 Y s 1682 538 m
 7 Y s 1744 538 m 7 Y s 1806 538 m 7 Y s 1868 531 m 14 Y s 1930 538 m 7 Y s 1992 538 m 7 Y s 2054 538 m 7 Y s 2116 538 m 7 Y s 2178 531 m 14 Y s 318 187 m 358 Y s
 gsave  2254 561 2 2 C 166.096 284.736 t 90 r /Helvetica findfont 67.9729 sf 0 0 m (Data/SM) show NC gr  361 203 m -43 X s 339 220 m -21 X s 339 236 m -21 X s 339 252 m -21 X s 339 268 m -21 X s 361 285 m -43 X s 339 301 m -21 X s 339 317 m -21 X s
 339 334 m -21 X s 339 350 m -21 X s 361 366 m -43 X s 339 382 m -21 X s 339 399 m -21 X s 339 415 m -21 X s 339 431 m -21 X s 361 447 m -43 X s 339 464 m -21 X s 339 480 m -21 X s 339 496 m -21 X s 339 512 m -21 X s 361 529 m -43 X s 361 203 m -43 X
 s 339 187 m -21 X s 361 529 m -43 X s
 gsave  2254 561 2 2 C 261.008 183.044 t 0 r /Helvetica findfont 57.777 sf 0 0 m (0) show NC gr 
 gsave  2254 561 2 2 C 213.552 261.008 t 0 r /Helvetica findfont 57.777 sf 0 0 m (0.5) show NC gr 
 gsave  2254 561 2 2 C 271.177 342.361 t 0 r /Helvetica findfont 57.777 sf 0 0 m (1) show NC gr 
 gsave  2254 561 2 2 C 213.552 423.714 t 0 r /Helvetica findfont 57.777 sf 0 0 m (1.5) show NC gr 
 gsave  2254 561 2 2 C 261.008 505.067 t 0 r /Helvetica findfont 57.777 sf 0 0 m (2) show NC gr  2178 187 m 358 Y s 2135 203 m 43 X s 2157 220 m 21 X s 2157 236 m 21 X s 2157 252 m 21 X s 2157 268 m 21 X s 2135 285 m 43 X s 2157 301 m 21 X s 2157 317
 m 21 X s 2157 334 m 21 X s 2157 350 m 21 X s 2135 366 m 43 X s 2157 382 m 21 X s 2157 399 m 21 X s 2157 415 m 21 X s 2157 431 m 21 X s 2135 447 m 43 X s 2157 464 m 21 X s 2157 480 m 21 X s 2157 496 m 21 X s 2157 512 m 21 X s 2135 529 m 43 X s 2135
 203 m 43 X s 2157 187 m 21 X s 2135 529 m 43 X s 9 lw 380 345 m 26 Y s 380 371 m cl s 380 318 m -24 Y s 380 294 m cl s 504 341 m 7 Y s 504 348 m cl s 504 314 m -6 Y s 504 308 m cl s 628 321 m 4 Y s 628 325 m cl s 628 294 m -4 Y s 628 290 m cl s 752
 364 m 8 Y s 752 372 m cl s 752 337 m -8 Y s 752 329 m cl s 876 348 m 10 Y s 876 358 m cl s 876 321 m -10 Y s 876 311 m cl s 1000 328 m 11 Y s 1000 339 m cl s 1000 301 m -11 Y s 1000 290 m cl s 1124 329 m 16 Y s 1124 345 m cl s 1124 302 m -15 Y s
 1124 287 m cl s 1248 337 m 22 Y s 1248 359 m cl s 1248 310 m -21 Y s 1248 289 m cl s 1372 327 m 30 Y s 1372 357 m cl s 1372 300 m -27 Y s 1372 273 m cl s 1496 277 m 25 Y s 1496 302 m cl s 1496 250 m -19 Y s 1496 231 m cl s 1620 346 m 48 Y s 1620 394
 m cl s 1620 319 m -42 Y s 1620 277 m cl s 1744 366 m 81 Y s 1744 447 m cl s 1744 339 m -67 Y s 1744 272 m cl s 1868 443 m 102 Y s 1868 545 m cl s 1868 416 m -109 Y s 1868 307 m cl s 1992 392 m 128 Y s 1992 520 m cl s 1992 364 m -98 Y s 1992 266 m cl
 s 2116 291 m 47 Y s 2116 338 m cl s 2116 264 m -34 Y s 2116 230 m cl s 3 lw 380 332 504 328 628 307 752 350 876 334 1000 314 1124 316 1248 323 1372 313 1496 264 1620 333 1744 353 1868 430 1992 378 2116 278 15 { m20} R 9 lw 1 0 0 c 6 lw black 3 lw 1
 0 0 c 2178 227 m s 2178 255 m s 2178 284 m s 2178 312 m s 2178 341 m -3 -4 d s 2178 369 m -32 -32 d s 2175 395 m -58 -58 d s 2146 395 m -57 -58 d s 2118 395 m -58 -58 d s 2054 332 m -5 -5 d s 2089 395 m -68 -68 d s 2060 395 m -68 -68 d s 2042 405 m
 -79 -78 d s 2014 405 m -79 -78 d s 1985 405 m -72 -71 d s 1956 405 m -71 -71 d s 1920 398 m -64 -64 d s 1891 398 m -64 -64 d s 1863 398 m -61 -60 d s 1834 398 m -60 -60 d s 1802 394 m -57 -56 d s 1773 394 m -57 -56 d s 1744 394 m -56 -56 d s 1716
 394 m -51 -50 d s 1687 394 m -5 -4 d s 1681 389 m -45 -45 d s 1652 389 m -45 -45 d s 1624 389 m -45 -45 d s 1595 389 m -44 -44 d s 1566 389 m -44 -44 d s 1537 387 m -43 -42 d s 1508 387 m -43 -42 d s 1479 387 m -43 -42 d s 1450 387 m -37 -37 d s
 1416 382 m -32 -32 d s 1388 382 m -33 -32 d s 1359 382 m -32 -32 d s 1330 382 m -32 -32 d s 1302 382 m -33 -32 d s 1273 382 m -32 -32 d s 1244 382 m -32 -32 d s 1216 382 m -32 -32 d s 1187 382 m -32 -32 d s 1158 382 m -32 -32 d s 1129 382 m -31 -32
 d s 1100 382 m -31 -32 d s 1072 382 m -29 -29 d s 1041 379 m -27 -26 d s 1012 379 m -27 -26 d s 983 379 m -26 -26 d s 955 379 m -26 -25 d s 925 378 m -25 -24 d s 896 378 m -24 -24 d s 867 378 m -24 -24 d s 839 378 m -25 -24 d s 814 354 m -1 Y s 810
 379 m -25 -26 d s 782 379 m -26 -26 d s 753 379 m -25 -26 d s 724 379 m -25 -26 d s 696 379 m -20 -20 d s 662 373 m -15 -14 d s 633 373 m -15 -14 d s 604 373 m -14 -14 d s 576 373 m -19 -18 d s 550 377 m -21 -22 d s 522 377 m -22 -22 d s 493 377 m
 -22 -22 d s 464 377 m -21 -22 d s 442 354 m -11 -11 d s 318 231 m s 442 383 m -40 -40 d s 318 259 m s 419 389 m -46 -46 d s 318 288 m s 390 389 m -45 -46 d s 318 317 m s 361 389 m -43 -44 d s 333 389 m -15 -15 d s 6 lw black[ 4 8] 0 sd 3 lw 318 447
 m 1860 X s 318 285 m 1860 X s 1 0 0 c[  12 12 ] 0 sd 6 lw 318 366 m 1860 X s
 gr  gr showpage
end
%%EOF
