%!PS-Adobe-2.0 EPSF-2.0
%%BoundingBox:  0 0 567 521
%%Title: Distributions/meffInc_distrVR0LmetSig_MB-SSd_beforeFit_forThesis.eps: canvas
%%Creator: ROOT Version 6.04/16
%%CreationDate: Tue May 19 22:05:02 2020
%%DocumentNeededResources: ProcSet (FontSetInit)
%%EndComments
%%BeginProlog
80 dict begin
/s {stroke} def /l {lineto} def /m {moveto} def /t {translate} def
/r {rotate} def /rl {roll}  def /R {repeat} def
/d {rlineto} def /rm {rmoveto} def /gr {grestore} def /f {eofill} def
/c {setrgbcolor} def /black {0 setgray} def /sd {setdash} def
/cl {closepath} def /sf {scalefont setfont} def /lw {setlinewidth} def
/box {m dup 0 exch d exch 0 d 0 exch neg d cl} def
/NC{systemdict begin initclip end}def/C{NC box clip newpath}def
/bl {box s} def /bf {gsave box gsave f grestore 1 lw [] 0 sd s grestore} def /Y { 0 exch d} def /X { 0 d} def 
/K {{pop pop 0 moveto} exch kshow} bind def
/ita {/ang 15 def gsave [1 0 ang dup sin exch cos div 1 0 0] concat} def 
/mp {newpath /y exch def /x exch def} def
/side {[w .77 mul w .23 mul] .385 w mul sd w 0 l currentpoint t -144 r} def
/mr {mp x y w2 0 360 arc} def /m24 {mr s} def /m20 {mr f} def
/mb {mp x y w2 add m w2 neg 0 d 0 w neg d w 0 d 0 w d cl} def
/mt {mp x y w2 add m w2 neg w neg d w 0 d cl} def
/m21 {mb f} def /m25 {mb s} def /m22 {mt f} def /m26{mt s} def
/m23 {mp x y w2 sub m w2 w d w neg 0 d cl f} def
/m27 {mp x y w2 add m w3 neg w2 neg d w3 w2 neg d w3 w2 d cl s} def
/m28 {mp x w2 sub y w2 sub w3 add m w3 0 d  0 w3 neg d w3 0 d 0 w3 d w3 0 d  0 w3 d w3 neg 0 d 0 w3 d w3 neg 0 d 0 w3 neg d w3 neg 0 d cl s } def
/m29 {mp gsave x w2 sub y w2 add w3 sub m currentpoint t 4 {side} repeat cl fill gr} def
/m30 {mp gsave x w2 sub y w2 add w3 sub m currentpoint t 4 {side} repeat cl s gr} def
/m31 {mp x y w2 sub m 0 w d x w2 sub y m w 0 d x w2 sub y w2 add m w w neg d x w2 sub y w2 sub m w w d s} def
/m32 {mp x y w2 sub m w2 w d w neg 0 d cl s} def
/m33 {mp x y w2 add m w3 neg w2 neg d w3 w2 neg d w3 w2 d cl f} def
/m34 {mp x w2 sub y w2 sub w3 add m w3 0 d  0 w3 neg d w3 0 d 0 w3 d w3 0 d  0 w3 d w3 neg 0 d 0 w3 d w3 neg 0 d 0 w3 neg d w3 neg 0 d cl f } def
/m2 {mp x y w2 sub m 0 w d x w2 sub y m w 0 d s} def
/m5 {mp x w2 sub y w2 sub m w w d x w2 sub y w2 add m w w neg d s} def
%%IncludeResource: ProcSet (FontSetInit)
%%IncludeResource: font Times-Roman
%%IncludeResource: font Times-Italic
%%IncludeResource: font Times-Bold
%%IncludeResource: font Times-BoldItalic
%%IncludeResource: font Helvetica
%%IncludeResource: font Helvetica-Oblique
%%IncludeResource: font Helvetica-Bold
%%IncludeResource: font Helvetica-BoldOblique
%%IncludeResource: font Courier
%%IncludeResource: font Courier-Oblique
%%IncludeResource: font Courier-Bold
%%IncludeResource: font Courier-BoldOblique
%%IncludeResource: font Symbol
%%IncludeResource: font ZapfDingbats
/reEncode {exch findfont dup length dict begin {1 index /FID eq  {pop pop} {def} ifelse } forall /Encoding exch def currentdict end dup /FontName get exch definefont pop } def [/Times-Bold /Times-Italic /Times-BoldItalic /Helvetica /Helvetica-Oblique
 /Helvetica-Bold /Helvetica-BoldOblique /Courier /Courier-Oblique /Courier-Bold /Courier-BoldOblique /Times-Roman /AvantGarde-Book /AvantGarde-BookOblique /AvantGarde-Demi /AvantGarde-DemiOblique /Bookman-Demi /Bookman-DemiItalic /Bookman-Light
 /Bookman-LightItalic /Helvetica-Narrow /Helvetica-Narrow-Bold /Helvetica-Narrow-BoldOblique /Helvetica-Narrow-Oblique /NewCenturySchlbk-Roman /NewCenturySchlbk-Bold /NewCenturySchlbk-BoldItalic /NewCenturySchlbk-Italic /Palatino-Bold
 /Palatino-BoldItalic /Palatino-Italic /Palatino-Roman ] {ISOLatin1Encoding reEncode } forall
%%EndProlog
%%BeginSetup
%%EndSetup
newpath  gsave  .25 .25 scale  gsave  0 0 t black[  ] 0 sd 3 lw 1 1 1 c 2268 2085 0 0 bf black 1 1 1 c 2263 1770 2 313 bf black 1 1 1 c black 1860 1145 319 584 bl 1 1 1 c black 1860 1145 319 584 bl 6 lw 1 1 1 c black 3 lw /w 33 def /w2 {w 2 div} def
 /w3 {w 3 div} def 366 1230 m20 6 lw 3 lw 459 1216 m20 6 lw 3 lw 552 1179 m20 6 lw 3 lw 645 1140 m20 6 lw 3 lw 738 1099 m20 6 lw 3 lw 831 1073 m20 6 lw 3 lw 924 1040 m20 6 lw 3 lw 1017 1007 m20 6 lw 3 lw 1110 971 m20 6 lw 3 lw 1203 952 m20 6 lw 1296
 884 m 4 Y s 3 lw 1296 901 m20 6 lw 1389 828 m 13 Y s 1389 868 m 5 Y s 3 lw 1389 855 m20 6 lw 1482 805 m 18 Y s 1482 850 m 8 Y s 3 lw 1482 837 m20 6 lw 1575 828 m 13 Y s 1575 868 m 5 Y s 3 lw 1575 855 m20 6 lw 1668 741 m 40 Y s 1668 808 m 14 Y s 3 lw
 1668 794 m20 6 lw 1947 584 m 129 Y s 1947 740 m 29 Y s 3 lw 1947 726 m20 6 lw 3 lw 319 584 m 1860 X s
 gsave  2263 1770 2 313 C 1949.08 369.478 t 0 r /Helvetica findfont 81.3741 sf 0 0 m ( [GeV]) show NC gr 
 gsave  2263 1770 2 313 C 1888.07 342.361 t 0 r /Helvetica findfont 54.2494 sf 0 0 m (eff) show NC gr 
 gsave  2263 1770 2 313 C 1823.66 369.478 t 0 r /Helvetica findfont 81.3741 sf 0 0 m (m) show NC gr  319 584 m cl s 366 584 m cl s 412 584 m cl s 459 584 m cl s 505 584 m cl s 552 584 m cl s 598 584 m cl s 645 584 m cl s 691 584 m cl s 738 584 m cl s
 784 584 m cl s 831 584 m cl s 877 584 m cl s 924 584 m cl s 970 584 m cl s 1017 584 m cl s 1063 584 m cl s 1110 584 m cl s 1156 584 m cl s 1203 584 m cl s 1249 584 m cl s 1296 584 m cl s 1342 584 m cl s 1389 584 m cl s 1435 584 m cl s 1482 584 m cl
 s 1528 584 m cl s 1575 584 m cl s 1621 584 m cl s 1668 584 m cl s 1714 584 m cl s 1761 584 m cl s 1807 584 m cl s 1854 584 m cl s 1900 584 m cl s 1947 584 m cl s 1993 584 m cl s 2040 584 m cl s 2086 584 m cl s 2133 584 m cl s 2179 584 m cl s 319
 1729 m 1860 X s 319 1729 m cl s 366 1729 m cl s 412 1729 m cl s 459 1729 m cl s 505 1729 m cl s 552 1729 m cl s 598 1729 m cl s 645 1729 m cl s 691 1729 m cl s 738 1729 m cl s 784 1729 m cl s 831 1729 m cl s 877 1729 m cl s 924 1729 m cl s 970 1729
 m cl s 1017 1729 m cl s 1063 1729 m cl s 1110 1729 m cl s 1156 1729 m cl s 1203 1729 m cl s 1249 1729 m cl s 1296 1729 m cl s 1342 1729 m cl s 1389 1729 m cl s 1435 1729 m cl s 1482 1729 m cl s 1528 1729 m cl s 1575 1729 m cl s 1621 1729 m cl s 1668
 1729 m cl s 1714 1729 m cl s 1761 1729 m cl s 1807 1729 m cl s 1854 1729 m cl s 1900 1729 m cl s 1947 1729 m cl s 1993 1729 m cl s 2040 1729 m cl s 2086 1729 m cl s 2133 1729 m cl s 2179 1729 m cl s 319 584 m 1145 Y s
 gsave  2263 1770 2 313 C 166.096 1091.49 t 90 r /Helvetica findfont 81.3741 sf 0 0 m (Events / 200 GeV) show NC gr  341 627 m -22 X s 341 652 m -22 X s 341 670 m -22 X s 341 684 m -22 X s 341 695 m -22 X s 341 704 m -22 X s 341 713 m -22 X s 341 720
 m -22 X s 363 726 m -44 X s
 gsave  2263 1770 2 313 C 300.555 699.231 t 0 r  -36 0 t /Helvetica findfont 64.4212 sf 0 0 m (1) show NC gr  341 769 m -22 X s 341 794 m -22 X s 341 812 m -22 X s 341 826 m -22 X s 341 837 m -22 X s 341 846 m -22 X s 341 855 m -22 X s 341 862 m -22
 X s 363 868 m -44 X s
 gsave  2263 1770 2 313 C 300.555 841.27 t 0 r  -73 0 t /Helvetica findfont 64.4212 sf 0 0 m (10) show NC gr  341 911 m -22 X s 341 936 m -22 X s 341 954 m -22 X s 341 968 m -22 X s 341 979 m -22 X s 341 988 m -22 X s 341 997 m -22 X s 341 1004 m -22
 X s 363 1010 m -44 X s
 gsave  2263 1770 2 313 C 274.567 1010.13 t 0 r /Helvetica findfont 44.0776 sf 0 0 m (2) show NC gr 
 gsave  2263 1770 2 313 C 203.383 983.016 t 0 r /Helvetica findfont 64.4212 sf 0 0 m (10) show NC gr  341 1053 m -22 X s 341 1078 m -22 X s 341 1096 m -22 X s 341 1110 m -22 X s 341 1121 m -22 X s 341 1130 m -22 X s 341 1139 m -22 X s 341 1146 m -22
 X s 363 1152 m -44 X s
 gsave  2263 1770 2 313 C 274.567 1152.5 t 0 r /Helvetica findfont 44.0776 sf 0 0 m (3) show NC gr 
 gsave  2263 1770 2 313 C 203.383 1121.99 t 0 r /Helvetica findfont 64.4212 sf 0 0 m (10) show NC gr  341 1195 m -22 X s 341 1220 m -22 X s 341 1238 m -22 X s 341 1252 m -22 X s 341 1263 m -22 X s 341 1273 m -22 X s 341 1281 m -22 X s 341 1288 m -22
 X s 363 1295 m -44 X s
 gsave  2263 1770 2 313 C 274.567 1291.48 t 0 r /Helvetica findfont 44.0776 sf 0 0 m (4) show NC gr 
 gsave  2263 1770 2 313 C 203.383 1264.36 t 0 r /Helvetica findfont 64.4212 sf 0 0 m (10) show NC gr  341 1337 m -22 X s 341 1362 m -22 X s 341 1380 m -22 X s 341 1394 m -22 X s 341 1405 m -22 X s 341 1415 m -22 X s 341 1423 m -22 X s 341 1430 m -22
 X s 363 1437 m -44 X s
 gsave  2263 1770 2 313 C 274.567 1437.24 t 0 r /Helvetica findfont 44.0776 sf 0 0 m (5) show NC gr 
 gsave  2263 1770 2 313 C 203.383 1406.73 t 0 r /Helvetica findfont 64.4212 sf 0 0 m (10) show NC gr  341 1479 m -22 X s 341 1504 m -22 X s 341 1522 m -22 X s 341 1536 m -22 X s 341 1547 m -22 X s 341 1557 m -22 X s 341 1565 m -22 X s 341 1572 m -22
 X s 363 1579 m -44 X s
 gsave  2263 1770 2 313 C 274.567 1579.61 t 0 r /Helvetica findfont 44.0776 sf 0 0 m (6) show NC gr 
 gsave  2263 1770 2 313 C 203.383 1549.1 t 0 r /Helvetica findfont 64.4212 sf 0 0 m (10) show NC gr  341 1621 m -22 X s 341 1646 m -22 X s 341 1664 m -22 X s 341 1678 m -22 X s 341 1689 m -22 X s 341 1699 m -22 X s 341 1707 m -22 X s 341 1714 m -22 X
 s 363 1721 m -44 X s
 gsave  2263 1770 2 313 C 274.567 1718.58 t 0 r /Helvetica findfont 44.0776 sf 0 0 m (7) show NC gr 
 gsave  2263 1770 2 313 C 203.383 1691.47 t 0 r /Helvetica findfont 64.4212 sf 0 0 m (10) show NC gr  2179 584 m 1145 Y s 2157 627 m 22 X s 2157 652 m 22 X s 2157 670 m 22 X s 2157 684 m 22 X s 2157 695 m 22 X s 2157 704 m 22 X s 2157 713 m 22 X s
 2157 720 m 22 X s 2136 726 m 43 X s 2157 769 m 22 X s 2157 794 m 22 X s 2157 812 m 22 X s 2157 826 m 22 X s 2157 837 m 22 X s 2157 846 m 22 X s 2157 855 m 22 X s 2157 862 m 22 X s 2136 868 m 43 X s 2157 911 m 22 X s 2157 936 m 22 X s 2157 954 m 22 X
 s 2157 968 m 22 X s 2157 979 m 22 X s 2157 988 m 22 X s 2157 997 m 22 X s 2157 1004 m 22 X s 2136 1010 m 43 X s 2157 1053 m 22 X s 2157 1078 m 22 X s 2157 1096 m 22 X s 2157 1110 m 22 X s 2157 1121 m 22 X s 2157 1130 m 22 X s 2157 1139 m 22 X s 2157
 1146 m 22 X s 2136 1152 m 43 X s 2157 1195 m 22 X s 2157 1220 m 22 X s 2157 1238 m 22 X s 2157 1252 m 22 X s 2157 1263 m 22 X s 2157 1273 m 22 X s 2157 1281 m 22 X s 2157 1288 m 22 X s 2136 1295 m 43 X s 2157 1337 m 22 X s 2157 1362 m 22 X s 2157
 1380 m 22 X s 2157 1394 m 22 X s 2157 1405 m 22 X s 2157 1415 m 22 X s 2157 1423 m 22 X s 2157 1430 m 22 X s 2136 1437 m 43 X s 2157 1479 m 22 X s 2157 1504 m 22 X s 2157 1522 m 22 X s 2157 1536 m 22 X s 2157 1547 m 22 X s 2157 1557 m 22 X s 2157
 1565 m 22 X s 2157 1572 m 22 X s 2136 1579 m 43 X s 2157 1621 m 22 X s 2157 1646 m 22 X s 2157 1664 m 22 X s 2157 1678 m 22 X s 2157 1689 m 22 X s 2157 1699 m 22 X s 2157 1707 m 22 X s 2157 1714 m 22 X s 2136 1721 m 43 X s 0.4 0.6 1 c black 0.4 0.6
 1 c 319 584 m 651 Y 93 X -13 Y 93 X -37 Y 93 X -37 Y 93 X -38 Y 93 X -36 Y 93 X -34 Y 93 X -32 Y 93 X -33 Y 93 X -31 Y 93 X -33 Y 93 X -27 Y 93 X -28 Y 93 X -30 Y 93 X -30 Y 93 X -40 Y 93 X -24 Y 93 X -8 Y 93 X -40 Y 93 X 27 Y 93 X -127 Y f black
 0.4 0.6 1 c black 319 1235 m 93 X -13 Y 93 X -37 Y 93 X -37 Y 93 X -38 Y 93 X -36 Y 93 X -34 Y 93 X -32 Y 93 X -33 Y 93 X -31 Y 93 X -33 Y 93 X -27 Y 93 X -28 Y 93 X -30 Y 93 X -30 Y 93 X -40 Y 93 X -24 Y 93 X -8 Y 93 X -40 Y 93 X 27 Y 93 X s 0.999
 0.999 0.999 c black 0.999 0.999 0.999 c 319 584 m 634 Y 93 X -14 Y 93 X -38 Y 93 X -37 Y 93 X -38 Y 93 X -35 Y 93 X -34 Y 93 X -31 Y 93 X -34 Y 93 X -30 Y 93 X -35 Y 93 X -24 Y 93 X -28 Y 93 X -34 Y 93 X -26 Y 93 X -47 Y 93 X -19 Y 93 X -5 Y 93 X
 -47 Y 93 X 32 Y 93 X -110 Y f black 0.999 0.999 0.999 c black 319 1218 m 93 X -14 Y 93 X -38 Y 93 X -37 Y 93 X -38 Y 93 X -35 Y 93 X -34 Y 93 X -31 Y 93 X -34 Y 93 X -30 Y 93 X -35 Y 93 X -24 Y 93 X -28 Y 93 X -34 Y 93 X -26 Y 93 X -47 Y 93 X -19 Y
 93 X -5 Y 93 X -47 Y 93 X 32 Y 93 X s 1 1 1 c black 319 1218 m 93 X -14 Y 93 X -38 Y 93 X -37 Y 93 X -38 Y 93 X -35 Y 93 X -34 Y 93 X -31 Y 93 X -34 Y 93 X -30 Y 93 X -35 Y 93 X -24 Y 93 X -28 Y 93 X -34 Y 93 X -26 Y 93 X -47 Y 93 X -19 Y 93 X -5 Y
 93 X -47 Y 93 X 32 Y 93 X s 0.6 1 0.6 c black 0.6 1 0.6 c 319 584 m 634 Y 93 X -14 Y 93 X -38 Y 93 X -37 Y 93 X -38 Y 93 X -35 Y 93 X -34 Y 93 X -31 Y 93 X -34 Y 93 X -30 Y 93 X -35 Y 93 X -24 Y 93 X -28 Y 93 X -34 Y 93 X -26 Y 93 X -47 Y 93 X -19 Y
 93 X -5 Y 93 X -47 Y 93 X 32 Y 93 X -110 Y f black 0.6 1 0.6 c black 319 1218 m 93 X -14 Y 93 X -38 Y 93 X -37 Y 93 X -38 Y 93 X -35 Y 93 X -34 Y 93 X -31 Y 93 X -34 Y 93 X -30 Y 93 X -35 Y 93 X -24 Y 93 X -28 Y 93 X -34 Y 93 X -26 Y 93 X -47 Y 93 X
 -19 Y 93 X -5 Y 93 X -47 Y 93 X 32 Y 93 X s 0.999 0.999 0.999 c black 0.999 0.999 0.999 c 319 584 m 590 Y 93 X 1 Y 93 X -29 Y 93 X -33 Y 93 X -35 Y 93 X -32 Y 93 X -32 Y 93 X -32 Y 93 X -32 Y 93 X -30 Y 93 X -33 Y 93 X -25 Y 93 X -27 Y 93 X -40 Y 93
 X -27 Y 93 X -39 Y 93 X -18 Y 93 X -3 Y 93 X -48 Y 93 X 33 Y 93 X -109 Y f black 0.999 0.999 0.999 c black 319 1174 m 93 X 1 Y 93 X -29 Y 93 X -33 Y 93 X -35 Y 93 X -32 Y 93 X -32 Y 93 X -32 Y 93 X -32 Y 93 X -30 Y 93 X -33 Y 93 X -25 Y 93 X -27 Y
 93 X -40 Y 93 X -27 Y 93 X -39 Y 93 X -18 Y 93 X -3 Y 93 X -48 Y 93 X 33 Y 93 X s 1 1 1 c black 319 1174 m 93 X 1 Y 93 X -29 Y 93 X -33 Y 93 X -35 Y 93 X -32 Y 93 X -32 Y 93 X -32 Y 93 X -32 Y 93 X -30 Y 93 X -33 Y 93 X -25 Y 93 X -27 Y 93 X -40 Y
 93 X -27 Y 93 X -39 Y 93 X -18 Y 93 X -3 Y 93 X -48 Y 93 X 33 Y 93 X s 1 0.8 0.4 c black 1 0.8 0.4 c 319 584 m 590 Y 93 X 1 Y 93 X -29 Y 93 X -33 Y 93 X -35 Y 93 X -32 Y 93 X -32 Y 93 X -32 Y 93 X -32 Y 93 X -30 Y 93 X -33 Y 93 X -25 Y 93 X -27 Y 93
 X -40 Y 93 X -27 Y 93 X -39 Y 93 X -18 Y 93 X -3 Y 93 X -48 Y 93 X 33 Y 93 X -109 Y f black 1 0.8 0.4 c black 319 1174 m 93 X 1 Y 93 X -29 Y 93 X -33 Y 93 X -35 Y 93 X -32 Y 93 X -32 Y 93 X -32 Y 93 X -32 Y 93 X -30 Y 93 X -33 Y 93 X -25 Y 93 X -27
 Y 93 X -40 Y 93 X -27 Y 93 X -39 Y 93 X -18 Y 93 X -3 Y 93 X -48 Y 93 X 33 Y 93 X s 0.999 0.999 0.999 c black 0.999 0.999 0.999 c 319 584 m 450 Y 93 X -3 Y 93 X -29 Y 93 X -25 Y 93 X -36 Y 93 X -26 Y 93 X -37 Y 93 X -27 Y 93 X -42 Y 93 X -23 Y 93 X
 -9 Y 93 X -76 Y 93 X 18 Y 93 X -38 Y 93 X -24 Y 93 X -73 Y 93 X 29 Y 93 X -29 Y 186 X 5 Y 93 X -5 Y f black 0.999 0.999 0.999 c black 319 1034 m 93 X -3 Y 93 X -29 Y 93 X -25 Y 93 X -36 Y 93 X -26 Y 93 X -37 Y 93 X -27 Y 93 X -42 Y 93 X -23 Y 93 X
 -9 Y 93 X -76 Y 93 X 18 Y 93 X -38 Y 93 X -24 Y 93 X -73 Y 93 X 29 Y 93 X -29 Y 186 X 5 Y 93 X s 1 1 1 c black 319 1034 m 93 X -3 Y 93 X -29 Y 93 X -25 Y 93 X -36 Y 93 X -26 Y 93 X -37 Y 93 X -27 Y 93 X -42 Y 93 X -23 Y 93 X -9 Y 93 X -76 Y 93 X 18
 Y 93 X -38 Y 93 X -24 Y 93 X -73 Y 93 X 29 Y 93 X -29 Y 186 X 5 Y 93 X s 1 0.4 0.6 c black 1 0.4 0.6 c 319 584 m 450 Y 93 X -3 Y 93 X -29 Y 93 X -25 Y 93 X -36 Y 93 X -26 Y 93 X -37 Y 93 X -27 Y 93 X -42 Y 93 X -23 Y 93 X -9 Y 93 X -76 Y 93 X 18 Y
 93 X -38 Y 93 X -24 Y 93 X -73 Y 93 X 29 Y 93 X -29 Y 186 X 5 Y 93 X -5 Y f black 1 0.4 0.6 c black 319 1034 m 93 X -3 Y 93 X -29 Y 93 X -25 Y 93 X -36 Y 93 X -26 Y 93 X -37 Y 93 X -27 Y 93 X -42 Y 93 X -23 Y 93 X -9 Y 93 X -76 Y 93 X 18 Y 93 X -38
 Y 93 X -24 Y 93 X -73 Y 93 X 29 Y 93 X -29 Y 186 X 5 Y 93 X s 0.999 0.999 0.999 c black 0.999 0.999 0.999 c 319 584 m 316 Y 93 X 25 Y 93 X -28 Y 93 X -45 Y 93 X -26 Y 93 X -36 Y 93 X -43 Y 93 X -21 Y 93 X -37 Y 93 X -18 Y 93 X -28 Y 93 X -22 Y 93 X
 -37 Y 744 X f black 0.999 0.999 0.999 c black 319 900 m 93 X 25 Y 93 X -28 Y 93 X -45 Y 93 X -26 Y 93 X -36 Y 93 X -43 Y 93 X -21 Y 93 X -37 Y 93 X -18 Y 93 X -28 Y 93 X -22 Y 93 X -37 Y 744 X s 1 1 1 c black 319 900 m 93 X 25 Y 93 X -28 Y 93 X -45
 Y 93 X -26 Y 93 X -36 Y 93 X -43 Y 93 X -21 Y 93 X -37 Y 93 X -18 Y 93 X -28 Y 93 X -22 Y 93 X -37 Y 744 X s 0 0 0.4 c black 0 0 0.4 c 319 584 m 316 Y 93 X 25 Y 93 X -28 Y 93 X -45 Y 93 X -26 Y 93 X -36 Y 93 X -43 Y 93 X -21 Y 93 X -37 Y 93 X -18 Y
 93 X -28 Y 93 X -22 Y 93 X -37 Y 744 X f black 0 0 0.4 c black 319 900 m 93 X 25 Y 93 X -28 Y 93 X -45 Y 93 X -26 Y 93 X -36 Y 93 X -43 Y 93 X -21 Y 93 X -37 Y 93 X -18 Y 93 X -28 Y 93 X -22 Y 93 X -37 Y 744 X s 1 0 0 c 6 lw 1 1 1 c black 1 0 0 c
 319 1235 m 93 X -13 Y 93 X -37 Y 93 X -37 Y 93 X -38 Y 93 X -36 Y 93 X -34 Y 93 X -32 Y 93 X -33 Y 93 X -31 Y 93 X -33 Y 93 X -27 Y 93 X -28 Y 93 X -30 Y 93 X -30 Y 93 X -40 Y 93 X -24 Y 93 X -8 Y 93 X -40 Y 93 X 27 Y 93 X s black 3 lw 1 0 0 c 1 lw
 << /PatternType 1 /PaintType 2 /TilingType 1 /BBox [ 0 0 100 100 ] /XStep 100 /YStep 100 /PaintProc { begin gsave 0 100 m 100 0 l s gr end } >> [ 0.24 0 0 0.24 0 0 ] makepattern /P05 exch def /cs {[/Pattern /DeviceRGB] setcolorspace} def /FA {f
 [/DeviceRGB] setcolorspace} def cs 1 0 0 P05 setcolor 319 584 m 655 Y 93 X -13 Y 93 X -37 Y 93 X -38 Y 93 X -38 Y 93 X -35 Y 93 X -34 Y 93 X -32 Y 93 X -33 Y 93 X -30 Y 93 X -33 Y 93 X -26 Y 93 X -27 Y 93 X -29 Y 93 X -28 Y 93 X -41 Y 93 X -24 Y 93
 X -4 Y 93 X -40 Y 93 X 25 Y 93 X -138 Y 112 Y -93 X -29 Y -93 X 42 Y -93 X 13 Y -93 X 24 Y -93 X 39 Y -93 X 32 Y -93 X 32 Y -93 X 29 Y -93 X 27 Y -93 X 35 Y -93 X 31 Y -93 X 33 Y -93 X 32 Y -93 X 35 Y -93 X 35 Y -93 X 38 Y -93 X 38 Y -93 X 36 Y -93
 X 12 Y -93 X -646 Y FA 6 lw 1 1 1 c 15 lw 1389 834 m -5 Y s 1389 829 m cl s 1482 857 m 2 Y s 1482 859 m cl s 1482 817 m -11 Y s 1482 806 m cl s 1575 834 m -5 Y s 1575 829 m cl s 1668 814 m 10 Y s 1668 824 m cl s 1668 774 m -28 Y s 1668 746 m cl s
 1947 747 m 30 Y s 1947 777 m cl s 1947 706 m -87 Y s 1947 619 m cl s black 1 1 1 c 3 lw /w 43 def /w2 {w 2 div} def /w3 {w 3 div} def 366 1230 459 1216 552 1179 645 1140 738 1099 831 1073 924 1040 1017 1007 1110 971 1203 952 1296 901 1389 855 1482
 837 1575 855 1668 794 15 { m20} R 15 lw 3 lw 1947 726 m20 15 lw black 6 lw 1 1 1 c black 3 lw /w 33 def /w2 {w 2 div} def /w3 {w 3 div} def 366 1230 m20 6 lw 3 lw 459 1216 m20 6 lw 3 lw 552 1179 m20 6 lw 3 lw 645 1140 m20 6 lw 3 lw 738 1099 m20 6 lw
 3 lw 831 1073 m20 6 lw 3 lw 924 1040 m20 6 lw 3 lw 1017 1007 m20 6 lw 3 lw 1110 971 m20 6 lw 3 lw 1203 952 m20 6 lw 1296 884 m 4 Y s 3 lw 1296 901 m20 6 lw 1389 828 m 13 Y s 1389 868 m 5 Y s 3 lw 1389 855 m20 6 lw 1482 805 m 18 Y s 1482 850 m 8 Y s
 3 lw 1482 837 m20 6 lw 1575 828 m 13 Y s 1575 868 m 5 Y s 3 lw 1575 855 m20 6 lw 1668 741 m 40 Y s 1668 808 m 14 Y s 3 lw 1668 794 m20 6 lw 1947 584 m 129 Y s 1947 740 m 29 Y s 3 lw 1947 726 m20 6 lw 1296 888 m -4 Y s 1296 884 m cl s 1389 868 m 6 Y
 s 1389 874 m cl s 1389 841 m -12 Y s 1389 829 m cl s 1482 850 m 9 Y s 1482 859 m cl s 1482 823 m -17 Y s 1482 806 m cl s 1575 868 m 6 Y s 1575 874 m cl s 1575 841 m -12 Y s 1575 829 m cl s 1668 808 m 16 Y s 1668 824 m cl s 1668 781 m -35 Y s 1668
 746 m cl s 1947 740 m 37 Y s 1947 777 m cl s 1947 713 m -94 Y s 1947 619 m cl s 3 lw 366 1230 459 1216 552 1179 645 1140 738 1099 831 1073 924 1040 1017 1007 1110 971 1203 952 1296 901 1389 855 1482 837 1575 855 1668 794 15 { m20} R 6 lw 3 lw 1947
 726 m20 6 lw 3 lw 319 584 m 1860 X s 319 584 m cl s 366 584 m cl s 412 584 m cl s 459 584 m cl s 505 584 m cl s 552 584 m cl s 598 584 m cl s 645 584 m cl s 691 584 m cl s 738 584 m cl s 784 584 m cl s 831 584 m cl s 877 584 m cl s 924 584 m cl s
 970 584 m cl s 1017 584 m cl s 1063 584 m cl s 1110 584 m cl s 1156 584 m cl s 1203 584 m cl s 1249 584 m cl s 1296 584 m cl s 1342 584 m cl s 1389 584 m cl s 1435 584 m cl s 1482 584 m cl s 1528 584 m cl s 1575 584 m cl s 1621 584 m cl s 1668 584 m
 cl s 1714 584 m cl s 1761 584 m cl s 1807 584 m cl s 1854 584 m cl s 1900 584 m cl s 1947 584 m cl s 1993 584 m cl s 2040 584 m cl s 2086 584 m cl s 2133 584 m cl s 2179 584 m cl s 319 1729 m 1860 X s 319 1729 m cl s 366 1729 m cl s 412 1729 m cl s
 459 1729 m cl s 505 1729 m cl s 552 1729 m cl s 598 1729 m cl s 645 1729 m cl s 691 1729 m cl s 738 1729 m cl s 784 1729 m cl s 831 1729 m cl s 877 1729 m cl s 924 1729 m cl s 970 1729 m cl s 1017 1729 m cl s 1063 1729 m cl s 1110 1729 m cl s 1156
 1729 m cl s 1203 1729 m cl s 1249 1729 m cl s 1296 1729 m cl s 1342 1729 m cl s 1389 1729 m cl s 1435 1729 m cl s 1482 1729 m cl s 1528 1729 m cl s 1575 1729 m cl s 1621 1729 m cl s 1668 1729 m cl s 1714 1729 m cl s 1761 1729 m cl s 1807 1729 m cl s
 1854 1729 m cl s 1900 1729 m cl s 1947 1729 m cl s 1993 1729 m cl s 2040 1729 m cl s 2086 1729 m cl s 2133 1729 m cl s 2179 1729 m cl s 319 584 m 1145 Y s 341 627 m -22 X s 341 652 m -22 X s 341 670 m -22 X s 341 684 m -22 X s 341 695 m -22 X s 341
 704 m -22 X s 341 713 m -22 X s 341 720 m -22 X s 363 726 m -44 X s 341 769 m -22 X s 341 794 m -22 X s 341 812 m -22 X s 341 826 m -22 X s 341 837 m -22 X s 341 846 m -22 X s 341 855 m -22 X s 341 862 m -22 X s 363 868 m -44 X s 341 911 m -22 X s
 341 936 m -22 X s 341 954 m -22 X s 341 968 m -22 X s 341 979 m -22 X s 341 988 m -22 X s 341 997 m -22 X s 341 1004 m -22 X s 363 1010 m -44 X s 341 1053 m -22 X s 341 1078 m -22 X s 341 1096 m -22 X s 341 1110 m -22 X s 341 1121 m -22 X s 341 1130
 m -22 X s 341 1139 m -22 X s 341 1146 m -22 X s 363 1152 m -44 X s 341 1195 m -22 X s 341 1220 m -22 X s 341 1238 m -22 X s 341 1252 m -22 X s 341 1263 m -22 X s 341 1273 m -22 X s 341 1281 m -22 X s 341 1288 m -22 X s 363 1295 m -44 X s 341 1337 m
 -22 X s 341 1362 m -22 X s 341 1380 m -22 X s 341 1394 m -22 X s 341 1405 m -22 X s 341 1415 m -22 X s 341 1423 m -22 X s 341 1430 m -22 X s 363 1437 m -44 X s 341 1479 m -22 X s 341 1504 m -22 X s 341 1522 m -22 X s 341 1536 m -22 X s 341 1547 m
 -22 X s 341 1557 m -22 X s 341 1565 m -22 X s 341 1572 m -22 X s 363 1579 m -44 X s 341 1621 m -22 X s 341 1646 m -22 X s 341 1664 m -22 X s 341 1678 m -22 X s 341 1689 m -22 X s 341 1699 m -22 X s 341 1707 m -22 X s 341 1714 m -22 X s 363 1721 m
 -44 X s 2179 584 m 1145 Y s 2157 627 m 22 X s 2157 652 m 22 X s 2157 670 m 22 X s 2157 684 m 22 X s 2157 695 m 22 X s 2157 704 m 22 X s 2157 713 m 22 X s 2157 720 m 22 X s 2136 726 m 43 X s 2157 769 m 22 X s 2157 794 m 22 X s 2157 812 m 22 X s 2157
 826 m 22 X s 2157 837 m 22 X s 2157 846 m 22 X s 2157 855 m 22 X s 2157 862 m 22 X s 2136 868 m 43 X s 2157 911 m 22 X s 2157 936 m 22 X s 2157 954 m 22 X s 2157 968 m 22 X s 2157 979 m 22 X s 2157 988 m 22 X s 2157 997 m 22 X s 2157 1004 m 22 X s
 2136 1010 m 43 X s 2157 1053 m 22 X s 2157 1078 m 22 X s 2157 1096 m 22 X s 2157 1110 m 22 X s 2157 1121 m 22 X s 2157 1130 m 22 X s 2157 1139 m 22 X s 2157 1146 m 22 X s 2136 1152 m 43 X s 2157 1195 m 22 X s 2157 1220 m 22 X s 2157 1238 m 22 X s
 2157 1252 m 22 X s 2157 1263 m 22 X s 2157 1273 m 22 X s 2157 1281 m 22 X s 2157 1288 m 22 X s 2136 1295 m 43 X s 2157 1337 m 22 X s 2157 1362 m 22 X s 2157 1380 m 22 X s 2157 1394 m 22 X s 2157 1405 m 22 X s 2157 1415 m 22 X s 2157 1423 m 22 X s
 2157 1430 m 22 X s 2136 1437 m 43 X s 2157 1479 m 22 X s 2157 1504 m 22 X s 2157 1522 m 22 X s 2157 1536 m 22 X s 2157 1547 m 22 X s 2157 1557 m 22 X s 2157 1565 m 22 X s 2157 1572 m 22 X s 2136 1579 m 43 X s 2157 1621 m 22 X s 2157 1646 m 22 X s
 2157 1664 m 22 X s 2157 1678 m 22 X s 2157 1689 m 22 X s 2157 1699 m 22 X s 2157 1707 m 22 X s 2157 1714 m 22 X s 2136 1721 m 43 X s
 gsave  2263 1770 2 313 C 406.765 1447.41 t 0 r /Helvetica findfont 64.4212 sf 0 0 m (VR0LmetSig for MB\255SSd) show NC gr 
 gsave  2263 1770 2 313 C 1464.36 1630.45 t 0 r /Helvetica findfont 64.4212 sf 0 0 m (SM Total) show NC gr  1 1 1 c 1338 1616 m 107 X 64 Y -107 X f 1 0 0 c 6 lw 1338 1648 m 107 X s black
 gsave  2263 1770 2 313 C 1464.36 1538.93 t 0 r /Helvetica findfont 64.4212 sf 0 0 m (Data) show NC gr  1391 1529 m 55 Y s 3 lw 1391 1557 m20 6 lw
 gsave  2263 1770 2 313 C 1464.36 1447.41 t 0 r /Helvetica findfont 64.4212 sf 0 0 m (W+jets) show NC gr  0.4 0.6 1 c 3 lw 1338 1434 m 107 X 64 Y -107 X f 6 lw black 3 lw 1338 1498 m 107 X s 1338 1434 m 107 X s 1445 1434 m 64 Y s 1338 1434 m 64 Y s
 gsave  2263 1770 2 313 C 1498.25 1355.88 t 0 r /Helvetica findfont 64.4212 sf 0 0 m (\(+EW\) & single top) show NC gr 
 gsave  2263 1770 2 313 C 1481.3 1355.88 t 0 r /Helvetica findfont 64.4212 sf 0 0 m (t) show NC gr  1481 1407 m 17 X s
 gsave  2263 1770 2 313 C 1464.36 1355.88 t 0 r /Helvetica findfont 64.4212 sf 0 0 m (t) show NC gr  0.6 1 0.6 c 1338 1343 m 107 X 63 Y -107 X f black 1338 1406 m 107 X s 1338 1343 m 107 X s 1445 1343 m 63 Y s 1338 1343 m 63 Y s
 gsave  2263 1770 2 313 C 1464.36 1264.36 t 0 r /Helvetica findfont 64.4212 sf 0 0 m (Z+jets) show NC gr  1 0.8 0.4 c 1338 1252 m 107 X 63 Y -107 X f black 1338 1315 m 107 X s 1338 1252 m 107 X s 1445 1252 m 63 Y s 1338 1252 m 63 Y s
 gsave  2263 1770 2 313 C 1464.36 1172.84 t 0 r /Helvetica findfont 64.4212 sf 0 0 m (Diboson) show NC gr  1 0.4 0.6 c 1338 1161 m 107 X 63 Y -107 X f black 1338 1224 m 107 X s 1338 1161 m 107 X s 1445 1161 m 63 Y s 1338 1161 m 63 Y s
 gsave  2263 1770 2 313 C 1464.36 1081.32 t 0 r /Helvetica findfont 64.4212 sf 0 0 m (Multi\255jet) show NC gr  0 0 0.4 c 1338 1070 m 107 X 63 Y -107 X f black 1338 1133 m 107 X s 1338 1070 m 107 X s 1445 1070 m 63 Y s 1338 1070 m 63 Y s
 gsave  2263 1770 2 313 C 911.832 1566.05 t 0 r /Helvetica findfont 44.0776 sf 0 0 m (\2551) show NC gr 
 gsave  2263 1770 2 313 C 471.17 1535.54 t 0 r /Helvetica findfont 64.4212 sf 0 0 m (=13TeV, 139 fb) show NC gr 
 gsave  2263 1770 2 313 C 440.662 1535.54 t 0 r /Helvetica findfont 64.4212 sf 0 0 m (s) show NC gr  6 lw 420 1573 m 7 -41 d s 3 lw 427 1532 m 7 61 d s 434 1593 m 37 X s 1 1 1 c 2254 561 2 2 bf black 1 1 1 c black 1860 358 318 187 bl 1 1 1 c black
 1860 358 318 187 bl 6 lw 1 1 1 c black 3 lw 364 355 m20 6 lw 3 lw 457 350 m20 6 lw 3 lw 550 350 m20 6 lw 3 lw 643 346 m20 6 lw 3 lw 736 341 m20 6 lw 3 lw 829 362 m20 6 lw 3 lw 923 365 m20 6 lw 3 lw 1016 361 m20 6 lw 3 lw 1109 356 m20 6 lw 3 lw 1202
 389 m20 6 lw 3 lw 1295 342 m20 6 lw 3 lw 1388 304 m20 6 lw 3 lw 1481 322 m20 6 lw 3 lw 1574 462 m20 6 lw 3 lw 1667 360 m20 6 lw 3 lw 1946 371 m20 6 lw 3 lw 318 187 m 1860 X s
 gsave  2254 561 2 2 C 1959.25 33.8971 t 0 r /Helvetica findfont 78.1689 sf 0 0 m ( [GeV]) show NC gr 
 gsave  2254 561 2 2 C 1901.63 13.5588 t 0 r /Helvetica findfont 50.9797 sf 0 0 m (eff) show NC gr 
 gsave  2254 561 2 2 C 1840.61 33.8971 t 0 r /Helvetica findfont 78.1689 sf 0 0 m (m) show NC gr  318 201 m -14 Y s 364 194 m -7 Y s 411 194 m -7 Y s 457 194 m -7 Y s 504 194 m -7 Y s 550 201 m -14 Y s 597 194 m -7 Y s 643 194 m -7 Y s 690 194 m -7 Y
 s 736 194 m -7 Y s 783 201 m -14 Y s 829 194 m -7 Y s 876 194 m -7 Y s 923 194 m -7 Y s 969 194 m -7 Y s 1016 201 m -14 Y s 1062 194 m -7 Y s 1109 194 m -7 Y s 1155 194 m -7 Y s 1202 194 m -7 Y s 1248 201 m -14 Y s 1295 194 m -7 Y s 1341 194 m -7 Y
 s 1388 194 m -7 Y s 1434 194 m -7 Y s 1481 201 m -14 Y s 1527 194 m -7 Y s 1574 194 m -7 Y s 1620 194 m -7 Y s 1667 194 m -7 Y s 1713 201 m -14 Y s 1760 194 m -7 Y s 1806 194 m -7 Y s 1853 194 m -7 Y s 1899 194 m -7 Y s 1946 201 m -14 Y s 1992 194 m
 -7 Y s 2039 194 m -7 Y s 2085 194 m -7 Y s 2132 194 m -7 Y s 2178 201 m -14 Y s
 gsave  2254 561 2 2 C 227.111 118.64 t 0 r /Helvetica findfont 78.1689 sf 0 0 m (1000) show NC gr 
 gsave  2254 561 2 2 C 461.001 118.64 t 0 r /Helvetica findfont 78.1689 sf 0 0 m (1500) show NC gr 
 gsave  2254 561 2 2 C 691.501 118.64 t 0 r /Helvetica findfont 78.1689 sf 0 0 m (2000) show NC gr 
 gsave  2254 561 2 2 C 925.391 118.64 t 0 r /Helvetica findfont 78.1689 sf 0 0 m (2500) show NC gr 
 gsave  2254 561 2 2 C 1159.28 118.64 t 0 r /Helvetica findfont 78.1689 sf 0 0 m (3000) show NC gr 
 gsave  2254 561 2 2 C 1389.78 118.64 t 0 r /Helvetica findfont 78.1689 sf 0 0 m (3500) show NC gr 
 gsave  2254 561 2 2 C 1623.67 118.64 t 0 r /Helvetica findfont 78.1689 sf 0 0 m (4000) show NC gr 
 gsave  2254 561 2 2 C 1857.56 118.64 t 0 r /Helvetica findfont 78.1689 sf 0 0 m (4500) show NC gr 
 gsave  2254 561 2 2 C 2088.06 118.64 t 0 r /Helvetica findfont 78.1689 sf 0 0 m (5000) show NC gr  318 545 m 1860 X s 318 531 m 14 Y s 364 538 m 7 Y s 411 538 m 7 Y s 457 538 m 7 Y s 504 538 m 7 Y s 550 531 m 14 Y s 597 538 m 7 Y s 643 538 m 7 Y s
 690 538 m 7 Y s 736 538 m 7 Y s 783 531 m 14 Y s 829 538 m 7 Y s 876 538 m 7 Y s 923 538 m 7 Y s 969 538 m 7 Y s 1016 531 m 14 Y s 1062 538 m 7 Y s 1109 538 m 7 Y s 1155 538 m 7 Y s 1202 538 m 7 Y s 1248 531 m 14 Y s 1295 538 m 7 Y s 1341 538 m 7 Y
 s 1388 538 m 7 Y s 1434 538 m 7 Y s 1481 531 m 14 Y s 1527 538 m 7 Y s 1574 538 m 7 Y s 1620 538 m 7 Y s 1667 538 m 7 Y s 1713 531 m 14 Y s 1760 538 m 7 Y s 1806 538 m 7 Y s 1853 538 m 7 Y s 1899 538 m 7 Y s 1946 531 m 14 Y s 1992 538 m 7 Y s 2039
 538 m 7 Y s 2085 538 m 7 Y s 2132 538 m 7 Y s 2178 531 m 14 Y s 318 187 m 358 Y s
 gsave  2254 561 2 2 C 166.096 284.736 t 90 r /Helvetica findfont 67.9729 sf 0 0 m (Data/SM) show NC gr  361 203 m -43 X s 339 220 m -21 X s 339 236 m -21 X s 339 252 m -21 X s 339 268 m -21 X s 361 285 m -43 X s 339 301 m -21 X s 339 317 m -21 X s
 339 334 m -21 X s 339 350 m -21 X s 361 366 m -43 X s 339 382 m -21 X s 339 399 m -21 X s 339 415 m -21 X s 339 431 m -21 X s 361 447 m -43 X s 339 464 m -21 X s 339 480 m -21 X s 339 496 m -21 X s 339 512 m -21 X s 361 529 m -43 X s 361 203 m -43 X
 s 339 187 m -21 X s 361 529 m -43 X s
 gsave  2254 561 2 2 C 261.008 183.044 t 0 r /Helvetica findfont 57.777 sf 0 0 m (0) show NC gr 
 gsave  2254 561 2 2 C 213.552 261.008 t 0 r /Helvetica findfont 57.777 sf 0 0 m (0.5) show NC gr 
 gsave  2254 561 2 2 C 271.177 342.361 t 0 r /Helvetica findfont 57.777 sf 0 0 m (1) show NC gr 
 gsave  2254 561 2 2 C 213.552 423.714 t 0 r /Helvetica findfont 57.777 sf 0 0 m (1.5) show NC gr 
 gsave  2254 561 2 2 C 261.008 505.067 t 0 r /Helvetica findfont 57.777 sf 0 0 m (2) show NC gr  2178 187 m 358 Y s 2135 203 m 43 X s 2157 220 m 21 X s 2157 236 m 21 X s 2157 252 m 21 X s 2157 268 m 21 X s 2135 285 m 43 X s 2157 301 m 21 X s 2157 317
 m 21 X s 2157 334 m 21 X s 2157 350 m 21 X s 2135 366 m 43 X s 2157 382 m 21 X s 2157 399 m 21 X s 2157 415 m 21 X s 2157 431 m 21 X s 2135 447 m 43 X s 2157 464 m 21 X s 2157 480 m 21 X s 2157 496 m 21 X s 2157 512 m 21 X s 2135 529 m 43 X s 2135
 203 m 43 X s 2157 187 m 21 X s 2135 529 m 43 X s 9 lw 1016 375 m 2 Y s 1016 377 m cl s 1016 348 m -3 Y s 1016 345 m cl s 1109 370 m 7 Y s 1109 377 m cl s 1109 343 m -7 Y s 1109 336 m cl s 1202 402 m 17 Y s 1202 419 m cl s 1202 375 m -16 Y s 1202 359
 m cl s 1295 356 m 21 Y s 1295 377 m cl s 1295 329 m -20 Y s 1295 309 m cl s 1388 318 m 23 Y s 1388 341 m cl s 1388 291 m -22 Y s 1388 269 m cl s 1481 336 m 37 Y s 1481 373 m cl s 1481 309 m -34 Y s 1481 275 m cl s 1574 475 m 70 Y s 1574 545 m cl s
 1574 448 m -75 Y s 1574 373 m cl s 1667 374 m 86 Y s 1667 460 m cl s 1667 347 m -72 Y s 1667 275 m cl s 1946 385 m 160 Y s 1946 545 m cl s 1946 358 m -125 Y s 1946 233 m cl s 3 lw 364 355 457 350 550 350 643 346 736 341 829 362 923 365 1016 361 1109
 356 1202 389 1295 342 1388 304 1481 322 1574 462 1667 360 15 { m20} R 9 lw 3 lw 1946 371 m20 9 lw 1 0 0 c 6 lw black 3 lw 1 0 0 c 2178 227 m s 2178 255 m s 2178 284 m s 2178 312 m s 2178 341 m -9 -9 d s 2178 369 m -38 -37 d s 2178 398 m -66 -66 d s
 2152 401 m -74 -74 d s 2123 401 m -74 -74 d s 2095 401 m -74 -74 d s 2071 405 m -79 -78 d s 2042 405 m -76 -75 d s 2014 405 m -76 -75 d s 1982 402 m -73 -72 d s 1953 402 m -61 -61 d s 1924 402 m -61 -61 d s 1884 391 m -49 -50 d s 1855 391 m -50 -50
 d s 1827 391 m -50 -50 d s 1799 391 m -51 -50 d s 1770 391 m -51 -50 d s 1741 391 m -53 -53 d s 1713 392 m -54 -54 d s 1687 394 m -57 -56 d s 1658 394 m -51 -50 d s 1629 394 m -50 -50 d s 1595 388 m -45 -44 d s 1566 388 m -41 -41 d s 1537 388 m -41
 -41 d s 1505 385 m -38 -38 d s 1477 385 m -38 -38 d s 1448 385 m -34 -34 d s 1416 381 m -31 -30 d s 1387 381 m -31 -30 d s 1358 381 m -29 -29 d s 1328 380 m -28 -28 d s 1300 380 m -29 -28 d s 1271 380 m -26 -26 d s 1240 378 m -23 -24 d s 1211 378 m
 -23 -24 d s 1182 378 m -23 -24 d s 1153 376 m -21 -20 d s 1124 376 m -21 -20 d s 1095 376 m -21 -20 d s 1066 376 m -21 -21 d s 1038 377 m -21 -22 d s 1009 377 m -21 -22 d s 981 377 m -21 -21 d s 951 376 m -20 -20 d s 922 376 m -19 -20 d s 894 376 m
 -20 -20 d s 865 376 m -20 -20 d s 836 376 m -19 -20 d s 808 376 m -20 -20 d s 779 376 m -20 -20 d s 751 376 m -21 -20 d s 722 376 m -20 -20 d s 693 376 m -19 -19 d s 664 375 m -19 -18 d s 635 375 m -19 -18 d s 606 375 m -19 -19 d s 578 376 m -19 -20
 d s 549 376 m -19 -20 d s 520 376 m -19 -20 d s 492 376 m -20 -20 d s 464 376 m -21 -20 d s 318 231 m s 435 376 m -20 -20 d s 318 259 m s 408 378 m -24 -24 d s 318 288 m s 379 378 m -23 -24 d s 318 317 m s 351 378 m -24 -24 d s 318 345 m s 322 378 m
 -4 -4 d s 6 lw black[ 4 8] 0 sd 3 lw 318 447 m 1860 X s 318 285 m 1860 X s 1 0 0 c[  12 12 ] 0 sd 6 lw 318 366 m 1860 X s
 gr  gr showpage
end
%%EOF
