%!PS-Adobe-2.0 EPSF-2.0
%%BoundingBox:  0 0 567 521
%%Title: Distributions/meffInc_distrVR0LdPhi_MB-GGo_afterFit_forThesis.eps: canvas
%%Creator: ROOT Version 6.04/16
%%CreationDate: Tue May 19 22:04:55 2020
%%DocumentNeededResources: ProcSet (FontSetInit)
%%EndComments
%%BeginProlog
80 dict begin
/s {stroke} def /l {lineto} def /m {moveto} def /t {translate} def
/r {rotate} def /rl {roll}  def /R {repeat} def
/d {rlineto} def /rm {rmoveto} def /gr {grestore} def /f {eofill} def
/c {setrgbcolor} def /black {0 setgray} def /sd {setdash} def
/cl {closepath} def /sf {scalefont setfont} def /lw {setlinewidth} def
/box {m dup 0 exch d exch 0 d 0 exch neg d cl} def
/NC{systemdict begin initclip end}def/C{NC box clip newpath}def
/bl {box s} def /bf {gsave box gsave f grestore 1 lw [] 0 sd s grestore} def /Y { 0 exch d} def /X { 0 d} def 
/K {{pop pop 0 moveto} exch kshow} bind def
/ita {/ang 15 def gsave [1 0 ang dup sin exch cos div 1 0 0] concat} def 
/mp {newpath /y exch def /x exch def} def
/side {[w .77 mul w .23 mul] .385 w mul sd w 0 l currentpoint t -144 r} def
/mr {mp x y w2 0 360 arc} def /m24 {mr s} def /m20 {mr f} def
/mb {mp x y w2 add m w2 neg 0 d 0 w neg d w 0 d 0 w d cl} def
/mt {mp x y w2 add m w2 neg w neg d w 0 d cl} def
/m21 {mb f} def /m25 {mb s} def /m22 {mt f} def /m26{mt s} def
/m23 {mp x y w2 sub m w2 w d w neg 0 d cl f} def
/m27 {mp x y w2 add m w3 neg w2 neg d w3 w2 neg d w3 w2 d cl s} def
/m28 {mp x w2 sub y w2 sub w3 add m w3 0 d  0 w3 neg d w3 0 d 0 w3 d w3 0 d  0 w3 d w3 neg 0 d 0 w3 d w3 neg 0 d 0 w3 neg d w3 neg 0 d cl s } def
/m29 {mp gsave x w2 sub y w2 add w3 sub m currentpoint t 4 {side} repeat cl fill gr} def
/m30 {mp gsave x w2 sub y w2 add w3 sub m currentpoint t 4 {side} repeat cl s gr} def
/m31 {mp x y w2 sub m 0 w d x w2 sub y m w 0 d x w2 sub y w2 add m w w neg d x w2 sub y w2 sub m w w d s} def
/m32 {mp x y w2 sub m w2 w d w neg 0 d cl s} def
/m33 {mp x y w2 add m w3 neg w2 neg d w3 w2 neg d w3 w2 d cl f} def
/m34 {mp x w2 sub y w2 sub w3 add m w3 0 d  0 w3 neg d w3 0 d 0 w3 d w3 0 d  0 w3 d w3 neg 0 d 0 w3 d w3 neg 0 d 0 w3 neg d w3 neg 0 d cl f } def
/m2 {mp x y w2 sub m 0 w d x w2 sub y m w 0 d s} def
/m5 {mp x w2 sub y w2 sub m w w d x w2 sub y w2 add m w w neg d s} def
%%IncludeResource: ProcSet (FontSetInit)
%%IncludeResource: font Times-Roman
%%IncludeResource: font Times-Italic
%%IncludeResource: font Times-Bold
%%IncludeResource: font Times-BoldItalic
%%IncludeResource: font Helvetica
%%IncludeResource: font Helvetica-Oblique
%%IncludeResource: font Helvetica-Bold
%%IncludeResource: font Helvetica-BoldOblique
%%IncludeResource: font Courier
%%IncludeResource: font Courier-Oblique
%%IncludeResource: font Courier-Bold
%%IncludeResource: font Courier-BoldOblique
%%IncludeResource: font Symbol
%%IncludeResource: font ZapfDingbats
/reEncode {exch findfont dup length dict begin {1 index /FID eq  {pop pop} {def} ifelse } forall /Encoding exch def currentdict end dup /FontName get exch definefont pop } def [/Times-Bold /Times-Italic /Times-BoldItalic /Helvetica /Helvetica-Oblique
 /Helvetica-Bold /Helvetica-BoldOblique /Courier /Courier-Oblique /Courier-Bold /Courier-BoldOblique /Times-Roman /AvantGarde-Book /AvantGarde-BookOblique /AvantGarde-Demi /AvantGarde-DemiOblique /Bookman-Demi /Bookman-DemiItalic /Bookman-Light
 /Bookman-LightItalic /Helvetica-Narrow /Helvetica-Narrow-Bold /Helvetica-Narrow-BoldOblique /Helvetica-Narrow-Oblique /NewCenturySchlbk-Roman /NewCenturySchlbk-Bold /NewCenturySchlbk-BoldItalic /NewCenturySchlbk-Italic /Palatino-Bold
 /Palatino-BoldItalic /Palatino-Italic /Palatino-Roman ] {ISOLatin1Encoding reEncode } forall
%%EndProlog
%%BeginSetup
%%EndSetup
newpath  gsave  .25 .25 scale  gsave  0 0 t black[  ] 0 sd 3 lw 1 1 1 c 2268 2085 0 0 bf black 1 1 1 c 2263 1770 2 313 bf black 1 1 1 c black 1860 1145 319 584 bl 1 1 1 c black 1860 1145 319 584 bl 6 lw 1 1 1 c black 505 944 m 22 Y s 505 993 m 12 Y s
 3 lw /w 33 def /w2 {w 2 div} def /w3 {w 3 div} def 505 979 m20 6 lw 629 991 m 14 Y s 629 1032 m 7 Y s 3 lw 629 1018 m20 6 lw 753 998 m 13 Y s 753 1038 m 6 Y s 3 lw 753 1024 m20 6 lw 877 898 m 32 Y s 877 957 m 17 Y s 3 lw 877 944 m20 6 lw 1001 876 m
 38 Y s 1001 941 m 19 Y s 3 lw 1001 928 m20 6 lw 1125 847 m 48 Y s 1125 922 m 22 Y s 3 lw 1125 908 m20 6 lw 1621 584 m 189 Y s 1621 800 m 47 Y s 3 lw 1621 786 m20 6 lw 3 lw 319 584 m 1860 X s
 gsave  2263 1770 2 313 C 1949.08 369.478 t 0 r /Helvetica findfont 81.3741 sf 0 0 m ( [GeV]) show NC gr 
 gsave  2263 1770 2 313 C 1888.07 342.361 t 0 r /Helvetica findfont 54.2494 sf 0 0 m (eff) show NC gr 
 gsave  2263 1770 2 313 C 1823.66 369.478 t 0 r /Helvetica findfont 81.3741 sf 0 0 m (m) show NC gr  319 584 m cl s 381 584 m cl s 443 584 m cl s 505 584 m cl s 567 584 m cl s 629 584 m cl s 691 584 m cl s 753 584 m cl s 815 584 m cl s 877 584 m cl s
 939 584 m cl s 1001 584 m cl s 1063 584 m cl s 1125 584 m cl s 1187 584 m cl s 1249 584 m cl s 1311 584 m cl s 1373 584 m cl s 1435 584 m cl s 1497 584 m cl s 1559 584 m cl s 1621 584 m cl s 1683 584 m cl s 1745 584 m cl s 1807 584 m cl s 1869 584 m
 cl s 1931 584 m cl s 1993 584 m cl s 2055 584 m cl s 2117 584 m cl s 2179 584 m cl s 319 1729 m 1860 X s 319 1729 m cl s 381 1729 m cl s 443 1729 m cl s 505 1729 m cl s 567 1729 m cl s 629 1729 m cl s 691 1729 m cl s 753 1729 m cl s 815 1729 m cl s
 877 1729 m cl s 939 1729 m cl s 1001 1729 m cl s 1063 1729 m cl s 1125 1729 m cl s 1187 1729 m cl s 1249 1729 m cl s 1311 1729 m cl s 1373 1729 m cl s 1435 1729 m cl s 1497 1729 m cl s 1559 1729 m cl s 1621 1729 m cl s 1683 1729 m cl s 1745 1729 m
 cl s 1807 1729 m cl s 1869 1729 m cl s 1931 1729 m cl s 1993 1729 m cl s 2055 1729 m cl s 2117 1729 m cl s 2179 1729 m cl s 319 584 m 1145 Y s
 gsave  2263 1770 2 313 C 166.096 1091.49 t 90 r /Helvetica findfont 81.3741 sf 0 0 m (Events / 200 GeV) show NC gr  341 645 m -22 X s 341 681 m -22 X s 341 706 m -22 X s 341 726 m -22 X s 341 742 m -22 X s 341 755 m -22 X s 341 767 m -22 X s 341 777
 m -22 X s 363 786 m -44 X s
 gsave  2263 1770 2 313 C 300.555 759.354 t 0 r  -36 0 t /Helvetica findfont 64.4212 sf 0 0 m (1) show NC gr  341 847 m -22 X s 341 883 m -22 X s 341 908 m -22 X s 341 928 m -22 X s 341 944 m -22 X s 341 957 m -22 X s 341 969 m -22 X s 341 979 m -22
 X s 363 989 m -44 X s
 gsave  2263 1770 2 313 C 300.555 961.516 t 0 r  -73 0 t /Helvetica findfont 64.4212 sf 0 0 m (10) show NC gr  341 1049 m -22 X s 341 1085 m -22 X s 341 1110 m -22 X s 341 1130 m -22 X s 341 1146 m -22 X s 341 1159 m -22 X s 341 1171 m -22 X s 341
 1182 m -22 X s 363 1191 m -44 X s
 gsave  2263 1770 2 313 C 274.567 1189.79 t 0 r /Helvetica findfont 44.0776 sf 0 0 m (2) show NC gr 
 gsave  2263 1770 2 313 C 203.383 1162.67 t 0 r /Helvetica findfont 64.4212 sf 0 0 m (10) show NC gr  341 1252 m -22 X s 341 1287 m -22 X s 341 1313 m -22 X s 341 1332 m -22 X s 341 1348 m -22 X s 341 1362 m -22 X s 341 1373 m -22 X s 341 1384 m -22
 X s 363 1393 m -44 X s
 gsave  2263 1770 2 313 C 274.567 1393.17 t 0 r /Helvetica findfont 44.0776 sf 0 0 m (3) show NC gr 
 gsave  2263 1770 2 313 C 203.383 1362.66 t 0 r /Helvetica findfont 64.4212 sf 0 0 m (10) show NC gr  341 1454 m -22 X s 341 1489 m -22 X s 341 1515 m -22 X s 341 1534 m -22 X s 341 1550 m -22 X s 341 1564 m -22 X s 341 1576 m -22 X s 341 1586 m -22
 X s 363 1595 m -44 X s
 gsave  2263 1770 2 313 C 274.567 1593.16 t 0 r /Helvetica findfont 44.0776 sf 0 0 m (4) show NC gr 
 gsave  2263 1770 2 313 C 203.383 1566.05 t 0 r /Helvetica findfont 64.4212 sf 0 0 m (10) show NC gr  341 1656 m -22 X s 341 1692 m -22 X s 341 1717 m -22 X s 2179 584 m 1145 Y s 2157 645 m 22 X s 2157 681 m 22 X s 2157 706 m 22 X s 2157 726 m 22 X s
 2157 742 m 22 X s 2157 755 m 22 X s 2157 767 m 22 X s 2157 777 m 22 X s 2136 786 m 43 X s 2157 847 m 22 X s 2157 883 m 22 X s 2157 908 m 22 X s 2157 928 m 22 X s 2157 944 m 22 X s 2157 957 m 22 X s 2157 969 m 22 X s 2157 979 m 22 X s 2136 989 m 43 X
 s 2157 1049 m 22 X s 2157 1085 m 22 X s 2157 1110 m 22 X s 2157 1130 m 22 X s 2157 1146 m 22 X s 2157 1159 m 22 X s 2157 1171 m 22 X s 2157 1182 m 22 X s 2136 1191 m 43 X s 2157 1252 m 22 X s 2157 1287 m 22 X s 2157 1313 m 22 X s 2157 1332 m 22 X s
 2157 1348 m 22 X s 2157 1362 m 22 X s 2157 1373 m 22 X s 2157 1384 m 22 X s 2136 1393 m 43 X s 2157 1454 m 22 X s 2157 1489 m 22 X s 2157 1515 m 22 X s 2157 1534 m 22 X s 2157 1550 m 22 X s 2157 1564 m 22 X s 2157 1576 m 22 X s 2157 1586 m 22 X s
 2136 1595 m 43 X s 2157 1656 m 22 X s 2157 1692 m 22 X s 2157 1717 m 22 X s 0.4 0.6 1 c black 0.4 0.6 1 c 319 584 m 124 X 349 Y 124 X 93 Y 124 X -22 Y 124 X -39 Y 124 X -46 Y 124 X -74 Y 124 X -45 Y 124 X -96 Y 124 X -25 Y 124 X 7 Y 124 X -102 Y 372
 X 6 Y 124 X -6 Y f black 0.4 0.6 1 c black 319 584 m 124 X 349 Y 124 X 93 Y 124 X -22 Y 124 X -39 Y 124 X -46 Y 124 X -74 Y 124 X -45 Y 124 X -96 Y 124 X -25 Y 124 X 7 Y 124 X -102 Y 372 X 6 Y 124 X s 0.999 0.999 0.999 c black 0.999 0.999 0.999 c
 319 584 m 124 X 339 Y 124 X 86 Y 124 X -21 Y 124 X -42 Y 124 X -46 Y 124 X -81 Y 124 X -42 Y 124 X -105 Y 124 X -17 Y 124 X -71 Y 496 X 6 Y 124 X -6 Y f black 0.999 0.999 0.999 c black 319 584 m 124 X 339 Y 124 X 86 Y 124 X -21 Y 124 X -42 Y 124 X
 -46 Y 124 X -81 Y 124 X -42 Y 124 X -105 Y 124 X -17 Y 124 X -71 Y 496 X 6 Y 124 X s 1 1 1 c black 319 584 m 124 X 339 Y 124 X 86 Y 124 X -21 Y 124 X -42 Y 124 X -46 Y 124 X -81 Y 124 X -42 Y 124 X -105 Y 124 X -17 Y 124 X -71 Y 496 X 6 Y 124 X s
 0.6 1 0.6 c black 0.6 1 0.6 c 319 584 m 124 X 339 Y 124 X 86 Y 124 X -21 Y 124 X -42 Y 124 X -46 Y 124 X -81 Y 124 X -42 Y 124 X -105 Y 124 X -17 Y 124 X -71 Y 496 X 6 Y 124 X -6 Y f black 0.6 1 0.6 c black 319 584 m 124 X 339 Y 124 X 86 Y 124 X -21
 Y 124 X -42 Y 124 X -46 Y 124 X -81 Y 124 X -42 Y 124 X -105 Y 124 X -17 Y 124 X -71 Y 496 X 6 Y 124 X s 0.999 0.999 0.999 c black 0.999 0.999 0.999 c 319 584 m 124 X 205 Y 124 X 87 Y 124 X 14 Y 124 X -46 Y 124 X -11 Y 124 X -79 Y 124 X -27 Y 124 X
 -138 Y 124 X -5 Y 744 X f black 0.999 0.999 0.999 c black 319 584 m 124 X 205 Y 124 X 87 Y 124 X 14 Y 124 X -46 Y 124 X -11 Y 124 X -79 Y 124 X -27 Y 124 X -138 Y 124 X -5 Y 744 X s 1 1 1 c black 319 584 m 124 X 205 Y 124 X 87 Y 124 X 14 Y 124 X -46
 Y 124 X -11 Y 124 X -79 Y 124 X -27 Y 124 X -138 Y 124 X -5 Y 744 X s 1 0.8 0.4 c black 1 0.8 0.4 c 319 584 m 124 X 205 Y 124 X 87 Y 124 X 14 Y 124 X -46 Y 124 X -11 Y 124 X -79 Y 124 X -27 Y 124 X -138 Y 124 X -5 Y 744 X f black 1 0.8 0.4 c black
 319 584 m 124 X 205 Y 124 X 87 Y 124 X 14 Y 124 X -46 Y 124 X -11 Y 124 X -79 Y 124 X -27 Y 124 X -138 Y 124 X -5 Y 744 X s 0.999 0.999 0.999 c black 0.999 0.999 0.999 c 319 584 m 124 X 97 Y 124 X 83 Y 124 X 38 Y 124 X -57 Y 124 X 15 Y 124 X -120 Y
 124 X -26 Y 124 X -30 Y 868 X f black 0.999 0.999 0.999 c black 319 584 m 124 X 97 Y 124 X 83 Y 124 X 38 Y 124 X -57 Y 124 X 15 Y 124 X -120 Y 124 X -26 Y 124 X -30 Y 868 X s 1 1 1 c black 319 584 m 124 X 97 Y 124 X 83 Y 124 X 38 Y 124 X -57 Y 124 X
 15 Y 124 X -120 Y 124 X -26 Y 124 X -30 Y 868 X s 1 0.4 0.6 c black 1 0.4 0.6 c 319 584 m 124 X 97 Y 124 X 83 Y 124 X 38 Y 124 X -57 Y 124 X 15 Y 124 X -120 Y 124 X -26 Y 124 X -30 Y 868 X f black 1 0.4 0.6 c black 319 584 m 124 X 97 Y 124 X 83 Y
 124 X 38 Y 124 X -57 Y 124 X 15 Y 124 X -120 Y 124 X -26 Y 124 X -30 Y 868 X s 0.999 0.999 0.999 c black 0.999 0.999 0.999 c 319 584 m 372 X 98 Y 124 X -56 Y 124 X 28 Y 124 X -49 Y 124 X -21 Y 992 X f black 0.999 0.999 0.999 c black 319 584 m 372 X
 98 Y 124 X -56 Y 124 X 28 Y 124 X -49 Y 124 X -21 Y 992 X s 1 1 1 c black 319 584 m 372 X 98 Y 124 X -56 Y 124 X 28 Y 124 X -49 Y 124 X -21 Y 992 X s 0 0 0.4 c black 0 0 0.4 c 319 584 m 372 X 98 Y 124 X -56 Y 124 X 28 Y 124 X -49 Y 124 X -21 Y 992 X
 f black 0 0 0.4 c black 319 584 m 372 X 98 Y 124 X -56 Y 124 X 28 Y 124 X -49 Y 124 X -21 Y 992 X s 1 0 0 c 6 lw 1 1 1 c black 1 0 0 c 319 584 m 124 X 349 Y 124 X 93 Y 124 X -22 Y 124 X -39 Y 124 X -46 Y 124 X -74 Y 124 X -45 Y 124 X -96 Y 124 X -25
 Y 124 X 7 Y 124 X -102 Y 372 X 6 Y 124 X s black 3 lw 1 0 0 c 1 lw << /PatternType 1 /PaintType 2 /TilingType 1 /BBox [ 0 0 100 100 ] /XStep 100 /YStep 100 /PaintProc { begin gsave 0 100 m 100 0 l s gr end } >> [ 0.24 0 0 0.24 0 0 ] makepattern /P05
 exch def /cs {[/Pattern /DeviceRGB] setcolorspace} def /FA {f [/DeviceRGB] setcolorspace} def cs 1 0 0 P05 setcolor 443 584 m 361 Y 124 X 91 Y 124 X -20 Y 124 X -40 Y 124 X -44 Y 124 X -68 Y 124 X -44 Y 124 X -96 Y 124 X -19 Y 124 X 26 Y 124 X -144
 Y 124 X -3 Y 248 X 42 Y 124 X -42 Y -496 X 1 Y -124 X 57 Y -124 X 36 Y -124 X 97 Y -124 X 46 Y -124 X 83 Y -124 X 47 Y -124 X 40 Y -124 X 23 Y -124 X -94 Y -124 X -336 Y FA 6 lw 1 1 1 c 15 lw 505 1000 m 5 Y s 505 1005 m cl s 505 959 m -14 Y s 505
 945 m cl s 629 1039 m s 629 1039 m cl s 629 998 m -7 Y s 629 991 m cl s 753 1045 m s 753 1045 m cl s 753 1004 m -6 Y s 753 998 m cl s 877 964 m 11 Y s 877 975 m cl s 877 923 m -23 Y s 877 900 m cl s 1001 948 m 14 Y s 1001 962 m cl s 1001 907 m -29 Y
 s 1001 878 m cl s 1125 929 m 17 Y s 1125 946 m cl s 1125 888 m -37 Y s 1125 851 m cl s 1621 807 m 52 Y s 1621 859 m cl s 1621 766 m -133 Y s 1621 633 m cl s black 1 1 1 c 3 lw /w 43 def /w2 {w 2 div} def /w3 {w 3 div} def 505 979 629 1018 753 1024
 877 944 1001 928 1125 908 6 { m20} R 15 lw 3 lw 1621 786 m20 15 lw black 6 lw 1 1 1 c black 505 944 m 22 Y s 505 993 m 12 Y s 3 lw /w 33 def /w2 {w 2 div} def /w3 {w 3 div} def 505 979 m20 6 lw 629 991 m 14 Y s 629 1032 m 7 Y s 3 lw 629 1018 m20 6
 lw 753 998 m 13 Y s 753 1038 m 6 Y s 3 lw 753 1024 m20 6 lw 877 898 m 32 Y s 877 957 m 17 Y s 3 lw 877 944 m20 6 lw 1001 876 m 38 Y s 1001 941 m 19 Y s 3 lw 1001 928 m20 6 lw 1125 847 m 48 Y s 1125 922 m 22 Y s 3 lw 1125 908 m20 6 lw 1621 584 m 189
 Y s 1621 800 m 47 Y s 3 lw 1621 786 m20 6 lw 505 993 m 12 Y s 505 1005 m cl s 505 966 m -21 Y s 505 945 m cl s 629 1032 m 7 Y s 629 1039 m cl s 629 1005 m -14 Y s 629 991 m cl s 753 1038 m 7 Y s 753 1045 m cl s 753 1011 m -13 Y s 753 998 m cl s 877
 957 m 18 Y s 877 975 m cl s 877 930 m -30 Y s 877 900 m cl s 1001 941 m 21 Y s 1001 962 m cl s 1001 914 m -36 Y s 1001 878 m cl s 1125 922 m 24 Y s 1125 946 m cl s 1125 895 m -44 Y s 1125 851 m cl s 1621 800 m 59 Y s 1621 859 m cl s 1621 773 m -140
 Y s 1621 633 m cl s 3 lw 505 979 629 1018 753 1024 877 944 1001 928 1125 908 6 { m20} R 6 lw 3 lw 1621 786 m20 6 lw 3 lw 319 584 m 1860 X s 319 584 m cl s 381 584 m cl s 443 584 m cl s 505 584 m cl s 567 584 m cl s 629 584 m cl s 691 584 m cl s 753
 584 m cl s 815 584 m cl s 877 584 m cl s 939 584 m cl s 1001 584 m cl s 1063 584 m cl s 1125 584 m cl s 1187 584 m cl s 1249 584 m cl s 1311 584 m cl s 1373 584 m cl s 1435 584 m cl s 1497 584 m cl s 1559 584 m cl s 1621 584 m cl s 1683 584 m cl s
 1745 584 m cl s 1807 584 m cl s 1869 584 m cl s 1931 584 m cl s 1993 584 m cl s 2055 584 m cl s 2117 584 m cl s 2179 584 m cl s 319 1729 m 1860 X s 319 1729 m cl s 381 1729 m cl s 443 1729 m cl s 505 1729 m cl s 567 1729 m cl s 629 1729 m cl s 691
 1729 m cl s 753 1729 m cl s 815 1729 m cl s 877 1729 m cl s 939 1729 m cl s 1001 1729 m cl s 1063 1729 m cl s 1125 1729 m cl s 1187 1729 m cl s 1249 1729 m cl s 1311 1729 m cl s 1373 1729 m cl s 1435 1729 m cl s 1497 1729 m cl s 1559 1729 m cl s
 1621 1729 m cl s 1683 1729 m cl s 1745 1729 m cl s 1807 1729 m cl s 1869 1729 m cl s 1931 1729 m cl s 1993 1729 m cl s 2055 1729 m cl s 2117 1729 m cl s 2179 1729 m cl s 319 584 m 1145 Y s 341 645 m -22 X s 341 681 m -22 X s 341 706 m -22 X s 341
 726 m -22 X s 341 742 m -22 X s 341 755 m -22 X s 341 767 m -22 X s 341 777 m -22 X s 363 786 m -44 X s 341 847 m -22 X s 341 883 m -22 X s 341 908 m -22 X s 341 928 m -22 X s 341 944 m -22 X s 341 957 m -22 X s 341 969 m -22 X s 341 979 m -22 X s
 363 989 m -44 X s 341 1049 m -22 X s 341 1085 m -22 X s 341 1110 m -22 X s 341 1130 m -22 X s 341 1146 m -22 X s 341 1159 m -22 X s 341 1171 m -22 X s 341 1182 m -22 X s 363 1191 m -44 X s 341 1252 m -22 X s 341 1287 m -22 X s 341 1313 m -22 X s 341
 1332 m -22 X s 341 1348 m -22 X s 341 1362 m -22 X s 341 1373 m -22 X s 341 1384 m -22 X s 363 1393 m -44 X s 341 1454 m -22 X s 341 1489 m -22 X s 341 1515 m -22 X s 341 1534 m -22 X s 341 1550 m -22 X s 341 1564 m -22 X s 341 1576 m -22 X s 341
 1586 m -22 X s 363 1595 m -44 X s 341 1656 m -22 X s 341 1692 m -22 X s 341 1717 m -22 X s 2179 584 m 1145 Y s 2157 645 m 22 X s 2157 681 m 22 X s 2157 706 m 22 X s 2157 726 m 22 X s 2157 742 m 22 X s 2157 755 m 22 X s 2157 767 m 22 X s 2157 777 m
 22 X s 2136 786 m 43 X s 2157 847 m 22 X s 2157 883 m 22 X s 2157 908 m 22 X s 2157 928 m 22 X s 2157 944 m 22 X s 2157 957 m 22 X s 2157 969 m 22 X s 2157 979 m 22 X s 2136 989 m 43 X s 2157 1049 m 22 X s 2157 1085 m 22 X s 2157 1110 m 22 X s 2157
 1130 m 22 X s 2157 1146 m 22 X s 2157 1159 m 22 X s 2157 1171 m 22 X s 2157 1182 m 22 X s 2136 1191 m 43 X s 2157 1252 m 22 X s 2157 1287 m 22 X s 2157 1313 m 22 X s 2157 1332 m 22 X s 2157 1348 m 22 X s 2157 1362 m 22 X s 2157 1373 m 22 X s 2157
 1384 m 22 X s 2136 1393 m 43 X s 2157 1454 m 22 X s 2157 1489 m 22 X s 2157 1515 m 22 X s 2157 1534 m 22 X s 2157 1550 m 22 X s 2157 1564 m 22 X s 2157 1576 m 22 X s 2157 1586 m 22 X s 2136 1595 m 43 X s 2157 1656 m 22 X s 2157 1692 m 22 X s 2157
 1717 m 22 X s
 gsave  2263 1770 2 313 C 406.765 1447.41 t 0 r /Helvetica findfont 64.4212 sf 0 0 m (VR0LdPhi for MB\255GGo) show NC gr 
 gsave  2263 1770 2 313 C 1464.36 1630.45 t 0 r /Helvetica findfont 64.4212 sf 0 0 m (SM Total) show NC gr  1 1 1 c 1338 1616 m 107 X 64 Y -107 X f 1 0 0 c 6 lw 1338 1648 m 107 X s black
 gsave  2263 1770 2 313 C 1464.36 1538.93 t 0 r /Helvetica findfont 64.4212 sf 0 0 m (Data) show NC gr  1391 1529 m 55 Y s 3 lw 1391 1557 m20 6 lw
 gsave  2263 1770 2 313 C 1464.36 1447.41 t 0 r /Helvetica findfont 64.4212 sf 0 0 m (W+jets) show NC gr  0.4 0.6 1 c 3 lw 1338 1434 m 107 X 64 Y -107 X f 6 lw black 3 lw 1338 1498 m 107 X s 1338 1434 m 107 X s 1445 1434 m 64 Y s 1338 1434 m 64 Y s
 gsave  2263 1770 2 313 C 1498.25 1355.88 t 0 r /Helvetica findfont 64.4212 sf 0 0 m (\(+EW\) & single top) show NC gr 
 gsave  2263 1770 2 313 C 1481.3 1355.88 t 0 r /Helvetica findfont 64.4212 sf 0 0 m (t) show NC gr  1481 1407 m 17 X s
 gsave  2263 1770 2 313 C 1464.36 1355.88 t 0 r /Helvetica findfont 64.4212 sf 0 0 m (t) show NC gr  0.6 1 0.6 c 1338 1343 m 107 X 63 Y -107 X f black 1338 1406 m 107 X s 1338 1343 m 107 X s 1445 1343 m 63 Y s 1338 1343 m 63 Y s
 gsave  2263 1770 2 313 C 1464.36 1264.36 t 0 r /Helvetica findfont 64.4212 sf 0 0 m (Z+jets) show NC gr  1 0.8 0.4 c 1338 1252 m 107 X 63 Y -107 X f black 1338 1315 m 107 X s 1338 1252 m 107 X s 1445 1252 m 63 Y s 1338 1252 m 63 Y s
 gsave  2263 1770 2 313 C 1464.36 1172.84 t 0 r /Helvetica findfont 64.4212 sf 0 0 m (Diboson) show NC gr  1 0.4 0.6 c 1338 1161 m 107 X 63 Y -107 X f black 1338 1224 m 107 X s 1338 1161 m 107 X s 1445 1161 m 63 Y s 1338 1161 m 63 Y s
 gsave  2263 1770 2 313 C 1464.36 1081.32 t 0 r /Helvetica findfont 64.4212 sf 0 0 m (Multi\255jet) show NC gr  0 0 0.4 c 1338 1070 m 107 X 63 Y -107 X f black 1338 1133 m 107 X s 1338 1070 m 107 X s 1445 1070 m 63 Y s 1338 1070 m 63 Y s
 gsave  2263 1770 2 313 C 911.832 1566.05 t 0 r /Helvetica findfont 44.0776 sf 0 0 m (\2551) show NC gr 
 gsave  2263 1770 2 313 C 471.17 1535.54 t 0 r /Helvetica findfont 64.4212 sf 0 0 m (=13TeV, 139 fb) show NC gr 
 gsave  2263 1770 2 313 C 440.662 1535.54 t 0 r /Helvetica findfont 64.4212 sf 0 0 m (s) show NC gr  6 lw 420 1573 m 7 -41 d s 3 lw 427 1532 m 7 61 d s 434 1593 m 37 X s 1 1 1 c 2254 561 2 2 bf black 1 1 1 c black 1860 358 318 187 bl 1 1 1 c black
 1860 358 318 187 bl 6 lw 1 1 1 c black 3 lw 504 478 m20 6 lw 3 lw 628 353 m20 6 lw 3 lw 752 408 m20 6 lw 3 lw 876 332 m20 6 lw 3 lw 1000 383 m20 6 lw 3 lw 1124 536 m20 6 lw 3 lw 318 187 m 1860 X s
 gsave  2254 561 2 2 C 1959.25 33.8971 t 0 r /Helvetica findfont 78.1689 sf 0 0 m ( [GeV]) show NC gr 
 gsave  2254 561 2 2 C 1901.63 13.5588 t 0 r /Helvetica findfont 50.9797 sf 0 0 m (eff) show NC gr 
 gsave  2254 561 2 2 C 1840.61 33.8971 t 0 r /Helvetica findfont 78.1689 sf 0 0 m (m) show NC gr  318 201 m -14 Y s 380 194 m -7 Y s 442 194 m -7 Y s 504 194 m -7 Y s 566 194 m -7 Y s 628 201 m -14 Y s 690 194 m -7 Y s 752 194 m -7 Y s 814 194 m -7 Y
 s 876 194 m -7 Y s 938 201 m -14 Y s 1000 194 m -7 Y s 1062 194 m -7 Y s 1124 194 m -7 Y s 1186 194 m -7 Y s 1248 201 m -14 Y s 1310 194 m -7 Y s 1372 194 m -7 Y s 1434 194 m -7 Y s 1496 194 m -7 Y s 1558 201 m -14 Y s 1620 194 m -7 Y s 1682 194 m
 -7 Y s 1744 194 m -7 Y s 1806 194 m -7 Y s 1868 201 m -14 Y s 1930 194 m -7 Y s 1992 194 m -7 Y s 2054 194 m -7 Y s 2116 194 m -7 Y s 2178 201 m -14 Y s
 gsave  2254 561 2 2 C 227.111 118.64 t 0 r /Helvetica findfont 78.1689 sf 0 0 m (1000) show NC gr 
 gsave  2254 561 2 2 C 538.964 118.64 t 0 r /Helvetica findfont 78.1689 sf 0 0 m (1500) show NC gr 
 gsave  2254 561 2 2 C 847.428 118.64 t 0 r /Helvetica findfont 78.1689 sf 0 0 m (2000) show NC gr 
 gsave  2254 561 2 2 C 1159.28 118.64 t 0 r /Helvetica findfont 78.1689 sf 0 0 m (2500) show NC gr 
 gsave  2254 561 2 2 C 1467.74 118.64 t 0 r /Helvetica findfont 78.1689 sf 0 0 m (3000) show NC gr 
 gsave  2254 561 2 2 C 1779.6 118.64 t 0 r /Helvetica findfont 78.1689 sf 0 0 m (3500) show NC gr 
 gsave  2254 561 2 2 C 2088.06 118.64 t 0 r /Helvetica findfont 78.1689 sf 0 0 m (4000) show NC gr  318 545 m 1860 X s 318 531 m 14 Y s 380 538 m 7 Y s 442 538 m 7 Y s 504 538 m 7 Y s 566 538 m 7 Y s 628 531 m 14 Y s 690 538 m 7 Y s 752 538 m 7 Y s
 814 538 m 7 Y s 876 538 m 7 Y s 938 531 m 14 Y s 1000 538 m 7 Y s 1062 538 m 7 Y s 1124 538 m 7 Y s 1186 538 m 7 Y s 1248 531 m 14 Y s 1310 538 m 7 Y s 1372 538 m 7 Y s 1434 538 m 7 Y s 1496 538 m 7 Y s 1558 531 m 14 Y s 1620 538 m 7 Y s 1682 538 m
 7 Y s 1744 538 m 7 Y s 1806 538 m 7 Y s 1868 531 m 14 Y s 1930 538 m 7 Y s 1992 538 m 7 Y s 2054 538 m 7 Y s 2116 538 m 7 Y s 2178 531 m 14 Y s 318 187 m 358 Y s
 gsave  2254 561 2 2 C 166.096 284.736 t 90 r /Helvetica findfont 67.9729 sf 0 0 m (Data/SM) show NC gr  361 203 m -43 X s 339 220 m -21 X s 339 236 m -21 X s 339 252 m -21 X s 339 268 m -21 X s 361 285 m -43 X s 339 301 m -21 X s 339 317 m -21 X s
 339 334 m -21 X s 339 350 m -21 X s 361 366 m -43 X s 339 382 m -21 X s 339 399 m -21 X s 339 415 m -21 X s 339 431 m -21 X s 361 447 m -43 X s 339 464 m -21 X s 339 480 m -21 X s 339 496 m -21 X s 339 512 m -21 X s 361 529 m -43 X s 361 203 m -43 X
 s 339 187 m -21 X s 361 529 m -43 X s
 gsave  2254 561 2 2 C 261.008 183.044 t 0 r /Helvetica findfont 57.777 sf 0 0 m (0) show NC gr 
 gsave  2254 561 2 2 C 213.552 261.008 t 0 r /Helvetica findfont 57.777 sf 0 0 m (0.5) show NC gr 
 gsave  2254 561 2 2 C 271.177 342.361 t 0 r /Helvetica findfont 57.777 sf 0 0 m (1) show NC gr 
 gsave  2254 561 2 2 C 213.552 423.714 t 0 r /Helvetica findfont 57.777 sf 0 0 m (1.5) show NC gr 
 gsave  2254 561 2 2 C 261.008 505.067 t 0 r /Helvetica findfont 57.777 sf 0 0 m (2) show NC gr  2178 187 m 358 Y s 2135 203 m 43 X s 2157 220 m 21 X s 2157 236 m 21 X s 2157 252 m 21 X s 2157 268 m 21 X s 2135 285 m 43 X s 2157 301 m 21 X s 2157 317
 m 21 X s 2157 334 m 21 X s 2157 350 m 21 X s 2135 366 m 43 X s 2157 382 m 21 X s 2157 399 m 21 X s 2157 415 m 21 X s 2157 431 m 21 X s 2135 447 m 43 X s 2157 464 m 21 X s 2157 480 m 21 X s 2157 496 m 21 X s 2157 512 m 21 X s 2135 529 m 43 X s 2135
 203 m 43 X s 2157 187 m 21 X s 2135 529 m 43 X s 9 lw 504 492 m 53 Y s 504 545 m cl s 504 464 m -75 Y s 504 389 m cl s 628 366 m 27 Y s 628 393 m cl s 628 339 m -26 Y s 628 313 m cl s 752 421 m 40 Y s 752 461 m cl s 752 394 m -38 Y s 752 356 m cl s
 876 345 m 41 Y s 876 386 m cl s 876 318 m -37 Y s 876 281 m cl s 1000 397 m 71 Y s 1000 468 m cl s 1000 370 m -64 Y s 1000 306 m cl s 1124 522 m -145 Y s 1124 377 m cl s 1620 545 m -252 Y s 1620 293 m cl s 3 lw 504 478 628 353 752 408 876 332 1000
 383 1124 536 6 { m20} R 9 lw 1 0 0 c 6 lw black 3 lw 1 0 0 c 2178 227 m s 2178 255 m s 2178 284 m -1 Y s 2178 312 m -29 -29 d s 2178 341 m -58 -58 d s 2178 369 m -86 -86 d s 2178 398 m -115 -115 d s 2054 274 m -6 -6 d s 2178 427 m -159 -159 d s 2172
 449 m -182 -181 d s 2143 449 m -181 -181 d s 2115 449 m -182 -181 d s 2086 449 m -173 -173 d s 2057 449 m -173 -173 d s 2044 464 m -189 -188 d s 2015 464 m -189 -188 d s 1987 464 m -198 -196 d s 1958 464 m -197 -196 d s 1921 456 m -189 -188 d s 1892
 456 m -189 -188 d s 1864 456 m -202 -201 d s 1835 456 m -201 -201 d s 1806 456 m -201 -201 d s 1786 464 m -210 -209 d s 1757 464 m -199 -198 d s 1728 464 m -170 -169 d s 1700 464 m -155 -154 d s 1682 475 m -166 -165 d s 1655 477 m -167 -167 d s 1626
 477 m -167 -167 d s 1597 477 m -39 -39 d s 1542 422 m -108 -108 d s 1569 477 m -11 -11 d s 1514 422 m -98 -98 d s 1485 422 m -98 -98 d s 1456 422 m -98 -98 d s 1414 408 m -84 -84 d s 1385 408 m -83 -83 d s 1356 408 m -83 -83 d s 1328 408 m -84 -83 d
 s 1298 407 m -82 -82 d s 1269 407 m -82 -82 d s 1241 407 m -81 -80 d s 1212 407 m -81 -80 d s 1181 405 m -78 -78 d s 1153 405 m -79 -78 d s 1124 405 m -65 -65 d s 1095 405 m -65 -65 d s 1067 405 m -5 -4 d s 1053 392 m -52 -52 d s 1025 392 m -53 -52
 d s 996 392 m -52 -52 d s 967 392 m -49 -49 d s 939 392 m -1 -1 d s 935 389 m -45 -46 d s 907 389 m -46 -46 d s 878 389 m -46 -46 d s 849 389 m -45 -45 d s 821 389 m -46 -45 d s 792 388 m -45 -44 d s 763 388 m -45 -44 d s 734 388 m -44 -44 d s 706
 388 m -43 -42 d s 674 386 m -40 -40 d s 646 386 m -40 -40 d s 617 386 m -40 -40 d s 442 211 m s 434 203 m cl s 588 386 m -43 -43 d s 442 240 m s 405 203 m cl s 563 389 m -47 -46 d s 442 269 m s 376 203 m cl s 534 389 m -46 -46 d s 442 297 m s 348
 203 m cl s 506 389 m -47 -46 d s 442 326 m s 319 203 m cl s 477 389 m -35 -35 d s 448 389 m -6 -6 d s 6 lw black[ 4 8] 0 sd 3 lw 318 447 m 1860 X s 318 285 m 1860 X s 1 0 0 c[  12 12 ] 0 sd 6 lw 318 366 m 1860 X s
 gr  gr showpage
end
%%EOF
