%!PS-Adobe-2.0 EPSF-2.0
%%BoundingBox:  0 0 567 521
%%Title: Distributions/meffInc_distrCRW_MB-SSd_afterFit_forThesis.eps: canvas
%%Creator: ROOT Version 6.04/16
%%CreationDate: Tue May 19 22:04:14 2020
%%DocumentNeededResources: ProcSet (FontSetInit)
%%EndComments
%%BeginProlog
80 dict begin
/s {stroke} def /l {lineto} def /m {moveto} def /t {translate} def
/r {rotate} def /rl {roll}  def /R {repeat} def
/d {rlineto} def /rm {rmoveto} def /gr {grestore} def /f {eofill} def
/c {setrgbcolor} def /black {0 setgray} def /sd {setdash} def
/cl {closepath} def /sf {scalefont setfont} def /lw {setlinewidth} def
/box {m dup 0 exch d exch 0 d 0 exch neg d cl} def
/NC{systemdict begin initclip end}def/C{NC box clip newpath}def
/bl {box s} def /bf {gsave box gsave f grestore 1 lw [] 0 sd s grestore} def /Y { 0 exch d} def /X { 0 d} def 
/K {{pop pop 0 moveto} exch kshow} bind def
/ita {/ang 15 def gsave [1 0 ang dup sin exch cos div 1 0 0] concat} def 
/mp {newpath /y exch def /x exch def} def
/side {[w .77 mul w .23 mul] .385 w mul sd w 0 l currentpoint t -144 r} def
/mr {mp x y w2 0 360 arc} def /m24 {mr s} def /m20 {mr f} def
/mb {mp x y w2 add m w2 neg 0 d 0 w neg d w 0 d 0 w d cl} def
/mt {mp x y w2 add m w2 neg w neg d w 0 d cl} def
/m21 {mb f} def /m25 {mb s} def /m22 {mt f} def /m26{mt s} def
/m23 {mp x y w2 sub m w2 w d w neg 0 d cl f} def
/m27 {mp x y w2 add m w3 neg w2 neg d w3 w2 neg d w3 w2 d cl s} def
/m28 {mp x w2 sub y w2 sub w3 add m w3 0 d  0 w3 neg d w3 0 d 0 w3 d w3 0 d  0 w3 d w3 neg 0 d 0 w3 d w3 neg 0 d 0 w3 neg d w3 neg 0 d cl s } def
/m29 {mp gsave x w2 sub y w2 add w3 sub m currentpoint t 4 {side} repeat cl fill gr} def
/m30 {mp gsave x w2 sub y w2 add w3 sub m currentpoint t 4 {side} repeat cl s gr} def
/m31 {mp x y w2 sub m 0 w d x w2 sub y m w 0 d x w2 sub y w2 add m w w neg d x w2 sub y w2 sub m w w d s} def
/m32 {mp x y w2 sub m w2 w d w neg 0 d cl s} def
/m33 {mp x y w2 add m w3 neg w2 neg d w3 w2 neg d w3 w2 d cl f} def
/m34 {mp x w2 sub y w2 sub w3 add m w3 0 d  0 w3 neg d w3 0 d 0 w3 d w3 0 d  0 w3 d w3 neg 0 d 0 w3 d w3 neg 0 d 0 w3 neg d w3 neg 0 d cl f } def
/m2 {mp x y w2 sub m 0 w d x w2 sub y m w 0 d s} def
/m5 {mp x w2 sub y w2 sub m w w d x w2 sub y w2 add m w w neg d s} def
%%IncludeResource: ProcSet (FontSetInit)
%%IncludeResource: font Times-Roman
%%IncludeResource: font Times-Italic
%%IncludeResource: font Times-Bold
%%IncludeResource: font Times-BoldItalic
%%IncludeResource: font Helvetica
%%IncludeResource: font Helvetica-Oblique
%%IncludeResource: font Helvetica-Bold
%%IncludeResource: font Helvetica-BoldOblique
%%IncludeResource: font Courier
%%IncludeResource: font Courier-Oblique
%%IncludeResource: font Courier-Bold
%%IncludeResource: font Courier-BoldOblique
%%IncludeResource: font Symbol
%%IncludeResource: font ZapfDingbats
/reEncode {exch findfont dup length dict begin {1 index /FID eq  {pop pop} {def} ifelse } forall /Encoding exch def currentdict end dup /FontName get exch definefont pop } def [/Times-Bold /Times-Italic /Times-BoldItalic /Helvetica /Helvetica-Oblique
 /Helvetica-Bold /Helvetica-BoldOblique /Courier /Courier-Oblique /Courier-Bold /Courier-BoldOblique /Times-Roman /AvantGarde-Book /AvantGarde-BookOblique /AvantGarde-Demi /AvantGarde-DemiOblique /Bookman-Demi /Bookman-DemiItalic /Bookman-Light
 /Bookman-LightItalic /Helvetica-Narrow /Helvetica-Narrow-Bold /Helvetica-Narrow-BoldOblique /Helvetica-Narrow-Oblique /NewCenturySchlbk-Roman /NewCenturySchlbk-Bold /NewCenturySchlbk-BoldItalic /NewCenturySchlbk-Italic /Palatino-Bold
 /Palatino-BoldItalic /Palatino-Italic /Palatino-Roman ] {ISOLatin1Encoding reEncode } forall
%%EndProlog
%%BeginSetup
%%EndSetup
newpath  gsave  .25 .25 scale  gsave  0 0 t black[  ] 0 sd 3 lw 1 1 1 c 2268 2085 0 0 bf black 1 1 1 c 2263 1770 2 313 bf black 1 1 1 c black 1860 1145 319 584 bl 1 1 1 c black 1860 1145 319 584 bl 6 lw 1 1 1 c black 3 lw /w 33 def /w2 {w 2 div} def
 /w3 {w 3 div} def 366 1251 m20 6 lw 3 lw 459 1241 m20 6 lw 3 lw 552 1211 m20 6 lw 3 lw 645 1179 m20 6 lw 3 lw 738 1144 m20 6 lw 3 lw 831 1113 m20 6 lw 3 lw 924 1085 m20 6 lw 3 lw 1017 1057 m20 6 lw 3 lw 1110 1020 m20 6 lw 3 lw 1203 984 m20 6 lw 3 lw
 1296 979 m20 6 lw 3 lw 1389 932 m20 6 lw 3 lw 1482 924 m20 6 lw 1575 836 m 9 Y s 1575 872 m 3 Y s 3 lw 1575 859 m20 6 lw 1668 797 m 18 Y s 1668 842 m 7 Y s 3 lw 1668 828 m20 6 lw 1761 797 m 18 Y s 1761 842 m 7 Y s 3 lw 1761 828 m20 6 lw 1854 782 m
 22 Y s 1854 831 m 9 Y s 3 lw 1854 818 m20 6 lw 1947 736 m 38 Y s 1947 801 m 13 Y s 3 lw 1947 787 m20 6 lw 2040 763 m 28 Y s 2040 818 m 10 Y s 3 lw 2040 804 m20 6 lw 2133 736 m 38 Y s 2133 801 m 13 Y s 3 lw 2133 787 m20 6 lw 3 lw 319 584 m 1860 X s
 gsave  2263 1770 2 313 C 1949.08 369.478 t 0 r /Helvetica findfont 81.3741 sf 0 0 m ( [GeV]) show NC gr 
 gsave  2263 1770 2 313 C 1888.07 342.361 t 0 r /Helvetica findfont 54.2494 sf 0 0 m (eff) show NC gr 
 gsave  2263 1770 2 313 C 1823.66 369.478 t 0 r /Helvetica findfont 81.3741 sf 0 0 m (m) show NC gr  319 584 m cl s 366 584 m cl s 412 584 m cl s 459 584 m cl s 505 584 m cl s 552 584 m cl s 598 584 m cl s 645 584 m cl s 691 584 m cl s 738 584 m cl s
 784 584 m cl s 831 584 m cl s 877 584 m cl s 924 584 m cl s 970 584 m cl s 1017 584 m cl s 1063 584 m cl s 1110 584 m cl s 1156 584 m cl s 1203 584 m cl s 1249 584 m cl s 1296 584 m cl s 1342 584 m cl s 1389 584 m cl s 1435 584 m cl s 1482 584 m cl
 s 1528 584 m cl s 1575 584 m cl s 1621 584 m cl s 1668 584 m cl s 1714 584 m cl s 1761 584 m cl s 1807 584 m cl s 1854 584 m cl s 1900 584 m cl s 1947 584 m cl s 1993 584 m cl s 2040 584 m cl s 2086 584 m cl s 2133 584 m cl s 2179 584 m cl s 319
 1729 m 1860 X s 319 1729 m cl s 366 1729 m cl s 412 1729 m cl s 459 1729 m cl s 505 1729 m cl s 552 1729 m cl s 598 1729 m cl s 645 1729 m cl s 691 1729 m cl s 738 1729 m cl s 784 1729 m cl s 831 1729 m cl s 877 1729 m cl s 924 1729 m cl s 970 1729
 m cl s 1017 1729 m cl s 1063 1729 m cl s 1110 1729 m cl s 1156 1729 m cl s 1203 1729 m cl s 1249 1729 m cl s 1296 1729 m cl s 1342 1729 m cl s 1389 1729 m cl s 1435 1729 m cl s 1482 1729 m cl s 1528 1729 m cl s 1575 1729 m cl s 1621 1729 m cl s 1668
 1729 m cl s 1714 1729 m cl s 1761 1729 m cl s 1807 1729 m cl s 1854 1729 m cl s 1900 1729 m cl s 1947 1729 m cl s 1993 1729 m cl s 2040 1729 m cl s 2086 1729 m cl s 2133 1729 m cl s 2179 1729 m cl s 319 584 m 1145 Y s
 gsave  2263 1770 2 313 C 166.096 1091.49 t 90 r /Helvetica findfont 81.3741 sf 0 0 m (Events / 200 GeV) show NC gr  341 626 m -22 X s 341 650 m -22 X s 341 667 m -22 X s 341 680 m -22 X s 341 691 m -22 X s 341 700 m -22 X s 341 708 m -22 X s 341 715
 m -22 X s 363 722 m -44 X s
 gsave  2263 1770 2 313 C 300.555 694.459 t 0 r  -36 0 t /Helvetica findfont 64.4212 sf 0 0 m (1) show NC gr  341 763 m -22 X s 341 787 m -22 X s 341 804 m -22 X s 341 818 m -22 X s 341 828 m -22 X s 341 838 m -22 X s 341 846 m -22 X s 341 853 m -22
 X s 363 859 m -44 X s
 gsave  2263 1770 2 313 C 300.555 831.726 t 0 r  -73 0 t /Helvetica findfont 64.4212 sf 0 0 m (10) show NC gr  341 900 m -22 X s 341 924 m -22 X s 341 941 m -22 X s 341 955 m -22 X s 341 966 m -22 X s 341 975 m -22 X s 341 983 m -22 X s 341 990 m -22
 X s 363 996 m -44 X s
 gsave  2263 1770 2 313 C 274.567 993.185 t 0 r /Helvetica findfont 44.0776 sf 0 0 m (2) show NC gr 
 gsave  2263 1770 2 313 C 203.383 966.068 t 0 r /Helvetica findfont 64.4212 sf 0 0 m (10) show NC gr  341 1037 m -22 X s 341 1062 m -22 X s 341 1079 m -22 X s 341 1092 m -22 X s 341 1103 m -22 X s 341 1112 m -22 X s 341 1120 m -22 X s 341 1127 m -22
 X s 363 1133 m -44 X s
 gsave  2263 1770 2 313 C 274.567 1135.55 t 0 r /Helvetica findfont 44.0776 sf 0 0 m (3) show NC gr 
 gsave  2263 1770 2 313 C 203.383 1105.05 t 0 r /Helvetica findfont 64.4212 sf 0 0 m (10) show NC gr  341 1175 m -22 X s 341 1199 m -22 X s 341 1216 m -22 X s 341 1229 m -22 X s 341 1240 m -22 X s 341 1249 m -22 X s 341 1257 m -22 X s 341 1264 m -22
 X s 363 1271 m -44 X s
 gsave  2263 1770 2 313 C 274.567 1267.75 t 0 r /Helvetica findfont 44.0776 sf 0 0 m (4) show NC gr 
 gsave  2263 1770 2 313 C 203.383 1240.63 t 0 r /Helvetica findfont 64.4212 sf 0 0 m (10) show NC gr  341 1312 m -22 X s 341 1336 m -22 X s 341 1353 m -22 X s 341 1367 m -22 X s 341 1377 m -22 X s 341 1387 m -22 X s 341 1395 m -22 X s 341 1402 m -22
 X s 363 1408 m -44 X s
 gsave  2263 1770 2 313 C 274.567 1410.12 t 0 r /Helvetica findfont 44.0776 sf 0 0 m (5) show NC gr 
 gsave  2263 1770 2 313 C 203.383 1379.61 t 0 r /Helvetica findfont 64.4212 sf 0 0 m (10) show NC gr  341 1449 m -22 X s 341 1473 m -22 X s 341 1491 m -22 X s 341 1504 m -22 X s 341 1515 m -22 X s 341 1524 m -22 X s 341 1532 m -22 X s 341 1539 m -22
 X s 363 1545 m -44 X s
 gsave  2263 1770 2 313 C 274.567 1545.71 t 0 r /Helvetica findfont 44.0776 sf 0 0 m (6) show NC gr 
 gsave  2263 1770 2 313 C 203.383 1515.2 t 0 r /Helvetica findfont 64.4212 sf 0 0 m (10) show NC gr  341 1586 m -22 X s 341 1611 m -22 X s 341 1628 m -22 X s 341 1641 m -22 X s 341 1652 m -22 X s 341 1661 m -22 X s 341 1669 m -22 X s 341 1676 m -22 X
 s 363 1682 m -44 X s
 gsave  2263 1770 2 313 C 274.567 1681.3 t 0 r /Helvetica findfont 44.0776 sf 0 0 m (7) show NC gr 
 gsave  2263 1770 2 313 C 203.383 1654.18 t 0 r /Helvetica findfont 64.4212 sf 0 0 m (10) show NC gr  341 1724 m -22 X s 2179 584 m 1145 Y s 2157 626 m 22 X s 2157 650 m 22 X s 2157 667 m 22 X s 2157 680 m 22 X s 2157 691 m 22 X s 2157 700 m 22 X s
 2157 708 m 22 X s 2157 715 m 22 X s 2136 722 m 43 X s 2157 763 m 22 X s 2157 787 m 22 X s 2157 804 m 22 X s 2157 818 m 22 X s 2157 828 m 22 X s 2157 838 m 22 X s 2157 846 m 22 X s 2157 853 m 22 X s 2136 859 m 43 X s 2157 900 m 22 X s 2157 924 m 22 X
 s 2157 941 m 22 X s 2157 955 m 22 X s 2157 966 m 22 X s 2157 975 m 22 X s 2157 983 m 22 X s 2157 990 m 22 X s 2136 996 m 43 X s 2157 1037 m 22 X s 2157 1062 m 22 X s 2157 1079 m 22 X s 2157 1092 m 22 X s 2157 1103 m 22 X s 2157 1112 m 22 X s 2157
 1120 m 22 X s 2157 1127 m 22 X s 2136 1133 m 43 X s 2157 1175 m 22 X s 2157 1199 m 22 X s 2157 1216 m 22 X s 2157 1229 m 22 X s 2157 1240 m 22 X s 2157 1249 m 22 X s 2157 1257 m 22 X s 2157 1264 m 22 X s 2136 1271 m 43 X s 2157 1312 m 22 X s 2157
 1336 m 22 X s 2157 1353 m 22 X s 2157 1367 m 22 X s 2157 1377 m 22 X s 2157 1387 m 22 X s 2157 1395 m 22 X s 2157 1402 m 22 X s 2136 1408 m 43 X s 2157 1449 m 22 X s 2157 1473 m 22 X s 2157 1491 m 22 X s 2157 1504 m 22 X s 2157 1515 m 22 X s 2157
 1524 m 22 X s 2157 1532 m 22 X s 2157 1539 m 22 X s 2136 1545 m 43 X s 2157 1586 m 22 X s 2157 1611 m 22 X s 2157 1628 m 22 X s 2157 1641 m 22 X s 2157 1652 m 22 X s 2157 1661 m 22 X s 2157 1669 m 22 X s 2157 1676 m 22 X s 2136 1682 m 43 X s 2157
 1724 m 22 X s 0.4 0.6 1 c black 0.4 0.6 1 c 319 584 m 665 Y 93 X -7 Y 93 X -30 Y 93 X -34 Y 93 X -34 Y 93 X -29 Y 93 X -31 Y 93 X -32 Y 93 X -30 Y 93 X -30 Y 93 X -30 Y 93 X -29 Y 93 X -22 Y 93 X -22 Y 93 X -23 Y 93 X -47 Y 93 X -1 Y 93 X -46 Y 93 X
 -9 Y 93 X 53 Y 93 X -232 Y f black 0.4 0.6 1 c black 319 1249 m 93 X -7 Y 93 X -30 Y 93 X -34 Y 93 X -34 Y 93 X -29 Y 93 X -31 Y 93 X -32 Y 93 X -30 Y 93 X -30 Y 93 X -30 Y 93 X -29 Y 93 X -22 Y 93 X -22 Y 93 X -23 Y 93 X -47 Y 93 X -1 Y 93 X -46 Y
 93 X -9 Y 93 X 53 Y 93 X s 0.999 0.999 0.999 c black 0.999 0.999 0.999 c 319 584 m 561 Y 93 X -12 Y 93 X -30 Y 93 X -39 Y 93 X -33 Y 93 X -31 Y 93 X -37 Y 93 X -32 Y 93 X -27 Y 93 X -29 Y 93 X -36 Y 93 X -24 Y 93 X -25 Y 93 X -15 Y 93 X -19 Y 93 X
 -66 Y 93 X -47 Y 93 X -45 Y 93 X 36 Y 93 X -18 Y 93 X -32 Y f black 0.999 0.999 0.999 c black 319 1145 m 93 X -12 Y 93 X -30 Y 93 X -39 Y 93 X -33 Y 93 X -31 Y 93 X -37 Y 93 X -32 Y 93 X -27 Y 93 X -29 Y 93 X -36 Y 93 X -24 Y 93 X -25 Y 93 X -15 Y
 93 X -19 Y 93 X -66 Y 93 X -47 Y 93 X -45 Y 93 X 36 Y 93 X -18 Y 93 X s 1 1 1 c black 319 1145 m 93 X -12 Y 93 X -30 Y 93 X -39 Y 93 X -33 Y 93 X -31 Y 93 X -37 Y 93 X -32 Y 93 X -27 Y 93 X -29 Y 93 X -36 Y 93 X -24 Y 93 X -25 Y 93 X -15 Y 93 X -19
 Y 93 X -66 Y 93 X -47 Y 93 X -45 Y 93 X 36 Y 93 X -18 Y 93 X s 0.6 1 0.6 c black 0.6 1 0.6 c 319 584 m 561 Y 93 X -12 Y 93 X -30 Y 93 X -39 Y 93 X -33 Y 93 X -31 Y 93 X -37 Y 93 X -32 Y 93 X -27 Y 93 X -29 Y 93 X -36 Y 93 X -24 Y 93 X -25 Y 93 X -15
 Y 93 X -19 Y 93 X -66 Y 93 X -47 Y 93 X -45 Y 93 X 36 Y 93 X -18 Y 93 X -32 Y f black 0.6 1 0.6 c black 319 1145 m 93 X -12 Y 93 X -30 Y 93 X -39 Y 93 X -33 Y 93 X -31 Y 93 X -37 Y 93 X -32 Y 93 X -27 Y 93 X -29 Y 93 X -36 Y 93 X -24 Y 93 X -25 Y 93
 X -15 Y 93 X -19 Y 93 X -66 Y 93 X -47 Y 93 X -45 Y 93 X 36 Y 93 X -18 Y 93 X s 0.999 0.999 0.999 c black 0.999 0.999 0.999 c 319 584 m 497 Y 93 X -7 Y 93 X -23 Y 93 X -31 Y 93 X -32 Y 93 X -29 Y 93 X -32 Y 93 X -30 Y 93 X -27 Y 93 X -22 Y 93 X -34
 Y 93 X -23 Y 93 X -24 Y 93 X -14 Y 93 X -23 Y 93 X -102 Y 93 X -44 Y 372 X f black 0.999 0.999 0.999 c black 319 1081 m 93 X -7 Y 93 X -23 Y 93 X -31 Y 93 X -32 Y 93 X -29 Y 93 X -32 Y 93 X -30 Y 93 X -27 Y 93 X -22 Y 93 X -34 Y 93 X -23 Y 93 X -24
 Y 93 X -14 Y 93 X -23 Y 93 X -102 Y 93 X -44 Y 372 X s 1 1 1 c black 319 1081 m 93 X -7 Y 93 X -23 Y 93 X -31 Y 93 X -32 Y 93 X -29 Y 93 X -32 Y 93 X -30 Y 93 X -27 Y 93 X -22 Y 93 X -34 Y 93 X -23 Y 93 X -24 Y 93 X -14 Y 93 X -23 Y 93 X -102 Y 93 X
 -44 Y 372 X s 1 0.8 0.4 c black 1 0.8 0.4 c 319 584 m 497 Y 93 X -7 Y 93 X -23 Y 93 X -31 Y 93 X -32 Y 93 X -29 Y 93 X -32 Y 93 X -30 Y 93 X -27 Y 93 X -22 Y 93 X -34 Y 93 X -23 Y 93 X -24 Y 93 X -14 Y 93 X -23 Y 93 X -102 Y 93 X -44 Y 372 X f black
 1 0.8 0.4 c black 319 1081 m 93 X -7 Y 93 X -23 Y 93 X -31 Y 93 X -32 Y 93 X -29 Y 93 X -32 Y 93 X -30 Y 93 X -27 Y 93 X -22 Y 93 X -34 Y 93 X -23 Y 93 X -24 Y 93 X -14 Y 93 X -23 Y 93 X -102 Y 93 X -44 Y 372 X s 0.999 0.999 0.999 c black 0.999
 0.999 0.999 c 319 584 m 490 Y 93 X -8 Y 93 X -21 Y 93 X -32 Y 93 X -32 Y 93 X -29 Y 93 X -31 Y 93 X -31 Y 93 X -26 Y 93 X -21 Y 93 X -34 Y 93 X -22 Y 93 X -25 Y 93 X -36 Y 93 X 1 Y 93 X -140 Y 93 X -3 Y 372 X f black 0.999 0.999 0.999 c black 319
 1074 m 93 X -8 Y 93 X -21 Y 93 X -32 Y 93 X -32 Y 93 X -29 Y 93 X -31 Y 93 X -31 Y 93 X -26 Y 93 X -21 Y 93 X -34 Y 93 X -22 Y 93 X -25 Y 93 X -36 Y 93 X 1 Y 93 X -140 Y 93 X -3 Y 372 X s 1 1 1 c black 319 1074 m 93 X -8 Y 93 X -21 Y 93 X -32 Y 93 X
 -32 Y 93 X -29 Y 93 X -31 Y 93 X -31 Y 93 X -26 Y 93 X -21 Y 93 X -34 Y 93 X -22 Y 93 X -25 Y 93 X -36 Y 93 X 1 Y 93 X -140 Y 93 X -3 Y 372 X s 1 0.4 0.6 c black 1 0.4 0.6 c 319 584 m 490 Y 93 X -8 Y 93 X -21 Y 93 X -32 Y 93 X -32 Y 93 X -29 Y 93 X
 -31 Y 93 X -31 Y 93 X -26 Y 93 X -21 Y 93 X -34 Y 93 X -22 Y 93 X -25 Y 93 X -36 Y 93 X 1 Y 93 X -140 Y 93 X -3 Y 372 X f black 1 0.4 0.6 c black 319 1074 m 93 X -8 Y 93 X -21 Y 93 X -32 Y 93 X -32 Y 93 X -29 Y 93 X -31 Y 93 X -31 Y 93 X -26 Y 93 X
 -21 Y 93 X -34 Y 93 X -22 Y 93 X -25 Y 93 X -36 Y 93 X 1 Y 93 X -140 Y 93 X -3 Y 372 X s 1 0 0 c 6 lw 1 1 1 c black 1 0 0 c 319 1249 m 93 X -7 Y 93 X -30 Y 93 X -34 Y 93 X -34 Y 93 X -29 Y 93 X -31 Y 93 X -32 Y 93 X -30 Y 93 X -30 Y 93 X -30 Y 93 X
 -29 Y 93 X -22 Y 93 X -22 Y 93 X -23 Y 93 X -47 Y 93 X -1 Y 93 X -46 Y 93 X -9 Y 93 X 53 Y 93 X s black 3 lw 1 0 0 c 1 lw << /PatternType 1 /PaintType 2 /TilingType 1 /BBox [ 0 0 100 100 ] /XStep 100 /YStep 100 /PaintProc { begin gsave 0 100 m 100 0
 l s gr end } >> [ 0.24 0 0 0.24 0 0 ] makepattern /P05 exch def /cs {[/Pattern /DeviceRGB] setcolorspace} def /FA {f [/DeviceRGB] setcolorspace} def cs 1 0 0 P05 setcolor 319 584 m 666 Y 93 X -7 Y 93 X -30 Y 93 X -34 Y 93 X -33 Y 93 X -30 Y 93 X -31
 Y 93 X -31 Y 93 X -30 Y 93 X -29 Y 93 X -30 Y 93 X -28 Y 93 X -21 Y 93 X -22 Y 93 X -22 Y 93 X -42 Y 93 X 3 Y 93 X -51 Y 93 X -4 Y 93 X 52 Y 93 X -246 Y 213 Y -93 X -53 Y -93 X 16 Y -93 X 39 Y -93 X 7 Y -93 X 53 Y -93 X 24 Y -93 X 23 Y -93 X 22 Y
 -93 X 31 Y -93 X 31 Y -93 X 31 Y -93 X 30 Y -93 X 31 Y -93 X 32 Y -93 X 29 Y -93 X 35 Y -93 X 34 Y -93 X 30 Y -93 X 7 Y -93 X -665 Y FA 6 lw 1 1 1 c 15 lw 1575 839 m -2 Y s 1575 837 m cl s 1668 849 m 1 Y s 1668 850 m cl s 1668 808 m -10 Y s 1668 798
 m cl s 1761 849 m 1 Y s 1761 850 m cl s 1761 808 m -10 Y s 1761 798 m cl s 1854 838 m 3 Y s 1854 841 m cl s 1854 797 m -13 Y s 1854 784 m cl s 1947 807 m 9 Y s 1947 816 m cl s 1947 767 m -27 Y s 1947 740 m cl s 2040 825 m 5 Y s 2040 830 m cl s 2040
 784 m -18 Y s 2040 766 m cl s 2133 807 m 9 Y s 2133 816 m cl s 2133 767 m -27 Y s 2133 740 m cl s black 1 1 1 c 3 lw /w 43 def /w2 {w 2 div} def /w3 {w 3 div} def 366 1251 459 1241 552 1211 645 1179 738 1144 831 1113 924 1085 1017 1057 1110 1020
 1203 984 1296 979 1389 932 1482 924 1575 859 1668 828 1761 828 1854 818 1947 787 2040 804 2133 787 20 { m20} R 15 lw black 6 lw 1 1 1 c black 3 lw /w 33 def /w2 {w 2 div} def /w3 {w 3 div} def 366 1251 m20 6 lw 3 lw 459 1241 m20 6 lw 3 lw 552 1211
 m20 6 lw 3 lw 645 1179 m20 6 lw 3 lw 738 1144 m20 6 lw 3 lw 831 1113 m20 6 lw 3 lw 924 1085 m20 6 lw 3 lw 1017 1057 m20 6 lw 3 lw 1110 1020 m20 6 lw 3 lw 1203 984 m20 6 lw 3 lw 1296 979 m20 6 lw 3 lw 1389 932 m20 6 lw 3 lw 1482 924 m20 6 lw 1575 836
 m 9 Y s 1575 872 m 3 Y s 3 lw 1575 859 m20 6 lw 1668 797 m 18 Y s 1668 842 m 7 Y s 3 lw 1668 828 m20 6 lw 1761 797 m 18 Y s 1761 842 m 7 Y s 3 lw 1761 828 m20 6 lw 1854 782 m 22 Y s 1854 831 m 9 Y s 3 lw 1854 818 m20 6 lw 1947 736 m 38 Y s 1947 801
 m 13 Y s 3 lw 1947 787 m20 6 lw 2040 763 m 28 Y s 2040 818 m 10 Y s 3 lw 2040 804 m20 6 lw 2133 736 m 38 Y s 2133 801 m 13 Y s 3 lw 2133 787 m20 6 lw 1575 872 m 4 Y s 1575 876 m cl s 1575 845 m -8 Y s 1575 837 m cl s 1668 842 m 8 Y s 1668 850 m cl s
 1668 815 m -17 Y s 1668 798 m cl s 1761 842 m 8 Y s 1761 850 m cl s 1761 815 m -17 Y s 1761 798 m cl s 1854 831 m 10 Y s 1854 841 m cl s 1854 804 m -20 Y s 1854 784 m cl s 1947 801 m 15 Y s 1947 816 m cl s 1947 774 m -34 Y s 1947 740 m cl s 2040 818
 m 12 Y s 2040 830 m cl s 2040 791 m -25 Y s 2040 766 m cl s 2133 801 m 15 Y s 2133 816 m cl s 2133 774 m -34 Y s 2133 740 m cl s 3 lw 366 1251 459 1241 552 1211 645 1179 738 1144 831 1113 924 1085 1017 1057 1110 1020 1203 984 1296 979 1389 932 1482
 924 1575 859 1668 828 1761 828 1854 818 1947 787 2040 804 2133 787 20 { m20} R 6 lw 3 lw 319 584 m 1860 X s 319 584 m cl s 366 584 m cl s 412 584 m cl s 459 584 m cl s 505 584 m cl s 552 584 m cl s 598 584 m cl s 645 584 m cl s 691 584 m cl s 738
 584 m cl s 784 584 m cl s 831 584 m cl s 877 584 m cl s 924 584 m cl s 970 584 m cl s 1017 584 m cl s 1063 584 m cl s 1110 584 m cl s 1156 584 m cl s 1203 584 m cl s 1249 584 m cl s 1296 584 m cl s 1342 584 m cl s 1389 584 m cl s 1435 584 m cl s
 1482 584 m cl s 1528 584 m cl s 1575 584 m cl s 1621 584 m cl s 1668 584 m cl s 1714 584 m cl s 1761 584 m cl s 1807 584 m cl s 1854 584 m cl s 1900 584 m cl s 1947 584 m cl s 1993 584 m cl s 2040 584 m cl s 2086 584 m cl s 2133 584 m cl s 2179 584
 m cl s 319 1729 m 1860 X s 319 1729 m cl s 366 1729 m cl s 412 1729 m cl s 459 1729 m cl s 505 1729 m cl s 552 1729 m cl s 598 1729 m cl s 645 1729 m cl s 691 1729 m cl s 738 1729 m cl s 784 1729 m cl s 831 1729 m cl s 877 1729 m cl s 924 1729 m cl
 s 970 1729 m cl s 1017 1729 m cl s 1063 1729 m cl s 1110 1729 m cl s 1156 1729 m cl s 1203 1729 m cl s 1249 1729 m cl s 1296 1729 m cl s 1342 1729 m cl s 1389 1729 m cl s 1435 1729 m cl s 1482 1729 m cl s 1528 1729 m cl s 1575 1729 m cl s 1621 1729
 m cl s 1668 1729 m cl s 1714 1729 m cl s 1761 1729 m cl s 1807 1729 m cl s 1854 1729 m cl s 1900 1729 m cl s 1947 1729 m cl s 1993 1729 m cl s 2040 1729 m cl s 2086 1729 m cl s 2133 1729 m cl s 2179 1729 m cl s 319 584 m 1145 Y s 341 626 m -22 X s
 341 650 m -22 X s 341 667 m -22 X s 341 680 m -22 X s 341 691 m -22 X s 341 700 m -22 X s 341 708 m -22 X s 341 715 m -22 X s 363 722 m -44 X s 341 763 m -22 X s 341 787 m -22 X s 341 804 m -22 X s 341 818 m -22 X s 341 828 m -22 X s 341 838 m -22 X
 s 341 846 m -22 X s 341 853 m -22 X s 363 859 m -44 X s 341 900 m -22 X s 341 924 m -22 X s 341 941 m -22 X s 341 955 m -22 X s 341 966 m -22 X s 341 975 m -22 X s 341 983 m -22 X s 341 990 m -22 X s 363 996 m -44 X s 341 1037 m -22 X s 341 1062 m
 -22 X s 341 1079 m -22 X s 341 1092 m -22 X s 341 1103 m -22 X s 341 1112 m -22 X s 341 1120 m -22 X s 341 1127 m -22 X s 363 1133 m -44 X s 341 1175 m -22 X s 341 1199 m -22 X s 341 1216 m -22 X s 341 1229 m -22 X s 341 1240 m -22 X s 341 1249 m
 -22 X s 341 1257 m -22 X s 341 1264 m -22 X s 363 1271 m -44 X s 341 1312 m -22 X s 341 1336 m -22 X s 341 1353 m -22 X s 341 1367 m -22 X s 341 1377 m -22 X s 341 1387 m -22 X s 341 1395 m -22 X s 341 1402 m -22 X s 363 1408 m -44 X s 341 1449 m
 -22 X s 341 1473 m -22 X s 341 1491 m -22 X s 341 1504 m -22 X s 341 1515 m -22 X s 341 1524 m -22 X s 341 1532 m -22 X s 341 1539 m -22 X s 363 1545 m -44 X s 341 1586 m -22 X s 341 1611 m -22 X s 341 1628 m -22 X s 341 1641 m -22 X s 341 1652 m
 -22 X s 341 1661 m -22 X s 341 1669 m -22 X s 341 1676 m -22 X s 363 1682 m -44 X s 341 1724 m -22 X s 2179 584 m 1145 Y s 2157 626 m 22 X s 2157 650 m 22 X s 2157 667 m 22 X s 2157 680 m 22 X s 2157 691 m 22 X s 2157 700 m 22 X s 2157 708 m 22 X s
 2157 715 m 22 X s 2136 722 m 43 X s 2157 763 m 22 X s 2157 787 m 22 X s 2157 804 m 22 X s 2157 818 m 22 X s 2157 828 m 22 X s 2157 838 m 22 X s 2157 846 m 22 X s 2157 853 m 22 X s 2136 859 m 43 X s 2157 900 m 22 X s 2157 924 m 22 X s 2157 941 m 22 X
 s 2157 955 m 22 X s 2157 966 m 22 X s 2157 975 m 22 X s 2157 983 m 22 X s 2157 990 m 22 X s 2136 996 m 43 X s 2157 1037 m 22 X s 2157 1062 m 22 X s 2157 1079 m 22 X s 2157 1092 m 22 X s 2157 1103 m 22 X s 2157 1112 m 22 X s 2157 1120 m 22 X s 2157
 1127 m 22 X s 2136 1133 m 43 X s 2157 1175 m 22 X s 2157 1199 m 22 X s 2157 1216 m 22 X s 2157 1229 m 22 X s 2157 1240 m 22 X s 2157 1249 m 22 X s 2157 1257 m 22 X s 2157 1264 m 22 X s 2136 1271 m 43 X s 2157 1312 m 22 X s 2157 1336 m 22 X s 2157
 1353 m 22 X s 2157 1367 m 22 X s 2157 1377 m 22 X s 2157 1387 m 22 X s 2157 1395 m 22 X s 2157 1402 m 22 X s 2136 1408 m 43 X s 2157 1449 m 22 X s 2157 1473 m 22 X s 2157 1491 m 22 X s 2157 1504 m 22 X s 2157 1515 m 22 X s 2157 1524 m 22 X s 2157
 1532 m 22 X s 2157 1539 m 22 X s 2136 1545 m 43 X s 2157 1586 m 22 X s 2157 1611 m 22 X s 2157 1628 m 22 X s 2157 1641 m 22 X s 2157 1652 m 22 X s 2157 1661 m 22 X s 2157 1669 m 22 X s 2157 1676 m 22 X s 2136 1682 m 43 X s 2157 1724 m 22 X s
 gsave  2263 1770 2 313 C 406.765 1447.41 t 0 r /Helvetica findfont 64.4212 sf 0 0 m (CRW for MB\255SSd) show NC gr 
 gsave  2263 1770 2 313 C 1464.36 1616.89 t 0 r /Helvetica findfont 64.4212 sf 0 0 m (SM Total) show NC gr  1 1 1 c 1338 1603 m 107 X 74 Y -107 X f 1 0 0 c 6 lw 1338 1640 m 107 X s black
 gsave  2263 1770 2 313 C 1464.36 1511.81 t 0 r /Helvetica findfont 64.4212 sf 0 0 m (Data) show NC gr  1391 1502 m 64 Y s 3 lw 1391 1534 m20 6 lw
 gsave  2263 1770 2 313 C 1464.36 1406.73 t 0 r /Helvetica findfont 64.4212 sf 0 0 m (W+jets) show NC gr  0.4 0.6 1 c 3 lw 1338 1391 m 107 X 74 Y -107 X f 6 lw black 3 lw 1338 1465 m 107 X s 1338 1391 m 107 X s 1445 1391 m 74 Y s 1338 1391 m 74 Y s
 gsave  2263 1770 2 313 C 1498.25 1298.26 t 0 r /Helvetica findfont 64.4212 sf 0 0 m (\(+EW\) & single top) show NC gr 
 gsave  2263 1770 2 313 C 1481.3 1298.26 t 0 r /Helvetica findfont 64.4212 sf 0 0 m (t) show NC gr  1481 1349 m 17 X s
 gsave  2263 1770 2 313 C 1464.36 1298.26 t 0 r /Helvetica findfont 64.4212 sf 0 0 m (t) show NC gr  0.6 1 0.6 c 1338 1284 m 107 X 75 Y -107 X f black 1338 1359 m 107 X s 1338 1284 m 107 X s 1445 1284 m 75 Y s 1338 1284 m 75 Y s
 gsave  2263 1770 2 313 C 1464.36 1193.18 t 0 r /Helvetica findfont 64.4212 sf 0 0 m (Z+jets) show NC gr  1 0.8 0.4 c 1338 1178 m 107 X 75 Y -107 X f black 1338 1253 m 107 X s 1338 1178 m 107 X s 1445 1178 m 75 Y s 1338 1178 m 75 Y s
 gsave  2263 1770 2 313 C 1464.36 1088.1 t 0 r /Helvetica findfont 64.4212 sf 0 0 m (Diboson) show NC gr  1 0.4 0.6 c 1338 1072 m 107 X 74 Y -107 X f black 1338 1146 m 107 X s 1338 1072 m 107 X s 1445 1072 m 74 Y s 1338 1072 m 74 Y s
 gsave  2263 1770 2 313 C 911.832 1566.05 t 0 r /Helvetica findfont 44.0776 sf 0 0 m (\2551) show NC gr 
 gsave  2263 1770 2 313 C 471.17 1535.54 t 0 r /Helvetica findfont 64.4212 sf 0 0 m (=13TeV, 139 fb) show NC gr 
 gsave  2263 1770 2 313 C 440.662 1535.54 t 0 r /Helvetica findfont 64.4212 sf 0 0 m (s) show NC gr  6 lw 420 1573 m 7 -41 d s 3 lw 427 1532 m 7 61 d s 434 1593 m 37 X s 1 1 1 c 2254 561 2 2 bf black 1 1 1 c black 1860 358 318 187 bl 1 1 1 c black
 1860 358 318 187 bl 6 lw 1 1 1 c black 3 lw 364 372 m20 6 lw 3 lw 457 363 m20 6 lw 3 lw 550 362 m20 6 lw 3 lw 643 366 m20 6 lw 3 lw 736 365 m20 6 lw 3 lw 829 359 m20 6 lw 3 lw 923 368 m20 6 lw 3 lw 1016 380 m20 6 lw 3 lw 1109 360 m20 6 lw 3 lw 1202
 346 m20 6 lw 3 lw 1295 420 m20 6 lw 3 lw 1388 364 m20 6 lw 3 lw 1481 406 m20 6 lw 3 lw 1574 302 m20 6 lw 3 lw 1667 290 m20 6 lw 3 lw 1760 393 m20 6 lw 3 lw 1853 364 m20 6 lw 3 lw 1946 412 m20 6 lw 3 lw 2039 526 m20 6 lw 3 lw 2132 303 m20 6 lw 3 lw
 318 187 m 1860 X s
 gsave  2254 561 2 2 C 1959.25 33.8971 t 0 r /Helvetica findfont 78.1689 sf 0 0 m ( [GeV]) show NC gr 
 gsave  2254 561 2 2 C 1901.63 13.5588 t 0 r /Helvetica findfont 50.9797 sf 0 0 m (eff) show NC gr 
 gsave  2254 561 2 2 C 1840.61 33.8971 t 0 r /Helvetica findfont 78.1689 sf 0 0 m (m) show NC gr  318 201 m -14 Y s 364 194 m -7 Y s 411 194 m -7 Y s 457 194 m -7 Y s 504 194 m -7 Y s 550 201 m -14 Y s 597 194 m -7 Y s 643 194 m -7 Y s 690 194 m -7 Y
 s 736 194 m -7 Y s 783 201 m -14 Y s 829 194 m -7 Y s 876 194 m -7 Y s 923 194 m -7 Y s 969 194 m -7 Y s 1016 201 m -14 Y s 1062 194 m -7 Y s 1109 194 m -7 Y s 1155 194 m -7 Y s 1202 194 m -7 Y s 1248 201 m -14 Y s 1295 194 m -7 Y s 1341 194 m -7 Y
 s 1388 194 m -7 Y s 1434 194 m -7 Y s 1481 201 m -14 Y s 1527 194 m -7 Y s 1574 194 m -7 Y s 1620 194 m -7 Y s 1667 194 m -7 Y s 1713 201 m -14 Y s 1760 194 m -7 Y s 1806 194 m -7 Y s 1853 194 m -7 Y s 1899 194 m -7 Y s 1946 201 m -14 Y s 1992 194 m
 -7 Y s 2039 194 m -7 Y s 2085 194 m -7 Y s 2132 194 m -7 Y s 2178 201 m -14 Y s
 gsave  2254 561 2 2 C 227.111 118.64 t 0 r /Helvetica findfont 78.1689 sf 0 0 m (1000) show NC gr 
 gsave  2254 561 2 2 C 461.001 118.64 t 0 r /Helvetica findfont 78.1689 sf 0 0 m (1500) show NC gr 
 gsave  2254 561 2 2 C 691.501 118.64 t 0 r /Helvetica findfont 78.1689 sf 0 0 m (2000) show NC gr 
 gsave  2254 561 2 2 C 925.391 118.64 t 0 r /Helvetica findfont 78.1689 sf 0 0 m (2500) show NC gr 
 gsave  2254 561 2 2 C 1159.28 118.64 t 0 r /Helvetica findfont 78.1689 sf 0 0 m (3000) show NC gr 
 gsave  2254 561 2 2 C 1389.78 118.64 t 0 r /Helvetica findfont 78.1689 sf 0 0 m (3500) show NC gr 
 gsave  2254 561 2 2 C 1623.67 118.64 t 0 r /Helvetica findfont 78.1689 sf 0 0 m (4000) show NC gr 
 gsave  2254 561 2 2 C 1857.56 118.64 t 0 r /Helvetica findfont 78.1689 sf 0 0 m (4500) show NC gr 
 gsave  2254 561 2 2 C 2088.06 118.64 t 0 r /Helvetica findfont 78.1689 sf 0 0 m (5000) show NC gr  318 545 m 1860 X s 318 531 m 14 Y s 364 538 m 7 Y s 411 538 m 7 Y s 457 538 m 7 Y s 504 538 m 7 Y s 550 531 m 14 Y s 597 538 m 7 Y s 643 538 m 7 Y s
 690 538 m 7 Y s 736 538 m 7 Y s 783 531 m 14 Y s 829 538 m 7 Y s 876 538 m 7 Y s 923 538 m 7 Y s 969 538 m 7 Y s 1016 531 m 14 Y s 1062 538 m 7 Y s 1109 538 m 7 Y s 1155 538 m 7 Y s 1202 538 m 7 Y s 1248 531 m 14 Y s 1295 538 m 7 Y s 1341 538 m 7 Y
 s 1388 538 m 7 Y s 1434 538 m 7 Y s 1481 531 m 14 Y s 1527 538 m 7 Y s 1574 538 m 7 Y s 1620 538 m 7 Y s 1667 538 m 7 Y s 1713 531 m 14 Y s 1760 538 m 7 Y s 1806 538 m 7 Y s 1853 538 m 7 Y s 1899 538 m 7 Y s 1946 531 m 14 Y s 1992 538 m 7 Y s 2039
 538 m 7 Y s 2085 538 m 7 Y s 2132 538 m 7 Y s 2178 531 m 14 Y s 318 187 m 358 Y s
 gsave  2254 561 2 2 C 166.096 284.736 t 90 r /Helvetica findfont 67.9729 sf 0 0 m (Data/SM) show NC gr  361 203 m -43 X s 339 220 m -21 X s 339 236 m -21 X s 339 252 m -21 X s 339 268 m -21 X s 361 285 m -43 X s 339 301 m -21 X s 339 317 m -21 X s
 339 334 m -21 X s 339 350 m -21 X s 361 366 m -43 X s 339 382 m -21 X s 339 399 m -21 X s 339 415 m -21 X s 339 431 m -21 X s 361 447 m -43 X s 339 464 m -21 X s 339 480 m -21 X s 339 496 m -21 X s 339 512 m -21 X s 361 529 m -43 X s 361 203 m -43 X
 s 339 187 m -21 X s 361 529 m -43 X s
 gsave  2254 561 2 2 C 261.008 183.044 t 0 r /Helvetica findfont 57.777 sf 0 0 m (0) show NC gr 
 gsave  2254 561 2 2 C 213.552 261.008 t 0 r /Helvetica findfont 57.777 sf 0 0 m (0.5) show NC gr 
 gsave  2254 561 2 2 C 271.177 342.361 t 0 r /Helvetica findfont 57.777 sf 0 0 m (1) show NC gr 
 gsave  2254 561 2 2 C 213.552 423.714 t 0 r /Helvetica findfont 57.777 sf 0 0 m (1.5) show NC gr 
 gsave  2254 561 2 2 C 261.008 505.067 t 0 r /Helvetica findfont 57.777 sf 0 0 m (2) show NC gr  2178 187 m 358 Y s 2135 203 m 43 X s 2157 220 m 21 X s 2157 236 m 21 X s 2157 252 m 21 X s 2157 268 m 21 X s 2135 285 m 43 X s 2157 301 m 21 X s 2157 317
 m 21 X s 2157 334 m 21 X s 2157 350 m 21 X s 2135 366 m 43 X s 2157 382 m 21 X s 2157 399 m 21 X s 2157 415 m 21 X s 2157 431 m 21 X s 2135 447 m 43 X s 2157 464 m 21 X s 2157 480 m 21 X s 2157 496 m 21 X s 2157 512 m 21 X s 2135 529 m 43 X s 2135
 203 m 43 X s 2157 187 m 21 X s 2135 529 m 43 X s 9 lw 1202 360 m 2 Y s 1202 362 m cl s 1202 332 m -2 Y s 1202 330 m cl s 1295 433 m 12 Y s 1295 445 m cl s 1295 406 m -11 Y s 1295 395 m cl s 1388 377 m 14 Y s 1388 391 m cl s 1388 350 m -13 Y s 1388
 337 m cl s 1481 420 m 24 Y s 1481 444 m cl s 1481 393 m -23 Y s 1481 370 m cl s 1574 316 m 18 Y s 1574 334 m cl s 1574 289 m -17 Y s 1574 272 m cl s 1667 304 m 23 Y s 1667 327 m cl s 1667 277 m -21 Y s 1667 256 m cl s 1760 406 m 67 Y s 1760 473 m cl
 s 1760 379 m -61 Y s 1760 318 m cl s 1853 378 m 62 Y s 1853 440 m cl s 1853 351 m -56 Y s 1853 295 m cl s 1946 425 m 119 Y s 1946 544 m cl s 1946 398 m -99 Y s 1946 299 m cl s 2039 539 m 6 Y s 2039 545 m cl s 2039 512 m -140 Y s 2039 372 m cl s 2132
 317 m 50 Y s 2132 367 m cl s 2132 290 m -41 Y s 2132 249 m cl s 3 lw 364 372 457 363 550 362 643 366 736 365 829 359 923 368 1016 380 1109 360 1202 346 1295 420 1388 364 1481 406 1574 302 1667 290 1760 393 1853 364 1946 412 2039 526 2132 303 20 {
 m20} R 9 lw 1 0 0 c 6 lw black 3 lw 1 0 0 c 2178 227 m s 2178 255 m s 2178 284 m s 2178 312 m s 2178 341 m -18 -19 d s 2178 369 m -47 -47 d s 2178 398 m -76 -76 d s 2161 410 m -88 -89 d s 2133 410 m -89 -89 d s 2104 410 m -89 -89 d s 2076 411 m -84
 -84 d s 2048 411 m -75 -74 d s 2019 411 m -74 -74 d s 1975 395 m -59 -58 d s 1946 395 m -74 -74 d s 1917 395 m -74 -74 d s 1899 406 m -85 -85 d s 1876 411 m -78 -78 d s 1847 411 m -78 -78 d s 1818 411 m -12 -12 d s 1806 399 m -65 -66 d s 1777 399 m
 -64 -64 d s 1749 399 m -51 -51 d s 1720 399 m -7 -7 d s 1705 384 m -36 -36 d s 1677 384 m -37 -36 d s 1648 384 m -34 -33 d s 1617 382 m -31 -31 d s 1588 382 m -31 -31 d s 1559 382 m -31 -31 d s 1531 382 m -29 -29 d s 1499 379 m -25 -26 d s 1470 379
 m -25 -26 d s 1442 379 m -24 -24 d s 1411 377 m -22 -22 d s 1383 377 m -22 -22 d s 1354 377 m -19 -18 d s 1322 373 m -15 -14 d s 1293 373 m -15 -14 d s 1264 373 m -15 -14 d s 1235 373 m -14 -14 d s 1206 373 m -14 -14 d s 1178 373 m -14 -14 d s 1147
 371 m -10 -10 d s 1118 371 m -9 -10 d s 1089 371 m -9 -10 d s 1060 370 m -8 -8 d s 1031 370 m -8 -8 d s 1003 370 m -9 -8 d s 974 370 m -8 -8 d s 945 370 m -8 -8 d s 916 370 m -7 -8 d s 888 370 m -8 -8 d s 858 369 m -5 -6 d s 829 369 m -5 -6 d s 800
 369 m -5 -6 d s 773 370 m -8 -8 d s 744 370 m -8 -8 d s 716 370 m -8 -8 d s 685 368 m -4 -4 d s 656 368 m -4 -4 d s 628 368 m -4 -4 d s 599 368 m -3 -3 d s 570 367 m -3 -2 d s 541 367 m -3 -2 d s 512 367 m -2 -2 d s 483 367 m -2 -2 d s 455 367 m -3
 -2 d s 318 231 m s 426 367 m -2 -2 d s 318 259 m s 397 367 m -2 -2 d s 318 288 m s 369 367 m -3 -2 d s 318 317 m s 340 367 m -2 -2 d s 318 345 m s 6 lw black[ 4 8] 0 sd 3 lw 318 447 m 1860 X s 318 285 m 1860 X s 1 0 0 c[  12 12 ] 0 sd 6 lw 318 366 m
 1860 X s
 gr  gr showpage
end
%%EOF
