%!PS-Adobe-2.0 EPSF-2.0
%%BoundingBox:  0 0 567 521
%%Title: Distributions/meffInc_distrCRY_MB-SSd_afterFit_forThesis.eps: canvas
%%Creator: ROOT Version 6.04/16
%%CreationDate: Tue May 19 22:04:29 2020
%%DocumentNeededResources: ProcSet (FontSetInit)
%%EndComments
%%BeginProlog
80 dict begin
/s {stroke} def /l {lineto} def /m {moveto} def /t {translate} def
/r {rotate} def /rl {roll}  def /R {repeat} def
/d {rlineto} def /rm {rmoveto} def /gr {grestore} def /f {eofill} def
/c {setrgbcolor} def /black {0 setgray} def /sd {setdash} def
/cl {closepath} def /sf {scalefont setfont} def /lw {setlinewidth} def
/box {m dup 0 exch d exch 0 d 0 exch neg d cl} def
/NC{systemdict begin initclip end}def/C{NC box clip newpath}def
/bl {box s} def /bf {gsave box gsave f grestore 1 lw [] 0 sd s grestore} def /Y { 0 exch d} def /X { 0 d} def 
/K {{pop pop 0 moveto} exch kshow} bind def
/ita {/ang 15 def gsave [1 0 ang dup sin exch cos div 1 0 0] concat} def 
/mp {newpath /y exch def /x exch def} def
/side {[w .77 mul w .23 mul] .385 w mul sd w 0 l currentpoint t -144 r} def
/mr {mp x y w2 0 360 arc} def /m24 {mr s} def /m20 {mr f} def
/mb {mp x y w2 add m w2 neg 0 d 0 w neg d w 0 d 0 w d cl} def
/mt {mp x y w2 add m w2 neg w neg d w 0 d cl} def
/m21 {mb f} def /m25 {mb s} def /m22 {mt f} def /m26{mt s} def
/m23 {mp x y w2 sub m w2 w d w neg 0 d cl f} def
/m27 {mp x y w2 add m w3 neg w2 neg d w3 w2 neg d w3 w2 d cl s} def
/m28 {mp x w2 sub y w2 sub w3 add m w3 0 d  0 w3 neg d w3 0 d 0 w3 d w3 0 d  0 w3 d w3 neg 0 d 0 w3 d w3 neg 0 d 0 w3 neg d w3 neg 0 d cl s } def
/m29 {mp gsave x w2 sub y w2 add w3 sub m currentpoint t 4 {side} repeat cl fill gr} def
/m30 {mp gsave x w2 sub y w2 add w3 sub m currentpoint t 4 {side} repeat cl s gr} def
/m31 {mp x y w2 sub m 0 w d x w2 sub y m w 0 d x w2 sub y w2 add m w w neg d x w2 sub y w2 sub m w w d s} def
/m32 {mp x y w2 sub m w2 w d w neg 0 d cl s} def
/m33 {mp x y w2 add m w3 neg w2 neg d w3 w2 neg d w3 w2 d cl f} def
/m34 {mp x w2 sub y w2 sub w3 add m w3 0 d  0 w3 neg d w3 0 d 0 w3 d w3 0 d  0 w3 d w3 neg 0 d 0 w3 d w3 neg 0 d 0 w3 neg d w3 neg 0 d cl f } def
/m2 {mp x y w2 sub m 0 w d x w2 sub y m w 0 d s} def
/m5 {mp x w2 sub y w2 sub m w w d x w2 sub y w2 add m w w neg d s} def
%%IncludeResource: ProcSet (FontSetInit)
%%IncludeResource: font Times-Roman
%%IncludeResource: font Times-Italic
%%IncludeResource: font Times-Bold
%%IncludeResource: font Times-BoldItalic
%%IncludeResource: font Helvetica
%%IncludeResource: font Helvetica-Oblique
%%IncludeResource: font Helvetica-Bold
%%IncludeResource: font Helvetica-BoldOblique
%%IncludeResource: font Courier
%%IncludeResource: font Courier-Oblique
%%IncludeResource: font Courier-Bold
%%IncludeResource: font Courier-BoldOblique
%%IncludeResource: font Symbol
%%IncludeResource: font ZapfDingbats
/reEncode {exch findfont dup length dict begin {1 index /FID eq  {pop pop} {def} ifelse } forall /Encoding exch def currentdict end dup /FontName get exch definefont pop } def [/Times-Bold /Times-Italic /Times-BoldItalic /Helvetica /Helvetica-Oblique
 /Helvetica-Bold /Helvetica-BoldOblique /Courier /Courier-Oblique /Courier-Bold /Courier-BoldOblique /Times-Roman /AvantGarde-Book /AvantGarde-BookOblique /AvantGarde-Demi /AvantGarde-DemiOblique /Bookman-Demi /Bookman-DemiItalic /Bookman-Light
 /Bookman-LightItalic /Helvetica-Narrow /Helvetica-Narrow-Bold /Helvetica-Narrow-BoldOblique /Helvetica-Narrow-Oblique /NewCenturySchlbk-Roman /NewCenturySchlbk-Bold /NewCenturySchlbk-BoldItalic /NewCenturySchlbk-Italic /Palatino-Bold
 /Palatino-BoldItalic /Palatino-Italic /Palatino-Roman ] {ISOLatin1Encoding reEncode } forall
%%EndProlog
%%BeginSetup
%%EndSetup
newpath  gsave  .25 .25 scale  gsave  0 0 t black[  ] 0 sd 3 lw 1 1 1 c 2268 2085 0 0 bf black 1 1 1 c 2263 1770 2 313 bf black 1 1 1 c black 1860 1145 319 584 bl 1 1 1 c black 1860 1145 319 584 bl 6 lw 1 1 1 c black 3 lw /w 33 def /w2 {w 2 div} def
 /w3 {w 3 div} def 366 1276 m20 6 lw 3 lw 459 1255 m20 6 lw 3 lw 552 1219 m20 6 lw 3 lw 645 1185 m20 6 lw 3 lw 738 1148 m20 6 lw 3 lw 831 1115 m20 6 lw 3 lw 924 1082 m20 6 lw 3 lw 1017 1051 m20 6 lw 3 lw 1110 1019 m20 6 lw 3 lw 1203 998 m20 6 lw 3 lw
 1296 962 m20 6 lw 3 lw 1389 933 m20 6 lw 1482 863 m 1 Y s 3 lw 1482 878 m20 6 lw 1575 866 m 2 Y s 3 lw 1575 881 m20 6 lw 1668 855 m 3 Y s 3 lw 1668 871 m20 6 lw 1761 786 m 16 Y s 1761 829 m 6 Y s 3 lw 1761 816 m20 6 lw 1854 584 m 117 Y s 1854 728 m
 26 Y s 3 lw 1854 715 m20 6 lw 1947 772 m 20 Y s 1947 819 m 7 Y s 3 lw 1947 806 m20 6 lw 2040 684 m 56 Y s 2040 767 m 17 Y s 3 lw 2040 754 m20 6 lw 2133 684 m 56 Y s 2133 767 m 17 Y s 3 lw 2133 754 m20 6 lw 3 lw 319 584 m 1860 X s
 gsave  2263 1770 2 313 C 1949.08 369.478 t 0 r /Helvetica findfont 81.3741 sf 0 0 m ( [GeV]) show NC gr 
 gsave  2263 1770 2 313 C 1888.07 342.361 t 0 r /Helvetica findfont 54.2494 sf 0 0 m (eff) show NC gr 
 gsave  2263 1770 2 313 C 1823.66 369.478 t 0 r /Helvetica findfont 81.3741 sf 0 0 m (m) show NC gr  319 584 m cl s 366 584 m cl s 412 584 m cl s 459 584 m cl s 505 584 m cl s 552 584 m cl s 598 584 m cl s 645 584 m cl s 691 584 m cl s 738 584 m cl s
 784 584 m cl s 831 584 m cl s 877 584 m cl s 924 584 m cl s 970 584 m cl s 1017 584 m cl s 1063 584 m cl s 1110 584 m cl s 1156 584 m cl s 1203 584 m cl s 1249 584 m cl s 1296 584 m cl s 1342 584 m cl s 1389 584 m cl s 1435 584 m cl s 1482 584 m cl
 s 1528 584 m cl s 1575 584 m cl s 1621 584 m cl s 1668 584 m cl s 1714 584 m cl s 1761 584 m cl s 1807 584 m cl s 1854 584 m cl s 1900 584 m cl s 1947 584 m cl s 1993 584 m cl s 2040 584 m cl s 2086 584 m cl s 2133 584 m cl s 2179 584 m cl s 319
 1729 m 1860 X s 319 1729 m cl s 366 1729 m cl s 412 1729 m cl s 459 1729 m cl s 505 1729 m cl s 552 1729 m cl s 598 1729 m cl s 645 1729 m cl s 691 1729 m cl s 738 1729 m cl s 784 1729 m cl s 831 1729 m cl s 877 1729 m cl s 924 1729 m cl s 970 1729
 m cl s 1017 1729 m cl s 1063 1729 m cl s 1110 1729 m cl s 1156 1729 m cl s 1203 1729 m cl s 1249 1729 m cl s 1296 1729 m cl s 1342 1729 m cl s 1389 1729 m cl s 1435 1729 m cl s 1482 1729 m cl s 1528 1729 m cl s 1575 1729 m cl s 1621 1729 m cl s 1668
 1729 m cl s 1714 1729 m cl s 1761 1729 m cl s 1807 1729 m cl s 1854 1729 m cl s 1900 1729 m cl s 1947 1729 m cl s 1993 1729 m cl s 2040 1729 m cl s 2086 1729 m cl s 2133 1729 m cl s 2179 1729 m cl s 319 584 m 1145 Y s
 gsave  2263 1770 2 313 C 166.096 1091.49 t 90 r /Helvetica findfont 81.3741 sf 0 0 m (Events / 200 GeV) show NC gr  341 624 m -22 X s 341 646 m -22 X s 341 663 m -22 X s 341 675 m -22 X s 341 686 m -22 X s 341 694 m -22 X s 341 702 m -22 X s 341 709
 m -22 X s 363 715 m -44 X s
 gsave  2263 1770 2 313 C 300.555 687.42 t 0 r  -36 0 t /Helvetica findfont 64.4212 sf 0 0 m (1) show NC gr  341 754 m -22 X s 341 777 m -22 X s 341 793 m -22 X s 341 806 m -22 X s 341 816 m -22 X s 341 825 m -22 X s 341 832 m -22 X s 341 839 m -22 X
 s 363 845 m -44 X s
 gsave  2263 1770 2 313 C 300.555 817.649 t 0 r  -73 0 t /Helvetica findfont 64.4212 sf 0 0 m (10) show NC gr  341 884 m -22 X s 341 907 m -22 X s 341 923 m -22 X s 341 936 m -22 X s 341 946 m -22 X s 341 955 m -22 X s 341 962 m -22 X s 341 969 m -22
 X s 363 975 m -44 X s
 gsave  2263 1770 2 313 C 274.567 972.847 t 0 r /Helvetica findfont 44.0776 sf 0 0 m (2) show NC gr 
 gsave  2263 1770 2 313 C 203.383 945.729 t 0 r /Helvetica findfont 64.4212 sf 0 0 m (10) show NC gr  341 1014 m -22 X s 341 1037 m -22 X s 341 1053 m -22 X s 341 1066 m -22 X s 341 1076 m -22 X s 341 1085 m -22 X s 341 1093 m -22 X s 341 1099 m -22
 X s 363 1105 m -44 X s
 gsave  2263 1770 2 313 C 274.567 1108.44 t 0 r /Helvetica findfont 44.0776 sf 0 0 m (3) show NC gr 
 gsave  2263 1770 2 313 C 203.383 1077.93 t 0 r /Helvetica findfont 64.4212 sf 0 0 m (10) show NC gr  341 1144 m -22 X s 341 1167 m -22 X s 341 1184 m -22 X s 341 1196 m -22 X s 341 1207 m -22 X s 341 1215 m -22 X s 341 1223 m -22 X s 341 1229 m -22
 X s 363 1235 m -44 X s
 gsave  2263 1770 2 313 C 274.567 1233.85 t 0 r /Helvetica findfont 44.0776 sf 0 0 m (4) show NC gr 
 gsave  2263 1770 2 313 C 203.383 1206.74 t 0 r /Helvetica findfont 64.4212 sf 0 0 m (10) show NC gr  341 1275 m -22 X s 341 1298 m -22 X s 341 1314 m -22 X s 341 1326 m -22 X s 341 1337 m -22 X s 341 1346 m -22 X s 341 1353 m -22 X s 341 1360 m -22
 X s 363 1366 m -44 X s
 gsave  2263 1770 2 313 C 274.567 1366.05 t 0 r /Helvetica findfont 44.0776 sf 0 0 m (5) show NC gr 
 gsave  2263 1770 2 313 C 203.383 1335.55 t 0 r /Helvetica findfont 64.4212 sf 0 0 m (10) show NC gr  341 1405 m -22 X s 341 1428 m -22 X s 341 1444 m -22 X s 341 1457 m -22 X s 341 1467 m -22 X s 341 1476 m -22 X s 341 1483 m -22 X s 341 1490 m -22
 X s 363 1496 m -44 X s
 gsave  2263 1770 2 313 C 274.567 1498.25 t 0 r /Helvetica findfont 44.0776 sf 0 0 m (6) show NC gr 
 gsave  2263 1770 2 313 C 203.383 1467.74 t 0 r /Helvetica findfont 64.4212 sf 0 0 m (10) show NC gr  341 1535 m -22 X s 341 1558 m -22 X s 341 1574 m -22 X s 341 1587 m -22 X s 341 1597 m -22 X s 341 1606 m -22 X s 341 1614 m -22 X s 341 1620 m -22
 X s 363 1626 m -44 X s
 gsave  2263 1770 2 313 C 274.567 1623.67 t 0 r /Helvetica findfont 44.0776 sf 0 0 m (7) show NC gr 
 gsave  2263 1770 2 313 C 203.383 1596.55 t 0 r /Helvetica findfont 64.4212 sf 0 0 m (10) show NC gr  341 1665 m -22 X s 341 1688 m -22 X s 341 1705 m -22 X s 341 1717 m -22 X s 341 1727 m -22 X s 2179 584 m 1145 Y s 2157 624 m 22 X s 2157 646 m 22 X
 s 2157 663 m 22 X s 2157 675 m 22 X s 2157 686 m 22 X s 2157 694 m 22 X s 2157 702 m 22 X s 2157 709 m 22 X s 2136 715 m 43 X s 2157 754 m 22 X s 2157 777 m 22 X s 2157 793 m 22 X s 2157 806 m 22 X s 2157 816 m 22 X s 2157 825 m 22 X s 2157 832 m 22
 X s 2157 839 m 22 X s 2136 845 m 43 X s 2157 884 m 22 X s 2157 907 m 22 X s 2157 923 m 22 X s 2157 936 m 22 X s 2157 946 m 22 X s 2157 955 m 22 X s 2157 962 m 22 X s 2157 969 m 22 X s 2136 975 m 43 X s 2157 1014 m 22 X s 2157 1037 m 22 X s 2157 1053
 m 22 X s 2157 1066 m 22 X s 2157 1076 m 22 X s 2157 1085 m 22 X s 2157 1093 m 22 X s 2157 1099 m 22 X s 2136 1105 m 43 X s 2157 1144 m 22 X s 2157 1167 m 22 X s 2157 1184 m 22 X s 2157 1196 m 22 X s 2157 1207 m 22 X s 2157 1215 m 22 X s 2157 1223 m
 22 X s 2157 1229 m 22 X s 2136 1235 m 43 X s 2157 1275 m 22 X s 2157 1298 m 22 X s 2157 1314 m 22 X s 2157 1326 m 22 X s 2157 1337 m 22 X s 2157 1346 m 22 X s 2157 1353 m 22 X s 2157 1360 m 22 X s 2136 1366 m 43 X s 2157 1405 m 22 X s 2157 1428 m 22
 X s 2157 1444 m 22 X s 2157 1457 m 22 X s 2157 1467 m 22 X s 2157 1476 m 22 X s 2157 1483 m 22 X s 2157 1490 m 22 X s 2136 1496 m 43 X s 2157 1535 m 22 X s 2157 1558 m 22 X s 2157 1574 m 22 X s 2157 1587 m 22 X s 2157 1597 m 22 X s 2157 1606 m 22 X
 s 2157 1614 m 22 X s 2157 1620 m 22 X s 2136 1626 m 43 X s 2157 1665 m 22 X s 2157 1688 m 22 X s 2157 1705 m 22 X s 2157 1717 m 22 X s 2157 1727 m 22 X s 1 1 0 c black 1 1 0 c 319 584 m 691 Y 93 X -20 Y 93 X -35 Y 93 X -35 Y 93 X -36 Y 93 X -31 Y 93
 X -36 Y 93 X -31 Y 93 X -33 Y 93 X -25 Y 93 X -34 Y 93 X -28 Y 93 X -28 Y 93 X -28 Y 93 X -23 Y 93 X -28 Y 93 X -21 Y 93 X -29 Y 93 X -27 Y 93 X 24 Y 93 X -187 Y f black 1 1 0 c black 319 1275 m 93 X -20 Y 93 X -35 Y 93 X -35 Y 93 X -36 Y 93 X -31 Y
 93 X -36 Y 93 X -31 Y 93 X -33 Y 93 X -25 Y 93 X -34 Y 93 X -28 Y 93 X -28 Y 93 X -28 Y 93 X -23 Y 93 X -28 Y 93 X -21 Y 93 X -29 Y 93 X -27 Y 93 X 24 Y 93 X s 0.999 0.999 0.999 c black 0.999 0.999 0.999 c 319 584 m 415 Y 93 X -24 Y 93 X -34 Y 93 X
 -35 Y 93 X -29 Y 93 X -32 Y 93 X -34 Y 93 X -39 Y 93 X -45 Y 93 X -59 Y 93 X 3 Y 93 X -37 Y 93 X 3 Y 93 X -44 Y 93 X 52 Y 93 X -49 Y 93 X -12 Y 93 X 13 Y 93 X -13 Y 186 X f black 0.999 0.999 0.999 c black 319 999 m 93 X -24 Y 93 X -34 Y 93 X -35 Y
 93 X -29 Y 93 X -32 Y 93 X -34 Y 93 X -39 Y 93 X -45 Y 93 X -59 Y 93 X 3 Y 93 X -37 Y 93 X 3 Y 93 X -44 Y 93 X 52 Y 93 X -49 Y 93 X -12 Y 93 X 13 Y 93 X -13 Y 186 X s 1 1 1 c black 319 999 m 93 X -24 Y 93 X -34 Y 93 X -35 Y 93 X -29 Y 93 X -32 Y 93
 X -34 Y 93 X -39 Y 93 X -45 Y 93 X -59 Y 93 X 3 Y 93 X -37 Y 93 X 3 Y 93 X -44 Y 93 X 52 Y 93 X -49 Y 93 X -12 Y 93 X 13 Y 93 X -13 Y 186 X s 0.4 0.6 1 c black 0.4 0.6 1 c 319 584 m 415 Y 93 X -24 Y 93 X -34 Y 93 X -35 Y 93 X -29 Y 93 X -32 Y 93 X
 -34 Y 93 X -39 Y 93 X -45 Y 93 X -59 Y 93 X 3 Y 93 X -37 Y 93 X 3 Y 93 X -44 Y 93 X 52 Y 93 X -49 Y 93 X -12 Y 93 X 13 Y 93 X -13 Y 186 X f black 0.4 0.6 1 c black 319 999 m 93 X -24 Y 93 X -34 Y 93 X -35 Y 93 X -29 Y 93 X -32 Y 93 X -34 Y 93 X -39
 Y 93 X -45 Y 93 X -59 Y 93 X 3 Y 93 X -37 Y 93 X 3 Y 93 X -44 Y 93 X 52 Y 93 X -49 Y 93 X -12 Y 93 X 13 Y 93 X -13 Y 186 X s 0.999 0.999 0.999 c black 0.999 0.999 0.999 c 319 584 m 396 Y 93 X -32 Y 93 X -39 Y 93 X -38 Y 93 X -27 Y 93 X -32 Y 93 X
 -49 Y 93 X -39 Y 93 X -34 Y 93 X -106 Y 93 X 36 Y 93 X -36 Y 279 X 22 Y 93 X -10 Y 93 X -12 Y 93 X 13 Y 93 X -13 Y 186 X f black 0.999 0.999 0.999 c black 319 980 m 93 X -32 Y 93 X -39 Y 93 X -38 Y 93 X -27 Y 93 X -32 Y 93 X -49 Y 93 X -39 Y 93 X
 -34 Y 93 X -106 Y 93 X 36 Y 93 X -36 Y 279 X 22 Y 93 X -10 Y 93 X -12 Y 93 X 13 Y 93 X -13 Y 186 X s 1 1 1 c black 319 980 m 93 X -32 Y 93 X -39 Y 93 X -38 Y 93 X -27 Y 93 X -32 Y 93 X -49 Y 93 X -39 Y 93 X -34 Y 93 X -106 Y 93 X 36 Y 93 X -36 Y 279
 X 22 Y 93 X -10 Y 93 X -12 Y 93 X 13 Y 93 X -13 Y 186 X s 0.6 1 0.6 c black 0.6 1 0.6 c 319 584 m 396 Y 93 X -32 Y 93 X -39 Y 93 X -38 Y 93 X -27 Y 93 X -32 Y 93 X -49 Y 93 X -39 Y 93 X -34 Y 93 X -106 Y 93 X 36 Y 93 X -36 Y 279 X 22 Y 93 X -10 Y 93
 X -12 Y 93 X 13 Y 93 X -13 Y 186 X f black 0.6 1 0.6 c black 319 980 m 93 X -32 Y 93 X -39 Y 93 X -38 Y 93 X -27 Y 93 X -32 Y 93 X -49 Y 93 X -39 Y 93 X -34 Y 93 X -106 Y 93 X 36 Y 93 X -36 Y 279 X 22 Y 93 X -10 Y 93 X -12 Y 93 X 13 Y 93 X -13 Y 186
 X s 0.999 0.999 0.999 c black 0.999 0.999 0.999 c 319 584 m 258 Y 93 X -32 Y 93 X -22 Y 93 X -15 Y 93 X -19 Y 93 X -74 Y 93 X -8 Y 93 X -41 Y 93 X -47 Y 837 X 13 Y 93 X -13 Y 186 X f black 0.999 0.999 0.999 c black 319 842 m 93 X -32 Y 93 X -22 Y 93
 X -15 Y 93 X -19 Y 93 X -74 Y 93 X -8 Y 93 X -41 Y 93 X -47 Y 837 X 13 Y 93 X -13 Y 186 X s 1 1 1 c black 319 842 m 93 X -32 Y 93 X -22 Y 93 X -15 Y 93 X -19 Y 93 X -74 Y 93 X -8 Y 93 X -41 Y 93 X -47 Y 837 X 13 Y 93 X -13 Y 186 X s 1 0.4 0.6 c
 black 1 0.4 0.6 c 319 584 m 258 Y 93 X -32 Y 93 X -22 Y 93 X -15 Y 93 X -19 Y 93 X -74 Y 93 X -8 Y 93 X -41 Y 93 X -47 Y 837 X 13 Y 93 X -13 Y 186 X f black 1 0.4 0.6 c black 319 842 m 93 X -32 Y 93 X -22 Y 93 X -15 Y 93 X -19 Y 93 X -74 Y 93 X -8 Y
 93 X -41 Y 93 X -47 Y 837 X 13 Y 93 X -13 Y 186 X s 1 0 0 c 6 lw 1 1 1 c black 1 0 0 c 319 1275 m 93 X -20 Y 93 X -35 Y 93 X -35 Y 93 X -36 Y 93 X -31 Y 93 X -36 Y 93 X -31 Y 93 X -33 Y 93 X -25 Y 93 X -34 Y 93 X -28 Y 93 X -28 Y 93 X -28 Y 93 X -23
 Y 93 X -28 Y 93 X -21 Y 93 X -29 Y 93 X -27 Y 93 X 24 Y 93 X s black 3 lw 1 0 0 c 1 lw << /PatternType 1 /PaintType 2 /TilingType 1 /BBox [ 0 0 100 100 ] /XStep 100 /YStep 100 /PaintProc { begin gsave 0 100 m 100 0 l s gr end } >> [ 0.24 0 0 0.24 0
 0 ] makepattern /P05 exch def /cs {[/Pattern /DeviceRGB] setcolorspace} def /FA {f [/DeviceRGB] setcolorspace} def cs 1 0 0 P05 setcolor 319 584 m 691 Y 93 X -20 Y 93 X -34 Y 93 X -35 Y 93 X -36 Y 93 X -30 Y 93 X -37 Y 93 X -31 Y 93 X -32 Y 93 X -24
 Y 93 X -35 Y 93 X -28 Y 93 X -27 Y 93 X -27 Y 93 X -23 Y 93 X -26 Y 93 X -18 Y 93 X -30 Y 93 X -27 Y 93 X 23 Y 93 X -194 Y 180 Y -93 X -27 Y -93 X 27 Y -93 X 29 Y -93 X 23 Y -93 X 31 Y -93 X 25 Y -93 X 27 Y -93 X 29 Y -93 X 29 Y -93 X 34 Y -93 X 26
 Y -93 X 32 Y -93 X 32 Y -93 X 34 Y -93 X 33 Y -93 X 36 Y -93 X 36 Y -93 X 34 Y -93 X 21 Y -93 X -691 Y FA 6 lw 1 1 1 c 15 lw 1761 796 m -9 Y s 1761 787 m cl s 1854 735 m 26 Y s 1854 761 m cl s 1854 694 m -78 Y s 1854 616 m cl s 1947 826 m 1 Y s 1947
 827 m cl s 1947 785 m -11 Y s 1947 774 m cl s 2040 774 m 13 Y s 2040 787 m cl s 2040 733 m -38 Y s 2040 695 m cl s 2133 774 m 13 Y s 2133 787 m cl s 2133 733 m -38 Y s 2133 695 m cl s black 1 1 1 c 3 lw /w 43 def /w2 {w 2 div} def /w3 {w 3 div} def
 366 1276 459 1255 552 1219 645 1185 738 1148 831 1115 924 1082 1017 1051 1110 1019 1203 998 1296 962 1389 933 1482 878 1575 881 1668 871 1761 816 1854 715 1947 806 2040 754 2133 754 20 { m20} R 15 lw black 6 lw 1 1 1 c black 3 lw /w 33 def /w2 {w 2
 div} def /w3 {w 3 div} def 366 1276 m20 6 lw 3 lw 459 1255 m20 6 lw 3 lw 552 1219 m20 6 lw 3 lw 645 1185 m20 6 lw 3 lw 738 1148 m20 6 lw 3 lw 831 1115 m20 6 lw 3 lw 924 1082 m20 6 lw 3 lw 1017 1051 m20 6 lw 3 lw 1110 1019 m20 6 lw 3 lw 1203 998 m20
 6 lw 3 lw 1296 962 m20 6 lw 3 lw 1389 933 m20 6 lw 1482 863 m 1 Y s 3 lw 1482 878 m20 6 lw 1575 866 m 2 Y s 3 lw 1575 881 m20 6 lw 1668 855 m 3 Y s 3 lw 1668 871 m20 6 lw 1761 786 m 16 Y s 1761 829 m 6 Y s 3 lw 1761 816 m20 6 lw 1854 584 m 117 Y s
 1854 728 m 26 Y s 3 lw 1854 715 m20 6 lw 1947 772 m 20 Y s 1947 819 m 7 Y s 3 lw 1947 806 m20 6 lw 2040 684 m 56 Y s 2040 767 m 17 Y s 3 lw 2040 754 m20 6 lw 2133 684 m 56 Y s 2133 767 m 17 Y s 3 lw 2133 754 m20 6 lw 1482 864 m -1 Y s 1482 863 m cl
 s 1575 868 m -1 Y s 1575 867 m cl s 1668 858 m -3 Y s 1668 855 m cl s 1761 829 m 7 Y s 1761 836 m cl s 1761 802 m -15 Y s 1761 787 m cl s 1854 728 m 33 Y s 1854 761 m cl s 1854 701 m -85 Y s 1854 616 m cl s 1947 819 m 8 Y s 1947 827 m cl s 1947 792
 m -18 Y s 1947 774 m cl s 2040 767 m 20 Y s 2040 787 m cl s 2040 740 m -45 Y s 2040 695 m cl s 2133 767 m 20 Y s 2133 787 m cl s 2133 740 m -45 Y s 2133 695 m cl s 3 lw 366 1276 459 1255 552 1219 645 1185 738 1148 831 1115 924 1082 1017 1051 1110
 1019 1203 998 1296 962 1389 933 1482 878 1575 881 1668 871 1761 816 1854 715 1947 806 2040 754 2133 754 20 { m20} R 6 lw 3 lw 319 584 m 1860 X s 319 584 m cl s 366 584 m cl s 412 584 m cl s 459 584 m cl s 505 584 m cl s 552 584 m cl s 598 584 m cl s
 645 584 m cl s 691 584 m cl s 738 584 m cl s 784 584 m cl s 831 584 m cl s 877 584 m cl s 924 584 m cl s 970 584 m cl s 1017 584 m cl s 1063 584 m cl s 1110 584 m cl s 1156 584 m cl s 1203 584 m cl s 1249 584 m cl s 1296 584 m cl s 1342 584 m cl s
 1389 584 m cl s 1435 584 m cl s 1482 584 m cl s 1528 584 m cl s 1575 584 m cl s 1621 584 m cl s 1668 584 m cl s 1714 584 m cl s 1761 584 m cl s 1807 584 m cl s 1854 584 m cl s 1900 584 m cl s 1947 584 m cl s 1993 584 m cl s 2040 584 m cl s 2086 584
 m cl s 2133 584 m cl s 2179 584 m cl s 319 1729 m 1860 X s 319 1729 m cl s 366 1729 m cl s 412 1729 m cl s 459 1729 m cl s 505 1729 m cl s 552 1729 m cl s 598 1729 m cl s 645 1729 m cl s 691 1729 m cl s 738 1729 m cl s 784 1729 m cl s 831 1729 m cl
 s 877 1729 m cl s 924 1729 m cl s 970 1729 m cl s 1017 1729 m cl s 1063 1729 m cl s 1110 1729 m cl s 1156 1729 m cl s 1203 1729 m cl s 1249 1729 m cl s 1296 1729 m cl s 1342 1729 m cl s 1389 1729 m cl s 1435 1729 m cl s 1482 1729 m cl s 1528 1729 m
 cl s 1575 1729 m cl s 1621 1729 m cl s 1668 1729 m cl s 1714 1729 m cl s 1761 1729 m cl s 1807 1729 m cl s 1854 1729 m cl s 1900 1729 m cl s 1947 1729 m cl s 1993 1729 m cl s 2040 1729 m cl s 2086 1729 m cl s 2133 1729 m cl s 2179 1729 m cl s 319
 584 m 1145 Y s 341 624 m -22 X s 341 646 m -22 X s 341 663 m -22 X s 341 675 m -22 X s 341 686 m -22 X s 341 694 m -22 X s 341 702 m -22 X s 341 709 m -22 X s 363 715 m -44 X s 341 754 m -22 X s 341 777 m -22 X s 341 793 m -22 X s 341 806 m -22 X s
 341 816 m -22 X s 341 825 m -22 X s 341 832 m -22 X s 341 839 m -22 X s 363 845 m -44 X s 341 884 m -22 X s 341 907 m -22 X s 341 923 m -22 X s 341 936 m -22 X s 341 946 m -22 X s 341 955 m -22 X s 341 962 m -22 X s 341 969 m -22 X s 363 975 m -44 X
 s 341 1014 m -22 X s 341 1037 m -22 X s 341 1053 m -22 X s 341 1066 m -22 X s 341 1076 m -22 X s 341 1085 m -22 X s 341 1093 m -22 X s 341 1099 m -22 X s 363 1105 m -44 X s 341 1144 m -22 X s 341 1167 m -22 X s 341 1184 m -22 X s 341 1196 m -22 X s
 341 1207 m -22 X s 341 1215 m -22 X s 341 1223 m -22 X s 341 1229 m -22 X s 363 1235 m -44 X s 341 1275 m -22 X s 341 1298 m -22 X s 341 1314 m -22 X s 341 1326 m -22 X s 341 1337 m -22 X s 341 1346 m -22 X s 341 1353 m -22 X s 341 1360 m -22 X s
 363 1366 m -44 X s 341 1405 m -22 X s 341 1428 m -22 X s 341 1444 m -22 X s 341 1457 m -22 X s 341 1467 m -22 X s 341 1476 m -22 X s 341 1483 m -22 X s 341 1490 m -22 X s 363 1496 m -44 X s 341 1535 m -22 X s 341 1558 m -22 X s 341 1574 m -22 X s
 341 1587 m -22 X s 341 1597 m -22 X s 341 1606 m -22 X s 341 1614 m -22 X s 341 1620 m -22 X s 363 1626 m -44 X s 341 1665 m -22 X s 341 1688 m -22 X s 341 1705 m -22 X s 341 1717 m -22 X s 341 1727 m -22 X s 2179 584 m 1145 Y s 2157 624 m 22 X s
 2157 646 m 22 X s 2157 663 m 22 X s 2157 675 m 22 X s 2157 686 m 22 X s 2157 694 m 22 X s 2157 702 m 22 X s 2157 709 m 22 X s 2136 715 m 43 X s 2157 754 m 22 X s 2157 777 m 22 X s 2157 793 m 22 X s 2157 806 m 22 X s 2157 816 m 22 X s 2157 825 m 22 X
 s 2157 832 m 22 X s 2157 839 m 22 X s 2136 845 m 43 X s 2157 884 m 22 X s 2157 907 m 22 X s 2157 923 m 22 X s 2157 936 m 22 X s 2157 946 m 22 X s 2157 955 m 22 X s 2157 962 m 22 X s 2157 969 m 22 X s 2136 975 m 43 X s 2157 1014 m 22 X s 2157 1037 m
 22 X s 2157 1053 m 22 X s 2157 1066 m 22 X s 2157 1076 m 22 X s 2157 1085 m 22 X s 2157 1093 m 22 X s 2157 1099 m 22 X s 2136 1105 m 43 X s 2157 1144 m 22 X s 2157 1167 m 22 X s 2157 1184 m 22 X s 2157 1196 m 22 X s 2157 1207 m 22 X s 2157 1215 m 22
 X s 2157 1223 m 22 X s 2157 1229 m 22 X s 2136 1235 m 43 X s 2157 1275 m 22 X s 2157 1298 m 22 X s 2157 1314 m 22 X s 2157 1326 m 22 X s 2157 1337 m 22 X s 2157 1346 m 22 X s 2157 1353 m 22 X s 2157 1360 m 22 X s 2136 1366 m 43 X s 2157 1405 m 22 X
 s 2157 1428 m 22 X s 2157 1444 m 22 X s 2157 1457 m 22 X s 2157 1467 m 22 X s 2157 1476 m 22 X s 2157 1483 m 22 X s 2157 1490 m 22 X s 2136 1496 m 43 X s 2157 1535 m 22 X s 2157 1558 m 22 X s 2157 1574 m 22 X s 2157 1587 m 22 X s 2157 1597 m 22 X s
 2157 1606 m 22 X s 2157 1614 m 22 X s 2157 1620 m 22 X s 2136 1626 m 43 X s 2157 1665 m 22 X s 2157 1688 m 22 X s 2157 1705 m 22 X s 2157 1717 m 22 X s 2157 1727 m 22 X s
 gsave  2263 1770 2 313 C 406.765 1447.41 t 0 r /Helvetica findfont 64.4212 sf 0 0 m (CRY for MB\255SSd) show NC gr 
 gsave  2263 1770 2 313 C 1464.36 1616.89 t 0 r /Helvetica findfont 64.4212 sf 0 0 m (SM Total) show NC gr  1 1 1 c 1338 1603 m 107 X 74 Y -107 X f 1 0 0 c 6 lw 1338 1640 m 107 X s black
 gsave  2263 1770 2 313 C 1464.36 1511.81 t 0 r /Helvetica findfont 64.4212 sf 0 0 m (Data) show NC gr  1391 1502 m 64 Y s 3 lw 1391 1534 m20 6 lw
 gsave  2263 1770 2 313 C 1464.36 1406.73 t 0 r /Helvetica findfont 64.4212 sf 0 0 m (GAMMAjets) show NC gr  1 1 0 c 3 lw 1338 1391 m 107 X 74 Y -107 X f 6 lw black 3 lw 1338 1465 m 107 X s 1338 1391 m 107 X s 1445 1391 m 74 Y s 1338 1391 m 74 Y s
 gsave  2263 1770 2 313 C 1464.36 1298.26 t 0 r /Helvetica findfont 64.4212 sf 0 0 m (W+jets) show NC gr  0.4 0.6 1 c 1338 1284 m 107 X 75 Y -107 X f black 1338 1359 m 107 X s 1338 1284 m 107 X s 1445 1284 m 75 Y s 1338 1284 m 75 Y s
 gsave  2263 1770 2 313 C 1498.25 1193.18 t 0 r /Helvetica findfont 64.4212 sf 0 0 m (\(+EW\) & single top) show NC gr 
 gsave  2263 1770 2 313 C 1481.3 1193.18 t 0 r /Helvetica findfont 64.4212 sf 0 0 m (t) show NC gr  1481 1244 m 17 X s
 gsave  2263 1770 2 313 C 1464.36 1193.18 t 0 r /Helvetica findfont 64.4212 sf 0 0 m (t) show NC gr  0.6 1 0.6 c 1338 1178 m 107 X 75 Y -107 X f black 1338 1253 m 107 X s 1338 1178 m 107 X s 1445 1178 m 75 Y s 1338 1178 m 75 Y s
 gsave  2263 1770 2 313 C 1464.36 1088.1 t 0 r /Helvetica findfont 64.4212 sf 0 0 m (Diboson) show NC gr  1 0.4 0.6 c 1338 1072 m 107 X 74 Y -107 X f black 1338 1146 m 107 X s 1338 1072 m 107 X s 1445 1072 m 74 Y s 1338 1072 m 74 Y s
 gsave  2263 1770 2 313 C 911.832 1566.05 t 0 r /Helvetica findfont 44.0776 sf 0 0 m (\2551) show NC gr 
 gsave  2263 1770 2 313 C 471.17 1535.54 t 0 r /Helvetica findfont 64.4212 sf 0 0 m (=13TeV, 139 fb) show NC gr 
 gsave  2263 1770 2 313 C 440.662 1535.54 t 0 r /Helvetica findfont 64.4212 sf 0 0 m (s) show NC gr  6 lw 420 1573 m 7 -41 d s 3 lw 427 1532 m 7 61 d s 434 1593 m 37 X s 1 1 1 c 2254 561 2 2 bf black 1 1 1 c black 1860 358 318 187 bl 1 1 1 c black
 1860 358 318 187 bl 6 lw 1 1 1 c black 3 lw 364 368 m20 6 lw 3 lw 457 366 m20 6 lw 3 lw 550 362 m20 6 lw 3 lw 643 365 m20 6 lw 3 lw 736 363 m20 6 lw 3 lw 829 360 m20 6 lw 3 lw 923 365 m20 6 lw 3 lw 1016 367 m20 6 lw 3 lw 1109 368 m20 6 lw 3 lw 1202
 379 m20 6 lw 3 lw 1295 375 m20 6 lw 3 lw 1388 374 m20 6 lw 3 lw 1481 309 m20 6 lw 3 lw 1574 384 m20 6 lw 3 lw 1667 434 m20 6 lw 3 lw 1760 345 m20 6 lw 3 lw 1853 237 m20 6 lw 3 lw 1946 489 m20 6 lw 3 lw 2039 387 m20 6 lw 3 lw 2132 323 m20 6 lw 3 lw
 318 187 m 1860 X s
 gsave  2254 561 2 2 C 1959.25 33.8971 t 0 r /Helvetica findfont 78.1689 sf 0 0 m ( [GeV]) show NC gr 
 gsave  2254 561 2 2 C 1901.63 13.5588 t 0 r /Helvetica findfont 50.9797 sf 0 0 m (eff) show NC gr 
 gsave  2254 561 2 2 C 1840.61 33.8971 t 0 r /Helvetica findfont 78.1689 sf 0 0 m (m) show NC gr  318 201 m -14 Y s 364 194 m -7 Y s 411 194 m -7 Y s 457 194 m -7 Y s 504 194 m -7 Y s 550 201 m -14 Y s 597 194 m -7 Y s 643 194 m -7 Y s 690 194 m -7 Y
 s 736 194 m -7 Y s 783 201 m -14 Y s 829 194 m -7 Y s 876 194 m -7 Y s 923 194 m -7 Y s 969 194 m -7 Y s 1016 201 m -14 Y s 1062 194 m -7 Y s 1109 194 m -7 Y s 1155 194 m -7 Y s 1202 194 m -7 Y s 1248 201 m -14 Y s 1295 194 m -7 Y s 1341 194 m -7 Y
 s 1388 194 m -7 Y s 1434 194 m -7 Y s 1481 201 m -14 Y s 1527 194 m -7 Y s 1574 194 m -7 Y s 1620 194 m -7 Y s 1667 194 m -7 Y s 1713 201 m -14 Y s 1760 194 m -7 Y s 1806 194 m -7 Y s 1853 194 m -7 Y s 1899 194 m -7 Y s 1946 201 m -14 Y s 1992 194 m
 -7 Y s 2039 194 m -7 Y s 2085 194 m -7 Y s 2132 194 m -7 Y s 2178 201 m -14 Y s
 gsave  2254 561 2 2 C 227.111 118.64 t 0 r /Helvetica findfont 78.1689 sf 0 0 m (1000) show NC gr 
 gsave  2254 561 2 2 C 461.001 118.64 t 0 r /Helvetica findfont 78.1689 sf 0 0 m (1500) show NC gr 
 gsave  2254 561 2 2 C 691.501 118.64 t 0 r /Helvetica findfont 78.1689 sf 0 0 m (2000) show NC gr 
 gsave  2254 561 2 2 C 925.391 118.64 t 0 r /Helvetica findfont 78.1689 sf 0 0 m (2500) show NC gr 
 gsave  2254 561 2 2 C 1159.28 118.64 t 0 r /Helvetica findfont 78.1689 sf 0 0 m (3000) show NC gr 
 gsave  2254 561 2 2 C 1389.78 118.64 t 0 r /Helvetica findfont 78.1689 sf 0 0 m (3500) show NC gr 
 gsave  2254 561 2 2 C 1623.67 118.64 t 0 r /Helvetica findfont 78.1689 sf 0 0 m (4000) show NC gr 
 gsave  2254 561 2 2 C 1857.56 118.64 t 0 r /Helvetica findfont 78.1689 sf 0 0 m (4500) show NC gr 
 gsave  2254 561 2 2 C 2088.06 118.64 t 0 r /Helvetica findfont 78.1689 sf 0 0 m (5000) show NC gr  318 545 m 1860 X s 318 531 m 14 Y s 364 538 m 7 Y s 411 538 m 7 Y s 457 538 m 7 Y s 504 538 m 7 Y s 550 531 m 14 Y s 597 538 m 7 Y s 643 538 m 7 Y s
 690 538 m 7 Y s 736 538 m 7 Y s 783 531 m 14 Y s 829 538 m 7 Y s 876 538 m 7 Y s 923 538 m 7 Y s 969 538 m 7 Y s 1016 531 m 14 Y s 1062 538 m 7 Y s 1109 538 m 7 Y s 1155 538 m 7 Y s 1202 538 m 7 Y s 1248 531 m 14 Y s 1295 538 m 7 Y s 1341 538 m 7 Y
 s 1388 538 m 7 Y s 1434 538 m 7 Y s 1481 531 m 14 Y s 1527 538 m 7 Y s 1574 538 m 7 Y s 1620 538 m 7 Y s 1667 538 m 7 Y s 1713 531 m 14 Y s 1760 538 m 7 Y s 1806 538 m 7 Y s 1853 538 m 7 Y s 1899 538 m 7 Y s 1946 531 m 14 Y s 1992 538 m 7 Y s 2039
 538 m 7 Y s 2085 538 m 7 Y s 2132 538 m 7 Y s 2178 531 m 14 Y s 318 187 m 358 Y s
 gsave  2254 561 2 2 C 166.096 284.736 t 90 r /Helvetica findfont 67.9729 sf 0 0 m (Data/SM) show NC gr  361 203 m -43 X s 339 220 m -21 X s 339 236 m -21 X s 339 252 m -21 X s 339 268 m -21 X s 361 285 m -43 X s 339 301 m -21 X s 339 317 m -21 X s
 339 334 m -21 X s 339 350 m -21 X s 361 366 m -43 X s 339 382 m -21 X s 339 399 m -21 X s 339 415 m -21 X s 339 431 m -21 X s 361 447 m -43 X s 339 464 m -21 X s 339 480 m -21 X s 339 496 m -21 X s 339 512 m -21 X s 361 529 m -43 X s 361 203 m -43 X
 s 339 187 m -21 X s 361 529 m -43 X s
 gsave  2254 561 2 2 C 261.008 183.044 t 0 r /Helvetica findfont 57.777 sf 0 0 m (0) show NC gr 
 gsave  2254 561 2 2 C 213.552 261.008 t 0 r /Helvetica findfont 57.777 sf 0 0 m (0.5) show NC gr 
 gsave  2254 561 2 2 C 271.177 342.361 t 0 r /Helvetica findfont 57.777 sf 0 0 m (1) show NC gr 
 gsave  2254 561 2 2 C 213.552 423.714 t 0 r /Helvetica findfont 57.777 sf 0 0 m (1.5) show NC gr 
 gsave  2254 561 2 2 C 261.008 505.067 t 0 r /Helvetica findfont 57.777 sf 0 0 m (2) show NC gr  2178 187 m 358 Y s 2135 203 m 43 X s 2157 220 m 21 X s 2157 236 m 21 X s 2157 252 m 21 X s 2157 268 m 21 X s 2135 285 m 43 X s 2157 301 m 21 X s 2157 317
 m 21 X s 2157 334 m 21 X s 2157 350 m 21 X s 2135 366 m 43 X s 2157 382 m 21 X s 2157 399 m 21 X s 2157 415 m 21 X s 2157 431 m 21 X s 2135 447 m 43 X s 2157 464 m 21 X s 2157 480 m 21 X s 2157 496 m 21 X s 2157 512 m 21 X s 2135 529 m 43 X s 2135
 203 m 43 X s 2157 187 m 21 X s 2135 529 m 43 X s 9 lw 1202 392 m 1 Y s 1202 393 m cl s 1202 365 m -1 Y s 1202 364 m cl s 1295 388 m 6 Y s 1295 394 m cl s 1295 361 m -5 Y s 1295 356 m cl s 1388 388 m 11 Y s 1388 399 m cl s 1388 361 m -11 Y s 1388 350
 m cl s 1481 322 m 12 Y s 1481 334 m cl s 1481 295 m -11 Y s 1481 284 m cl s 1574 397 m 28 Y s 1574 425 m cl s 1574 370 m -27 Y s 1574 343 m cl s 1667 448 m 45 Y s 1667 493 m cl s 1667 421 m -44 Y s 1667 377 m cl s 1760 359 m 47 Y s 1760 406 m cl s
 1760 332 m -43 Y s 1760 289 m cl s 1853 251 m 30 Y s 1853 281 m cl s 1853 224 m -15 Y s 1853 209 m cl s 1946 503 m 42 Y s 1946 545 m cl s 1946 476 m -110 Y s 1946 366 m cl s 2039 401 m 135 Y s 2039 536 m cl s 2039 374 m -105 Y s 2039 269 m cl s 2132
 336 m 84 Y s 2132 420 m cl s 2132 309 m -63 Y s 2132 246 m cl s 3 lw 364 368 457 366 550 362 643 365 736 363 829 360 923 365 1016 367 1109 368 1202 379 1295 375 1388 374 1481 309 1574 384 1667 434 1760 345 1853 237 1946 489 2039 387 2132 323 20 {
 m20} R 9 lw 1 0 0 c 6 lw black 3 lw 1 0 0 c 2178 227 m s 2178 255 m s 2178 284 m s 2178 312 m s 2178 341 m s 2178 369 m -24 -24 d s 2167 387 m -41 -42 d s 2138 387 m -41 -42 d s 2110 387 m -46 -46 d s 2085 391 m -50 -50 d s 2057 391 m -51 -50 d s
 2028 391 m -50 -50 d s 1999 391 m -50 -50 d s 1970 391 m -50 -50 d s 1942 391 m -52 -52 d s 1913 391 m -52 -52 d s 1886 393 m -54 -54 d s 1858 393 m -52 -51 d s 1829 393 m -48 -48 d s 1794 387 m -42 -42 d s 1765 387 m -41 -42 d s 1737 387 m -35 -34
 d s 1701 379 m -27 -26 d s 1672 379 m -27 -26 d s 1643 379 m -23 -23 d s 1611 376 m -20 -20 d s 1582 376 m -20 -20 d s 1554 376 m -20 -20 d s 1525 376 m -19 -19 d s 1496 376 m -19 -19 d s 1467 376 m -19 -19 d s 1439 376 m -17 -17 d s 1408 373 m -15
 -14 d s 1379 373 m -15 -14 d s 1350 373 m -13 -13 d s 1320 372 m -12 -12 d s 1292 372 m -13 -12 d s 1263 372 m -12 -12 d s 1235 373 m -13 -14 d s 1206 373 m -13 -14 d s 1177 373 m -13 -14 d s 1147 371 m -10 -10 d s 1118 371 m -9 -10 d s 1090 371 m
 -10 -10 d s 1060 370 m -8 -8 d s 1032 370 m -9 -8 d s 1003 370 m -9 -8 d s 974 370 m -8 -8 d s 945 370 m -8 -8 d s 917 370 m -8 -8 d s 888 370 m -8 -8 d s 861 372 m -12 -12 d s 832 372 m -11 -12 d s 804 372 m -12 -12 d s 772 369 m -6 -6 d s 743 369
 m -5 -6 d s 715 369 m -6 -6 d s 685 368 m -4 -4 d s 657 368 m -5 -4 d s 628 368 m -5 -4 d s 599 368 m -3 -3 d s 569 367 m -2 -2 d s 540 367 m -1 -2 d s 512 367 m -2 -2 d s 483 367 m -2 -2 d s 454 367 m -1 -2 d s 318 231 m s 426 367 m -2 -2 d s 318
 259 m s 397 367 m -2 -2 d s 318 288 m s 368 367 m -1 -2 d s 318 317 m s 340 367 m -2 -2 d s 318 345 m s 6 lw black[ 4 8] 0 sd 3 lw 318 447 m 1860 X s 318 285 m 1860 X s 1 0 0 c[  12 12 ] 0 sd 6 lw 318 366 m 1860 X s
 gr  gr showpage
end
%%EOF
