%!PS-Adobe-2.0 EPSF-2.0
%%BoundingBox:  0 0 567 521
%%Title: Distributions/meffInc_distrVR0LdPhi_MB-C_beforeFit_forThesis.eps: canvas
%%Creator: ROOT Version 6.04/16
%%CreationDate: Tue May 19 22:04:51 2020
%%DocumentNeededResources: ProcSet (FontSetInit)
%%EndComments
%%BeginProlog
80 dict begin
/s {stroke} def /l {lineto} def /m {moveto} def /t {translate} def
/r {rotate} def /rl {roll}  def /R {repeat} def
/d {rlineto} def /rm {rmoveto} def /gr {grestore} def /f {eofill} def
/c {setrgbcolor} def /black {0 setgray} def /sd {setdash} def
/cl {closepath} def /sf {scalefont setfont} def /lw {setlinewidth} def
/box {m dup 0 exch d exch 0 d 0 exch neg d cl} def
/NC{systemdict begin initclip end}def/C{NC box clip newpath}def
/bl {box s} def /bf {gsave box gsave f grestore 1 lw [] 0 sd s grestore} def /Y { 0 exch d} def /X { 0 d} def 
/K {{pop pop 0 moveto} exch kshow} bind def
/ita {/ang 15 def gsave [1 0 ang dup sin exch cos div 1 0 0] concat} def 
/mp {newpath /y exch def /x exch def} def
/side {[w .77 mul w .23 mul] .385 w mul sd w 0 l currentpoint t -144 r} def
/mr {mp x y w2 0 360 arc} def /m24 {mr s} def /m20 {mr f} def
/mb {mp x y w2 add m w2 neg 0 d 0 w neg d w 0 d 0 w d cl} def
/mt {mp x y w2 add m w2 neg w neg d w 0 d cl} def
/m21 {mb f} def /m25 {mb s} def /m22 {mt f} def /m26{mt s} def
/m23 {mp x y w2 sub m w2 w d w neg 0 d cl f} def
/m27 {mp x y w2 add m w3 neg w2 neg d w3 w2 neg d w3 w2 d cl s} def
/m28 {mp x w2 sub y w2 sub w3 add m w3 0 d  0 w3 neg d w3 0 d 0 w3 d w3 0 d  0 w3 d w3 neg 0 d 0 w3 d w3 neg 0 d 0 w3 neg d w3 neg 0 d cl s } def
/m29 {mp gsave x w2 sub y w2 add w3 sub m currentpoint t 4 {side} repeat cl fill gr} def
/m30 {mp gsave x w2 sub y w2 add w3 sub m currentpoint t 4 {side} repeat cl s gr} def
/m31 {mp x y w2 sub m 0 w d x w2 sub y m w 0 d x w2 sub y w2 add m w w neg d x w2 sub y w2 sub m w w d s} def
/m32 {mp x y w2 sub m w2 w d w neg 0 d cl s} def
/m33 {mp x y w2 add m w3 neg w2 neg d w3 w2 neg d w3 w2 d cl f} def
/m34 {mp x w2 sub y w2 sub w3 add m w3 0 d  0 w3 neg d w3 0 d 0 w3 d w3 0 d  0 w3 d w3 neg 0 d 0 w3 d w3 neg 0 d 0 w3 neg d w3 neg 0 d cl f } def
/m2 {mp x y w2 sub m 0 w d x w2 sub y m w 0 d s} def
/m5 {mp x w2 sub y w2 sub m w w d x w2 sub y w2 add m w w neg d s} def
%%IncludeResource: ProcSet (FontSetInit)
%%IncludeResource: font Times-Roman
%%IncludeResource: font Times-Italic
%%IncludeResource: font Times-Bold
%%IncludeResource: font Times-BoldItalic
%%IncludeResource: font Helvetica
%%IncludeResource: font Helvetica-Oblique
%%IncludeResource: font Helvetica-Bold
%%IncludeResource: font Helvetica-BoldOblique
%%IncludeResource: font Courier
%%IncludeResource: font Courier-Oblique
%%IncludeResource: font Courier-Bold
%%IncludeResource: font Courier-BoldOblique
%%IncludeResource: font Symbol
%%IncludeResource: font ZapfDingbats
/reEncode {exch findfont dup length dict begin {1 index /FID eq  {pop pop} {def} ifelse } forall /Encoding exch def currentdict end dup /FontName get exch definefont pop } def [/Times-Bold /Times-Italic /Times-BoldItalic /Helvetica /Helvetica-Oblique
 /Helvetica-Bold /Helvetica-BoldOblique /Courier /Courier-Oblique /Courier-Bold /Courier-BoldOblique /Times-Roman /AvantGarde-Book /AvantGarde-BookOblique /AvantGarde-Demi /AvantGarde-DemiOblique /Bookman-Demi /Bookman-DemiItalic /Bookman-Light
 /Bookman-LightItalic /Helvetica-Narrow /Helvetica-Narrow-Bold /Helvetica-Narrow-BoldOblique /Helvetica-Narrow-Oblique /NewCenturySchlbk-Roman /NewCenturySchlbk-Bold /NewCenturySchlbk-BoldItalic /NewCenturySchlbk-Italic /Palatino-Bold
 /Palatino-BoldItalic /Palatino-Italic /Palatino-Roman ] {ISOLatin1Encoding reEncode } forall
%%EndProlog
%%BeginSetup
%%EndSetup
newpath  gsave  .25 .25 scale  gsave  0 0 t black[  ] 0 sd 3 lw 1 1 1 c 2268 2085 0 0 bf black 1 1 1 c 2263 1770 2 313 bf black 1 1 1 c black 1860 1145 319 584 bl 1 1 1 c black 1860 1145 319 584 bl 6 lw 1 1 1 c black 3 lw /w 33 def /w2 {w 2 div} def
 /w3 {w 3 div} def 374 1106 m20 6 lw 3 lw 483 1083 m20 6 lw 3 lw 593 1048 m20 6 lw 3 lw 702 1018 m20 6 lw 3 lw 812 966 m20 6 lw 3 lw 921 946 m20 6 lw 3 lw 1030 916 m20 6 lw 1140 838 m 9 Y s 1140 875 m 2 Y s 3 lw 1140 861 m20 6 lw 1249 784 m 22 Y s
 1249 833 m 9 Y s 3 lw 1249 819 m20 6 lw 1359 838 m 9 Y s 1359 875 m 2 Y s 3 lw 1359 861 m20 6 lw 1468 691 m 60 Y s 1468 778 m 18 Y s 3 lw 1468 764 m20 6 lw 1687 584 m 125 Y s 1687 736 m 28 Y s 3 lw 1687 723 m20 6 lw 1796 691 m 60 Y s 1796 778 m 18 Y
 s 3 lw 1796 764 m20 6 lw 1906 584 m 125 Y s 1906 736 m 28 Y s 3 lw 1906 723 m20 6 lw 3 lw 319 584 m 1860 X s
 gsave  2263 1770 2 313 C 1949.08 369.478 t 0 r /Helvetica findfont 81.3741 sf 0 0 m ( [GeV]) show NC gr 
 gsave  2263 1770 2 313 C 1888.07 342.361 t 0 r /Helvetica findfont 54.2494 sf 0 0 m (eff) show NC gr 
 gsave  2263 1770 2 313 C 1823.66 369.478 t 0 r /Helvetica findfont 81.3741 sf 0 0 m (m) show NC gr  538 584 m cl s 593 584 m cl s 647 584 m cl s 702 584 m cl s 757 584 m cl s 812 584 m cl s 866 584 m cl s 921 584 m cl s 976 584 m cl s 1030 584 m cl
 s 1085 584 m cl s 1140 584 m cl s 1195 584 m cl s 1249 584 m cl s 1304 584 m cl s 1359 584 m cl s 1413 584 m cl s 1468 584 m cl s 1523 584 m cl s 1578 584 m cl s 1632 584 m cl s 1687 584 m cl s 1742 584 m cl s 1796 584 m cl s 1851 584 m cl s 1906
 584 m cl s 1961 584 m cl s 2015 584 m cl s 2070 584 m cl s 2125 584 m cl s 2179 584 m cl s 538 584 m cl s 483 584 m cl s 429 584 m cl s 374 584 m cl s 319 584 m cl s 319 1729 m 1860 X s 538 1729 m cl s 593 1729 m cl s 647 1729 m cl s 702 1729 m cl s
 757 1729 m cl s 812 1729 m cl s 866 1729 m cl s 921 1729 m cl s 976 1729 m cl s 1030 1729 m cl s 1085 1729 m cl s 1140 1729 m cl s 1195 1729 m cl s 1249 1729 m cl s 1304 1729 m cl s 1359 1729 m cl s 1413 1729 m cl s 1468 1729 m cl s 1523 1729 m cl s
 1578 1729 m cl s 1632 1729 m cl s 1687 1729 m cl s 1742 1729 m cl s 1796 1729 m cl s 1851 1729 m cl s 1906 1729 m cl s 1961 1729 m cl s 2015 1729 m cl s 2070 1729 m cl s 2125 1729 m cl s 2179 1729 m cl s 538 1729 m cl s 483 1729 m cl s 429 1729 m cl
 s 374 1729 m cl s 319 1729 m cl s 319 584 m 1145 Y s
 gsave  2263 1770 2 313 C 166.096 1091.49 t 90 r /Helvetica findfont 81.3741 sf 0 0 m (Events / 200 GeV) show NC gr  341 626 m -22 X s 341 650 m -22 X s 341 668 m -22 X s 341 681 m -22 X s 341 692 m -22 X s 341 701 m -22 X s 341 709 m -22 X s 341 716
 m -22 X s 363 723 m -44 X s
 gsave  2263 1770 2 313 C 300.555 695.529 t 0 r  -36 0 t /Helvetica findfont 64.4212 sf 0 0 m (1) show NC gr  341 764 m -22 X s 341 789 m -22 X s 341 806 m -22 X s 341 819 m -22 X s 341 830 m -22 X s 341 840 m -22 X s 341 848 m -22 X s 341 855 m -22
 X s 363 861 m -44 X s
 gsave  2263 1770 2 313 C 300.555 833.867 t 0 r  -73 0 t /Helvetica findfont 64.4212 sf 0 0 m (10) show NC gr  341 903 m -22 X s 341 927 m -22 X s 341 944 m -22 X s 341 958 m -22 X s 341 969 m -22 X s 341 978 m -22 X s 341 986 m -22 X s 341 993 m -22
 X s 363 999 m -44 X s
 gsave  2263 1770 2 313 C 274.567 996.575 t 0 r /Helvetica findfont 44.0776 sf 0 0 m (2) show NC gr 
 gsave  2263 1770 2 313 C 203.383 969.457 t 0 r /Helvetica findfont 64.4212 sf 0 0 m (10) show NC gr  341 1041 m -22 X s 341 1065 m -22 X s 341 1083 m -22 X s 341 1096 m -22 X s 341 1107 m -22 X s 341 1116 m -22 X s 341 1124 m -22 X s 341 1131 m -22
 X s 363 1138 m -44 X s
 gsave  2263 1770 2 313 C 274.567 1138.94 t 0 r /Helvetica findfont 44.0776 sf 0 0 m (3) show NC gr 
 gsave  2263 1770 2 313 C 203.383 1108.44 t 0 r /Helvetica findfont 64.4212 sf 0 0 m (10) show NC gr  341 1179 m -22 X s 341 1204 m -22 X s 341 1221 m -22 X s 341 1234 m -22 X s 341 1245 m -22 X s 341 1255 m -22 X s 341 1263 m -22 X s 341 1270 m -22
 X s 363 1276 m -44 X s
 gsave  2263 1770 2 313 C 274.567 1274.53 t 0 r /Helvetica findfont 44.0776 sf 0 0 m (4) show NC gr 
 gsave  2263 1770 2 313 C 203.383 1247.41 t 0 r /Helvetica findfont 64.4212 sf 0 0 m (10) show NC gr  341 1318 m -22 X s 341 1342 m -22 X s 341 1359 m -22 X s 341 1373 m -22 X s 341 1384 m -22 X s 341 1393 m -22 X s 341 1401 m -22 X s 341 1408 m -22
 X s 363 1414 m -44 X s
 gsave  2263 1770 2 313 C 274.567 1416.9 t 0 r /Helvetica findfont 44.0776 sf 0 0 m (5) show NC gr 
 gsave  2263 1770 2 313 C 203.383 1386.39 t 0 r /Helvetica findfont 64.4212 sf 0 0 m (10) show NC gr  341 1456 m -22 X s 341 1480 m -22 X s 341 1498 m -22 X s 341 1511 m -22 X s 341 1522 m -22 X s 341 1531 m -22 X s 341 1539 m -22 X s 341 1546 m -22
 X s 363 1553 m -44 X s
 gsave  2263 1770 2 313 C 274.567 1555.88 t 0 r /Helvetica findfont 44.0776 sf 0 0 m (6) show NC gr 
 gsave  2263 1770 2 313 C 203.383 1525.37 t 0 r /Helvetica findfont 64.4212 sf 0 0 m (10) show NC gr  341 1594 m -22 X s 341 1619 m -22 X s 341 1636 m -22 X s 341 1649 m -22 X s 341 1660 m -22 X s 341 1670 m -22 X s 341 1678 m -22 X s 341 1685 m -22
 X s 363 1691 m -44 X s
 gsave  2263 1770 2 313 C 274.567 1688.08 t 0 r /Helvetica findfont 44.0776 sf 0 0 m (7) show NC gr 
 gsave  2263 1770 2 313 C 203.383 1660.96 t 0 r /Helvetica findfont 64.4212 sf 0 0 m (10) show NC gr  2179 584 m 1145 Y s 2157 626 m 22 X s 2157 650 m 22 X s 2157 668 m 22 X s 2157 681 m 22 X s 2157 692 m 22 X s 2157 701 m 22 X s 2157 709 m 22 X s
 2157 716 m 22 X s 2136 723 m 43 X s 2157 764 m 22 X s 2157 789 m 22 X s 2157 806 m 22 X s 2157 819 m 22 X s 2157 830 m 22 X s 2157 840 m 22 X s 2157 848 m 22 X s 2157 855 m 22 X s 2136 861 m 43 X s 2157 903 m 22 X s 2157 927 m 22 X s 2157 944 m 22 X
 s 2157 958 m 22 X s 2157 969 m 22 X s 2157 978 m 22 X s 2157 986 m 22 X s 2157 993 m 22 X s 2136 999 m 43 X s 2157 1041 m 22 X s 2157 1065 m 22 X s 2157 1083 m 22 X s 2157 1096 m 22 X s 2157 1107 m 22 X s 2157 1116 m 22 X s 2157 1124 m 22 X s 2157
 1131 m 22 X s 2136 1138 m 43 X s 2157 1179 m 22 X s 2157 1204 m 22 X s 2157 1221 m 22 X s 2157 1234 m 22 X s 2157 1245 m 22 X s 2157 1255 m 22 X s 2157 1263 m 22 X s 2157 1270 m 22 X s 2136 1276 m 43 X s 2157 1318 m 22 X s 2157 1342 m 22 X s 2157
 1359 m 22 X s 2157 1373 m 22 X s 2157 1384 m 22 X s 2157 1393 m 22 X s 2157 1401 m 22 X s 2157 1408 m 22 X s 2136 1414 m 43 X s 2157 1456 m 22 X s 2157 1480 m 22 X s 2157 1498 m 22 X s 2157 1511 m 22 X s 2157 1522 m 22 X s 2157 1531 m 22 X s 2157
 1539 m 22 X s 2157 1546 m 22 X s 2136 1553 m 43 X s 2157 1594 m 22 X s 2157 1619 m 22 X s 2157 1636 m 22 X s 2157 1649 m 22 X s 2157 1660 m 22 X s 2157 1670 m 22 X s 2157 1678 m 22 X s 2157 1685 m 22 X s 2136 1691 m 43 X s 0.4 0.6 1 c black 0.4 0.6
 1 c 319 584 m 536 Y 110 X -30 Y 109 X -33 Y 109 X -32 Y 110 X -38 Y 109 X -42 Y 110 X -23 Y 109 X -36 Y 110 X -28 Y 109 X -33 Y 109 X -40 Y 110 X -12 Y 109 X -8 Y 110 X -55 Y 109 X -17 Y 110 X -2 Y 109 X 21 Y 109 X -128 Y f black 0.4 0.6 1 c black
 319 1120 m 110 X -30 Y 109 X -33 Y 109 X -32 Y 110 X -38 Y 109 X -42 Y 110 X -23 Y 109 X -36 Y 110 X -28 Y 109 X -33 Y 109 X -40 Y 110 X -12 Y 109 X -8 Y 110 X -55 Y 109 X -17 Y 110 X -2 Y 109 X 21 Y 109 X s 0.999 0.999 0.999 c black 0.999 0.999
 0.999 c 319 584 m 513 Y 110 X -29 Y 109 X -34 Y 109 X -31 Y 110 X -39 Y 109 X -36 Y 110 X -32 Y 109 X -34 Y 110 X -24 Y 109 X -36 Y 109 X -44 Y 219 X -18 Y 110 X -49 Y 109 X -29 Y 110 X 4 Y 109 X 26 Y 109 X -108 Y f black 0.999 0.999 0.999 c black
 319 1097 m 110 X -29 Y 109 X -34 Y 109 X -31 Y 110 X -39 Y 109 X -36 Y 110 X -32 Y 109 X -34 Y 110 X -24 Y 109 X -36 Y 109 X -44 Y 219 X -18 Y 110 X -49 Y 109 X -29 Y 110 X 4 Y 109 X 26 Y 109 X s 1 1 1 c black 319 1097 m 110 X -29 Y 109 X -34 Y 109
 X -31 Y 110 X -39 Y 109 X -36 Y 110 X -32 Y 109 X -34 Y 110 X -24 Y 109 X -36 Y 109 X -44 Y 219 X -18 Y 110 X -49 Y 109 X -29 Y 110 X 4 Y 109 X 26 Y 109 X s 0.6 1 0.6 c black 0.6 1 0.6 c 319 584 m 513 Y 110 X -29 Y 109 X -34 Y 109 X -31 Y 110 X -39
 Y 109 X -36 Y 110 X -32 Y 109 X -34 Y 110 X -24 Y 109 X -36 Y 109 X -44 Y 219 X -18 Y 110 X -49 Y 109 X -29 Y 110 X 4 Y 109 X 26 Y 109 X -108 Y f black 0.6 1 0.6 c black 319 1097 m 110 X -29 Y 109 X -34 Y 109 X -31 Y 110 X -39 Y 109 X -36 Y 110 X
 -32 Y 109 X -34 Y 110 X -24 Y 109 X -36 Y 109 X -44 Y 219 X -18 Y 110 X -49 Y 109 X -29 Y 110 X 4 Y 109 X 26 Y 109 X s 0.999 0.999 0.999 c black 0.999 0.999 0.999 c 319 584 m 497 Y 110 X -29 Y 109 X -31 Y 109 X -32 Y 110 X -40 Y 109 X -36 Y 110 X
 -34 Y 109 X -30 Y 110 X -22 Y 109 X -37 Y 109 X -43 Y 110 X 6 Y 109 X -29 Y 110 X -34 Y 109 X -29 Y 110 X 3 Y 109 X 23 Y 109 X -103 Y f black 0.999 0.999 0.999 c black 319 1081 m 110 X -29 Y 109 X -31 Y 109 X -32 Y 110 X -40 Y 109 X -36 Y 110 X -34
 Y 109 X -30 Y 110 X -22 Y 109 X -37 Y 109 X -43 Y 110 X 6 Y 109 X -29 Y 110 X -34 Y 109 X -29 Y 110 X 3 Y 109 X 23 Y 109 X s 1 1 1 c black 319 1081 m 110 X -29 Y 109 X -31 Y 109 X -32 Y 110 X -40 Y 109 X -36 Y 110 X -34 Y 109 X -30 Y 110 X -22 Y 109
 X -37 Y 109 X -43 Y 110 X 6 Y 109 X -29 Y 110 X -34 Y 109 X -29 Y 110 X 3 Y 109 X 23 Y 109 X s 1 0.8 0.4 c black 1 0.8 0.4 c 319 584 m 497 Y 110 X -29 Y 109 X -31 Y 109 X -32 Y 110 X -40 Y 109 X -36 Y 110 X -34 Y 109 X -30 Y 110 X -22 Y 109 X -37 Y
 109 X -43 Y 110 X 6 Y 109 X -29 Y 110 X -34 Y 109 X -29 Y 110 X 3 Y 109 X 23 Y 109 X -103 Y f black 1 0.8 0.4 c black 319 1081 m 110 X -29 Y 109 X -31 Y 109 X -32 Y 110 X -40 Y 109 X -36 Y 110 X -34 Y 109 X -30 Y 110 X -22 Y 109 X -37 Y 109 X -43 Y
 110 X 6 Y 109 X -29 Y 110 X -34 Y 109 X -29 Y 110 X 3 Y 109 X 23 Y 109 X s 0.999 0.999 0.999 c black 0.999 0.999 0.999 c 319 584 m 371 Y 110 X -30 Y 109 X -31 Y 109 X -33 Y 110 X -26 Y 109 X -31 Y 110 X -58 Y 109 X -8 Y 110 X -70 Y 109 X 22 Y 109 X
 -43 Y 110 X -7 Y 109 X -56 Y 110 X 46 Y 109 X -46 Y 219 X 60 Y 109 X -60 Y f black 0.999 0.999 0.999 c black 319 955 m 110 X -30 Y 109 X -31 Y 109 X -33 Y 110 X -26 Y 109 X -31 Y 110 X -58 Y 109 X -8 Y 110 X -70 Y 109 X 22 Y 109 X -43 Y 110 X -7 Y
 109 X -56 Y 110 X 46 Y 109 X -46 Y 219 X 60 Y 109 X s 1 1 1 c black 319 955 m 110 X -30 Y 109 X -31 Y 109 X -33 Y 110 X -26 Y 109 X -31 Y 110 X -58 Y 109 X -8 Y 110 X -70 Y 109 X 22 Y 109 X -43 Y 110 X -7 Y 109 X -56 Y 110 X 46 Y 109 X -46 Y 219 X
 60 Y 109 X s 1 0.4 0.6 c black 1 0.4 0.6 c 319 584 m 371 Y 110 X -30 Y 109 X -31 Y 109 X -33 Y 110 X -26 Y 109 X -31 Y 110 X -58 Y 109 X -8 Y 110 X -70 Y 109 X 22 Y 109 X -43 Y 110 X -7 Y 109 X -56 Y 110 X 46 Y 109 X -46 Y 219 X 60 Y 109 X -60 Y f
 black 1 0.4 0.6 c black 319 955 m 110 X -30 Y 109 X -31 Y 109 X -33 Y 110 X -26 Y 109 X -31 Y 110 X -58 Y 109 X -8 Y 110 X -70 Y 109 X 22 Y 109 X -43 Y 110 X -7 Y 109 X -56 Y 110 X 46 Y 109 X -46 Y 219 X 60 Y 109 X s 0.999 0.999 0.999 c black 0.999
 0.999 0.999 c 319 584 m 318 Y 110 X -40 Y 109 X -34 Y 109 X -41 Y 110 X -29 Y 109 X -32 Y 110 X -28 Y 109 X -46 Y 110 X -39 Y 109 X -4 Y 109 X -25 Y 766 X f black 0.999 0.999 0.999 c black 319 902 m 110 X -40 Y 109 X -34 Y 109 X -41 Y 110 X -29 Y
 109 X -32 Y 110 X -28 Y 109 X -46 Y 110 X -39 Y 109 X -4 Y 109 X -25 Y 766 X s 1 1 1 c black 319 902 m 110 X -40 Y 109 X -34 Y 109 X -41 Y 110 X -29 Y 109 X -32 Y 110 X -28 Y 109 X -46 Y 110 X -39 Y 109 X -4 Y 109 X -25 Y 766 X s 0 0 0.4 c black 0 0
 0.4 c 319 584 m 318 Y 110 X -40 Y 109 X -34 Y 109 X -41 Y 110 X -29 Y 109 X -32 Y 110 X -28 Y 109 X -46 Y 110 X -39 Y 109 X -4 Y 109 X -25 Y 766 X f black 0 0 0.4 c black 319 902 m 110 X -40 Y 109 X -34 Y 109 X -41 Y 110 X -29 Y 109 X -32 Y 110 X
 -28 Y 109 X -46 Y 110 X -39 Y 109 X -4 Y 109 X -25 Y 766 X s 1 0 0 c 6 lw 1 1 1 c black 1 0 0 c 319 1120 m 110 X -30 Y 109 X -33 Y 109 X -32 Y 110 X -38 Y 109 X -42 Y 110 X -23 Y 109 X -36 Y 110 X -28 Y 109 X -33 Y 109 X -40 Y 110 X -12 Y 109 X -8 Y
 110 X -55 Y 109 X -17 Y 110 X -2 Y 109 X 21 Y 109 X s black 3 lw 1 0 0 c 1 lw << /PatternType 1 /PaintType 2 /TilingType 1 /BBox [ 0 0 100 100 ] /XStep 100 /YStep 100 /PaintProc { begin gsave 0 100 m 100 0 l s gr end } >> [ 0.24 0 0 0.24 0 0 ]
 makepattern /P05 exch def /cs {[/Pattern /DeviceRGB] setcolorspace} def /FA {f [/DeviceRGB] setcolorspace} def cs 1 0 0 P05 setcolor 319 584 m 540 Y 110 X -30 Y 109 X -33 Y 109 X -33 Y 110 X -37 Y 109 X -39 Y 110 X -24 Y 109 X -36 Y 110 X -24 Y 109
 X -36 Y 109 X -39 Y 110 X -9 Y 109 X -4 Y 110 X -56 Y 109 X -13 Y 110 X -4 Y 109 X 21 Y 109 X -144 Y 105 Y -109 X -21 Y -219 X 23 Y -109 X 53 Y -110 X 14 Y -109 X 16 Y -110 X 42 Y -109 X 29 Y -109 X 34 Y -110 X 36 Y -109 X 22 Y -110 X 45 Y -109 X 38
 Y -110 X 33 Y -109 X 34 Y -109 X 30 Y -110 X -533 Y FA 6 lw 1 1 1 c 15 lw 1140 841 m -2 Y s 1140 839 m cl s 1249 840 m 3 Y s 1249 843 m cl s 1249 799 m -13 Y s 1249 786 m cl s 1359 841 m -2 Y s 1359 839 m cl s 1468 785 m 15 Y s 1468 800 m cl s 1468
 744 m -42 Y s 1468 702 m cl s 1687 743 m 29 Y s 1687 772 m cl s 1687 702 m -84 Y s 1687 618 m cl s 1796 785 m 15 Y s 1796 800 m cl s 1796 744 m -42 Y s 1796 702 m cl s 1906 743 m 29 Y s 1906 772 m cl s 1906 702 m -84 Y s 1906 618 m cl s black 1 1 1
 c 3 lw /w 43 def /w2 {w 2 div} def /w3 {w 3 div} def 374 1106 483 1083 593 1048 702 1018 812 966 921 946 1030 916 1140 861 1249 819 1359 861 1468 764 11 { m20} R 15 lw 3 lw 1687 723 1796 764 1906 723 3 { m20} R 15 lw black 6 lw 1 1 1 c black 3 lw /w
 33 def /w2 {w 2 div} def /w3 {w 3 div} def 374 1106 m20 6 lw 3 lw 483 1083 m20 6 lw 3 lw 593 1048 m20 6 lw 3 lw 702 1018 m20 6 lw 3 lw 812 966 m20 6 lw 3 lw 921 946 m20 6 lw 3 lw 1030 916 m20 6 lw 1140 838 m 9 Y s 1140 875 m 2 Y s 3 lw 1140 861 m20
 6 lw 1249 784 m 22 Y s 1249 833 m 9 Y s 3 lw 1249 819 m20 6 lw 1359 838 m 9 Y s 1359 875 m 2 Y s 3 lw 1359 861 m20 6 lw 1468 691 m 60 Y s 1468 778 m 18 Y s 3 lw 1468 764 m20 6 lw 1687 584 m 125 Y s 1687 736 m 28 Y s 3 lw 1687 723 m20 6 lw 1796 691 m
 60 Y s 1796 778 m 18 Y s 3 lw 1796 764 m20 6 lw 1906 584 m 125 Y s 1906 736 m 28 Y s 3 lw 1906 723 m20 6 lw 1140 875 m 3 Y s 1140 878 m cl s 1140 847 m -8 Y s 1140 839 m cl s 1249 833 m 10 Y s 1249 843 m cl s 1249 806 m -20 Y s 1249 786 m cl s 1359
 875 m 3 Y s 1359 878 m cl s 1359 847 m -8 Y s 1359 839 m cl s 1468 778 m 22 Y s 1468 800 m cl s 1468 751 m -49 Y s 1468 702 m cl s 1687 736 m 36 Y s 1687 772 m cl s 1687 709 m -91 Y s 1687 618 m cl s 1796 778 m 22 Y s 1796 800 m cl s 1796 751 m -49
 Y s 1796 702 m cl s 1906 736 m 36 Y s 1906 772 m cl s 1906 709 m -91 Y s 1906 618 m cl s 3 lw 374 1106 483 1083 593 1048 702 1018 812 966 921 946 1030 916 1140 861 1249 819 1359 861 1468 764 11 { m20} R 6 lw 3 lw 1687 723 1796 764 1906 723 3 { m20}
 R 6 lw 3 lw 319 584 m 1860 X s 538 584 m cl s 593 584 m cl s 647 584 m cl s 702 584 m cl s 757 584 m cl s 812 584 m cl s 866 584 m cl s 921 584 m cl s 976 584 m cl s 1030 584 m cl s 1085 584 m cl s 1140 584 m cl s 1195 584 m cl s 1249 584 m cl s
 1304 584 m cl s 1359 584 m cl s 1413 584 m cl s 1468 584 m cl s 1523 584 m cl s 1578 584 m cl s 1632 584 m cl s 1687 584 m cl s 1742 584 m cl s 1796 584 m cl s 1851 584 m cl s 1906 584 m cl s 1961 584 m cl s 2015 584 m cl s 2070 584 m cl s 2125 584
 m cl s 2179 584 m cl s 538 584 m cl s 483 584 m cl s 429 584 m cl s 374 584 m cl s 319 584 m cl s 319 1729 m 1860 X s 538 1729 m cl s 593 1729 m cl s 647 1729 m cl s 702 1729 m cl s 757 1729 m cl s 812 1729 m cl s 866 1729 m cl s 921 1729 m cl s 976
 1729 m cl s 1030 1729 m cl s 1085 1729 m cl s 1140 1729 m cl s 1195 1729 m cl s 1249 1729 m cl s 1304 1729 m cl s 1359 1729 m cl s 1413 1729 m cl s 1468 1729 m cl s 1523 1729 m cl s 1578 1729 m cl s 1632 1729 m cl s 1687 1729 m cl s 1742 1729 m cl s
 1796 1729 m cl s 1851 1729 m cl s 1906 1729 m cl s 1961 1729 m cl s 2015 1729 m cl s 2070 1729 m cl s 2125 1729 m cl s 2179 1729 m cl s 538 1729 m cl s 483 1729 m cl s 429 1729 m cl s 374 1729 m cl s 319 1729 m cl s 319 584 m 1145 Y s 341 626 m -22
 X s 341 650 m -22 X s 341 668 m -22 X s 341 681 m -22 X s 341 692 m -22 X s 341 701 m -22 X s 341 709 m -22 X s 341 716 m -22 X s 363 723 m -44 X s 341 764 m -22 X s 341 789 m -22 X s 341 806 m -22 X s 341 819 m -22 X s 341 830 m -22 X s 341 840 m
 -22 X s 341 848 m -22 X s 341 855 m -22 X s 363 861 m -44 X s 341 903 m -22 X s 341 927 m -22 X s 341 944 m -22 X s 341 958 m -22 X s 341 969 m -22 X s 341 978 m -22 X s 341 986 m -22 X s 341 993 m -22 X s 363 999 m -44 X s 341 1041 m -22 X s 341
 1065 m -22 X s 341 1083 m -22 X s 341 1096 m -22 X s 341 1107 m -22 X s 341 1116 m -22 X s 341 1124 m -22 X s 341 1131 m -22 X s 363 1138 m -44 X s 341 1179 m -22 X s 341 1204 m -22 X s 341 1221 m -22 X s 341 1234 m -22 X s 341 1245 m -22 X s 341
 1255 m -22 X s 341 1263 m -22 X s 341 1270 m -22 X s 363 1276 m -44 X s 341 1318 m -22 X s 341 1342 m -22 X s 341 1359 m -22 X s 341 1373 m -22 X s 341 1384 m -22 X s 341 1393 m -22 X s 341 1401 m -22 X s 341 1408 m -22 X s 363 1414 m -44 X s 341
 1456 m -22 X s 341 1480 m -22 X s 341 1498 m -22 X s 341 1511 m -22 X s 341 1522 m -22 X s 341 1531 m -22 X s 341 1539 m -22 X s 341 1546 m -22 X s 363 1553 m -44 X s 341 1594 m -22 X s 341 1619 m -22 X s 341 1636 m -22 X s 341 1649 m -22 X s 341
 1660 m -22 X s 341 1670 m -22 X s 341 1678 m -22 X s 341 1685 m -22 X s 363 1691 m -44 X s 2179 584 m 1145 Y s 2157 626 m 22 X s 2157 650 m 22 X s 2157 668 m 22 X s 2157 681 m 22 X s 2157 692 m 22 X s 2157 701 m 22 X s 2157 709 m 22 X s 2157 716 m
 22 X s 2136 723 m 43 X s 2157 764 m 22 X s 2157 789 m 22 X s 2157 806 m 22 X s 2157 819 m 22 X s 2157 830 m 22 X s 2157 840 m 22 X s 2157 848 m 22 X s 2157 855 m 22 X s 2136 861 m 43 X s 2157 903 m 22 X s 2157 927 m 22 X s 2157 944 m 22 X s 2157 958
 m 22 X s 2157 969 m 22 X s 2157 978 m 22 X s 2157 986 m 22 X s 2157 993 m 22 X s 2136 999 m 43 X s 2157 1041 m 22 X s 2157 1065 m 22 X s 2157 1083 m 22 X s 2157 1096 m 22 X s 2157 1107 m 22 X s 2157 1116 m 22 X s 2157 1124 m 22 X s 2157 1131 m 22 X
 s 2136 1138 m 43 X s 2157 1179 m 22 X s 2157 1204 m 22 X s 2157 1221 m 22 X s 2157 1234 m 22 X s 2157 1245 m 22 X s 2157 1255 m 22 X s 2157 1263 m 22 X s 2157 1270 m 22 X s 2136 1276 m 43 X s 2157 1318 m 22 X s 2157 1342 m 22 X s 2157 1359 m 22 X s
 2157 1373 m 22 X s 2157 1384 m 22 X s 2157 1393 m 22 X s 2157 1401 m 22 X s 2157 1408 m 22 X s 2136 1414 m 43 X s 2157 1456 m 22 X s 2157 1480 m 22 X s 2157 1498 m 22 X s 2157 1511 m 22 X s 2157 1522 m 22 X s 2157 1531 m 22 X s 2157 1539 m 22 X s
 2157 1546 m 22 X s 2136 1553 m 43 X s 2157 1594 m 22 X s 2157 1619 m 22 X s 2157 1636 m 22 X s 2157 1649 m 22 X s 2157 1660 m 22 X s 2157 1670 m 22 X s 2157 1678 m 22 X s 2157 1685 m 22 X s 2136 1691 m 43 X s
 gsave  2263 1770 2 313 C 406.765 1447.41 t 0 r /Helvetica findfont 64.4212 sf 0 0 m (VR0LdPhi for MB\255C) show NC gr 
 gsave  2263 1770 2 313 C 1464.36 1630.45 t 0 r /Helvetica findfont 64.4212 sf 0 0 m (SM Total) show NC gr  1 1 1 c 1338 1616 m 107 X 64 Y -107 X f 1 0 0 c 6 lw 1338 1648 m 107 X s black
 gsave  2263 1770 2 313 C 1464.36 1538.93 t 0 r /Helvetica findfont 64.4212 sf 0 0 m (Data) show NC gr  1391 1529 m 55 Y s 3 lw 1391 1557 m20 6 lw
 gsave  2263 1770 2 313 C 1464.36 1447.41 t 0 r /Helvetica findfont 64.4212 sf 0 0 m (W+jets) show NC gr  0.4 0.6 1 c 3 lw 1338 1434 m 107 X 64 Y -107 X f 6 lw black 3 lw 1338 1498 m 107 X s 1338 1434 m 107 X s 1445 1434 m 64 Y s 1338 1434 m 64 Y s
 gsave  2263 1770 2 313 C 1498.25 1355.88 t 0 r /Helvetica findfont 64.4212 sf 0 0 m (\(+EW\) & single top) show NC gr 
 gsave  2263 1770 2 313 C 1481.3 1355.88 t 0 r /Helvetica findfont 64.4212 sf 0 0 m (t) show NC gr  1481 1407 m 17 X s
 gsave  2263 1770 2 313 C 1464.36 1355.88 t 0 r /Helvetica findfont 64.4212 sf 0 0 m (t) show NC gr  0.6 1 0.6 c 1338 1343 m 107 X 63 Y -107 X f black 1338 1406 m 107 X s 1338 1343 m 107 X s 1445 1343 m 63 Y s 1338 1343 m 63 Y s
 gsave  2263 1770 2 313 C 1464.36 1264.36 t 0 r /Helvetica findfont 64.4212 sf 0 0 m (Z+jets) show NC gr  1 0.8 0.4 c 1338 1252 m 107 X 63 Y -107 X f black 1338 1315 m 107 X s 1338 1252 m 107 X s 1445 1252 m 63 Y s 1338 1252 m 63 Y s
 gsave  2263 1770 2 313 C 1464.36 1172.84 t 0 r /Helvetica findfont 64.4212 sf 0 0 m (Diboson) show NC gr  1 0.4 0.6 c 1338 1161 m 107 X 63 Y -107 X f black 1338 1224 m 107 X s 1338 1161 m 107 X s 1445 1161 m 63 Y s 1338 1161 m 63 Y s
 gsave  2263 1770 2 313 C 1464.36 1081.32 t 0 r /Helvetica findfont 64.4212 sf 0 0 m (Multi\255jet) show NC gr  0 0 0.4 c 1338 1070 m 107 X 63 Y -107 X f black 1338 1133 m 107 X s 1338 1070 m 107 X s 1445 1070 m 63 Y s 1338 1070 m 63 Y s
 gsave  2263 1770 2 313 C 911.832 1566.05 t 0 r /Helvetica findfont 44.0776 sf 0 0 m (\2551) show NC gr 
 gsave  2263 1770 2 313 C 471.17 1535.54 t 0 r /Helvetica findfont 64.4212 sf 0 0 m (=13TeV, 139 fb) show NC gr 
 gsave  2263 1770 2 313 C 440.662 1535.54 t 0 r /Helvetica findfont 64.4212 sf 0 0 m (s) show NC gr  6 lw 420 1573 m 7 -41 d s 3 lw 427 1532 m 7 61 d s 434 1593 m 37 X s 1 1 1 c 2254 561 2 2 bf black 1 1 1 c black 1860 358 318 187 bl 1 1 1 c black
 1860 358 318 187 bl 6 lw 1 1 1 c black 3 lw 373 331 m20 6 lw 3 lw 482 347 m20 6 lw 3 lw 591 343 m20 6 lw 3 lw 701 350 m20 6 lw 3 lw 810 318 m20 6 lw 3 lw 920 368 m20 6 lw 3 lw 1029 351 m20 6 lw 3 lw 1139 311 m20 6 lw 3 lw 1248 289 m20 6 lw 3 lw 1358
 501 m20 6 lw 3 lw 1467 319 m20 6 lw 3 lw 1686 284 m20 6 lw 3 lw 1905 469 m20 6 lw 3 lw 318 187 m 1860 X s
 gsave  2254 561 2 2 C 1959.25 33.8971 t 0 r /Helvetica findfont 78.1689 sf 0 0 m ( [GeV]) show NC gr 
 gsave  2254 561 2 2 C 1901.63 13.5588 t 0 r /Helvetica findfont 50.9797 sf 0 0 m (eff) show NC gr 
 gsave  2254 561 2 2 C 1840.61 33.8971 t 0 r /Helvetica findfont 78.1689 sf 0 0 m (m) show NC gr  537 201 m -14 Y s 591 194 m -7 Y s 646 194 m -7 Y s 701 194 m -7 Y s 756 194 m -7 Y s 810 201 m -14 Y s 865 194 m -7 Y s 920 194 m -7 Y s 975 194 m -7 Y
 s 1029 194 m -7 Y s 1084 201 m -14 Y s 1139 194 m -7 Y s 1193 194 m -7 Y s 1248 194 m -7 Y s 1303 194 m -7 Y s 1358 201 m -14 Y s 1412 194 m -7 Y s 1467 194 m -7 Y s 1522 194 m -7 Y s 1576 194 m -7 Y s 1631 201 m -14 Y s 1686 194 m -7 Y s 1741 194 m
 -7 Y s 1795 194 m -7 Y s 1850 194 m -7 Y s 1905 201 m -14 Y s 1959 194 m -7 Y s 2014 194 m -7 Y s 2069 194 m -7 Y s 2124 194 m -7 Y s 2178 201 m -14 Y s 537 201 m -14 Y s 482 194 m -7 Y s 427 194 m -7 Y s 373 194 m -7 Y s 318 194 m -7 Y s
 gsave  2254 561 2 2 C 447.442 118.64 t 0 r /Helvetica findfont 78.1689 sf 0 0 m (2000) show NC gr 
 gsave  2254 561 2 2 C 722.008 118.64 t 0 r /Helvetica findfont 78.1689 sf 0 0 m (2500) show NC gr 
 gsave  2254 561 2 2 C 993.185 118.64 t 0 r /Helvetica findfont 78.1689 sf 0 0 m (3000) show NC gr 
 gsave  2254 561 2 2 C 1267.75 118.64 t 0 r /Helvetica findfont 78.1689 sf 0 0 m (3500) show NC gr 
 gsave  2254 561 2 2 C 1542.32 118.64 t 0 r /Helvetica findfont 78.1689 sf 0 0 m (4000) show NC gr 
 gsave  2254 561 2 2 C 1813.5 118.64 t 0 r /Helvetica findfont 78.1689 sf 0 0 m (4500) show NC gr 
 gsave  2254 561 2 2 C 2088.06 118.64 t 0 r /Helvetica findfont 78.1689 sf 0 0 m (5000) show NC gr  318 545 m 1860 X s 537 531 m 14 Y s 591 538 m 7 Y s 646 538 m 7 Y s 701 538 m 7 Y s 756 538 m 7 Y s 810 531 m 14 Y s 865 538 m 7 Y s 920 538 m 7 Y s
 975 538 m 7 Y s 1029 538 m 7 Y s 1084 531 m 14 Y s 1139 538 m 7 Y s 1193 538 m 7 Y s 1248 538 m 7 Y s 1303 538 m 7 Y s 1358 531 m 14 Y s 1412 538 m 7 Y s 1467 538 m 7 Y s 1522 538 m 7 Y s 1576 538 m 7 Y s 1631 531 m 14 Y s 1686 538 m 7 Y s 1741 538
 m 7 Y s 1795 538 m 7 Y s 1850 538 m 7 Y s 1905 531 m 14 Y s 1959 538 m 7 Y s 2014 538 m 7 Y s 2069 538 m 7 Y s 2124 538 m 7 Y s 2178 531 m 14 Y s 537 531 m 14 Y s 482 538 m 7 Y s 427 538 m 7 Y s 373 538 m 7 Y s 318 538 m 7 Y s 318 187 m 358 Y s
 gsave  2254 561 2 2 C 166.096 284.736 t 90 r /Helvetica findfont 67.9729 sf 0 0 m (Data/SM) show NC gr  361 203 m -43 X s 339 220 m -21 X s 339 236 m -21 X s 339 252 m -21 X s 339 268 m -21 X s 361 285 m -43 X s 339 301 m -21 X s 339 317 m -21 X s
 339 334 m -21 X s 339 350 m -21 X s 361 366 m -43 X s 339 382 m -21 X s 339 399 m -21 X s 339 415 m -21 X s 339 431 m -21 X s 361 447 m -43 X s 339 464 m -21 X s 339 480 m -21 X s 339 496 m -21 X s 339 512 m -21 X s 361 529 m -43 X s 361 203 m -43 X
 s 339 187 m -21 X s 361 529 m -43 X s
 gsave  2254 561 2 2 C 261.008 183.044 t 0 r /Helvetica findfont 57.777 sf 0 0 m (0) show NC gr 
 gsave  2254 561 2 2 C 213.552 261.008 t 0 r /Helvetica findfont 57.777 sf 0 0 m (0.5) show NC gr 
 gsave  2254 561 2 2 C 271.177 342.361 t 0 r /Helvetica findfont 57.777 sf 0 0 m (1) show NC gr 
 gsave  2254 561 2 2 C 213.552 423.714 t 0 r /Helvetica findfont 57.777 sf 0 0 m (1.5) show NC gr 
 gsave  2254 561 2 2 C 261.008 505.067 t 0 r /Helvetica findfont 57.777 sf 0 0 m (2) show NC gr  2178 187 m 358 Y s 2135 203 m 43 X s 2157 220 m 21 X s 2157 236 m 21 X s 2157 252 m 21 X s 2157 268 m 21 X s 2135 285 m 43 X s 2157 301 m 21 X s 2157 317
 m 21 X s 2157 334 m 21 X s 2157 350 m 21 X s 2135 366 m 43 X s 2157 382 m 21 X s 2157 399 m 21 X s 2157 415 m 21 X s 2157 431 m 21 X s 2135 447 m 43 X s 2157 464 m 21 X s 2157 480 m 21 X s 2157 496 m 21 X s 2157 512 m 21 X s 2135 529 m 43 X s 2135
 203 m 43 X s 2157 187 m 21 X s 2135 529 m 43 X s 9 lw 810 331 m 2 Y s 810 333 m cl s 810 304 m -1 Y s 810 303 m cl s 920 381 m 13 Y s 920 394 m cl s 920 354 m -12 Y s 920 342 m cl s 1029 365 m 16 Y s 1029 381 m cl s 1029 338 m -16 Y s 1029 322 m cl
 s 1139 325 m 21 Y s 1139 346 m cl s 1139 297 m -19 Y s 1139 278 m cl s 1248 302 m 27 Y s 1248 329 m cl s 1248 275 m -23 Y s 1248 252 m cl s 1358 515 m 30 Y s 1358 545 m cl s 1358 488 m -79 Y s 1358 409 m cl s 1467 333 m 81 Y s 1467 414 m cl s 1467
 306 m -61 Y s 1467 245 m cl s 1686 298 m 91 Y s 1686 389 m cl s 1686 271 m -53 Y s 1686 218 m cl s 1795 545 m -198 Y s 1795 347 m cl s 1905 482 m 63 Y s 1905 545 m cl s 1905 455 m -205 Y s 1905 250 m cl s 3 lw 373 331 482 347 591 343 701 350 810 318
 920 368 1029 351 1139 311 1248 289 1358 501 1467 319 11 { m20} R 9 lw 3 lw 1686 284 m20 9 lw 3 lw 1905 469 m20 9 lw 1 0 0 c 6 lw black 3 lw 1 0 0 c 2178 227 m s 2178 255 m s 2178 284 m s 2178 312 m s 2178 341 m -25 -25 d s 2178 369 m -54 -53 d s
 2178 398 m -82 -82 d s 2168 416 m -102 -102 d s 2139 416 m -102 -102 d s 2111 416 m -103 -102 d s 2082 416 m -102 -102 d s 2055 418 m -108 -108 d s 2026 418 m -108 -108 d s 1997 418 m -108 -108 d s 1969 418 m -108 -108 d s 1944 422 m -99 -99 d s
 1915 422 m -99 -99 d s 1887 422 m -100 -99 d s 1858 422 m -8 -8 d s 1845 409 m -86 -86 d s 1816 409 m -90 -90 d s 1788 409 m -90 -90 d s 1759 409 m -90 -90 d s 1734 413 m -94 -94 d s 1705 413 m -82 -82 d s 1677 413 m -82 -82 d s 1648 413 m -82 -82 d
 s 1607 401 m -70 -70 d s 1579 401 m -61 -61 d s 1550 401 m -61 -61 d s 1512 392 m -51 -52 d s 1483 392 m -51 -52 d s 1455 392 m -48 -47 d s 1426 392 m -47 -47 d s 1393 387 m -43 -42 d s 1364 387 m -43 -42 d s 1336 387 m -53 -52 d s 1307 387 m -52
 -52 d s 1288 397 m -62 -62 d s 1259 397 m -62 -62 d s 1230 397 m -48 -48 d s 1202 397 m -9 -8 d s 1188 383 m -34 -34 d s 1159 383 m -34 -34 d s 1131 383 m -35 -34 d s 1102 383 m -34 -34 d s 1073 383 m -34 -34 d s 1044 383 m -34 -34 d s 1016 383 m
 -34 -34 d s 987 383 m -38 -38 d s 963 387 m -43 -42 d s 934 387 m -43 -42 d s 905 387 m -40 -40 d s 876 387 m -32 -32 d s 838 377 m -23 -22 d s 809 377 m -22 -22 d s 780 377 m -22 -22 d s 751 377 m -22 -22 d s 723 377 m -22 -22 d s 694 377 m -22 -22
 d s 665 377 m -21 -21 d s 636 376 m -20 -20 d s 607 376 m -20 -20 d s 578 376 m -20 -20 d s 550 376 m -20 -19 d s 520 375 m -19 -18 d s 492 375 m -19 -18 d s 463 375 m -19 -18 d s 318 231 m s 434 375 m -19 -18 d s 318 259 m s 406 375 m -19 -18 d s
 318 288 m s 377 375 m -19 -18 d s 318 317 m s 348 375 m -19 -18 d s 318 345 m s 319 375 m -1 -1 d s 6 lw black[ 4 8] 0 sd 3 lw 318 447 m 1860 X s 318 285 m 1860 X s 1 0 0 c[  12 12 ] 0 sd 6 lw 318 366 m 1860 X s
 gr  gr showpage
end
%%EOF
