%!PS-Adobe-2.0 EPSF-2.0
%%BoundingBox:  0 0 567 521
%%Title: Distributions/meffInc_distrVR0LdPhi_MB-GGd_beforeFit_forThesis.eps: canvas
%%Creator: ROOT Version 6.04/16
%%CreationDate: Tue May 19 22:04:48 2020
%%DocumentNeededResources: ProcSet (FontSetInit)
%%EndComments
%%BeginProlog
80 dict begin
/s {stroke} def /l {lineto} def /m {moveto} def /t {translate} def
/r {rotate} def /rl {roll}  def /R {repeat} def
/d {rlineto} def /rm {rmoveto} def /gr {grestore} def /f {eofill} def
/c {setrgbcolor} def /black {0 setgray} def /sd {setdash} def
/cl {closepath} def /sf {scalefont setfont} def /lw {setlinewidth} def
/box {m dup 0 exch d exch 0 d 0 exch neg d cl} def
/NC{systemdict begin initclip end}def/C{NC box clip newpath}def
/bl {box s} def /bf {gsave box gsave f grestore 1 lw [] 0 sd s grestore} def /Y { 0 exch d} def /X { 0 d} def 
/K {{pop pop 0 moveto} exch kshow} bind def
/ita {/ang 15 def gsave [1 0 ang dup sin exch cos div 1 0 0] concat} def 
/mp {newpath /y exch def /x exch def} def
/side {[w .77 mul w .23 mul] .385 w mul sd w 0 l currentpoint t -144 r} def
/mr {mp x y w2 0 360 arc} def /m24 {mr s} def /m20 {mr f} def
/mb {mp x y w2 add m w2 neg 0 d 0 w neg d w 0 d 0 w d cl} def
/mt {mp x y w2 add m w2 neg w neg d w 0 d cl} def
/m21 {mb f} def /m25 {mb s} def /m22 {mt f} def /m26{mt s} def
/m23 {mp x y w2 sub m w2 w d w neg 0 d cl f} def
/m27 {mp x y w2 add m w3 neg w2 neg d w3 w2 neg d w3 w2 d cl s} def
/m28 {mp x w2 sub y w2 sub w3 add m w3 0 d  0 w3 neg d w3 0 d 0 w3 d w3 0 d  0 w3 d w3 neg 0 d 0 w3 d w3 neg 0 d 0 w3 neg d w3 neg 0 d cl s } def
/m29 {mp gsave x w2 sub y w2 add w3 sub m currentpoint t 4 {side} repeat cl fill gr} def
/m30 {mp gsave x w2 sub y w2 add w3 sub m currentpoint t 4 {side} repeat cl s gr} def
/m31 {mp x y w2 sub m 0 w d x w2 sub y m w 0 d x w2 sub y w2 add m w w neg d x w2 sub y w2 sub m w w d s} def
/m32 {mp x y w2 sub m w2 w d w neg 0 d cl s} def
/m33 {mp x y w2 add m w3 neg w2 neg d w3 w2 neg d w3 w2 d cl f} def
/m34 {mp x w2 sub y w2 sub w3 add m w3 0 d  0 w3 neg d w3 0 d 0 w3 d w3 0 d  0 w3 d w3 neg 0 d 0 w3 d w3 neg 0 d 0 w3 neg d w3 neg 0 d cl f } def
/m2 {mp x y w2 sub m 0 w d x w2 sub y m w 0 d s} def
/m5 {mp x w2 sub y w2 sub m w w d x w2 sub y w2 add m w w neg d s} def
%%IncludeResource: ProcSet (FontSetInit)
%%IncludeResource: font Times-Roman
%%IncludeResource: font Times-Italic
%%IncludeResource: font Times-Bold
%%IncludeResource: font Times-BoldItalic
%%IncludeResource: font Helvetica
%%IncludeResource: font Helvetica-Oblique
%%IncludeResource: font Helvetica-Bold
%%IncludeResource: font Helvetica-BoldOblique
%%IncludeResource: font Courier
%%IncludeResource: font Courier-Oblique
%%IncludeResource: font Courier-Bold
%%IncludeResource: font Courier-BoldOblique
%%IncludeResource: font Symbol
%%IncludeResource: font ZapfDingbats
/reEncode {exch findfont dup length dict begin {1 index /FID eq  {pop pop} {def} ifelse } forall /Encoding exch def currentdict end dup /FontName get exch definefont pop } def [/Times-Bold /Times-Italic /Times-BoldItalic /Helvetica /Helvetica-Oblique
 /Helvetica-Bold /Helvetica-BoldOblique /Courier /Courier-Oblique /Courier-Bold /Courier-BoldOblique /Times-Roman /AvantGarde-Book /AvantGarde-BookOblique /AvantGarde-Demi /AvantGarde-DemiOblique /Bookman-Demi /Bookman-DemiItalic /Bookman-Light
 /Bookman-LightItalic /Helvetica-Narrow /Helvetica-Narrow-Bold /Helvetica-Narrow-BoldOblique /Helvetica-Narrow-Oblique /NewCenturySchlbk-Roman /NewCenturySchlbk-Bold /NewCenturySchlbk-BoldItalic /NewCenturySchlbk-Italic /Palatino-Bold
 /Palatino-BoldItalic /Palatino-Italic /Palatino-Roman ] {ISOLatin1Encoding reEncode } forall
%%EndProlog
%%BeginSetup
%%EndSetup
newpath  gsave  .25 .25 scale  gsave  0 0 t black[  ] 0 sd 3 lw 1 1 1 c 2268 2085 0 0 bf black 1 1 1 c 2263 1770 2 313 bf black 1 1 1 c black 1860 1145 319 584 bl 1 1 1 c black 1860 1145 319 584 bl 6 lw 1 1 1 c black 3 lw /w 33 def /w2 {w 2 div} def
 /w3 {w 3 div} def 505 1082 m20 6 lw 3 lw 629 1118 m20 6 lw 3 lw 753 1083 m20 6 lw 3 lw 877 1044 m20 6 lw 1001 977 m 5 Y s 1001 1009 m 1 Y s 3 lw 1001 995 m20 6 lw 1125 923 m 12 Y s 1125 962 m 6 Y s 3 lw 1125 949 m20 6 lw 1249 856 m 27 Y s 1249 910 m
 12 Y s 3 lw 1249 896 m20 6 lw 1373 812 m 40 Y s 1373 879 m 17 Y s 3 lw 1373 865 m20 6 lw 1497 778 m 52 Y s 1497 857 m 21 Y s 3 lw 1497 843 m20 6 lw 1621 584 m 162 Y s 1621 773 m 39 Y s 3 lw 1621 760 m20 6 lw 1869 584 m 162 Y s 1869 773 m 39 Y s 3 lw
 1869 760 m20 6 lw 2117 584 m 162 Y s 2117 773 m 39 Y s 3 lw 2117 760 m20 6 lw 3 lw 319 584 m 1860 X s
 gsave  2263 1770 2 313 C 1949.08 369.478 t 0 r /Helvetica findfont 81.3741 sf 0 0 m ( [GeV]) show NC gr 
 gsave  2263 1770 2 313 C 1888.07 342.361 t 0 r /Helvetica findfont 54.2494 sf 0 0 m (eff) show NC gr 
 gsave  2263 1770 2 313 C 1823.66 369.478 t 0 r /Helvetica findfont 81.3741 sf 0 0 m (m) show NC gr  319 584 m cl s 381 584 m cl s 443 584 m cl s 505 584 m cl s 567 584 m cl s 629 584 m cl s 691 584 m cl s 753 584 m cl s 815 584 m cl s 877 584 m cl s
 939 584 m cl s 1001 584 m cl s 1063 584 m cl s 1125 584 m cl s 1187 584 m cl s 1249 584 m cl s 1311 584 m cl s 1373 584 m cl s 1435 584 m cl s 1497 584 m cl s 1559 584 m cl s 1621 584 m cl s 1683 584 m cl s 1745 584 m cl s 1807 584 m cl s 1869 584 m
 cl s 1931 584 m cl s 1993 584 m cl s 2055 584 m cl s 2117 584 m cl s 2179 584 m cl s 319 1729 m 1860 X s 319 1729 m cl s 381 1729 m cl s 443 1729 m cl s 505 1729 m cl s 567 1729 m cl s 629 1729 m cl s 691 1729 m cl s 753 1729 m cl s 815 1729 m cl s
 877 1729 m cl s 939 1729 m cl s 1001 1729 m cl s 1063 1729 m cl s 1125 1729 m cl s 1187 1729 m cl s 1249 1729 m cl s 1311 1729 m cl s 1373 1729 m cl s 1435 1729 m cl s 1497 1729 m cl s 1559 1729 m cl s 1621 1729 m cl s 1683 1729 m cl s 1745 1729 m
 cl s 1807 1729 m cl s 1869 1729 m cl s 1931 1729 m cl s 1993 1729 m cl s 2055 1729 m cl s 2117 1729 m cl s 2179 1729 m cl s 319 584 m 1145 Y s
 gsave  2263 1770 2 313 C 166.096 1091.49 t 90 r /Helvetica findfont 81.3741 sf 0 0 m (Events / 200 GeV) show NC gr  341 637 m -22 X s 341 668 m -22 X s 341 690 m -22 X s 341 707 m -22 X s 341 721 m -22 X s 341 733 m -22 X s 341 743 m -22 X s 341 752
 m -22 X s 363 760 m -44 X s
 gsave  2263 1770 2 313 C 300.555 732.549 t 0 r  -36 0 t /Helvetica findfont 64.4212 sf 0 0 m (1) show NC gr  341 812 m -22 X s 341 843 m -22 X s 341 865 m -22 X s 341 882 m -22 X s 341 896 m -22 X s 341 908 m -22 X s 341 918 m -22 X s 341 927 m -22
 X s 363 935 m -44 X s
 gsave  2263 1770 2 313 C 300.555 907.906 t 0 r  -73 0 t /Helvetica findfont 64.4212 sf 0 0 m (10) show NC gr  341 988 m -22 X s 341 1019 m -22 X s 341 1041 m -22 X s 341 1058 m -22 X s 341 1071 m -22 X s 341 1083 m -22 X s 341 1093 m -22 X s 341
 1102 m -22 X s 363 1110 m -44 X s
 gsave  2263 1770 2 313 C 274.567 1108.44 t 0 r /Helvetica findfont 44.0776 sf 0 0 m (2) show NC gr 
 gsave  2263 1770 2 313 C 203.383 1081.32 t 0 r /Helvetica findfont 64.4212 sf 0 0 m (10) show NC gr  341 1163 m -22 X s 341 1194 m -22 X s 341 1216 m -22 X s 341 1233 m -22 X s 341 1247 m -22 X s 341 1259 m -22 X s 341 1269 m -22 X s 341 1278 m -22
 X s 363 1286 m -44 X s
 gsave  2263 1770 2 313 C 274.567 1288.09 t 0 r /Helvetica findfont 44.0776 sf 0 0 m (3) show NC gr 
 gsave  2263 1770 2 313 C 203.383 1257.58 t 0 r /Helvetica findfont 64.4212 sf 0 0 m (10) show NC gr  341 1339 m -22 X s 341 1369 m -22 X s 341 1391 m -22 X s 341 1408 m -22 X s 341 1422 m -22 X s 341 1434 m -22 X s 341 1444 m -22 X s 341 1453 m -22
 X s 363 1461 m -44 X s
 gsave  2263 1770 2 313 C 274.567 1460.97 t 0 r /Helvetica findfont 44.0776 sf 0 0 m (4) show NC gr 
 gsave  2263 1770 2 313 C 203.383 1433.85 t 0 r /Helvetica findfont 64.4212 sf 0 0 m (10) show NC gr  341 1514 m -22 X s 341 1545 m -22 X s 341 1567 m -22 X s 341 1584 m -22 X s 341 1598 m -22 X s 341 1609 m -22 X s 341 1619 m -22 X s 341 1628 m -22
 X s 363 1636 m -44 X s
 gsave  2263 1770 2 313 C 274.567 1637.23 t 0 r /Helvetica findfont 44.0776 sf 0 0 m (5) show NC gr 
 gsave  2263 1770 2 313 C 203.383 1606.72 t 0 r /Helvetica findfont 64.4212 sf 0 0 m (10) show NC gr  341 1689 m -22 X s 341 1720 m -22 X s 2179 584 m 1145 Y s 2157 637 m 22 X s 2157 668 m 22 X s 2157 690 m 22 X s 2157 707 m 22 X s 2157 721 m 22 X s
 2157 733 m 22 X s 2157 743 m 22 X s 2157 752 m 22 X s 2136 760 m 43 X s 2157 812 m 22 X s 2157 843 m 22 X s 2157 865 m 22 X s 2157 882 m 22 X s 2157 896 m 22 X s 2157 908 m 22 X s 2157 918 m 22 X s 2157 927 m 22 X s 2136 935 m 43 X s 2157 988 m 22 X
 s 2157 1019 m 22 X s 2157 1041 m 22 X s 2157 1058 m 22 X s 2157 1071 m 22 X s 2157 1083 m 22 X s 2157 1093 m 22 X s 2157 1102 m 22 X s 2136 1110 m 43 X s 2157 1163 m 22 X s 2157 1194 m 22 X s 2157 1216 m 22 X s 2157 1233 m 22 X s 2157 1247 m 22 X s
 2157 1259 m 22 X s 2157 1269 m 22 X s 2157 1278 m 22 X s 2136 1286 m 43 X s 2157 1339 m 22 X s 2157 1369 m 22 X s 2157 1391 m 22 X s 2157 1408 m 22 X s 2157 1422 m 22 X s 2157 1434 m 22 X s 2157 1444 m 22 X s 2157 1453 m 22 X s 2136 1461 m 43 X s
 2157 1514 m 22 X s 2157 1545 m 22 X s 2157 1567 m 22 X s 2157 1584 m 22 X s 2157 1598 m 22 X s 2157 1609 m 22 X s 2157 1619 m 22 X s 2157 1628 m 22 X s 2136 1636 m 43 X s 2157 1689 m 22 X s 2157 1720 m 22 X s 0.4 0.6 1 c black 0.4 0.6 1 c 319 584 m
 124 X 511 Y 124 X 24 Y 124 X -11 Y 124 X -62 Y 124 X -35 Y 124 X -54 Y 124 X -54 Y 124 X -37 Y 124 X -58 Y 124 X -12 Y 124 X -80 Y 124 X -7 Y 124 X -125 Y 124 X 129 Y 124 X -129 Y f black 0.4 0.6 1 c black 319 584 m 124 X 511 Y 124 X 24 Y 124 X -11
 Y 124 X -62 Y 124 X -35 Y 124 X -54 Y 124 X -54 Y 124 X -37 Y 124 X -58 Y 124 X -12 Y 124 X -80 Y 124 X -7 Y 124 X -125 Y 124 X 129 Y 124 X s 0.999 0.999 0.999 c black 0.999 0.999 0.999 c 319 584 m 124 X 490 Y 124 X 22 Y 124 X -8 Y 124 X -66 Y 124 X
 -33 Y 124 X -54 Y 124 X -54 Y 124 X -48 Y 124 X -49 Y 124 X -28 Y 124 X -61 Y 124 X -11 Y 124 X -100 Y 124 X 108 Y 124 X -108 Y f black 0.999 0.999 0.999 c black 319 584 m 124 X 490 Y 124 X 22 Y 124 X -8 Y 124 X -66 Y 124 X -33 Y 124 X -54 Y 124 X
 -54 Y 124 X -48 Y 124 X -49 Y 124 X -28 Y 124 X -61 Y 124 X -11 Y 124 X -100 Y 124 X 108 Y 124 X s 1 1 1 c black 319 584 m 124 X 490 Y 124 X 22 Y 124 X -8 Y 124 X -66 Y 124 X -33 Y 124 X -54 Y 124 X -54 Y 124 X -48 Y 124 X -49 Y 124 X -28 Y 124 X
 -61 Y 124 X -11 Y 124 X -100 Y 124 X 108 Y 124 X s 0.6 1 0.6 c black 0.6 1 0.6 c 319 584 m 124 X 490 Y 124 X 22 Y 124 X -8 Y 124 X -66 Y 124 X -33 Y 124 X -54 Y 124 X -54 Y 124 X -48 Y 124 X -49 Y 124 X -28 Y 124 X -61 Y 124 X -11 Y 124 X -100 Y 124
 X 108 Y 124 X -108 Y f black 0.6 1 0.6 c black 319 584 m 124 X 490 Y 124 X 22 Y 124 X -8 Y 124 X -66 Y 124 X -33 Y 124 X -54 Y 124 X -54 Y 124 X -48 Y 124 X -49 Y 124 X -28 Y 124 X -61 Y 124 X -11 Y 124 X -100 Y 124 X 108 Y 124 X s 0.999 0.999 0.999
 c black 0.999 0.999 0.999 c 319 584 m 124 X 433 Y 124 X 27 Y 124 X 4 Y 124 X -77 Y 124 X -17 Y 124 X -51 Y 124 X -53 Y 124 X -45 Y 124 X -51 Y 124 X -19 Y 124 X -56 Y 124 X -4 Y 124 X -91 Y 124 X 102 Y 124 X -102 Y f black 0.999 0.999 0.999 c black
 319 584 m 124 X 433 Y 124 X 27 Y 124 X 4 Y 124 X -77 Y 124 X -17 Y 124 X -51 Y 124 X -53 Y 124 X -45 Y 124 X -51 Y 124 X -19 Y 124 X -56 Y 124 X -4 Y 124 X -91 Y 124 X 102 Y 124 X s 1 1 1 c black 319 584 m 124 X 433 Y 124 X 27 Y 124 X 4 Y 124 X -77
 Y 124 X -17 Y 124 X -51 Y 124 X -53 Y 124 X -45 Y 124 X -51 Y 124 X -19 Y 124 X -56 Y 124 X -4 Y 124 X -91 Y 124 X 102 Y 124 X s 1 0.8 0.4 c black 1 0.8 0.4 c 319 584 m 124 X 433 Y 124 X 27 Y 124 X 4 Y 124 X -77 Y 124 X -17 Y 124 X -51 Y 124 X -53 Y
 124 X -45 Y 124 X -51 Y 124 X -19 Y 124 X -56 Y 124 X -4 Y 124 X -91 Y 124 X 102 Y 124 X -102 Y f black 1 0.8 0.4 c black 319 584 m 124 X 433 Y 124 X 27 Y 124 X 4 Y 124 X -77 Y 124 X -17 Y 124 X -51 Y 124 X -53 Y 124 X -45 Y 124 X -51 Y 124 X -19 Y
 124 X -56 Y 124 X -4 Y 124 X -91 Y 124 X 102 Y 124 X s 0.999 0.999 0.999 c black 0.999 0.999 0.999 c 319 584 m 124 X 295 Y 124 X 7 Y 124 X 12 Y 124 X -74 Y 124 X -4 Y 124 X -48 Y 124 X -35 Y 124 X -92 Y 124 X -19 Y 124 X -42 Y 496 X 41 Y 124 X -41 Y
 f black 0.999 0.999 0.999 c black 319 584 m 124 X 295 Y 124 X 7 Y 124 X 12 Y 124 X -74 Y 124 X -4 Y 124 X -48 Y 124 X -35 Y 124 X -92 Y 124 X -19 Y 124 X -42 Y 496 X 41 Y 124 X s 1 1 1 c black 319 584 m 124 X 295 Y 124 X 7 Y 124 X 12 Y 124 X -74 Y
 124 X -4 Y 124 X -48 Y 124 X -35 Y 124 X -92 Y 124 X -19 Y 124 X -42 Y 496 X 41 Y 124 X s 1 0.4 0.6 c black 1 0.4 0.6 c 319 584 m 124 X 295 Y 124 X 7 Y 124 X 12 Y 124 X -74 Y 124 X -4 Y 124 X -48 Y 124 X -35 Y 124 X -92 Y 124 X -19 Y 124 X -42 Y 496
 X 41 Y 124 X -41 Y f black 1 0.4 0.6 c black 319 584 m 124 X 295 Y 124 X 7 Y 124 X 12 Y 124 X -74 Y 124 X -4 Y 124 X -48 Y 124 X -35 Y 124 X -92 Y 124 X -19 Y 124 X -42 Y 496 X 41 Y 124 X s 0.999 0.999 0.999 c black 0.999 0.999 0.999 c 319 584 m 124
 X 204 Y 124 X -46 Y 124 X 19 Y 124 X -47 Y 124 X 20 Y 124 X -69 Y 124 X -12 Y 124 X -56 Y 124 X -13 Y 744 X f black 0.999 0.999 0.999 c black 319 584 m 124 X 204 Y 124 X -46 Y 124 X 19 Y 124 X -47 Y 124 X 20 Y 124 X -69 Y 124 X -12 Y 124 X -56 Y 124
 X -13 Y 744 X s 1 1 1 c black 319 584 m 124 X 204 Y 124 X -46 Y 124 X 19 Y 124 X -47 Y 124 X 20 Y 124 X -69 Y 124 X -12 Y 124 X -56 Y 124 X -13 Y 744 X s 0 0 0.4 c black 0 0 0.4 c 319 584 m 124 X 204 Y 124 X -46 Y 124 X 19 Y 124 X -47 Y 124 X 20 Y
 124 X -69 Y 124 X -12 Y 124 X -56 Y 124 X -13 Y 744 X f black 0 0 0.4 c black 319 584 m 124 X 204 Y 124 X -46 Y 124 X 19 Y 124 X -47 Y 124 X 20 Y 124 X -69 Y 124 X -12 Y 124 X -56 Y 124 X -13 Y 744 X s 1 0 0 c 6 lw 1 1 1 c black 1 0 0 c 319 584 m
 124 X 511 Y 124 X 24 Y 124 X -11 Y 124 X -62 Y 124 X -35 Y 124 X -54 Y 124 X -54 Y 124 X -37 Y 124 X -58 Y 124 X -12 Y 124 X -80 Y 124 X -7 Y 124 X -125 Y 124 X 129 Y 124 X s black 3 lw 1 0 0 c 1 lw << /PatternType 1 /PaintType 2 /TilingType 1 /BBox
 [ 0 0 100 100 ] /XStep 100 /YStep 100 /PaintProc { begin gsave 0 100 m 100 0 l s gr end } >> [ 0.24 0 0 0.24 0 0 ] makepattern /P05 exch def /cs {[/Pattern /DeviceRGB] setcolorspace} def /FA {f [/DeviceRGB] setcolorspace} def cs 1 0 0 P05 setcolor
 443 584 m 517 Y 124 X 24 Y 124 X -11 Y 124 X -62 Y 124 X -34 Y 124 X -51 Y 124 X -53 Y 124 X -37 Y 124 X -46 Y 124 X -8 Y 124 X -76 Y 124 X -4 Y 124 X -121 Y 124 X 120 Y 124 X -158 Y 81 Y -124 X -81 Y -124 X 61 Y -124 X 20 Y -124 X 88 Y -124 X 21 Y
 -124 X 80 Y -124 X 37 Y -124 X 55 Y -124 X 58 Y -124 X 36 Y -124 X 62 Y -124 X 11 Y -124 X -25 Y -124 X -504 Y FA 6 lw 1 1 1 c 15 lw 1125 929 m -5 Y s 1125 924 m cl s 1249 916 m 7 Y s 1249 923 m cl s 1249 876 m -18 Y s 1249 858 m cl s 1373 886 m 12
 Y s 1373 898 m cl s 1373 845 m -29 Y s 1373 816 m cl s 1497 864 m 17 Y s 1497 881 m cl s 1497 823 m -39 Y s 1497 784 m cl s 1621 780 m 43 Y s 1621 823 m cl s 1621 739 m -112 Y s 1621 627 m cl s 1869 780 m 43 Y s 1869 823 m cl s 1869 739 m -112 Y s
 1869 627 m cl s 2117 780 m 43 Y s 2117 823 m cl s 2117 739 m -112 Y s 2117 627 m cl s black 1 1 1 c 3 lw /w 43 def /w2 {w 2 div} def /w3 {w 3 div} def 505 1082 629 1118 753 1083 877 1044 1001 995 1125 949 1249 896 1373 865 1497 843 1621 760 10 {
 m20} R 15 lw 3 lw 1869 760 m20 15 lw 3 lw 2117 760 m20 15 lw black 6 lw 1 1 1 c black 3 lw /w 33 def /w2 {w 2 div} def /w3 {w 3 div} def 505 1082 m20 6 lw 3 lw 629 1118 m20 6 lw 3 lw 753 1083 m20 6 lw 3 lw 877 1044 m20 6 lw 1001 977 m 5 Y s 1001
 1009 m 1 Y s 3 lw 1001 995 m20 6 lw 1125 923 m 12 Y s 1125 962 m 6 Y s 3 lw 1125 949 m20 6 lw 1249 856 m 27 Y s 1249 910 m 12 Y s 3 lw 1249 896 m20 6 lw 1373 812 m 40 Y s 1373 879 m 17 Y s 3 lw 1373 865 m20 6 lw 1497 778 m 52 Y s 1497 857 m 21 Y s 3
 lw 1497 843 m20 6 lw 1621 584 m 162 Y s 1621 773 m 39 Y s 3 lw 1621 760 m20 6 lw 1869 584 m 162 Y s 1869 773 m 39 Y s 3 lw 1869 760 m20 6 lw 2117 584 m 162 Y s 2117 773 m 39 Y s 3 lw 2117 760 m20 6 lw 1001 1009 m 1 Y s 1001 1010 m cl s 1001 982 m -5
 Y s 1001 977 m cl s 1125 962 m 7 Y s 1125 969 m cl s 1125 935 m -11 Y s 1125 924 m cl s 1249 910 m 13 Y s 1249 923 m cl s 1249 883 m -25 Y s 1249 858 m cl s 1373 879 m 19 Y s 1373 898 m cl s 1373 852 m -36 Y s 1373 816 m cl s 1497 857 m 24 Y s 1497
 881 m cl s 1497 830 m -46 Y s 1497 784 m cl s 1621 773 m 50 Y s 1621 823 m cl s 1621 746 m -119 Y s 1621 627 m cl s 1869 773 m 50 Y s 1869 823 m cl s 1869 746 m -119 Y s 1869 627 m cl s 2117 773 m 50 Y s 2117 823 m cl s 2117 746 m -119 Y s 2117 627
 m cl s 3 lw 505 1082 629 1118 753 1083 877 1044 1001 995 1125 949 1249 896 1373 865 1497 843 1621 760 10 { m20} R 6 lw 3 lw 1869 760 m20 6 lw 3 lw 2117 760 m20 6 lw 3 lw 319 584 m 1860 X s 319 584 m cl s 381 584 m cl s 443 584 m cl s 505 584 m cl s
 567 584 m cl s 629 584 m cl s 691 584 m cl s 753 584 m cl s 815 584 m cl s 877 584 m cl s 939 584 m cl s 1001 584 m cl s 1063 584 m cl s 1125 584 m cl s 1187 584 m cl s 1249 584 m cl s 1311 584 m cl s 1373 584 m cl s 1435 584 m cl s 1497 584 m cl s
 1559 584 m cl s 1621 584 m cl s 1683 584 m cl s 1745 584 m cl s 1807 584 m cl s 1869 584 m cl s 1931 584 m cl s 1993 584 m cl s 2055 584 m cl s 2117 584 m cl s 2179 584 m cl s 319 1729 m 1860 X s 319 1729 m cl s 381 1729 m cl s 443 1729 m cl s 505
 1729 m cl s 567 1729 m cl s 629 1729 m cl s 691 1729 m cl s 753 1729 m cl s 815 1729 m cl s 877 1729 m cl s 939 1729 m cl s 1001 1729 m cl s 1063 1729 m cl s 1125 1729 m cl s 1187 1729 m cl s 1249 1729 m cl s 1311 1729 m cl s 1373 1729 m cl s 1435
 1729 m cl s 1497 1729 m cl s 1559 1729 m cl s 1621 1729 m cl s 1683 1729 m cl s 1745 1729 m cl s 1807 1729 m cl s 1869 1729 m cl s 1931 1729 m cl s 1993 1729 m cl s 2055 1729 m cl s 2117 1729 m cl s 2179 1729 m cl s 319 584 m 1145 Y s 341 637 m -22
 X s 341 668 m -22 X s 341 690 m -22 X s 341 707 m -22 X s 341 721 m -22 X s 341 733 m -22 X s 341 743 m -22 X s 341 752 m -22 X s 363 760 m -44 X s 341 812 m -22 X s 341 843 m -22 X s 341 865 m -22 X s 341 882 m -22 X s 341 896 m -22 X s 341 908 m
 -22 X s 341 918 m -22 X s 341 927 m -22 X s 363 935 m -44 X s 341 988 m -22 X s 341 1019 m -22 X s 341 1041 m -22 X s 341 1058 m -22 X s 341 1071 m -22 X s 341 1083 m -22 X s 341 1093 m -22 X s 341 1102 m -22 X s 363 1110 m -44 X s 341 1163 m -22 X
 s 341 1194 m -22 X s 341 1216 m -22 X s 341 1233 m -22 X s 341 1247 m -22 X s 341 1259 m -22 X s 341 1269 m -22 X s 341 1278 m -22 X s 363 1286 m -44 X s 341 1339 m -22 X s 341 1369 m -22 X s 341 1391 m -22 X s 341 1408 m -22 X s 341 1422 m -22 X s
 341 1434 m -22 X s 341 1444 m -22 X s 341 1453 m -22 X s 363 1461 m -44 X s 341 1514 m -22 X s 341 1545 m -22 X s 341 1567 m -22 X s 341 1584 m -22 X s 341 1598 m -22 X s 341 1609 m -22 X s 341 1619 m -22 X s 341 1628 m -22 X s 363 1636 m -44 X s
 341 1689 m -22 X s 341 1720 m -22 X s 2179 584 m 1145 Y s 2157 637 m 22 X s 2157 668 m 22 X s 2157 690 m 22 X s 2157 707 m 22 X s 2157 721 m 22 X s 2157 733 m 22 X s 2157 743 m 22 X s 2157 752 m 22 X s 2136 760 m 43 X s 2157 812 m 22 X s 2157 843 m
 22 X s 2157 865 m 22 X s 2157 882 m 22 X s 2157 896 m 22 X s 2157 908 m 22 X s 2157 918 m 22 X s 2157 927 m 22 X s 2136 935 m 43 X s 2157 988 m 22 X s 2157 1019 m 22 X s 2157 1041 m 22 X s 2157 1058 m 22 X s 2157 1071 m 22 X s 2157 1083 m 22 X s
 2157 1093 m 22 X s 2157 1102 m 22 X s 2136 1110 m 43 X s 2157 1163 m 22 X s 2157 1194 m 22 X s 2157 1216 m 22 X s 2157 1233 m 22 X s 2157 1247 m 22 X s 2157 1259 m 22 X s 2157 1269 m 22 X s 2157 1278 m 22 X s 2136 1286 m 43 X s 2157 1339 m 22 X s
 2157 1369 m 22 X s 2157 1391 m 22 X s 2157 1408 m 22 X s 2157 1422 m 22 X s 2157 1434 m 22 X s 2157 1444 m 22 X s 2157 1453 m 22 X s 2136 1461 m 43 X s 2157 1514 m 22 X s 2157 1545 m 22 X s 2157 1567 m 22 X s 2157 1584 m 22 X s 2157 1598 m 22 X s
 2157 1609 m 22 X s 2157 1619 m 22 X s 2157 1628 m 22 X s 2136 1636 m 43 X s 2157 1689 m 22 X s 2157 1720 m 22 X s
 gsave  2263 1770 2 313 C 406.765 1447.41 t 0 r /Helvetica findfont 64.4212 sf 0 0 m (VR0LdPhi for MB\255GGd) show NC gr 
 gsave  2263 1770 2 313 C 1464.36 1630.45 t 0 r /Helvetica findfont 64.4212 sf 0 0 m (SM Total) show NC gr  1 1 1 c 1338 1616 m 107 X 64 Y -107 X f 1 0 0 c 6 lw 1338 1648 m 107 X s black
 gsave  2263 1770 2 313 C 1464.36 1538.93 t 0 r /Helvetica findfont 64.4212 sf 0 0 m (Data) show NC gr  1391 1529 m 55 Y s 3 lw 1391 1557 m20 6 lw
 gsave  2263 1770 2 313 C 1464.36 1447.41 t 0 r /Helvetica findfont 64.4212 sf 0 0 m (W+jets) show NC gr  0.4 0.6 1 c 3 lw 1338 1434 m 107 X 64 Y -107 X f 6 lw black 3 lw 1338 1498 m 107 X s 1338 1434 m 107 X s 1445 1434 m 64 Y s 1338 1434 m 64 Y s
 gsave  2263 1770 2 313 C 1498.25 1355.88 t 0 r /Helvetica findfont 64.4212 sf 0 0 m (\(+EW\) & single top) show NC gr 
 gsave  2263 1770 2 313 C 1481.3 1355.88 t 0 r /Helvetica findfont 64.4212 sf 0 0 m (t) show NC gr  1481 1407 m 17 X s
 gsave  2263 1770 2 313 C 1464.36 1355.88 t 0 r /Helvetica findfont 64.4212 sf 0 0 m (t) show NC gr  0.6 1 0.6 c 1338 1343 m 107 X 63 Y -107 X f black 1338 1406 m 107 X s 1338 1343 m 107 X s 1445 1343 m 63 Y s 1338 1343 m 63 Y s
 gsave  2263 1770 2 313 C 1464.36 1264.36 t 0 r /Helvetica findfont 64.4212 sf 0 0 m (Z+jets) show NC gr  1 0.8 0.4 c 1338 1252 m 107 X 63 Y -107 X f black 1338 1315 m 107 X s 1338 1252 m 107 X s 1445 1252 m 63 Y s 1338 1252 m 63 Y s
 gsave  2263 1770 2 313 C 1464.36 1172.84 t 0 r /Helvetica findfont 64.4212 sf 0 0 m (Diboson) show NC gr  1 0.4 0.6 c 1338 1161 m 107 X 63 Y -107 X f black 1338 1224 m 107 X s 1338 1161 m 107 X s 1445 1161 m 63 Y s 1338 1161 m 63 Y s
 gsave  2263 1770 2 313 C 1464.36 1081.32 t 0 r /Helvetica findfont 64.4212 sf 0 0 m (Multi\255jet) show NC gr  0 0 0.4 c 1338 1070 m 107 X 63 Y -107 X f black 1338 1133 m 107 X s 1338 1070 m 107 X s 1445 1070 m 63 Y s 1338 1070 m 63 Y s
 gsave  2263 1770 2 313 C 911.832 1566.05 t 0 r /Helvetica findfont 44.0776 sf 0 0 m (\2551) show NC gr 
 gsave  2263 1770 2 313 C 471.17 1535.54 t 0 r /Helvetica findfont 64.4212 sf 0 0 m (=13TeV, 139 fb) show NC gr 
 gsave  2263 1770 2 313 C 440.662 1535.54 t 0 r /Helvetica findfont 64.4212 sf 0 0 m (s) show NC gr  6 lw 420 1573 m 7 -41 d s 3 lw 427 1532 m 7 61 d s 434 1593 m 37 X s 1 1 1 c 2254 561 2 2 bf black 1 1 1 c black 1860 358 318 187 bl 1 1 1 c black
 1860 358 318 187 bl 6 lw 1 1 1 c black 3 lw 504 342 m20 6 lw 3 lw 628 365 m20 6 lw 3 lw 752 321 m20 6 lw 3 lw 876 362 m20 6 lw 3 lw 1000 335 m20 6 lw 3 lw 1124 349 m20 6 lw 3 lw 1248 352 m20 6 lw 3 lw 1372 364 m20 6 lw 3 lw 1496 463 m20 6 lw 3 lw
 1620 305 m20 6 lw 3 lw 1868 521 m20 6 lw 3 lw 2116 503 m20 6 lw 3 lw 318 187 m 1860 X s
 gsave  2254 561 2 2 C 1959.25 33.8971 t 0 r /Helvetica findfont 78.1689 sf 0 0 m ( [GeV]) show NC gr 
 gsave  2254 561 2 2 C 1901.63 13.5588 t 0 r /Helvetica findfont 50.9797 sf 0 0 m (eff) show NC gr 
 gsave  2254 561 2 2 C 1840.61 33.8971 t 0 r /Helvetica findfont 78.1689 sf 0 0 m (m) show NC gr  318 201 m -14 Y s 380 194 m -7 Y s 442 194 m -7 Y s 504 194 m -7 Y s 566 194 m -7 Y s 628 201 m -14 Y s 690 194 m -7 Y s 752 194 m -7 Y s 814 194 m -7 Y
 s 876 194 m -7 Y s 938 201 m -14 Y s 1000 194 m -7 Y s 1062 194 m -7 Y s 1124 194 m -7 Y s 1186 194 m -7 Y s 1248 201 m -14 Y s 1310 194 m -7 Y s 1372 194 m -7 Y s 1434 194 m -7 Y s 1496 194 m -7 Y s 1558 201 m -14 Y s 1620 194 m -7 Y s 1682 194 m
 -7 Y s 1744 194 m -7 Y s 1806 194 m -7 Y s 1868 201 m -14 Y s 1930 194 m -7 Y s 1992 194 m -7 Y s 2054 194 m -7 Y s 2116 194 m -7 Y s 2178 201 m -14 Y s
 gsave  2254 561 2 2 C 227.111 118.64 t 0 r /Helvetica findfont 78.1689 sf 0 0 m (1000) show NC gr 
 gsave  2254 561 2 2 C 538.964 118.64 t 0 r /Helvetica findfont 78.1689 sf 0 0 m (1500) show NC gr 
 gsave  2254 561 2 2 C 847.428 118.64 t 0 r /Helvetica findfont 78.1689 sf 0 0 m (2000) show NC gr 
 gsave  2254 561 2 2 C 1159.28 118.64 t 0 r /Helvetica findfont 78.1689 sf 0 0 m (2500) show NC gr 
 gsave  2254 561 2 2 C 1467.74 118.64 t 0 r /Helvetica findfont 78.1689 sf 0 0 m (3000) show NC gr 
 gsave  2254 561 2 2 C 1779.6 118.64 t 0 r /Helvetica findfont 78.1689 sf 0 0 m (3500) show NC gr 
 gsave  2254 561 2 2 C 2088.06 118.64 t 0 r /Helvetica findfont 78.1689 sf 0 0 m (4000) show NC gr  318 545 m 1860 X s 318 531 m 14 Y s 380 538 m 7 Y s 442 538 m 7 Y s 504 538 m 7 Y s 566 538 m 7 Y s 628 531 m 14 Y s 690 538 m 7 Y s 752 538 m 7 Y s
 814 538 m 7 Y s 876 538 m 7 Y s 938 531 m 14 Y s 1000 538 m 7 Y s 1062 538 m 7 Y s 1124 538 m 7 Y s 1186 538 m 7 Y s 1248 531 m 14 Y s 1310 538 m 7 Y s 1372 538 m 7 Y s 1434 538 m 7 Y s 1496 538 m 7 Y s 1558 531 m 14 Y s 1620 538 m 7 Y s 1682 538 m
 7 Y s 1744 538 m 7 Y s 1806 538 m 7 Y s 1868 531 m 14 Y s 1930 538 m 7 Y s 1992 538 m 7 Y s 2054 538 m 7 Y s 2116 538 m 7 Y s 2178 531 m 14 Y s 318 187 m 358 Y s
 gsave  2254 561 2 2 C 166.096 284.736 t 90 r /Helvetica findfont 67.9729 sf 0 0 m (Data/SM) show NC gr  361 203 m -43 X s 339 220 m -21 X s 339 236 m -21 X s 339 252 m -21 X s 339 268 m -21 X s 361 285 m -43 X s 339 301 m -21 X s 339 317 m -21 X s
 339 334 m -21 X s 339 350 m -21 X s 361 366 m -43 X s 339 382 m -21 X s 339 399 m -21 X s 339 415 m -21 X s 339 431 m -21 X s 361 447 m -43 X s 339 464 m -21 X s 339 480 m -21 X s 339 496 m -21 X s 339 512 m -21 X s 361 529 m -43 X s 361 203 m -43 X
 s 339 187 m -21 X s 361 529 m -43 X s
 gsave  2254 561 2 2 C 261.008 183.044 t 0 r /Helvetica findfont 57.777 sf 0 0 m (0) show NC gr 
 gsave  2254 561 2 2 C 213.552 261.008 t 0 r /Helvetica findfont 57.777 sf 0 0 m (0.5) show NC gr 
 gsave  2254 561 2 2 C 271.177 342.361 t 0 r /Helvetica findfont 57.777 sf 0 0 m (1) show NC gr 
 gsave  2254 561 2 2 C 213.552 423.714 t 0 r /Helvetica findfont 57.777 sf 0 0 m (1.5) show NC gr 
 gsave  2254 561 2 2 C 261.008 505.067 t 0 r /Helvetica findfont 57.777 sf 0 0 m (2) show NC gr  2178 187 m 358 Y s 2135 203 m 43 X s 2157 220 m 21 X s 2157 236 m 21 X s 2157 252 m 21 X s 2157 268 m 21 X s 2135 285 m 43 X s 2157 301 m 21 X s 2157 317
 m 21 X s 2157 334 m 21 X s 2157 350 m 21 X s 2135 366 m 43 X s 2157 382 m 21 X s 2157 399 m 21 X s 2157 415 m 21 X s 2157 431 m 21 X s 2135 447 m 43 X s 2157 464 m 21 X s 2157 480 m 21 X s 2157 496 m 21 X s 2157 512 m 21 X s 2135 529 m 43 X s 2135
 203 m 43 X s 2157 187 m 21 X s 2135 529 m 43 X s 9 lw 504 355 m 3 Y s 504 358 m cl s 504 328 m -3 Y s 504 325 m cl s 628 378 m 2 Y s 628 380 m cl s 628 351 m -1 Y s 628 350 m cl s 752 334 m 1 Y s 752 335 m cl s 752 307 m s 752 307 m cl s 876 375 m
 11 Y s 876 386 m cl s 876 348 m -10 Y s 876 338 m cl s 1000 348 m 15 Y s 1000 363 m cl s 1000 321 m -14 Y s 1000 307 m cl s 1124 363 m 29 Y s 1124 392 m cl s 1124 336 m -28 Y s 1124 308 m cl s 1248 365 m 50 Y s 1248 415 m cl s 1248 338 m -45 Y s
 1248 293 m cl s 1372 377 m 73 Y s 1372 450 m cl s 1372 350 m -63 Y s 1372 287 m cl s 1496 477 m 68 Y s 1496 545 m cl s 1496 450 m -128 Y s 1496 322 m cl s 1620 319 m 117 Y s 1620 436 m cl s 1620 291 m -70 Y s 1620 221 m cl s 1868 535 m 10 Y s 1868
 545 m cl s 1868 507 m -248 Y s 1868 259 m cl s 2116 516 m 29 Y s 2116 545 m cl s 2116 489 m -233 Y s 2116 256 m cl s 3 lw 504 342 628 365 752 321 876 362 1000 335 1124 349 1248 352 1372 364 1496 463 1620 305 10 { m20} R 9 lw 3 lw 1868 521 m20 9 lw 3
 lw 2116 503 m20 9 lw 1 0 0 c 6 lw black 3 lw 1 0 0 c 2178 227 m s 2178 255 m s 2178 284 m s 2178 312 m -22 -22 d s 2178 341 m -51 -51 d s 2178 369 m -79 -79 d s 2178 398 m -108 -108 d s 2054 274 m -24 -24 d s 2178 427 m -177 -177 d s 2165 442 m -193
 -192 d s 2136 442 m -192 -192 d s 2108 442 m -178 -177 d s 2079 442 m -168 -168 d s 2054 446 m -172 -172 d s 2054 475 m -201 -201 d s 2033 482 m -208 -208 d s 2004 482 m -198 -197 d s 1976 482 m -197 -196 d s 1947 482 m -17 -17 d s 1923 458 m -173
 -172 d s 1894 458 m -172 -172 d s 1865 458 m -172 -172 d s 1837 458 m -163 -162 d s 1808 458 m -2 -2 d s 1796 446 m -150 -150 d s 1767 446 m -150 -150 d s 1739 446 m -151 -150 d s 1710 446 m -151 -150 d s 1671 436 m -128 -128 d s 1643 436 m -128
 -128 d s 1614 436 m -128 -128 d s 1585 436 m -128 -128 d s 1544 424 m -110 -110 d s 1516 424 m -83 -82 d s 1487 424 m -83 -82 d s 1458 424 m -24 -24 d s 1425 390 m -49 -48 d s 1396 390 m -49 -48 d s 1367 390 m -49 -48 d s 1339 390 m -49 -48 d s 1310
 390 m -49 -48 d s 1281 390 m -48 -48 d s 1252 390 m -48 -48 d s 1224 390 m -47 -46 d s 1195 390 m -46 -46 d s 1164 388 m -44 -44 d s 1136 388 m -45 -44 d s 1107 388 m -45 -44 d s 1078 388 m -37 -37 d s 1042 381 m -30 -30 d s 1013 381 m -29 -30 d s
 985 381 m -30 -30 d s 956 381 m -27 -27 d s 925 378 m -25 -24 d s 896 378 m -24 -24 d s 868 378 m -25 -24 d s 839 378 m -25 -24 d s 810 378 m -24 -24 d s 781 378 m -24 -24 d s 753 378 m -25 -24 d s 724 378 m -24 -24 d s 695 378 m -25 -24 d s 667 379
 m -25 -25 d s 638 379 m -25 -25 d s 610 379 m -26 -25 d s 442 211 m s 434 203 m cl s 581 379 m -27 -27 d s 442 240 m s 405 203 m cl s 554 380 m -28 -28 d s 442 269 m s 376 203 m cl s 525 380 m -28 -28 d s 442 297 m s 348 203 m cl s 496 380 m -28 -28
 d s 442 326 m s 319 203 m cl s 468 380 m -26 -26 d s 6 lw black[ 4 8] 0 sd 3 lw 318 447 m 1860 X s 318 285 m 1860 X s 1 0 0 c[  12 12 ] 0 sd 6 lw 318 366 m 1860 X s
 gr  gr showpage
end
%%EOF
