%!PS-Adobe-2.0 EPSF-2.0
%%BoundingBox:  0 0 567 521
%%Title: Distributions/meffInc_distrVR0LmetSig_MB-GGo_beforeFit_forThesis.eps: canvas
%%Creator: ROOT Version 6.04/16
%%CreationDate: Tue May 19 22:05:10 2020
%%DocumentNeededResources: ProcSet (FontSetInit)
%%EndComments
%%BeginProlog
80 dict begin
/s {stroke} def /l {lineto} def /m {moveto} def /t {translate} def
/r {rotate} def /rl {roll}  def /R {repeat} def
/d {rlineto} def /rm {rmoveto} def /gr {grestore} def /f {eofill} def
/c {setrgbcolor} def /black {0 setgray} def /sd {setdash} def
/cl {closepath} def /sf {scalefont setfont} def /lw {setlinewidth} def
/box {m dup 0 exch d exch 0 d 0 exch neg d cl} def
/NC{systemdict begin initclip end}def/C{NC box clip newpath}def
/bl {box s} def /bf {gsave box gsave f grestore 1 lw [] 0 sd s grestore} def /Y { 0 exch d} def /X { 0 d} def 
/K {{pop pop 0 moveto} exch kshow} bind def
/ita {/ang 15 def gsave [1 0 ang dup sin exch cos div 1 0 0] concat} def 
/mp {newpath /y exch def /x exch def} def
/side {[w .77 mul w .23 mul] .385 w mul sd w 0 l currentpoint t -144 r} def
/mr {mp x y w2 0 360 arc} def /m24 {mr s} def /m20 {mr f} def
/mb {mp x y w2 add m w2 neg 0 d 0 w neg d w 0 d 0 w d cl} def
/mt {mp x y w2 add m w2 neg w neg d w 0 d cl} def
/m21 {mb f} def /m25 {mb s} def /m22 {mt f} def /m26{mt s} def
/m23 {mp x y w2 sub m w2 w d w neg 0 d cl f} def
/m27 {mp x y w2 add m w3 neg w2 neg d w3 w2 neg d w3 w2 d cl s} def
/m28 {mp x w2 sub y w2 sub w3 add m w3 0 d  0 w3 neg d w3 0 d 0 w3 d w3 0 d  0 w3 d w3 neg 0 d 0 w3 d w3 neg 0 d 0 w3 neg d w3 neg 0 d cl s } def
/m29 {mp gsave x w2 sub y w2 add w3 sub m currentpoint t 4 {side} repeat cl fill gr} def
/m30 {mp gsave x w2 sub y w2 add w3 sub m currentpoint t 4 {side} repeat cl s gr} def
/m31 {mp x y w2 sub m 0 w d x w2 sub y m w 0 d x w2 sub y w2 add m w w neg d x w2 sub y w2 sub m w w d s} def
/m32 {mp x y w2 sub m w2 w d w neg 0 d cl s} def
/m33 {mp x y w2 add m w3 neg w2 neg d w3 w2 neg d w3 w2 d cl f} def
/m34 {mp x w2 sub y w2 sub w3 add m w3 0 d  0 w3 neg d w3 0 d 0 w3 d w3 0 d  0 w3 d w3 neg 0 d 0 w3 d w3 neg 0 d 0 w3 neg d w3 neg 0 d cl f } def
/m2 {mp x y w2 sub m 0 w d x w2 sub y m w 0 d s} def
/m5 {mp x w2 sub y w2 sub m w w d x w2 sub y w2 add m w w neg d s} def
%%IncludeResource: ProcSet (FontSetInit)
%%IncludeResource: font Times-Roman
%%IncludeResource: font Times-Italic
%%IncludeResource: font Times-Bold
%%IncludeResource: font Times-BoldItalic
%%IncludeResource: font Helvetica
%%IncludeResource: font Helvetica-Oblique
%%IncludeResource: font Helvetica-Bold
%%IncludeResource: font Helvetica-BoldOblique
%%IncludeResource: font Courier
%%IncludeResource: font Courier-Oblique
%%IncludeResource: font Courier-Bold
%%IncludeResource: font Courier-BoldOblique
%%IncludeResource: font Symbol
%%IncludeResource: font ZapfDingbats
/reEncode {exch findfont dup length dict begin {1 index /FID eq  {pop pop} {def} ifelse } forall /Encoding exch def currentdict end dup /FontName get exch definefont pop } def [/Times-Bold /Times-Italic /Times-BoldItalic /Helvetica /Helvetica-Oblique
 /Helvetica-Bold /Helvetica-BoldOblique /Courier /Courier-Oblique /Courier-Bold /Courier-BoldOblique /Times-Roman /AvantGarde-Book /AvantGarde-BookOblique /AvantGarde-Demi /AvantGarde-DemiOblique /Bookman-Demi /Bookman-DemiItalic /Bookman-Light
 /Bookman-LightItalic /Helvetica-Narrow /Helvetica-Narrow-Bold /Helvetica-Narrow-BoldOblique /Helvetica-Narrow-Oblique /NewCenturySchlbk-Roman /NewCenturySchlbk-Bold /NewCenturySchlbk-BoldItalic /NewCenturySchlbk-Italic /Palatino-Bold
 /Palatino-BoldItalic /Palatino-Italic /Palatino-Roman ] {ISOLatin1Encoding reEncode } forall
%%EndProlog
%%BeginSetup
%%EndSetup
newpath  gsave  .25 .25 scale  gsave  0 0 t black[  ] 0 sd 3 lw 1 1 1 c 2268 2085 0 0 bf black 1 1 1 c 2263 1770 2 313 bf black 1 1 1 c black 1860 1145 319 584 bl 1 1 1 c black 1860 1145 319 584 bl 6 lw 1 1 1 c black 381 971 m 13 Y s 381 1011 m 6 Y s
 3 lw /w 33 def /w2 {w 2 div} def /w3 {w 3 div} def 381 997 m20 6 lw 505 1027 m 5 Y s 505 1059 m 2 Y s 3 lw 505 1046 m20 6 lw 629 1038 m 4 Y s 629 1069 m 1 Y s 3 lw 629 1055 m20 6 lw 753 1006 m 8 Y s 753 1041 m 3 Y s 3 lw 753 1027 m20 6 lw 877 990 m
 10 Y s 877 1027 m 5 Y s 3 lw 877 1014 m20 6 lw 1001 883 m 30 Y s 1001 940 m 15 Y s 3 lw 1001 927 m20 6 lw 1125 862 m 36 Y s 1125 925 m 17 Y s 3 lw 1125 911 m20 6 lw 1249 862 m 36 Y s 1249 925 m 17 Y s 3 lw 1249 911 m20 6 lw 1373 862 m 36 Y s 1373
 925 m 17 Y s 3 lw 1373 911 m20 6 lw 1497 584 m 179 Y s 1497 790 m 45 Y s 3 lw 1497 777 m20 6 lw 1621 584 m 179 Y s 1621 790 m 45 Y s 3 lw 1621 777 m20 6 lw 1869 584 m 179 Y s 1869 790 m 45 Y s 3 lw 1869 777 m20 6 lw 1993 584 m 179 Y s 1993 790 m 45
 Y s 3 lw 1993 777 m20 6 lw 3 lw 319 584 m 1860 X s
 gsave  2263 1770 2 313 C 1949.08 369.478 t 0 r /Helvetica findfont 81.3741 sf 0 0 m ( [GeV]) show NC gr 
 gsave  2263 1770 2 313 C 1888.07 342.361 t 0 r /Helvetica findfont 54.2494 sf 0 0 m (eff) show NC gr 
 gsave  2263 1770 2 313 C 1823.66 369.478 t 0 r /Helvetica findfont 81.3741 sf 0 0 m (m) show NC gr  319 584 m cl s 381 584 m cl s 443 584 m cl s 505 584 m cl s 567 584 m cl s 629 584 m cl s 691 584 m cl s 753 584 m cl s 815 584 m cl s 877 584 m cl s
 939 584 m cl s 1001 584 m cl s 1063 584 m cl s 1125 584 m cl s 1187 584 m cl s 1249 584 m cl s 1311 584 m cl s 1373 584 m cl s 1435 584 m cl s 1497 584 m cl s 1559 584 m cl s 1621 584 m cl s 1683 584 m cl s 1745 584 m cl s 1807 584 m cl s 1869 584 m
 cl s 1931 584 m cl s 1993 584 m cl s 2055 584 m cl s 2117 584 m cl s 2179 584 m cl s 319 1729 m 1860 X s 319 1729 m cl s 381 1729 m cl s 443 1729 m cl s 505 1729 m cl s 567 1729 m cl s 629 1729 m cl s 691 1729 m cl s 753 1729 m cl s 815 1729 m cl s
 877 1729 m cl s 939 1729 m cl s 1001 1729 m cl s 1063 1729 m cl s 1125 1729 m cl s 1187 1729 m cl s 1249 1729 m cl s 1311 1729 m cl s 1373 1729 m cl s 1435 1729 m cl s 1497 1729 m cl s 1559 1729 m cl s 1621 1729 m cl s 1683 1729 m cl s 1745 1729 m
 cl s 1807 1729 m cl s 1869 1729 m cl s 1931 1729 m cl s 1993 1729 m cl s 2055 1729 m cl s 2117 1729 m cl s 2179 1729 m cl s 319 584 m 1145 Y s
 gsave  2263 1770 2 313 C 166.096 1091.49 t 90 r /Helvetica findfont 81.3741 sf 0 0 m (Events / 200 GeV) show NC gr  341 642 m -22 X s 341 676 m -22 X s 341 700 m -22 X s 341 719 m -22 X s 341 734 m -22 X s 341 747 m -22 X s 341 758 m -22 X s 341 768
 m -22 X s 363 777 m -44 X s
 gsave  2263 1770 2 313 C 300.555 749.647 t 0 r  -36 0 t /Helvetica findfont 64.4212 sf 0 0 m (1) show NC gr  341 835 m -22 X s 341 869 m -22 X s 341 893 m -22 X s 341 911 m -22 X s 341 927 m -22 X s 341 939 m -22 X s 341 951 m -22 X s 341 960 m -22
 X s 363 969 m -44 X s
 gsave  2263 1770 2 313 C 300.555 942.102 t 0 r  -73 0 t /Helvetica findfont 64.4212 sf 0 0 m (10) show NC gr  341 1027 m -22 X s 341 1061 m -22 X s 341 1085 m -22 X s 341 1104 m -22 X s 341 1119 m -22 X s 341 1132 m -22 X s 341 1143 m -22 X s 341
 1153 m -22 X s 363 1162 m -44 X s
 gsave  2263 1770 2 313 C 274.567 1159.28 t 0 r /Helvetica findfont 44.0776 sf 0 0 m (2) show NC gr 
 gsave  2263 1770 2 313 C 203.383 1132.16 t 0 r /Helvetica findfont 64.4212 sf 0 0 m (10) show NC gr  341 1220 m -22 X s 341 1253 m -22 X s 341 1278 m -22 X s 341 1296 m -22 X s 341 1311 m -22 X s 341 1324 m -22 X s 341 1335 m -22 X s 341 1345 m -22
 X s 363 1354 m -44 X s
 gsave  2263 1770 2 313 C 274.567 1355.88 t 0 r /Helvetica findfont 44.0776 sf 0 0 m (3) show NC gr 
 gsave  2263 1770 2 313 C 203.383 1325.38 t 0 r /Helvetica findfont 64.4212 sf 0 0 m (10) show NC gr  341 1412 m -22 X s 341 1446 m -22 X s 341 1470 m -22 X s 341 1489 m -22 X s 341 1504 m -22 X s 341 1517 m -22 X s 341 1528 m -22 X s 341 1538 m -22
 X s 363 1547 m -44 X s
 gsave  2263 1770 2 313 C 274.567 1545.71 t 0 r /Helvetica findfont 44.0776 sf 0 0 m (4) show NC gr 
 gsave  2263 1770 2 313 C 203.383 1518.59 t 0 r /Helvetica findfont 64.4212 sf 0 0 m (10) show NC gr  341 1605 m -22 X s 341 1638 m -22 X s 341 1662 m -22 X s 341 1681 m -22 X s 341 1696 m -22 X s 341 1709 m -22 X s 341 1720 m -22 X s 2179 584 m 1145
 Y s 2157 642 m 22 X s 2157 676 m 22 X s 2157 700 m 22 X s 2157 719 m 22 X s 2157 734 m 22 X s 2157 747 m 22 X s 2157 758 m 22 X s 2157 768 m 22 X s 2136 777 m 43 X s 2157 835 m 22 X s 2157 869 m 22 X s 2157 893 m 22 X s 2157 911 m 22 X s 2157 927 m
 22 X s 2157 939 m 22 X s 2157 951 m 22 X s 2157 960 m 22 X s 2136 969 m 43 X s 2157 1027 m 22 X s 2157 1061 m 22 X s 2157 1085 m 22 X s 2157 1104 m 22 X s 2157 1119 m 22 X s 2157 1132 m 22 X s 2157 1143 m 22 X s 2157 1153 m 22 X s 2136 1162 m 43 X s
 2157 1220 m 22 X s 2157 1253 m 22 X s 2157 1278 m 22 X s 2157 1296 m 22 X s 2157 1311 m 22 X s 2157 1324 m 22 X s 2157 1335 m 22 X s 2157 1345 m 22 X s 2136 1354 m 43 X s 2157 1412 m 22 X s 2157 1446 m 22 X s 2157 1470 m 22 X s 2157 1489 m 22 X s
 2157 1504 m 22 X s 2157 1517 m 22 X s 2157 1528 m 22 X s 2157 1538 m 22 X s 2136 1547 m 43 X s 2157 1605 m 22 X s 2157 1638 m 22 X s 2157 1662 m 22 X s 2157 1681 m 22 X s 2157 1696 m 22 X s 2157 1709 m 22 X s 2157 1720 m 22 X s 0.4 0.6 1 c black 0.4
 0.6 1 c 319 584 m 379 Y 124 X 81 Y 124 X 15 Y 124 X -3 Y 124 X -30 Y 124 X -20 Y 124 X -29 Y 124 X -51 Y 124 X 6 Y 124 X -45 Y 124 X -46 Y 124 X -54 Y 124 X -15 Y 124 X -14 Y 124 X 30 Y 124 X -204 Y f black 0.4 0.6 1 c black 319 963 m 124 X 81 Y 124
 X 15 Y 124 X -3 Y 124 X -30 Y 124 X -20 Y 124 X -29 Y 124 X -51 Y 124 X 6 Y 124 X -45 Y 124 X -46 Y 124 X -54 Y 124 X -15 Y 124 X -14 Y 124 X 30 Y 124 X s 0.999 0.999 0.999 c black 0.999 0.999 0.999 c 319 584 m 365 Y 124 X 81 Y 124 X 15 Y 124 X -1 Y
 124 X -32 Y 124 X -19 Y 124 X -30 Y 124 X -55 Y 124 X 16 Y 124 X -55 Y 124 X -39 Y 124 X -66 Y 124 X 3 Y 124 X -65 Y 124 X 73 Y 124 X -191 Y f black 0.999 0.999 0.999 c black 319 949 m 124 X 81 Y 124 X 15 Y 124 X -1 Y 124 X -32 Y 124 X -19 Y 124 X
 -30 Y 124 X -55 Y 124 X 16 Y 124 X -55 Y 124 X -39 Y 124 X -66 Y 124 X 3 Y 124 X -65 Y 124 X 73 Y 124 X s 1 1 1 c black 319 949 m 124 X 81 Y 124 X 15 Y 124 X -1 Y 124 X -32 Y 124 X -19 Y 124 X -30 Y 124 X -55 Y 124 X 16 Y 124 X -55 Y 124 X -39 Y 124
 X -66 Y 124 X 3 Y 124 X -65 Y 124 X 73 Y 124 X s 0.6 1 0.6 c black 0.6 1 0.6 c 319 584 m 365 Y 124 X 81 Y 124 X 15 Y 124 X -1 Y 124 X -32 Y 124 X -19 Y 124 X -30 Y 124 X -55 Y 124 X 16 Y 124 X -55 Y 124 X -39 Y 124 X -66 Y 124 X 3 Y 124 X -65 Y 124
 X 73 Y 124 X -191 Y f black 0.6 1 0.6 c black 319 949 m 124 X 81 Y 124 X 15 Y 124 X -1 Y 124 X -32 Y 124 X -19 Y 124 X -30 Y 124 X -55 Y 124 X 16 Y 124 X -55 Y 124 X -39 Y 124 X -66 Y 124 X 3 Y 124 X -65 Y 124 X 73 Y 124 X s 0.999 0.999 0.999 c
 black 0.999 0.999 0.999 c 319 584 m 101 Y 124 X 206 Y 124 X 17 Y 124 X 5 Y 124 X -51 Y 124 X -6 Y 124 X -19 Y 124 X -61 Y 124 X 43 Y 124 X -67 Y 124 X -20 Y 124 X -80 Y 124 X 52 Y 124 X -92 Y 124 X 97 Y 124 X -125 Y f black 0.999 0.999 0.999 c black
 319 685 m 124 X 206 Y 124 X 17 Y 124 X 5 Y 124 X -51 Y 124 X -6 Y 124 X -19 Y 124 X -61 Y 124 X 43 Y 124 X -67 Y 124 X -20 Y 124 X -80 Y 124 X 52 Y 124 X -92 Y 124 X 97 Y 124 X s 1 1 1 c black 319 685 m 124 X 206 Y 124 X 17 Y 124 X 5 Y 124 X -51 Y
 124 X -6 Y 124 X -19 Y 124 X -61 Y 124 X 43 Y 124 X -67 Y 124 X -20 Y 124 X -80 Y 124 X 52 Y 124 X -92 Y 124 X 97 Y 124 X s 1 0.8 0.4 c black 1 0.8 0.4 c 319 584 m 101 Y 124 X 206 Y 124 X 17 Y 124 X 5 Y 124 X -51 Y 124 X -6 Y 124 X -19 Y 124 X -61 Y
 124 X 43 Y 124 X -67 Y 124 X -20 Y 124 X -80 Y 124 X 52 Y 124 X -92 Y 124 X 97 Y 124 X -125 Y f black 1 0.8 0.4 c black 319 685 m 124 X 206 Y 124 X 17 Y 124 X 5 Y 124 X -51 Y 124 X -6 Y 124 X -19 Y 124 X -61 Y 124 X 43 Y 124 X -67 Y 124 X -20 Y 124
 X -80 Y 124 X 52 Y 124 X -92 Y 124 X 97 Y 124 X s 0.999 0.999 0.999 c black 0.999 0.999 0.999 c 319 584 m 20 Y 124 X 176 Y 124 X 36 Y 124 X -28 Y 124 X -81 Y 124 X 58 Y 124 X -58 Y 124 X -48 Y 124 X -6 Y 124 X 37 Y 124 X -63 Y 124 X -43 Y 496 X f
 black 0.999 0.999 0.999 c black 319 604 m 124 X 176 Y 124 X 36 Y 124 X -28 Y 124 X -81 Y 124 X 58 Y 124 X -58 Y 124 X -48 Y 124 X -6 Y 124 X 37 Y 124 X -63 Y 124 X -43 Y 496 X s 1 1 1 c black 319 604 m 124 X 176 Y 124 X 36 Y 124 X -28 Y 124 X -81 Y
 124 X 58 Y 124 X -58 Y 124 X -48 Y 124 X -6 Y 124 X 37 Y 124 X -63 Y 124 X -43 Y 496 X s 1 0.4 0.6 c black 1 0.4 0.6 c 319 584 m 20 Y 124 X 176 Y 124 X 36 Y 124 X -28 Y 124 X -81 Y 124 X 58 Y 124 X -58 Y 124 X -48 Y 124 X -6 Y 124 X 37 Y 124 X -63 Y
 124 X -43 Y 496 X f black 1 0.4 0.6 c black 319 604 m 124 X 176 Y 124 X 36 Y 124 X -28 Y 124 X -81 Y 124 X 58 Y 124 X -58 Y 124 X -48 Y 124 X -6 Y 124 X 37 Y 124 X -63 Y 124 X -43 Y 496 X s 0.999 0.999 0.999 c black 0.999 0.999 0.999 c 319 584 m 124
 X 83 Y 124 X -15 Y 124 X -12 Y 124 X -16 Y 248 X -26 Y 124 X -14 Y 992 X f black 0.999 0.999 0.999 c black 319 584 m 124 X 83 Y 124 X -15 Y 124 X -12 Y 124 X -16 Y 248 X -26 Y 124 X -14 Y 992 X s 1 1 1 c black 319 584 m 124 X 83 Y 124 X -15 Y 124 X
 -12 Y 124 X -16 Y 248 X -26 Y 124 X -14 Y 992 X s 0 0 0.4 c black 0 0 0.4 c 319 584 m 124 X 83 Y 124 X -15 Y 124 X -12 Y 124 X -16 Y 248 X -26 Y 124 X -14 Y 992 X f black 0 0 0.4 c black 319 584 m 124 X 83 Y 124 X -15 Y 124 X -12 Y 124 X -16 Y 248 X
 -26 Y 124 X -14 Y 992 X s 1 0 0 c 6 lw 1 1 1 c black 1 0 0 c 319 963 m 124 X 81 Y 124 X 15 Y 124 X -3 Y 124 X -30 Y 124 X -20 Y 124 X -29 Y 124 X -51 Y 124 X 6 Y 124 X -45 Y 124 X -46 Y 124 X -54 Y 124 X -15 Y 124 X -14 Y 124 X 30 Y 124 X s black 3
 lw 1 0 0 c 1 lw << /PatternType 1 /PaintType 2 /TilingType 1 /BBox [ 0 0 100 100 ] /XStep 100 /YStep 100 /PaintProc { begin gsave 0 100 m 100 0 l s gr end } >> [ 0.24 0 0 0.24 0 0 ] makepattern /P05 exch def /cs {[/Pattern /DeviceRGB] setcolorspace}
 def /FA {f [/DeviceRGB] setcolorspace} def cs 1 0 0 P05 setcolor 319 584 m 398 Y 124 X 70 Y 124 X 14 Y 248 X -29 Y 124 X -20 Y 124 X -24 Y 124 X -51 Y 124 X 8 Y 124 X -43 Y 124 X -43 Y 124 X -59 Y 124 X -12 Y 124 X -10 Y 124 X 25 Y 124 X -224 Y 176
 Y -124 X -39 Y -124 X 22 Y -124 X 21 Y -124 X 43 Y -124 X 53 Y -124 X 47 Y -124 X -1 Y -124 X 50 Y -124 X 37 Y -124 X 21 Y -124 X 30 Y -124 X 8 Y -124 X -18 Y -124 X -96 Y -124 X -354 Y FA 6 lw 1 1 1 c 15 lw 381 977 m -5 Y s 381 972 m cl s 753 1007
 m -1 Y s 753 1006 m cl s 877 993 m -2 Y s 877 991 m cl s 1001 947 m 9 Y s 1001 956 m cl s 1001 906 m -21 Y s 1001 885 m cl s 1125 932 m 12 Y s 1125 944 m cl s 1125 891 m -27 Y s 1125 864 m cl s 1249 932 m 12 Y s 1249 944 m cl s 1249 891 m -27 Y s
 1249 864 m cl s 1373 932 m 12 Y s 1373 944 m cl s 1373 891 m -27 Y s 1373 864 m cl s 1497 797 m 49 Y s 1497 846 m cl s 1497 756 m -125 Y s 1497 631 m cl s 1621 797 m 49 Y s 1621 846 m cl s 1621 756 m -125 Y s 1621 631 m cl s 1869 797 m 49 Y s 1869
 846 m cl s 1869 756 m -125 Y s 1869 631 m cl s 1993 797 m 49 Y s 1993 846 m cl s 1993 756 m -125 Y s 1993 631 m cl s black 1 1 1 c 3 lw /w 43 def /w2 {w 2 div} def /w3 {w 3 div} def 381 997 505 1046 629 1055 753 1027 877 1014 1001 927 1125 911 1249
 911 1373 911 1497 777 1621 777 11 { m20} R 15 lw 3 lw 1869 777 1993 777 2 { m20} R 15 lw black 6 lw 1 1 1 c black 381 971 m 13 Y s 381 1011 m 6 Y s 3 lw /w 33 def /w2 {w 2 div} def /w3 {w 3 div} def 381 997 m20 6 lw 505 1027 m 5 Y s 505 1059 m 2 Y s
 3 lw 505 1046 m20 6 lw 629 1038 m 4 Y s 629 1069 m 1 Y s 3 lw 629 1055 m20 6 lw 753 1006 m 8 Y s 753 1041 m 3 Y s 3 lw 753 1027 m20 6 lw 877 990 m 10 Y s 877 1027 m 5 Y s 3 lw 877 1014 m20 6 lw 1001 883 m 30 Y s 1001 940 m 15 Y s 3 lw 1001 927 m20 6
 lw 1125 862 m 36 Y s 1125 925 m 17 Y s 3 lw 1125 911 m20 6 lw 1249 862 m 36 Y s 1249 925 m 17 Y s 3 lw 1249 911 m20 6 lw 1373 862 m 36 Y s 1373 925 m 17 Y s 3 lw 1373 911 m20 6 lw 1497 584 m 179 Y s 1497 790 m 45 Y s 3 lw 1497 777 m20 6 lw 1621 584
 m 179 Y s 1621 790 m 45 Y s 3 lw 1621 777 m20 6 lw 1869 584 m 179 Y s 1869 790 m 45 Y s 3 lw 1869 777 m20 6 lw 1993 584 m 179 Y s 1993 790 m 45 Y s 3 lw 1993 777 m20 6 lw 381 1011 m 6 Y s 381 1017 m cl s 381 984 m -12 Y s 381 972 m cl s 505 1059 m 2
 Y s 505 1061 m cl s 505 1032 m -5 Y s 505 1027 m cl s 629 1069 m 1 Y s 629 1070 m cl s 629 1042 m -4 Y s 629 1038 m cl s 753 1041 m 3 Y s 753 1044 m cl s 753 1014 m -8 Y s 753 1006 m cl s 877 1027 m 5 Y s 877 1032 m cl s 877 1000 m -9 Y s 877 991 m
 cl s 1001 940 m 16 Y s 1001 956 m cl s 1001 913 m -28 Y s 1001 885 m cl s 1125 925 m 19 Y s 1125 944 m cl s 1125 898 m -34 Y s 1125 864 m cl s 1249 925 m 19 Y s 1249 944 m cl s 1249 898 m -34 Y s 1249 864 m cl s 1373 925 m 19 Y s 1373 944 m cl s
 1373 898 m -34 Y s 1373 864 m cl s 1497 790 m 56 Y s 1497 846 m cl s 1497 763 m -132 Y s 1497 631 m cl s 1621 790 m 56 Y s 1621 846 m cl s 1621 763 m -132 Y s 1621 631 m cl s 1869 790 m 56 Y s 1869 846 m cl s 1869 763 m -132 Y s 1869 631 m cl s 1993
 790 m 56 Y s 1993 846 m cl s 1993 763 m -132 Y s 1993 631 m cl s 3 lw 381 997 505 1046 629 1055 753 1027 877 1014 1001 927 1125 911 1249 911 1373 911 1497 777 1621 777 11 { m20} R 6 lw 3 lw 1869 777 1993 777 2 { m20} R 6 lw 3 lw 319 584 m 1860 X s
 319 584 m cl s 381 584 m cl s 443 584 m cl s 505 584 m cl s 567 584 m cl s 629 584 m cl s 691 584 m cl s 753 584 m cl s 815 584 m cl s 877 584 m cl s 939 584 m cl s 1001 584 m cl s 1063 584 m cl s 1125 584 m cl s 1187 584 m cl s 1249 584 m cl s 1311
 584 m cl s 1373 584 m cl s 1435 584 m cl s 1497 584 m cl s 1559 584 m cl s 1621 584 m cl s 1683 584 m cl s 1745 584 m cl s 1807 584 m cl s 1869 584 m cl s 1931 584 m cl s 1993 584 m cl s 2055 584 m cl s 2117 584 m cl s 2179 584 m cl s 319 1729 m
 1860 X s 319 1729 m cl s 381 1729 m cl s 443 1729 m cl s 505 1729 m cl s 567 1729 m cl s 629 1729 m cl s 691 1729 m cl s 753 1729 m cl s 815 1729 m cl s 877 1729 m cl s 939 1729 m cl s 1001 1729 m cl s 1063 1729 m cl s 1125 1729 m cl s 1187 1729 m
 cl s 1249 1729 m cl s 1311 1729 m cl s 1373 1729 m cl s 1435 1729 m cl s 1497 1729 m cl s 1559 1729 m cl s 1621 1729 m cl s 1683 1729 m cl s 1745 1729 m cl s 1807 1729 m cl s 1869 1729 m cl s 1931 1729 m cl s 1993 1729 m cl s 2055 1729 m cl s 2117
 1729 m cl s 2179 1729 m cl s 319 584 m 1145 Y s 341 642 m -22 X s 341 676 m -22 X s 341 700 m -22 X s 341 719 m -22 X s 341 734 m -22 X s 341 747 m -22 X s 341 758 m -22 X s 341 768 m -22 X s 363 777 m -44 X s 341 835 m -22 X s 341 869 m -22 X s 341
 893 m -22 X s 341 911 m -22 X s 341 927 m -22 X s 341 939 m -22 X s 341 951 m -22 X s 341 960 m -22 X s 363 969 m -44 X s 341 1027 m -22 X s 341 1061 m -22 X s 341 1085 m -22 X s 341 1104 m -22 X s 341 1119 m -22 X s 341 1132 m -22 X s 341 1143 m
 -22 X s 341 1153 m -22 X s 363 1162 m -44 X s 341 1220 m -22 X s 341 1253 m -22 X s 341 1278 m -22 X s 341 1296 m -22 X s 341 1311 m -22 X s 341 1324 m -22 X s 341 1335 m -22 X s 341 1345 m -22 X s 363 1354 m -44 X s 341 1412 m -22 X s 341 1446 m
 -22 X s 341 1470 m -22 X s 341 1489 m -22 X s 341 1504 m -22 X s 341 1517 m -22 X s 341 1528 m -22 X s 341 1538 m -22 X s 363 1547 m -44 X s 341 1605 m -22 X s 341 1638 m -22 X s 341 1662 m -22 X s 341 1681 m -22 X s 341 1696 m -22 X s 341 1709 m
 -22 X s 341 1720 m -22 X s 2179 584 m 1145 Y s 2157 642 m 22 X s 2157 676 m 22 X s 2157 700 m 22 X s 2157 719 m 22 X s 2157 734 m 22 X s 2157 747 m 22 X s 2157 758 m 22 X s 2157 768 m 22 X s 2136 777 m 43 X s 2157 835 m 22 X s 2157 869 m 22 X s 2157
 893 m 22 X s 2157 911 m 22 X s 2157 927 m 22 X s 2157 939 m 22 X s 2157 951 m 22 X s 2157 960 m 22 X s 2136 969 m 43 X s 2157 1027 m 22 X s 2157 1061 m 22 X s 2157 1085 m 22 X s 2157 1104 m 22 X s 2157 1119 m 22 X s 2157 1132 m 22 X s 2157 1143 m 22
 X s 2157 1153 m 22 X s 2136 1162 m 43 X s 2157 1220 m 22 X s 2157 1253 m 22 X s 2157 1278 m 22 X s 2157 1296 m 22 X s 2157 1311 m 22 X s 2157 1324 m 22 X s 2157 1335 m 22 X s 2157 1345 m 22 X s 2136 1354 m 43 X s 2157 1412 m 22 X s 2157 1446 m 22 X
 s 2157 1470 m 22 X s 2157 1489 m 22 X s 2157 1504 m 22 X s 2157 1517 m 22 X s 2157 1528 m 22 X s 2157 1538 m 22 X s 2136 1547 m 43 X s 2157 1605 m 22 X s 2157 1638 m 22 X s 2157 1662 m 22 X s 2157 1681 m 22 X s 2157 1696 m 22 X s 2157 1709 m 22 X s
 2157 1720 m 22 X s
 gsave  2263 1770 2 313 C 406.765 1447.41 t 0 r /Helvetica findfont 64.4212 sf 0 0 m (VR0LmetSig for MB\255GGo) show NC gr 
 gsave  2263 1770 2 313 C 1464.36 1630.45 t 0 r /Helvetica findfont 64.4212 sf 0 0 m (SM Total) show NC gr  1 1 1 c 1338 1616 m 107 X 64 Y -107 X f 1 0 0 c 6 lw 1338 1648 m 107 X s black
 gsave  2263 1770 2 313 C 1464.36 1538.93 t 0 r /Helvetica findfont 64.4212 sf 0 0 m (Data) show NC gr  1391 1529 m 55 Y s 3 lw 1391 1557 m20 6 lw
 gsave  2263 1770 2 313 C 1464.36 1447.41 t 0 r /Helvetica findfont 64.4212 sf 0 0 m (W+jets) show NC gr  0.4 0.6 1 c 3 lw 1338 1434 m 107 X 64 Y -107 X f 6 lw black 3 lw 1338 1498 m 107 X s 1338 1434 m 107 X s 1445 1434 m 64 Y s 1338 1434 m 64 Y s
 gsave  2263 1770 2 313 C 1498.25 1355.88 t 0 r /Helvetica findfont 64.4212 sf 0 0 m (\(+EW\) & single top) show NC gr 
 gsave  2263 1770 2 313 C 1481.3 1355.88 t 0 r /Helvetica findfont 64.4212 sf 0 0 m (t) show NC gr  1481 1407 m 17 X s
 gsave  2263 1770 2 313 C 1464.36 1355.88 t 0 r /Helvetica findfont 64.4212 sf 0 0 m (t) show NC gr  0.6 1 0.6 c 1338 1343 m 107 X 63 Y -107 X f black 1338 1406 m 107 X s 1338 1343 m 107 X s 1445 1343 m 63 Y s 1338 1343 m 63 Y s
 gsave  2263 1770 2 313 C 1464.36 1264.36 t 0 r /Helvetica findfont 64.4212 sf 0 0 m (Z+jets) show NC gr  1 0.8 0.4 c 1338 1252 m 107 X 63 Y -107 X f black 1338 1315 m 107 X s 1338 1252 m 107 X s 1445 1252 m 63 Y s 1338 1252 m 63 Y s
 gsave  2263 1770 2 313 C 1464.36 1172.84 t 0 r /Helvetica findfont 64.4212 sf 0 0 m (Diboson) show NC gr  1 0.4 0.6 c 1338 1161 m 107 X 63 Y -107 X f black 1338 1224 m 107 X s 1338 1161 m 107 X s 1445 1161 m 63 Y s 1338 1161 m 63 Y s
 gsave  2263 1770 2 313 C 1464.36 1081.32 t 0 r /Helvetica findfont 64.4212 sf 0 0 m (Multi\255jet) show NC gr  0 0 0.4 c 1338 1070 m 107 X 63 Y -107 X f black 1338 1133 m 107 X s 1338 1070 m 107 X s 1445 1070 m 63 Y s 1338 1070 m 63 Y s
 gsave  2263 1770 2 313 C 911.832 1566.05 t 0 r /Helvetica findfont 44.0776 sf 0 0 m (\2551) show NC gr 
 gsave  2263 1770 2 313 C 471.17 1535.54 t 0 r /Helvetica findfont 64.4212 sf 0 0 m (=13TeV, 139 fb) show NC gr 
 gsave  2263 1770 2 313 C 440.662 1535.54 t 0 r /Helvetica findfont 64.4212 sf 0 0 m (s) show NC gr  6 lw 420 1573 m 7 -41 d s 3 lw 427 1532 m 7 61 d s 434 1593 m 37 X s 1 1 1 c 2254 561 2 2 bf black 1 1 1 c black 1860 358 318 187 bl 1 1 1 c black
 1860 358 318 187 bl 6 lw 1 1 1 c black 3 lw 380 449 m20 6 lw 3 lw 504 370 m20 6 lw 3 lw 628 358 m20 6 lw 3 lw 752 319 m20 6 lw 3 lw 876 343 m20 6 lw 3 lw 1000 267 m20 6 lw 3 lw 1124 278 m20 6 lw 3 lw 1248 339 m20 6 lw 3 lw 1372 331 m20 6 lw 3 lw
 1496 247 m20 6 lw 3 lw 1620 279 m20 6 lw 3 lw 1868 376 m20 6 lw 3 lw 1992 408 m20 6 lw 3 lw 318 187 m 1860 X s
 gsave  2254 561 2 2 C 1959.25 33.8971 t 0 r /Helvetica findfont 78.1689 sf 0 0 m ( [GeV]) show NC gr 
 gsave  2254 561 2 2 C 1901.63 13.5588 t 0 r /Helvetica findfont 50.9797 sf 0 0 m (eff) show NC gr 
 gsave  2254 561 2 2 C 1840.61 33.8971 t 0 r /Helvetica findfont 78.1689 sf 0 0 m (m) show NC gr  318 201 m -14 Y s 380 194 m -7 Y s 442 194 m -7 Y s 504 194 m -7 Y s 566 194 m -7 Y s 628 201 m -14 Y s 690 194 m -7 Y s 752 194 m -7 Y s 814 194 m -7 Y
 s 876 194 m -7 Y s 938 201 m -14 Y s 1000 194 m -7 Y s 1062 194 m -7 Y s 1124 194 m -7 Y s 1186 194 m -7 Y s 1248 201 m -14 Y s 1310 194 m -7 Y s 1372 194 m -7 Y s 1434 194 m -7 Y s 1496 194 m -7 Y s 1558 201 m -14 Y s 1620 194 m -7 Y s 1682 194 m
 -7 Y s 1744 194 m -7 Y s 1806 194 m -7 Y s 1868 201 m -14 Y s 1930 194 m -7 Y s 1992 194 m -7 Y s 2054 194 m -7 Y s 2116 194 m -7 Y s 2178 201 m -14 Y s
 gsave  2254 561 2 2 C 227.111 118.64 t 0 r /Helvetica findfont 78.1689 sf 0 0 m (1000) show NC gr 
 gsave  2254 561 2 2 C 538.964 118.64 t 0 r /Helvetica findfont 78.1689 sf 0 0 m (1500) show NC gr 
 gsave  2254 561 2 2 C 847.428 118.64 t 0 r /Helvetica findfont 78.1689 sf 0 0 m (2000) show NC gr 
 gsave  2254 561 2 2 C 1159.28 118.64 t 0 r /Helvetica findfont 78.1689 sf 0 0 m (2500) show NC gr 
 gsave  2254 561 2 2 C 1467.74 118.64 t 0 r /Helvetica findfont 78.1689 sf 0 0 m (3000) show NC gr 
 gsave  2254 561 2 2 C 1779.6 118.64 t 0 r /Helvetica findfont 78.1689 sf 0 0 m (3500) show NC gr 
 gsave  2254 561 2 2 C 2088.06 118.64 t 0 r /Helvetica findfont 78.1689 sf 0 0 m (4000) show NC gr  318 545 m 1860 X s 318 531 m 14 Y s 380 538 m 7 Y s 442 538 m 7 Y s 504 538 m 7 Y s 566 538 m 7 Y s 628 531 m 14 Y s 690 538 m 7 Y s 752 538 m 7 Y s
 814 538 m 7 Y s 876 538 m 7 Y s 938 531 m 14 Y s 1000 538 m 7 Y s 1062 538 m 7 Y s 1124 538 m 7 Y s 1186 538 m 7 Y s 1248 531 m 14 Y s 1310 538 m 7 Y s 1372 538 m 7 Y s 1434 538 m 7 Y s 1496 538 m 7 Y s 1558 531 m 14 Y s 1620 538 m 7 Y s 1682 538 m
 7 Y s 1744 538 m 7 Y s 1806 538 m 7 Y s 1868 531 m 14 Y s 1930 538 m 7 Y s 1992 538 m 7 Y s 2054 538 m 7 Y s 2116 538 m 7 Y s 2178 531 m 14 Y s 318 187 m 358 Y s
 gsave  2254 561 2 2 C 166.096 284.736 t 90 r /Helvetica findfont 67.9729 sf 0 0 m (Data/SM) show NC gr  361 203 m -43 X s 339 220 m -21 X s 339 236 m -21 X s 339 252 m -21 X s 339 268 m -21 X s 361 285 m -43 X s 339 301 m -21 X s 339 317 m -21 X s
 339 334 m -21 X s 339 350 m -21 X s 361 366 m -43 X s 339 382 m -21 X s 339 399 m -21 X s 339 415 m -21 X s 339 431 m -21 X s 361 447 m -43 X s 339 464 m -21 X s 339 480 m -21 X s 339 496 m -21 X s 339 512 m -21 X s 361 529 m -43 X s 361 203 m -43 X
 s 339 187 m -21 X s 361 529 m -43 X s
 gsave  2254 561 2 2 C 261.008 183.044 t 0 r /Helvetica findfont 57.777 sf 0 0 m (0) show NC gr 
 gsave  2254 561 2 2 C 213.552 261.008 t 0 r /Helvetica findfont 57.777 sf 0 0 m (0.5) show NC gr 
 gsave  2254 561 2 2 C 271.177 342.361 t 0 r /Helvetica findfont 57.777 sf 0 0 m (1) show NC gr 
 gsave  2254 561 2 2 C 213.552 423.714 t 0 r /Helvetica findfont 57.777 sf 0 0 m (1.5) show NC gr 
 gsave  2254 561 2 2 C 261.008 505.067 t 0 r /Helvetica findfont 57.777 sf 0 0 m (2) show NC gr  2178 187 m 358 Y s 2135 203 m 43 X s 2157 220 m 21 X s 2157 236 m 21 X s 2157 252 m 21 X s 2157 268 m 21 X s 2135 285 m 43 X s 2157 301 m 21 X s 2157 317
 m 21 X s 2157 334 m 21 X s 2157 350 m 21 X s 2135 366 m 43 X s 2157 382 m 21 X s 2157 399 m 21 X s 2157 415 m 21 X s 2157 431 m 21 X s 2135 447 m 43 X s 2157 464 m 21 X s 2157 480 m 21 X s 2157 496 m 21 X s 2157 512 m 21 X s 2135 529 m 43 X s 2135
 203 m 43 X s 2157 187 m 21 X s 2135 529 m 43 X s 9 lw 380 462 m 53 Y s 380 515 m cl s 380 435 m -51 Y s 380 384 m cl s 504 384 m 20 Y s 504 404 m cl s 504 357 m -20 Y s 504 337 m cl s 628 372 m 16 Y s 628 388 m cl s 628 345 m -16 Y s 628 329 m cl s
 752 333 m 12 Y s 752 345 m cl s 752 305 m -12 Y s 752 293 m cl s 876 357 m 21 Y s 876 378 m cl s 876 330 m -20 Y s 876 310 m cl s 1000 280 m 13 Y s 1000 293 m cl s 1000 253 m -11 Y s 1000 242 m cl s 1124 291 m 22 Y s 1124 313 m cl s 1124 264 m -18 Y
 s 1124 246 m cl s 1248 353 m 51 Y s 1248 404 m cl s 1248 326 m -45 Y s 1248 281 m cl s 1372 344 m 47 Y s 1372 391 m cl s 1372 317 m -41 Y s 1372 276 m cl s 1496 261 m 42 Y s 1496 303 m cl s 1496 233 m -22 Y s 1496 211 m cl s 1620 293 m 84 Y s 1620
 377 m cl s 1620 266 m -49 Y s 1620 217 m cl s 1868 390 m 155 Y s 1868 545 m cl s 1868 363 m -129 Y s 1868 234 m cl s 1992 421 m 124 Y s 1992 545 m cl s 1992 394 m -155 Y s 1992 239 m cl s 3 lw 380 449 504 370 628 358 752 319 876 343 1000 267 1124
 278 1248 339 1372 331 1496 247 1620 279 11 { m20} R 9 lw 3 lw 1868 376 1992 408 2 { m20} R 9 lw 1 0 0 c 6 lw black 3 lw 1 0 0 c 2178 227 m s 2178 255 m s 2178 284 m s 2178 312 m s 2178 341 m -20 -20 d s 2178 369 m -49 -48 d s 2178 398 m -77 -77 d s
 2163 411 m -91 -90 d s 2134 411 m -104 -103 d s 2106 411 m -104 -103 d s 2077 411 m -104 -103 d s 2054 417 m -110 -109 d s 2032 424 m -105 -105 d s 2004 424 m -106 -105 d s 1975 424 m -106 -105 d s 1946 424 m -105 -105 d s 1907 413 m -95 -94 d s
 1878 413 m -87 -86 d s 1849 413 m -86 -86 d s 1821 413 m -87 -86 d s 1784 405 m -79 -78 d s 1755 405 m -93 -92 d s 1726 405 m -92 -92 d s 1698 405 m -93 -92 d s 1682 418 m -106 -105 d s 1655 420 m -99 -99 d s 1626 420 m -99 -99 d s 1597 420 m -98
 -99 d s 1569 420 m -99 -99 d s 1532 411 m -91 -90 d s 1503 411 m -87 -86 d s 1474 411 m -86 -86 d s 1445 411 m -86 -86 d s 1413 407 m -83 -82 d s 1384 407 m -76 -76 d s 1355 407 m -76 -76 d s 1327 407 m -76 -76 d s 1292 401 m -70 -70 d s 1263 401 m
 -70 -70 d s 1234 401 m -70 -70 d s 1206 401 m -71 -70 d s 1178 402 m -72 -71 d s 1149 402 m -71 -71 d s 1120 402 m -59 -60 d s 1092 402 m -60 -60 d s 1063 402 m -1 -1 d s 1051 390 m -47 -48 d s 1022 390 m -47 -48 d s 994 390 m -48 -48 d s 965 390 m
 -46 -46 d s 935 388 m -45 -44 d s 906 388 m -45 -44 d s 878 388 m -45 -44 d s 849 388 m -45 -44 d s 820 388 m -44 -44 d s 791 388 m -44 -44 d s 762 388 m -44 -44 d s 734 388 m -44 -44 d s 705 388 m -36 -36 d s 669 380 m -29 -28 d s 640 380 m -29 -28
 d s 611 380 m -28 -28 d s 582 380 m -31 -31 d s 557 383 m -35 -34 d s 528 383 m -34 -34 d s 499 383 m -34 -34 d s 442 326 m -2 -2 d s 471 383 m -59 -59 d s 318 231 m s 442 383 m -59 -59 d s 318 259 m s 438 408 m -84 -84 d s 318 288 m s 409 408 m -83
 -84 d s 318 317 m s 381 408 m -63 -63 d s 352 408 m -34 -34 d s 323 408 m -5 -6 d s 6 lw black[ 4 8] 0 sd 3 lw 318 447 m 1860 X s 318 285 m 1860 X s 1 0 0 c[  12 12 ] 0 sd 6 lw 318 366 m 1860 X s
 gr  gr showpage
end
%%EOF
