%!PS-Adobe-2.0 EPSF-2.0
%%BoundingBox:  0 0 567 521
%%Title: Distributions/meffInc_distrCRY_MB-GGo_beforeFit_forThesis.eps: canvas
%%Creator: ROOT Version 6.04/16
%%CreationDate: Tue May 19 22:04:40 2020
%%DocumentNeededResources: ProcSet (FontSetInit)
%%EndComments
%%BeginProlog
80 dict begin
/s {stroke} def /l {lineto} def /m {moveto} def /t {translate} def
/r {rotate} def /rl {roll}  def /R {repeat} def
/d {rlineto} def /rm {rmoveto} def /gr {grestore} def /f {eofill} def
/c {setrgbcolor} def /black {0 setgray} def /sd {setdash} def
/cl {closepath} def /sf {scalefont setfont} def /lw {setlinewidth} def
/box {m dup 0 exch d exch 0 d 0 exch neg d cl} def
/NC{systemdict begin initclip end}def/C{NC box clip newpath}def
/bl {box s} def /bf {gsave box gsave f grestore 1 lw [] 0 sd s grestore} def /Y { 0 exch d} def /X { 0 d} def 
/K {{pop pop 0 moveto} exch kshow} bind def
/ita {/ang 15 def gsave [1 0 ang dup sin exch cos div 1 0 0] concat} def 
/mp {newpath /y exch def /x exch def} def
/side {[w .77 mul w .23 mul] .385 w mul sd w 0 l currentpoint t -144 r} def
/mr {mp x y w2 0 360 arc} def /m24 {mr s} def /m20 {mr f} def
/mb {mp x y w2 add m w2 neg 0 d 0 w neg d w 0 d 0 w d cl} def
/mt {mp x y w2 add m w2 neg w neg d w 0 d cl} def
/m21 {mb f} def /m25 {mb s} def /m22 {mt f} def /m26{mt s} def
/m23 {mp x y w2 sub m w2 w d w neg 0 d cl f} def
/m27 {mp x y w2 add m w3 neg w2 neg d w3 w2 neg d w3 w2 d cl s} def
/m28 {mp x w2 sub y w2 sub w3 add m w3 0 d  0 w3 neg d w3 0 d 0 w3 d w3 0 d  0 w3 d w3 neg 0 d 0 w3 d w3 neg 0 d 0 w3 neg d w3 neg 0 d cl s } def
/m29 {mp gsave x w2 sub y w2 add w3 sub m currentpoint t 4 {side} repeat cl fill gr} def
/m30 {mp gsave x w2 sub y w2 add w3 sub m currentpoint t 4 {side} repeat cl s gr} def
/m31 {mp x y w2 sub m 0 w d x w2 sub y m w 0 d x w2 sub y w2 add m w w neg d x w2 sub y w2 sub m w w d s} def
/m32 {mp x y w2 sub m w2 w d w neg 0 d cl s} def
/m33 {mp x y w2 add m w3 neg w2 neg d w3 w2 neg d w3 w2 d cl f} def
/m34 {mp x w2 sub y w2 sub w3 add m w3 0 d  0 w3 neg d w3 0 d 0 w3 d w3 0 d  0 w3 d w3 neg 0 d 0 w3 d w3 neg 0 d 0 w3 neg d w3 neg 0 d cl f } def
/m2 {mp x y w2 sub m 0 w d x w2 sub y m w 0 d s} def
/m5 {mp x w2 sub y w2 sub m w w d x w2 sub y w2 add m w w neg d s} def
%%IncludeResource: ProcSet (FontSetInit)
%%IncludeResource: font Times-Roman
%%IncludeResource: font Times-Italic
%%IncludeResource: font Times-Bold
%%IncludeResource: font Times-BoldItalic
%%IncludeResource: font Helvetica
%%IncludeResource: font Helvetica-Oblique
%%IncludeResource: font Helvetica-Bold
%%IncludeResource: font Helvetica-BoldOblique
%%IncludeResource: font Courier
%%IncludeResource: font Courier-Oblique
%%IncludeResource: font Courier-Bold
%%IncludeResource: font Courier-BoldOblique
%%IncludeResource: font Symbol
%%IncludeResource: font ZapfDingbats
/reEncode {exch findfont dup length dict begin {1 index /FID eq  {pop pop} {def} ifelse } forall /Encoding exch def currentdict end dup /FontName get exch definefont pop } def [/Times-Bold /Times-Italic /Times-BoldItalic /Helvetica /Helvetica-Oblique
 /Helvetica-Bold /Helvetica-BoldOblique /Courier /Courier-Oblique /Courier-Bold /Courier-BoldOblique /Times-Roman /AvantGarde-Book /AvantGarde-BookOblique /AvantGarde-Demi /AvantGarde-DemiOblique /Bookman-Demi /Bookman-DemiItalic /Bookman-Light
 /Bookman-LightItalic /Helvetica-Narrow /Helvetica-Narrow-Bold /Helvetica-Narrow-BoldOblique /Helvetica-Narrow-Oblique /NewCenturySchlbk-Roman /NewCenturySchlbk-Bold /NewCenturySchlbk-BoldItalic /NewCenturySchlbk-Italic /Palatino-Bold
 /Palatino-BoldItalic /Palatino-Italic /Palatino-Roman ] {ISOLatin1Encoding reEncode } forall
%%EndProlog
%%BeginSetup
%%EndSetup
newpath  gsave  .25 .25 scale  gsave  0 0 t black[  ] 0 sd 3 lw 1 1 1 c 2268 2085 0 0 bf black 1 1 1 c 2263 1770 2 313 bf black 1 1 1 c black 1860 1145 319 584 bl 1 1 1 c black 1860 1145 319 584 bl 6 lw 1 1 1 c black 381 941 m 10 Y s 381 978 m 5 Y s
 3 lw /w 33 def /w2 {w 2 div} def /w3 {w 3 div} def 381 965 m20 6 lw 3 lw 505 1090 m20 6 lw 3 lw 629 1082 m20 6 lw 3 lw 753 1056 m20 6 lw 877 1011 m 1 Y s 3 lw 877 1026 m20 6 lw 1001 999 m 3 Y s 3 lw 1001 1015 m20 6 lw 1125 927 m 12 Y s 1125 966 m 6
 Y s 3 lw 1125 953 m20 6 lw 1249 919 m 14 Y s 1249 960 m 7 Y s 3 lw 1249 946 m20 6 lw 1373 927 m 12 Y s 1373 966 m 6 Y s 3 lw 1373 953 m20 6 lw 1497 815 m 40 Y s 1497 882 m 18 Y s 3 lw 1497 868 m20 6 lw 1621 815 m 40 Y s 1621 882 m 18 Y s 3 lw 1621
 868 m20 6 lw 1745 720 m 81 Y s 1745 829 m 27 Y s 3 lw 1745 815 m20 6 lw 1869 584 m 164 Y s 1869 775 m 40 Y s 3 lw 1869 762 m20 6 lw 1993 584 m 164 Y s 1993 775 m 40 Y s 3 lw 1993 762 m20 6 lw 2117 720 m 81 Y s 2117 829 m 27 Y s 3 lw 2117 815 m20 6
 lw 3 lw 319 584 m 1860 X s
 gsave  2263 1770 2 313 C 1949.08 369.478 t 0 r /Helvetica findfont 81.3741 sf 0 0 m ( [GeV]) show NC gr 
 gsave  2263 1770 2 313 C 1888.07 342.361 t 0 r /Helvetica findfont 54.2494 sf 0 0 m (eff) show NC gr 
 gsave  2263 1770 2 313 C 1823.66 369.478 t 0 r /Helvetica findfont 81.3741 sf 0 0 m (m) show NC gr  319 584 m cl s 381 584 m cl s 443 584 m cl s 505 584 m cl s 567 584 m cl s 629 584 m cl s 691 584 m cl s 753 584 m cl s 815 584 m cl s 877 584 m cl s
 939 584 m cl s 1001 584 m cl s 1063 584 m cl s 1125 584 m cl s 1187 584 m cl s 1249 584 m cl s 1311 584 m cl s 1373 584 m cl s 1435 584 m cl s 1497 584 m cl s 1559 584 m cl s 1621 584 m cl s 1683 584 m cl s 1745 584 m cl s 1807 584 m cl s 1869 584 m
 cl s 1931 584 m cl s 1993 584 m cl s 2055 584 m cl s 2117 584 m cl s 2179 584 m cl s 319 1729 m 1860 X s 319 1729 m cl s 381 1729 m cl s 443 1729 m cl s 505 1729 m cl s 567 1729 m cl s 629 1729 m cl s 691 1729 m cl s 753 1729 m cl s 815 1729 m cl s
 877 1729 m cl s 939 1729 m cl s 1001 1729 m cl s 1063 1729 m cl s 1125 1729 m cl s 1187 1729 m cl s 1249 1729 m cl s 1311 1729 m cl s 1373 1729 m cl s 1435 1729 m cl s 1497 1729 m cl s 1559 1729 m cl s 1621 1729 m cl s 1683 1729 m cl s 1745 1729 m
 cl s 1807 1729 m cl s 1869 1729 m cl s 1931 1729 m cl s 1993 1729 m cl s 2055 1729 m cl s 2117 1729 m cl s 2179 1729 m cl s 319 584 m 1145 Y s
 gsave  2263 1770 2 313 C 166.096 1091.49 t 90 r /Helvetica findfont 81.3741 sf 0 0 m (Events / 200 GeV) show NC gr  341 638 m -22 X s 341 669 m -22 X s 341 691 m -22 X s 341 708 m -22 X s 341 722 m -22 X s 341 734 m -22 X s 341 744 m -22 X s 341 753
 m -22 X s 363 762 m -44 X s
 gsave  2263 1770 2 313 C 300.555 734.484 t 0 r  -36 0 t /Helvetica findfont 64.4212 sf 0 0 m (1) show NC gr  341 815 m -22 X s 341 846 m -22 X s 341 868 m -22 X s 341 886 m -22 X s 341 900 m -22 X s 341 911 m -22 X s 341 922 m -22 X s 341 931 m -22
 X s 363 939 m -44 X s
 gsave  2263 1770 2 313 C 300.555 911.776 t 0 r  -73 0 t /Helvetica findfont 64.4212 sf 0 0 m (10) show NC gr  341 992 m -22 X s 341 1023 m -22 X s 341 1046 m -22 X s 341 1063 m -22 X s 341 1077 m -22 X s 341 1089 m -22 X s 341 1099 m -22 X s 341
 1108 m -22 X s 363 1116 m -44 X s
 gsave  2263 1770 2 313 C 274.567 1115.21 t 0 r /Helvetica findfont 44.0776 sf 0 0 m (2) show NC gr 
 gsave  2263 1770 2 313 C 203.383 1088.1 t 0 r /Helvetica findfont 64.4212 sf 0 0 m (10) show NC gr  341 1170 m -22 X s 341 1201 m -22 X s 341 1223 m -22 X s 341 1240 m -22 X s 341 1254 m -22 X s 341 1266 m -22 X s 341 1276 m -22 X s 341 1285 m -22 X
 s 363 1293 m -44 X s
 gsave  2263 1770 2 313 C 274.567 1294.87 t 0 r /Helvetica findfont 44.0776 sf 0 0 m (3) show NC gr 
 gsave  2263 1770 2 313 C 203.383 1264.36 t 0 r /Helvetica findfont 64.4212 sf 0 0 m (10) show NC gr  341 1347 m -22 X s 341 1378 m -22 X s 341 1400 m -22 X s 341 1417 m -22 X s 341 1431 m -22 X s 341 1443 m -22 X s 341 1454 m -22 X s 341 1463 m -22
 X s 363 1471 m -44 X s
 gsave  2263 1770 2 313 C 274.567 1467.74 t 0 r /Helvetica findfont 44.0776 sf 0 0 m (4) show NC gr 
 gsave  2263 1770 2 313 C 203.383 1440.63 t 0 r /Helvetica findfont 64.4212 sf 0 0 m (10) show NC gr  341 1524 m -22 X s 341 1555 m -22 X s 341 1578 m -22 X s 341 1595 m -22 X s 341 1609 m -22 X s 341 1621 m -22 X s 341 1631 m -22 X s 341 1640 m -22
 X s 363 1648 m -44 X s
 gsave  2263 1770 2 313 C 274.567 1650.79 t 0 r /Helvetica findfont 44.0776 sf 0 0 m (5) show NC gr 
 gsave  2263 1770 2 313 C 203.383 1620.28 t 0 r /Helvetica findfont 64.4212 sf 0 0 m (10) show NC gr  341 1701 m -22 X s 2179 584 m 1145 Y s 2157 638 m 22 X s 2157 669 m 22 X s 2157 691 m 22 X s 2157 708 m 22 X s 2157 722 m 22 X s 2157 734 m 22 X s
 2157 744 m 22 X s 2157 753 m 22 X s 2136 762 m 43 X s 2157 815 m 22 X s 2157 846 m 22 X s 2157 868 m 22 X s 2157 886 m 22 X s 2157 900 m 22 X s 2157 911 m 22 X s 2157 922 m 22 X s 2157 931 m 22 X s 2136 939 m 43 X s 2157 992 m 22 X s 2157 1023 m 22
 X s 2157 1046 m 22 X s 2157 1063 m 22 X s 2157 1077 m 22 X s 2157 1089 m 22 X s 2157 1099 m 22 X s 2157 1108 m 22 X s 2136 1116 m 43 X s 2157 1170 m 22 X s 2157 1201 m 22 X s 2157 1223 m 22 X s 2157 1240 m 22 X s 2157 1254 m 22 X s 2157 1266 m 22 X
 s 2157 1276 m 22 X s 2157 1285 m 22 X s 2136 1293 m 43 X s 2157 1347 m 22 X s 2157 1378 m 22 X s 2157 1400 m 22 X s 2157 1417 m 22 X s 2157 1431 m 22 X s 2157 1443 m 22 X s 2157 1454 m 22 X s 2157 1463 m 22 X s 2136 1471 m 43 X s 2157 1524 m 22 X s
 2157 1555 m 22 X s 2157 1578 m 22 X s 2157 1595 m 22 X s 2157 1609 m 22 X s 2157 1621 m 22 X s 2157 1631 m 22 X s 2157 1640 m 22 X s 2136 1648 m 43 X s 2157 1701 m 22 X s 1 1 0 c black 1 1 0 c 319 584 m 418 Y 124 X 95 Y 124 X 15 Y 124 X -25 Y 124 X
 -10 Y 124 X -42 Y 124 X -17 Y 124 X -32 Y 124 X -15 Y 124 X -18 Y 124 X -91 Y 124 X -20 Y 124 X -30 Y 124 X -30 Y 124 X 58 Y 124 X -256 Y f black 1 1 0 c black 319 1002 m 124 X 95 Y 124 X 15 Y 124 X -25 Y 124 X -10 Y 124 X -42 Y 124 X -17 Y 124 X
 -32 Y 124 X -15 Y 124 X -18 Y 124 X -91 Y 124 X -20 Y 124 X -30 Y 124 X -30 Y 124 X 58 Y 124 X s 0.999 0.999 0.999 c black 0.999 0.999 0.999 c 319 584 m 167 Y 124 X 53 Y 124 X -1 Y 124 X -11 Y 124 X -70 Y 124 X 34 Y 124 X -7 Y 124 X -97 Y 124 X -68
 Y 744 X 70 Y 124 X -70 Y f black 0.999 0.999 0.999 c black 319 751 m 124 X 53 Y 124 X -1 Y 124 X -11 Y 124 X -70 Y 124 X 34 Y 124 X -7 Y 124 X -97 Y 124 X -68 Y 744 X 70 Y 124 X s 1 1 1 c black 319 751 m 124 X 53 Y 124 X -1 Y 124 X -11 Y 124 X -70 Y
 124 X 34 Y 124 X -7 Y 124 X -97 Y 124 X -68 Y 744 X 70 Y 124 X s 0.4 0.6 1 c black 0.4 0.6 1 c 319 584 m 167 Y 124 X 53 Y 124 X -1 Y 124 X -11 Y 124 X -70 Y 124 X 34 Y 124 X -7 Y 124 X -97 Y 124 X -68 Y 744 X 70 Y 124 X -70 Y f black 0.4 0.6 1 c
 black 319 751 m 124 X 53 Y 124 X -1 Y 124 X -11 Y 124 X -70 Y 124 X 34 Y 124 X -7 Y 124 X -97 Y 124 X -68 Y 744 X 70 Y 124 X s 0.999 0.999 0.999 c black 0.999 0.999 0.999 c 319 584 m 167 Y 124 X 51 Y 124 X -20 Y 124 X 1 Y 124 X -90 Y 124 X 52 Y 124
 X -9 Y 124 X -144 Y 124 X -8 Y 744 X 70 Y 124 X -70 Y f black 0.999 0.999 0.999 c black 319 751 m 124 X 51 Y 124 X -20 Y 124 X 1 Y 124 X -90 Y 124 X 52 Y 124 X -9 Y 124 X -144 Y 124 X -8 Y 744 X 70 Y 124 X s 1 1 1 c black 319 751 m 124 X 51 Y 124 X
 -20 Y 124 X 1 Y 124 X -90 Y 124 X 52 Y 124 X -9 Y 124 X -144 Y 124 X -8 Y 744 X 70 Y 124 X s 0.6 1 0.6 c black 0.6 1 0.6 c 319 584 m 167 Y 124 X 51 Y 124 X -20 Y 124 X 1 Y 124 X -90 Y 124 X 52 Y 124 X -9 Y 124 X -144 Y 124 X -8 Y 744 X 70 Y 124 X
 -70 Y f black 0.6 1 0.6 c black 319 751 m 124 X 51 Y 124 X -20 Y 124 X 1 Y 124 X -90 Y 124 X 52 Y 124 X -9 Y 124 X -144 Y 124 X -8 Y 744 X 70 Y 124 X s 0.999 0.999 0.999 c black 0.999 0.999 0.999 c 319 584 m 372 X 82 Y 124 X -82 Y 1364 X f black
 0.999 0.999 0.999 c black 319 584 m 372 X 82 Y 124 X -82 Y 1364 X s 1 1 1 c black 319 584 m 372 X 82 Y 124 X -82 Y 1364 X s 1 0.4 0.6 c black 1 0.4 0.6 c 319 584 m 372 X 82 Y 124 X -82 Y 1364 X f black 1 0.4 0.6 c black 319 584 m 372 X 82 Y 124 X
 -82 Y 1364 X s 1 0 0 c 6 lw 1 1 1 c black 1 0 0 c 319 1002 m 124 X 95 Y 124 X 15 Y 124 X -25 Y 124 X -10 Y 124 X -42 Y 124 X -17 Y 124 X -32 Y 124 X -15 Y 124 X -18 Y 124 X -91 Y 124 X -20 Y 124 X -30 Y 124 X -30 Y 124 X 58 Y 124 X s black 3 lw 1 0
 0 c 1 lw << /PatternType 1 /PaintType 2 /TilingType 1 /BBox [ 0 0 100 100 ] /XStep 100 /YStep 100 /PaintProc { begin gsave 0 100 m 100 0 l s gr end } >> [ 0.24 0 0 0.24 0 0 ] makepattern /P05 exch def /cs {[/Pattern /DeviceRGB] setcolorspace} def
 /FA {f [/DeviceRGB] setcolorspace} def cs 1 0 0 P05 setcolor 319 584 m 436 Y 124 X 84 Y 124 X 16 Y 124 X -22 Y 124 X -10 Y 124 X -41 Y 124 X -21 Y 124 X -30 Y 124 X -7 Y 124 X -14 Y 124 X -97 Y 124 X -21 Y 124 X -26 Y 124 X -29 Y 124 X 52 Y 124 X
 -270 Y 238 Y -124 X -66 Y -124 X 31 Y -124 X 36 Y -124 X 18 Y -124 X 82 Y -124 X 24 Y -124 X 28 Y -124 X 34 Y -124 X 13 Y -124 X 41 Y -124 X 11 Y -124 X 30 Y -124 X -15 Y -124 X -110 Y -124 X -395 Y FA 6 lw 1 1 1 c 15 lw 381 944 m -3 Y s 381 941 m
 cl s 1125 933 m -6 Y s 1125 927 m cl s 1249 967 m s 1249 967 m cl s 1249 926 m -7 Y s 1249 919 m cl s 1373 933 m -6 Y s 1373 927 m cl s 1497 889 m 12 Y s 1497 901 m cl s 1497 848 m -30 Y s 1497 818 m cl s 1621 889 m 12 Y s 1621 901 m cl s 1621 848 m
 -30 Y s 1621 818 m cl s 1745 835 m 26 Y s 1745 861 m cl s 1745 795 m -60 Y s 1745 735 m cl s 1869 782 m 43 Y s 1869 825 m cl s 1869 741 m -114 Y s 1869 627 m cl s 1993 782 m 43 Y s 1993 825 m cl s 1993 741 m -114 Y s 1993 627 m cl s 2117 835 m 26 Y
 s 2117 861 m cl s 2117 795 m -60 Y s 2117 735 m cl s black 1 1 1 c 3 lw /w 43 def /w2 {w 2 div} def /w3 {w 3 div} def 381 965 505 1090 629 1082 753 1056 877 1026 1001 1015 1125 953 1249 946 1373 953 1497 868 1621 868 1745 815 1869 762 1993 762 2117
 815 15 { m20} R 15 lw black 6 lw 1 1 1 c black 381 941 m 10 Y s 381 978 m 5 Y s 3 lw /w 33 def /w2 {w 2 div} def /w3 {w 3 div} def 381 965 m20 6 lw 3 lw 505 1090 m20 6 lw 3 lw 629 1082 m20 6 lw 3 lw 753 1056 m20 6 lw 877 1011 m 1 Y s 3 lw 877 1026
 m20 6 lw 1001 999 m 3 Y s 3 lw 1001 1015 m20 6 lw 1125 927 m 12 Y s 1125 966 m 6 Y s 3 lw 1125 953 m20 6 lw 1249 919 m 14 Y s 1249 960 m 7 Y s 3 lw 1249 946 m20 6 lw 1373 927 m 12 Y s 1373 966 m 6 Y s 3 lw 1373 953 m20 6 lw 1497 815 m 40 Y s 1497
 882 m 18 Y s 3 lw 1497 868 m20 6 lw 1621 815 m 40 Y s 1621 882 m 18 Y s 3 lw 1621 868 m20 6 lw 1745 720 m 81 Y s 1745 829 m 27 Y s 3 lw 1745 815 m20 6 lw 1869 584 m 164 Y s 1869 775 m 40 Y s 3 lw 1869 762 m20 6 lw 1993 584 m 164 Y s 1993 775 m 40 Y
 s 3 lw 1993 762 m20 6 lw 2117 720 m 81 Y s 2117 829 m 27 Y s 3 lw 2117 815 m20 6 lw 381 978 m 5 Y s 381 983 m cl s 381 951 m -10 Y s 381 941 m cl s 877 1012 m -1 Y s 877 1011 m cl s 1001 1029 m s 1001 1029 m cl s 1001 1002 m -3 Y s 1001 999 m cl s
 1125 966 m 7 Y s 1125 973 m cl s 1125 939 m -12 Y s 1125 927 m cl s 1249 960 m 7 Y s 1249 967 m cl s 1249 933 m -14 Y s 1249 919 m cl s 1373 966 m 7 Y s 1373 973 m cl s 1373 939 m -12 Y s 1373 927 m cl s 1497 882 m 19 Y s 1497 901 m cl s 1497 855 m
 -37 Y s 1497 818 m cl s 1621 882 m 19 Y s 1621 901 m cl s 1621 855 m -37 Y s 1621 818 m cl s 1745 829 m 32 Y s 1745 861 m cl s 1745 801 m -66 Y s 1745 735 m cl s 1869 775 m 50 Y s 1869 825 m cl s 1869 748 m -121 Y s 1869 627 m cl s 1993 775 m 50 Y s
 1993 825 m cl s 1993 748 m -121 Y s 1993 627 m cl s 2117 829 m 32 Y s 2117 861 m cl s 2117 801 m -66 Y s 2117 735 m cl s 3 lw 381 965 505 1090 629 1082 753 1056 877 1026 1001 1015 1125 953 1249 946 1373 953 1497 868 1621 868 1745 815 1869 762 1993
 762 2117 815 15 { m20} R 6 lw 3 lw 319 584 m 1860 X s 319 584 m cl s 381 584 m cl s 443 584 m cl s 505 584 m cl s 567 584 m cl s 629 584 m cl s 691 584 m cl s 753 584 m cl s 815 584 m cl s 877 584 m cl s 939 584 m cl s 1001 584 m cl s 1063 584 m cl
 s 1125 584 m cl s 1187 584 m cl s 1249 584 m cl s 1311 584 m cl s 1373 584 m cl s 1435 584 m cl s 1497 584 m cl s 1559 584 m cl s 1621 584 m cl s 1683 584 m cl s 1745 584 m cl s 1807 584 m cl s 1869 584 m cl s 1931 584 m cl s 1993 584 m cl s 2055
 584 m cl s 2117 584 m cl s 2179 584 m cl s 319 1729 m 1860 X s 319 1729 m cl s 381 1729 m cl s 443 1729 m cl s 505 1729 m cl s 567 1729 m cl s 629 1729 m cl s 691 1729 m cl s 753 1729 m cl s 815 1729 m cl s 877 1729 m cl s 939 1729 m cl s 1001 1729
 m cl s 1063 1729 m cl s 1125 1729 m cl s 1187 1729 m cl s 1249 1729 m cl s 1311 1729 m cl s 1373 1729 m cl s 1435 1729 m cl s 1497 1729 m cl s 1559 1729 m cl s 1621 1729 m cl s 1683 1729 m cl s 1745 1729 m cl s 1807 1729 m cl s 1869 1729 m cl s 1931
 1729 m cl s 1993 1729 m cl s 2055 1729 m cl s 2117 1729 m cl s 2179 1729 m cl s 319 584 m 1145 Y s 341 638 m -22 X s 341 669 m -22 X s 341 691 m -22 X s 341 708 m -22 X s 341 722 m -22 X s 341 734 m -22 X s 341 744 m -22 X s 341 753 m -22 X s 363
 762 m -44 X s 341 815 m -22 X s 341 846 m -22 X s 341 868 m -22 X s 341 886 m -22 X s 341 900 m -22 X s 341 911 m -22 X s 341 922 m -22 X s 341 931 m -22 X s 363 939 m -44 X s 341 992 m -22 X s 341 1023 m -22 X s 341 1046 m -22 X s 341 1063 m -22 X
 s 341 1077 m -22 X s 341 1089 m -22 X s 341 1099 m -22 X s 341 1108 m -22 X s 363 1116 m -44 X s 341 1170 m -22 X s 341 1201 m -22 X s 341 1223 m -22 X s 341 1240 m -22 X s 341 1254 m -22 X s 341 1266 m -22 X s 341 1276 m -22 X s 341 1285 m -22 X s
 363 1293 m -44 X s 341 1347 m -22 X s 341 1378 m -22 X s 341 1400 m -22 X s 341 1417 m -22 X s 341 1431 m -22 X s 341 1443 m -22 X s 341 1454 m -22 X s 341 1463 m -22 X s 363 1471 m -44 X s 341 1524 m -22 X s 341 1555 m -22 X s 341 1578 m -22 X s
 341 1595 m -22 X s 341 1609 m -22 X s 341 1621 m -22 X s 341 1631 m -22 X s 341 1640 m -22 X s 363 1648 m -44 X s 341 1701 m -22 X s 2179 584 m 1145 Y s 2157 638 m 22 X s 2157 669 m 22 X s 2157 691 m 22 X s 2157 708 m 22 X s 2157 722 m 22 X s 2157
 734 m 22 X s 2157 744 m 22 X s 2157 753 m 22 X s 2136 762 m 43 X s 2157 815 m 22 X s 2157 846 m 22 X s 2157 868 m 22 X s 2157 886 m 22 X s 2157 900 m 22 X s 2157 911 m 22 X s 2157 922 m 22 X s 2157 931 m 22 X s 2136 939 m 43 X s 2157 992 m 22 X s
 2157 1023 m 22 X s 2157 1046 m 22 X s 2157 1063 m 22 X s 2157 1077 m 22 X s 2157 1089 m 22 X s 2157 1099 m 22 X s 2157 1108 m 22 X s 2136 1116 m 43 X s 2157 1170 m 22 X s 2157 1201 m 22 X s 2157 1223 m 22 X s 2157 1240 m 22 X s 2157 1254 m 22 X s
 2157 1266 m 22 X s 2157 1276 m 22 X s 2157 1285 m 22 X s 2136 1293 m 43 X s 2157 1347 m 22 X s 2157 1378 m 22 X s 2157 1400 m 22 X s 2157 1417 m 22 X s 2157 1431 m 22 X s 2157 1443 m 22 X s 2157 1454 m 22 X s 2157 1463 m 22 X s 2136 1471 m 43 X s
 2157 1524 m 22 X s 2157 1555 m 22 X s 2157 1578 m 22 X s 2157 1595 m 22 X s 2157 1609 m 22 X s 2157 1621 m 22 X s 2157 1631 m 22 X s 2157 1640 m 22 X s 2136 1648 m 43 X s 2157 1701 m 22 X s
 gsave  2263 1770 2 313 C 406.765 1447.41 t 0 r /Helvetica findfont 64.4212 sf 0 0 m (CRY for MB\255GGo) show NC gr 
 gsave  2263 1770 2 313 C 1464.36 1616.89 t 0 r /Helvetica findfont 64.4212 sf 0 0 m (SM Total) show NC gr  1 1 1 c 1338 1603 m 107 X 74 Y -107 X f 1 0 0 c 6 lw 1338 1640 m 107 X s black
 gsave  2263 1770 2 313 C 1464.36 1511.81 t 0 r /Helvetica findfont 64.4212 sf 0 0 m (Data) show NC gr  1391 1502 m 64 Y s 3 lw 1391 1534 m20 6 lw
 gsave  2263 1770 2 313 C 1464.36 1406.73 t 0 r /Helvetica findfont 64.4212 sf 0 0 m (GAMMAjets) show NC gr  1 1 0 c 3 lw 1338 1391 m 107 X 74 Y -107 X f 6 lw black 3 lw 1338 1465 m 107 X s 1338 1391 m 107 X s 1445 1391 m 74 Y s 1338 1391 m 74 Y s
 gsave  2263 1770 2 313 C 1464.36 1298.26 t 0 r /Helvetica findfont 64.4212 sf 0 0 m (W+jets) show NC gr  0.4 0.6 1 c 1338 1284 m 107 X 75 Y -107 X f black 1338 1359 m 107 X s 1338 1284 m 107 X s 1445 1284 m 75 Y s 1338 1284 m 75 Y s
 gsave  2263 1770 2 313 C 1498.25 1193.18 t 0 r /Helvetica findfont 64.4212 sf 0 0 m (\(+EW\) & single top) show NC gr 
 gsave  2263 1770 2 313 C 1481.3 1193.18 t 0 r /Helvetica findfont 64.4212 sf 0 0 m (t) show NC gr  1481 1244 m 17 X s
 gsave  2263 1770 2 313 C 1464.36 1193.18 t 0 r /Helvetica findfont 64.4212 sf 0 0 m (t) show NC gr  0.6 1 0.6 c 1338 1178 m 107 X 75 Y -107 X f black 1338 1253 m 107 X s 1338 1178 m 107 X s 1445 1178 m 75 Y s 1338 1178 m 75 Y s
 gsave  2263 1770 2 313 C 1464.36 1088.1 t 0 r /Helvetica findfont 64.4212 sf 0 0 m (Diboson) show NC gr  1 0.4 0.6 c 1338 1072 m 107 X 74 Y -107 X f black 1338 1146 m 107 X s 1338 1072 m 107 X s 1445 1072 m 74 Y s 1338 1072 m 74 Y s
 gsave  2263 1770 2 313 C 911.832 1566.05 t 0 r /Helvetica findfont 44.0776 sf 0 0 m (\2551) show NC gr 
 gsave  2263 1770 2 313 C 471.17 1535.54 t 0 r /Helvetica findfont 64.4212 sf 0 0 m (=13TeV, 139 fb) show NC gr 
 gsave  2263 1770 2 313 C 440.662 1535.54 t 0 r /Helvetica findfont 64.4212 sf 0 0 m (s) show NC gr  6 lw 420 1573 m 7 -41 d s 3 lw 427 1532 m 7 61 d s 434 1593 m 37 X s 1 1 1 c 2254 561 2 2 bf black 1 1 1 c black 1860 358 318 187 bl 1 1 1 c black
 1860 358 318 187 bl 6 lw 1 1 1 c black 3 lw 380 304 m20 6 lw 3 lw 504 352 m20 6 lw 3 lw 628 313 m20 6 lw 3 lw 752 313 m20 6 lw 3 lw 876 288 m20 6 lw 3 lw 1000 329 m20 6 lw 3 lw 1124 273 m20 6 lw 3 lw 1248 300 m20 6 lw 3 lw 1372 333 m20 6 lw 3 lw
 1496 258 m20 6 lw 3 lw 1620 380 m20 6 lw 3 lw 1744 318 m20 6 lw 3 lw 1868 288 m20 6 lw 3 lw 1992 327 m20 6 lw 3 lw 2116 321 m20 6 lw 3 lw 318 187 m 1860 X s
 gsave  2254 561 2 2 C 1959.25 33.8971 t 0 r /Helvetica findfont 78.1689 sf 0 0 m ( [GeV]) show NC gr 
 gsave  2254 561 2 2 C 1901.63 13.5588 t 0 r /Helvetica findfont 50.9797 sf 0 0 m (eff) show NC gr 
 gsave  2254 561 2 2 C 1840.61 33.8971 t 0 r /Helvetica findfont 78.1689 sf 0 0 m (m) show NC gr  318 201 m -14 Y s 380 194 m -7 Y s 442 194 m -7 Y s 504 194 m -7 Y s 566 194 m -7 Y s 628 201 m -14 Y s 690 194 m -7 Y s 752 194 m -7 Y s 814 194 m -7 Y
 s 876 194 m -7 Y s 938 201 m -14 Y s 1000 194 m -7 Y s 1062 194 m -7 Y s 1124 194 m -7 Y s 1186 194 m -7 Y s 1248 201 m -14 Y s 1310 194 m -7 Y s 1372 194 m -7 Y s 1434 194 m -7 Y s 1496 194 m -7 Y s 1558 201 m -14 Y s 1620 194 m -7 Y s 1682 194 m
 -7 Y s 1744 194 m -7 Y s 1806 194 m -7 Y s 1868 201 m -14 Y s 1930 194 m -7 Y s 1992 194 m -7 Y s 2054 194 m -7 Y s 2116 194 m -7 Y s 2178 201 m -14 Y s
 gsave  2254 561 2 2 C 227.111 118.64 t 0 r /Helvetica findfont 78.1689 sf 0 0 m (1000) show NC gr 
 gsave  2254 561 2 2 C 538.964 118.64 t 0 r /Helvetica findfont 78.1689 sf 0 0 m (1500) show NC gr 
 gsave  2254 561 2 2 C 847.428 118.64 t 0 r /Helvetica findfont 78.1689 sf 0 0 m (2000) show NC gr 
 gsave  2254 561 2 2 C 1159.28 118.64 t 0 r /Helvetica findfont 78.1689 sf 0 0 m (2500) show NC gr 
 gsave  2254 561 2 2 C 1467.74 118.64 t 0 r /Helvetica findfont 78.1689 sf 0 0 m (3000) show NC gr 
 gsave  2254 561 2 2 C 1779.6 118.64 t 0 r /Helvetica findfont 78.1689 sf 0 0 m (3500) show NC gr 
 gsave  2254 561 2 2 C 2088.06 118.64 t 0 r /Helvetica findfont 78.1689 sf 0 0 m (4000) show NC gr  318 545 m 1860 X s 318 531 m 14 Y s 380 538 m 7 Y s 442 538 m 7 Y s 504 538 m 7 Y s 566 538 m 7 Y s 628 531 m 14 Y s 690 538 m 7 Y s 752 538 m 7 Y s
 814 538 m 7 Y s 876 538 m 7 Y s 938 531 m 14 Y s 1000 538 m 7 Y s 1062 538 m 7 Y s 1124 538 m 7 Y s 1186 538 m 7 Y s 1248 531 m 14 Y s 1310 538 m 7 Y s 1372 538 m 7 Y s 1434 538 m 7 Y s 1496 538 m 7 Y s 1558 531 m 14 Y s 1620 538 m 7 Y s 1682 538 m
 7 Y s 1744 538 m 7 Y s 1806 538 m 7 Y s 1868 531 m 14 Y s 1930 538 m 7 Y s 1992 538 m 7 Y s 2054 538 m 7 Y s 2116 538 m 7 Y s 2178 531 m 14 Y s 318 187 m 358 Y s
 gsave  2254 561 2 2 C 166.096 284.736 t 90 r /Helvetica findfont 67.9729 sf 0 0 m (Data/SM) show NC gr  361 203 m -43 X s 339 220 m -21 X s 339 236 m -21 X s 339 252 m -21 X s 339 268 m -21 X s 361 285 m -43 X s 339 301 m -21 X s 339 317 m -21 X s
 339 334 m -21 X s 339 350 m -21 X s 361 366 m -43 X s 339 382 m -21 X s 339 399 m -21 X s 339 415 m -21 X s 339 431 m -21 X s 361 447 m -43 X s 339 464 m -21 X s 339 480 m -21 X s 339 496 m -21 X s 339 512 m -21 X s 361 529 m -43 X s 361 203 m -43 X
 s 339 187 m -21 X s 361 529 m -43 X s
 gsave  2254 561 2 2 C 261.008 183.044 t 0 r /Helvetica findfont 57.777 sf 0 0 m (0) show NC gr 
 gsave  2254 561 2 2 C 213.552 261.008 t 0 r /Helvetica findfont 57.777 sf 0 0 m (0.5) show NC gr 
 gsave  2254 561 2 2 C 271.177 342.361 t 0 r /Helvetica findfont 57.777 sf 0 0 m (1) show NC gr 
 gsave  2254 561 2 2 C 213.552 423.714 t 0 r /Helvetica findfont 57.777 sf 0 0 m (1.5) show NC gr 
 gsave  2254 561 2 2 C 261.008 505.067 t 0 r /Helvetica findfont 57.777 sf 0 0 m (2) show NC gr  2178 187 m 358 Y s 2135 203 m 43 X s 2157 220 m 21 X s 2157 236 m 21 X s 2157 252 m 21 X s 2157 268 m 21 X s 2135 285 m 43 X s 2157 301 m 21 X s 2157 317
 m 21 X s 2157 334 m 21 X s 2157 350 m 21 X s 2135 366 m 43 X s 2157 382 m 21 X s 2157 399 m 21 X s 2157 415 m 21 X s 2157 431 m 21 X s 2135 447 m 43 X s 2157 464 m 21 X s 2157 480 m 21 X s 2157 496 m 21 X s 2157 512 m 21 X s 2135 529 m 43 X s 2135
 203 m 43 X s 2157 187 m 21 X s 2135 529 m 43 X s 9 lw 380 317 m 14 Y s 380 331 m cl s 380 290 m -13 Y s 380 277 m cl s 504 365 m 4 Y s 504 369 m cl s 504 338 m -4 Y s 504 334 m cl s 628 327 m s 628 327 m cl s 628 300 m -1 Y s 628 299 m cl s 752 326
 m 3 Y s 752 329 m cl s 752 299 m -2 Y s 752 297 m cl s 876 301 m 2 Y s 876 303 m cl s 876 274 m -1 Y s 876 273 m cl s 1000 342 m 11 Y s 1000 353 m cl s 1000 315 m -10 Y s 1000 305 m cl s 1124 286 m 7 Y s 1124 293 m cl s 1124 259 m -6 Y s 1124 253 m
 cl s 1248 314 m 16 Y s 1248 330 m cl s 1248 287 m -15 Y s 1248 272 m cl s 1372 346 m 25 Y s 1372 371 m cl s 1372 319 m -23 Y s 1372 296 m cl s 1496 271 m 16 Y s 1496 287 m cl s 1496 244 m -12 Y s 1496 232 m cl s 1620 394 m 81 Y s 1620 475 m cl s
 1620 367 m -71 Y s 1620 296 m cl s 1744 331 m 79 Y s 1744 410 m cl s 1744 304 m -60 Y s 1744 244 m cl s 1868 301 m 95 Y s 1868 396 m cl s 1868 274 m -56 Y s 1868 218 m cl s 1992 341 m 146 Y s 1992 487 m cl s 1992 314 m -89 Y s 1992 225 m cl s 2116
 334 m 82 Y s 2116 416 m cl s 2116 307 m -62 Y s 2116 245 m cl s 3 lw 380 304 504 352 628 313 752 313 876 288 1000 329 1124 273 1248 300 1372 333 1496 258 1620 380 1744 318 1868 288 1992 327 2116 321 15 { m20} R 9 lw 1 0 0 c 6 lw black 3 lw 1 0 0 c
 2178 227 m s 2178 255 m s 2178 284 m s 2178 312 m s 2178 341 m -8 -8 d s 2178 369 m -36 -36 d s 2178 398 m -65 -65 d s 2151 399 m -67 -66 d s 2122 399 m -66 -66 d s 2054 332 m -13 -14 d s 2093 399 m -81 -81 d s 2065 399 m -82 -81 d s 2051 414 m -96
 -96 d s 2022 414 m -94 -94 d s 1994 414 m -95 -94 d s 1965 414 m -94 -94 d s 1936 414 m -94 -94 d s 1905 412 m -92 -92 d s 1877 412 m -82 -81 d s 1848 412 m -82 -81 d s 1819 412 m -81 -81 d s 1780 402 m -71 -71 d s 1752 402 m -74 -74 d s 1723 402 m
 -74 -74 d s 1694 402 m -74 -74 d s 1668 404 m -76 -76 d s 1639 404 m -76 -76 d s 1558 323 m -10 -10 d s 1611 404 m -91 -91 d s 1582 404 m -91 -91 d s 1558 409 m -96 -96 d s 1539 419 m -105 -105 d s 1510 419 m -95 -96 d s 1482 419 m -96 -96 d s 1453
 419 m -96 -96 d s 1415 409 m -86 -86 d s 1386 409 m -76 -76 d s 1357 409 m -64 -64 d s 1329 409 m -19 -18 d s 1307 388 m -43 -43 d s 1278 388 m -43 -43 d s 1250 388 m -43 -43 d s 1221 388 m -40 -40 d s 1192 388 m -39 -40 d s 1160 384 m -36 -36 d s
 1131 384 m -36 -36 d s 1103 384 m -36 -36 d s 1062 343 m -3 -3 d s 1074 384 m -44 -44 d s 1053 392 m -52 -52 d s 1025 392 m -52 -52 d s 996 392 m -52 -52 d s 967 392 m -52 -53 d s 939 392 m -53 -53 d s 911 393 m -54 -54 d s 882 393 m -53 -54 d s 853
 393 m -52 -52 d s 824 393 m -51 -52 d s 794 391 m -50 -50 d s 766 391 m -51 -50 d s 737 391 m -47 -47 d s 708 391 m -42 -42 d s 671 383 m -33 -34 d s 642 383 m -33 -34 d s 614 383 m -34 -34 d s 585 383 m -33 -34 d s 556 383 m -33 -34 d s 528 383 m
 -34 -34 d s 499 383 m -34 -34 d s 442 326 m -2 -2 d s 470 383 m -58 -59 d s 318 231 m s 442 383 m -59 -59 d s 318 259 m s 438 408 m -84 -84 d s 318 288 m s 409 408 m -83 -84 d s 318 317 m s 381 408 m -63 -63 d s 352 408 m -34 -34 d s 323 408 m -5 -6
 d s 6 lw black[ 4 8] 0 sd 3 lw 318 447 m 1860 X s 318 285 m 1860 X s 1 0 0 c[  12 12 ] 0 sd 6 lw 318 366 m 1860 X s
 gr  gr showpage
end
%%EOF
