%!PS-Adobe-2.0 EPSF-2.0
%%BoundingBox:  0 0 567 521
%%Title: Distributions/meffInc_distrVR0LmetSig_MB-GGd_beforeFit_forThesis.eps: canvas
%%Creator: ROOT Version 6.04/16
%%CreationDate: Tue May 19 22:05:06 2020
%%DocumentNeededResources: ProcSet (FontSetInit)
%%EndComments
%%BeginProlog
80 dict begin
/s {stroke} def /l {lineto} def /m {moveto} def /t {translate} def
/r {rotate} def /rl {roll}  def /R {repeat} def
/d {rlineto} def /rm {rmoveto} def /gr {grestore} def /f {eofill} def
/c {setrgbcolor} def /black {0 setgray} def /sd {setdash} def
/cl {closepath} def /sf {scalefont setfont} def /lw {setlinewidth} def
/box {m dup 0 exch d exch 0 d 0 exch neg d cl} def
/NC{systemdict begin initclip end}def/C{NC box clip newpath}def
/bl {box s} def /bf {gsave box gsave f grestore 1 lw [] 0 sd s grestore} def /Y { 0 exch d} def /X { 0 d} def 
/K {{pop pop 0 moveto} exch kshow} bind def
/ita {/ang 15 def gsave [1 0 ang dup sin exch cos div 1 0 0] concat} def 
/mp {newpath /y exch def /x exch def} def
/side {[w .77 mul w .23 mul] .385 w mul sd w 0 l currentpoint t -144 r} def
/mr {mp x y w2 0 360 arc} def /m24 {mr s} def /m20 {mr f} def
/mb {mp x y w2 add m w2 neg 0 d 0 w neg d w 0 d 0 w d cl} def
/mt {mp x y w2 add m w2 neg w neg d w 0 d cl} def
/m21 {mb f} def /m25 {mb s} def /m22 {mt f} def /m26{mt s} def
/m23 {mp x y w2 sub m w2 w d w neg 0 d cl f} def
/m27 {mp x y w2 add m w3 neg w2 neg d w3 w2 neg d w3 w2 d cl s} def
/m28 {mp x w2 sub y w2 sub w3 add m w3 0 d  0 w3 neg d w3 0 d 0 w3 d w3 0 d  0 w3 d w3 neg 0 d 0 w3 d w3 neg 0 d 0 w3 neg d w3 neg 0 d cl s } def
/m29 {mp gsave x w2 sub y w2 add w3 sub m currentpoint t 4 {side} repeat cl fill gr} def
/m30 {mp gsave x w2 sub y w2 add w3 sub m currentpoint t 4 {side} repeat cl s gr} def
/m31 {mp x y w2 sub m 0 w d x w2 sub y m w 0 d x w2 sub y w2 add m w w neg d x w2 sub y w2 sub m w w d s} def
/m32 {mp x y w2 sub m w2 w d w neg 0 d cl s} def
/m33 {mp x y w2 add m w3 neg w2 neg d w3 w2 neg d w3 w2 d cl f} def
/m34 {mp x w2 sub y w2 sub w3 add m w3 0 d  0 w3 neg d w3 0 d 0 w3 d w3 0 d  0 w3 d w3 neg 0 d 0 w3 d w3 neg 0 d 0 w3 neg d w3 neg 0 d cl f } def
/m2 {mp x y w2 sub m 0 w d x w2 sub y m w 0 d s} def
/m5 {mp x w2 sub y w2 sub m w w d x w2 sub y w2 add m w w neg d s} def
%%IncludeResource: ProcSet (FontSetInit)
%%IncludeResource: font Times-Roman
%%IncludeResource: font Times-Italic
%%IncludeResource: font Times-Bold
%%IncludeResource: font Times-BoldItalic
%%IncludeResource: font Helvetica
%%IncludeResource: font Helvetica-Oblique
%%IncludeResource: font Helvetica-Bold
%%IncludeResource: font Helvetica-BoldOblique
%%IncludeResource: font Courier
%%IncludeResource: font Courier-Oblique
%%IncludeResource: font Courier-Bold
%%IncludeResource: font Courier-BoldOblique
%%IncludeResource: font Symbol
%%IncludeResource: font ZapfDingbats
/reEncode {exch findfont dup length dict begin {1 index /FID eq  {pop pop} {def} ifelse } forall /Encoding exch def currentdict end dup /FontName get exch definefont pop } def [/Times-Bold /Times-Italic /Times-BoldItalic /Helvetica /Helvetica-Oblique
 /Helvetica-Bold /Helvetica-BoldOblique /Courier /Courier-Oblique /Courier-Bold /Courier-BoldOblique /Times-Roman /AvantGarde-Book /AvantGarde-BookOblique /AvantGarde-Demi /AvantGarde-DemiOblique /Bookman-Demi /Bookman-DemiItalic /Bookman-Light
 /Bookman-LightItalic /Helvetica-Narrow /Helvetica-Narrow-Bold /Helvetica-Narrow-BoldOblique /Helvetica-Narrow-Oblique /NewCenturySchlbk-Roman /NewCenturySchlbk-Bold /NewCenturySchlbk-BoldItalic /NewCenturySchlbk-Italic /Palatino-Bold
 /Palatino-BoldItalic /Palatino-Italic /Palatino-Roman ] {ISOLatin1Encoding reEncode } forall
%%EndProlog
%%BeginSetup
%%EndSetup
newpath  gsave  .25 .25 scale  gsave  0 0 t black[  ] 0 sd 3 lw 1 1 1 c 2268 2085 0 0 bf black 1 1 1 c 2263 1770 2 313 bf black 1 1 1 c black 1860 1145 319 584 bl 1 1 1 c black 1860 1145 319 584 bl 6 lw 1 1 1 c black 3 lw /w 33 def /w2 {w 2 div} def
 /w3 {w 3 div} def 381 1147 m20 6 lw 3 lw 505 1159 m20 6 lw 3 lw 629 1141 m20 6 lw 3 lw 753 1108 m20 6 lw 3 lw 877 1070 m20 6 lw 3 lw 1001 1037 m20 6 lw 3 lw 1125 995 m20 6 lw 1249 959 m 2 Y s 3 lw 1249 975 m20 6 lw 1373 909 m 9 Y s 1373 945 m 3 Y s
 3 lw 1373 931 m20 6 lw 1497 861 m 17 Y s 1497 905 m 8 Y s 3 lw 1497 892 m20 6 lw 1621 795 m 35 Y s 1621 857 m 15 Y s 3 lw 1621 843 m20 6 lw 1745 708 m 73 Y s 1745 808 m 24 Y s 3 lw 1745 795 m20 6 lw 1869 584 m 148 Y s 1869 759 m 36 Y s 3 lw 1869 746
 m20 6 lw 1993 708 m 73 Y s 1993 808 m 24 Y s 3 lw 1993 795 m20 6 lw 3 lw 319 584 m 1860 X s
 gsave  2263 1770 2 313 C 1949.08 369.478 t 0 r /Helvetica findfont 81.3741 sf 0 0 m ( [GeV]) show NC gr 
 gsave  2263 1770 2 313 C 1888.07 342.361 t 0 r /Helvetica findfont 54.2494 sf 0 0 m (eff) show NC gr 
 gsave  2263 1770 2 313 C 1823.66 369.478 t 0 r /Helvetica findfont 81.3741 sf 0 0 m (m) show NC gr  319 584 m cl s 381 584 m cl s 443 584 m cl s 505 584 m cl s 567 584 m cl s 629 584 m cl s 691 584 m cl s 753 584 m cl s 815 584 m cl s 877 584 m cl s
 939 584 m cl s 1001 584 m cl s 1063 584 m cl s 1125 584 m cl s 1187 584 m cl s 1249 584 m cl s 1311 584 m cl s 1373 584 m cl s 1435 584 m cl s 1497 584 m cl s 1559 584 m cl s 1621 584 m cl s 1683 584 m cl s 1745 584 m cl s 1807 584 m cl s 1869 584 m
 cl s 1931 584 m cl s 1993 584 m cl s 2055 584 m cl s 2117 584 m cl s 2179 584 m cl s 319 1729 m 1860 X s 319 1729 m cl s 381 1729 m cl s 443 1729 m cl s 505 1729 m cl s 567 1729 m cl s 629 1729 m cl s 691 1729 m cl s 753 1729 m cl s 815 1729 m cl s
 877 1729 m cl s 939 1729 m cl s 1001 1729 m cl s 1063 1729 m cl s 1125 1729 m cl s 1187 1729 m cl s 1249 1729 m cl s 1311 1729 m cl s 1373 1729 m cl s 1435 1729 m cl s 1497 1729 m cl s 1559 1729 m cl s 1621 1729 m cl s 1683 1729 m cl s 1745 1729 m
 cl s 1807 1729 m cl s 1869 1729 m cl s 1931 1729 m cl s 1993 1729 m cl s 2055 1729 m cl s 2117 1729 m cl s 2179 1729 m cl s 319 584 m 1145 Y s
 gsave  2263 1770 2 313 C 166.096 1091.49 t 90 r /Helvetica findfont 81.3741 sf 0 0 m (Events / 200 GeV) show NC gr  341 633 m -22 X s 341 661 m -22 X s 341 682 m -22 X s 341 697 m -22 X s 341 710 m -22 X s 341 721 m -22 X s 341 730 m -22 X s 341 739
 m -22 X s 363 746 m -44 X s
 gsave  2263 1770 2 313 C 300.555 718.801 t 0 r  -36 0 t /Helvetica findfont 64.4212 sf 0 0 m (1) show NC gr  341 795 m -22 X s 341 823 m -22 X s 341 843 m -22 X s 341 859 m -22 X s 341 872 m -22 X s 341 882 m -22 X s 341 892 m -22 X s 341 900 m -22
 X s 363 908 m -44 X s
 gsave  2263 1770 2 313 C 300.555 880.411 t 0 r  -73 0 t /Helvetica findfont 64.4212 sf 0 0 m (10) show NC gr  341 956 m -22 X s 341 985 m -22 X s 341 1005 m -22 X s 341 1020 m -22 X s 341 1033 m -22 X s 341 1044 m -22 X s 341 1053 m -22 X s 341 1062
 m -22 X s 363 1069 m -44 X s
 gsave  2263 1770 2 313 C 274.567 1067.76 t 0 r /Helvetica findfont 44.0776 sf 0 0 m (2) show NC gr 
 gsave  2263 1770 2 313 C 203.383 1040.64 t 0 r /Helvetica findfont 64.4212 sf 0 0 m (10) show NC gr  341 1118 m -22 X s 341 1146 m -22 X s 341 1166 m -22 X s 341 1182 m -22 X s 341 1195 m -22 X s 341 1206 m -22 X s 341 1215 m -22 X s 341 1223 m -22
 X s 363 1231 m -44 X s
 gsave  2263 1770 2 313 C 274.567 1233.85 t 0 r /Helvetica findfont 44.0776 sf 0 0 m (3) show NC gr 
 gsave  2263 1770 2 313 C 203.383 1203.35 t 0 r /Helvetica findfont 64.4212 sf 0 0 m (10) show NC gr  341 1279 m -22 X s 341 1308 m -22 X s 341 1328 m -22 X s 341 1344 m -22 X s 341 1357 m -22 X s 341 1367 m -22 X s 341 1377 m -22 X s 341 1385 m -22
 X s 363 1392 m -44 X s
 gsave  2263 1770 2 313 C 274.567 1389.78 t 0 r /Helvetica findfont 44.0776 sf 0 0 m (4) show NC gr 
 gsave  2263 1770 2 313 C 203.383 1362.66 t 0 r /Helvetica findfont 64.4212 sf 0 0 m (10) show NC gr  341 1441 m -22 X s 341 1469 m -22 X s 341 1490 m -22 X s 341 1505 m -22 X s 341 1518 m -22 X s 341 1529 m -22 X s 341 1538 m -22 X s 341 1547 m -22
 X s 363 1554 m -44 X s
 gsave  2263 1770 2 313 C 274.567 1555.88 t 0 r /Helvetica findfont 44.0776 sf 0 0 m (5) show NC gr 
 gsave  2263 1770 2 313 C 203.383 1525.37 t 0 r /Helvetica findfont 64.4212 sf 0 0 m (10) show NC gr  341 1603 m -22 X s 341 1631 m -22 X s 341 1651 m -22 X s 341 1667 m -22 X s 341 1680 m -22 X s 341 1691 m -22 X s 341 1700 m -22 X s 341 1708 m -22
 X s 363 1716 m -44 X s
 gsave  2263 1770 2 313 C 274.567 1718.58 t 0 r /Helvetica findfont 44.0776 sf 0 0 m (6) show NC gr 
 gsave  2263 1770 2 313 C 203.383 1688.08 t 0 r /Helvetica findfont 64.4212 sf 0 0 m (10) show NC gr  2179 584 m 1145 Y s 2157 633 m 22 X s 2157 661 m 22 X s 2157 682 m 22 X s 2157 697 m 22 X s 2157 710 m 22 X s 2157 721 m 22 X s 2157 730 m 22 X s
 2157 739 m 22 X s 2136 746 m 43 X s 2157 795 m 22 X s 2157 823 m 22 X s 2157 843 m 22 X s 2157 859 m 22 X s 2157 872 m 22 X s 2157 882 m 22 X s 2157 892 m 22 X s 2157 900 m 22 X s 2136 908 m 43 X s 2157 956 m 22 X s 2157 985 m 22 X s 2157 1005 m 22
 X s 2157 1020 m 22 X s 2157 1033 m 22 X s 2157 1044 m 22 X s 2157 1053 m 22 X s 2157 1062 m 22 X s 2136 1069 m 43 X s 2157 1118 m 22 X s 2157 1146 m 22 X s 2157 1166 m 22 X s 2157 1182 m 22 X s 2157 1195 m 22 X s 2157 1206 m 22 X s 2157 1215 m 22 X
 s 2157 1223 m 22 X s 2136 1231 m 43 X s 2157 1279 m 22 X s 2157 1308 m 22 X s 2157 1328 m 22 X s 2157 1344 m 22 X s 2157 1357 m 22 X s 2157 1367 m 22 X s 2157 1377 m 22 X s 2157 1385 m 22 X s 2136 1392 m 43 X s 2157 1441 m 22 X s 2157 1469 m 22 X s
 2157 1490 m 22 X s 2157 1505 m 22 X s 2157 1518 m 22 X s 2157 1529 m 22 X s 2157 1538 m 22 X s 2157 1547 m 22 X s 2136 1554 m 43 X s 2157 1603 m 22 X s 2157 1631 m 22 X s 2157 1651 m 22 X s 2157 1667 m 22 X s 2157 1680 m 22 X s 2157 1691 m 22 X s
 2157 1700 m 22 X s 2157 1708 m 22 X s 2136 1716 m 43 X s 0.4 0.6 1 c black 0.4 0.6 1 c 319 584 m 572 Y 124 X 11 Y 124 X -20 Y 124 X -29 Y 124 X -29 Y 124 X -32 Y 124 X -36 Y 124 X -32 Y 124 X -29 Y 124 X -28 Y 124 X -33 Y 124 X -48 Y 124 X -33 Y 124
 X -37 Y 124 X 64 Y 124 X -261 Y f black 0.4 0.6 1 c black 319 1156 m 124 X 11 Y 124 X -20 Y 124 X -29 Y 124 X -29 Y 124 X -32 Y 124 X -36 Y 124 X -32 Y 124 X -29 Y 124 X -28 Y 124 X -33 Y 124 X -48 Y 124 X -33 Y 124 X -37 Y 124 X 64 Y 124 X s 0.999
 0.999 0.999 c black 0.999 0.999 0.999 c 319 584 m 553 Y 124 X 11 Y 124 X -22 Y 124 X -26 Y 124 X -28 Y 124 X -32 Y 124 X -35 Y 124 X -35 Y 124 X -27 Y 124 X -32 Y 124 X -28 Y 124 X -53 Y 124 X -28 Y 124 X -49 Y 124 X 74 Y 124 X -243 Y f black 0.999
 0.999 0.999 c black 319 1137 m 124 X 11 Y 124 X -22 Y 124 X -26 Y 124 X -28 Y 124 X -32 Y 124 X -35 Y 124 X -35 Y 124 X -27 Y 124 X -32 Y 124 X -28 Y 124 X -53 Y 124 X -28 Y 124 X -49 Y 124 X 74 Y 124 X s 1 1 1 c black 319 1137 m 124 X 11 Y 124 X
 -22 Y 124 X -26 Y 124 X -28 Y 124 X -32 Y 124 X -35 Y 124 X -35 Y 124 X -27 Y 124 X -32 Y 124 X -28 Y 124 X -53 Y 124 X -28 Y 124 X -49 Y 124 X 74 Y 124 X s 0.6 1 0.6 c black 0.6 1 0.6 c 319 584 m 553 Y 124 X 11 Y 124 X -22 Y 124 X -26 Y 124 X -28 Y
 124 X -32 Y 124 X -35 Y 124 X -35 Y 124 X -27 Y 124 X -32 Y 124 X -28 Y 124 X -53 Y 124 X -28 Y 124 X -49 Y 124 X 74 Y 124 X -243 Y f black 0.6 1 0.6 c black 319 1137 m 124 X 11 Y 124 X -22 Y 124 X -26 Y 124 X -28 Y 124 X -32 Y 124 X -35 Y 124 X -35
 Y 124 X -27 Y 124 X -32 Y 124 X -28 Y 124 X -53 Y 124 X -28 Y 124 X -49 Y 124 X 74 Y 124 X s 0.999 0.999 0.999 c black 0.999 0.999 0.999 c 319 584 m 453 Y 124 X 28 Y 124 X -13 Y 124 X -27 Y 124 X -21 Y 124 X -35 Y 124 X -25 Y 124 X -25 Y 124 X -31 Y
 124 X -36 Y 124 X -18 Y 124 X -37 Y 124 X -34 Y 124 X -56 Y 124 X 96 Y 124 X -219 Y f black 0.999 0.999 0.999 c black 319 1037 m 124 X 28 Y 124 X -13 Y 124 X -27 Y 124 X -21 Y 124 X -35 Y 124 X -25 Y 124 X -25 Y 124 X -31 Y 124 X -36 Y 124 X -18 Y
 124 X -37 Y 124 X -34 Y 124 X -56 Y 124 X 96 Y 124 X s 1 1 1 c black 319 1037 m 124 X 28 Y 124 X -13 Y 124 X -27 Y 124 X -21 Y 124 X -35 Y 124 X -25 Y 124 X -25 Y 124 X -31 Y 124 X -36 Y 124 X -18 Y 124 X -37 Y 124 X -34 Y 124 X -56 Y 124 X 96 Y 124
 X s 1 0.8 0.4 c black 1 0.8 0.4 c 319 584 m 453 Y 124 X 28 Y 124 X -13 Y 124 X -27 Y 124 X -21 Y 124 X -35 Y 124 X -25 Y 124 X -25 Y 124 X -31 Y 124 X -36 Y 124 X -18 Y 124 X -37 Y 124 X -34 Y 124 X -56 Y 124 X 96 Y 124 X -219 Y f black 1 0.8 0.4 c
 black 319 1037 m 124 X 28 Y 124 X -13 Y 124 X -27 Y 124 X -21 Y 124 X -35 Y 124 X -25 Y 124 X -25 Y 124 X -31 Y 124 X -36 Y 124 X -18 Y 124 X -37 Y 124 X -34 Y 124 X -56 Y 124 X 96 Y 124 X s 0.999 0.999 0.999 c black 0.999 0.999 0.999 c 319 584 m
 350 Y 124 X 23 Y 124 X -19 Y 124 X -35 Y 124 X -26 Y 124 X -17 Y 124 X -53 Y 124 X 5 Y 124 X -36 Y 124 X -26 Y 124 X -2 Y 124 X -84 Y 124 X 20 Y 124 X -69 Y 124 X 23 Y 124 X -54 Y f black 0.999 0.999 0.999 c black 319 934 m 124 X 23 Y 124 X -19 Y
 124 X -35 Y 124 X -26 Y 124 X -17 Y 124 X -53 Y 124 X 5 Y 124 X -36 Y 124 X -26 Y 124 X -2 Y 124 X -84 Y 124 X 20 Y 124 X -69 Y 124 X 23 Y 124 X s 1 1 1 c black 319 934 m 124 X 23 Y 124 X -19 Y 124 X -35 Y 124 X -26 Y 124 X -17 Y 124 X -53 Y 124 X 5
 Y 124 X -36 Y 124 X -26 Y 124 X -2 Y 124 X -84 Y 124 X 20 Y 124 X -69 Y 124 X 23 Y 124 X s 1 0.4 0.6 c black 1 0.4 0.6 c 319 584 m 350 Y 124 X 23 Y 124 X -19 Y 124 X -35 Y 124 X -26 Y 124 X -17 Y 124 X -53 Y 124 X 5 Y 124 X -36 Y 124 X -26 Y 124 X
 -2 Y 124 X -84 Y 124 X 20 Y 124 X -69 Y 124 X 23 Y 124 X -54 Y f black 1 0.4 0.6 c black 319 934 m 124 X 23 Y 124 X -19 Y 124 X -35 Y 124 X -26 Y 124 X -17 Y 124 X -53 Y 124 X 5 Y 124 X -36 Y 124 X -26 Y 124 X -2 Y 124 X -84 Y 124 X 20 Y 124 X -69 Y
 124 X 23 Y 124 X s 0.999 0.999 0.999 c black 0.999 0.999 0.999 c 319 584 m 259 Y 124 X 61 Y 124 X -61 Y 124 X -34 Y 124 X -10 Y 124 X -12 Y 124 X -39 Y 124 X -26 Y 124 X -37 Y 124 X -29 Y 124 X -2 Y 124 X -70 Y 372 X 29 Y 124 X -29 Y f black 0.999
 0.999 0.999 c black 319 843 m 124 X 61 Y 124 X -61 Y 124 X -34 Y 124 X -10 Y 124 X -12 Y 124 X -39 Y 124 X -26 Y 124 X -37 Y 124 X -29 Y 124 X -2 Y 124 X -70 Y 372 X 29 Y 124 X s 1 1 1 c black 319 843 m 124 X 61 Y 124 X -61 Y 124 X -34 Y 124 X -10 Y
 124 X -12 Y 124 X -39 Y 124 X -26 Y 124 X -37 Y 124 X -29 Y 124 X -2 Y 124 X -70 Y 372 X 29 Y 124 X s 0 0 0.4 c black 0 0 0.4 c 319 584 m 259 Y 124 X 61 Y 124 X -61 Y 124 X -34 Y 124 X -10 Y 124 X -12 Y 124 X -39 Y 124 X -26 Y 124 X -37 Y 124 X -29
 Y 124 X -2 Y 124 X -70 Y 372 X 29 Y 124 X -29 Y f black 0 0 0.4 c black 319 843 m 124 X 61 Y 124 X -61 Y 124 X -34 Y 124 X -10 Y 124 X -12 Y 124 X -39 Y 124 X -26 Y 124 X -37 Y 124 X -29 Y 124 X -2 Y 124 X -70 Y 372 X 29 Y 124 X s 1 0 0 c 6 lw 1 1 1
 c black 1 0 0 c 319 1156 m 124 X 11 Y 124 X -20 Y 124 X -29 Y 124 X -29 Y 124 X -32 Y 124 X -36 Y 124 X -32 Y 124 X -29 Y 124 X -28 Y 124 X -33 Y 124 X -48 Y 124 X -33 Y 124 X -37 Y 124 X 64 Y 124 X s black 3 lw 1 0 0 c 1 lw << /PatternType 1
 /PaintType 2 /TilingType 1 /BBox [ 0 0 100 100 ] /XStep 100 /YStep 100 /PaintProc { begin gsave 0 100 m 100 0 l s gr end } >> [ 0.24 0 0 0.24 0 0 ] makepattern /P05 exch def /cs {[/Pattern /DeviceRGB] setcolorspace} def /FA {f [/DeviceRGB]
 setcolorspace} def cs 1 0 0 P05 setcolor 319 584 m 576 Y 124 X 10 Y 124 X -20 Y 124 X -28 Y 124 X -29 Y 124 X -31 Y 124 X -34 Y 124 X -33 Y 124 X -28 Y 124 X -24 Y 124 X -33 Y 124 X -50 Y 124 X -27 Y 124 X -34 Y 124 X 65 Y 124 X -280 Y 235 Y -124 X
 -62 Y -124 X 42 Y -124 X 41 Y -124 X 46 Y -124 X 34 Y -124 X 31 Y -124 X 30 Y -124 X 32 Y -124 X 38 Y -124 X 33 Y -124 X 29 Y -124 X 30 Y -124 X 20 Y -124 X -11 Y -124 X -568 Y FA 6 lw 1 1 1 c 15 lw 1373 911 m -1 Y s 1373 910 m cl s 1497 912 m 2 Y s
 1497 914 m cl s 1497 872 m -10 Y s 1497 862 m cl s 1621 864 m 9 Y s 1621 873 m cl s 1621 823 m -25 Y s 1621 798 m cl s 1745 815 m 21 Y s 1745 836 m cl s 1745 774 m -52 Y s 1745 722 m cl s 1869 766 m 38 Y s 1869 804 m cl s 1869 726 m -103 Y s 1869
 623 m cl s 1993 815 m 21 Y s 1993 836 m cl s 1993 774 m -52 Y s 1993 722 m cl s black 1 1 1 c 3 lw /w 43 def /w2 {w 2 div} def /w3 {w 3 div} def 381 1147 505 1159 629 1141 753 1108 877 1070 1001 1037 1125 995 1249 975 1373 931 1497 892 1621 843 1745
 795 1869 746 1993 795 14 { m20} R 15 lw black 6 lw 1 1 1 c black 3 lw /w 33 def /w2 {w 2 div} def /w3 {w 3 div} def 381 1147 m20 6 lw 3 lw 505 1159 m20 6 lw 3 lw 629 1141 m20 6 lw 3 lw 753 1108 m20 6 lw 3 lw 877 1070 m20 6 lw 3 lw 1001 1037 m20 6 lw
 3 lw 1125 995 m20 6 lw 1249 959 m 2 Y s 3 lw 1249 975 m20 6 lw 1373 909 m 9 Y s 1373 945 m 3 Y s 3 lw 1373 931 m20 6 lw 1497 861 m 17 Y s 1497 905 m 8 Y s 3 lw 1497 892 m20 6 lw 1621 795 m 35 Y s 1621 857 m 15 Y s 3 lw 1621 843 m20 6 lw 1745 708 m
 73 Y s 1745 808 m 24 Y s 3 lw 1745 795 m20 6 lw 1869 584 m 148 Y s 1869 759 m 36 Y s 3 lw 1869 746 m20 6 lw 1993 708 m 73 Y s 1993 808 m 24 Y s 3 lw 1993 795 m20 6 lw 1249 961 m -2 Y s 1249 959 m cl s 1373 945 m 3 Y s 1373 948 m cl s 1373 918 m -8 Y
 s 1373 910 m cl s 1497 905 m 9 Y s 1497 914 m cl s 1497 878 m -16 Y s 1497 862 m cl s 1621 857 m 16 Y s 1621 873 m cl s 1621 830 m -32 Y s 1621 798 m cl s 1745 808 m 28 Y s 1745 836 m cl s 1745 781 m -59 Y s 1745 722 m cl s 1869 759 m 45 Y s 1869
 804 m cl s 1869 732 m -109 Y s 1869 623 m cl s 1993 808 m 28 Y s 1993 836 m cl s 1993 781 m -59 Y s 1993 722 m cl s 3 lw 381 1147 505 1159 629 1141 753 1108 877 1070 1001 1037 1125 995 1249 975 1373 931 1497 892 1621 843 1745 795 1869 746 1993 795
 14 { m20} R 6 lw 3 lw 319 584 m 1860 X s 319 584 m cl s 381 584 m cl s 443 584 m cl s 505 584 m cl s 567 584 m cl s 629 584 m cl s 691 584 m cl s 753 584 m cl s 815 584 m cl s 877 584 m cl s 939 584 m cl s 1001 584 m cl s 1063 584 m cl s 1125 584 m
 cl s 1187 584 m cl s 1249 584 m cl s 1311 584 m cl s 1373 584 m cl s 1435 584 m cl s 1497 584 m cl s 1559 584 m cl s 1621 584 m cl s 1683 584 m cl s 1745 584 m cl s 1807 584 m cl s 1869 584 m cl s 1931 584 m cl s 1993 584 m cl s 2055 584 m cl s 2117
 584 m cl s 2179 584 m cl s 319 1729 m 1860 X s 319 1729 m cl s 381 1729 m cl s 443 1729 m cl s 505 1729 m cl s 567 1729 m cl s 629 1729 m cl s 691 1729 m cl s 753 1729 m cl s 815 1729 m cl s 877 1729 m cl s 939 1729 m cl s 1001 1729 m cl s 1063 1729
 m cl s 1125 1729 m cl s 1187 1729 m cl s 1249 1729 m cl s 1311 1729 m cl s 1373 1729 m cl s 1435 1729 m cl s 1497 1729 m cl s 1559 1729 m cl s 1621 1729 m cl s 1683 1729 m cl s 1745 1729 m cl s 1807 1729 m cl s 1869 1729 m cl s 1931 1729 m cl s 1993
 1729 m cl s 2055 1729 m cl s 2117 1729 m cl s 2179 1729 m cl s 319 584 m 1145 Y s 341 633 m -22 X s 341 661 m -22 X s 341 682 m -22 X s 341 697 m -22 X s 341 710 m -22 X s 341 721 m -22 X s 341 730 m -22 X s 341 739 m -22 X s 363 746 m -44 X s 341
 795 m -22 X s 341 823 m -22 X s 341 843 m -22 X s 341 859 m -22 X s 341 872 m -22 X s 341 882 m -22 X s 341 892 m -22 X s 341 900 m -22 X s 363 908 m -44 X s 341 956 m -22 X s 341 985 m -22 X s 341 1005 m -22 X s 341 1020 m -22 X s 341 1033 m -22 X
 s 341 1044 m -22 X s 341 1053 m -22 X s 341 1062 m -22 X s 363 1069 m -44 X s 341 1118 m -22 X s 341 1146 m -22 X s 341 1166 m -22 X s 341 1182 m -22 X s 341 1195 m -22 X s 341 1206 m -22 X s 341 1215 m -22 X s 341 1223 m -22 X s 363 1231 m -44 X s
 341 1279 m -22 X s 341 1308 m -22 X s 341 1328 m -22 X s 341 1344 m -22 X s 341 1357 m -22 X s 341 1367 m -22 X s 341 1377 m -22 X s 341 1385 m -22 X s 363 1392 m -44 X s 341 1441 m -22 X s 341 1469 m -22 X s 341 1490 m -22 X s 341 1505 m -22 X s
 341 1518 m -22 X s 341 1529 m -22 X s 341 1538 m -22 X s 341 1547 m -22 X s 363 1554 m -44 X s 341 1603 m -22 X s 341 1631 m -22 X s 341 1651 m -22 X s 341 1667 m -22 X s 341 1680 m -22 X s 341 1691 m -22 X s 341 1700 m -22 X s 341 1708 m -22 X s
 363 1716 m -44 X s 2179 584 m 1145 Y s 2157 633 m 22 X s 2157 661 m 22 X s 2157 682 m 22 X s 2157 697 m 22 X s 2157 710 m 22 X s 2157 721 m 22 X s 2157 730 m 22 X s 2157 739 m 22 X s 2136 746 m 43 X s 2157 795 m 22 X s 2157 823 m 22 X s 2157 843 m
 22 X s 2157 859 m 22 X s 2157 872 m 22 X s 2157 882 m 22 X s 2157 892 m 22 X s 2157 900 m 22 X s 2136 908 m 43 X s 2157 956 m 22 X s 2157 985 m 22 X s 2157 1005 m 22 X s 2157 1020 m 22 X s 2157 1033 m 22 X s 2157 1044 m 22 X s 2157 1053 m 22 X s
 2157 1062 m 22 X s 2136 1069 m 43 X s 2157 1118 m 22 X s 2157 1146 m 22 X s 2157 1166 m 22 X s 2157 1182 m 22 X s 2157 1195 m 22 X s 2157 1206 m 22 X s 2157 1215 m 22 X s 2157 1223 m 22 X s 2136 1231 m 43 X s 2157 1279 m 22 X s 2157 1308 m 22 X s
 2157 1328 m 22 X s 2157 1344 m 22 X s 2157 1357 m 22 X s 2157 1367 m 22 X s 2157 1377 m 22 X s 2157 1385 m 22 X s 2136 1392 m 43 X s 2157 1441 m 22 X s 2157 1469 m 22 X s 2157 1490 m 22 X s 2157 1505 m 22 X s 2157 1518 m 22 X s 2157 1529 m 22 X s
 2157 1538 m 22 X s 2157 1547 m 22 X s 2136 1554 m 43 X s 2157 1603 m 22 X s 2157 1631 m 22 X s 2157 1651 m 22 X s 2157 1667 m 22 X s 2157 1680 m 22 X s 2157 1691 m 22 X s 2157 1700 m 22 X s 2157 1708 m 22 X s 2136 1716 m 43 X s
 gsave  2263 1770 2 313 C 406.765 1447.41 t 0 r /Helvetica findfont 64.4212 sf 0 0 m (VR0LmetSig for MB\255GGd) show NC gr 
 gsave  2263 1770 2 313 C 1464.36 1630.45 t 0 r /Helvetica findfont 64.4212 sf 0 0 m (SM Total) show NC gr  1 1 1 c 1338 1616 m 107 X 64 Y -107 X f 1 0 0 c 6 lw 1338 1648 m 107 X s black
 gsave  2263 1770 2 313 C 1464.36 1538.93 t 0 r /Helvetica findfont 64.4212 sf 0 0 m (Data) show NC gr  1391 1529 m 55 Y s 3 lw 1391 1557 m20 6 lw
 gsave  2263 1770 2 313 C 1464.36 1447.41 t 0 r /Helvetica findfont 64.4212 sf 0 0 m (W+jets) show NC gr  0.4 0.6 1 c 3 lw 1338 1434 m 107 X 64 Y -107 X f 6 lw black 3 lw 1338 1498 m 107 X s 1338 1434 m 107 X s 1445 1434 m 64 Y s 1338 1434 m 64 Y s
 gsave  2263 1770 2 313 C 1498.25 1355.88 t 0 r /Helvetica findfont 64.4212 sf 0 0 m (\(+EW\) & single top) show NC gr 
 gsave  2263 1770 2 313 C 1481.3 1355.88 t 0 r /Helvetica findfont 64.4212 sf 0 0 m (t) show NC gr  1481 1407 m 17 X s
 gsave  2263 1770 2 313 C 1464.36 1355.88 t 0 r /Helvetica findfont 64.4212 sf 0 0 m (t) show NC gr  0.6 1 0.6 c 1338 1343 m 107 X 63 Y -107 X f black 1338 1406 m 107 X s 1338 1343 m 107 X s 1445 1343 m 63 Y s 1338 1343 m 63 Y s
 gsave  2263 1770 2 313 C 1464.36 1264.36 t 0 r /Helvetica findfont 64.4212 sf 0 0 m (Z+jets) show NC gr  1 0.8 0.4 c 1338 1252 m 107 X 63 Y -107 X f black 1338 1315 m 107 X s 1338 1252 m 107 X s 1445 1252 m 63 Y s 1338 1252 m 63 Y s
 gsave  2263 1770 2 313 C 1464.36 1172.84 t 0 r /Helvetica findfont 64.4212 sf 0 0 m (Diboson) show NC gr  1 0.4 0.6 c 1338 1161 m 107 X 63 Y -107 X f black 1338 1224 m 107 X s 1338 1161 m 107 X s 1445 1161 m 63 Y s 1338 1161 m 63 Y s
 gsave  2263 1770 2 313 C 1464.36 1081.32 t 0 r /Helvetica findfont 64.4212 sf 0 0 m (Multi\255jet) show NC gr  0 0 0.4 c 1338 1070 m 107 X 63 Y -107 X f black 1338 1133 m 107 X s 1338 1070 m 107 X s 1445 1070 m 63 Y s 1338 1070 m 63 Y s
 gsave  2263 1770 2 313 C 911.832 1566.05 t 0 r /Helvetica findfont 44.0776 sf 0 0 m (\2551) show NC gr 
 gsave  2263 1770 2 313 C 471.17 1535.54 t 0 r /Helvetica findfont 64.4212 sf 0 0 m (=13TeV, 139 fb) show NC gr 
 gsave  2263 1770 2 313 C 440.662 1535.54 t 0 r /Helvetica findfont 64.4212 sf 0 0 m (s) show NC gr  6 lw 420 1573 m 7 -41 d s 3 lw 427 1532 m 7 61 d s 434 1593 m 37 X s 1 1 1 c 2254 561 2 2 bf black 1 1 1 c black 1860 358 318 187 bl 1 1 1 c black
 1860 358 318 187 bl 6 lw 1 1 1 c black 3 lw 380 347 m20 6 lw 3 lw 504 350 m20 6 lw 3 lw 628 354 m20 6 lw 3 lw 752 345 m20 6 lw 3 lw 876 327 m20 6 lw 3 lw 1000 326 m20 6 lw 3 lw 1124 317 m20 6 lw 3 lw 1248 336 m20 6 lw 3 lw 1372 311 m20 6 lw 3 lw
 1496 295 m20 6 lw 3 lw 1620 277 m20 6 lw 3 lw 1744 276 m20 6 lw 3 lw 1868 261 m20 6 lw 3 lw 1992 401 m20 6 lw 3 lw 318 187 m 1860 X s
 gsave  2254 561 2 2 C 1959.25 33.8971 t 0 r /Helvetica findfont 78.1689 sf 0 0 m ( [GeV]) show NC gr 
 gsave  2254 561 2 2 C 1901.63 13.5588 t 0 r /Helvetica findfont 50.9797 sf 0 0 m (eff) show NC gr 
 gsave  2254 561 2 2 C 1840.61 33.8971 t 0 r /Helvetica findfont 78.1689 sf 0 0 m (m) show NC gr  318 201 m -14 Y s 380 194 m -7 Y s 442 194 m -7 Y s 504 194 m -7 Y s 566 194 m -7 Y s 628 201 m -14 Y s 690 194 m -7 Y s 752 194 m -7 Y s 814 194 m -7 Y
 s 876 194 m -7 Y s 938 201 m -14 Y s 1000 194 m -7 Y s 1062 194 m -7 Y s 1124 194 m -7 Y s 1186 194 m -7 Y s 1248 201 m -14 Y s 1310 194 m -7 Y s 1372 194 m -7 Y s 1434 194 m -7 Y s 1496 194 m -7 Y s 1558 201 m -14 Y s 1620 194 m -7 Y s 1682 194 m
 -7 Y s 1744 194 m -7 Y s 1806 194 m -7 Y s 1868 201 m -14 Y s 1930 194 m -7 Y s 1992 194 m -7 Y s 2054 194 m -7 Y s 2116 194 m -7 Y s 2178 201 m -14 Y s
 gsave  2254 561 2 2 C 227.111 118.64 t 0 r /Helvetica findfont 78.1689 sf 0 0 m (1000) show NC gr 
 gsave  2254 561 2 2 C 538.964 118.64 t 0 r /Helvetica findfont 78.1689 sf 0 0 m (1500) show NC gr 
 gsave  2254 561 2 2 C 847.428 118.64 t 0 r /Helvetica findfont 78.1689 sf 0 0 m (2000) show NC gr 
 gsave  2254 561 2 2 C 1159.28 118.64 t 0 r /Helvetica findfont 78.1689 sf 0 0 m (2500) show NC gr 
 gsave  2254 561 2 2 C 1467.74 118.64 t 0 r /Helvetica findfont 78.1689 sf 0 0 m (3000) show NC gr 
 gsave  2254 561 2 2 C 1779.6 118.64 t 0 r /Helvetica findfont 78.1689 sf 0 0 m (3500) show NC gr 
 gsave  2254 561 2 2 C 2088.06 118.64 t 0 r /Helvetica findfont 78.1689 sf 0 0 m (4000) show NC gr  318 545 m 1860 X s 318 531 m 14 Y s 380 538 m 7 Y s 442 538 m 7 Y s 504 538 m 7 Y s 566 538 m 7 Y s 628 531 m 14 Y s 690 538 m 7 Y s 752 538 m 7 Y s
 814 538 m 7 Y s 876 538 m 7 Y s 938 531 m 14 Y s 1000 538 m 7 Y s 1062 538 m 7 Y s 1124 538 m 7 Y s 1186 538 m 7 Y s 1248 531 m 14 Y s 1310 538 m 7 Y s 1372 538 m 7 Y s 1434 538 m 7 Y s 1496 538 m 7 Y s 1558 531 m 14 Y s 1620 538 m 7 Y s 1682 538 m
 7 Y s 1744 538 m 7 Y s 1806 538 m 7 Y s 1868 531 m 14 Y s 1930 538 m 7 Y s 1992 538 m 7 Y s 2054 538 m 7 Y s 2116 538 m 7 Y s 2178 531 m 14 Y s 318 187 m 358 Y s
 gsave  2254 561 2 2 C 166.096 284.736 t 90 r /Helvetica findfont 67.9729 sf 0 0 m (Data/SM) show NC gr  361 203 m -43 X s 339 220 m -21 X s 339 236 m -21 X s 339 252 m -21 X s 339 268 m -21 X s 361 285 m -43 X s 339 301 m -21 X s 339 317 m -21 X s
 339 334 m -21 X s 339 350 m -21 X s 361 366 m -43 X s 339 382 m -21 X s 339 399 m -21 X s 339 415 m -21 X s 339 431 m -21 X s 361 447 m -43 X s 339 464 m -21 X s 339 480 m -21 X s 339 496 m -21 X s 339 512 m -21 X s 361 529 m -43 X s 361 203 m -43 X
 s 339 187 m -21 X s 361 529 m -43 X s
 gsave  2254 561 2 2 C 261.008 183.044 t 0 r /Helvetica findfont 57.777 sf 0 0 m (0) show NC gr 
 gsave  2254 561 2 2 C 213.552 261.008 t 0 r /Helvetica findfont 57.777 sf 0 0 m (0.5) show NC gr 
 gsave  2254 561 2 2 C 271.177 342.361 t 0 r /Helvetica findfont 57.777 sf 0 0 m (1) show NC gr 
 gsave  2254 561 2 2 C 213.552 423.714 t 0 r /Helvetica findfont 57.777 sf 0 0 m (1.5) show NC gr 
 gsave  2254 561 2 2 C 261.008 505.067 t 0 r /Helvetica findfont 57.777 sf 0 0 m (2) show NC gr  2178 187 m 358 Y s 2135 203 m 43 X s 2157 220 m 21 X s 2157 236 m 21 X s 2157 252 m 21 X s 2157 268 m 21 X s 2135 285 m 43 X s 2157 301 m 21 X s 2157 317
 m 21 X s 2157 334 m 21 X s 2157 350 m 21 X s 2135 366 m 43 X s 2157 382 m 21 X s 2157 399 m 21 X s 2157 415 m 21 X s 2157 431 m 21 X s 2135 447 m 43 X s 2157 464 m 21 X s 2157 480 m 21 X s 2157 496 m 21 X s 2157 512 m 21 X s 2135 529 m 43 X s 2135
 203 m 43 X s 2157 187 m 21 X s 2135 529 m 43 X s 9 lw 1000 339 m 2 Y s 1000 341 m cl s 1000 312 m -2 Y s 1000 310 m cl s 1124 331 m 5 Y s 1124 336 m cl s 1124 303 m -5 Y s 1124 298 m cl s 1248 350 m 13 Y s 1248 363 m cl s 1248 323 m -12 Y s 1248 311
 m cl s 1372 325 m 16 Y s 1372 341 m cl s 1372 298 m -15 Y s 1372 283 m cl s 1496 308 m 20 Y s 1496 328 m cl s 1496 281 m -18 Y s 1496 263 m cl s 1620 290 m 26 Y s 1620 316 m cl s 1620 263 m -21 Y s 1620 242 m cl s 1744 290 m 45 Y s 1744 335 m cl s
 1744 263 m -34 Y s 1744 229 m cl s 1868 275 m 61 Y s 1868 336 m cl s 1868 248 m -34 Y s 1868 214 m cl s 1992 414 m 131 Y s 1992 545 m cl s 1992 387 m -113 Y s 1992 274 m cl s 3 lw 380 347 504 350 628 354 752 345 876 327 1000 326 1124 317 1248 336
 1372 311 1496 295 1620 277 1744 276 1868 261 1992 401 14 { m20} R 9 lw 1 0 0 c 6 lw black 3 lw 1 0 0 c 2178 227 m s 2178 255 m s 2178 284 m s 2178 312 m s 2178 341 m -24 -25 d s 2178 369 m -53 -53 d s 2178 398 m -82 -82 d s 2168 416 m -100 -100 d s
 2139 416 m -98 -97 d s 2110 416 m -97 -97 d s 2081 416 m -97 -97 d s 2050 413 m -95 -94 d s 2022 413 m -92 -91 d s 1993 413 m -87 -86 d s 1964 413 m -87 -86 d s 1936 413 m -6 -5 d s 1927 405 m -78 -78 d s 1899 405 m -79 -78 d s 1870 405 m -64 -63 d
 s 1841 405 m -63 -62 d s 1813 405 m -7 -6 d s 1797 389 m -47 -46 d s 1768 389 m -47 -46 d s 1739 389 m -47 -46 d s 1711 389 m -52 -51 d s 1682 390 m -52 -52 d s 1658 394 m -56 -56 d s 1629 394 m -56 -56 d s 1601 394 m -55 -54 d s 1572 394 m -55 -54
 d s 1542 392 m -53 -52 d s 1513 392 m -53 -52 d s 1484 392 m -50 -49 d s 1455 392 m -45 -45 d s 1419 385 m -37 -38 d s 1390 385 m -37 -38 d s 1362 385 m -38 -38 d s 1333 385 m -35 -35 d s 1302 382 m -33 -32 d s 1273 382 m -32 -32 d s 1244 382 m -32
 -32 d s 1216 382 m -33 -33 d s 1187 382 m -33 -33 d s 1159 383 m -34 -34 d s 1130 383 m -33 -34 d s 1102 383 m -34 -34 d s 1073 383 m -29 -29 d s 1039 378 m -23 -24 d s 1010 378 m -23 -24 d s 982 378 m -24 -24 d s 953 378 m -22 -22 d s 923 376 m -21
 -20 d s 894 376 m -20 -20 d s 865 376 m -20 -20 d s 837 376 m -21 -20 d s 808 376 m -20 -20 d s 779 376 m -20 -20 d s 751 376 m -21 -20 d s 722 376 m -20 -20 d s 693 376 m -18 -18 d s 662 374 m -15 -16 d s 633 374 m -15 -16 d s 605 374 m -16 -16 d s
 576 374 m -16 -16 d s 548 374 m -17 -16 d s 519 374 m -16 -16 d s 490 374 m -16 -16 d s 462 374 m -17 -16 d s 318 231 m s 433 374 m -16 -16 d s 318 259 m s 404 374 m -16 -16 d s 318 288 m s 376 374 m -17 -16 d s 318 317 m s 347 374 m -16 -16 d s 318
 345 m s 318 374 m s 6 lw black[ 4 8] 0 sd 3 lw 318 447 m 1860 X s 318 285 m 1860 X s 1 0 0 c[  12 12 ] 0 sd 6 lw 318 366 m 1860 X s
 gr  gr showpage
end
%%EOF
