%!PS-Adobe-2.0 EPSF-2.0
%%BoundingBox:  0 0 567 521
%%Title: Distributions/meffInc_distrVR0LdPhi_MB-C_afterFit_forThesis.eps: canvas
%%Creator: ROOT Version 6.04/16
%%CreationDate: Tue May 19 22:04:51 2020
%%DocumentNeededResources: ProcSet (FontSetInit)
%%EndComments
%%BeginProlog
80 dict begin
/s {stroke} def /l {lineto} def /m {moveto} def /t {translate} def
/r {rotate} def /rl {roll}  def /R {repeat} def
/d {rlineto} def /rm {rmoveto} def /gr {grestore} def /f {eofill} def
/c {setrgbcolor} def /black {0 setgray} def /sd {setdash} def
/cl {closepath} def /sf {scalefont setfont} def /lw {setlinewidth} def
/box {m dup 0 exch d exch 0 d 0 exch neg d cl} def
/NC{systemdict begin initclip end}def/C{NC box clip newpath}def
/bl {box s} def /bf {gsave box gsave f grestore 1 lw [] 0 sd s grestore} def /Y { 0 exch d} def /X { 0 d} def 
/K {{pop pop 0 moveto} exch kshow} bind def
/ita {/ang 15 def gsave [1 0 ang dup sin exch cos div 1 0 0] concat} def 
/mp {newpath /y exch def /x exch def} def
/side {[w .77 mul w .23 mul] .385 w mul sd w 0 l currentpoint t -144 r} def
/mr {mp x y w2 0 360 arc} def /m24 {mr s} def /m20 {mr f} def
/mb {mp x y w2 add m w2 neg 0 d 0 w neg d w 0 d 0 w d cl} def
/mt {mp x y w2 add m w2 neg w neg d w 0 d cl} def
/m21 {mb f} def /m25 {mb s} def /m22 {mt f} def /m26{mt s} def
/m23 {mp x y w2 sub m w2 w d w neg 0 d cl f} def
/m27 {mp x y w2 add m w3 neg w2 neg d w3 w2 neg d w3 w2 d cl s} def
/m28 {mp x w2 sub y w2 sub w3 add m w3 0 d  0 w3 neg d w3 0 d 0 w3 d w3 0 d  0 w3 d w3 neg 0 d 0 w3 d w3 neg 0 d 0 w3 neg d w3 neg 0 d cl s } def
/m29 {mp gsave x w2 sub y w2 add w3 sub m currentpoint t 4 {side} repeat cl fill gr} def
/m30 {mp gsave x w2 sub y w2 add w3 sub m currentpoint t 4 {side} repeat cl s gr} def
/m31 {mp x y w2 sub m 0 w d x w2 sub y m w 0 d x w2 sub y w2 add m w w neg d x w2 sub y w2 sub m w w d s} def
/m32 {mp x y w2 sub m w2 w d w neg 0 d cl s} def
/m33 {mp x y w2 add m w3 neg w2 neg d w3 w2 neg d w3 w2 d cl f} def
/m34 {mp x w2 sub y w2 sub w3 add m w3 0 d  0 w3 neg d w3 0 d 0 w3 d w3 0 d  0 w3 d w3 neg 0 d 0 w3 d w3 neg 0 d 0 w3 neg d w3 neg 0 d cl f } def
/m2 {mp x y w2 sub m 0 w d x w2 sub y m w 0 d s} def
/m5 {mp x w2 sub y w2 sub m w w d x w2 sub y w2 add m w w neg d s} def
%%IncludeResource: ProcSet (FontSetInit)
%%IncludeResource: font Times-Roman
%%IncludeResource: font Times-Italic
%%IncludeResource: font Times-Bold
%%IncludeResource: font Times-BoldItalic
%%IncludeResource: font Helvetica
%%IncludeResource: font Helvetica-Oblique
%%IncludeResource: font Helvetica-Bold
%%IncludeResource: font Helvetica-BoldOblique
%%IncludeResource: font Courier
%%IncludeResource: font Courier-Oblique
%%IncludeResource: font Courier-Bold
%%IncludeResource: font Courier-BoldOblique
%%IncludeResource: font Symbol
%%IncludeResource: font ZapfDingbats
/reEncode {exch findfont dup length dict begin {1 index /FID eq  {pop pop} {def} ifelse } forall /Encoding exch def currentdict end dup /FontName get exch definefont pop } def [/Times-Bold /Times-Italic /Times-BoldItalic /Helvetica /Helvetica-Oblique
 /Helvetica-Bold /Helvetica-BoldOblique /Courier /Courier-Oblique /Courier-Bold /Courier-BoldOblique /Times-Roman /AvantGarde-Book /AvantGarde-BookOblique /AvantGarde-Demi /AvantGarde-DemiOblique /Bookman-Demi /Bookman-DemiItalic /Bookman-Light
 /Bookman-LightItalic /Helvetica-Narrow /Helvetica-Narrow-Bold /Helvetica-Narrow-BoldOblique /Helvetica-Narrow-Oblique /NewCenturySchlbk-Roman /NewCenturySchlbk-Bold /NewCenturySchlbk-BoldItalic /NewCenturySchlbk-Italic /Palatino-Bold
 /Palatino-BoldItalic /Palatino-Italic /Palatino-Roman ] {ISOLatin1Encoding reEncode } forall
%%EndProlog
%%BeginSetup
%%EndSetup
newpath  gsave  .25 .25 scale  gsave  0 0 t black[  ] 0 sd 3 lw 1 1 1 c 2268 2085 0 0 bf black 1 1 1 c 2263 1770 2 313 bf black 1 1 1 c black 1860 1145 319 584 bl 1 1 1 c black 1860 1145 319 584 bl 6 lw 1 1 1 c black 3 lw /w 33 def /w2 {w 2 div} def
 /w3 {w 3 div} def 374 1108 m20 6 lw 3 lw 483 1085 m20 6 lw 3 lw 593 1050 m20 6 lw 3 lw 702 1020 m20 6 lw 3 lw 812 967 m20 6 lw 3 lw 921 947 m20 6 lw 3 lw 1030 918 m20 6 lw 1140 839 m 10 Y s 1140 876 m 3 Y s 3 lw 1140 862 m20 6 lw 1249 785 m 22 Y s
 1249 834 m 9 Y s 3 lw 1249 820 m20 6 lw 1359 839 m 10 Y s 1359 876 m 3 Y s 3 lw 1359 862 m20 6 lw 1468 691 m 61 Y s 1468 779 m 18 Y s 3 lw 1468 765 m20 6 lw 1687 584 m 126 Y s 1687 737 m 28 Y s 3 lw 1687 723 m20 6 lw 1796 691 m 61 Y s 1796 779 m 18
 Y s 3 lw 1796 765 m20 6 lw 1906 584 m 126 Y s 1906 737 m 28 Y s 3 lw 1906 723 m20 6 lw 3 lw 319 584 m 1860 X s
 gsave  2263 1770 2 313 C 1949.08 369.478 t 0 r /Helvetica findfont 81.3741 sf 0 0 m ( [GeV]) show NC gr 
 gsave  2263 1770 2 313 C 1888.07 342.361 t 0 r /Helvetica findfont 54.2494 sf 0 0 m (eff) show NC gr 
 gsave  2263 1770 2 313 C 1823.66 369.478 t 0 r /Helvetica findfont 81.3741 sf 0 0 m (m) show NC gr  538 584 m cl s 593 584 m cl s 647 584 m cl s 702 584 m cl s 757 584 m cl s 812 584 m cl s 866 584 m cl s 921 584 m cl s 976 584 m cl s 1030 584 m cl
 s 1085 584 m cl s 1140 584 m cl s 1195 584 m cl s 1249 584 m cl s 1304 584 m cl s 1359 584 m cl s 1413 584 m cl s 1468 584 m cl s 1523 584 m cl s 1578 584 m cl s 1632 584 m cl s 1687 584 m cl s 1742 584 m cl s 1796 584 m cl s 1851 584 m cl s 1906
 584 m cl s 1961 584 m cl s 2015 584 m cl s 2070 584 m cl s 2125 584 m cl s 2179 584 m cl s 538 584 m cl s 483 584 m cl s 429 584 m cl s 374 584 m cl s 319 584 m cl s 319 1729 m 1860 X s 538 1729 m cl s 593 1729 m cl s 647 1729 m cl s 702 1729 m cl s
 757 1729 m cl s 812 1729 m cl s 866 1729 m cl s 921 1729 m cl s 976 1729 m cl s 1030 1729 m cl s 1085 1729 m cl s 1140 1729 m cl s 1195 1729 m cl s 1249 1729 m cl s 1304 1729 m cl s 1359 1729 m cl s 1413 1729 m cl s 1468 1729 m cl s 1523 1729 m cl s
 1578 1729 m cl s 1632 1729 m cl s 1687 1729 m cl s 1742 1729 m cl s 1796 1729 m cl s 1851 1729 m cl s 1906 1729 m cl s 1961 1729 m cl s 2015 1729 m cl s 2070 1729 m cl s 2125 1729 m cl s 2179 1729 m cl s 538 1729 m cl s 483 1729 m cl s 429 1729 m cl
 s 374 1729 m cl s 319 1729 m cl s 319 584 m 1145 Y s
 gsave  2263 1770 2 313 C 166.096 1091.49 t 90 r /Helvetica findfont 81.3741 sf 0 0 m (Events / 200 GeV) show NC gr  341 626 m -22 X s 341 651 m -22 X s 341 668 m -22 X s 341 681 m -22 X s 341 692 m -22 X s 341 702 m -22 X s 341 710 m -22 X s 341 717
 m -22 X s 363 723 m -44 X s
 gsave  2263 1770 2 313 C 300.555 696.185 t 0 r  -36 0 t /Helvetica findfont 64.4212 sf 0 0 m (1) show NC gr  341 765 m -22 X s 341 790 m -22 X s 341 807 m -22 X s 341 820 m -22 X s 341 831 m -22 X s 341 841 m -22 X s 341 849 m -22 X s 341 856 m -22
 X s 363 862 m -44 X s
 gsave  2263 1770 2 313 C 300.555 835.178 t 0 r  -73 0 t /Helvetica findfont 64.4212 sf 0 0 m (10) show NC gr  341 904 m -22 X s 341 929 m -22 X s 341 946 m -22 X s 341 959 m -22 X s 341 970 m -22 X s 341 980 m -22 X s 341 988 m -22 X s 341 995 m -22
 X s 363 1001 m -44 X s
 gsave  2263 1770 2 313 C 274.567 999.965 t 0 r /Helvetica findfont 44.0776 sf 0 0 m (2) show NC gr 
 gsave  2263 1770 2 313 C 203.383 972.847 t 0 r /Helvetica findfont 64.4212 sf 0 0 m (10) show NC gr  341 1043 m -22 X s 341 1068 m -22 X s 341 1085 m -22 X s 341 1098 m -22 X s 341 1109 m -22 X s 341 1119 m -22 X s 341 1127 m -22 X s 341 1134 m -22
 X s 363 1140 m -44 X s
 gsave  2263 1770 2 313 C 274.567 1142.33 t 0 r /Helvetica findfont 44.0776 sf 0 0 m (3) show NC gr 
 gsave  2263 1770 2 313 C 203.383 1111.83 t 0 r /Helvetica findfont 64.4212 sf 0 0 m (10) show NC gr  341 1182 m -22 X s 341 1207 m -22 X s 341 1224 m -22 X s 341 1237 m -22 X s 341 1248 m -22 X s 341 1258 m -22 X s 341 1266 m -22 X s 341 1273 m -22
 X s 363 1279 m -44 X s
 gsave  2263 1770 2 313 C 274.567 1277.92 t 0 r /Helvetica findfont 44.0776 sf 0 0 m (4) show NC gr 
 gsave  2263 1770 2 313 C 203.383 1250.8 t 0 r /Helvetica findfont 64.4212 sf 0 0 m (10) show NC gr  341 1321 m -22 X s 341 1346 m -22 X s 341 1363 m -22 X s 341 1376 m -22 X s 341 1387 m -22 X s 341 1397 m -22 X s 341 1405 m -22 X s 341 1412 m -22 X
 s 363 1418 m -44 X s
 gsave  2263 1770 2 313 C 274.567 1420.29 t 0 r /Helvetica findfont 44.0776 sf 0 0 m (5) show NC gr 
 gsave  2263 1770 2 313 C 203.383 1389.78 t 0 r /Helvetica findfont 64.4212 sf 0 0 m (10) show NC gr  341 1460 m -22 X s 341 1485 m -22 X s 341 1502 m -22 X s 341 1515 m -22 X s 341 1526 m -22 X s 341 1536 m -22 X s 341 1544 m -22 X s 341 1551 m -22
 X s 363 1557 m -44 X s
 gsave  2263 1770 2 313 C 274.567 1559.27 t 0 r /Helvetica findfont 44.0776 sf 0 0 m (6) show NC gr 
 gsave  2263 1770 2 313 C 203.383 1528.76 t 0 r /Helvetica findfont 64.4212 sf 0 0 m (10) show NC gr  341 1599 m -22 X s 341 1624 m -22 X s 341 1641 m -22 X s 341 1654 m -22 X s 341 1665 m -22 X s 341 1675 m -22 X s 341 1683 m -22 X s 341 1690 m -22
 X s 363 1696 m -44 X s
 gsave  2263 1770 2 313 C 274.567 1694.86 t 0 r /Helvetica findfont 44.0776 sf 0 0 m (7) show NC gr 
 gsave  2263 1770 2 313 C 203.383 1667.74 t 0 r /Helvetica findfont 64.4212 sf 0 0 m (10) show NC gr  2179 584 m 1145 Y s 2157 626 m 22 X s 2157 651 m 22 X s 2157 668 m 22 X s 2157 681 m 22 X s 2157 692 m 22 X s 2157 702 m 22 X s 2157 710 m 22 X s
 2157 717 m 22 X s 2136 723 m 43 X s 2157 765 m 22 X s 2157 790 m 22 X s 2157 807 m 22 X s 2157 820 m 22 X s 2157 831 m 22 X s 2157 841 m 22 X s 2157 849 m 22 X s 2157 856 m 22 X s 2136 862 m 43 X s 2157 904 m 22 X s 2157 929 m 22 X s 2157 946 m 22 X
 s 2157 959 m 22 X s 2157 970 m 22 X s 2157 980 m 22 X s 2157 988 m 22 X s 2157 995 m 22 X s 2136 1001 m 43 X s 2157 1043 m 22 X s 2157 1068 m 22 X s 2157 1085 m 22 X s 2157 1098 m 22 X s 2157 1109 m 22 X s 2157 1119 m 22 X s 2157 1127 m 22 X s 2157
 1134 m 22 X s 2136 1140 m 43 X s 2157 1182 m 22 X s 2157 1207 m 22 X s 2157 1224 m 22 X s 2157 1237 m 22 X s 2157 1248 m 22 X s 2157 1258 m 22 X s 2157 1266 m 22 X s 2157 1273 m 22 X s 2136 1279 m 43 X s 2157 1321 m 22 X s 2157 1346 m 22 X s 2157
 1363 m 22 X s 2157 1376 m 22 X s 2157 1387 m 22 X s 2157 1397 m 22 X s 2157 1405 m 22 X s 2157 1412 m 22 X s 2136 1418 m 43 X s 2157 1460 m 22 X s 2157 1485 m 22 X s 2157 1502 m 22 X s 2157 1515 m 22 X s 2157 1526 m 22 X s 2157 1536 m 22 X s 2157
 1544 m 22 X s 2157 1551 m 22 X s 2136 1557 m 43 X s 2157 1599 m 22 X s 2157 1624 m 22 X s 2157 1641 m 22 X s 2157 1654 m 22 X s 2157 1665 m 22 X s 2157 1675 m 22 X s 2157 1683 m 22 X s 2157 1690 m 22 X s 2136 1696 m 43 X s 0.4 0.6 1 c black 0.4 0.6
 1 c 319 584 m 533 Y 110 X -31 Y 109 X -35 Y 109 X -35 Y 110 X -38 Y 109 X -45 Y 110 X -24 Y 109 X -33 Y 110 X -28 Y 109 X -32 Y 109 X -42 Y 110 X -10 Y 109 X -15 Y 110 X -46 Y 109 X -17 Y 110 X -5 Y 109 X 25 Y 109 X -122 Y f black 0.4 0.6 1 c black
 319 1117 m 110 X -31 Y 109 X -35 Y 109 X -35 Y 110 X -38 Y 109 X -45 Y 110 X -24 Y 109 X -33 Y 110 X -28 Y 109 X -32 Y 109 X -42 Y 110 X -10 Y 109 X -15 Y 110 X -46 Y 109 X -17 Y 110 X -5 Y 109 X 25 Y 109 X s 0.999 0.999 0.999 c black 0.999 0.999
 0.999 c 319 584 m 509 Y 110 X -31 Y 109 X -34 Y 109 X -35 Y 110 X -38 Y 109 X -37 Y 110 X -37 Y 109 X -29 Y 110 X -25 Y 109 X -33 Y 109 X -48 Y 110 X 2 Y 109 X -26 Y 110 X -37 Y 109 X -24 Y 110 X -2 Y 109 X 27 Y 109 X -102 Y f black 0.999 0.999
 0.999 c black 319 1093 m 110 X -31 Y 109 X -34 Y 109 X -35 Y 110 X -38 Y 109 X -37 Y 110 X -37 Y 109 X -29 Y 110 X -25 Y 109 X -33 Y 109 X -48 Y 110 X 2 Y 109 X -26 Y 110 X -37 Y 109 X -24 Y 110 X -2 Y 109 X 27 Y 109 X s 1 1 1 c black 319 1093 m 110
 X -31 Y 109 X -34 Y 109 X -35 Y 110 X -38 Y 109 X -37 Y 110 X -37 Y 109 X -29 Y 110 X -25 Y 109 X -33 Y 109 X -48 Y 110 X 2 Y 109 X -26 Y 110 X -37 Y 109 X -24 Y 110 X -2 Y 109 X 27 Y 109 X s 0.6 1 0.6 c black 0.6 1 0.6 c 319 584 m 509 Y 110 X -31 Y
 109 X -34 Y 109 X -35 Y 110 X -38 Y 109 X -37 Y 110 X -37 Y 109 X -29 Y 110 X -25 Y 109 X -33 Y 109 X -48 Y 110 X 2 Y 109 X -26 Y 110 X -37 Y 109 X -24 Y 110 X -2 Y 109 X 27 Y 109 X -102 Y f black 0.6 1 0.6 c black 319 1093 m 110 X -31 Y 109 X -34 Y
 109 X -35 Y 110 X -38 Y 109 X -37 Y 110 X -37 Y 109 X -29 Y 110 X -25 Y 109 X -33 Y 109 X -48 Y 110 X 2 Y 109 X -26 Y 110 X -37 Y 109 X -24 Y 110 X -2 Y 109 X 27 Y 109 X s 0.999 0.999 0.999 c black 0.999 0.999 0.999 c 319 584 m 497 Y 110 X -31 Y 109
 X -33 Y 109 X -32 Y 110 X -39 Y 109 X -38 Y 110 X -34 Y 109 X -28 Y 110 X -24 Y 109 X -33 Y 109 X -48 Y 110 X 5 Y 109 X -35 Y 110 X -26 Y 109 X -24 Y 110 X -3 Y 109 X 26 Y 109 X -100 Y f black 0.999 0.999 0.999 c black 319 1081 m 110 X -31 Y 109 X
 -33 Y 109 X -32 Y 110 X -39 Y 109 X -38 Y 110 X -34 Y 109 X -28 Y 110 X -24 Y 109 X -33 Y 109 X -48 Y 110 X 5 Y 109 X -35 Y 110 X -26 Y 109 X -24 Y 110 X -3 Y 109 X 26 Y 109 X s 1 1 1 c black 319 1081 m 110 X -31 Y 109 X -33 Y 109 X -32 Y 110 X -39
 Y 109 X -38 Y 110 X -34 Y 109 X -28 Y 110 X -24 Y 109 X -33 Y 109 X -48 Y 110 X 5 Y 109 X -35 Y 110 X -26 Y 109 X -24 Y 110 X -3 Y 109 X 26 Y 109 X s 1 0.8 0.4 c black 1 0.8 0.4 c 319 584 m 497 Y 110 X -31 Y 109 X -33 Y 109 X -32 Y 110 X -39 Y 109 X
 -38 Y 110 X -34 Y 109 X -28 Y 110 X -24 Y 109 X -33 Y 109 X -48 Y 110 X 5 Y 109 X -35 Y 110 X -26 Y 109 X -24 Y 110 X -3 Y 109 X 26 Y 109 X -100 Y f black 1 0.8 0.4 c black 319 1081 m 110 X -31 Y 109 X -33 Y 109 X -32 Y 110 X -39 Y 109 X -38 Y 110 X
 -34 Y 109 X -28 Y 110 X -24 Y 109 X -33 Y 109 X -48 Y 110 X 5 Y 109 X -35 Y 110 X -26 Y 109 X -24 Y 110 X -3 Y 109 X 26 Y 109 X s 0.999 0.999 0.999 c black 0.999 0.999 0.999 c 319 584 m 376 Y 110 X -30 Y 109 X -31 Y 109 X -32 Y 110 X -27 Y 109 X -30
 Y 110 X -48 Y 109 X -15 Y 110 X -64 Y 109 X 21 Y 109 X -59 Y 110 X 5 Y 109 X -66 Y 110 X 48 Y 109 X -48 Y 219 X 65 Y 109 X -65 Y f black 0.999 0.999 0.999 c black 319 960 m 110 X -30 Y 109 X -31 Y 109 X -32 Y 110 X -27 Y 109 X -30 Y 110 X -48 Y 109
 X -15 Y 110 X -64 Y 109 X 21 Y 109 X -59 Y 110 X 5 Y 109 X -66 Y 110 X 48 Y 109 X -48 Y 219 X 65 Y 109 X s 1 1 1 c black 319 960 m 110 X -30 Y 109 X -31 Y 109 X -32 Y 110 X -27 Y 109 X -30 Y 110 X -48 Y 109 X -15 Y 110 X -64 Y 109 X 21 Y 109 X -59 Y
 110 X 5 Y 109 X -66 Y 110 X 48 Y 109 X -48 Y 219 X 65 Y 109 X s 1 0.4 0.6 c black 1 0.4 0.6 c 319 584 m 376 Y 110 X -30 Y 109 X -31 Y 109 X -32 Y 110 X -27 Y 109 X -30 Y 110 X -48 Y 109 X -15 Y 110 X -64 Y 109 X 21 Y 109 X -59 Y 110 X 5 Y 109 X -66
 Y 110 X 48 Y 109 X -48 Y 219 X 65 Y 109 X -65 Y f black 1 0.4 0.6 c black 319 960 m 110 X -30 Y 109 X -31 Y 109 X -32 Y 110 X -27 Y 109 X -30 Y 110 X -48 Y 109 X -15 Y 110 X -64 Y 109 X 21 Y 109 X -59 Y 110 X 5 Y 109 X -66 Y 110 X 48 Y 109 X -48 Y
 219 X 65 Y 109 X s 0.999 0.999 0.999 c black 0.999 0.999 0.999 c 319 584 m 326 Y 110 X -40 Y 109 X -35 Y 109 X -27 Y 110 X -29 Y 109 X -32 Y 110 X -21 Y 109 X -44 Y 110 X -41 Y 109 X -2 Y 109 X -55 Y 110 X 7 Y 109 X -7 Y 547 X f black 0.999 0.999
 0.999 c black 319 910 m 110 X -40 Y 109 X -35 Y 109 X -27 Y 110 X -29 Y 109 X -32 Y 110 X -21 Y 109 X -44 Y 110 X -41 Y 109 X -2 Y 109 X -55 Y 110 X 7 Y 109 X -7 Y 547 X s 1 1 1 c black 319 910 m 110 X -40 Y 109 X -35 Y 109 X -27 Y 110 X -29 Y 109 X
 -32 Y 110 X -21 Y 109 X -44 Y 110 X -41 Y 109 X -2 Y 109 X -55 Y 110 X 7 Y 109 X -7 Y 547 X s 0 0 0.4 c black 0 0 0.4 c 319 584 m 326 Y 110 X -40 Y 109 X -35 Y 109 X -27 Y 110 X -29 Y 109 X -32 Y 110 X -21 Y 109 X -44 Y 110 X -41 Y 109 X -2 Y 109 X
 -55 Y 110 X 7 Y 109 X -7 Y 547 X f black 0 0 0.4 c black 319 910 m 110 X -40 Y 109 X -35 Y 109 X -27 Y 110 X -29 Y 109 X -32 Y 110 X -21 Y 109 X -44 Y 110 X -41 Y 109 X -2 Y 109 X -55 Y 110 X 7 Y 109 X -7 Y 547 X s 1 0 0 c 6 lw 1 1 1 c black 1 0 0 c
 319 1117 m 110 X -31 Y 109 X -35 Y 109 X -35 Y 110 X -38 Y 109 X -45 Y 110 X -24 Y 109 X -33 Y 110 X -28 Y 109 X -32 Y 109 X -42 Y 110 X -10 Y 109 X -15 Y 110 X -46 Y 109 X -17 Y 110 X -5 Y 109 X 25 Y 109 X s black 3 lw 1 0 0 c 1 lw << /PatternType
 1 /PaintType 2 /TilingType 1 /BBox [ 0 0 100 100 ] /XStep 100 /YStep 100 /PaintProc { begin gsave 0 100 m 100 0 l s gr end } >> [ 0.24 0 0 0.24 0 0 ] makepattern /P05 exch def /cs {[/Pattern /DeviceRGB] setcolorspace} def /FA {f [/DeviceRGB]
 setcolorspace} def cs 1 0 0 P05 setcolor 319 584 m 537 Y 110 X -32 Y 109 X -34 Y 109 X -35 Y 110 X -38 Y 109 X -41 Y 110 X -26 Y 109 X -34 Y 110 X -23 Y 109 X -35 Y 109 X -41 Y 110 X -7 Y 109 X -12 Y 110 X -46 Y 109 X -13 Y 110 X -6 Y 109 X 24 Y 109
 X -138 Y 100 Y -109 X -25 Y -109 X 1 Y -110 X 24 Y -109 X 46 Y -110 X 19 Y -109 X 16 Y -110 X 42 Y -109 X 29 Y -109 X 33 Y -110 X 34 Y -109 X 22 Y -110 X 49 Y -109 X 38 Y -110 X 36 Y -109 X 34 Y -109 X 32 Y -110 X -530 Y FA 6 lw 1 1 1 c 15 lw 1140
 842 m -2 Y s 1140 840 m cl s 1249 841 m 3 Y s 1249 844 m cl s 1249 800 m -14 Y s 1249 786 m cl s 1359 842 m -2 Y s 1359 840 m cl s 1468 785 m 16 Y s 1468 801 m cl s 1468 745 m -42 Y s 1468 703 m cl s 1687 744 m 29 Y s 1687 773 m cl s 1687 703 m -85
 Y s 1687 618 m cl s 1796 785 m 16 Y s 1796 801 m cl s 1796 745 m -42 Y s 1796 703 m cl s 1906 744 m 29 Y s 1906 773 m cl s 1906 703 m -85 Y s 1906 618 m cl s black 1 1 1 c 3 lw /w 43 def /w2 {w 2 div} def /w3 {w 3 div} def 374 1108 483 1085 593 1050
 702 1020 812 967 921 947 1030 918 1140 862 1249 820 1359 862 1468 765 11 { m20} R 15 lw 3 lw 1687 723 1796 765 1906 723 3 { m20} R 15 lw black 6 lw 1 1 1 c black 3 lw /w 33 def /w2 {w 2 div} def /w3 {w 3 div} def 374 1108 m20 6 lw 3 lw 483 1085 m20
 6 lw 3 lw 593 1050 m20 6 lw 3 lw 702 1020 m20 6 lw 3 lw 812 967 m20 6 lw 3 lw 921 947 m20 6 lw 3 lw 1030 918 m20 6 lw 1140 839 m 10 Y s 1140 876 m 3 Y s 3 lw 1140 862 m20 6 lw 1249 785 m 22 Y s 1249 834 m 9 Y s 3 lw 1249 820 m20 6 lw 1359 839 m 10 Y
 s 1359 876 m 3 Y s 3 lw 1359 862 m20 6 lw 1468 691 m 61 Y s 1468 779 m 18 Y s 3 lw 1468 765 m20 6 lw 1687 584 m 126 Y s 1687 737 m 28 Y s 3 lw 1687 723 m20 6 lw 1796 691 m 61 Y s 1796 779 m 18 Y s 3 lw 1796 765 m20 6 lw 1906 584 m 126 Y s 1906 737 m
 28 Y s 3 lw 1906 723 m20 6 lw 1140 876 m 3 Y s 1140 879 m cl s 1140 849 m -9 Y s 1140 840 m cl s 1249 834 m 10 Y s 1249 844 m cl s 1249 807 m -21 Y s 1249 786 m cl s 1359 876 m 3 Y s 1359 879 m cl s 1359 849 m -9 Y s 1359 840 m cl s 1468 779 m 22 Y
 s 1468 801 m cl s 1468 752 m -49 Y s 1468 703 m cl s 1687 737 m 36 Y s 1687 773 m cl s 1687 710 m -92 Y s 1687 618 m cl s 1796 779 m 22 Y s 1796 801 m cl s 1796 752 m -49 Y s 1796 703 m cl s 1906 737 m 36 Y s 1906 773 m cl s 1906 710 m -92 Y s 1906
 618 m cl s 3 lw 374 1108 483 1085 593 1050 702 1020 812 967 921 947 1030 918 1140 862 1249 820 1359 862 1468 765 11 { m20} R 6 lw 3 lw 1687 723 1796 765 1906 723 3 { m20} R 6 lw 3 lw 319 584 m 1860 X s 538 584 m cl s 593 584 m cl s 647 584 m cl s
 702 584 m cl s 757 584 m cl s 812 584 m cl s 866 584 m cl s 921 584 m cl s 976 584 m cl s 1030 584 m cl s 1085 584 m cl s 1140 584 m cl s 1195 584 m cl s 1249 584 m cl s 1304 584 m cl s 1359 584 m cl s 1413 584 m cl s 1468 584 m cl s 1523 584 m cl s
 1578 584 m cl s 1632 584 m cl s 1687 584 m cl s 1742 584 m cl s 1796 584 m cl s 1851 584 m cl s 1906 584 m cl s 1961 584 m cl s 2015 584 m cl s 2070 584 m cl s 2125 584 m cl s 2179 584 m cl s 538 584 m cl s 483 584 m cl s 429 584 m cl s 374 584 m cl
 s 319 584 m cl s 319 1729 m 1860 X s 538 1729 m cl s 593 1729 m cl s 647 1729 m cl s 702 1729 m cl s 757 1729 m cl s 812 1729 m cl s 866 1729 m cl s 921 1729 m cl s 976 1729 m cl s 1030 1729 m cl s 1085 1729 m cl s 1140 1729 m cl s 1195 1729 m cl s
 1249 1729 m cl s 1304 1729 m cl s 1359 1729 m cl s 1413 1729 m cl s 1468 1729 m cl s 1523 1729 m cl s 1578 1729 m cl s 1632 1729 m cl s 1687 1729 m cl s 1742 1729 m cl s 1796 1729 m cl s 1851 1729 m cl s 1906 1729 m cl s 1961 1729 m cl s 2015 1729 m
 cl s 2070 1729 m cl s 2125 1729 m cl s 2179 1729 m cl s 538 1729 m cl s 483 1729 m cl s 429 1729 m cl s 374 1729 m cl s 319 1729 m cl s 319 584 m 1145 Y s 341 626 m -22 X s 341 651 m -22 X s 341 668 m -22 X s 341 681 m -22 X s 341 692 m -22 X s 341
 702 m -22 X s 341 710 m -22 X s 341 717 m -22 X s 363 723 m -44 X s 341 765 m -22 X s 341 790 m -22 X s 341 807 m -22 X s 341 820 m -22 X s 341 831 m -22 X s 341 841 m -22 X s 341 849 m -22 X s 341 856 m -22 X s 363 862 m -44 X s 341 904 m -22 X s
 341 929 m -22 X s 341 946 m -22 X s 341 959 m -22 X s 341 970 m -22 X s 341 980 m -22 X s 341 988 m -22 X s 341 995 m -22 X s 363 1001 m -44 X s 341 1043 m -22 X s 341 1068 m -22 X s 341 1085 m -22 X s 341 1098 m -22 X s 341 1109 m -22 X s 341 1119
 m -22 X s 341 1127 m -22 X s 341 1134 m -22 X s 363 1140 m -44 X s 341 1182 m -22 X s 341 1207 m -22 X s 341 1224 m -22 X s 341 1237 m -22 X s 341 1248 m -22 X s 341 1258 m -22 X s 341 1266 m -22 X s 341 1273 m -22 X s 363 1279 m -44 X s 341 1321 m
 -22 X s 341 1346 m -22 X s 341 1363 m -22 X s 341 1376 m -22 X s 341 1387 m -22 X s 341 1397 m -22 X s 341 1405 m -22 X s 341 1412 m -22 X s 363 1418 m -44 X s 341 1460 m -22 X s 341 1485 m -22 X s 341 1502 m -22 X s 341 1515 m -22 X s 341 1526 m
 -22 X s 341 1536 m -22 X s 341 1544 m -22 X s 341 1551 m -22 X s 363 1557 m -44 X s 341 1599 m -22 X s 341 1624 m -22 X s 341 1641 m -22 X s 341 1654 m -22 X s 341 1665 m -22 X s 341 1675 m -22 X s 341 1683 m -22 X s 341 1690 m -22 X s 363 1696 m
 -44 X s 2179 584 m 1145 Y s 2157 626 m 22 X s 2157 651 m 22 X s 2157 668 m 22 X s 2157 681 m 22 X s 2157 692 m 22 X s 2157 702 m 22 X s 2157 710 m 22 X s 2157 717 m 22 X s 2136 723 m 43 X s 2157 765 m 22 X s 2157 790 m 22 X s 2157 807 m 22 X s 2157
 820 m 22 X s 2157 831 m 22 X s 2157 841 m 22 X s 2157 849 m 22 X s 2157 856 m 22 X s 2136 862 m 43 X s 2157 904 m 22 X s 2157 929 m 22 X s 2157 946 m 22 X s 2157 959 m 22 X s 2157 970 m 22 X s 2157 980 m 22 X s 2157 988 m 22 X s 2157 995 m 22 X s
 2136 1001 m 43 X s 2157 1043 m 22 X s 2157 1068 m 22 X s 2157 1085 m 22 X s 2157 1098 m 22 X s 2157 1109 m 22 X s 2157 1119 m 22 X s 2157 1127 m 22 X s 2157 1134 m 22 X s 2136 1140 m 43 X s 2157 1182 m 22 X s 2157 1207 m 22 X s 2157 1224 m 22 X s
 2157 1237 m 22 X s 2157 1248 m 22 X s 2157 1258 m 22 X s 2157 1266 m 22 X s 2157 1273 m 22 X s 2136 1279 m 43 X s 2157 1321 m 22 X s 2157 1346 m 22 X s 2157 1363 m 22 X s 2157 1376 m 22 X s 2157 1387 m 22 X s 2157 1397 m 22 X s 2157 1405 m 22 X s
 2157 1412 m 22 X s 2136 1418 m 43 X s 2157 1460 m 22 X s 2157 1485 m 22 X s 2157 1502 m 22 X s 2157 1515 m 22 X s 2157 1526 m 22 X s 2157 1536 m 22 X s 2157 1544 m 22 X s 2157 1551 m 22 X s 2136 1557 m 43 X s 2157 1599 m 22 X s 2157 1624 m 22 X s
 2157 1641 m 22 X s 2157 1654 m 22 X s 2157 1665 m 22 X s 2157 1675 m 22 X s 2157 1683 m 22 X s 2157 1690 m 22 X s 2136 1696 m 43 X s
 gsave  2263 1770 2 313 C 406.765 1447.41 t 0 r /Helvetica findfont 64.4212 sf 0 0 m (VR0LdPhi for MB\255C) show NC gr 
 gsave  2263 1770 2 313 C 1464.36 1630.45 t 0 r /Helvetica findfont 64.4212 sf 0 0 m (SM Total) show NC gr  1 1 1 c 1338 1616 m 107 X 64 Y -107 X f 1 0 0 c 6 lw 1338 1648 m 107 X s black
 gsave  2263 1770 2 313 C 1464.36 1538.93 t 0 r /Helvetica findfont 64.4212 sf 0 0 m (Data) show NC gr  1391 1529 m 55 Y s 3 lw 1391 1557 m20 6 lw
 gsave  2263 1770 2 313 C 1464.36 1447.41 t 0 r /Helvetica findfont 64.4212 sf 0 0 m (W+jets) show NC gr  0.4 0.6 1 c 3 lw 1338 1434 m 107 X 64 Y -107 X f 6 lw black 3 lw 1338 1498 m 107 X s 1338 1434 m 107 X s 1445 1434 m 64 Y s 1338 1434 m 64 Y s
 gsave  2263 1770 2 313 C 1498.25 1355.88 t 0 r /Helvetica findfont 64.4212 sf 0 0 m (\(+EW\) & single top) show NC gr 
 gsave  2263 1770 2 313 C 1481.3 1355.88 t 0 r /Helvetica findfont 64.4212 sf 0 0 m (t) show NC gr  1481 1407 m 17 X s
 gsave  2263 1770 2 313 C 1464.36 1355.88 t 0 r /Helvetica findfont 64.4212 sf 0 0 m (t) show NC gr  0.6 1 0.6 c 1338 1343 m 107 X 63 Y -107 X f black 1338 1406 m 107 X s 1338 1343 m 107 X s 1445 1343 m 63 Y s 1338 1343 m 63 Y s
 gsave  2263 1770 2 313 C 1464.36 1264.36 t 0 r /Helvetica findfont 64.4212 sf 0 0 m (Z+jets) show NC gr  1 0.8 0.4 c 1338 1252 m 107 X 63 Y -107 X f black 1338 1315 m 107 X s 1338 1252 m 107 X s 1445 1252 m 63 Y s 1338 1252 m 63 Y s
 gsave  2263 1770 2 313 C 1464.36 1172.84 t 0 r /Helvetica findfont 64.4212 sf 0 0 m (Diboson) show NC gr  1 0.4 0.6 c 1338 1161 m 107 X 63 Y -107 X f black 1338 1224 m 107 X s 1338 1161 m 107 X s 1445 1161 m 63 Y s 1338 1161 m 63 Y s
 gsave  2263 1770 2 313 C 1464.36 1081.32 t 0 r /Helvetica findfont 64.4212 sf 0 0 m (Multi\255jet) show NC gr  0 0 0.4 c 1338 1070 m 107 X 63 Y -107 X f black 1338 1133 m 107 X s 1338 1070 m 107 X s 1445 1070 m 63 Y s 1338 1070 m 63 Y s
 gsave  2263 1770 2 313 C 911.832 1566.05 t 0 r /Helvetica findfont 44.0776 sf 0 0 m (\2551) show NC gr 
 gsave  2263 1770 2 313 C 471.17 1535.54 t 0 r /Helvetica findfont 64.4212 sf 0 0 m (=13TeV, 139 fb) show NC gr 
 gsave  2263 1770 2 313 C 440.662 1535.54 t 0 r /Helvetica findfont 64.4212 sf 0 0 m (s) show NC gr  6 lw 420 1573 m 7 -41 d s 3 lw 427 1532 m 7 61 d s 434 1593 m 37 X s 1 1 1 c 2254 561 2 2 bf black 1 1 1 c black 1860 358 318 187 bl 1 1 1 c black
 1860 358 318 187 bl 6 lw 1 1 1 c black 3 lw 373 343 m20 6 lw 3 lw 482 365 m20 6 lw 3 lw 591 363 m20 6 lw 3 lw 701 378 m20 6 lw 3 lw 810 340 m20 6 lw 3 lw 920 410 m20 6 lw 3 lw 1029 391 m20 6 lw 3 lw 1139 334 m20 6 lw 3 lw 1248 306 m20 6 lw 3 lw 1467
 344 m20 6 lw 3 lw 1686 310 m20 6 lw 3 lw 1905 508 m20 6 lw 3 lw 318 187 m 1860 X s
 gsave  2254 561 2 2 C 1959.25 33.8971 t 0 r /Helvetica findfont 78.1689 sf 0 0 m ( [GeV]) show NC gr 
 gsave  2254 561 2 2 C 1901.63 13.5588 t 0 r /Helvetica findfont 50.9797 sf 0 0 m (eff) show NC gr 
 gsave  2254 561 2 2 C 1840.61 33.8971 t 0 r /Helvetica findfont 78.1689 sf 0 0 m (m) show NC gr  537 201 m -14 Y s 591 194 m -7 Y s 646 194 m -7 Y s 701 194 m -7 Y s 756 194 m -7 Y s 810 201 m -14 Y s 865 194 m -7 Y s 920 194 m -7 Y s 975 194 m -7 Y
 s 1029 194 m -7 Y s 1084 201 m -14 Y s 1139 194 m -7 Y s 1193 194 m -7 Y s 1248 194 m -7 Y s 1303 194 m -7 Y s 1358 201 m -14 Y s 1412 194 m -7 Y s 1467 194 m -7 Y s 1522 194 m -7 Y s 1576 194 m -7 Y s 1631 201 m -14 Y s 1686 194 m -7 Y s 1741 194 m
 -7 Y s 1795 194 m -7 Y s 1850 194 m -7 Y s 1905 201 m -14 Y s 1959 194 m -7 Y s 2014 194 m -7 Y s 2069 194 m -7 Y s 2124 194 m -7 Y s 2178 201 m -14 Y s 537 201 m -14 Y s 482 194 m -7 Y s 427 194 m -7 Y s 373 194 m -7 Y s 318 194 m -7 Y s
 gsave  2254 561 2 2 C 447.442 118.64 t 0 r /Helvetica findfont 78.1689 sf 0 0 m (2000) show NC gr 
 gsave  2254 561 2 2 C 722.008 118.64 t 0 r /Helvetica findfont 78.1689 sf 0 0 m (2500) show NC gr 
 gsave  2254 561 2 2 C 993.185 118.64 t 0 r /Helvetica findfont 78.1689 sf 0 0 m (3000) show NC gr 
 gsave  2254 561 2 2 C 1267.75 118.64 t 0 r /Helvetica findfont 78.1689 sf 0 0 m (3500) show NC gr 
 gsave  2254 561 2 2 C 1542.32 118.64 t 0 r /Helvetica findfont 78.1689 sf 0 0 m (4000) show NC gr 
 gsave  2254 561 2 2 C 1813.5 118.64 t 0 r /Helvetica findfont 78.1689 sf 0 0 m (4500) show NC gr 
 gsave  2254 561 2 2 C 2088.06 118.64 t 0 r /Helvetica findfont 78.1689 sf 0 0 m (5000) show NC gr  318 545 m 1860 X s 537 531 m 14 Y s 591 538 m 7 Y s 646 538 m 7 Y s 701 538 m 7 Y s 756 538 m 7 Y s 810 531 m 14 Y s 865 538 m 7 Y s 920 538 m 7 Y s
 975 538 m 7 Y s 1029 538 m 7 Y s 1084 531 m 14 Y s 1139 538 m 7 Y s 1193 538 m 7 Y s 1248 538 m 7 Y s 1303 538 m 7 Y s 1358 531 m 14 Y s 1412 538 m 7 Y s 1467 538 m 7 Y s 1522 538 m 7 Y s 1576 538 m 7 Y s 1631 531 m 14 Y s 1686 538 m 7 Y s 1741 538
 m 7 Y s 1795 538 m 7 Y s 1850 538 m 7 Y s 1905 531 m 14 Y s 1959 538 m 7 Y s 2014 538 m 7 Y s 2069 538 m 7 Y s 2124 538 m 7 Y s 2178 531 m 14 Y s 537 531 m 14 Y s 482 538 m 7 Y s 427 538 m 7 Y s 373 538 m 7 Y s 318 538 m 7 Y s 318 187 m 358 Y s
 gsave  2254 561 2 2 C 166.096 284.736 t 90 r /Helvetica findfont 67.9729 sf 0 0 m (Data/SM) show NC gr  361 203 m -43 X s 339 220 m -21 X s 339 236 m -21 X s 339 252 m -21 X s 339 268 m -21 X s 361 285 m -43 X s 339 301 m -21 X s 339 317 m -21 X s
 339 334 m -21 X s 339 350 m -21 X s 361 366 m -43 X s 339 382 m -21 X s 339 399 m -21 X s 339 415 m -21 X s 339 431 m -21 X s 361 447 m -43 X s 339 464 m -21 X s 339 480 m -21 X s 339 496 m -21 X s 339 512 m -21 X s 361 529 m -43 X s 361 203 m -43 X
 s 339 187 m -21 X s 361 529 m -43 X s
 gsave  2254 561 2 2 C 261.008 183.044 t 0 r /Helvetica findfont 57.777 sf 0 0 m (0) show NC gr 
 gsave  2254 561 2 2 C 213.552 261.008 t 0 r /Helvetica findfont 57.777 sf 0 0 m (0.5) show NC gr 
 gsave  2254 561 2 2 C 271.177 342.361 t 0 r /Helvetica findfont 57.777 sf 0 0 m (1) show NC gr 
 gsave  2254 561 2 2 C 213.552 423.714 t 0 r /Helvetica findfont 57.777 sf 0 0 m (1.5) show NC gr 
 gsave  2254 561 2 2 C 261.008 505.067 t 0 r /Helvetica findfont 57.777 sf 0 0 m (2) show NC gr  2178 187 m 358 Y s 2135 203 m 43 X s 2157 220 m 21 X s 2157 236 m 21 X s 2157 252 m 21 X s 2157 268 m 21 X s 2135 285 m 43 X s 2157 301 m 21 X s 2157 317
 m 21 X s 2157 334 m 21 X s 2157 350 m 21 X s 2135 366 m 43 X s 2157 382 m 21 X s 2157 399 m 21 X s 2157 415 m 21 X s 2157 431 m 21 X s 2135 447 m 43 X s 2157 464 m 21 X s 2157 480 m 21 X s 2157 496 m 21 X s 2157 512 m 21 X s 2135 529 m 43 X s 2135
 203 m 43 X s 2157 187 m 21 X s 2135 529 m 43 X s 9 lw 701 391 m 2 Y s 701 393 m cl s 701 364 m -1 Y s 701 363 m cl s 810 354 m 4 Y s 810 358 m cl s 810 326 m -4 Y s 810 322 m cl s 920 423 m 19 Y s 920 442 m cl s 920 396 m -18 Y s 920 378 m cl s 1029
 404 m 25 Y s 1029 429 m cl s 1029 377 m -23 Y s 1029 354 m cl s 1139 347 m 29 Y s 1139 376 m cl s 1139 320 m -26 Y s 1139 294 m cl s 1248 319 m 35 Y s 1248 354 m cl s 1248 292 m -30 Y s 1248 262 m cl s 1358 543 m -96 Y s 1358 447 m cl s 1467 357 m
 100 Y s 1467 457 m cl s 1467 330 m -77 Y s 1467 253 m cl s 1686 324 m 124 Y s 1686 448 m cl s 1686 297 m -75 Y s 1686 222 m cl s 1795 545 m -178 Y s 1795 367 m cl s 1905 521 m 24 Y s 1905 545 m cl s 1905 494 m -238 Y s 1905 256 m cl s 3 lw 373 343
 482 365 591 363 701 378 810 340 920 410 1029 391 1139 334 1248 306 9 { m20} R 9 lw 3 lw 1467 344 m20 9 lw 3 lw 1686 310 m20 9 lw 3 lw 1905 508 m20 9 lw 1 0 0 c 6 lw black 3 lw 1 0 0 c 2178 227 m s 2178 255 m s 2178 284 m s 2178 312 m s 2178 341 m
 -25 -25 d s 2178 369 m -53 -53 d s 2178 398 m -82 -82 d s 2168 416 m -102 -101 d s 2139 416 m -102 -101 d s 2111 416 m -102 -101 d s 2082 416 m -102 -101 d s 2054 417 m -108 -108 d s 2025 417 m -108 -108 d s 1997 417 m -109 -108 d s 1968 417 m -108
 -108 d s 1945 423 m -100 -100 d s 1916 423 m -100 -100 d s 1888 423 m -100 -100 d s 1859 423 m -9 -9 d s 1845 409 m -86 -86 d s 1816 409 m -87 -87 d s 1788 409 m -87 -87 d s 1759 409 m -87 -87 d s 1731 410 m -88 -88 d s 1703 410 m -79 -79 d s 1674
 410 m -79 -79 d s 1645 410 m -79 -79 d s 1607 401 m -69 -70 d s 1579 401 m -59 -59 d s 1550 401 m -59 -59 d s 1510 390 m -48 -48 d s 1482 390 m -48 -48 d s 1453 390 m -46 -46 d s 1424 390 m -46 -46 d s 1393 388 m -43 -44 d s 1365 388 m -44 -44 d s
 1336 388 m -51 -51 d s 1307 388 m -51 -51 d s 1286 396 m -59 -59 d s 1258 396 m -59 -59 d s 1229 396 m -46 -46 d s 1200 396 m -7 -7 d s 1187 383 m -33 -33 d s 1159 383 m -33 -33 d s 1130 383 m -33 -33 d s 1101 383 m -33 -33 d s 1072 382 m -32 -32 d
 s 1044 382 m -33 -32 d s 1015 382 m -33 -32 d s 986 382 m -38 -37 d s 963 387 m -43 -42 d s 934 387 m -43 -42 d s 905 387 m -40 -40 d s 877 387 m -33 -32 d s 838 377 m -23 -22 d s 809 377 m -22 -22 d s 780 377 m -22 -22 d s 751 377 m -21 -22 d s 723
 377 m -22 -22 d s 694 377 m -22 -22 d s 665 377 m -20 -20 d s 635 375 m -19 -18 d s 606 375 m -18 -18 d s 578 375 m -19 -18 d s 549 375 m -18 -18 d s 520 375 m -18 -18 d s 491 375 m -18 -18 d s 462 375 m -17 -18 d s 318 231 m s 434 375 m -18 -18 d s
 318 259 m s 405 375 m -18 -18 d s 318 288 m s 377 375 m -19 -18 d s 318 317 m s 348 375 m -18 -18 d s 318 345 m s 319 375 m -1 -1 d s 6 lw black[ 4 8] 0 sd 3 lw 318 447 m 1860 X s 318 285 m 1860 X s 1 0 0 c[  12 12 ] 0 sd 6 lw 318 366 m 1860 X s
 gr  gr showpage
end
%%EOF
