%!PS-Adobe-2.0 EPSF-2.0
%%BoundingBox:  0 0 567 521
%%Title: Distributions/meffInc_distrCRT_MB-GGo_beforeFit_forThesis.eps: canvas
%%Creator: ROOT Version 6.04/16
%%CreationDate: Tue May 19 22:04:10 2020
%%DocumentNeededResources: ProcSet (FontSetInit)
%%EndComments
%%BeginProlog
80 dict begin
/s {stroke} def /l {lineto} def /m {moveto} def /t {translate} def
/r {rotate} def /rl {roll}  def /R {repeat} def
/d {rlineto} def /rm {rmoveto} def /gr {grestore} def /f {eofill} def
/c {setrgbcolor} def /black {0 setgray} def /sd {setdash} def
/cl {closepath} def /sf {scalefont setfont} def /lw {setlinewidth} def
/box {m dup 0 exch d exch 0 d 0 exch neg d cl} def
/NC{systemdict begin initclip end}def/C{NC box clip newpath}def
/bl {box s} def /bf {gsave box gsave f grestore 1 lw [] 0 sd s grestore} def /Y { 0 exch d} def /X { 0 d} def 
/K {{pop pop 0 moveto} exch kshow} bind def
/ita {/ang 15 def gsave [1 0 ang dup sin exch cos div 1 0 0] concat} def 
/mp {newpath /y exch def /x exch def} def
/side {[w .77 mul w .23 mul] .385 w mul sd w 0 l currentpoint t -144 r} def
/mr {mp x y w2 0 360 arc} def /m24 {mr s} def /m20 {mr f} def
/mb {mp x y w2 add m w2 neg 0 d 0 w neg d w 0 d 0 w d cl} def
/mt {mp x y w2 add m w2 neg w neg d w 0 d cl} def
/m21 {mb f} def /m25 {mb s} def /m22 {mt f} def /m26{mt s} def
/m23 {mp x y w2 sub m w2 w d w neg 0 d cl f} def
/m27 {mp x y w2 add m w3 neg w2 neg d w3 w2 neg d w3 w2 d cl s} def
/m28 {mp x w2 sub y w2 sub w3 add m w3 0 d  0 w3 neg d w3 0 d 0 w3 d w3 0 d  0 w3 d w3 neg 0 d 0 w3 d w3 neg 0 d 0 w3 neg d w3 neg 0 d cl s } def
/m29 {mp gsave x w2 sub y w2 add w3 sub m currentpoint t 4 {side} repeat cl fill gr} def
/m30 {mp gsave x w2 sub y w2 add w3 sub m currentpoint t 4 {side} repeat cl s gr} def
/m31 {mp x y w2 sub m 0 w d x w2 sub y m w 0 d x w2 sub y w2 add m w w neg d x w2 sub y w2 sub m w w d s} def
/m32 {mp x y w2 sub m w2 w d w neg 0 d cl s} def
/m33 {mp x y w2 add m w3 neg w2 neg d w3 w2 neg d w3 w2 d cl f} def
/m34 {mp x w2 sub y w2 sub w3 add m w3 0 d  0 w3 neg d w3 0 d 0 w3 d w3 0 d  0 w3 d w3 neg 0 d 0 w3 d w3 neg 0 d 0 w3 neg d w3 neg 0 d cl f } def
/m2 {mp x y w2 sub m 0 w d x w2 sub y m w 0 d s} def
/m5 {mp x w2 sub y w2 sub m w w d x w2 sub y w2 add m w w neg d s} def
%%IncludeResource: ProcSet (FontSetInit)
%%IncludeResource: font Times-Roman
%%IncludeResource: font Times-Italic
%%IncludeResource: font Times-Bold
%%IncludeResource: font Times-BoldItalic
%%IncludeResource: font Helvetica
%%IncludeResource: font Helvetica-Oblique
%%IncludeResource: font Helvetica-Bold
%%IncludeResource: font Helvetica-BoldOblique
%%IncludeResource: font Courier
%%IncludeResource: font Courier-Oblique
%%IncludeResource: font Courier-Bold
%%IncludeResource: font Courier-BoldOblique
%%IncludeResource: font Symbol
%%IncludeResource: font ZapfDingbats
/reEncode {exch findfont dup length dict begin {1 index /FID eq  {pop pop} {def} ifelse } forall /Encoding exch def currentdict end dup /FontName get exch definefont pop } def [/Times-Bold /Times-Italic /Times-BoldItalic /Helvetica /Helvetica-Oblique
 /Helvetica-Bold /Helvetica-BoldOblique /Courier /Courier-Oblique /Courier-Bold /Courier-BoldOblique /Times-Roman /AvantGarde-Book /AvantGarde-BookOblique /AvantGarde-Demi /AvantGarde-DemiOblique /Bookman-Demi /Bookman-DemiItalic /Bookman-Light
 /Bookman-LightItalic /Helvetica-Narrow /Helvetica-Narrow-Bold /Helvetica-Narrow-BoldOblique /Helvetica-Narrow-Oblique /NewCenturySchlbk-Roman /NewCenturySchlbk-Bold /NewCenturySchlbk-BoldItalic /NewCenturySchlbk-Italic /Palatino-Bold
 /Palatino-BoldItalic /Palatino-Italic /Palatino-Roman ] {ISOLatin1Encoding reEncode } forall
%%EndProlog
%%BeginSetup
%%EndSetup
newpath  gsave  .25 .25 scale  gsave  0 0 t black[  ] 0 sd 3 lw 1 1 1 c 2268 2085 0 0 bf black 1 1 1 c 2263 1770 2 313 bf black 1 1 1 c black 1860 1145 319 584 bl 1 1 1 c black 1860 1145 319 584 bl 6 lw 1 1 1 c black 3 lw /w 33 def /w2 {w 2 div} def
 /w3 {w 3 div} def 381 1034 m20 6 lw 3 lw 505 1116 m20 6 lw 3 lw 629 1116 m20 6 lw 3 lw 753 1099 m20 6 lw 3 lw 877 1054 m20 6 lw 3 lw 1001 1040 m20 6 lw 1125 951 m 7 Y s 1125 985 m 3 Y s 3 lw 1125 972 m20 6 lw 1249 965 m 5 Y s 1249 997 m 2 Y s 3 lw
 1249 984 m20 6 lw 1373 893 m 17 Y s 1373 937 m 8 Y s 3 lw 1373 924 m20 6 lw 1497 776 m 51 Y s 1497 854 m 21 Y s 3 lw 1497 841 m20 6 lw 1621 835 m 31 Y s 1621 893 m 14 Y s 3 lw 1621 879 m20 6 lw 1745 810 m 39 Y s 1745 876 m 17 Y s 3 lw 1745 863 m20 6
 lw 1869 718 m 79 Y s 1869 824 m 27 Y s 3 lw 1869 810 m20 6 lw 2117 718 m 79 Y s 2117 824 m 27 Y s 3 lw 2117 810 m20 6 lw 3 lw 319 584 m 1860 X s
 gsave  2263 1770 2 313 C 1949.08 369.478 t 0 r /Helvetica findfont 81.3741 sf 0 0 m ( [GeV]) show NC gr 
 gsave  2263 1770 2 313 C 1888.07 342.361 t 0 r /Helvetica findfont 54.2494 sf 0 0 m (eff) show NC gr 
 gsave  2263 1770 2 313 C 1823.66 369.478 t 0 r /Helvetica findfont 81.3741 sf 0 0 m (m) show NC gr  319 584 m cl s 381 584 m cl s 443 584 m cl s 505 584 m cl s 567 584 m cl s 629 584 m cl s 691 584 m cl s 753 584 m cl s 815 584 m cl s 877 584 m cl s
 939 584 m cl s 1001 584 m cl s 1063 584 m cl s 1125 584 m cl s 1187 584 m cl s 1249 584 m cl s 1311 584 m cl s 1373 584 m cl s 1435 584 m cl s 1497 584 m cl s 1559 584 m cl s 1621 584 m cl s 1683 584 m cl s 1745 584 m cl s 1807 584 m cl s 1869 584 m
 cl s 1931 584 m cl s 1993 584 m cl s 2055 584 m cl s 2117 584 m cl s 2179 584 m cl s 319 1729 m 1860 X s 319 1729 m cl s 381 1729 m cl s 443 1729 m cl s 505 1729 m cl s 567 1729 m cl s 629 1729 m cl s 691 1729 m cl s 753 1729 m cl s 815 1729 m cl s
 877 1729 m cl s 939 1729 m cl s 1001 1729 m cl s 1063 1729 m cl s 1125 1729 m cl s 1187 1729 m cl s 1249 1729 m cl s 1311 1729 m cl s 1373 1729 m cl s 1435 1729 m cl s 1497 1729 m cl s 1559 1729 m cl s 1621 1729 m cl s 1683 1729 m cl s 1745 1729 m
 cl s 1807 1729 m cl s 1869 1729 m cl s 1931 1729 m cl s 1993 1729 m cl s 2055 1729 m cl s 2117 1729 m cl s 2179 1729 m cl s 319 584 m 1145 Y s
 gsave  2263 1770 2 313 C 166.096 1091.49 t 90 r /Helvetica findfont 81.3741 sf 0 0 m (Events / 200 GeV) show NC gr  341 637 m -22 X s 341 667 m -22 X s 341 689 m -22 X s 341 706 m -22 X s 341 719 m -22 X s 341 731 m -22 X s 341 741 m -22 X s 341 750
 m -22 X s 363 758 m -44 X s
 gsave  2263 1770 2 313 C 300.555 730.84 t 0 r  -36 0 t /Helvetica findfont 64.4212 sf 0 0 m (1) show NC gr  341 810 m -22 X s 341 841 m -22 X s 341 863 m -22 X s 341 879 m -22 X s 341 893 m -22 X s 341 905 m -22 X s 341 915 m -22 X s 341 924 m -22 X
 s 363 932 m -44 X s
 gsave  2263 1770 2 313 C 300.555 904.489 t 0 r  -73 0 t /Helvetica findfont 64.4212 sf 0 0 m (10) show NC gr  341 984 m -22 X s 341 1014 m -22 X s 341 1036 m -22 X s 341 1053 m -22 X s 341 1067 m -22 X s 341 1078 m -22 X s 341 1088 m -22 X s 341
 1097 m -22 X s 363 1105 m -44 X s
 gsave  2263 1770 2 313 C 274.567 1105.05 t 0 r /Helvetica findfont 44.0776 sf 0 0 m (2) show NC gr 
 gsave  2263 1770 2 313 C 203.383 1077.93 t 0 r /Helvetica findfont 64.4212 sf 0 0 m (10) show NC gr  341 1158 m -22 X s 341 1188 m -22 X s 341 1210 m -22 X s 341 1227 m -22 X s 341 1240 m -22 X s 341 1252 m -22 X s 341 1262 m -22 X s 341 1271 m -22
 X s 363 1279 m -44 X s
 gsave  2263 1770 2 313 C 274.567 1281.31 t 0 r /Helvetica findfont 44.0776 sf 0 0 m (3) show NC gr 
 gsave  2263 1770 2 313 C 203.383 1250.8 t 0 r /Helvetica findfont 64.4212 sf 0 0 m (10) show NC gr  341 1331 m -22 X s 341 1362 m -22 X s 341 1383 m -22 X s 341 1400 m -22 X s 341 1414 m -22 X s 341 1426 m -22 X s 341 1436 m -22 X s 341 1445 m -22 X
 s 363 1453 m -44 X s
 gsave  2263 1770 2 313 C 274.567 1450.8 t 0 r /Helvetica findfont 44.0776 sf 0 0 m (4) show NC gr 
 gsave  2263 1770 2 313 C 203.383 1423.68 t 0 r /Helvetica findfont 64.4212 sf 0 0 m (10) show NC gr  341 1505 m -22 X s 341 1535 m -22 X s 341 1557 m -22 X s 341 1574 m -22 X s 341 1588 m -22 X s 341 1599 m -22 X s 341 1609 m -22 X s 341 1618 m -22
 X s 363 1626 m -44 X s
 gsave  2263 1770 2 313 C 274.567 1627.06 t 0 r /Helvetica findfont 44.0776 sf 0 0 m (5) show NC gr 
 gsave  2263 1770 2 313 C 203.383 1596.55 t 0 r /Helvetica findfont 64.4212 sf 0 0 m (10) show NC gr  341 1678 m -22 X s 341 1709 m -22 X s 2179 584 m 1145 Y s 2157 637 m 22 X s 2157 667 m 22 X s 2157 689 m 22 X s 2157 706 m 22 X s 2157 719 m 22 X s
 2157 731 m 22 X s 2157 741 m 22 X s 2157 750 m 22 X s 2136 758 m 43 X s 2157 810 m 22 X s 2157 841 m 22 X s 2157 863 m 22 X s 2157 879 m 22 X s 2157 893 m 22 X s 2157 905 m 22 X s 2157 915 m 22 X s 2157 924 m 22 X s 2136 932 m 43 X s 2157 984 m 22 X
 s 2157 1014 m 22 X s 2157 1036 m 22 X s 2157 1053 m 22 X s 2157 1067 m 22 X s 2157 1078 m 22 X s 2157 1088 m 22 X s 2157 1097 m 22 X s 2136 1105 m 43 X s 2157 1158 m 22 X s 2157 1188 m 22 X s 2157 1210 m 22 X s 2157 1227 m 22 X s 2157 1240 m 22 X s
 2157 1252 m 22 X s 2157 1262 m 22 X s 2157 1271 m 22 X s 2136 1279 m 43 X s 2157 1331 m 22 X s 2157 1362 m 22 X s 2157 1383 m 22 X s 2157 1400 m 22 X s 2157 1414 m 22 X s 2157 1426 m 22 X s 2157 1436 m 22 X s 2157 1445 m 22 X s 2136 1453 m 43 X s
 2157 1505 m 22 X s 2157 1535 m 22 X s 2157 1557 m 22 X s 2157 1574 m 22 X s 2157 1588 m 22 X s 2157 1599 m 22 X s 2157 1609 m 22 X s 2157 1618 m 22 X s 2136 1626 m 43 X s 2157 1678 m 22 X s 2157 1709 m 22 X s 0.6 1 0.6 c black 0.6 1 0.6 c 319 584 m
 442 Y 124 X 99 Y 124 X -3 Y 124 X -10 Y 124 X -23 Y 124 X -22 Y 124 X -25 Y 124 X -30 Y 124 X -25 Y 124 X -39 Y 124 X -27 Y 124 X -42 Y 124 X -19 Y 124 X -28 Y 124 X 47 Y 124 X -295 Y f black 0.6 1 0.6 c black 319 1026 m 124 X 99 Y 124 X -3 Y 124 X
 -10 Y 124 X -23 Y 124 X -22 Y 124 X -25 Y 124 X -30 Y 124 X -25 Y 124 X -39 Y 124 X -27 Y 124 X -42 Y 124 X -19 Y 124 X -28 Y 124 X 47 Y 124 X s 0.999 0.999 0.999 c black 0.999 0.999 0.999 c 319 584 m 250 Y 124 X 110 Y 124 X 11 Y 124 X -7 Y 124 X
 -10 Y 124 X -15 Y 124 X -27 Y 124 X -24 Y 124 X -29 Y 124 X -22 Y 124 X -32 Y 124 X -56 Y 124 X -12 Y 124 X -37 Y 124 X 119 Y 124 X -219 Y f black 0.999 0.999 0.999 c black 319 834 m 124 X 110 Y 124 X 11 Y 124 X -7 Y 124 X -10 Y 124 X -15 Y 124 X
 -27 Y 124 X -24 Y 124 X -29 Y 124 X -22 Y 124 X -32 Y 124 X -56 Y 124 X -12 Y 124 X -37 Y 124 X 119 Y 124 X s 1 1 1 c black 319 834 m 124 X 110 Y 124 X 11 Y 124 X -7 Y 124 X -10 Y 124 X -15 Y 124 X -27 Y 124 X -24 Y 124 X -29 Y 124 X -22 Y 124 X -32
 Y 124 X -56 Y 124 X -12 Y 124 X -37 Y 124 X 119 Y 124 X s 0.4 0.6 1 c black 0.4 0.6 1 c 319 584 m 250 Y 124 X 110 Y 124 X 11 Y 124 X -7 Y 124 X -10 Y 124 X -15 Y 124 X -27 Y 124 X -24 Y 124 X -29 Y 124 X -22 Y 124 X -32 Y 124 X -56 Y 124 X -12 Y 124
 X -37 Y 124 X 119 Y 124 X -219 Y f black 0.4 0.6 1 c black 319 834 m 124 X 110 Y 124 X 11 Y 124 X -7 Y 124 X -10 Y 124 X -15 Y 124 X -27 Y 124 X -24 Y 124 X -29 Y 124 X -22 Y 124 X -32 Y 124 X -56 Y 124 X -12 Y 124 X -37 Y 124 X 119 Y 124 X s 0.999
 0.999 0.999 c black 0.999 0.999 0.999 c 319 584 m 68 Y 124 X 102 Y 124 X 18 Y 124 X -13 Y 124 X 36 Y 124 X -9 Y 124 X -89 Y 124 X 29 Y 124 X -59 Y 124 X -83 Y 124 X 103 Y 124 X -103 Y 372 X 106 Y 124 X -106 Y f black 0.999 0.999 0.999 c black 319
 652 m 124 X 102 Y 124 X 18 Y 124 X -13 Y 124 X 36 Y 124 X -9 Y 124 X -89 Y 124 X 29 Y 124 X -59 Y 124 X -83 Y 124 X 103 Y 124 X -103 Y 372 X 106 Y 124 X s 1 1 1 c black 319 652 m 124 X 102 Y 124 X 18 Y 124 X -13 Y 124 X 36 Y 124 X -9 Y 124 X -89 Y
 124 X 29 Y 124 X -59 Y 124 X -83 Y 124 X 103 Y 124 X -103 Y 372 X 106 Y 124 X s 1 0.8 0.4 c black 1 0.8 0.4 c 319 584 m 68 Y 124 X 102 Y 124 X 18 Y 124 X -13 Y 124 X 36 Y 124 X -9 Y 124 X -89 Y 124 X 29 Y 124 X -59 Y 124 X -83 Y 124 X 103 Y 124 X
 -103 Y 372 X 106 Y 124 X -106 Y f black 1 0.8 0.4 c black 319 652 m 124 X 102 Y 124 X 18 Y 124 X -13 Y 124 X 36 Y 124 X -9 Y 124 X -89 Y 124 X 29 Y 124 X -59 Y 124 X -83 Y 124 X 103 Y 124 X -103 Y 372 X 106 Y 124 X s 0.999 0.999 0.999 c black 0.999
 0.999 0.999 c 319 584 m 68 Y 124 X 87 Y 124 X 31 Y 124 X -14 Y 124 X 35 Y 124 X -7 Y 124 X -100 Y 124 X 35 Y 124 X -66 Y 124 X -69 Y 124 X 86 Y 124 X -86 Y 372 X 106 Y 124 X -106 Y f black 0.999 0.999 0.999 c black 319 652 m 124 X 87 Y 124 X 31 Y
 124 X -14 Y 124 X 35 Y 124 X -7 Y 124 X -100 Y 124 X 35 Y 124 X -66 Y 124 X -69 Y 124 X 86 Y 124 X -86 Y 372 X 106 Y 124 X s 1 1 1 c black 319 652 m 124 X 87 Y 124 X 31 Y 124 X -14 Y 124 X 35 Y 124 X -7 Y 124 X -100 Y 124 X 35 Y 124 X -66 Y 124 X
 -69 Y 124 X 86 Y 124 X -86 Y 372 X 106 Y 124 X s 1 0.4 0.6 c black 1 0.4 0.6 c 319 584 m 68 Y 124 X 87 Y 124 X 31 Y 124 X -14 Y 124 X 35 Y 124 X -7 Y 124 X -100 Y 124 X 35 Y 124 X -66 Y 124 X -69 Y 124 X 86 Y 124 X -86 Y 372 X 106 Y 124 X -106 Y f
 black 1 0.4 0.6 c black 319 652 m 124 X 87 Y 124 X 31 Y 124 X -14 Y 124 X 35 Y 124 X -7 Y 124 X -100 Y 124 X 35 Y 124 X -66 Y 124 X -69 Y 124 X 86 Y 124 X -86 Y 372 X 106 Y 124 X s 1 0 0 c 6 lw 1 1 1 c black 1 0 0 c 319 1026 m 124 X 99 Y 124 X -3 Y
 124 X -10 Y 124 X -23 Y 124 X -22 Y 124 X -25 Y 124 X -30 Y 124 X -25 Y 124 X -39 Y 124 X -27 Y 124 X -42 Y 124 X -19 Y 124 X -28 Y 124 X 47 Y 124 X s black 3 lw 1 0 0 c 1 lw << /PatternType 1 /PaintType 2 /TilingType 1 /BBox [ 0 0 100 100 ] /XStep
 100 /YStep 100 /PaintProc { begin gsave 0 100 m 100 0 l s gr end } >> [ 0.24 0 0 0.24 0 0 ] makepattern /P05 exch def /cs {[/Pattern /DeviceRGB] setcolorspace} def /FA {f [/DeviceRGB] setcolorspace} def cs 1 0 0 P05 setcolor 319 584 m 448 Y 124 X 96
 Y 124 X -4 Y 124 X -8 Y 124 X -23 Y 124 X -22 Y 124 X -23 Y 124 X -30 Y 124 X -25 Y 124 X -38 Y 124 X -26 Y 124 X -41 Y 124 X -17 Y 124 X -27 Y 124 X 46 Y 124 X -306 Y 282 Y -124 X -49 Y -124 X 29 Y -124 X 22 Y -124 X 44 Y -124 X 27 Y -124 X 40 Y
 -124 X 26 Y -124 X 31 Y -124 X 27 Y -124 X 21 Y -124 X 24 Y -124 X 12 Y -124 X 1 Y -124 X -102 Y -124 X -435 Y FA 6 lw 1 1 1 c 15 lw 1125 951 m s 1125 951 m cl s 1373 944 m 2 Y s 1373 946 m cl s 1373 903 m -9 Y s 1373 894 m cl s 1497 861 m 17 Y s
 1497 878 m cl s 1497 820 m -38 Y s 1497 782 m cl s 1621 900 m 9 Y s 1621 909 m cl s 1621 859 m -22 Y s 1621 837 m cl s 1745 883 m 12 Y s 1745 895 m cl s 1745 842 m -28 Y s 1745 814 m cl s 1869 831 m 24 Y s 1869 855 m cl s 1869 790 m -58 Y s 1869 732
 m cl s 2117 831 m 24 Y s 2117 855 m cl s 2117 790 m -58 Y s 2117 732 m cl s black 1 1 1 c 3 lw /w 43 def /w2 {w 2 div} def /w3 {w 3 div} def 381 1034 505 1116 629 1116 753 1099 877 1054 1001 1040 1125 972 1249 984 1373 924 1497 841 1621 879 1745 863
 1869 810 13 { m20} R 15 lw 3 lw 2117 810 m20 15 lw black 6 lw 1 1 1 c black 3 lw /w 33 def /w2 {w 2 div} def /w3 {w 3 div} def 381 1034 m20 6 lw 3 lw 505 1116 m20 6 lw 3 lw 629 1116 m20 6 lw 3 lw 753 1099 m20 6 lw 3 lw 877 1054 m20 6 lw 3 lw 1001
 1040 m20 6 lw 1125 951 m 7 Y s 1125 985 m 3 Y s 3 lw 1125 972 m20 6 lw 1249 965 m 5 Y s 1249 997 m 2 Y s 3 lw 1249 984 m20 6 lw 1373 893 m 17 Y s 1373 937 m 8 Y s 3 lw 1373 924 m20 6 lw 1497 776 m 51 Y s 1497 854 m 21 Y s 3 lw 1497 841 m20 6 lw 1621
 835 m 31 Y s 1621 893 m 14 Y s 3 lw 1621 879 m20 6 lw 1745 810 m 39 Y s 1745 876 m 17 Y s 3 lw 1745 863 m20 6 lw 1869 718 m 79 Y s 1869 824 m 27 Y s 3 lw 1869 810 m20 6 lw 2117 718 m 79 Y s 2117 824 m 27 Y s 3 lw 2117 810 m20 6 lw 1125 985 m 3 Y s
 1125 988 m cl s 1125 958 m -7 Y s 1125 951 m cl s 1249 997 m 2 Y s 1249 999 m cl s 1249 970 m -5 Y s 1249 965 m cl s 1373 937 m 9 Y s 1373 946 m cl s 1373 910 m -16 Y s 1373 894 m cl s 1497 854 m 24 Y s 1497 878 m cl s 1497 827 m -45 Y s 1497 782 m
 cl s 1621 893 m 16 Y s 1621 909 m cl s 1621 866 m -29 Y s 1621 837 m cl s 1745 876 m 19 Y s 1745 895 m cl s 1745 849 m -35 Y s 1745 814 m cl s 1869 824 m 31 Y s 1869 855 m cl s 1869 797 m -65 Y s 1869 732 m cl s 2117 824 m 31 Y s 2117 855 m cl s
 2117 797 m -65 Y s 2117 732 m cl s 3 lw 381 1034 505 1116 629 1116 753 1099 877 1054 1001 1040 1125 972 1249 984 1373 924 1497 841 1621 879 1745 863 1869 810 13 { m20} R 6 lw 3 lw 2117 810 m20 6 lw 3 lw 319 584 m 1860 X s 319 584 m cl s 381 584 m cl
 s 443 584 m cl s 505 584 m cl s 567 584 m cl s 629 584 m cl s 691 584 m cl s 753 584 m cl s 815 584 m cl s 877 584 m cl s 939 584 m cl s 1001 584 m cl s 1063 584 m cl s 1125 584 m cl s 1187 584 m cl s 1249 584 m cl s 1311 584 m cl s 1373 584 m cl s
 1435 584 m cl s 1497 584 m cl s 1559 584 m cl s 1621 584 m cl s 1683 584 m cl s 1745 584 m cl s 1807 584 m cl s 1869 584 m cl s 1931 584 m cl s 1993 584 m cl s 2055 584 m cl s 2117 584 m cl s 2179 584 m cl s 319 1729 m 1860 X s 319 1729 m cl s 381
 1729 m cl s 443 1729 m cl s 505 1729 m cl s 567 1729 m cl s 629 1729 m cl s 691 1729 m cl s 753 1729 m cl s 815 1729 m cl s 877 1729 m cl s 939 1729 m cl s 1001 1729 m cl s 1063 1729 m cl s 1125 1729 m cl s 1187 1729 m cl s 1249 1729 m cl s 1311
 1729 m cl s 1373 1729 m cl s 1435 1729 m cl s 1497 1729 m cl s 1559 1729 m cl s 1621 1729 m cl s 1683 1729 m cl s 1745 1729 m cl s 1807 1729 m cl s 1869 1729 m cl s 1931 1729 m cl s 1993 1729 m cl s 2055 1729 m cl s 2117 1729 m cl s 2179 1729 m cl s
 319 584 m 1145 Y s 341 637 m -22 X s 341 667 m -22 X s 341 689 m -22 X s 341 706 m -22 X s 341 719 m -22 X s 341 731 m -22 X s 341 741 m -22 X s 341 750 m -22 X s 363 758 m -44 X s 341 810 m -22 X s 341 841 m -22 X s 341 863 m -22 X s 341 879 m -22
 X s 341 893 m -22 X s 341 905 m -22 X s 341 915 m -22 X s 341 924 m -22 X s 363 932 m -44 X s 341 984 m -22 X s 341 1014 m -22 X s 341 1036 m -22 X s 341 1053 m -22 X s 341 1067 m -22 X s 341 1078 m -22 X s 341 1088 m -22 X s 341 1097 m -22 X s 363
 1105 m -44 X s 341 1158 m -22 X s 341 1188 m -22 X s 341 1210 m -22 X s 341 1227 m -22 X s 341 1240 m -22 X s 341 1252 m -22 X s 341 1262 m -22 X s 341 1271 m -22 X s 363 1279 m -44 X s 341 1331 m -22 X s 341 1362 m -22 X s 341 1383 m -22 X s 341
 1400 m -22 X s 341 1414 m -22 X s 341 1426 m -22 X s 341 1436 m -22 X s 341 1445 m -22 X s 363 1453 m -44 X s 341 1505 m -22 X s 341 1535 m -22 X s 341 1557 m -22 X s 341 1574 m -22 X s 341 1588 m -22 X s 341 1599 m -22 X s 341 1609 m -22 X s 341
 1618 m -22 X s 363 1626 m -44 X s 341 1678 m -22 X s 341 1709 m -22 X s 2179 584 m 1145 Y s 2157 637 m 22 X s 2157 667 m 22 X s 2157 689 m 22 X s 2157 706 m 22 X s 2157 719 m 22 X s 2157 731 m 22 X s 2157 741 m 22 X s 2157 750 m 22 X s 2136 758 m 43
 X s 2157 810 m 22 X s 2157 841 m 22 X s 2157 863 m 22 X s 2157 879 m 22 X s 2157 893 m 22 X s 2157 905 m 22 X s 2157 915 m 22 X s 2157 924 m 22 X s 2136 932 m 43 X s 2157 984 m 22 X s 2157 1014 m 22 X s 2157 1036 m 22 X s 2157 1053 m 22 X s 2157
 1067 m 22 X s 2157 1078 m 22 X s 2157 1088 m 22 X s 2157 1097 m 22 X s 2136 1105 m 43 X s 2157 1158 m 22 X s 2157 1188 m 22 X s 2157 1210 m 22 X s 2157 1227 m 22 X s 2157 1240 m 22 X s 2157 1252 m 22 X s 2157 1262 m 22 X s 2157 1271 m 22 X s 2136
 1279 m 43 X s 2157 1331 m 22 X s 2157 1362 m 22 X s 2157 1383 m 22 X s 2157 1400 m 22 X s 2157 1414 m 22 X s 2157 1426 m 22 X s 2157 1436 m 22 X s 2157 1445 m 22 X s 2136 1453 m 43 X s 2157 1505 m 22 X s 2157 1535 m 22 X s 2157 1557 m 22 X s 2157
 1574 m 22 X s 2157 1588 m 22 X s 2157 1599 m 22 X s 2157 1609 m 22 X s 2157 1618 m 22 X s 2136 1626 m 43 X s 2157 1678 m 22 X s 2157 1709 m 22 X s
 gsave  2263 1770 2 313 C 406.765 1447.41 t 0 r /Helvetica findfont 64.4212 sf 0 0 m (CRT for MB\255GGo) show NC gr 
 gsave  2263 1770 2 313 C 1464.36 1616.89 t 0 r /Helvetica findfont 64.4212 sf 0 0 m (SM Total) show NC gr  1 1 1 c 1338 1603 m 107 X 74 Y -107 X f 1 0 0 c 6 lw 1338 1640 m 107 X s black
 gsave  2263 1770 2 313 C 1464.36 1511.81 t 0 r /Helvetica findfont 64.4212 sf 0 0 m (Data) show NC gr  1391 1502 m 64 Y s 3 lw 1391 1534 m20 6 lw
 gsave  2263 1770 2 313 C 1498.25 1406.73 t 0 r /Helvetica findfont 64.4212 sf 0 0 m (\(+EW\) & single top) show NC gr 
 gsave  2263 1770 2 313 C 1481.3 1406.73 t 0 r /Helvetica findfont 64.4212 sf 0 0 m (t) show NC gr  3 lw 1481 1458 m 17 X s
 gsave  2263 1770 2 313 C 1464.36 1406.73 t 0 r /Helvetica findfont 64.4212 sf 0 0 m (t) show NC gr  0.6 1 0.6 c 1338 1391 m 107 X 74 Y -107 X f black 1338 1465 m 107 X s 1338 1391 m 107 X s 1445 1391 m 74 Y s 1338 1391 m 74 Y s
 gsave  2263 1770 2 313 C 1464.36 1298.26 t 0 r /Helvetica findfont 64.4212 sf 0 0 m (W+jets) show NC gr  0.4 0.6 1 c 1338 1284 m 107 X 75 Y -107 X f black 1338 1359 m 107 X s 1338 1284 m 107 X s 1445 1284 m 75 Y s 1338 1284 m 75 Y s
 gsave  2263 1770 2 313 C 1464.36 1193.18 t 0 r /Helvetica findfont 64.4212 sf 0 0 m (Z+jets) show NC gr  1 0.8 0.4 c 1338 1178 m 107 X 75 Y -107 X f black 1338 1253 m 107 X s 1338 1178 m 107 X s 1445 1178 m 75 Y s 1338 1178 m 75 Y s
 gsave  2263 1770 2 313 C 1464.36 1088.1 t 0 r /Helvetica findfont 64.4212 sf 0 0 m (Diboson) show NC gr  1 0.4 0.6 c 1338 1072 m 107 X 74 Y -107 X f black 1338 1146 m 107 X s 1338 1072 m 107 X s 1445 1072 m 74 Y s 1338 1072 m 74 Y s
 gsave  2263 1770 2 313 C 911.832 1566.05 t 0 r /Helvetica findfont 44.0776 sf 0 0 m (\2551) show NC gr 
 gsave  2263 1770 2 313 C 471.17 1535.54 t 0 r /Helvetica findfont 64.4212 sf 0 0 m (=13TeV, 139 fb) show NC gr 
 gsave  2263 1770 2 313 C 440.662 1535.54 t 0 r /Helvetica findfont 64.4212 sf 0 0 m (s) show NC gr  6 lw 420 1573 m 7 -41 d s 3 lw 427 1532 m 7 61 d s 434 1593 m 37 X s 1 1 1 c 2254 561 2 2 bf black 1 1 1 c black 1860 358 318 187 bl 1 1 1 c black
 1860 358 318 187 bl 6 lw 1 1 1 c black 3 lw 380 385 m20 6 lw 3 lw 504 348 m20 6 lw 3 lw 628 353 m20 6 lw 3 lw 752 340 m20 6 lw 3 lw 876 307 m20 6 lw 3 lw 1000 317 m20 6 lw 3 lw 1124 267 m20 6 lw 3 lw 1248 316 m20 6 lw 3 lw 1372 274 m20 6 lw 3 lw
 1496 243 m20 6 lw 3 lw 1620 297 m20 6 lw 3 lw 1744 335 m20 6 lw 3 lw 1868 288 m20 6 lw 3 lw 2116 269 m20 6 lw 3 lw 318 187 m 1860 X s
 gsave  2254 561 2 2 C 1959.25 33.8971 t 0 r /Helvetica findfont 78.1689 sf 0 0 m ( [GeV]) show NC gr 
 gsave  2254 561 2 2 C 1901.63 13.5588 t 0 r /Helvetica findfont 50.9797 sf 0 0 m (eff) show NC gr 
 gsave  2254 561 2 2 C 1840.61 33.8971 t 0 r /Helvetica findfont 78.1689 sf 0 0 m (m) show NC gr  318 201 m -14 Y s 380 194 m -7 Y s 442 194 m -7 Y s 504 194 m -7 Y s 566 194 m -7 Y s 628 201 m -14 Y s 690 194 m -7 Y s 752 194 m -7 Y s 814 194 m -7 Y
 s 876 194 m -7 Y s 938 201 m -14 Y s 1000 194 m -7 Y s 1062 194 m -7 Y s 1124 194 m -7 Y s 1186 194 m -7 Y s 1248 201 m -14 Y s 1310 194 m -7 Y s 1372 194 m -7 Y s 1434 194 m -7 Y s 1496 194 m -7 Y s 1558 201 m -14 Y s 1620 194 m -7 Y s 1682 194 m
 -7 Y s 1744 194 m -7 Y s 1806 194 m -7 Y s 1868 201 m -14 Y s 1930 194 m -7 Y s 1992 194 m -7 Y s 2054 194 m -7 Y s 2116 194 m -7 Y s 2178 201 m -14 Y s
 gsave  2254 561 2 2 C 227.111 118.64 t 0 r /Helvetica findfont 78.1689 sf 0 0 m (1000) show NC gr 
 gsave  2254 561 2 2 C 538.964 118.64 t 0 r /Helvetica findfont 78.1689 sf 0 0 m (1500) show NC gr 
 gsave  2254 561 2 2 C 847.428 118.64 t 0 r /Helvetica findfont 78.1689 sf 0 0 m (2000) show NC gr 
 gsave  2254 561 2 2 C 1159.28 118.64 t 0 r /Helvetica findfont 78.1689 sf 0 0 m (2500) show NC gr 
 gsave  2254 561 2 2 C 1467.74 118.64 t 0 r /Helvetica findfont 78.1689 sf 0 0 m (3000) show NC gr 
 gsave  2254 561 2 2 C 1779.6 118.64 t 0 r /Helvetica findfont 78.1689 sf 0 0 m (3500) show NC gr 
 gsave  2254 561 2 2 C 2088.06 118.64 t 0 r /Helvetica findfont 78.1689 sf 0 0 m (4000) show NC gr  318 545 m 1860 X s 318 531 m 14 Y s 380 538 m 7 Y s 442 538 m 7 Y s 504 538 m 7 Y s 566 538 m 7 Y s 628 531 m 14 Y s 690 538 m 7 Y s 752 538 m 7 Y s
 814 538 m 7 Y s 876 538 m 7 Y s 938 531 m 14 Y s 1000 538 m 7 Y s 1062 538 m 7 Y s 1124 538 m 7 Y s 1186 538 m 7 Y s 1248 531 m 14 Y s 1310 538 m 7 Y s 1372 538 m 7 Y s 1434 538 m 7 Y s 1496 538 m 7 Y s 1558 531 m 14 Y s 1620 538 m 7 Y s 1682 538 m
 7 Y s 1744 538 m 7 Y s 1806 538 m 7 Y s 1868 531 m 14 Y s 1930 538 m 7 Y s 1992 538 m 7 Y s 2054 538 m 7 Y s 2116 538 m 7 Y s 2178 531 m 14 Y s 318 187 m 358 Y s
 gsave  2254 561 2 2 C 166.096 284.736 t 90 r /Helvetica findfont 67.9729 sf 0 0 m (Data/SM) show NC gr  361 203 m -43 X s 339 220 m -21 X s 339 236 m -21 X s 339 252 m -21 X s 339 268 m -21 X s 361 285 m -43 X s 339 301 m -21 X s 339 317 m -21 X s
 339 334 m -21 X s 339 350 m -21 X s 361 366 m -43 X s 339 382 m -21 X s 339 399 m -21 X s 339 415 m -21 X s 339 431 m -21 X s 361 447 m -43 X s 339 464 m -21 X s 339 480 m -21 X s 339 496 m -21 X s 339 512 m -21 X s 361 529 m -43 X s 361 203 m -43 X
 s 339 187 m -21 X s 361 529 m -43 X s
 gsave  2254 561 2 2 C 261.008 183.044 t 0 r /Helvetica findfont 57.777 sf 0 0 m (0) show NC gr 
 gsave  2254 561 2 2 C 213.552 261.008 t 0 r /Helvetica findfont 57.777 sf 0 0 m (0.5) show NC gr 
 gsave  2254 561 2 2 C 271.177 342.361 t 0 r /Helvetica findfont 57.777 sf 0 0 m (1) show NC gr 
 gsave  2254 561 2 2 C 213.552 423.714 t 0 r /Helvetica findfont 57.777 sf 0 0 m (1.5) show NC gr 
 gsave  2254 561 2 2 C 261.008 505.067 t 0 r /Helvetica findfont 57.777 sf 0 0 m (2) show NC gr  2178 187 m 358 Y s 2135 203 m 43 X s 2157 220 m 21 X s 2157 236 m 21 X s 2157 252 m 21 X s 2157 268 m 21 X s 2135 285 m 43 X s 2157 301 m 21 X s 2157 317
 m 21 X s 2157 334 m 21 X s 2157 350 m 21 X s 2135 366 m 43 X s 2157 382 m 21 X s 2157 399 m 21 X s 2157 415 m 21 X s 2157 431 m 21 X s 2135 447 m 43 X s 2157 464 m 21 X s 2157 480 m 21 X s 2157 496 m 21 X s 2157 512 m 21 X s 2135 529 m 43 X s 2135
 203 m 43 X s 2157 187 m 21 X s 2135 529 m 43 X s 9 lw 380 399 m 15 Y s 380 414 m cl s 380 372 m -16 Y s 380 356 m cl s 628 366 m 1 Y s 628 367 m cl s 628 339 m s 628 339 m cl s 752 354 m 1 Y s 752 355 m cl s 752 327 m -1 Y s 752 326 m cl s 876 320 m
 1 Y s 876 321 m cl s 876 293 m -1 Y s 876 292 m cl s 1000 330 m 4 Y s 1000 334 m cl s 1000 303 m -4 Y s 1000 299 m cl s 1124 281 m 2 Y s 1124 283 m cl s 1124 254 m -2 Y s 1124 252 m cl s 1248 329 m 12 Y s 1248 341 m cl s 1248 302 m -11 Y s 1248 291
 m cl s 1372 288 m 10 Y s 1372 298 m cl s 1372 260 m -9 Y s 1372 251 m cl s 1496 256 m 12 Y s 1496 268 m cl s 1496 229 m -8 Y s 1496 221 m cl s 1620 311 m 31 Y s 1620 342 m cl s 1620 284 m -27 Y s 1620 257 m cl s 1744 348 m 57 Y s 1744 405 m cl s
 1744 321 m -49 Y s 1744 272 m cl s 1868 301 m 55 Y s 1868 356 m cl s 1868 274 m -41 Y s 1868 233 m cl s 2116 282 m 40 Y s 2116 322 m cl s 2116 255 m -28 Y s 2116 227 m cl s 3 lw 380 385 504 348 628 353 752 340 876 307 1000 317 1124 267 1248 316 1372
 274 1496 243 1620 297 1744 335 1868 288 13 { m20} R 9 lw 3 lw 2116 269 m20 9 lw 1 0 0 c 6 lw black 3 lw 1 0 0 c 2178 227 m s 2178 255 m s 2178 284 m s 2178 312 m s 2178 341 m -1 -1 d s 2178 369 m -29 -29 d s 2172 392 m -52 -52 d s 2144 392 m -53 -52
 d s 2115 392 m -52 -52 d s 2086 392 m -55 -55 d s 2058 392 m -56 -55 d s 2032 395 m -59 -58 d s 2004 395 m -59 -58 d s 1975 395 m -56 -55 d s 1946 395 m -56 -55 d s 1915 392 m -53 -52 d s 1886 392 m -53 -52 d s 1857 392 m -51 -50 d s 1828 392 m -48
 -48 d s 1795 388 m -44 -44 d s 1766 388 m -43 -44 d s 1738 388 m -44 -44 d s 1709 388 m -40 -40 d s 1677 384 m -37 -36 d s 1648 384 m -36 -36 d s 1619 384 m -36 -36 d s 1591 384 m -36 -35 d s 1562 384 m -36 -35 d s 1532 383 m -34 -34 d s 1504 383 m
 -35 -34 d s 1475 383 m -35 -34 d s 1446 383 m -32 -32 d s 1415 381 m -30 -30 d s 1387 381 m -30 -30 d s 1358 381 m -30 -30 d s 1329 381 m -28 -29 d s 1299 380 m -27 -28 d s 1271 380 m -28 -28 d s 1242 380 m -28 -28 d s 1213 380 m -27 -27 d s 1184
 379 m -26 -26 d s 1155 379 m -26 -26 d s 1127 379 m -27 -26 d s 1098 379 m -26 -26 d s 1069 379 m -22 -22 d s 1037 375 m -19 -18 d s 1008 375 m -19 -18 d s 979 375 m -18 -18 d s 951 375 m -19 -18 d s 922 375 m -18 -18 d s 893 375 m -18 -18 d s 864
 375 m -18 -18 d s 836 375 m -19 -18 d s 807 375 m -18 -18 d s 778 375 m -18 -18 d s 749 375 m -18 -18 d s 721 375 m -18 -18 d s 692 375 m -2 -2 d s 687 370 m -8 -8 d s 659 370 m -9 -8 d s 630 370 m -9 -8 d s 601 370 m -8 -8 d s 573 370 m -13 -12 d s
 548 374 m -17 -16 d s 519 374 m -16 -16 d s 490 374 m -16 -16 d s 462 374 m -17 -16 d s 442 354 m -3 -2 d s 318 231 m s 439 380 m -29 -28 d s 318 259 m s 411 380 m -29 -28 d s 318 288 m s 382 380 m -29 -28 d s 318 317 m s 353 380 m -29 -28 d s 318
 345 m s 324 380 m -6 -6 d s 6 lw black[ 4 8] 0 sd 3 lw 318 447 m 1860 X s 318 285 m 1860 X s 1 0 0 c[  12 12 ] 0 sd 6 lw 318 366 m 1860 X s
 gr  gr showpage
end
%%EOF
