%!PS-Adobe-2.0 EPSF-2.0
%%BoundingBox:  0 0 567 521
%%Title: Distributions/meffInc_distrVR0LmetSig_MB-GGo_afterFit_forThesis.eps: canvas
%%Creator: ROOT Version 6.04/16
%%CreationDate: Tue May 19 22:05:10 2020
%%DocumentNeededResources: ProcSet (FontSetInit)
%%EndComments
%%BeginProlog
80 dict begin
/s {stroke} def /l {lineto} def /m {moveto} def /t {translate} def
/r {rotate} def /rl {roll}  def /R {repeat} def
/d {rlineto} def /rm {rmoveto} def /gr {grestore} def /f {eofill} def
/c {setrgbcolor} def /black {0 setgray} def /sd {setdash} def
/cl {closepath} def /sf {scalefont setfont} def /lw {setlinewidth} def
/box {m dup 0 exch d exch 0 d 0 exch neg d cl} def
/NC{systemdict begin initclip end}def/C{NC box clip newpath}def
/bl {box s} def /bf {gsave box gsave f grestore 1 lw [] 0 sd s grestore} def /Y { 0 exch d} def /X { 0 d} def 
/K {{pop pop 0 moveto} exch kshow} bind def
/ita {/ang 15 def gsave [1 0 ang dup sin exch cos div 1 0 0] concat} def 
/mp {newpath /y exch def /x exch def} def
/side {[w .77 mul w .23 mul] .385 w mul sd w 0 l currentpoint t -144 r} def
/mr {mp x y w2 0 360 arc} def /m24 {mr s} def /m20 {mr f} def
/mb {mp x y w2 add m w2 neg 0 d 0 w neg d w 0 d 0 w d cl} def
/mt {mp x y w2 add m w2 neg w neg d w 0 d cl} def
/m21 {mb f} def /m25 {mb s} def /m22 {mt f} def /m26{mt s} def
/m23 {mp x y w2 sub m w2 w d w neg 0 d cl f} def
/m27 {mp x y w2 add m w3 neg w2 neg d w3 w2 neg d w3 w2 d cl s} def
/m28 {mp x w2 sub y w2 sub w3 add m w3 0 d  0 w3 neg d w3 0 d 0 w3 d w3 0 d  0 w3 d w3 neg 0 d 0 w3 d w3 neg 0 d 0 w3 neg d w3 neg 0 d cl s } def
/m29 {mp gsave x w2 sub y w2 add w3 sub m currentpoint t 4 {side} repeat cl fill gr} def
/m30 {mp gsave x w2 sub y w2 add w3 sub m currentpoint t 4 {side} repeat cl s gr} def
/m31 {mp x y w2 sub m 0 w d x w2 sub y m w 0 d x w2 sub y w2 add m w w neg d x w2 sub y w2 sub m w w d s} def
/m32 {mp x y w2 sub m w2 w d w neg 0 d cl s} def
/m33 {mp x y w2 add m w3 neg w2 neg d w3 w2 neg d w3 w2 d cl f} def
/m34 {mp x w2 sub y w2 sub w3 add m w3 0 d  0 w3 neg d w3 0 d 0 w3 d w3 0 d  0 w3 d w3 neg 0 d 0 w3 d w3 neg 0 d 0 w3 neg d w3 neg 0 d cl f } def
/m2 {mp x y w2 sub m 0 w d x w2 sub y m w 0 d s} def
/m5 {mp x w2 sub y w2 sub m w w d x w2 sub y w2 add m w w neg d s} def
%%IncludeResource: ProcSet (FontSetInit)
%%IncludeResource: font Times-Roman
%%IncludeResource: font Times-Italic
%%IncludeResource: font Times-Bold
%%IncludeResource: font Times-BoldItalic
%%IncludeResource: font Helvetica
%%IncludeResource: font Helvetica-Oblique
%%IncludeResource: font Helvetica-Bold
%%IncludeResource: font Helvetica-BoldOblique
%%IncludeResource: font Courier
%%IncludeResource: font Courier-Oblique
%%IncludeResource: font Courier-Bold
%%IncludeResource: font Courier-BoldOblique
%%IncludeResource: font Symbol
%%IncludeResource: font ZapfDingbats
/reEncode {exch findfont dup length dict begin {1 index /FID eq  {pop pop} {def} ifelse } forall /Encoding exch def currentdict end dup /FontName get exch definefont pop } def [/Times-Bold /Times-Italic /Times-BoldItalic /Helvetica /Helvetica-Oblique
 /Helvetica-Bold /Helvetica-BoldOblique /Courier /Courier-Oblique /Courier-Bold /Courier-BoldOblique /Times-Roman /AvantGarde-Book /AvantGarde-BookOblique /AvantGarde-Demi /AvantGarde-DemiOblique /Bookman-Demi /Bookman-DemiItalic /Bookman-Light
 /Bookman-LightItalic /Helvetica-Narrow /Helvetica-Narrow-Bold /Helvetica-Narrow-BoldOblique /Helvetica-Narrow-Oblique /NewCenturySchlbk-Roman /NewCenturySchlbk-Bold /NewCenturySchlbk-BoldItalic /NewCenturySchlbk-Italic /Palatino-Bold
 /Palatino-BoldItalic /Palatino-Italic /Palatino-Roman ] {ISOLatin1Encoding reEncode } forall
%%EndProlog
%%BeginSetup
%%EndSetup
newpath  gsave  .25 .25 scale  gsave  0 0 t black[  ] 0 sd 3 lw 1 1 1 c 2268 2085 0 0 bf black 1 1 1 c 2263 1770 2 313 bf black 1 1 1 c black 1860 1145 319 584 bl 1 1 1 c black 1860 1145 319 584 bl 6 lw 1 1 1 c black 381 973 m 12 Y s 381 1012 m 7 Y s
 3 lw /w 33 def /w2 {w 2 div} def /w3 {w 3 div} def 381 999 m20 6 lw 505 1029 m 5 Y s 505 1061 m 2 Y s 3 lw 505 1047 m20 6 lw 629 1039 m 4 Y s 629 1071 m 1 Y s 3 lw 629 1057 m20 6 lw 753 1008 m 7 Y s 753 1042 m 4 Y s 3 lw 753 1029 m20 6 lw 877 992 m
 10 Y s 877 1029 m 4 Y s 3 lw 877 1015 m20 6 lw 1001 884 m 30 Y s 1001 941 m 15 Y s 3 lw 1001 928 m20 6 lw 1125 863 m 36 Y s 1125 926 m 17 Y s 3 lw 1125 912 m20 6 lw 1249 863 m 36 Y s 1249 926 m 17 Y s 3 lw 1249 912 m20 6 lw 1373 863 m 36 Y s 1373
 926 m 17 Y s 3 lw 1373 912 m20 6 lw 1497 584 m 180 Y s 1497 791 m 45 Y s 3 lw 1497 777 m20 6 lw 1621 584 m 180 Y s 1621 791 m 45 Y s 3 lw 1621 777 m20 6 lw 1869 584 m 180 Y s 1869 791 m 45 Y s 3 lw 1869 777 m20 6 lw 1993 584 m 180 Y s 1993 791 m 45
 Y s 3 lw 1993 777 m20 6 lw 3 lw 319 584 m 1860 X s
 gsave  2263 1770 2 313 C 1949.08 369.478 t 0 r /Helvetica findfont 81.3741 sf 0 0 m ( [GeV]) show NC gr 
 gsave  2263 1770 2 313 C 1888.07 342.361 t 0 r /Helvetica findfont 54.2494 sf 0 0 m (eff) show NC gr 
 gsave  2263 1770 2 313 C 1823.66 369.478 t 0 r /Helvetica findfont 81.3741 sf 0 0 m (m) show NC gr  319 584 m cl s 381 584 m cl s 443 584 m cl s 505 584 m cl s 567 584 m cl s 629 584 m cl s 691 584 m cl s 753 584 m cl s 815 584 m cl s 877 584 m cl s
 939 584 m cl s 1001 584 m cl s 1063 584 m cl s 1125 584 m cl s 1187 584 m cl s 1249 584 m cl s 1311 584 m cl s 1373 584 m cl s 1435 584 m cl s 1497 584 m cl s 1559 584 m cl s 1621 584 m cl s 1683 584 m cl s 1745 584 m cl s 1807 584 m cl s 1869 584 m
 cl s 1931 584 m cl s 1993 584 m cl s 2055 584 m cl s 2117 584 m cl s 2179 584 m cl s 319 1729 m 1860 X s 319 1729 m cl s 381 1729 m cl s 443 1729 m cl s 505 1729 m cl s 567 1729 m cl s 629 1729 m cl s 691 1729 m cl s 753 1729 m cl s 815 1729 m cl s
 877 1729 m cl s 939 1729 m cl s 1001 1729 m cl s 1063 1729 m cl s 1125 1729 m cl s 1187 1729 m cl s 1249 1729 m cl s 1311 1729 m cl s 1373 1729 m cl s 1435 1729 m cl s 1497 1729 m cl s 1559 1729 m cl s 1621 1729 m cl s 1683 1729 m cl s 1745 1729 m
 cl s 1807 1729 m cl s 1869 1729 m cl s 1931 1729 m cl s 1993 1729 m cl s 2055 1729 m cl s 2117 1729 m cl s 2179 1729 m cl s 319 584 m 1145 Y s
 gsave  2263 1770 2 313 C 166.096 1091.49 t 90 r /Helvetica findfont 81.3741 sf 0 0 m (Events / 200 GeV) show NC gr  341 642 m -22 X s 341 676 m -22 X s 341 701 m -22 X s 341 719 m -22 X s 341 735 m -22 X s 341 748 m -22 X s 341 759 m -22 X s 341 769
 m -22 X s 363 777 m -44 X s
 gsave  2263 1770 2 313 C 300.555 750.346 t 0 r  -36 0 t /Helvetica findfont 64.4212 sf 0 0 m (1) show NC gr  341 836 m -22 X s 341 870 m -22 X s 341 894 m -22 X s 341 912 m -22 X s 341 928 m -22 X s 341 941 m -22 X s 341 952 m -22 X s 341 962 m -22
 X s 363 971 m -44 X s
 gsave  2263 1770 2 313 C 300.555 943.5 t 0 r  -73 0 t /Helvetica findfont 64.4212 sf 0 0 m (10) show NC gr  341 1029 m -22 X s 341 1063 m -22 X s 341 1087 m -22 X s 341 1106 m -22 X s 341 1121 m -22 X s 341 1134 m -22 X s 341 1145 m -22 X s 341 1155
 m -22 X s 363 1164 m -44 X s
 gsave  2263 1770 2 313 C 274.567 1162.67 t 0 r /Helvetica findfont 44.0776 sf 0 0 m (2) show NC gr 
 gsave  2263 1770 2 313 C 203.383 1135.55 t 0 r /Helvetica findfont 64.4212 sf 0 0 m (10) show NC gr  341 1222 m -22 X s 341 1256 m -22 X s 341 1280 m -22 X s 341 1299 m -22 X s 341 1314 m -22 X s 341 1327 m -22 X s 341 1338 m -22 X s 341 1348 m -22
 X s 363 1357 m -44 X s
 gsave  2263 1770 2 313 C 274.567 1359.27 t 0 r /Helvetica findfont 44.0776 sf 0 0 m (3) show NC gr 
 gsave  2263 1770 2 313 C 203.383 1328.77 t 0 r /Helvetica findfont 64.4212 sf 0 0 m (10) show NC gr  341 1415 m -22 X s 341 1449 m -22 X s 341 1473 m -22 X s 341 1492 m -22 X s 341 1507 m -22 X s 341 1520 m -22 X s 341 1531 m -22 X s 341 1541 m -22
 X s 363 1550 m -44 X s
 gsave  2263 1770 2 313 C 274.567 1549.1 t 0 r /Helvetica findfont 44.0776 sf 0 0 m (4) show NC gr 
 gsave  2263 1770 2 313 C 203.383 1521.98 t 0 r /Helvetica findfont 64.4212 sf 0 0 m (10) show NC gr  341 1608 m -22 X s 341 1642 m -22 X s 341 1666 m -22 X s 341 1685 m -22 X s 341 1700 m -22 X s 341 1713 m -22 X s 341 1725 m -22 X s 2179 584 m 1145
 Y s 2157 642 m 22 X s 2157 676 m 22 X s 2157 701 m 22 X s 2157 719 m 22 X s 2157 735 m 22 X s 2157 748 m 22 X s 2157 759 m 22 X s 2157 769 m 22 X s 2136 777 m 43 X s 2157 836 m 22 X s 2157 870 m 22 X s 2157 894 m 22 X s 2157 912 m 22 X s 2157 928 m
 22 X s 2157 941 m 22 X s 2157 952 m 22 X s 2157 962 m 22 X s 2136 971 m 43 X s 2157 1029 m 22 X s 2157 1063 m 22 X s 2157 1087 m 22 X s 2157 1106 m 22 X s 2157 1121 m 22 X s 2157 1134 m 22 X s 2157 1145 m 22 X s 2157 1155 m 22 X s 2136 1164 m 43 X s
 2157 1222 m 22 X s 2157 1256 m 22 X s 2157 1280 m 22 X s 2157 1299 m 22 X s 2157 1314 m 22 X s 2157 1327 m 22 X s 2157 1338 m 22 X s 2157 1348 m 22 X s 2136 1357 m 43 X s 2157 1415 m 22 X s 2157 1449 m 22 X s 2157 1473 m 22 X s 2157 1492 m 22 X s
 2157 1507 m 22 X s 2157 1520 m 22 X s 2157 1531 m 22 X s 2157 1541 m 22 X s 2136 1550 m 43 X s 2157 1608 m 22 X s 2157 1642 m 22 X s 2157 1666 m 22 X s 2157 1685 m 22 X s 2157 1700 m 22 X s 2157 1713 m 22 X s 2157 1725 m 22 X s 0.4 0.6 1 c black 0.4
 0.6 1 c 319 584 m 371 Y 124 X 78 Y 124 X 17 Y 124 X -17 Y 124 X -30 Y 124 X -19 Y 124 X -55 Y 124 X -49 Y 124 X 3 Y 124 X -45 Y 124 X -47 Y 124 X -48 Y 124 X -36 Y 124 X 6 Y 124 X 23 Y 124 X -152 Y f black 0.4 0.6 1 c black 319 955 m 124 X 78 Y 124
 X 17 Y 124 X -17 Y 124 X -30 Y 124 X -19 Y 124 X -55 Y 124 X -49 Y 124 X 3 Y 124 X -45 Y 124 X -47 Y 124 X -48 Y 124 X -36 Y 124 X 6 Y 124 X 23 Y 124 X s 0.999 0.999 0.999 c black 0.999 0.999 0.999 c 319 584 m 359 Y 124 X 79 Y 124 X 16 Y 124 X -16 Y
 124 X -33 Y 124 X -17 Y 124 X -61 Y 124 X -54 Y 124 X 15 Y 124 X -61 Y 124 X -35 Y 124 X -65 Y 124 X -12 Y 124 X -72 Y 124 X 89 Y 124 X -132 Y f black 0.999 0.999 0.999 c black 319 943 m 124 X 79 Y 124 X 16 Y 124 X -16 Y 124 X -33 Y 124 X -17 Y 124
 X -61 Y 124 X -54 Y 124 X 15 Y 124 X -61 Y 124 X -35 Y 124 X -65 Y 124 X -12 Y 124 X -72 Y 124 X 89 Y 124 X s 1 1 1 c black 319 943 m 124 X 79 Y 124 X 16 Y 124 X -16 Y 124 X -33 Y 124 X -17 Y 124 X -61 Y 124 X -54 Y 124 X 15 Y 124 X -61 Y 124 X -35
 Y 124 X -65 Y 124 X -12 Y 124 X -72 Y 124 X 89 Y 124 X s 0.6 1 0.6 c black 0.6 1 0.6 c 319 584 m 359 Y 124 X 79 Y 124 X 16 Y 124 X -16 Y 124 X -33 Y 124 X -17 Y 124 X -61 Y 124 X -54 Y 124 X 15 Y 124 X -61 Y 124 X -35 Y 124 X -65 Y 124 X -12 Y 124 X
 -72 Y 124 X 89 Y 124 X -132 Y f black 0.6 1 0.6 c black 319 943 m 124 X 79 Y 124 X 16 Y 124 X -16 Y 124 X -33 Y 124 X -17 Y 124 X -61 Y 124 X -54 Y 124 X 15 Y 124 X -61 Y 124 X -35 Y 124 X -65 Y 124 X -12 Y 124 X -72 Y 124 X 89 Y 124 X s 0.999 0.999
 0.999 c black 0.999 0.999 0.999 c 319 584 m 82 Y 124 X 201 Y 124 X 21 Y 124 X 4 Y 124 X -51 Y 124 X 1 Y 124 X -20 Y 124 X -56 Y 124 X 30 Y 124 X -56 Y 124 X -22 Y 124 X -68 Y 124 X 22 Y 124 X -84 Y 124 X 104 Y 124 X -108 Y f black 0.999 0.999 0.999
 c black 319 666 m 124 X 201 Y 124 X 21 Y 124 X 4 Y 124 X -51 Y 124 X 1 Y 124 X -20 Y 124 X -56 Y 124 X 30 Y 124 X -56 Y 124 X -22 Y 124 X -68 Y 124 X 22 Y 124 X -84 Y 124 X 104 Y 124 X s 1 1 1 c black 319 666 m 124 X 201 Y 124 X 21 Y 124 X 4 Y 124 X
 -51 Y 124 X 1 Y 124 X -20 Y 124 X -56 Y 124 X 30 Y 124 X -56 Y 124 X -22 Y 124 X -68 Y 124 X 22 Y 124 X -84 Y 124 X 104 Y 124 X s 1 0.8 0.4 c black 1 0.8 0.4 c 319 584 m 82 Y 124 X 201 Y 124 X 21 Y 124 X 4 Y 124 X -51 Y 124 X 1 Y 124 X -20 Y 124 X
 -56 Y 124 X 30 Y 124 X -56 Y 124 X -22 Y 124 X -68 Y 124 X 22 Y 124 X -84 Y 124 X 104 Y 124 X -108 Y f black 1 0.8 0.4 c black 319 666 m 124 X 201 Y 124 X 21 Y 124 X 4 Y 124 X -51 Y 124 X 1 Y 124 X -20 Y 124 X -56 Y 124 X 30 Y 124 X -56 Y 124 X -22
 Y 124 X -68 Y 124 X 22 Y 124 X -84 Y 124 X 104 Y 124 X s 0.999 0.999 0.999 c black 0.999 0.999 0.999 c 319 584 m 23 Y 124 X 177 Y 124 X 37 Y 124 X -19 Y 124 X -70 Y 124 X 48 Y 124 X -44 Y 124 X -41 Y 124 X -23 Y 124 X 26 Y 124 X -47 Y 124 X -53 Y
 124 X -14 Y 248 X 1 Y 124 X -1 Y f black 0.999 0.999 0.999 c black 319 607 m 124 X 177 Y 124 X 37 Y 124 X -19 Y 124 X -70 Y 124 X 48 Y 124 X -44 Y 124 X -41 Y 124 X -23 Y 124 X 26 Y 124 X -47 Y 124 X -53 Y 124 X -14 Y 248 X 1 Y 124 X s 1 1 1 c black
 319 607 m 124 X 177 Y 124 X 37 Y 124 X -19 Y 124 X -70 Y 124 X 48 Y 124 X -44 Y 124 X -41 Y 124 X -23 Y 124 X 26 Y 124 X -47 Y 124 X -53 Y 124 X -14 Y 248 X 1 Y 124 X s 1 0.4 0.6 c black 1 0.4 0.6 c 319 584 m 23 Y 124 X 177 Y 124 X 37 Y 124 X -19 Y
 124 X -70 Y 124 X 48 Y 124 X -44 Y 124 X -41 Y 124 X -23 Y 124 X 26 Y 124 X -47 Y 124 X -53 Y 124 X -14 Y 248 X 1 Y 124 X -1 Y f black 1 0.4 0.6 c black 319 607 m 124 X 177 Y 124 X 37 Y 124 X -19 Y 124 X -70 Y 124 X 48 Y 124 X -44 Y 124 X -41 Y 124
 X -23 Y 124 X 26 Y 124 X -47 Y 124 X -53 Y 124 X -14 Y 248 X 1 Y 124 X s 0.999 0.999 0.999 c black 0.999 0.999 0.999 c 319 584 m 124 X 74 Y 124 X -15 Y 124 X 50 Y 124 X -16 Y 248 X -7 Y 124 X -27 Y 124 X -59 Y 248 X 4 Y 248 X -4 Y 372 X f black
 0.999 0.999 0.999 c black 319 584 m 124 X 74 Y 124 X -15 Y 124 X 50 Y 124 X -16 Y 248 X -7 Y 124 X -27 Y 124 X -59 Y 248 X 4 Y 248 X -4 Y 372 X s 1 1 1 c black 319 584 m 124 X 74 Y 124 X -15 Y 124 X 50 Y 124 X -16 Y 248 X -7 Y 124 X -27 Y 124 X -59
 Y 248 X 4 Y 248 X -4 Y 372 X s 0 0 0.4 c black 0 0 0.4 c 319 584 m 124 X 74 Y 124 X -15 Y 124 X 50 Y 124 X -16 Y 248 X -7 Y 124 X -27 Y 124 X -59 Y 248 X 4 Y 248 X -4 Y 372 X f black 0 0 0.4 c black 319 584 m 124 X 74 Y 124 X -15 Y 124 X 50 Y 124 X
 -16 Y 248 X -7 Y 124 X -27 Y 124 X -59 Y 248 X 4 Y 248 X -4 Y 372 X s 1 0 0 c 6 lw 1 1 1 c black 1 0 0 c 319 955 m 124 X 78 Y 124 X 17 Y 124 X -17 Y 124 X -30 Y 124 X -19 Y 124 X -55 Y 124 X -49 Y 124 X 3 Y 124 X -45 Y 124 X -47 Y 124 X -48 Y 124 X
 -36 Y 124 X 6 Y 124 X 23 Y 124 X s black 3 lw 1 0 0 c 1 lw << /PatternType 1 /PaintType 2 /TilingType 1 /BBox [ 0 0 100 100 ] /XStep 100 /YStep 100 /PaintProc { begin gsave 0 100 m 100 0 l s gr end } >> [ 0.24 0 0 0.24 0 0 ] makepattern /P05 exch
 def /cs {[/Pattern /DeviceRGB] setcolorspace} def /FA {f [/DeviceRGB] setcolorspace} def cs 1 0 0 P05 setcolor 319 584 m 390 Y 124 X 69 Y 124 X 15 Y 124 X -13 Y 124 X -30 Y 124 X -19 Y 124 X -51 Y 124 X -49 Y 124 X 5 Y 124 X -44 Y 124 X -43 Y 124 X
 -51 Y 124 X -29 Y 124 X 6 Y 124 X 21 Y 124 X -177 Y 115 Y -124 X -25 Y -124 X -6 Y -124 X 49 Y -124 X 43 Y -124 X 52 Y -124 X 48 Y -124 X 1 Y -124 X 49 Y -124 X 60 Y -124 X 20 Y -124 X 30 Y -124 X 21 Y -124 X -18 Y -124 X -94 Y -124 X -345 Y FA 6 lw
 1 1 1 c 15 lw 381 979 m -6 Y s 381 973 m cl s 753 1008 m s 753 1008 m cl s 877 995 m -3 Y s 877 992 m cl s 1001 948 m 10 Y s 1001 958 m cl s 1001 907 m -21 Y s 1001 886 m cl s 1125 933 m 12 Y s 1125 945 m cl s 1125 892 m -27 Y s 1125 865 m cl s 1249
 933 m 12 Y s 1249 945 m cl s 1249 892 m -27 Y s 1249 865 m cl s 1373 933 m 12 Y s 1373 945 m cl s 1373 892 m -27 Y s 1373 865 m cl s 1497 798 m 49 Y s 1497 847 m cl s 1497 757 m -126 Y s 1497 631 m cl s 1621 798 m 49 Y s 1621 847 m cl s 1621 757 m
 -126 Y s 1621 631 m cl s 1869 798 m 49 Y s 1869 847 m cl s 1869 757 m -126 Y s 1869 631 m cl s 1993 798 m 49 Y s 1993 847 m cl s 1993 757 m -126 Y s 1993 631 m cl s black 1 1 1 c 3 lw /w 43 def /w2 {w 2 div} def /w3 {w 3 div} def 381 999 505 1047
 629 1057 753 1029 877 1015 1001 928 1125 912 1249 912 1373 912 1497 777 1621 777 11 { m20} R 15 lw 3 lw 1869 777 1993 777 2 { m20} R 15 lw black 6 lw 1 1 1 c black 381 973 m 12 Y s 381 1012 m 7 Y s 3 lw /w 33 def /w2 {w 2 div} def /w3 {w 3 div} def
 381 999 m20 6 lw 505 1029 m 5 Y s 505 1061 m 2 Y s 3 lw 505 1047 m20 6 lw 629 1039 m 4 Y s 629 1071 m 1 Y s 3 lw 629 1057 m20 6 lw 753 1008 m 7 Y s 753 1042 m 4 Y s 3 lw 753 1029 m20 6 lw 877 992 m 10 Y s 877 1029 m 4 Y s 3 lw 877 1015 m20 6 lw 1001
 884 m 30 Y s 1001 941 m 15 Y s 3 lw 1001 928 m20 6 lw 1125 863 m 36 Y s 1125 926 m 17 Y s 3 lw 1125 912 m20 6 lw 1249 863 m 36 Y s 1249 926 m 17 Y s 3 lw 1249 912 m20 6 lw 1373 863 m 36 Y s 1373 926 m 17 Y s 3 lw 1373 912 m20 6 lw 1497 584 m 180 Y s
 1497 791 m 45 Y s 3 lw 1497 777 m20 6 lw 1621 584 m 180 Y s 1621 791 m 45 Y s 3 lw 1621 777 m20 6 lw 1869 584 m 180 Y s 1869 791 m 45 Y s 3 lw 1869 777 m20 6 lw 1993 584 m 180 Y s 1993 791 m 45 Y s 3 lw 1993 777 m20 6 lw 381 1012 m 7 Y s 381 1019 m
 cl s 381 985 m -12 Y s 381 973 m cl s 505 1061 m 2 Y s 505 1063 m cl s 505 1034 m -5 Y s 505 1029 m cl s 629 1071 m 1 Y s 629 1072 m cl s 629 1043 m -3 Y s 629 1040 m cl s 753 1042 m 4 Y s 753 1046 m cl s 753 1015 m -7 Y s 753 1008 m cl s 877 1029 m
 5 Y s 877 1034 m cl s 877 1002 m -10 Y s 877 992 m cl s 1001 941 m 17 Y s 1001 958 m cl s 1001 914 m -28 Y s 1001 886 m cl s 1125 926 m 19 Y s 1125 945 m cl s 1125 899 m -34 Y s 1125 865 m cl s 1249 926 m 19 Y s 1249 945 m cl s 1249 899 m -34 Y s
 1249 865 m cl s 1373 926 m 19 Y s 1373 945 m cl s 1373 899 m -34 Y s 1373 865 m cl s 1497 791 m 56 Y s 1497 847 m cl s 1497 764 m -133 Y s 1497 631 m cl s 1621 791 m 56 Y s 1621 847 m cl s 1621 764 m -133 Y s 1621 631 m cl s 1869 791 m 56 Y s 1869
 847 m cl s 1869 764 m -133 Y s 1869 631 m cl s 1993 791 m 56 Y s 1993 847 m cl s 1993 764 m -133 Y s 1993 631 m cl s 3 lw 381 999 505 1047 629 1057 753 1029 877 1015 1001 928 1125 912 1249 912 1373 912 1497 777 1621 777 11 { m20} R 6 lw 3 lw 1869
 777 1993 777 2 { m20} R 6 lw 3 lw 319 584 m 1860 X s 319 584 m cl s 381 584 m cl s 443 584 m cl s 505 584 m cl s 567 584 m cl s 629 584 m cl s 691 584 m cl s 753 584 m cl s 815 584 m cl s 877 584 m cl s 939 584 m cl s 1001 584 m cl s 1063 584 m cl s
 1125 584 m cl s 1187 584 m cl s 1249 584 m cl s 1311 584 m cl s 1373 584 m cl s 1435 584 m cl s 1497 584 m cl s 1559 584 m cl s 1621 584 m cl s 1683 584 m cl s 1745 584 m cl s 1807 584 m cl s 1869 584 m cl s 1931 584 m cl s 1993 584 m cl s 2055 584
 m cl s 2117 584 m cl s 2179 584 m cl s 319 1729 m 1860 X s 319 1729 m cl s 381 1729 m cl s 443 1729 m cl s 505 1729 m cl s 567 1729 m cl s 629 1729 m cl s 691 1729 m cl s 753 1729 m cl s 815 1729 m cl s 877 1729 m cl s 939 1729 m cl s 1001 1729 m cl
 s 1063 1729 m cl s 1125 1729 m cl s 1187 1729 m cl s 1249 1729 m cl s 1311 1729 m cl s 1373 1729 m cl s 1435 1729 m cl s 1497 1729 m cl s 1559 1729 m cl s 1621 1729 m cl s 1683 1729 m cl s 1745 1729 m cl s 1807 1729 m cl s 1869 1729 m cl s 1931 1729
 m cl s 1993 1729 m cl s 2055 1729 m cl s 2117 1729 m cl s 2179 1729 m cl s 319 584 m 1145 Y s 341 642 m -22 X s 341 676 m -22 X s 341 701 m -22 X s 341 719 m -22 X s 341 735 m -22 X s 341 748 m -22 X s 341 759 m -22 X s 341 769 m -22 X s 363 777 m
 -44 X s 341 836 m -22 X s 341 870 m -22 X s 341 894 m -22 X s 341 912 m -22 X s 341 928 m -22 X s 341 941 m -22 X s 341 952 m -22 X s 341 962 m -22 X s 363 971 m -44 X s 341 1029 m -22 X s 341 1063 m -22 X s 341 1087 m -22 X s 341 1106 m -22 X s 341
 1121 m -22 X s 341 1134 m -22 X s 341 1145 m -22 X s 341 1155 m -22 X s 363 1164 m -44 X s 341 1222 m -22 X s 341 1256 m -22 X s 341 1280 m -22 X s 341 1299 m -22 X s 341 1314 m -22 X s 341 1327 m -22 X s 341 1338 m -22 X s 341 1348 m -22 X s 363
 1357 m -44 X s 341 1415 m -22 X s 341 1449 m -22 X s 341 1473 m -22 X s 341 1492 m -22 X s 341 1507 m -22 X s 341 1520 m -22 X s 341 1531 m -22 X s 341 1541 m -22 X s 363 1550 m -44 X s 341 1608 m -22 X s 341 1642 m -22 X s 341 1666 m -22 X s 341
 1685 m -22 X s 341 1700 m -22 X s 341 1713 m -22 X s 341 1725 m -22 X s 2179 584 m 1145 Y s 2157 642 m 22 X s 2157 676 m 22 X s 2157 701 m 22 X s 2157 719 m 22 X s 2157 735 m 22 X s 2157 748 m 22 X s 2157 759 m 22 X s 2157 769 m 22 X s 2136 777 m 43
 X s 2157 836 m 22 X s 2157 870 m 22 X s 2157 894 m 22 X s 2157 912 m 22 X s 2157 928 m 22 X s 2157 941 m 22 X s 2157 952 m 22 X s 2157 962 m 22 X s 2136 971 m 43 X s 2157 1029 m 22 X s 2157 1063 m 22 X s 2157 1087 m 22 X s 2157 1106 m 22 X s 2157
 1121 m 22 X s 2157 1134 m 22 X s 2157 1145 m 22 X s 2157 1155 m 22 X s 2136 1164 m 43 X s 2157 1222 m 22 X s 2157 1256 m 22 X s 2157 1280 m 22 X s 2157 1299 m 22 X s 2157 1314 m 22 X s 2157 1327 m 22 X s 2157 1338 m 22 X s 2157 1348 m 22 X s 2136
 1357 m 43 X s 2157 1415 m 22 X s 2157 1449 m 22 X s 2157 1473 m 22 X s 2157 1492 m 22 X s 2157 1507 m 22 X s 2157 1520 m 22 X s 2157 1531 m 22 X s 2157 1541 m 22 X s 2136 1550 m 43 X s 2157 1608 m 22 X s 2157 1642 m 22 X s 2157 1666 m 22 X s 2157
 1685 m 22 X s 2157 1700 m 22 X s 2157 1713 m 22 X s 2157 1725 m 22 X s
 gsave  2263 1770 2 313 C 406.765 1447.41 t 0 r /Helvetica findfont 64.4212 sf 0 0 m (VR0LmetSig for MB\255GGo) show NC gr 
 gsave  2263 1770 2 313 C 1464.36 1630.45 t 0 r /Helvetica findfont 64.4212 sf 0 0 m (SM Total) show NC gr  1 1 1 c 1338 1616 m 107 X 64 Y -107 X f 1 0 0 c 6 lw 1338 1648 m 107 X s black
 gsave  2263 1770 2 313 C 1464.36 1538.93 t 0 r /Helvetica findfont 64.4212 sf 0 0 m (Data) show NC gr  1391 1529 m 55 Y s 3 lw 1391 1557 m20 6 lw
 gsave  2263 1770 2 313 C 1464.36 1447.41 t 0 r /Helvetica findfont 64.4212 sf 0 0 m (W+jets) show NC gr  0.4 0.6 1 c 3 lw 1338 1434 m 107 X 64 Y -107 X f 6 lw black 3 lw 1338 1498 m 107 X s 1338 1434 m 107 X s 1445 1434 m 64 Y s 1338 1434 m 64 Y s
 gsave  2263 1770 2 313 C 1498.25 1355.88 t 0 r /Helvetica findfont 64.4212 sf 0 0 m (\(+EW\) & single top) show NC gr 
 gsave  2263 1770 2 313 C 1481.3 1355.88 t 0 r /Helvetica findfont 64.4212 sf 0 0 m (t) show NC gr  1481 1407 m 17 X s
 gsave  2263 1770 2 313 C 1464.36 1355.88 t 0 r /Helvetica findfont 64.4212 sf 0 0 m (t) show NC gr  0.6 1 0.6 c 1338 1343 m 107 X 63 Y -107 X f black 1338 1406 m 107 X s 1338 1343 m 107 X s 1445 1343 m 63 Y s 1338 1343 m 63 Y s
 gsave  2263 1770 2 313 C 1464.36 1264.36 t 0 r /Helvetica findfont 64.4212 sf 0 0 m (Z+jets) show NC gr  1 0.8 0.4 c 1338 1252 m 107 X 63 Y -107 X f black 1338 1315 m 107 X s 1338 1252 m 107 X s 1445 1252 m 63 Y s 1338 1252 m 63 Y s
 gsave  2263 1770 2 313 C 1464.36 1172.84 t 0 r /Helvetica findfont 64.4212 sf 0 0 m (Diboson) show NC gr  1 0.4 0.6 c 1338 1161 m 107 X 63 Y -107 X f black 1338 1224 m 107 X s 1338 1161 m 107 X s 1445 1161 m 63 Y s 1338 1161 m 63 Y s
 gsave  2263 1770 2 313 C 1464.36 1081.32 t 0 r /Helvetica findfont 64.4212 sf 0 0 m (Multi\255jet) show NC gr  0 0 0.4 c 1338 1070 m 107 X 63 Y -107 X f black 1338 1133 m 107 X s 1338 1070 m 107 X s 1445 1070 m 63 Y s 1338 1070 m 63 Y s
 gsave  2263 1770 2 313 C 911.832 1566.05 t 0 r /Helvetica findfont 44.0776 sf 0 0 m (\2551) show NC gr 
 gsave  2263 1770 2 313 C 471.17 1535.54 t 0 r /Helvetica findfont 64.4212 sf 0 0 m (=13TeV, 139 fb) show NC gr 
 gsave  2263 1770 2 313 C 440.662 1535.54 t 0 r /Helvetica findfont 64.4212 sf 0 0 m (s) show NC gr  6 lw 420 1573 m 7 -41 d s 3 lw 427 1532 m 7 61 d s 434 1593 m 37 X s 1 1 1 c 2254 561 2 2 bf black 1 1 1 c black 1860 358 318 187 bl 1 1 1 c black
 1860 358 318 187 bl 6 lw 1 1 1 c black 3 lw 380 479 m20 6 lw 3 lw 504 396 m20 6 lw 3 lw 628 381 m20 6 lw 3 lw 752 357 m20 6 lw 3 lw 876 390 m20 6 lw 3 lw 1000 286 m20 6 lw 3 lw 1124 336 m20 6 lw 3 lw 1248 442 m20 6 lw 3 lw 1372 435 m20 6 lw 3 lw
 1496 283 m20 6 lw 3 lw 1620 342 m20 6 lw 3 lw 318 187 m 1860 X s
 gsave  2254 561 2 2 C 1959.25 33.8971 t 0 r /Helvetica findfont 78.1689 sf 0 0 m ( [GeV]) show NC gr 
 gsave  2254 561 2 2 C 1901.63 13.5588 t 0 r /Helvetica findfont 50.9797 sf 0 0 m (eff) show NC gr 
 gsave  2254 561 2 2 C 1840.61 33.8971 t 0 r /Helvetica findfont 78.1689 sf 0 0 m (m) show NC gr  318 201 m -14 Y s 380 194 m -7 Y s 442 194 m -7 Y s 504 194 m -7 Y s 566 194 m -7 Y s 628 201 m -14 Y s 690 194 m -7 Y s 752 194 m -7 Y s 814 194 m -7 Y
 s 876 194 m -7 Y s 938 201 m -14 Y s 1000 194 m -7 Y s 1062 194 m -7 Y s 1124 194 m -7 Y s 1186 194 m -7 Y s 1248 201 m -14 Y s 1310 194 m -7 Y s 1372 194 m -7 Y s 1434 194 m -7 Y s 1496 194 m -7 Y s 1558 201 m -14 Y s 1620 194 m -7 Y s 1682 194 m
 -7 Y s 1744 194 m -7 Y s 1806 194 m -7 Y s 1868 201 m -14 Y s 1930 194 m -7 Y s 1992 194 m -7 Y s 2054 194 m -7 Y s 2116 194 m -7 Y s 2178 201 m -14 Y s
 gsave  2254 561 2 2 C 227.111 118.64 t 0 r /Helvetica findfont 78.1689 sf 0 0 m (1000) show NC gr 
 gsave  2254 561 2 2 C 538.964 118.64 t 0 r /Helvetica findfont 78.1689 sf 0 0 m (1500) show NC gr 
 gsave  2254 561 2 2 C 847.428 118.64 t 0 r /Helvetica findfont 78.1689 sf 0 0 m (2000) show NC gr 
 gsave  2254 561 2 2 C 1159.28 118.64 t 0 r /Helvetica findfont 78.1689 sf 0 0 m (2500) show NC gr 
 gsave  2254 561 2 2 C 1467.74 118.64 t 0 r /Helvetica findfont 78.1689 sf 0 0 m (3000) show NC gr 
 gsave  2254 561 2 2 C 1779.6 118.64 t 0 r /Helvetica findfont 78.1689 sf 0 0 m (3500) show NC gr 
 gsave  2254 561 2 2 C 2088.06 118.64 t 0 r /Helvetica findfont 78.1689 sf 0 0 m (4000) show NC gr  318 545 m 1860 X s 318 531 m 14 Y s 380 538 m 7 Y s 442 538 m 7 Y s 504 538 m 7 Y s 566 538 m 7 Y s 628 531 m 14 Y s 690 538 m 7 Y s 752 538 m 7 Y s
 814 538 m 7 Y s 876 538 m 7 Y s 938 531 m 14 Y s 1000 538 m 7 Y s 1062 538 m 7 Y s 1124 538 m 7 Y s 1186 538 m 7 Y s 1248 531 m 14 Y s 1310 538 m 7 Y s 1372 538 m 7 Y s 1434 538 m 7 Y s 1496 538 m 7 Y s 1558 531 m 14 Y s 1620 538 m 7 Y s 1682 538 m
 7 Y s 1744 538 m 7 Y s 1806 538 m 7 Y s 1868 531 m 14 Y s 1930 538 m 7 Y s 1992 538 m 7 Y s 2054 538 m 7 Y s 2116 538 m 7 Y s 2178 531 m 14 Y s 318 187 m 358 Y s
 gsave  2254 561 2 2 C 166.096 284.736 t 90 r /Helvetica findfont 67.9729 sf 0 0 m (Data/SM) show NC gr  361 203 m -43 X s 339 220 m -21 X s 339 236 m -21 X s 339 252 m -21 X s 339 268 m -21 X s 361 285 m -43 X s 339 301 m -21 X s 339 317 m -21 X s
 339 334 m -21 X s 339 350 m -21 X s 361 366 m -43 X s 339 382 m -21 X s 339 399 m -21 X s 339 415 m -21 X s 339 431 m -21 X s 361 447 m -43 X s 339 464 m -21 X s 339 480 m -21 X s 339 496 m -21 X s 339 512 m -21 X s 361 529 m -43 X s 361 203 m -43 X
 s 339 187 m -21 X s 361 529 m -43 X s
 gsave  2254 561 2 2 C 261.008 183.044 t 0 r /Helvetica findfont 57.777 sf 0 0 m (0) show NC gr 
 gsave  2254 561 2 2 C 213.552 261.008 t 0 r /Helvetica findfont 57.777 sf 0 0 m (0.5) show NC gr 
 gsave  2254 561 2 2 C 271.177 342.361 t 0 r /Helvetica findfont 57.777 sf 0 0 m (1) show NC gr 
 gsave  2254 561 2 2 C 213.552 423.714 t 0 r /Helvetica findfont 57.777 sf 0 0 m (1.5) show NC gr 
 gsave  2254 561 2 2 C 261.008 505.067 t 0 r /Helvetica findfont 57.777 sf 0 0 m (2) show NC gr  2178 187 m 358 Y s 2135 203 m 43 X s 2157 220 m 21 X s 2157 236 m 21 X s 2157 252 m 21 X s 2157 268 m 21 X s 2135 285 m 43 X s 2157 301 m 21 X s 2157 317
 m 21 X s 2157 334 m 21 X s 2157 350 m 21 X s 2135 366 m 43 X s 2157 382 m 21 X s 2157 399 m 21 X s 2157 415 m 21 X s 2157 431 m 21 X s 2135 447 m 43 X s 2157 464 m 21 X s 2157 480 m 21 X s 2157 496 m 21 X s 2157 512 m 21 X s 2135 529 m 43 X s 2135
 203 m 43 X s 2157 187 m 21 X s 2135 529 m 43 X s 9 lw 380 492 m 53 Y s 380 545 m cl s 380 465 m -59 Y s 380 406 m cl s 504 409 m 25 Y s 504 434 m cl s 504 382 m -24 Y s 504 358 m cl s 628 394 m 21 Y s 628 415 m cl s 628 367 m -19 Y s 628 348 m cl s
 752 371 m 21 Y s 752 392 m cl s 752 344 m -21 Y s 752 323 m cl s 876 404 m 32 Y s 876 436 m cl s 876 377 m -31 Y s 876 346 m cl s 1000 300 m 22 Y s 1000 322 m cl s 1000 273 m -19 Y s 1000 254 m cl s 1124 350 m 49 Y s 1124 399 m cl s 1124 323 m -44 Y
 s 1124 279 m cl s 1248 456 m 89 Y s 1248 545 m cl s 1248 428 m -89 Y s 1248 339 m cl s 1372 449 m 96 Y s 1372 545 m cl s 1372 422 m -86 Y s 1372 336 m cl s 1496 296 m 89 Y s 1496 385 m cl s 1496 269 m -52 Y s 1496 217 m cl s 1620 355 m 165 Y s 1620
 520 m cl s 1620 328 m -101 Y s 1620 227 m cl s 1868 545 m -276 Y s 1868 269 m cl s 1992 540 m -276 Y s 1992 264 m cl s 3 lw 380 479 504 396 628 381 752 357 876 390 1000 286 1124 336 1248 442 1372 435 1496 283 1620 342 11 { m20} R 9 lw 1 0 0 c 6 lw
 black 3 lw 1 0 0 c 2178 227 m s 2178 255 m s 2178 284 m s 2178 312 m -3 -3 d s 2178 341 m -32 -32 d s 2178 369 m -61 -60 d s 2178 398 m -89 -89 d s 2175 424 m -115 -115 d s 2147 424 m -120 -119 d s 2118 424 m -119 -119 d s 2089 424 m -119 -119 d s
 2060 424 m -119 -119 d s 2036 427 m -123 -122 d s 2007 427 m -123 -122 d s 1978 427 m -122 -122 d s 1950 427 m -123 -122 d s 1920 427 m -114 -114 d s 1892 427 m -105 -104 d s 1863 427 m -104 -104 d s 1834 427 m -104 -104 d s 1788 409 m -87 -86 d s
 1759 409 m -93 -93 d s 1731 409 m -94 -93 d s 1702 409 m -94 -93 d s 1680 416 m -100 -100 d s 1651 416 m -93 -93 d s 1622 416 m -92 -92 d s 1594 416 m -93 -92 d s 1565 416 m -7 -7 d s 1558 408 m -85 -84 d s 1529 408 m -85 -84 d s 1500 408 m -81 -81
 d s 1471 408 m -81 -81 d s 1443 408 m -82 -81 d s 1410 405 m -77 -78 d s 1382 405 m -72 -72 d s 1353 405 m -72 -72 d s 1324 405 m -71 -72 d s 1290 399 m -66 -66 d s 1261 399 m -66 -66 d s 1232 399 m -66 -67 d s 1204 399 m -67 -67 d s 1176 400 m -68
 -68 d s 1147 400 m -67 -68 d s 1118 400 m -59 -60 d s 1090 400 m -60 -60 d s 1053 392 m -51 -52 d s 1024 392 m -51 -52 d s 996 392 m -52 -52 d s 967 392 m -50 -50 d s 938 392 m -1 Y s 937 390 m -49 -48 d s 908 390 m -49 -48 d s 880 390 m -49 -48 d s
 851 390 m -49 -48 d s 822 390 m -48 -48 d s 793 390 m -48 -48 d s 764 390 m -48 -48 d s 736 390 m -46 -46 d s 707 390 m -41 -41 d s 671 383 m -33 -34 d s 642 383 m -33 -34 d s 614 383 m -34 -34 d s 585 383 m -36 -36 d s 559 385 m -39 -38 d s 530 385
 m -38 -38 d s 501 385 m -38 -38 d s 442 326 m -3 -3 d s 473 385 m -63 -62 d s 318 231 m s 444 385 m -62 -62 d s 318 259 m s 439 409 m -86 -86 d s 318 288 m s 411 409 m -87 -86 d s 318 317 m s 382 409 m -64 -64 d s 353 409 m -35 -35 d s 324 409 m -6
 -7 d s 6 lw black[ 4 8] 0 sd 3 lw 318 447 m 1860 X s 318 285 m 1860 X s 1 0 0 c[  12 12 ] 0 sd 6 lw 318 366 m 1860 X s
 gr  gr showpage
end
%%EOF
