%!PS-Adobe-2.0 EPSF-2.0
%%BoundingBox:  0 0 567 521
%%Title: Distributions/meffInc_distrCRY_MB-GGd_beforeFit_forThesis.eps: canvas
%%Creator: ROOT Version 6.04/16
%%CreationDate: Tue May 19 22:04:33 2020
%%DocumentNeededResources: ProcSet (FontSetInit)
%%EndComments
%%BeginProlog
80 dict begin
/s {stroke} def /l {lineto} def /m {moveto} def /t {translate} def
/r {rotate} def /rl {roll}  def /R {repeat} def
/d {rlineto} def /rm {rmoveto} def /gr {grestore} def /f {eofill} def
/c {setrgbcolor} def /black {0 setgray} def /sd {setdash} def
/cl {closepath} def /sf {scalefont setfont} def /lw {setlinewidth} def
/box {m dup 0 exch d exch 0 d 0 exch neg d cl} def
/NC{systemdict begin initclip end}def/C{NC box clip newpath}def
/bl {box s} def /bf {gsave box gsave f grestore 1 lw [] 0 sd s grestore} def /Y { 0 exch d} def /X { 0 d} def 
/K {{pop pop 0 moveto} exch kshow} bind def
/ita {/ang 15 def gsave [1 0 ang dup sin exch cos div 1 0 0] concat} def 
/mp {newpath /y exch def /x exch def} def
/side {[w .77 mul w .23 mul] .385 w mul sd w 0 l currentpoint t -144 r} def
/mr {mp x y w2 0 360 arc} def /m24 {mr s} def /m20 {mr f} def
/mb {mp x y w2 add m w2 neg 0 d 0 w neg d w 0 d 0 w d cl} def
/mt {mp x y w2 add m w2 neg w neg d w 0 d cl} def
/m21 {mb f} def /m25 {mb s} def /m22 {mt f} def /m26{mt s} def
/m23 {mp x y w2 sub m w2 w d w neg 0 d cl f} def
/m27 {mp x y w2 add m w3 neg w2 neg d w3 w2 neg d w3 w2 d cl s} def
/m28 {mp x w2 sub y w2 sub w3 add m w3 0 d  0 w3 neg d w3 0 d 0 w3 d w3 0 d  0 w3 d w3 neg 0 d 0 w3 d w3 neg 0 d 0 w3 neg d w3 neg 0 d cl s } def
/m29 {mp gsave x w2 sub y w2 add w3 sub m currentpoint t 4 {side} repeat cl fill gr} def
/m30 {mp gsave x w2 sub y w2 add w3 sub m currentpoint t 4 {side} repeat cl s gr} def
/m31 {mp x y w2 sub m 0 w d x w2 sub y m w 0 d x w2 sub y w2 add m w w neg d x w2 sub y w2 sub m w w d s} def
/m32 {mp x y w2 sub m w2 w d w neg 0 d cl s} def
/m33 {mp x y w2 add m w3 neg w2 neg d w3 w2 neg d w3 w2 d cl f} def
/m34 {mp x w2 sub y w2 sub w3 add m w3 0 d  0 w3 neg d w3 0 d 0 w3 d w3 0 d  0 w3 d w3 neg 0 d 0 w3 d w3 neg 0 d 0 w3 neg d w3 neg 0 d cl f } def
/m2 {mp x y w2 sub m 0 w d x w2 sub y m w 0 d s} def
/m5 {mp x w2 sub y w2 sub m w w d x w2 sub y w2 add m w w neg d s} def
%%IncludeResource: ProcSet (FontSetInit)
%%IncludeResource: font Times-Roman
%%IncludeResource: font Times-Italic
%%IncludeResource: font Times-Bold
%%IncludeResource: font Times-BoldItalic
%%IncludeResource: font Helvetica
%%IncludeResource: font Helvetica-Oblique
%%IncludeResource: font Helvetica-Bold
%%IncludeResource: font Helvetica-BoldOblique
%%IncludeResource: font Courier
%%IncludeResource: font Courier-Oblique
%%IncludeResource: font Courier-Bold
%%IncludeResource: font Courier-BoldOblique
%%IncludeResource: font Symbol
%%IncludeResource: font ZapfDingbats
/reEncode {exch findfont dup length dict begin {1 index /FID eq  {pop pop} {def} ifelse } forall /Encoding exch def currentdict end dup /FontName get exch definefont pop } def [/Times-Bold /Times-Italic /Times-BoldItalic /Helvetica /Helvetica-Oblique
 /Helvetica-Bold /Helvetica-BoldOblique /Courier /Courier-Oblique /Courier-Bold /Courier-BoldOblique /Times-Roman /AvantGarde-Book /AvantGarde-BookOblique /AvantGarde-Demi /AvantGarde-DemiOblique /Bookman-Demi /Bookman-DemiItalic /Bookman-Light
 /Bookman-LightItalic /Helvetica-Narrow /Helvetica-Narrow-Bold /Helvetica-Narrow-BoldOblique /Helvetica-Narrow-Oblique /NewCenturySchlbk-Roman /NewCenturySchlbk-Bold /NewCenturySchlbk-BoldItalic /NewCenturySchlbk-Italic /Palatino-Bold
 /Palatino-BoldItalic /Palatino-Italic /Palatino-Roman ] {ISOLatin1Encoding reEncode } forall
%%EndProlog
%%BeginSetup
%%EndSetup
newpath  gsave  .25 .25 scale  gsave  0 0 t black[  ] 0 sd 3 lw 1 1 1 c 2268 2085 0 0 bf black 1 1 1 c 2263 1770 2 313 bf black 1 1 1 c black 1860 1145 319 584 bl 1 1 1 c black 1860 1145 319 584 bl 6 lw 1 1 1 c black 3 lw /w 33 def /w2 {w 2 div} def
 /w3 {w 3 div} def 381 1198 m20 6 lw 3 lw 505 1206 m20 6 lw 3 lw 629 1182 m20 6 lw 3 lw 753 1156 m20 6 lw 3 lw 877 1119 m20 6 lw 3 lw 1001 1091 m20 6 lw 3 lw 1125 1056 m20 6 lw 3 lw 1249 1032 m20 6 lw 3 lw 1373 994 m20 6 lw 3 lw 1497 974 m20 6 lw
 1621 928 m s 3 lw 1621 942 m20 6 lw 1745 882 m 7 Y s 1745 916 m 1 Y s 3 lw 1745 902 m20 6 lw 1869 838 m 15 Y s 1869 880 m 6 Y s 3 lw 1869 866 m20 6 lw 1993 848 m 12 Y s 1993 887 m 5 Y s 3 lw 1993 874 m20 6 lw 2117 876 m 8 Y s 2117 911 m 2 Y s 3 lw
 2117 897 m20 6 lw 3 lw 319 584 m 1860 X s
 gsave  2263 1770 2 313 C 1949.08 369.478 t 0 r /Helvetica findfont 81.3741 sf 0 0 m ( [GeV]) show NC gr 
 gsave  2263 1770 2 313 C 1888.07 342.361 t 0 r /Helvetica findfont 54.2494 sf 0 0 m (eff) show NC gr 
 gsave  2263 1770 2 313 C 1823.66 369.478 t 0 r /Helvetica findfont 81.3741 sf 0 0 m (m) show NC gr  319 584 m cl s 381 584 m cl s 443 584 m cl s 505 584 m cl s 567 584 m cl s 629 584 m cl s 691 584 m cl s 753 584 m cl s 815 584 m cl s 877 584 m cl s
 939 584 m cl s 1001 584 m cl s 1063 584 m cl s 1125 584 m cl s 1187 584 m cl s 1249 584 m cl s 1311 584 m cl s 1373 584 m cl s 1435 584 m cl s 1497 584 m cl s 1559 584 m cl s 1621 584 m cl s 1683 584 m cl s 1745 584 m cl s 1807 584 m cl s 1869 584 m
 cl s 1931 584 m cl s 1993 584 m cl s 2055 584 m cl s 2117 584 m cl s 2179 584 m cl s 319 1729 m 1860 X s 319 1729 m cl s 381 1729 m cl s 443 1729 m cl s 505 1729 m cl s 567 1729 m cl s 629 1729 m cl s 691 1729 m cl s 753 1729 m cl s 815 1729 m cl s
 877 1729 m cl s 939 1729 m cl s 1001 1729 m cl s 1063 1729 m cl s 1125 1729 m cl s 1187 1729 m cl s 1249 1729 m cl s 1311 1729 m cl s 1373 1729 m cl s 1435 1729 m cl s 1497 1729 m cl s 1559 1729 m cl s 1621 1729 m cl s 1683 1729 m cl s 1745 1729 m
 cl s 1807 1729 m cl s 1869 1729 m cl s 1931 1729 m cl s 1993 1729 m cl s 2055 1729 m cl s 2117 1729 m cl s 2179 1729 m cl s 319 584 m 1145 Y s
 gsave  2263 1770 2 313 C 166.096 1091.49 t 90 r /Helvetica findfont 81.3741 sf 0 0 m (Events / 200 GeV) show NC gr  341 629 m -22 X s 341 655 m -22 X s 341 673 m -22 X s 341 688 m -22 X s 341 700 m -22 X s 341 709 m -22 X s 341 718 m -22 X s 341 726
 m -22 X s 363 732 m -44 X s
 gsave  2263 1770 2 313 C 300.555 705.287 t 0 r  -36 0 t /Helvetica findfont 64.4212 sf 0 0 m (1) show NC gr  341 777 m -22 X s 341 803 m -22 X s 341 822 m -22 X s 341 836 m -22 X s 341 848 m -22 X s 341 858 m -22 X s 341 866 m -22 X s 341 874 m -22
 X s 363 881 m -44 X s
 gsave  2263 1770 2 313 C 300.555 853.382 t 0 r  -73 0 t /Helvetica findfont 64.4212 sf 0 0 m (10) show NC gr  341 925 m -22 X s 341 951 m -22 X s 341 970 m -22 X s 341 984 m -22 X s 341 996 m -22 X s 341 1006 m -22 X s 341 1014 m -22 X s 341 1022 m
 -22 X s 363 1029 m -44 X s
 gsave  2263 1770 2 313 C 274.567 1027.08 t 0 r /Helvetica findfont 44.0776 sf 0 0 m (2) show NC gr 
 gsave  2263 1770 2 313 C 203.383 999.965 t 0 r /Helvetica findfont 64.4212 sf 0 0 m (10) show NC gr  341 1073 m -22 X s 341 1099 m -22 X s 341 1118 m -22 X s 341 1132 m -22 X s 341 1144 m -22 X s 341 1154 m -22 X s 341 1162 m -22 X s 341 1170 m -22
 X s 363 1177 m -44 X s
 gsave  2263 1770 2 313 C 274.567 1179.62 t 0 r /Helvetica findfont 44.0776 sf 0 0 m (3) show NC gr 
 gsave  2263 1770 2 313 C 203.383 1149.11 t 0 r /Helvetica findfont 64.4212 sf 0 0 m (10) show NC gr  341 1221 m -22 X s 341 1247 m -22 X s 341 1266 m -22 X s 341 1280 m -22 X s 341 1292 m -22 X s 341 1302 m -22 X s 341 1310 m -22 X s 341 1318 m -22
 X s 363 1325 m -44 X s
 gsave  2263 1770 2 313 C 274.567 1321.99 t 0 r /Helvetica findfont 44.0776 sf 0 0 m (4) show NC gr 
 gsave  2263 1770 2 313 C 203.383 1294.87 t 0 r /Helvetica findfont 64.4212 sf 0 0 m (10) show NC gr  341 1369 m -22 X s 341 1395 m -22 X s 341 1414 m -22 X s 341 1428 m -22 X s 341 1440 m -22 X s 341 1450 m -22 X s 341 1459 m -22 X s 341 1466 m -22
 X s 363 1473 m -44 X s
 gsave  2263 1770 2 313 C 274.567 1474.52 t 0 r /Helvetica findfont 44.0776 sf 0 0 m (5) show NC gr 
 gsave  2263 1770 2 313 C 203.383 1444.02 t 0 r /Helvetica findfont 64.4212 sf 0 0 m (10) show NC gr  341 1517 m -22 X s 341 1544 m -22 X s 341 1562 m -22 X s 341 1576 m -22 X s 341 1588 m -22 X s 341 1598 m -22 X s 341 1607 m -22 X s 341 1614 m -22
 X s 363 1621 m -44 X s
 gsave  2263 1770 2 313 C 274.567 1623.67 t 0 r /Helvetica findfont 44.0776 sf 0 0 m (6) show NC gr 
 gsave  2263 1770 2 313 C 203.383 1593.16 t 0 r /Helvetica findfont 64.4212 sf 0 0 m (10) show NC gr  341 1666 m -22 X s 341 1692 m -22 X s 341 1710 m -22 X s 341 1724 m -22 X s 2179 584 m 1145 Y s 2157 629 m 22 X s 2157 655 m 22 X s 2157 673 m 22 X
 s 2157 688 m 22 X s 2157 700 m 22 X s 2157 709 m 22 X s 2157 718 m 22 X s 2157 726 m 22 X s 2136 732 m 43 X s 2157 777 m 22 X s 2157 803 m 22 X s 2157 822 m 22 X s 2157 836 m 22 X s 2157 848 m 22 X s 2157 858 m 22 X s 2157 866 m 22 X s 2157 874 m 22
 X s 2136 881 m 43 X s 2157 925 m 22 X s 2157 951 m 22 X s 2157 970 m 22 X s 2157 984 m 22 X s 2157 996 m 22 X s 2157 1006 m 22 X s 2157 1014 m 22 X s 2157 1022 m 22 X s 2136 1029 m 43 X s 2157 1073 m 22 X s 2157 1099 m 22 X s 2157 1118 m 22 X s 2157
 1132 m 22 X s 2157 1144 m 22 X s 2157 1154 m 22 X s 2157 1162 m 22 X s 2157 1170 m 22 X s 2136 1177 m 43 X s 2157 1221 m 22 X s 2157 1247 m 22 X s 2157 1266 m 22 X s 2157 1280 m 22 X s 2157 1292 m 22 X s 2157 1302 m 22 X s 2157 1310 m 22 X s 2157
 1318 m 22 X s 2136 1325 m 43 X s 2157 1369 m 22 X s 2157 1395 m 22 X s 2157 1414 m 22 X s 2157 1428 m 22 X s 2157 1440 m 22 X s 2157 1450 m 22 X s 2157 1459 m 22 X s 2157 1466 m 22 X s 2136 1473 m 43 X s 2157 1517 m 22 X s 2157 1544 m 22 X s 2157
 1562 m 22 X s 2157 1576 m 22 X s 2157 1588 m 22 X s 2157 1598 m 22 X s 2157 1607 m 22 X s 2157 1614 m 22 X s 2136 1621 m 43 X s 2157 1666 m 22 X s 2157 1692 m 22 X s 2157 1710 m 22 X s 2157 1724 m 22 X s 1 1 0 c black 1 1 0 c 319 584 m 618 Y 124 X
 12 Y 124 X -22 Y 124 X -29 Y 124 X -27 Y 124 X -37 Y 124 X -25 Y 124 X -33 Y 124 X -32 Y 124 X -24 Y 124 X -45 Y 124 X -22 Y 124 X -27 Y 124 X -36 Y 124 X 43 Y 124 X -314 Y f black 1 1 0 c black 319 1202 m 124 X 12 Y 124 X -22 Y 124 X -29 Y 124 X
 -27 Y 124 X -37 Y 124 X -25 Y 124 X -33 Y 124 X -32 Y 124 X -24 Y 124 X -45 Y 124 X -22 Y 124 X -27 Y 124 X -36 Y 124 X 43 Y 124 X s 0.999 0.999 0.999 c black 0.999 0.999 0.999 c 319 584 m 355 Y 124 X 2 Y 124 X -29 Y 124 X -37 Y 124 X -21 Y 124 X
 -29 Y 124 X -32 Y 124 X -24 Y 124 X -36 Y 124 X -35 Y 124 X -37 Y 124 X -77 Y 124 X 107 Y 124 X -107 Y 124 X 118 Y 124 X -118 Y f black 0.999 0.999 0.999 c black 319 939 m 124 X 2 Y 124 X -29 Y 124 X -37 Y 124 X -21 Y 124 X -29 Y 124 X -32 Y 124 X
 -24 Y 124 X -36 Y 124 X -35 Y 124 X -37 Y 124 X -77 Y 124 X 107 Y 124 X -107 Y 124 X 118 Y 124 X s 1 1 1 c black 319 939 m 124 X 2 Y 124 X -29 Y 124 X -37 Y 124 X -21 Y 124 X -29 Y 124 X -32 Y 124 X -24 Y 124 X -36 Y 124 X -35 Y 124 X -37 Y 124 X
 -77 Y 124 X 107 Y 124 X -107 Y 124 X 118 Y 124 X s 0.4 0.6 1 c black 0.4 0.6 1 c 319 584 m 355 Y 124 X 2 Y 124 X -29 Y 124 X -37 Y 124 X -21 Y 124 X -29 Y 124 X -32 Y 124 X -24 Y 124 X -36 Y 124 X -35 Y 124 X -37 Y 124 X -77 Y 124 X 107 Y 124 X -107
 Y 124 X 118 Y 124 X -118 Y f black 0.4 0.6 1 c black 319 939 m 124 X 2 Y 124 X -29 Y 124 X -37 Y 124 X -21 Y 124 X -29 Y 124 X -32 Y 124 X -24 Y 124 X -36 Y 124 X -35 Y 124 X -37 Y 124 X -77 Y 124 X 107 Y 124 X -107 Y 124 X 118 Y 124 X s 0.999 0.999
 0.999 c black 0.999 0.999 0.999 c 319 584 m 345 Y 248 X -39 Y 124 X -41 Y 124 X -19 Y 124 X -33 Y 124 X -34 Y 124 X -15 Y 124 X -37 Y 124 X -44 Y 124 X -83 Y 248 X 94 Y 124 X -94 Y 124 X 109 Y 124 X -109 Y f black 0.999 0.999 0.999 c black 319 929 m
 248 X -39 Y 124 X -41 Y 124 X -19 Y 124 X -33 Y 124 X -34 Y 124 X -15 Y 124 X -37 Y 124 X -44 Y 124 X -83 Y 248 X 94 Y 124 X -94 Y 124 X 109 Y 124 X s 1 1 1 c black 319 929 m 248 X -39 Y 124 X -41 Y 124 X -19 Y 124 X -33 Y 124 X -34 Y 124 X -15 Y
 124 X -37 Y 124 X -44 Y 124 X -83 Y 248 X 94 Y 124 X -94 Y 124 X 109 Y 124 X s 0.6 1 0.6 c black 0.6 1 0.6 c 319 584 m 345 Y 248 X -39 Y 124 X -41 Y 124 X -19 Y 124 X -33 Y 124 X -34 Y 124 X -15 Y 124 X -37 Y 124 X -44 Y 124 X -83 Y 248 X 94 Y 124 X
 -94 Y 124 X 109 Y 124 X -109 Y f black 0.6 1 0.6 c black 319 929 m 248 X -39 Y 124 X -41 Y 124 X -19 Y 124 X -33 Y 124 X -34 Y 124 X -15 Y 124 X -37 Y 124 X -44 Y 124 X -83 Y 248 X 94 Y 124 X -94 Y 124 X 109 Y 124 X s 0.999 0.999 0.999 c black 0.999
 0.999 0.999 c 319 584 m 83 Y 124 X 77 Y 124 X -64 Y 124 X 25 Y 124 X -51 Y 124 X -38 Y 124 X -32 Y 124 X 19 Y 124 X -19 Y 868 X f black 0.999 0.999 0.999 c black 319 667 m 124 X 77 Y 124 X -64 Y 124 X 25 Y 124 X -51 Y 124 X -38 Y 124 X -32 Y 124 X
 19 Y 124 X -19 Y 868 X s 1 1 1 c black 319 667 m 124 X 77 Y 124 X -64 Y 124 X 25 Y 124 X -51 Y 124 X -38 Y 124 X -32 Y 124 X 19 Y 124 X -19 Y 868 X s 1 0.4 0.6 c black 1 0.4 0.6 c 319 584 m 83 Y 124 X 77 Y 124 X -64 Y 124 X 25 Y 124 X -51 Y 124 X
 -38 Y 124 X -32 Y 124 X 19 Y 124 X -19 Y 868 X f black 1 0.4 0.6 c black 319 667 m 124 X 77 Y 124 X -64 Y 124 X 25 Y 124 X -51 Y 124 X -38 Y 124 X -32 Y 124 X 19 Y 124 X -19 Y 868 X s 1 0 0 c 6 lw 1 1 1 c black 1 0 0 c 319 1202 m 124 X 12 Y 124 X
 -22 Y 124 X -29 Y 124 X -27 Y 124 X -37 Y 124 X -25 Y 124 X -33 Y 124 X -32 Y 124 X -24 Y 124 X -44 Y 124 X -23 Y 124 X -27 Y 124 X -36 Y 124 X 43 Y 124 X s black 3 lw 1 0 0 c 1 lw << /PatternType 1 /PaintType 2 /TilingType 1 /BBox [ 0 0 100 100 ]
 /XStep 100 /YStep 100 /PaintProc { begin gsave 0 100 m 100 0 l s gr end } >> [ 0.24 0 0 0.24 0 0 ] makepattern /P05 exch def /cs {[/Pattern /DeviceRGB] setcolorspace} def /FA {f [/DeviceRGB] setcolorspace} def cs 1 0 0 P05 setcolor 319 584 m 619 Y
 124 X 12 Y 124 X -22 Y 124 X -28 Y 124 X -26 Y 124 X -38 Y 124 X -22 Y 124 X -34 Y 124 X -31 Y 124 X -23 Y 124 X -45 Y 124 X -22 Y 124 X -25 Y 124 X -36 Y 124 X 43 Y 124 X -322 Y 304 Y -124 X -42 Y -124 X 37 Y -124 X 27 Y -124 X 25 Y -124 X 43 Y
 -124 X 25 Y -124 X 33 Y -124 X 34 Y -124 X 26 Y -124 X 38 Y -124 X 26 Y -124 X 30 Y -124 X 22 Y -124 X -12 Y -124 X -616 Y FA 6 lw 1 1 1 c 15 lw 1869 846 m -7 Y s 1869 839 m cl s 1993 853 m -5 Y s 1993 848 m cl s 2117 877 m s 2117 877 m cl s black 1
 1 1 c 3 lw /w 43 def /w2 {w 2 div} def /w3 {w 3 div} def 381 1198 505 1206 629 1182 753 1156 877 1119 1001 1091 1125 1056 1249 1032 1373 994 1497 974 1621 942 1745 902 1869 866 1993 874 2117 897 15 { m20} R 15 lw black 6 lw 1 1 1 c black 3 lw /w 33
 def /w2 {w 2 div} def /w3 {w 3 div} def 381 1198 m20 6 lw 3 lw 505 1206 m20 6 lw 3 lw 629 1182 m20 6 lw 3 lw 753 1156 m20 6 lw 3 lw 877 1119 m20 6 lw 3 lw 1001 1091 m20 6 lw 3 lw 1125 1056 m20 6 lw 3 lw 1249 1032 m20 6 lw 3 lw 1373 994 m20 6 lw 3 lw
 1497 974 m20 6 lw 1621 928 m s 3 lw 1621 942 m20 6 lw 1745 882 m 7 Y s 1745 916 m 1 Y s 3 lw 1745 902 m20 6 lw 1869 838 m 15 Y s 1869 880 m 6 Y s 3 lw 1869 866 m20 6 lw 1993 848 m 12 Y s 1993 887 m 5 Y s 3 lw 1993 874 m20 6 lw 2117 876 m 8 Y s 2117
 911 m 2 Y s 3 lw 2117 897 m20 6 lw 1621 928 m s 1621 928 m cl s 1745 916 m 2 Y s 1745 918 m cl s 1745 889 m -6 Y s 1745 883 m cl s 1869 880 m 6 Y s 1869 886 m cl s 1869 853 m -14 Y s 1869 839 m cl s 1993 887 m 6 Y s 1993 893 m cl s 1993 860 m -12 Y
 s 1993 848 m cl s 2117 911 m 2 Y s 2117 913 m cl s 2117 884 m -7 Y s 2117 877 m cl s 3 lw 381 1198 505 1206 629 1182 753 1156 877 1119 1001 1091 1125 1056 1249 1032 1373 994 1497 974 1621 942 1745 902 1869 866 1993 874 2117 897 15 { m20} R 6 lw 3 lw
 319 584 m 1860 X s 319 584 m cl s 381 584 m cl s 443 584 m cl s 505 584 m cl s 567 584 m cl s 629 584 m cl s 691 584 m cl s 753 584 m cl s 815 584 m cl s 877 584 m cl s 939 584 m cl s 1001 584 m cl s 1063 584 m cl s 1125 584 m cl s 1187 584 m cl s
 1249 584 m cl s 1311 584 m cl s 1373 584 m cl s 1435 584 m cl s 1497 584 m cl s 1559 584 m cl s 1621 584 m cl s 1683 584 m cl s 1745 584 m cl s 1807 584 m cl s 1869 584 m cl s 1931 584 m cl s 1993 584 m cl s 2055 584 m cl s 2117 584 m cl s 2179 584
 m cl s 319 1729 m 1860 X s 319 1729 m cl s 381 1729 m cl s 443 1729 m cl s 505 1729 m cl s 567 1729 m cl s 629 1729 m cl s 691 1729 m cl s 753 1729 m cl s 815 1729 m cl s 877 1729 m cl s 939 1729 m cl s 1001 1729 m cl s 1063 1729 m cl s 1125 1729 m
 cl s 1187 1729 m cl s 1249 1729 m cl s 1311 1729 m cl s 1373 1729 m cl s 1435 1729 m cl s 1497 1729 m cl s 1559 1729 m cl s 1621 1729 m cl s 1683 1729 m cl s 1745 1729 m cl s 1807 1729 m cl s 1869 1729 m cl s 1931 1729 m cl s 1993 1729 m cl s 2055
 1729 m cl s 2117 1729 m cl s 2179 1729 m cl s 319 584 m 1145 Y s 341 629 m -22 X s 341 655 m -22 X s 341 673 m -22 X s 341 688 m -22 X s 341 700 m -22 X s 341 709 m -22 X s 341 718 m -22 X s 341 726 m -22 X s 363 732 m -44 X s 341 777 m -22 X s 341
 803 m -22 X s 341 822 m -22 X s 341 836 m -22 X s 341 848 m -22 X s 341 858 m -22 X s 341 866 m -22 X s 341 874 m -22 X s 363 881 m -44 X s 341 925 m -22 X s 341 951 m -22 X s 341 970 m -22 X s 341 984 m -22 X s 341 996 m -22 X s 341 1006 m -22 X s
 341 1014 m -22 X s 341 1022 m -22 X s 363 1029 m -44 X s 341 1073 m -22 X s 341 1099 m -22 X s 341 1118 m -22 X s 341 1132 m -22 X s 341 1144 m -22 X s 341 1154 m -22 X s 341 1162 m -22 X s 341 1170 m -22 X s 363 1177 m -44 X s 341 1221 m -22 X s
 341 1247 m -22 X s 341 1266 m -22 X s 341 1280 m -22 X s 341 1292 m -22 X s 341 1302 m -22 X s 341 1310 m -22 X s 341 1318 m -22 X s 363 1325 m -44 X s 341 1369 m -22 X s 341 1395 m -22 X s 341 1414 m -22 X s 341 1428 m -22 X s 341 1440 m -22 X s
 341 1450 m -22 X s 341 1459 m -22 X s 341 1466 m -22 X s 363 1473 m -44 X s 341 1517 m -22 X s 341 1544 m -22 X s 341 1562 m -22 X s 341 1576 m -22 X s 341 1588 m -22 X s 341 1598 m -22 X s 341 1607 m -22 X s 341 1614 m -22 X s 363 1621 m -44 X s
 341 1666 m -22 X s 341 1692 m -22 X s 341 1710 m -22 X s 341 1724 m -22 X s 2179 584 m 1145 Y s 2157 629 m 22 X s 2157 655 m 22 X s 2157 673 m 22 X s 2157 688 m 22 X s 2157 700 m 22 X s 2157 709 m 22 X s 2157 718 m 22 X s 2157 726 m 22 X s 2136 732
 m 43 X s 2157 777 m 22 X s 2157 803 m 22 X s 2157 822 m 22 X s 2157 836 m 22 X s 2157 848 m 22 X s 2157 858 m 22 X s 2157 866 m 22 X s 2157 874 m 22 X s 2136 881 m 43 X s 2157 925 m 22 X s 2157 951 m 22 X s 2157 970 m 22 X s 2157 984 m 22 X s 2157
 996 m 22 X s 2157 1006 m 22 X s 2157 1014 m 22 X s 2157 1022 m 22 X s 2136 1029 m 43 X s 2157 1073 m 22 X s 2157 1099 m 22 X s 2157 1118 m 22 X s 2157 1132 m 22 X s 2157 1144 m 22 X s 2157 1154 m 22 X s 2157 1162 m 22 X s 2157 1170 m 22 X s 2136
 1177 m 43 X s 2157 1221 m 22 X s 2157 1247 m 22 X s 2157 1266 m 22 X s 2157 1280 m 22 X s 2157 1292 m 22 X s 2157 1302 m 22 X s 2157 1310 m 22 X s 2157 1318 m 22 X s 2136 1325 m 43 X s 2157 1369 m 22 X s 2157 1395 m 22 X s 2157 1414 m 22 X s 2157
 1428 m 22 X s 2157 1440 m 22 X s 2157 1450 m 22 X s 2157 1459 m 22 X s 2157 1466 m 22 X s 2136 1473 m 43 X s 2157 1517 m 22 X s 2157 1544 m 22 X s 2157 1562 m 22 X s 2157 1576 m 22 X s 2157 1588 m 22 X s 2157 1598 m 22 X s 2157 1607 m 22 X s 2157
 1614 m 22 X s 2136 1621 m 43 X s 2157 1666 m 22 X s 2157 1692 m 22 X s 2157 1710 m 22 X s 2157 1724 m 22 X s
 gsave  2263 1770 2 313 C 406.765 1447.41 t 0 r /Helvetica findfont 64.4212 sf 0 0 m (CRY for MB\255GGd) show NC gr 
 gsave  2263 1770 2 313 C 1464.36 1616.89 t 0 r /Helvetica findfont 64.4212 sf 0 0 m (SM Total) show NC gr  1 1 1 c 1338 1603 m 107 X 74 Y -107 X f 1 0 0 c 6 lw 1338 1640 m 107 X s black
 gsave  2263 1770 2 313 C 1464.36 1511.81 t 0 r /Helvetica findfont 64.4212 sf 0 0 m (Data) show NC gr  1391 1502 m 64 Y s 3 lw 1391 1534 m20 6 lw
 gsave  2263 1770 2 313 C 1464.36 1406.73 t 0 r /Helvetica findfont 64.4212 sf 0 0 m (GAMMAjets) show NC gr  1 1 0 c 3 lw 1338 1391 m 107 X 74 Y -107 X f 6 lw black 3 lw 1338 1465 m 107 X s 1338 1391 m 107 X s 1445 1391 m 74 Y s 1338 1391 m 74 Y s
 gsave  2263 1770 2 313 C 1464.36 1298.26 t 0 r /Helvetica findfont 64.4212 sf 0 0 m (W+jets) show NC gr  0.4 0.6 1 c 1338 1284 m 107 X 75 Y -107 X f black 1338 1359 m 107 X s 1338 1284 m 107 X s 1445 1284 m 75 Y s 1338 1284 m 75 Y s
 gsave  2263 1770 2 313 C 1498.25 1193.18 t 0 r /Helvetica findfont 64.4212 sf 0 0 m (\(+EW\) & single top) show NC gr 
 gsave  2263 1770 2 313 C 1481.3 1193.18 t 0 r /Helvetica findfont 64.4212 sf 0 0 m (t) show NC gr  1481 1244 m 17 X s
 gsave  2263 1770 2 313 C 1464.36 1193.18 t 0 r /Helvetica findfont 64.4212 sf 0 0 m (t) show NC gr  0.6 1 0.6 c 1338 1178 m 107 X 75 Y -107 X f black 1338 1253 m 107 X s 1338 1178 m 107 X s 1445 1178 m 75 Y s 1338 1178 m 75 Y s
 gsave  2263 1770 2 313 C 1464.36 1088.1 t 0 r /Helvetica findfont 64.4212 sf 0 0 m (Diboson) show NC gr  1 0.4 0.6 c 1338 1072 m 107 X 74 Y -107 X f black 1338 1146 m 107 X s 1338 1072 m 107 X s 1445 1072 m 74 Y s 1338 1072 m 74 Y s
 gsave  2263 1770 2 313 C 911.832 1566.05 t 0 r /Helvetica findfont 44.0776 sf 0 0 m (\2551) show NC gr 
 gsave  2263 1770 2 313 C 471.17 1535.54 t 0 r /Helvetica findfont 64.4212 sf 0 0 m (=13TeV, 139 fb) show NC gr 
 gsave  2263 1770 2 313 C 440.662 1535.54 t 0 r /Helvetica findfont 64.4212 sf 0 0 m (s) show NC gr  6 lw 420 1573 m 7 -41 d s 3 lw 427 1532 m 7 61 d s 434 1593 m 37 X s 1 1 1 c 2254 561 2 2 bf black 1 1 1 c black 1860 358 318 187 bl 1 1 1 c black
 1860 358 318 187 bl 6 lw 1 1 1 c black 3 lw 380 357 m20 6 lw 3 lw 504 347 m20 6 lw 3 lw 628 344 m20 6 lw 3 lw 752 350 m20 6 lw 3 lw 876 329 m20 6 lw 3 lw 1000 347 m20 6 lw 3 lw 1124 325 m20 6 lw 3 lw 1248 345 m20 6 lw 3 lw 1372 332 m20 6 lw 3 lw
 1496 342 m20 6 lw 3 lw 1620 370 m20 6 lw 3 lw 1744 331 m20 6 lw 3 lw 1868 313 m20 6 lw 3 lw 1992 419 m20 6 lw 3 lw 2116 365 m20 6 lw 3 lw 318 187 m 1860 X s
 gsave  2254 561 2 2 C 1959.25 33.8971 t 0 r /Helvetica findfont 78.1689 sf 0 0 m ( [GeV]) show NC gr 
 gsave  2254 561 2 2 C 1901.63 13.5588 t 0 r /Helvetica findfont 50.9797 sf 0 0 m (eff) show NC gr 
 gsave  2254 561 2 2 C 1840.61 33.8971 t 0 r /Helvetica findfont 78.1689 sf 0 0 m (m) show NC gr  318 201 m -14 Y s 380 194 m -7 Y s 442 194 m -7 Y s 504 194 m -7 Y s 566 194 m -7 Y s 628 201 m -14 Y s 690 194 m -7 Y s 752 194 m -7 Y s 814 194 m -7 Y
 s 876 194 m -7 Y s 938 201 m -14 Y s 1000 194 m -7 Y s 1062 194 m -7 Y s 1124 194 m -7 Y s 1186 194 m -7 Y s 1248 201 m -14 Y s 1310 194 m -7 Y s 1372 194 m -7 Y s 1434 194 m -7 Y s 1496 194 m -7 Y s 1558 201 m -14 Y s 1620 194 m -7 Y s 1682 194 m
 -7 Y s 1744 194 m -7 Y s 1806 194 m -7 Y s 1868 201 m -14 Y s 1930 194 m -7 Y s 1992 194 m -7 Y s 2054 194 m -7 Y s 2116 194 m -7 Y s 2178 201 m -14 Y s
 gsave  2254 561 2 2 C 227.111 118.64 t 0 r /Helvetica findfont 78.1689 sf 0 0 m (1000) show NC gr 
 gsave  2254 561 2 2 C 538.964 118.64 t 0 r /Helvetica findfont 78.1689 sf 0 0 m (1500) show NC gr 
 gsave  2254 561 2 2 C 847.428 118.64 t 0 r /Helvetica findfont 78.1689 sf 0 0 m (2000) show NC gr 
 gsave  2254 561 2 2 C 1159.28 118.64 t 0 r /Helvetica findfont 78.1689 sf 0 0 m (2500) show NC gr 
 gsave  2254 561 2 2 C 1467.74 118.64 t 0 r /Helvetica findfont 78.1689 sf 0 0 m (3000) show NC gr 
 gsave  2254 561 2 2 C 1779.6 118.64 t 0 r /Helvetica findfont 78.1689 sf 0 0 m (3500) show NC gr 
 gsave  2254 561 2 2 C 2088.06 118.64 t 0 r /Helvetica findfont 78.1689 sf 0 0 m (4000) show NC gr  318 545 m 1860 X s 318 531 m 14 Y s 380 538 m 7 Y s 442 538 m 7 Y s 504 538 m 7 Y s 566 538 m 7 Y s 628 531 m 14 Y s 690 538 m 7 Y s 752 538 m 7 Y s
 814 538 m 7 Y s 876 538 m 7 Y s 938 531 m 14 Y s 1000 538 m 7 Y s 1062 538 m 7 Y s 1124 538 m 7 Y s 1186 538 m 7 Y s 1248 531 m 14 Y s 1310 538 m 7 Y s 1372 538 m 7 Y s 1434 538 m 7 Y s 1496 538 m 7 Y s 1558 531 m 14 Y s 1620 538 m 7 Y s 1682 538 m
 7 Y s 1744 538 m 7 Y s 1806 538 m 7 Y s 1868 531 m 14 Y s 1930 538 m 7 Y s 1992 538 m 7 Y s 2054 538 m 7 Y s 2116 538 m 7 Y s 2178 531 m 14 Y s 318 187 m 358 Y s
 gsave  2254 561 2 2 C 166.096 284.736 t 90 r /Helvetica findfont 67.9729 sf 0 0 m (Data/SM) show NC gr  361 203 m -43 X s 339 220 m -21 X s 339 236 m -21 X s 339 252 m -21 X s 339 268 m -21 X s 361 285 m -43 X s 339 301 m -21 X s 339 317 m -21 X s
 339 334 m -21 X s 339 350 m -21 X s 361 366 m -43 X s 339 382 m -21 X s 339 399 m -21 X s 339 415 m -21 X s 339 431 m -21 X s 361 447 m -43 X s 339 464 m -21 X s 339 480 m -21 X s 339 496 m -21 X s 339 512 m -21 X s 361 529 m -43 X s 361 203 m -43 X
 s 339 187 m -21 X s 361 529 m -43 X s
 gsave  2254 561 2 2 C 261.008 183.044 t 0 r /Helvetica findfont 57.777 sf 0 0 m (0) show NC gr 
 gsave  2254 561 2 2 C 213.552 261.008 t 0 r /Helvetica findfont 57.777 sf 0 0 m (0.5) show NC gr 
 gsave  2254 561 2 2 C 271.177 342.361 t 0 r /Helvetica findfont 57.777 sf 0 0 m (1) show NC gr 
 gsave  2254 561 2 2 C 213.552 423.714 t 0 r /Helvetica findfont 57.777 sf 0 0 m (1.5) show NC gr 
 gsave  2254 561 2 2 C 261.008 505.067 t 0 r /Helvetica findfont 57.777 sf 0 0 m (2) show NC gr  2178 187 m 358 Y s 2135 203 m 43 X s 2157 220 m 21 X s 2157 236 m 21 X s 2157 252 m 21 X s 2157 268 m 21 X s 2135 285 m 43 X s 2157 301 m 21 X s 2157 317
 m 21 X s 2157 334 m 21 X s 2157 350 m 21 X s 2135 366 m 43 X s 2157 382 m 21 X s 2157 399 m 21 X s 2157 415 m 21 X s 2157 431 m 21 X s 2135 447 m 43 X s 2157 464 m 21 X s 2157 480 m 21 X s 2157 496 m 21 X s 2157 512 m 21 X s 2135 529 m 43 X s 2135
 203 m 43 X s 2157 187 m 21 X s 2135 529 m 43 X s 9 lw 1248 359 m s 1248 359 m cl s 1248 332 m -1 Y s 1248 331 m cl s 1372 346 m 3 Y s 1372 349 m cl s 1372 319 m -4 Y s 1372 315 m cl s 1496 356 m 7 Y s 1496 363 m cl s 1496 328 m -7 Y s 1496 321 m cl
 s 1620 383 m 19 Y s 1620 402 m cl s 1620 356 m -19 Y s 1620 337 m cl s 1744 345 m 21 Y s 1744 366 m cl s 1744 318 m -20 Y s 1744 298 m cl s 1868 327 m 27 Y s 1868 354 m cl s 1868 300 m -24 Y s 1868 276 m cl s 1992 433 m 61 Y s 1992 494 m cl s 1992
 406 m -57 Y s 1992 349 m cl s 2116 378 m 32 Y s 2116 410 m cl s 2116 351 m -30 Y s 2116 321 m cl s 3 lw 380 357 504 347 628 344 752 350 876 329 1000 347 1124 325 1248 345 1372 332 1496 342 1620 370 1744 331 1868 313 1992 419 2116 365 15 { m20} R 9
 lw 1 0 0 c 6 lw black 3 lw 1 0 0 c 2178 227 m s 2178 255 m s 2178 284 m s 2178 312 m s 2178 341 m s 2178 369 m -26 -26 d s 2169 389 m -45 -46 d s 2140 389 m -45 -46 d s 2111 389 m -45 -46 d s 2083 389 m -44 -44 d s 2053 387 m -43 -42 d s 2024 387 m
 -42 -42 d s 1995 387 m -42 -42 d s 1967 387 m -42 -41 d s 1938 387 m -42 -41 d s 1909 386 m -41 -40 d s 1880 386 m -41 -40 d s 1851 386 m -41 -40 d s 1822 386 m -38 -38 d s 1791 384 m -35 -36 d s 1762 384 m -35 -36 d s 1733 384 m -35 -36 d s 1705
 384 m -31 -31 d s 1672 379 m -27 -26 d s 1643 379 m -26 -26 d s 1614 379 m -26 -26 d s 1586 379 m -27 -26 d s 1558 352 m -2 -2 d s 1558 380 m -30 -30 d s 1531 382 m -32 -32 d s 1502 382 m -32 -32 d s 1474 382 m -32 -32 d s 1445 382 m -30 -30 d s
 1414 380 m -28 -28 d s 1385 380 m -27 -28 d s 1357 380 m -28 -28 d s 1328 380 m -26 -26 d s 1298 378 m -25 -24 d s 1269 378 m -24 -24 d s 1240 378 m -24 -24 d s 1212 378 m -25 -24 d s 1182 377 m -22 -22 d s 1153 377 m -22 -22 d s 1125 377 m -23 -22
 d s 1096 377 m -23 -22 d s 1067 377 m -18 -18 d s 1034 373 m -13 -14 d s 1005 373 m -13 -14 d s 977 373 m -14 -14 d s 948 373 m -13 -13 d s 919 372 m -13 -12 d s 890 372 m -13 -12 d s 862 372 m -13 -12 d s 833 372 m -13 -12 d s 803 372 m -11 -12 d s
 775 372 m -12 -12 d s 746 372 m -11 -12 d s 717 372 m -11 -12 d s 687 370 m -8 -8 d s 658 370 m -7 -8 d s 629 370 m -7 -8 d s 601 370 m -8 -8 d s 572 370 m -7 -8 d s 543 370 m -7 -8 d s 515 370 m -8 -8 d s 486 370 m -7 -8 d s 457 370 m -7 -8 d s 318
 231 m s 429 370 m -8 -8 d s 318 259 m s 400 370 m -8 -8 d s 318 288 m s 372 370 m -9 -8 d s 318 317 m s 343 370 m -8 -8 d s 318 345 m s 6 lw black[ 4 8] 0 sd 3 lw 318 447 m 1860 X s 318 285 m 1860 X s 1 0 0 c[  12 12 ] 0 sd 6 lw 318 366 m 1860 X s
 gr  gr showpage
end
%%EOF
