%!PS-Adobe-2.0 EPSF-2.0
%%BoundingBox:  0 0 567 521
%%Title: Distributions/meffInc_distrCRT_MB-C_beforeFit_forThesis.eps: canvas
%%Creator: ROOT Version 6.04/16
%%CreationDate: Tue May 19 22:04:06 2020
%%DocumentNeededResources: ProcSet (FontSetInit)
%%EndComments
%%BeginProlog
80 dict begin
/s {stroke} def /l {lineto} def /m {moveto} def /t {translate} def
/r {rotate} def /rl {roll}  def /R {repeat} def
/d {rlineto} def /rm {rmoveto} def /gr {grestore} def /f {eofill} def
/c {setrgbcolor} def /black {0 setgray} def /sd {setdash} def
/cl {closepath} def /sf {scalefont setfont} def /lw {setlinewidth} def
/box {m dup 0 exch d exch 0 d 0 exch neg d cl} def
/NC{systemdict begin initclip end}def/C{NC box clip newpath}def
/bl {box s} def /bf {gsave box gsave f grestore 1 lw [] 0 sd s grestore} def /Y { 0 exch d} def /X { 0 d} def 
/K {{pop pop 0 moveto} exch kshow} bind def
/ita {/ang 15 def gsave [1 0 ang dup sin exch cos div 1 0 0] concat} def 
/mp {newpath /y exch def /x exch def} def
/side {[w .77 mul w .23 mul] .385 w mul sd w 0 l currentpoint t -144 r} def
/mr {mp x y w2 0 360 arc} def /m24 {mr s} def /m20 {mr f} def
/mb {mp x y w2 add m w2 neg 0 d 0 w neg d w 0 d 0 w d cl} def
/mt {mp x y w2 add m w2 neg w neg d w 0 d cl} def
/m21 {mb f} def /m25 {mb s} def /m22 {mt f} def /m26{mt s} def
/m23 {mp x y w2 sub m w2 w d w neg 0 d cl f} def
/m27 {mp x y w2 add m w3 neg w2 neg d w3 w2 neg d w3 w2 d cl s} def
/m28 {mp x w2 sub y w2 sub w3 add m w3 0 d  0 w3 neg d w3 0 d 0 w3 d w3 0 d  0 w3 d w3 neg 0 d 0 w3 d w3 neg 0 d 0 w3 neg d w3 neg 0 d cl s } def
/m29 {mp gsave x w2 sub y w2 add w3 sub m currentpoint t 4 {side} repeat cl fill gr} def
/m30 {mp gsave x w2 sub y w2 add w3 sub m currentpoint t 4 {side} repeat cl s gr} def
/m31 {mp x y w2 sub m 0 w d x w2 sub y m w 0 d x w2 sub y w2 add m w w neg d x w2 sub y w2 sub m w w d s} def
/m32 {mp x y w2 sub m w2 w d w neg 0 d cl s} def
/m33 {mp x y w2 add m w3 neg w2 neg d w3 w2 neg d w3 w2 d cl f} def
/m34 {mp x w2 sub y w2 sub w3 add m w3 0 d  0 w3 neg d w3 0 d 0 w3 d w3 0 d  0 w3 d w3 neg 0 d 0 w3 d w3 neg 0 d 0 w3 neg d w3 neg 0 d cl f } def
/m2 {mp x y w2 sub m 0 w d x w2 sub y m w 0 d s} def
/m5 {mp x w2 sub y w2 sub m w w d x w2 sub y w2 add m w w neg d s} def
%%IncludeResource: ProcSet (FontSetInit)
%%IncludeResource: font Times-Roman
%%IncludeResource: font Times-Italic
%%IncludeResource: font Times-Bold
%%IncludeResource: font Times-BoldItalic
%%IncludeResource: font Helvetica
%%IncludeResource: font Helvetica-Oblique
%%IncludeResource: font Helvetica-Bold
%%IncludeResource: font Helvetica-BoldOblique
%%IncludeResource: font Courier
%%IncludeResource: font Courier-Oblique
%%IncludeResource: font Courier-Bold
%%IncludeResource: font Courier-BoldOblique
%%IncludeResource: font Symbol
%%IncludeResource: font ZapfDingbats
/reEncode {exch findfont dup length dict begin {1 index /FID eq  {pop pop} {def} ifelse } forall /Encoding exch def currentdict end dup /FontName get exch definefont pop } def [/Times-Bold /Times-Italic /Times-BoldItalic /Helvetica /Helvetica-Oblique
 /Helvetica-Bold /Helvetica-BoldOblique /Courier /Courier-Oblique /Courier-Bold /Courier-BoldOblique /Times-Roman /AvantGarde-Book /AvantGarde-BookOblique /AvantGarde-Demi /AvantGarde-DemiOblique /Bookman-Demi /Bookman-DemiItalic /Bookman-Light
 /Bookman-LightItalic /Helvetica-Narrow /Helvetica-Narrow-Bold /Helvetica-Narrow-BoldOblique /Helvetica-Narrow-Oblique /NewCenturySchlbk-Roman /NewCenturySchlbk-Bold /NewCenturySchlbk-BoldItalic /NewCenturySchlbk-Italic /Palatino-Bold
 /Palatino-BoldItalic /Palatino-Italic /Palatino-Roman ] {ISOLatin1Encoding reEncode } forall
%%EndProlog
%%BeginSetup
%%EndSetup
newpath  gsave  .25 .25 scale  gsave  0 0 t black[  ] 0 sd 3 lw 1 1 1 c 2268 2085 0 0 bf black 1 1 1 c 2263 1770 2 313 bf black 1 1 1 c black 1860 1145 319 584 bl 1 1 1 c black 1860 1145 319 584 bl 6 lw 1 1 1 c black 3 lw /w 33 def /w2 {w 2 div} def
 /w3 {w 3 div} def 374 1118 m20 6 lw 3 lw 483 1090 m20 6 lw 3 lw 593 1062 m20 6 lw 3 lw 702 1024 m20 6 lw 3 lw 812 993 m20 6 lw 3 lw 921 978 m20 6 lw 3 lw 1030 937 m20 6 lw 1140 882 m 2 Y s 3 lw 1140 897 m20 6 lw 1249 841 m 7 Y s 1249 875 m 2 Y s 3
 lw 1249 862 m20 6 lw 1359 841 m 7 Y s 1359 875 m 2 Y s 3 lw 1359 862 m20 6 lw 1468 689 m 59 Y s 1468 775 m 18 Y s 3 lw 1468 761 m20 6 lw 1578 689 m 59 Y s 1578 775 m 18 Y s 3 lw 1578 761 m20 6 lw 1687 780 m 22 Y s 1687 829 m 8 Y s 3 lw 1687 815 m20
 6 lw 1796 584 m 123 Y s 1796 734 m 27 Y s 3 lw 1796 720 m20 6 lw 2125 584 m 123 Y s 2125 734 m 27 Y s 3 lw 2125 720 m20 6 lw 3 lw 319 584 m 1860 X s
 gsave  2263 1770 2 313 C 1949.08 369.478 t 0 r /Helvetica findfont 81.3741 sf 0 0 m ( [GeV]) show NC gr 
 gsave  2263 1770 2 313 C 1888.07 342.361 t 0 r /Helvetica findfont 54.2494 sf 0 0 m (eff) show NC gr 
 gsave  2263 1770 2 313 C 1823.66 369.478 t 0 r /Helvetica findfont 81.3741 sf 0 0 m (m) show NC gr  538 584 m cl s 593 584 m cl s 647 584 m cl s 702 584 m cl s 757 584 m cl s 812 584 m cl s 866 584 m cl s 921 584 m cl s 976 584 m cl s 1030 584 m cl
 s 1085 584 m cl s 1140 584 m cl s 1195 584 m cl s 1249 584 m cl s 1304 584 m cl s 1359 584 m cl s 1413 584 m cl s 1468 584 m cl s 1523 584 m cl s 1578 584 m cl s 1632 584 m cl s 1687 584 m cl s 1742 584 m cl s 1796 584 m cl s 1851 584 m cl s 1906
 584 m cl s 1961 584 m cl s 2015 584 m cl s 2070 584 m cl s 2125 584 m cl s 2179 584 m cl s 538 584 m cl s 483 584 m cl s 429 584 m cl s 374 584 m cl s 319 584 m cl s 319 1729 m 1860 X s 538 1729 m cl s 593 1729 m cl s 647 1729 m cl s 702 1729 m cl s
 757 1729 m cl s 812 1729 m cl s 866 1729 m cl s 921 1729 m cl s 976 1729 m cl s 1030 1729 m cl s 1085 1729 m cl s 1140 1729 m cl s 1195 1729 m cl s 1249 1729 m cl s 1304 1729 m cl s 1359 1729 m cl s 1413 1729 m cl s 1468 1729 m cl s 1523 1729 m cl s
 1578 1729 m cl s 1632 1729 m cl s 1687 1729 m cl s 1742 1729 m cl s 1796 1729 m cl s 1851 1729 m cl s 1906 1729 m cl s 1961 1729 m cl s 2015 1729 m cl s 2070 1729 m cl s 2125 1729 m cl s 2179 1729 m cl s 538 1729 m cl s 483 1729 m cl s 429 1729 m cl
 s 374 1729 m cl s 319 1729 m cl s 319 584 m 1145 Y s
 gsave  2263 1770 2 313 C 166.096 1091.49 t 90 r /Helvetica findfont 81.3741 sf 0 0 m (Events / 200 GeV) show NC gr  341 625 m -22 X s 341 649 m -22 X s 341 666 m -22 X s 341 679 m -22 X s 341 690 m -22 X s 341 699 m -22 X s 341 707 m -22 X s 341 714
 m -22 X s 363 720 m -44 X s
 gsave  2263 1770 2 313 C 300.555 693.148 t 0 r  -36 0 t /Helvetica findfont 64.4212 sf 0 0 m (1) show NC gr  341 761 m -22 X s 341 785 m -22 X s 341 802 m -22 X s 341 815 m -22 X s 341 826 m -22 X s 341 835 m -22 X s 341 843 m -22 X s 341 850 m -22
 X s 363 856 m -44 X s
 gsave  2263 1770 2 313 C 300.555 829.104 t 0 r  -73 0 t /Helvetica findfont 64.4212 sf 0 0 m (10) show NC gr  341 897 m -22 X s 341 921 m -22 X s 341 938 m -22 X s 341 951 m -22 X s 341 962 m -22 X s 341 971 m -22 X s 341 979 m -22 X s 341 986 m -22
 X s 363 992 m -44 X s
 gsave  2263 1770 2 313 C 274.567 989.796 t 0 r /Helvetica findfont 44.0776 sf 0 0 m (2) show NC gr 
 gsave  2263 1770 2 313 C 203.383 962.678 t 0 r /Helvetica findfont 64.4212 sf 0 0 m (10) show NC gr  341 1033 m -22 X s 341 1057 m -22 X s 341 1074 m -22 X s 341 1087 m -22 X s 341 1098 m -22 X s 341 1107 m -22 X s 341 1115 m -22 X s 341 1122 m -22
 X s 363 1128 m -44 X s
 gsave  2263 1770 2 313 C 274.567 1128.77 t 0 r /Helvetica findfont 44.0776 sf 0 0 m (3) show NC gr 
 gsave  2263 1770 2 313 C 203.383 1098.27 t 0 r /Helvetica findfont 64.4212 sf 0 0 m (10) show NC gr  341 1169 m -22 X s 341 1193 m -22 X s 341 1210 m -22 X s 341 1223 m -22 X s 341 1234 m -22 X s 341 1243 m -22 X s 341 1251 m -22 X s 341 1258 m -22
 X s 363 1264 m -44 X s
 gsave  2263 1770 2 313 C 274.567 1260.97 t 0 r /Helvetica findfont 44.0776 sf 0 0 m (4) show NC gr 
 gsave  2263 1770 2 313 C 203.383 1233.85 t 0 r /Helvetica findfont 64.4212 sf 0 0 m (10) show NC gr  341 1305 m -22 X s 341 1329 m -22 X s 341 1346 m -22 X s 341 1359 m -22 X s 341 1370 m -22 X s 341 1379 m -22 X s 341 1387 m -22 X s 341 1394 m -22
 X s 363 1400 m -44 X s
 gsave  2263 1770 2 313 C 274.567 1403.34 t 0 r /Helvetica findfont 44.0776 sf 0 0 m (5) show NC gr 
 gsave  2263 1770 2 313 C 203.383 1372.83 t 0 r /Helvetica findfont 64.4212 sf 0 0 m (10) show NC gr  341 1441 m -22 X s 341 1465 m -22 X s 341 1482 m -22 X s 341 1495 m -22 X s 341 1506 m -22 X s 341 1515 m -22 X s 341 1523 m -22 X s 341 1530 m -22
 X s 363 1536 m -44 X s
 gsave  2263 1770 2 313 C 274.567 1538.93 t 0 r /Helvetica findfont 44.0776 sf 0 0 m (6) show NC gr 
 gsave  2263 1770 2 313 C 203.383 1508.42 t 0 r /Helvetica findfont 64.4212 sf 0 0 m (10) show NC gr  341 1577 m -22 X s 341 1601 m -22 X s 341 1618 m -22 X s 341 1631 m -22 X s 341 1642 m -22 X s 341 1651 m -22 X s 341 1659 m -22 X s 341 1666 m -22
 X s 363 1672 m -44 X s
 gsave  2263 1770 2 313 C 274.567 1671.13 t 0 r /Helvetica findfont 44.0776 sf 0 0 m (7) show NC gr 
 gsave  2263 1770 2 313 C 203.383 1644.01 t 0 r /Helvetica findfont 64.4212 sf 0 0 m (10) show NC gr  341 1713 m -22 X s 2179 584 m 1145 Y s 2157 625 m 22 X s 2157 649 m 22 X s 2157 666 m 22 X s 2157 679 m 22 X s 2157 690 m 22 X s 2157 699 m 22 X s
 2157 707 m 22 X s 2157 714 m 22 X s 2136 720 m 43 X s 2157 761 m 22 X s 2157 785 m 22 X s 2157 802 m 22 X s 2157 815 m 22 X s 2157 826 m 22 X s 2157 835 m 22 X s 2157 843 m 22 X s 2157 850 m 22 X s 2136 856 m 43 X s 2157 897 m 22 X s 2157 921 m 22 X
 s 2157 938 m 22 X s 2157 951 m 22 X s 2157 962 m 22 X s 2157 971 m 22 X s 2157 979 m 22 X s 2157 986 m 22 X s 2136 992 m 43 X s 2157 1033 m 22 X s 2157 1057 m 22 X s 2157 1074 m 22 X s 2157 1087 m 22 X s 2157 1098 m 22 X s 2157 1107 m 22 X s 2157
 1115 m 22 X s 2157 1122 m 22 X s 2136 1128 m 43 X s 2157 1169 m 22 X s 2157 1193 m 22 X s 2157 1210 m 22 X s 2157 1223 m 22 X s 2157 1234 m 22 X s 2157 1243 m 22 X s 2157 1251 m 22 X s 2157 1258 m 22 X s 2136 1264 m 43 X s 2157 1305 m 22 X s 2157
 1329 m 22 X s 2157 1346 m 22 X s 2157 1359 m 22 X s 2157 1370 m 22 X s 2157 1379 m 22 X s 2157 1387 m 22 X s 2157 1394 m 22 X s 2136 1400 m 43 X s 2157 1441 m 22 X s 2157 1465 m 22 X s 2157 1482 m 22 X s 2157 1495 m 22 X s 2157 1506 m 22 X s 2157
 1515 m 22 X s 2157 1523 m 22 X s 2157 1530 m 22 X s 2136 1536 m 43 X s 2157 1577 m 22 X s 2157 1601 m 22 X s 2157 1618 m 22 X s 2157 1631 m 22 X s 2157 1642 m 22 X s 2157 1651 m 22 X s 2157 1659 m 22 X s 2157 1666 m 22 X s 2136 1672 m 43 X s 2157
 1713 m 22 X s 0.6 1 0.6 c black 0.6 1 0.6 c 319 584 m 547 Y 110 X -24 Y 109 X -28 Y 109 X -25 Y 110 X -27 Y 109 X -28 Y 110 X -34 Y 109 X -26 Y 110 X -37 Y 109 X -23 Y 109 X -19 Y 110 X -27 Y 109 X -35 Y 110 X -24 Y 109 X 4 Y 110 X -40 Y 109 X 12 Y
 109 X -166 Y f black 0.6 1 0.6 c black 319 1131 m 110 X -24 Y 109 X -28 Y 109 X -25 Y 110 X -27 Y 109 X -28 Y 110 X -34 Y 109 X -26 Y 110 X -37 Y 109 X -23 Y 109 X -19 Y 110 X -27 Y 109 X -35 Y 110 X -24 Y 109 X 4 Y 110 X -40 Y 109 X 12 Y 109 X s
 0.999 0.999 0.999 c black 0.999 0.999 0.999 c 319 584 m 468 Y 110 X -24 Y 109 X -29 Y 109 X -24 Y 110 X -27 Y 109 X -21 Y 110 X -34 Y 109 X -25 Y 110 X -39 Y 109 X -20 Y 109 X -42 Y 110 X -12 Y 109 X -14 Y 110 X -13 Y 109 X 5 Y 110 X -66 Y 109 X 42
 Y 109 X -125 Y f black 0.999 0.999 0.999 c black 319 1052 m 110 X -24 Y 109 X -29 Y 109 X -24 Y 110 X -27 Y 109 X -21 Y 110 X -34 Y 109 X -25 Y 110 X -39 Y 109 X -20 Y 109 X -42 Y 110 X -12 Y 109 X -14 Y 110 X -13 Y 109 X 5 Y 110 X -66 Y 109 X 42 Y
 109 X s 1 1 1 c black 319 1052 m 110 X -24 Y 109 X -29 Y 109 X -24 Y 110 X -27 Y 109 X -21 Y 110 X -34 Y 109 X -25 Y 110 X -39 Y 109 X -20 Y 109 X -42 Y 110 X -12 Y 109 X -14 Y 110 X -13 Y 109 X 5 Y 110 X -66 Y 109 X 42 Y 109 X s 0.4 0.6 1 c black
 0.4 0.6 1 c 319 584 m 468 Y 110 X -24 Y 109 X -29 Y 109 X -24 Y 110 X -27 Y 109 X -21 Y 110 X -34 Y 109 X -25 Y 110 X -39 Y 109 X -20 Y 109 X -42 Y 110 X -12 Y 109 X -14 Y 110 X -13 Y 109 X 5 Y 110 X -66 Y 109 X 42 Y 109 X -125 Y f black 0.4 0.6 1 c
 black 319 1052 m 110 X -24 Y 109 X -29 Y 109 X -24 Y 110 X -27 Y 109 X -21 Y 110 X -34 Y 109 X -25 Y 110 X -39 Y 109 X -20 Y 109 X -42 Y 110 X -12 Y 109 X -14 Y 110 X -13 Y 109 X 5 Y 110 X -66 Y 109 X 42 Y 109 X s 0.999 0.999 0.999 c black 0.999
 0.999 0.999 c 319 584 m 329 Y 110 X -12 Y 109 X -45 Y 109 X -18 Y 110 X -36 Y 109 X -18 Y 110 X -33 Y 109 X -9 Y 110 X -44 Y 109 X -25 Y 109 X -72 Y 110 X 56 Y 109 X -7 Y 110 X -66 Y 109 X 64 Y 110 X -64 Y 218 X f black 0.999 0.999 0.999 c black 319
 913 m 110 X -12 Y 109 X -45 Y 109 X -18 Y 110 X -36 Y 109 X -18 Y 110 X -33 Y 109 X -9 Y 110 X -44 Y 109 X -25 Y 109 X -72 Y 110 X 56 Y 109 X -7 Y 110 X -66 Y 109 X 64 Y 110 X -64 Y 218 X s 1 1 1 c black 319 913 m 110 X -12 Y 109 X -45 Y 109 X -18 Y
 110 X -36 Y 109 X -18 Y 110 X -33 Y 109 X -9 Y 110 X -44 Y 109 X -25 Y 109 X -72 Y 110 X 56 Y 109 X -7 Y 110 X -66 Y 109 X 64 Y 110 X -64 Y 218 X s 1 0.8 0.4 c black 1 0.8 0.4 c 319 584 m 329 Y 110 X -12 Y 109 X -45 Y 109 X -18 Y 110 X -36 Y 109 X
 -18 Y 110 X -33 Y 109 X -9 Y 110 X -44 Y 109 X -25 Y 109 X -72 Y 110 X 56 Y 109 X -7 Y 110 X -66 Y 109 X 64 Y 110 X -64 Y 218 X f black 1 0.8 0.4 c black 319 913 m 110 X -12 Y 109 X -45 Y 109 X -18 Y 110 X -36 Y 109 X -18 Y 110 X -33 Y 109 X -9 Y
 110 X -44 Y 109 X -25 Y 109 X -72 Y 110 X 56 Y 109 X -7 Y 110 X -66 Y 109 X 64 Y 110 X -64 Y 218 X s 0.999 0.999 0.999 c black 0.999 0.999 0.999 c 319 584 m 322 Y 110 X -10 Y 109 X -46 Y 109 X -21 Y 110 X -33 Y 109 X -17 Y 110 X -36 Y 109 X -10 Y
 110 X -40 Y 109 X -24 Y 109 X -74 Y 110 X 59 Y 109 X -5 Y 110 X -65 Y 109 X 63 Y 110 X -63 Y 218 X f black 0.999 0.999 0.999 c black 319 906 m 110 X -10 Y 109 X -46 Y 109 X -21 Y 110 X -33 Y 109 X -17 Y 110 X -36 Y 109 X -10 Y 110 X -40 Y 109 X -24
 Y 109 X -74 Y 110 X 59 Y 109 X -5 Y 110 X -65 Y 109 X 63 Y 110 X -63 Y 218 X s 1 1 1 c black 319 906 m 110 X -10 Y 109 X -46 Y 109 X -21 Y 110 X -33 Y 109 X -17 Y 110 X -36 Y 109 X -10 Y 110 X -40 Y 109 X -24 Y 109 X -74 Y 110 X 59 Y 109 X -5 Y 110
 X -65 Y 109 X 63 Y 110 X -63 Y 218 X s 1 0.4 0.6 c black 1 0.4 0.6 c 319 584 m 322 Y 110 X -10 Y 109 X -46 Y 109 X -21 Y 110 X -33 Y 109 X -17 Y 110 X -36 Y 109 X -10 Y 110 X -40 Y 109 X -24 Y 109 X -74 Y 110 X 59 Y 109 X -5 Y 110 X -65 Y 109 X 63 Y
 110 X -63 Y 218 X f black 1 0.4 0.6 c black 319 906 m 110 X -10 Y 109 X -46 Y 109 X -21 Y 110 X -33 Y 109 X -17 Y 110 X -36 Y 109 X -10 Y 110 X -40 Y 109 X -24 Y 109 X -74 Y 110 X 59 Y 109 X -5 Y 110 X -65 Y 109 X 63 Y 110 X -63 Y 218 X s 1 0 0 c 6
 lw 1 1 1 c black 1 0 0 c 319 1131 m 110 X -24 Y 109 X -28 Y 109 X -25 Y 110 X -27 Y 109 X -28 Y 110 X -34 Y 109 X -26 Y 110 X -37 Y 109 X -23 Y 109 X -19 Y 110 X -27 Y 109 X -35 Y 110 X -24 Y 109 X 4 Y 110 X -40 Y 109 X 12 Y 109 X s black 3 lw 1 0 0
 c 1 lw << /PatternType 1 /PaintType 2 /TilingType 1 /BBox [ 0 0 100 100 ] /XStep 100 /YStep 100 /PaintProc { begin gsave 0 100 m 100 0 l s gr end } >> [ 0.24 0 0 0.24 0 0 ] makepattern /P05 exch def /cs {[/Pattern /DeviceRGB] setcolorspace} def /FA
 {f [/DeviceRGB] setcolorspace} def cs 1 0 0 P05 setcolor 319 584 m 549 Y 110 X -24 Y 109 X -27 Y 109 X -25 Y 110 X -26 Y 109 X -29 Y 110 X -34 Y 109 X -25 Y 110 X -37 Y 109 X -21 Y 109 X -19 Y 110 X -26 Y 109 X -34 Y 110 X -20 Y 109 X 8 Y 110 X -40
 Y 109 X 8 Y 109 X -178 Y 151 Y -109 X -19 Y -109 X 40 Y -110 X 3 Y -109 X 29 Y -110 X 36 Y -109 X 28 Y -110 X 21 Y -109 X 24 Y -109 X 37 Y -110 X 27 Y -109 X 34 Y -110 X 29 Y -109 X 26 Y -110 X 27 Y -109 X 27 Y -109 X 25 Y -110 X -545 Y FA 6 lw 1 1
 1 c 15 lw 1249 842 m -1 Y s 1249 841 m cl s 1359 842 m -1 Y s 1359 841 m cl s 1468 782 m 14 Y s 1468 796 m cl s 1468 741 m -41 Y s 1468 700 m cl s 1578 782 m 14 Y s 1578 796 m cl s 1578 741 m -41 Y s 1578 700 m cl s 1687 836 m 2 Y s 1687 838 m cl s
 1687 795 m -13 Y s 1687 782 m cl s 1796 741 m 28 Y s 1796 769 m cl s 1796 700 m -83 Y s 1796 617 m cl s 2125 741 m 28 Y s 2125 769 m cl s 2125 700 m -83 Y s 2125 617 m cl s black 1 1 1 c 3 lw /w 43 def /w2 {w 2 div} def /w3 {w 3 div} def 374 1118
 483 1090 593 1062 702 1024 812 993 921 978 1030 937 1140 897 1249 862 1359 862 1468 761 1578 761 1687 815 1796 720 14 { m20} R 15 lw 3 lw 2125 720 m20 15 lw black 6 lw 1 1 1 c black 3 lw /w 33 def /w2 {w 2 div} def /w3 {w 3 div} def 374 1118 m20 6
 lw 3 lw 483 1090 m20 6 lw 3 lw 593 1062 m20 6 lw 3 lw 702 1024 m20 6 lw 3 lw 812 993 m20 6 lw 3 lw 921 978 m20 6 lw 3 lw 1030 937 m20 6 lw 1140 882 m 2 Y s 3 lw 1140 897 m20 6 lw 1249 841 m 7 Y s 1249 875 m 2 Y s 3 lw 1249 862 m20 6 lw 1359 841 m 7
 Y s 1359 875 m 2 Y s 3 lw 1359 862 m20 6 lw 1468 689 m 59 Y s 1468 775 m 18 Y s 3 lw 1468 761 m20 6 lw 1578 689 m 59 Y s 1578 775 m 18 Y s 3 lw 1578 761 m20 6 lw 1687 780 m 22 Y s 1687 829 m 8 Y s 3 lw 1687 815 m20 6 lw 1796 584 m 123 Y s 1796 734 m
 27 Y s 3 lw 1796 720 m20 6 lw 2125 584 m 123 Y s 2125 734 m 27 Y s 3 lw 2125 720 m20 6 lw 1140 884 m -2 Y s 1140 882 m cl s 1249 875 m 3 Y s 1249 878 m cl s 1249 848 m -7 Y s 1249 841 m cl s 1359 875 m 3 Y s 1359 878 m cl s 1359 848 m -7 Y s 1359
 841 m cl s 1468 775 m 21 Y s 1468 796 m cl s 1468 748 m -48 Y s 1468 700 m cl s 1578 775 m 21 Y s 1578 796 m cl s 1578 748 m -48 Y s 1578 700 m cl s 1687 829 m 9 Y s 1687 838 m cl s 1687 802 m -20 Y s 1687 782 m cl s 1796 734 m 35 Y s 1796 769 m cl
 s 1796 707 m -90 Y s 1796 617 m cl s 2125 734 m 35 Y s 2125 769 m cl s 2125 707 m -90 Y s 2125 617 m cl s 3 lw 374 1118 483 1090 593 1062 702 1024 812 993 921 978 1030 937 1140 897 1249 862 1359 862 1468 761 1578 761 1687 815 1796 720 14 { m20} R 6
 lw 3 lw 2125 720 m20 6 lw 3 lw 319 584 m 1860 X s 538 584 m cl s 593 584 m cl s 647 584 m cl s 702 584 m cl s 757 584 m cl s 812 584 m cl s 866 584 m cl s 921 584 m cl s 976 584 m cl s 1030 584 m cl s 1085 584 m cl s 1140 584 m cl s 1195 584 m cl s
 1249 584 m cl s 1304 584 m cl s 1359 584 m cl s 1413 584 m cl s 1468 584 m cl s 1523 584 m cl s 1578 584 m cl s 1632 584 m cl s 1687 584 m cl s 1742 584 m cl s 1796 584 m cl s 1851 584 m cl s 1906 584 m cl s 1961 584 m cl s 2015 584 m cl s 2070 584
 m cl s 2125 584 m cl s 2179 584 m cl s 538 584 m cl s 483 584 m cl s 429 584 m cl s 374 584 m cl s 319 584 m cl s 319 1729 m 1860 X s 538 1729 m cl s 593 1729 m cl s 647 1729 m cl s 702 1729 m cl s 757 1729 m cl s 812 1729 m cl s 866 1729 m cl s 921
 1729 m cl s 976 1729 m cl s 1030 1729 m cl s 1085 1729 m cl s 1140 1729 m cl s 1195 1729 m cl s 1249 1729 m cl s 1304 1729 m cl s 1359 1729 m cl s 1413 1729 m cl s 1468 1729 m cl s 1523 1729 m cl s 1578 1729 m cl s 1632 1729 m cl s 1687 1729 m cl s
 1742 1729 m cl s 1796 1729 m cl s 1851 1729 m cl s 1906 1729 m cl s 1961 1729 m cl s 2015 1729 m cl s 2070 1729 m cl s 2125 1729 m cl s 2179 1729 m cl s 538 1729 m cl s 483 1729 m cl s 429 1729 m cl s 374 1729 m cl s 319 1729 m cl s 319 584 m 1145 Y
 s 341 625 m -22 X s 341 649 m -22 X s 341 666 m -22 X s 341 679 m -22 X s 341 690 m -22 X s 341 699 m -22 X s 341 707 m -22 X s 341 714 m -22 X s 363 720 m -44 X s 341 761 m -22 X s 341 785 m -22 X s 341 802 m -22 X s 341 815 m -22 X s 341 826 m -22
 X s 341 835 m -22 X s 341 843 m -22 X s 341 850 m -22 X s 363 856 m -44 X s 341 897 m -22 X s 341 921 m -22 X s 341 938 m -22 X s 341 951 m -22 X s 341 962 m -22 X s 341 971 m -22 X s 341 979 m -22 X s 341 986 m -22 X s 363 992 m -44 X s 341 1033 m
 -22 X s 341 1057 m -22 X s 341 1074 m -22 X s 341 1087 m -22 X s 341 1098 m -22 X s 341 1107 m -22 X s 341 1115 m -22 X s 341 1122 m -22 X s 363 1128 m -44 X s 341 1169 m -22 X s 341 1193 m -22 X s 341 1210 m -22 X s 341 1223 m -22 X s 341 1234 m
 -22 X s 341 1243 m -22 X s 341 1251 m -22 X s 341 1258 m -22 X s 363 1264 m -44 X s 341 1305 m -22 X s 341 1329 m -22 X s 341 1346 m -22 X s 341 1359 m -22 X s 341 1370 m -22 X s 341 1379 m -22 X s 341 1387 m -22 X s 341 1394 m -22 X s 363 1400 m
 -44 X s 341 1441 m -22 X s 341 1465 m -22 X s 341 1482 m -22 X s 341 1495 m -22 X s 341 1506 m -22 X s 341 1515 m -22 X s 341 1523 m -22 X s 341 1530 m -22 X s 363 1536 m -44 X s 341 1577 m -22 X s 341 1601 m -22 X s 341 1618 m -22 X s 341 1631 m
 -22 X s 341 1642 m -22 X s 341 1651 m -22 X s 341 1659 m -22 X s 341 1666 m -22 X s 363 1672 m -44 X s 341 1713 m -22 X s 2179 584 m 1145 Y s 2157 625 m 22 X s 2157 649 m 22 X s 2157 666 m 22 X s 2157 679 m 22 X s 2157 690 m 22 X s 2157 699 m 22 X s
 2157 707 m 22 X s 2157 714 m 22 X s 2136 720 m 43 X s 2157 761 m 22 X s 2157 785 m 22 X s 2157 802 m 22 X s 2157 815 m 22 X s 2157 826 m 22 X s 2157 835 m 22 X s 2157 843 m 22 X s 2157 850 m 22 X s 2136 856 m 43 X s 2157 897 m 22 X s 2157 921 m 22 X
 s 2157 938 m 22 X s 2157 951 m 22 X s 2157 962 m 22 X s 2157 971 m 22 X s 2157 979 m 22 X s 2157 986 m 22 X s 2136 992 m 43 X s 2157 1033 m 22 X s 2157 1057 m 22 X s 2157 1074 m 22 X s 2157 1087 m 22 X s 2157 1098 m 22 X s 2157 1107 m 22 X s 2157
 1115 m 22 X s 2157 1122 m 22 X s 2136 1128 m 43 X s 2157 1169 m 22 X s 2157 1193 m 22 X s 2157 1210 m 22 X s 2157 1223 m 22 X s 2157 1234 m 22 X s 2157 1243 m 22 X s 2157 1251 m 22 X s 2157 1258 m 22 X s 2136 1264 m 43 X s 2157 1305 m 22 X s 2157
 1329 m 22 X s 2157 1346 m 22 X s 2157 1359 m 22 X s 2157 1370 m 22 X s 2157 1379 m 22 X s 2157 1387 m 22 X s 2157 1394 m 22 X s 2136 1400 m 43 X s 2157 1441 m 22 X s 2157 1465 m 22 X s 2157 1482 m 22 X s 2157 1495 m 22 X s 2157 1506 m 22 X s 2157
 1515 m 22 X s 2157 1523 m 22 X s 2157 1530 m 22 X s 2136 1536 m 43 X s 2157 1577 m 22 X s 2157 1601 m 22 X s 2157 1618 m 22 X s 2157 1631 m 22 X s 2157 1642 m 22 X s 2157 1651 m 22 X s 2157 1659 m 22 X s 2157 1666 m 22 X s 2136 1672 m 43 X s 2157
 1713 m 22 X s
 gsave  2263 1770 2 313 C 406.765 1447.41 t 0 r /Helvetica findfont 64.4212 sf 0 0 m (CRT for MB\255C) show NC gr 
 gsave  2263 1770 2 313 C 1464.36 1616.89 t 0 r /Helvetica findfont 64.4212 sf 0 0 m (SM Total) show NC gr  1 1 1 c 1338 1603 m 107 X 74 Y -107 X f 1 0 0 c 6 lw 1338 1640 m 107 X s black
 gsave  2263 1770 2 313 C 1464.36 1511.81 t 0 r /Helvetica findfont 64.4212 sf 0 0 m (Data) show NC gr  1391 1502 m 64 Y s 3 lw 1391 1534 m20 6 lw
 gsave  2263 1770 2 313 C 1498.25 1406.73 t 0 r /Helvetica findfont 64.4212 sf 0 0 m (\(+EW\) & single top) show NC gr 
 gsave  2263 1770 2 313 C 1481.3 1406.73 t 0 r /Helvetica findfont 64.4212 sf 0 0 m (t) show NC gr  3 lw 1481 1458 m 17 X s
 gsave  2263 1770 2 313 C 1464.36 1406.73 t 0 r /Helvetica findfont 64.4212 sf 0 0 m (t) show NC gr  0.6 1 0.6 c 1338 1391 m 107 X 74 Y -107 X f black 1338 1465 m 107 X s 1338 1391 m 107 X s 1445 1391 m 74 Y s 1338 1391 m 74 Y s
 gsave  2263 1770 2 313 C 1464.36 1298.26 t 0 r /Helvetica findfont 64.4212 sf 0 0 m (W+jets) show NC gr  0.4 0.6 1 c 1338 1284 m 107 X 75 Y -107 X f black 1338 1359 m 107 X s 1338 1284 m 107 X s 1445 1284 m 75 Y s 1338 1284 m 75 Y s
 gsave  2263 1770 2 313 C 1464.36 1193.18 t 0 r /Helvetica findfont 64.4212 sf 0 0 m (Z+jets) show NC gr  1 0.8 0.4 c 1338 1178 m 107 X 75 Y -107 X f black 1338 1253 m 107 X s 1338 1178 m 107 X s 1445 1178 m 75 Y s 1338 1178 m 75 Y s
 gsave  2263 1770 2 313 C 1464.36 1088.1 t 0 r /Helvetica findfont 64.4212 sf 0 0 m (Diboson) show NC gr  1 0.4 0.6 c 1338 1072 m 107 X 74 Y -107 X f black 1338 1146 m 107 X s 1338 1072 m 107 X s 1445 1072 m 74 Y s 1338 1072 m 74 Y s
 gsave  2263 1770 2 313 C 911.832 1566.05 t 0 r /Helvetica findfont 44.0776 sf 0 0 m (\2551) show NC gr 
 gsave  2263 1770 2 313 C 471.17 1535.54 t 0 r /Helvetica findfont 64.4212 sf 0 0 m (=13TeV, 139 fb) show NC gr 
 gsave  2263 1770 2 313 C 440.662 1535.54 t 0 r /Helvetica findfont 64.4212 sf 0 0 m (s) show NC gr  6 lw 420 1573 m 7 -41 d s 3 lw 427 1532 m 7 61 d s 434 1593 m 37 X s 1 1 1 c 2254 561 2 2 bf black 1 1 1 c black 1860 358 318 187 bl 1 1 1 c black
 1860 358 318 187 bl 6 lw 1 1 1 c black 3 lw 373 335 m20 6 lw 3 lw 482 325 m20 6 lw 3 lw 591 324 m20 6 lw 3 lw 701 301 m20 6 lw 3 lw 810 294 m20 6 lw 3 lw 920 319 m20 6 lw 3 lw 1029 304 m20 6 lw 3 lw 1139 284 m20 6 lw 3 lw 1248 286 m20 6 lw 3 lw 1358
 325 m20 6 lw 3 lw 1467 234 m20 6 lw 3 lw 1576 252 m20 6 lw 3 lw 1686 422 m20 6 lw 3 lw 1795 269 m20 6 lw 3 lw 2124 302 m20 6 lw 3 lw 318 187 m 1860 X s
 gsave  2254 561 2 2 C 1959.25 33.8971 t 0 r /Helvetica findfont 78.1689 sf 0 0 m ( [GeV]) show NC gr 
 gsave  2254 561 2 2 C 1901.63 13.5588 t 0 r /Helvetica findfont 50.9797 sf 0 0 m (eff) show NC gr 
 gsave  2254 561 2 2 C 1840.61 33.8971 t 0 r /Helvetica findfont 78.1689 sf 0 0 m (m) show NC gr  537 201 m -14 Y s 591 194 m -7 Y s 646 194 m -7 Y s 701 194 m -7 Y s 756 194 m -7 Y s 810 201 m -14 Y s 865 194 m -7 Y s 920 194 m -7 Y s 975 194 m -7 Y
 s 1029 194 m -7 Y s 1084 201 m -14 Y s 1139 194 m -7 Y s 1193 194 m -7 Y s 1248 194 m -7 Y s 1303 194 m -7 Y s 1358 201 m -14 Y s 1412 194 m -7 Y s 1467 194 m -7 Y s 1522 194 m -7 Y s 1576 194 m -7 Y s 1631 201 m -14 Y s 1686 194 m -7 Y s 1741 194 m
 -7 Y s 1795 194 m -7 Y s 1850 194 m -7 Y s 1905 201 m -14 Y s 1959 194 m -7 Y s 2014 194 m -7 Y s 2069 194 m -7 Y s 2124 194 m -7 Y s 2178 201 m -14 Y s 537 201 m -14 Y s 482 194 m -7 Y s 427 194 m -7 Y s 373 194 m -7 Y s 318 194 m -7 Y s
 gsave  2254 561 2 2 C 447.442 118.64 t 0 r /Helvetica findfont 78.1689 sf 0 0 m (2000) show NC gr 
 gsave  2254 561 2 2 C 722.008 118.64 t 0 r /Helvetica findfont 78.1689 sf 0 0 m (2500) show NC gr 
 gsave  2254 561 2 2 C 993.185 118.64 t 0 r /Helvetica findfont 78.1689 sf 0 0 m (3000) show NC gr 
 gsave  2254 561 2 2 C 1267.75 118.64 t 0 r /Helvetica findfont 78.1689 sf 0 0 m (3500) show NC gr 
 gsave  2254 561 2 2 C 1542.32 118.64 t 0 r /Helvetica findfont 78.1689 sf 0 0 m (4000) show NC gr 
 gsave  2254 561 2 2 C 1813.5 118.64 t 0 r /Helvetica findfont 78.1689 sf 0 0 m (4500) show NC gr 
 gsave  2254 561 2 2 C 2088.06 118.64 t 0 r /Helvetica findfont 78.1689 sf 0 0 m (5000) show NC gr  318 545 m 1860 X s 537 531 m 14 Y s 591 538 m 7 Y s 646 538 m 7 Y s 701 538 m 7 Y s 756 538 m 7 Y s 810 531 m 14 Y s 865 538 m 7 Y s 920 538 m 7 Y s
 975 538 m 7 Y s 1029 538 m 7 Y s 1084 531 m 14 Y s 1139 538 m 7 Y s 1193 538 m 7 Y s 1248 538 m 7 Y s 1303 538 m 7 Y s 1358 531 m 14 Y s 1412 538 m 7 Y s 1467 538 m 7 Y s 1522 538 m 7 Y s 1576 538 m 7 Y s 1631 531 m 14 Y s 1686 538 m 7 Y s 1741 538
 m 7 Y s 1795 538 m 7 Y s 1850 538 m 7 Y s 1905 531 m 14 Y s 1959 538 m 7 Y s 2014 538 m 7 Y s 2069 538 m 7 Y s 2124 538 m 7 Y s 2178 531 m 14 Y s 537 531 m 14 Y s 482 538 m 7 Y s 427 538 m 7 Y s 373 538 m 7 Y s 318 538 m 7 Y s 318 187 m 358 Y s
 gsave  2254 561 2 2 C 166.096 284.736 t 90 r /Helvetica findfont 67.9729 sf 0 0 m (Data/SM) show NC gr  361 203 m -43 X s 339 220 m -21 X s 339 236 m -21 X s 339 252 m -21 X s 339 268 m -21 X s 361 285 m -43 X s 339 301 m -21 X s 339 317 m -21 X s
 339 334 m -21 X s 339 350 m -21 X s 361 366 m -43 X s 339 382 m -21 X s 339 399 m -21 X s 339 415 m -21 X s 339 431 m -21 X s 361 447 m -43 X s 339 464 m -21 X s 339 480 m -21 X s 339 496 m -21 X s 339 512 m -21 X s 361 529 m -43 X s 361 203 m -43 X
 s 339 187 m -21 X s 361 529 m -43 X s
 gsave  2254 561 2 2 C 261.008 183.044 t 0 r /Helvetica findfont 57.777 sf 0 0 m (0) show NC gr 
 gsave  2254 561 2 2 C 213.552 261.008 t 0 r /Helvetica findfont 57.777 sf 0 0 m (0.5) show NC gr 
 gsave  2254 561 2 2 C 271.177 342.361 t 0 r /Helvetica findfont 57.777 sf 0 0 m (1) show NC gr 
 gsave  2254 561 2 2 C 213.552 423.714 t 0 r /Helvetica findfont 57.777 sf 0 0 m (1.5) show NC gr 
 gsave  2254 561 2 2 C 261.008 505.067 t 0 r /Helvetica findfont 57.777 sf 0 0 m (2) show NC gr  2178 187 m 358 Y s 2135 203 m 43 X s 2157 220 m 21 X s 2157 236 m 21 X s 2157 252 m 21 X s 2157 268 m 21 X s 2135 285 m 43 X s 2157 301 m 21 X s 2157 317
 m 21 X s 2157 334 m 21 X s 2157 350 m 21 X s 2135 366 m 43 X s 2157 382 m 21 X s 2157 399 m 21 X s 2157 415 m 21 X s 2157 431 m 21 X s 2135 447 m 43 X s 2157 464 m 21 X s 2157 480 m 21 X s 2157 496 m 21 X s 2157 512 m 21 X s 2135 529 m 43 X s 2135
 203 m 43 X s 2157 187 m 21 X s 2135 529 m 43 X s 9 lw 1029 318 m 3 Y s 1029 321 m cl s 1029 291 m -3 Y s 1029 288 m cl s 1139 298 m 4 Y s 1139 302 m cl s 1139 270 m -4 Y s 1139 266 m cl s 1248 300 m 11 Y s 1248 311 m cl s 1248 272 m -10 Y s 1248 262
 m cl s 1358 338 m 24 Y s 1358 362 m cl s 1358 311 m -22 Y s 1358 289 m cl s 1467 248 m 11 Y s 1467 259 m cl s 1467 221 m -7 Y s 1467 214 m cl s 1576 266 m 25 Y s 1576 291 m cl s 1576 238 m -17 Y s 1576 221 m cl s 1686 435 m 90 Y s 1686 525 m cl s
 1686 408 m -80 Y s 1686 328 m cl s 1795 282 m 71 Y s 1795 353 m cl s 1795 255 m -40 Y s 1795 215 m cl s 2124 315 m 113 Y s 2124 428 m cl s 2124 288 m -67 Y s 2124 221 m cl s 3 lw 373 335 482 325 591 324 701 301 810 294 920 319 1029 304 1139 284 1248
 286 1358 325 1467 234 1576 252 1686 422 1795 269 14 { m20} R 9 lw 3 lw 2124 302 m20 9 lw 1 0 0 c 6 lw black 3 lw 1 0 0 c 2178 227 m cl s 2178 255 m cl s 2178 284 m s 2178 312 m s 2178 341 m -11 -12 d s 2178 369 m -40 -40 d s 2178 398 m -69 -69 d s
 2154 403 m -73 -74 d s 2069 318 m -2 -3 d s 2126 403 m -88 -88 d s 2097 403 m -88 -88 d s 2069 403 m -88 -88 d s 2054 417 m -102 -102 d s 2025 417 m -102 -102 d s 1996 417 m -102 -102 d s 1968 417 m -102 -102 d s 1939 417 m -89 -89 d s 1910 417 m
 -87 -87 d s 1882 417 m -88 -87 d s 1853 417 m -3 -3 d s 1838 402 m -72 -72 d s 1810 402 m -69 -69 d s 1781 402 m -62 -61 d s 1752 402 m -61 -61 d s 1713 391 m -51 -50 d s 1684 391 m -51 -50 d s 1655 391 m -47 -46 d s 1622 387 m -42 -42 d s 1594 387
 m -43 -42 d s 1565 387 m -43 -42 d s 1536 387 m -40 -40 d s 1505 385 m -38 -38 d s 1477 385 m -38 -38 d s 1448 385 m -36 -36 d s 1419 385 m -35 -35 d s 1387 382 m -31 -32 d s 1359 382 m -32 -32 d s 1330 382 m -28 -29 d s 1298 379 m -25 -26 d s 1269
 379 m -25 -26 d s 1241 379 m -25 -26 d s 1212 379 m -24 -24 d s 1182 377 m -23 -22 d s 1154 377 m -23 -22 d s 1125 377 m -23 -22 d s 1096 377 m -22 -22 d s 1067 377 m -22 -22 d s 1038 377 m -21 -22 d s 1009 377 m -21 -22 d s 981 377 m -21 -21 d s
 951 376 m -20 -20 d s 923 376 m -21 -20 d s 894 376 m -20 -20 d s 865 376 m s 865 375 m -19 -18 d s 836 375 m -19 -18 d s 807 375 m -19 -18 d s 779 375 m -19 -18 d s 750 375 m -19 -18 d s 721 375 m -18 -18 d s 692 375 m -18 -18 d s 664 375 m -18 -17
 d s 633 373 m -14 -14 d s 604 373 m -14 -14 d s 575 373 m -14 -14 d s 547 373 m -14 -14 d s 518 373 m -14 -14 d s 489 373 m -13 -14 d s 460 373 m -13 -14 d s 318 231 m s 431 373 m -12 -13 d s 318 259 m s 402 372 m -11 -12 d s 318 288 m s 373 372 m
 -11 -12 d s 318 317 m s 344 372 m -11 -12 d s 318 345 m s 6 lw black[ 4 8] 0 sd 3 lw 318 447 m 1860 X s 318 285 m 1860 X s 1 0 0 c[  12 12 ] 0 sd 6 lw 318 366 m 1860 X s
 gr  gr showpage
end
%%EOF
