%!PS-Adobe-2.0 EPSF-2.0
%%BoundingBox:  0 0 567 521
%%Title: Distributions/meffInc_distrSR_MB-SSd_afterFit_forThesis.eps: canvas
%%Creator: ROOT Version 6.04/16
%%CreationDate: Tue May 19 22:05:17 2020
%%DocumentNeededResources: ProcSet (FontSetInit)
%%EndComments
%%BeginProlog
80 dict begin
/s {stroke} def /l {lineto} def /m {moveto} def /t {translate} def
/r {rotate} def /rl {roll}  def /R {repeat} def
/d {rlineto} def /rm {rmoveto} def /gr {grestore} def /f {eofill} def
/c {setrgbcolor} def /black {0 setgray} def /sd {setdash} def
/cl {closepath} def /sf {scalefont setfont} def /lw {setlinewidth} def
/box {m dup 0 exch d exch 0 d 0 exch neg d cl} def
/NC{systemdict begin initclip end}def/C{NC box clip newpath}def
/bl {box s} def /bf {gsave box gsave f grestore 1 lw [] 0 sd s grestore} def /Y { 0 exch d} def /X { 0 d} def 
/K {{pop pop 0 moveto} exch kshow} bind def
/ita {/ang 15 def gsave [1 0 ang dup sin exch cos div 1 0 0] concat} def 
/mp {newpath /y exch def /x exch def} def
/side {[w .77 mul w .23 mul] .385 w mul sd w 0 l currentpoint t -144 r} def
/mr {mp x y w2 0 360 arc} def /m24 {mr s} def /m20 {mr f} def
/mb {mp x y w2 add m w2 neg 0 d 0 w neg d w 0 d 0 w d cl} def
/mt {mp x y w2 add m w2 neg w neg d w 0 d cl} def
/m21 {mb f} def /m25 {mb s} def /m22 {mt f} def /m26{mt s} def
/m23 {mp x y w2 sub m w2 w d w neg 0 d cl f} def
/m27 {mp x y w2 add m w3 neg w2 neg d w3 w2 neg d w3 w2 d cl s} def
/m28 {mp x w2 sub y w2 sub w3 add m w3 0 d  0 w3 neg d w3 0 d 0 w3 d w3 0 d  0 w3 d w3 neg 0 d 0 w3 d w3 neg 0 d 0 w3 neg d w3 neg 0 d cl s } def
/m29 {mp gsave x w2 sub y w2 add w3 sub m currentpoint t 4 {side} repeat cl fill gr} def
/m30 {mp gsave x w2 sub y w2 add w3 sub m currentpoint t 4 {side} repeat cl s gr} def
/m31 {mp x y w2 sub m 0 w d x w2 sub y m w 0 d x w2 sub y w2 add m w w neg d x w2 sub y w2 sub m w w d s} def
/m32 {mp x y w2 sub m w2 w d w neg 0 d cl s} def
/m33 {mp x y w2 add m w3 neg w2 neg d w3 w2 neg d w3 w2 d cl f} def
/m34 {mp x w2 sub y w2 sub w3 add m w3 0 d  0 w3 neg d w3 0 d 0 w3 d w3 0 d  0 w3 d w3 neg 0 d 0 w3 d w3 neg 0 d 0 w3 neg d w3 neg 0 d cl f } def
/m2 {mp x y w2 sub m 0 w d x w2 sub y m w 0 d s} def
/m5 {mp x w2 sub y w2 sub m w w d x w2 sub y w2 add m w w neg d s} def
%%IncludeResource: ProcSet (FontSetInit)
%%IncludeResource: font Times-Roman
%%IncludeResource: font Times-Italic
%%IncludeResource: font Times-Bold
%%IncludeResource: font Times-BoldItalic
%%IncludeResource: font Helvetica
%%IncludeResource: font Helvetica-Oblique
%%IncludeResource: font Helvetica-Bold
%%IncludeResource: font Helvetica-BoldOblique
%%IncludeResource: font Courier
%%IncludeResource: font Courier-Oblique
%%IncludeResource: font Courier-Bold
%%IncludeResource: font Courier-BoldOblique
%%IncludeResource: font Symbol
%%IncludeResource: font ZapfDingbats
/reEncode {exch findfont dup length dict begin {1 index /FID eq  {pop pop} {def} ifelse } forall /Encoding exch def currentdict end dup /FontName get exch definefont pop } def [/Times-Bold /Times-Italic /Times-BoldItalic /Helvetica /Helvetica-Oblique
 /Helvetica-Bold /Helvetica-BoldOblique /Courier /Courier-Oblique /Courier-Bold /Courier-BoldOblique /Times-Roman /AvantGarde-Book /AvantGarde-BookOblique /AvantGarde-Demi /AvantGarde-DemiOblique /Bookman-Demi /Bookman-DemiItalic /Bookman-Light
 /Bookman-LightItalic /Helvetica-Narrow /Helvetica-Narrow-Bold /Helvetica-Narrow-BoldOblique /Helvetica-Narrow-Oblique /NewCenturySchlbk-Roman /NewCenturySchlbk-Bold /NewCenturySchlbk-BoldItalic /NewCenturySchlbk-Italic /Palatino-Bold
 /Palatino-BoldItalic /Palatino-Italic /Palatino-Roman ] {ISOLatin1Encoding reEncode } forall
%%EndProlog
%%BeginSetup
%%EndSetup
newpath  gsave  .25 .25 scale  gsave  0 0 t black[  ] 0 sd 3 lw 1 1 1 c 2268 2085 0 0 bf black 1 1 1 c 2263 1770 2 313 bf black 1 1 1 c black 1860 1145 319 584 bl 1 1 1 c black 1860 1145 319 584 bl 6 lw 1 1 1 c black 3 lw /w 33 def /w2 {w 2 div} def
 /w3 {w 3 div} def 366 1264 m20 6 lw 3 lw 459 1238 m20 6 lw 3 lw 552 1200 m20 6 lw 3 lw 645 1160 m20 6 lw 3 lw 738 1122 m20 6 lw 3 lw 831 1083 m20 6 lw 3 lw 924 1052 m20 6 lw 3 lw 1017 1010 m20 6 lw 3 lw 1110 995 m20 6 lw 3 lw 1203 958 m20 6 lw 3 lw
 1296 916 m20 6 lw 1389 874 m 2 Y s 3 lw 1389 889 m20 6 lw 1482 804 m 14 Y s 1482 845 m 5 Y s 3 lw 1482 831 m20 6 lw 1575 843 m 6 Y s 1575 876 m 1 Y s 3 lw 1575 862 m20 6 lw 1668 777 m 21 Y s 1668 825 m 8 Y s 3 lw 1668 812 m20 6 lw 1761 758 m 27 Y s
 1761 812 m 10 Y s 3 lw 1761 799 m20 6 lw 1854 687 m 58 Y s 1854 772 m 17 Y s 3 lw 1854 758 m20 6 lw 1947 687 m 58 Y s 1947 772 m 17 Y s 3 lw 1947 758 m20 6 lw 2133 687 m 58 Y s 2133 772 m 17 Y s 3 lw 2133 758 m20 6 lw 3 lw 319 584 m 1860 X s
 gsave  2263 1770 2 313 C 1949.08 369.478 t 0 r /Helvetica findfont 81.3741 sf 0 0 m ( [GeV]) show NC gr 
 gsave  2263 1770 2 313 C 1888.07 342.361 t 0 r /Helvetica findfont 54.2494 sf 0 0 m (eff) show NC gr 
 gsave  2263 1770 2 313 C 1823.66 369.478 t 0 r /Helvetica findfont 81.3741 sf 0 0 m (m) show NC gr  319 584 m cl s 366 584 m cl s 412 584 m cl s 459 584 m cl s 505 584 m cl s 552 584 m cl s 598 584 m cl s 645 584 m cl s 691 584 m cl s 738 584 m cl s
 784 584 m cl s 831 584 m cl s 877 584 m cl s 924 584 m cl s 970 584 m cl s 1017 584 m cl s 1063 584 m cl s 1110 584 m cl s 1156 584 m cl s 1203 584 m cl s 1249 584 m cl s 1296 584 m cl s 1342 584 m cl s 1389 584 m cl s 1435 584 m cl s 1482 584 m cl
 s 1528 584 m cl s 1575 584 m cl s 1621 584 m cl s 1668 584 m cl s 1714 584 m cl s 1761 584 m cl s 1807 584 m cl s 1854 584 m cl s 1900 584 m cl s 1947 584 m cl s 1993 584 m cl s 2040 584 m cl s 2086 584 m cl s 2133 584 m cl s 2179 584 m cl s 319
 1729 m 1860 X s 319 1729 m cl s 366 1729 m cl s 412 1729 m cl s 459 1729 m cl s 505 1729 m cl s 552 1729 m cl s 598 1729 m cl s 645 1729 m cl s 691 1729 m cl s 738 1729 m cl s 784 1729 m cl s 831 1729 m cl s 877 1729 m cl s 924 1729 m cl s 970 1729
 m cl s 1017 1729 m cl s 1063 1729 m cl s 1110 1729 m cl s 1156 1729 m cl s 1203 1729 m cl s 1249 1729 m cl s 1296 1729 m cl s 1342 1729 m cl s 1389 1729 m cl s 1435 1729 m cl s 1482 1729 m cl s 1528 1729 m cl s 1575 1729 m cl s 1621 1729 m cl s 1668
 1729 m cl s 1714 1729 m cl s 1761 1729 m cl s 1807 1729 m cl s 1854 1729 m cl s 1900 1729 m cl s 1947 1729 m cl s 1993 1729 m cl s 2040 1729 m cl s 2086 1729 m cl s 2133 1729 m cl s 2179 1729 m cl s 319 584 m 1145 Y s
 gsave  2263 1770 2 313 C 166.096 1091.49 t 90 r /Helvetica findfont 81.3741 sf 0 0 m (Events / 200 GeV) show NC gr  341 625 m -22 X s 341 648 m -22 X s 341 665 m -22 X s 341 678 m -22 X s 341 688 m -22 X s 341 697 m -22 X s 341 705 m -22 X s 341 712
 m -22 X s 363 718 m -44 X s
 gsave  2263 1770 2 313 C 300.555 690.947 t 0 r  -36 0 t /Helvetica findfont 64.4212 sf 0 0 m (1) show NC gr  341 758 m -22 X s 341 782 m -22 X s 341 799 m -22 X s 341 812 m -22 X s 341 822 m -22 X s 341 831 m -22 X s 341 839 m -22 X s 341 846 m -22
 X s 363 852 m -44 X s
 gsave  2263 1770 2 313 C 300.555 824.702 t 0 r  -73 0 t /Helvetica findfont 64.4212 sf 0 0 m (10) show NC gr  341 892 m -22 X s 341 916 m -22 X s 341 932 m -22 X s 341 945 m -22 X s 341 956 m -22 X s 341 965 m -22 X s 341 973 m -22 X s 341 979 m -22
 X s 363 986 m -44 X s
 gsave  2263 1770 2 313 C 274.567 983.016 t 0 r /Helvetica findfont 44.0776 sf 0 0 m (2) show NC gr 
 gsave  2263 1770 2 313 C 203.383 955.898 t 0 r /Helvetica findfont 64.4212 sf 0 0 m (10) show NC gr  341 1026 m -22 X s 341 1049 m -22 X s 341 1066 m -22 X s 341 1079 m -22 X s 341 1090 m -22 X s 341 1099 m -22 X s 341 1106 m -22 X s 341 1113 m -22
 X s 363 1119 m -44 X s
 gsave  2263 1770 2 313 C 274.567 1121.99 t 0 r /Helvetica findfont 44.0776 sf 0 0 m (3) show NC gr 
 gsave  2263 1770 2 313 C 203.383 1091.49 t 0 r /Helvetica findfont 64.4212 sf 0 0 m (10) show NC gr  341 1160 m -22 X s 341 1183 m -22 X s 341 1200 m -22 X s 341 1213 m -22 X s 341 1223 m -22 X s 341 1232 m -22 X s 341 1240 m -22 X s 341 1247 m -22
 X s 363 1253 m -44 X s
 gsave  2263 1770 2 313 C 274.567 1250.8 t 0 r /Helvetica findfont 44.0776 sf 0 0 m (4) show NC gr 
 gsave  2263 1770 2 313 C 203.383 1223.69 t 0 r /Helvetica findfont 64.4212 sf 0 0 m (10) show NC gr  341 1293 m -22 X s 341 1317 m -22 X s 341 1334 m -22 X s 341 1347 m -22 X s 341 1357 m -22 X s 341 1366 m -22 X s 341 1374 m -22 X s 341 1381 m -22
 X s 363 1387 m -44 X s
 gsave  2263 1770 2 313 C 274.567 1389.78 t 0 r /Helvetica findfont 44.0776 sf 0 0 m (5) show NC gr 
 gsave  2263 1770 2 313 C 203.383 1359.27 t 0 r /Helvetica findfont 64.4212 sf 0 0 m (10) show NC gr  341 1427 m -22 X s 341 1451 m -22 X s 341 1467 m -22 X s 341 1480 m -22 X s 341 1491 m -22 X s 341 1500 m -22 X s 341 1508 m -22 X s 341 1514 m -22
 X s 363 1521 m -44 X s
 gsave  2263 1770 2 313 C 274.567 1521.98 t 0 r /Helvetica findfont 44.0776 sf 0 0 m (6) show NC gr 
 gsave  2263 1770 2 313 C 203.383 1491.47 t 0 r /Helvetica findfont 64.4212 sf 0 0 m (10) show NC gr  341 1561 m -22 X s 341 1584 m -22 X s 341 1601 m -22 X s 341 1614 m -22 X s 341 1625 m -22 X s 341 1634 m -22 X s 341 1641 m -22 X s 341 1648 m -22
 X s 363 1654 m -44 X s
 gsave  2263 1770 2 313 C 274.567 1654.18 t 0 r /Helvetica findfont 44.0776 sf 0 0 m (7) show NC gr 
 gsave  2263 1770 2 313 C 203.383 1627.06 t 0 r /Helvetica findfont 64.4212 sf 0 0 m (10) show NC gr  341 1695 m -22 X s 341 1718 m -22 X s 2179 584 m 1145 Y s 2157 625 m 22 X s 2157 648 m 22 X s 2157 665 m 22 X s 2157 678 m 22 X s 2157 688 m 22 X s
 2157 697 m 22 X s 2157 705 m 22 X s 2157 712 m 22 X s 2136 718 m 43 X s 2157 758 m 22 X s 2157 782 m 22 X s 2157 799 m 22 X s 2157 812 m 22 X s 2157 822 m 22 X s 2157 831 m 22 X s 2157 839 m 22 X s 2157 846 m 22 X s 2136 852 m 43 X s 2157 892 m 22 X
 s 2157 916 m 22 X s 2157 932 m 22 X s 2157 945 m 22 X s 2157 956 m 22 X s 2157 965 m 22 X s 2157 973 m 22 X s 2157 979 m 22 X s 2136 986 m 43 X s 2157 1026 m 22 X s 2157 1049 m 22 X s 2157 1066 m 22 X s 2157 1079 m 22 X s 2157 1090 m 22 X s 2157
 1099 m 22 X s 2157 1106 m 22 X s 2157 1113 m 22 X s 2136 1119 m 43 X s 2157 1160 m 22 X s 2157 1183 m 22 X s 2157 1200 m 22 X s 2157 1213 m 22 X s 2157 1223 m 22 X s 2157 1232 m 22 X s 2157 1240 m 22 X s 2157 1247 m 22 X s 2136 1253 m 43 X s 2157
 1293 m 22 X s 2157 1317 m 22 X s 2157 1334 m 22 X s 2157 1347 m 22 X s 2157 1357 m 22 X s 2157 1366 m 22 X s 2157 1374 m 22 X s 2157 1381 m 22 X s 2136 1387 m 43 X s 2157 1427 m 22 X s 2157 1451 m 22 X s 2157 1467 m 22 X s 2157 1480 m 22 X s 2157
 1491 m 22 X s 2157 1500 m 22 X s 2157 1508 m 22 X s 2157 1514 m 22 X s 2136 1521 m 43 X s 2157 1561 m 22 X s 2157 1584 m 22 X s 2157 1601 m 22 X s 2157 1614 m 22 X s 2157 1625 m 22 X s 2157 1634 m 22 X s 2157 1641 m 22 X s 2157 1648 m 22 X s 2136
 1654 m 43 X s 2157 1695 m 22 X s 2157 1718 m 22 X s 0.4 0.6 1 c black 0.4 0.6 1 c 319 584 m 677 Y 93 X -23 Y 93 X -39 Y 93 X -40 Y 93 X -37 Y 93 X -37 Y 93 X -33 Y 93 X -34 Y 93 X -31 Y 93 X -30 Y 93 X -34 Y 93 X -24 Y 93 X -36 Y 93 X -19 Y 93 X -28
 Y 93 X -39 Y 93 X -29 Y 93 X -8 Y 93 X -55 Y 93 X 35 Y 93 X -136 Y f black 0.4 0.6 1 c black 319 1261 m 93 X -23 Y 93 X -39 Y 93 X -40 Y 93 X -37 Y 93 X -37 Y 93 X -33 Y 93 X -34 Y 93 X -31 Y 93 X -30 Y 93 X -34 Y 93 X -24 Y 93 X -36 Y 93 X -19 Y 93
 X -28 Y 93 X -39 Y 93 X -29 Y 93 X -8 Y 93 X -55 Y 93 X 35 Y 93 X s 0.999 0.999 0.999 c black 0.999 0.999 0.999 c 319 584 m 658 Y 93 X -23 Y 93 X -37 Y 93 X -39 Y 93 X -36 Y 93 X -38 Y 93 X -32 Y 93 X -34 Y 93 X -29 Y 93 X -30 Y 93 X -34 Y 93 X -23
 Y 93 X -37 Y 93 X -18 Y 93 X -28 Y 93 X -49 Y 93 X -18 Y 93 X -11 Y 93 X -51 Y 93 X 34 Y 93 X -125 Y f black 0.999 0.999 0.999 c black 319 1242 m 93 X -23 Y 93 X -37 Y 93 X -39 Y 93 X -36 Y 93 X -38 Y 93 X -32 Y 93 X -34 Y 93 X -29 Y 93 X -30 Y 93 X
 -34 Y 93 X -23 Y 93 X -37 Y 93 X -18 Y 93 X -28 Y 93 X -49 Y 93 X -18 Y 93 X -11 Y 93 X -51 Y 93 X 34 Y 93 X s 1 1 1 c black 319 1242 m 93 X -23 Y 93 X -37 Y 93 X -39 Y 93 X -36 Y 93 X -38 Y 93 X -32 Y 93 X -34 Y 93 X -29 Y 93 X -30 Y 93 X -34 Y 93
 X -23 Y 93 X -37 Y 93 X -18 Y 93 X -28 Y 93 X -49 Y 93 X -18 Y 93 X -11 Y 93 X -51 Y 93 X 34 Y 93 X s 0.6 1 0.6 c black 0.6 1 0.6 c 319 584 m 658 Y 93 X -23 Y 93 X -37 Y 93 X -39 Y 93 X -36 Y 93 X -38 Y 93 X -32 Y 93 X -34 Y 93 X -29 Y 93 X -30 Y 93
 X -34 Y 93 X -23 Y 93 X -37 Y 93 X -18 Y 93 X -28 Y 93 X -49 Y 93 X -18 Y 93 X -11 Y 93 X -51 Y 93 X 34 Y 93 X -125 Y f black 0.6 1 0.6 c black 319 1242 m 93 X -23 Y 93 X -37 Y 93 X -39 Y 93 X -36 Y 93 X -38 Y 93 X -32 Y 93 X -34 Y 93 X -29 Y 93 X
 -30 Y 93 X -34 Y 93 X -23 Y 93 X -37 Y 93 X -18 Y 93 X -28 Y 93 X -49 Y 93 X -18 Y 93 X -11 Y 93 X -51 Y 93 X 34 Y 93 X s 0.999 0.999 0.999 c black 0.999 0.999 0.999 c 319 584 m 647 Y 93 X -19 Y 93 X -36 Y 93 X -38 Y 93 X -35 Y 93 X -37 Y 93 X -32 Y
 93 X -34 Y 93 X -28 Y 93 X -30 Y 93 X -34 Y 93 X -22 Y 93 X -37 Y 93 X -18 Y 93 X -27 Y 93 X -49 Y 93 X -22 Y 93 X -7 Y 93 X -51 Y 93 X 33 Y 93 X -124 Y f black 0.999 0.999 0.999 c black 319 1231 m 93 X -19 Y 93 X -36 Y 93 X -38 Y 93 X -35 Y 93 X
 -37 Y 93 X -32 Y 93 X -34 Y 93 X -28 Y 93 X -30 Y 93 X -34 Y 93 X -22 Y 93 X -37 Y 93 X -18 Y 93 X -27 Y 93 X -49 Y 93 X -22 Y 93 X -7 Y 93 X -51 Y 93 X 33 Y 93 X s 1 1 1 c black 319 1231 m 93 X -19 Y 93 X -36 Y 93 X -38 Y 93 X -35 Y 93 X -37 Y 93 X
 -32 Y 93 X -34 Y 93 X -28 Y 93 X -30 Y 93 X -34 Y 93 X -22 Y 93 X -37 Y 93 X -18 Y 93 X -27 Y 93 X -49 Y 93 X -22 Y 93 X -7 Y 93 X -51 Y 93 X 33 Y 93 X s 1 0.8 0.4 c black 1 0.8 0.4 c 319 584 m 647 Y 93 X -19 Y 93 X -36 Y 93 X -38 Y 93 X -35 Y 93 X
 -37 Y 93 X -32 Y 93 X -34 Y 93 X -28 Y 93 X -30 Y 93 X -34 Y 93 X -22 Y 93 X -37 Y 93 X -18 Y 93 X -27 Y 93 X -49 Y 93 X -22 Y 93 X -7 Y 93 X -51 Y 93 X 33 Y 93 X -124 Y f black 1 0.8 0.4 c black 319 1231 m 93 X -19 Y 93 X -36 Y 93 X -38 Y 93 X -35
 Y 93 X -37 Y 93 X -32 Y 93 X -34 Y 93 X -28 Y 93 X -30 Y 93 X -34 Y 93 X -22 Y 93 X -37 Y 93 X -18 Y 93 X -27 Y 93 X -49 Y 93 X -22 Y 93 X -7 Y 93 X -51 Y 93 X 33 Y 93 X s 0.999 0.999 0.999 c black 0.999 0.999 0.999 c 319 584 m 501 Y 93 X -21 Y 93 X
 -34 Y 93 X -33 Y 93 X -34 Y 93 X -32 Y 93 X -37 Y 93 X -35 Y 93 X -11 Y 93 X -47 Y 93 X -32 Y 93 X -2 Y 93 X -84 Y 93 X -9 Y 93 X 13 Y 93 X -99 Y 93 X -4 Y 279 X 24 Y 93 X -24 Y f black 0.999 0.999 0.999 c black 319 1085 m 93 X -21 Y 93 X -34 Y 93 X
 -33 Y 93 X -34 Y 93 X -32 Y 93 X -37 Y 93 X -35 Y 93 X -11 Y 93 X -47 Y 93 X -32 Y 93 X -2 Y 93 X -84 Y 93 X -9 Y 93 X 13 Y 93 X -99 Y 93 X -4 Y 279 X 24 Y 93 X s 1 1 1 c black 319 1085 m 93 X -21 Y 93 X -34 Y 93 X -33 Y 93 X -34 Y 93 X -32 Y 93 X
 -37 Y 93 X -35 Y 93 X -11 Y 93 X -47 Y 93 X -32 Y 93 X -2 Y 93 X -84 Y 93 X -9 Y 93 X 13 Y 93 X -99 Y 93 X -4 Y 279 X 24 Y 93 X s 1 0.4 0.6 c black 1 0.4 0.6 c 319 584 m 501 Y 93 X -21 Y 93 X -34 Y 93 X -33 Y 93 X -34 Y 93 X -32 Y 93 X -37 Y 93 X
 -35 Y 93 X -11 Y 93 X -47 Y 93 X -32 Y 93 X -2 Y 93 X -84 Y 93 X -9 Y 93 X 13 Y 93 X -99 Y 93 X -4 Y 279 X 24 Y 93 X -24 Y f black 1 0.4 0.6 c black 319 1085 m 93 X -21 Y 93 X -34 Y 93 X -33 Y 93 X -34 Y 93 X -32 Y 93 X -37 Y 93 X -35 Y 93 X -11 Y
 93 X -47 Y 93 X -32 Y 93 X -2 Y 93 X -84 Y 93 X -9 Y 93 X 13 Y 93 X -99 Y 93 X -4 Y 279 X 24 Y 93 X s 0.999 0.999 0.999 c black 0.999 0.999 0.999 c 319 584 m 322 Y 93 X -14 Y 93 X -125 Y 93 X -70 Y 93 X 2 Y 93 X 11 Y 93 X -75 Y 93 X -51 Y 93 X 14 Y
 93 X -14 Y 1023 X f black 0.999 0.999 0.999 c black 319 906 m 93 X -14 Y 93 X -125 Y 93 X -70 Y 93 X 2 Y 93 X 11 Y 93 X -75 Y 93 X -51 Y 93 X 14 Y 93 X -14 Y 1023 X s 1 1 1 c black 319 906 m 93 X -14 Y 93 X -125 Y 93 X -70 Y 93 X 2 Y 93 X 11 Y 93 X
 -75 Y 93 X -51 Y 93 X 14 Y 93 X -14 Y 1023 X s 0 0 0.4 c black 0 0 0.4 c 319 584 m 322 Y 93 X -14 Y 93 X -125 Y 93 X -70 Y 93 X 2 Y 93 X 11 Y 93 X -75 Y 93 X -51 Y 93 X 14 Y 93 X -14 Y 1023 X f black 0 0 0.4 c black 319 906 m 93 X -14 Y 93 X -125 Y
 93 X -70 Y 93 X 2 Y 93 X 11 Y 93 X -75 Y 93 X -51 Y 93 X 14 Y 93 X -14 Y 1023 X s 1 0 0 c 6 lw 1 1 1 c black 1 0 0 c 319 1261 m 93 X -23 Y 93 X -39 Y 93 X -40 Y 93 X -37 Y 93 X -37 Y 93 X -33 Y 93 X -34 Y 93 X -31 Y 93 X -30 Y 93 X -34 Y 93 X -24 Y
 93 X -36 Y 93 X -19 Y 93 X -28 Y 93 X -39 Y 93 X -29 Y 93 X -8 Y 93 X -55 Y 93 X 35 Y 93 X s black 3 lw 1 0 0 c 1 lw << /PatternType 1 /PaintType 2 /TilingType 1 /BBox [ 0 0 100 100 ] /XStep 100 /YStep 100 /PaintProc { begin gsave 0 100 m 100 0 l s
 gr end } >> [ 0.24 0 0 0.24 0 0 ] makepattern /P05 exch def /cs {[/Pattern /DeviceRGB] setcolorspace} def /FA {f [/DeviceRGB] setcolorspace} def cs 1 0 0 P05 setcolor 319 584 m 679 Y 93 X -23 Y 93 X -39 Y 93 X -40 Y 93 X -36 Y 93 X -37 Y 93 X -34 Y
 93 X -33 Y 93 X -31 Y 93 X -30 Y 93 X -34 Y 93 X -22 Y 93 X -36 Y 93 X -19 Y 93 X -23 Y 93 X -41 Y 93 X -23 Y 93 X -10 Y 93 X -57 Y 93 X 37 Y 93 X -148 Y 122 Y -93 X -33 Y -93 X 52 Y -93 X 6 Y -93 X 37 Y -93 X 35 Y -93 X 35 Y -93 X 19 Y -93 X 37 Y
 -93 X 25 Y -93 X 34 Y -93 X 31 Y -93 X 32 Y -93 X 33 Y -93 X 34 Y -93 X 37 Y -93 X 36 Y -93 X 41 Y -93 X 39 Y -93 X 23 Y -93 X -675 Y FA 6 lw 1 1 1 c 15 lw 1482 811 m -6 Y s 1482 805 m cl s 1668 832 m 2 Y s 1668 834 m cl s 1668 791 m -12 Y s 1668
 779 m cl s 1761 819 m 5 Y s 1761 824 m cl s 1761 778 m -17 Y s 1761 761 m cl s 1854 779 m 14 Y s 1854 793 m cl s 1854 738 m -40 Y s 1854 698 m cl s 1947 779 m 14 Y s 1947 793 m cl s 1947 738 m -40 Y s 1947 698 m cl s 2133 779 m 14 Y s 2133 793 m cl
 s 2133 738 m -40 Y s 2133 698 m cl s black 1 1 1 c 3 lw /w 43 def /w2 {w 2 div} def /w3 {w 3 div} def 366 1264 459 1238 552 1200 645 1160 738 1122 831 1083 924 1052 1017 1010 1110 995 1203 958 1296 916 1389 889 1482 831 1575 862 1668 812 1761 799
 1854 758 1947 758 18 { m20} R 15 lw 3 lw 2133 758 m20 15 lw black 6 lw 1 1 1 c black 3 lw /w 33 def /w2 {w 2 div} def /w3 {w 3 div} def 366 1264 m20 6 lw 3 lw 459 1238 m20 6 lw 3 lw 552 1200 m20 6 lw 3 lw 645 1160 m20 6 lw 3 lw 738 1122 m20 6 lw 3
 lw 831 1083 m20 6 lw 3 lw 924 1052 m20 6 lw 3 lw 1017 1010 m20 6 lw 3 lw 1110 995 m20 6 lw 3 lw 1203 958 m20 6 lw 3 lw 1296 916 m20 6 lw 1389 874 m 2 Y s 3 lw 1389 889 m20 6 lw 1482 804 m 14 Y s 1482 845 m 5 Y s 3 lw 1482 831 m20 6 lw 1575 843 m 6 Y
 s 1575 876 m 1 Y s 3 lw 1575 862 m20 6 lw 1668 777 m 21 Y s 1668 825 m 8 Y s 3 lw 1668 812 m20 6 lw 1761 758 m 27 Y s 1761 812 m 10 Y s 3 lw 1761 799 m20 6 lw 1854 687 m 58 Y s 1854 772 m 17 Y s 3 lw 1854 758 m20 6 lw 1947 687 m 58 Y s 1947 772 m 17
 Y s 3 lw 1947 758 m20 6 lw 2133 687 m 58 Y s 2133 772 m 17 Y s 3 lw 2133 758 m20 6 lw 1389 876 m -2 Y s 1389 874 m cl s 1482 845 m 5 Y s 1482 850 m cl s 1482 818 m -13 Y s 1482 805 m cl s 1575 876 m 1 Y s 1575 877 m cl s 1575 849 m -6 Y s 1575 843 m
 cl s 1668 825 m 9 Y s 1668 834 m cl s 1668 798 m -19 Y s 1668 779 m cl s 1761 812 m 12 Y s 1761 824 m cl s 1761 785 m -24 Y s 1761 761 m cl s 1854 772 m 21 Y s 1854 793 m cl s 1854 745 m -47 Y s 1854 698 m cl s 1947 772 m 21 Y s 1947 793 m cl s 1947
 745 m -47 Y s 1947 698 m cl s 2133 772 m 21 Y s 2133 793 m cl s 2133 745 m -47 Y s 2133 698 m cl s 3 lw 366 1264 459 1238 552 1200 645 1160 738 1122 831 1083 924 1052 1017 1010 1110 995 1203 958 1296 916 1389 889 1482 831 1575 862 1668 812 1761 799
 1854 758 1947 758 18 { m20} R 6 lw 3 lw 2133 758 m20 6 lw 3 lw 319 584 m 1860 X s 319 584 m cl s 366 584 m cl s 412 584 m cl s 459 584 m cl s 505 584 m cl s 552 584 m cl s 598 584 m cl s 645 584 m cl s 691 584 m cl s 738 584 m cl s 784 584 m cl s
 831 584 m cl s 877 584 m cl s 924 584 m cl s 970 584 m cl s 1017 584 m cl s 1063 584 m cl s 1110 584 m cl s 1156 584 m cl s 1203 584 m cl s 1249 584 m cl s 1296 584 m cl s 1342 584 m cl s 1389 584 m cl s 1435 584 m cl s 1482 584 m cl s 1528 584 m cl
 s 1575 584 m cl s 1621 584 m cl s 1668 584 m cl s 1714 584 m cl s 1761 584 m cl s 1807 584 m cl s 1854 584 m cl s 1900 584 m cl s 1947 584 m cl s 1993 584 m cl s 2040 584 m cl s 2086 584 m cl s 2133 584 m cl s 2179 584 m cl s 319 1729 m 1860 X s 319
 1729 m cl s 366 1729 m cl s 412 1729 m cl s 459 1729 m cl s 505 1729 m cl s 552 1729 m cl s 598 1729 m cl s 645 1729 m cl s 691 1729 m cl s 738 1729 m cl s 784 1729 m cl s 831 1729 m cl s 877 1729 m cl s 924 1729 m cl s 970 1729 m cl s 1017 1729 m
 cl s 1063 1729 m cl s 1110 1729 m cl s 1156 1729 m cl s 1203 1729 m cl s 1249 1729 m cl s 1296 1729 m cl s 1342 1729 m cl s 1389 1729 m cl s 1435 1729 m cl s 1482 1729 m cl s 1528 1729 m cl s 1575 1729 m cl s 1621 1729 m cl s 1668 1729 m cl s 1714
 1729 m cl s 1761 1729 m cl s 1807 1729 m cl s 1854 1729 m cl s 1900 1729 m cl s 1947 1729 m cl s 1993 1729 m cl s 2040 1729 m cl s 2086 1729 m cl s 2133 1729 m cl s 2179 1729 m cl s 319 584 m 1145 Y s 341 625 m -22 X s 341 648 m -22 X s 341 665 m
 -22 X s 341 678 m -22 X s 341 688 m -22 X s 341 697 m -22 X s 341 705 m -22 X s 341 712 m -22 X s 363 718 m -44 X s 341 758 m -22 X s 341 782 m -22 X s 341 799 m -22 X s 341 812 m -22 X s 341 822 m -22 X s 341 831 m -22 X s 341 839 m -22 X s 341 846
 m -22 X s 363 852 m -44 X s 341 892 m -22 X s 341 916 m -22 X s 341 932 m -22 X s 341 945 m -22 X s 341 956 m -22 X s 341 965 m -22 X s 341 973 m -22 X s 341 979 m -22 X s 363 986 m -44 X s 341 1026 m -22 X s 341 1049 m -22 X s 341 1066 m -22 X s
 341 1079 m -22 X s 341 1090 m -22 X s 341 1099 m -22 X s 341 1106 m -22 X s 341 1113 m -22 X s 363 1119 m -44 X s 341 1160 m -22 X s 341 1183 m -22 X s 341 1200 m -22 X s 341 1213 m -22 X s 341 1223 m -22 X s 341 1232 m -22 X s 341 1240 m -22 X s
 341 1247 m -22 X s 363 1253 m -44 X s 341 1293 m -22 X s 341 1317 m -22 X s 341 1334 m -22 X s 341 1347 m -22 X s 341 1357 m -22 X s 341 1366 m -22 X s 341 1374 m -22 X s 341 1381 m -22 X s 363 1387 m -44 X s 341 1427 m -22 X s 341 1451 m -22 X s
 341 1467 m -22 X s 341 1480 m -22 X s 341 1491 m -22 X s 341 1500 m -22 X s 341 1508 m -22 X s 341 1514 m -22 X s 363 1521 m -44 X s 341 1561 m -22 X s 341 1584 m -22 X s 341 1601 m -22 X s 341 1614 m -22 X s 341 1625 m -22 X s 341 1634 m -22 X s
 341 1641 m -22 X s 341 1648 m -22 X s 363 1654 m -44 X s 341 1695 m -22 X s 341 1718 m -22 X s 2179 584 m 1145 Y s 2157 625 m 22 X s 2157 648 m 22 X s 2157 665 m 22 X s 2157 678 m 22 X s 2157 688 m 22 X s 2157 697 m 22 X s 2157 705 m 22 X s 2157 712
 m 22 X s 2136 718 m 43 X s 2157 758 m 22 X s 2157 782 m 22 X s 2157 799 m 22 X s 2157 812 m 22 X s 2157 822 m 22 X s 2157 831 m 22 X s 2157 839 m 22 X s 2157 846 m 22 X s 2136 852 m 43 X s 2157 892 m 22 X s 2157 916 m 22 X s 2157 932 m 22 X s 2157
 945 m 22 X s 2157 956 m 22 X s 2157 965 m 22 X s 2157 973 m 22 X s 2157 979 m 22 X s 2136 986 m 43 X s 2157 1026 m 22 X s 2157 1049 m 22 X s 2157 1066 m 22 X s 2157 1079 m 22 X s 2157 1090 m 22 X s 2157 1099 m 22 X s 2157 1106 m 22 X s 2157 1113 m
 22 X s 2136 1119 m 43 X s 2157 1160 m 22 X s 2157 1183 m 22 X s 2157 1200 m 22 X s 2157 1213 m 22 X s 2157 1223 m 22 X s 2157 1232 m 22 X s 2157 1240 m 22 X s 2157 1247 m 22 X s 2136 1253 m 43 X s 2157 1293 m 22 X s 2157 1317 m 22 X s 2157 1334 m 22
 X s 2157 1347 m 22 X s 2157 1357 m 22 X s 2157 1366 m 22 X s 2157 1374 m 22 X s 2157 1381 m 22 X s 2136 1387 m 43 X s 2157 1427 m 22 X s 2157 1451 m 22 X s 2157 1467 m 22 X s 2157 1480 m 22 X s 2157 1491 m 22 X s 2157 1500 m 22 X s 2157 1508 m 22 X
 s 2157 1514 m 22 X s 2136 1521 m 43 X s 2157 1561 m 22 X s 2157 1584 m 22 X s 2157 1601 m 22 X s 2157 1614 m 22 X s 2157 1625 m 22 X s 2157 1634 m 22 X s 2157 1641 m 22 X s 2157 1648 m 22 X s 2136 1654 m 43 X s 2157 1695 m 22 X s 2157 1718 m 22 X s
 gsave  2263 1770 2 313 C 406.765 1447.41 t 0 r /Helvetica findfont 64.4212 sf 0 0 m (SR for MB\255SSd) show NC gr 
 gsave  2263 1770 2 313 C 1464.36 1630.45 t 0 r /Helvetica findfont 64.4212 sf 0 0 m (SM Total) show NC gr  1 1 1 c 1338 1616 m 107 X 64 Y -107 X f 1 0 0 c 6 lw 1338 1648 m 107 X s black
 gsave  2263 1770 2 313 C 1464.36 1538.93 t 0 r /Helvetica findfont 64.4212 sf 0 0 m (Data) show NC gr  1391 1529 m 55 Y s 3 lw 1391 1557 m20 6 lw
 gsave  2263 1770 2 313 C 1464.36 1447.41 t 0 r /Helvetica findfont 64.4212 sf 0 0 m (W+jets) show NC gr  0.4 0.6 1 c 3 lw 1338 1434 m 107 X 64 Y -107 X f 6 lw black 3 lw 1338 1498 m 107 X s 1338 1434 m 107 X s 1445 1434 m 64 Y s 1338 1434 m 64 Y s
 gsave  2263 1770 2 313 C 1498.25 1355.88 t 0 r /Helvetica findfont 64.4212 sf 0 0 m (\(+EW\) & single top) show NC gr 
 gsave  2263 1770 2 313 C 1481.3 1355.88 t 0 r /Helvetica findfont 64.4212 sf 0 0 m (t) show NC gr  1481 1407 m 17 X s
 gsave  2263 1770 2 313 C 1464.36 1355.88 t 0 r /Helvetica findfont 64.4212 sf 0 0 m (t) show NC gr  0.6 1 0.6 c 1338 1343 m 107 X 63 Y -107 X f black 1338 1406 m 107 X s 1338 1343 m 107 X s 1445 1343 m 63 Y s 1338 1343 m 63 Y s
 gsave  2263 1770 2 313 C 1464.36 1264.36 t 0 r /Helvetica findfont 64.4212 sf 0 0 m (Z+jets) show NC gr  1 0.8 0.4 c 1338 1252 m 107 X 63 Y -107 X f black 1338 1315 m 107 X s 1338 1252 m 107 X s 1445 1252 m 63 Y s 1338 1252 m 63 Y s
 gsave  2263 1770 2 313 C 1464.36 1172.84 t 0 r /Helvetica findfont 64.4212 sf 0 0 m (Diboson) show NC gr  1 0.4 0.6 c 1338 1161 m 107 X 63 Y -107 X f black 1338 1224 m 107 X s 1338 1161 m 107 X s 1445 1161 m 63 Y s 1338 1161 m 63 Y s
 gsave  2263 1770 2 313 C 1464.36 1081.32 t 0 r /Helvetica findfont 64.4212 sf 0 0 m (Multi\255jet) show NC gr  0 0 0.4 c 1338 1070 m 107 X 63 Y -107 X f black 1338 1133 m 107 X s 1338 1070 m 107 X s 1445 1070 m 63 Y s 1338 1070 m 63 Y s
 gsave  2263 1770 2 313 C 911.832 1566.05 t 0 r /Helvetica findfont 44.0776 sf 0 0 m (\2551) show NC gr 
 gsave  2263 1770 2 313 C 471.17 1535.54 t 0 r /Helvetica findfont 64.4212 sf 0 0 m (=13TeV, 139 fb) show NC gr 
 gsave  2263 1770 2 313 C 440.662 1535.54 t 0 r /Helvetica findfont 64.4212 sf 0 0 m (s) show NC gr  6 lw 420 1573 m 7 -41 d s 3 lw 427 1532 m 7 61 d s 434 1593 m 37 X s 1 1 1 c 2254 561 2 2 bf black 1 1 1 c black 1860 358 318 187 bl 1 1 1 c black
 1860 358 318 187 bl 6 lw 1 1 1 c black 3 lw 364 373 m20 6 lw 3 lw 457 367 m20 6 lw 3 lw 550 368 m20 6 lw 3 lw 643 370 m20 6 lw 3 lw 736 365 m20 6 lw 3 lw 829 359 m20 6 lw 3 lw 923 368 m20 6 lw 3 lw 1016 345 m20 6 lw 3 lw 1109 389 m20 6 lw 3 lw 1202
 369 m20 6 lw 3 lw 1295 347 m20 6 lw 3 lw 1388 340 m20 6 lw 3 lw 1481 297 m20 6 lw 3 lw 1574 427 m20 6 lw 3 lw 1667 355 m20 6 lw 3 lw 1760 439 m20 6 lw 3 lw 1853 397 m20 6 lw 3 lw 1946 425 m20 6 lw 3 lw 2132 517 m20 6 lw 3 lw 318 187 m 1860 X s
 gsave  2254 561 2 2 C 1959.25 33.8971 t 0 r /Helvetica findfont 78.1689 sf 0 0 m ( [GeV]) show NC gr 
 gsave  2254 561 2 2 C 1901.63 13.5588 t 0 r /Helvetica findfont 50.9797 sf 0 0 m (eff) show NC gr 
 gsave  2254 561 2 2 C 1840.61 33.8971 t 0 r /Helvetica findfont 78.1689 sf 0 0 m (m) show NC gr  318 201 m -14 Y s 364 194 m -7 Y s 411 194 m -7 Y s 457 194 m -7 Y s 504 194 m -7 Y s 550 201 m -14 Y s 597 194 m -7 Y s 643 194 m -7 Y s 690 194 m -7 Y
 s 736 194 m -7 Y s 783 201 m -14 Y s 829 194 m -7 Y s 876 194 m -7 Y s 923 194 m -7 Y s 969 194 m -7 Y s 1016 201 m -14 Y s 1062 194 m -7 Y s 1109 194 m -7 Y s 1155 194 m -7 Y s 1202 194 m -7 Y s 1248 201 m -14 Y s 1295 194 m -7 Y s 1341 194 m -7 Y
 s 1388 194 m -7 Y s 1434 194 m -7 Y s 1481 201 m -14 Y s 1527 194 m -7 Y s 1574 194 m -7 Y s 1620 194 m -7 Y s 1667 194 m -7 Y s 1713 201 m -14 Y s 1760 194 m -7 Y s 1806 194 m -7 Y s 1853 194 m -7 Y s 1899 194 m -7 Y s 1946 201 m -14 Y s 1992 194 m
 -7 Y s 2039 194 m -7 Y s 2085 194 m -7 Y s 2132 194 m -7 Y s 2178 201 m -14 Y s
 gsave  2254 561 2 2 C 227.111 118.64 t 0 r /Helvetica findfont 78.1689 sf 0 0 m (1000) show NC gr 
 gsave  2254 561 2 2 C 461.001 118.64 t 0 r /Helvetica findfont 78.1689 sf 0 0 m (1500) show NC gr 
 gsave  2254 561 2 2 C 691.501 118.64 t 0 r /Helvetica findfont 78.1689 sf 0 0 m (2000) show NC gr 
 gsave  2254 561 2 2 C 925.391 118.64 t 0 r /Helvetica findfont 78.1689 sf 0 0 m (2500) show NC gr 
 gsave  2254 561 2 2 C 1159.28 118.64 t 0 r /Helvetica findfont 78.1689 sf 0 0 m (3000) show NC gr 
 gsave  2254 561 2 2 C 1389.78 118.64 t 0 r /Helvetica findfont 78.1689 sf 0 0 m (3500) show NC gr 
 gsave  2254 561 2 2 C 1623.67 118.64 t 0 r /Helvetica findfont 78.1689 sf 0 0 m (4000) show NC gr 
 gsave  2254 561 2 2 C 1857.56 118.64 t 0 r /Helvetica findfont 78.1689 sf 0 0 m (4500) show NC gr 
 gsave  2254 561 2 2 C 2088.06 118.64 t 0 r /Helvetica findfont 78.1689 sf 0 0 m (5000) show NC gr  318 545 m 1860 X s 318 531 m 14 Y s 364 538 m 7 Y s 411 538 m 7 Y s 457 538 m 7 Y s 504 538 m 7 Y s 550 531 m 14 Y s 597 538 m 7 Y s 643 538 m 7 Y s
 690 538 m 7 Y s 736 538 m 7 Y s 783 531 m 14 Y s 829 538 m 7 Y s 876 538 m 7 Y s 923 538 m 7 Y s 969 538 m 7 Y s 1016 531 m 14 Y s 1062 538 m 7 Y s 1109 538 m 7 Y s 1155 538 m 7 Y s 1202 538 m 7 Y s 1248 531 m 14 Y s 1295 538 m 7 Y s 1341 538 m 7 Y
 s 1388 538 m 7 Y s 1434 538 m 7 Y s 1481 531 m 14 Y s 1527 538 m 7 Y s 1574 538 m 7 Y s 1620 538 m 7 Y s 1667 538 m 7 Y s 1713 531 m 14 Y s 1760 538 m 7 Y s 1806 538 m 7 Y s 1853 538 m 7 Y s 1899 538 m 7 Y s 1946 531 m 14 Y s 1992 538 m 7 Y s 2039
 538 m 7 Y s 2085 538 m 7 Y s 2132 538 m 7 Y s 2178 531 m 14 Y s 318 187 m 358 Y s
 gsave  2254 561 2 2 C 166.096 284.736 t 90 r /Helvetica findfont 67.9729 sf 0 0 m (Data/SM) show NC gr  361 203 m -43 X s 339 220 m -21 X s 339 236 m -21 X s 339 252 m -21 X s 339 268 m -21 X s 361 285 m -43 X s 339 301 m -21 X s 339 317 m -21 X s
 339 334 m -21 X s 339 350 m -21 X s 361 366 m -43 X s 339 382 m -21 X s 339 399 m -21 X s 339 415 m -21 X s 339 431 m -21 X s 361 447 m -43 X s 339 464 m -21 X s 339 480 m -21 X s 339 496 m -21 X s 339 512 m -21 X s 361 529 m -43 X s 361 203 m -43 X
 s 339 187 m -21 X s 361 529 m -43 X s
 gsave  2254 561 2 2 C 261.008 183.044 t 0 r /Helvetica findfont 57.777 sf 0 0 m (0) show NC gr 
 gsave  2254 561 2 2 C 213.552 261.008 t 0 r /Helvetica findfont 57.777 sf 0 0 m (0.5) show NC gr 
 gsave  2254 561 2 2 C 271.177 342.361 t 0 r /Helvetica findfont 57.777 sf 0 0 m (1) show NC gr 
 gsave  2254 561 2 2 C 213.552 423.714 t 0 r /Helvetica findfont 57.777 sf 0 0 m (1.5) show NC gr 
 gsave  2254 561 2 2 C 261.008 505.067 t 0 r /Helvetica findfont 57.777 sf 0 0 m (2) show NC gr  2178 187 m 358 Y s 2135 203 m 43 X s 2157 220 m 21 X s 2157 236 m 21 X s 2157 252 m 21 X s 2157 268 m 21 X s 2135 285 m 43 X s 2157 301 m 21 X s 2157 317
 m 21 X s 2157 334 m 21 X s 2157 350 m 21 X s 2135 366 m 43 X s 2157 382 m 21 X s 2157 399 m 21 X s 2157 415 m 21 X s 2157 431 m 21 X s 2135 447 m 43 X s 2157 464 m 21 X s 2157 480 m 21 X s 2157 496 m 21 X s 2157 512 m 21 X s 2135 529 m 43 X s 2135
 203 m 43 X s 2157 187 m 21 X s 2135 529 m 43 X s 9 lw 1109 403 m 4 Y s 1109 407 m cl s 1109 376 m -4 Y s 1109 372 m cl s 1202 382 m 8 Y s 1202 390 m cl s 1202 355 m -7 Y s 1202 348 m cl s 1295 360 m 13 Y s 1295 373 m cl s 1295 333 m -12 Y s 1295 321
 m cl s 1388 353 m 18 Y s 1388 371 m cl s 1388 326 m -17 Y s 1388 309 m cl s 1481 311 m 23 Y s 1481 334 m cl s 1481 284 m -21 Y s 1481 263 m cl s 1574 440 m 53 Y s 1574 493 m cl s 1574 413 m -49 Y s 1574 364 m cl s 1667 369 m 58 Y s 1667 427 m cl s
 1667 342 m -52 Y s 1667 290 m cl s 1760 452 m 93 Y s 1760 545 m cl s 1760 425 m -98 Y s 1760 327 m cl s 1853 410 m 135 Y s 1853 545 m cl s 1853 383 m -111 Y s 1853 272 m cl s 1946 438 m 107 Y s 1946 545 m cl s 1946 411 m -129 Y s 1946 282 m cl s
 2132 530 m 15 Y s 2132 545 m cl s 2132 503 m -188 Y s 2132 315 m cl s 3 lw 364 373 457 367 550 368 643 370 736 365 829 359 923 368 1016 345 1109 389 1202 369 1295 347 1388 340 1481 297 1574 427 1667 355 1760 439 1853 397 1946 425 18 { m20} R 9 lw 3
 lw 2132 517 m20 9 lw 1 0 0 c 6 lw black 3 lw 1 0 0 c 2178 227 m s 2178 255 m s 2178 284 m s 2178 312 m s 2178 341 m -10 -10 d s 2178 369 m -39 -38 d s 2178 398 m -67 -67 d s 2153 401 m -68 -67 d s 2124 401 m -66 -66 d s 2096 401 m -67 -66 d s 2063
 397 m -63 -62 d s 2034 397 m -69 -68 d s 2005 397 m -68 -68 d s 1983 403 m -75 -74 d s 1954 403 m -79 -79 d s 1925 403 m -79 -79 d s 1899 406 m -82 -82 d s 1873 408 m -67 -67 d s 1844 408 m -67 -67 d s 1815 408 m -9 -9 d s 1798 391 m -49 -50 d s
 1769 391 m -49 -50 d s 1713 335 m -1 Y s 1741 391 m -57 -57 d s 1713 392 m -58 -58 d s 1690 398 m -63 -64 d s 1662 398 m -47 -47 d s 1633 398 m -13 -13 d s 1616 381 m -30 -30 d s 1588 381 m -31 -30 d s 1559 381 m -31 -30 d s 1530 381 m -31 -31 d s
 1502 382 m -31 -32 d s 1473 382 m -31 -32 d s 1445 382 m -30 -29 d s 1414 380 m -27 -27 d s 1385 380 m -27 -27 d s 1356 380 m -23 -24 d s 1324 376 m -20 -20 d s 1296 376 m -20 -20 d s 1267 376 m -20 -19 d s 1238 375 m -19 -18 d s 1209 375 m -19 -18
 d s 1180 375 m -19 -18 d s 1151 375 m -17 -17 d s 1122 375 m -17 -17 d s 1093 375 m -17 -17 d s 1065 375 m -17 -17 d s 1035 374 m -15 -16 d s 1006 374 m -15 -16 d s 978 374 m -15 -15 d s 949 373 m -15 -14 d s 920 373 m -15 -14 d s 891 373 m -15 -14
 d s 862 373 m -13 -14 d s 833 373 m -13 -14 d s 804 373 m -13 -14 d s 776 373 m -14 -14 d s 747 373 m -13 -14 d s 718 373 m -13 -14 d s 690 373 m -14 -14 d s 661 373 m -13 -14 d s 632 373 m -13 -14 d s 604 373 m -12 -12 d s 573 371 m -10 -10 d s 545
 371 m -11 -10 d s 516 371 m -10 -10 d s 487 371 m -10 -10 d s 459 371 m -11 -10 d s 318 231 m s 430 371 m -10 -10 d s 318 259 m s 401 371 m -10 -10 d s 318 288 m s 373 371 m -11 -10 d s 318 317 m s 344 371 m -10 -10 d s 318 345 m s 6 lw black[ 4 8]
 0 sd 3 lw 318 447 m 1860 X s 318 285 m 1860 X s 1 0 0 c[  12 12 ] 0 sd 6 lw 318 366 m 1860 X s
 gr  gr showpage
end
%%EOF
