%!PS-Adobe-2.0 EPSF-2.0
%%BoundingBox:  0 0 567 521
%%Title: Distributions/meffInc_distrVR0LdPhi_MB-GGd_afterFit_forThesis.eps: canvas
%%Creator: ROOT Version 6.04/16
%%CreationDate: Tue May 19 22:04:48 2020
%%DocumentNeededResources: ProcSet (FontSetInit)
%%EndComments
%%BeginProlog
80 dict begin
/s {stroke} def /l {lineto} def /m {moveto} def /t {translate} def
/r {rotate} def /rl {roll}  def /R {repeat} def
/d {rlineto} def /rm {rmoveto} def /gr {grestore} def /f {eofill} def
/c {setrgbcolor} def /black {0 setgray} def /sd {setdash} def
/cl {closepath} def /sf {scalefont setfont} def /lw {setlinewidth} def
/box {m dup 0 exch d exch 0 d 0 exch neg d cl} def
/NC{systemdict begin initclip end}def/C{NC box clip newpath}def
/bl {box s} def /bf {gsave box gsave f grestore 1 lw [] 0 sd s grestore} def /Y { 0 exch d} def /X { 0 d} def 
/K {{pop pop 0 moveto} exch kshow} bind def
/ita {/ang 15 def gsave [1 0 ang dup sin exch cos div 1 0 0] concat} def 
/mp {newpath /y exch def /x exch def} def
/side {[w .77 mul w .23 mul] .385 w mul sd w 0 l currentpoint t -144 r} def
/mr {mp x y w2 0 360 arc} def /m24 {mr s} def /m20 {mr f} def
/mb {mp x y w2 add m w2 neg 0 d 0 w neg d w 0 d 0 w d cl} def
/mt {mp x y w2 add m w2 neg w neg d w 0 d cl} def
/m21 {mb f} def /m25 {mb s} def /m22 {mt f} def /m26{mt s} def
/m23 {mp x y w2 sub m w2 w d w neg 0 d cl f} def
/m27 {mp x y w2 add m w3 neg w2 neg d w3 w2 neg d w3 w2 d cl s} def
/m28 {mp x w2 sub y w2 sub w3 add m w3 0 d  0 w3 neg d w3 0 d 0 w3 d w3 0 d  0 w3 d w3 neg 0 d 0 w3 d w3 neg 0 d 0 w3 neg d w3 neg 0 d cl s } def
/m29 {mp gsave x w2 sub y w2 add w3 sub m currentpoint t 4 {side} repeat cl fill gr} def
/m30 {mp gsave x w2 sub y w2 add w3 sub m currentpoint t 4 {side} repeat cl s gr} def
/m31 {mp x y w2 sub m 0 w d x w2 sub y m w 0 d x w2 sub y w2 add m w w neg d x w2 sub y w2 sub m w w d s} def
/m32 {mp x y w2 sub m w2 w d w neg 0 d cl s} def
/m33 {mp x y w2 add m w3 neg w2 neg d w3 w2 neg d w3 w2 d cl f} def
/m34 {mp x w2 sub y w2 sub w3 add m w3 0 d  0 w3 neg d w3 0 d 0 w3 d w3 0 d  0 w3 d w3 neg 0 d 0 w3 d w3 neg 0 d 0 w3 neg d w3 neg 0 d cl f } def
/m2 {mp x y w2 sub m 0 w d x w2 sub y m w 0 d s} def
/m5 {mp x w2 sub y w2 sub m w w d x w2 sub y w2 add m w w neg d s} def
%%IncludeResource: ProcSet (FontSetInit)
%%IncludeResource: font Times-Roman
%%IncludeResource: font Times-Italic
%%IncludeResource: font Times-Bold
%%IncludeResource: font Times-BoldItalic
%%IncludeResource: font Helvetica
%%IncludeResource: font Helvetica-Oblique
%%IncludeResource: font Helvetica-Bold
%%IncludeResource: font Helvetica-BoldOblique
%%IncludeResource: font Courier
%%IncludeResource: font Courier-Oblique
%%IncludeResource: font Courier-Bold
%%IncludeResource: font Courier-BoldOblique
%%IncludeResource: font Symbol
%%IncludeResource: font ZapfDingbats
/reEncode {exch findfont dup length dict begin {1 index /FID eq  {pop pop} {def} ifelse } forall /Encoding exch def currentdict end dup /FontName get exch definefont pop } def [/Times-Bold /Times-Italic /Times-BoldItalic /Helvetica /Helvetica-Oblique
 /Helvetica-Bold /Helvetica-BoldOblique /Courier /Courier-Oblique /Courier-Bold /Courier-BoldOblique /Times-Roman /AvantGarde-Book /AvantGarde-BookOblique /AvantGarde-Demi /AvantGarde-DemiOblique /Bookman-Demi /Bookman-DemiItalic /Bookman-Light
 /Bookman-LightItalic /Helvetica-Narrow /Helvetica-Narrow-Bold /Helvetica-Narrow-BoldOblique /Helvetica-Narrow-Oblique /NewCenturySchlbk-Roman /NewCenturySchlbk-Bold /NewCenturySchlbk-BoldItalic /NewCenturySchlbk-Italic /Palatino-Bold
 /Palatino-BoldItalic /Palatino-Italic /Palatino-Roman ] {ISOLatin1Encoding reEncode } forall
%%EndProlog
%%BeginSetup
%%EndSetup
newpath  gsave  .25 .25 scale  gsave  0 0 t black[  ] 0 sd 3 lw 1 1 1 c 2268 2085 0 0 bf black 1 1 1 c 2263 1770 2 313 bf black 1 1 1 c black 1860 1145 319 584 bl 1 1 1 c black 1860 1145 319 584 bl 6 lw 1 1 1 c black 3 lw /w 33 def /w2 {w 2 div} def
 /w3 {w 3 div} def 505 1082 m20 6 lw 3 lw 629 1119 m20 6 lw 3 lw 753 1083 m20 6 lw 3 lw 877 1045 m20 6 lw 1001 977 m 5 Y s 1001 1009 m 1 Y s 3 lw 1001 995 m20 6 lw 1125 923 m 13 Y s 1125 963 m 5 Y s 3 lw 1125 949 m20 6 lw 1249 856 m 27 Y s 1249 910 m
 12 Y s 3 lw 1249 896 m20 6 lw 1373 813 m 39 Y s 1373 879 m 17 Y s 3 lw 1373 865 m20 6 lw 1497 778 m 52 Y s 1497 857 m 21 Y s 3 lw 1497 843 m20 6 lw 1621 584 m 162 Y s 1621 773 m 40 Y s 3 lw 1621 760 m20 6 lw 1869 584 m 162 Y s 1869 773 m 40 Y s 3 lw
 1869 760 m20 6 lw 2117 584 m 162 Y s 2117 773 m 40 Y s 3 lw 2117 760 m20 6 lw 3 lw 319 584 m 1860 X s
 gsave  2263 1770 2 313 C 1949.08 369.478 t 0 r /Helvetica findfont 81.3741 sf 0 0 m ( [GeV]) show NC gr 
 gsave  2263 1770 2 313 C 1888.07 342.361 t 0 r /Helvetica findfont 54.2494 sf 0 0 m (eff) show NC gr 
 gsave  2263 1770 2 313 C 1823.66 369.478 t 0 r /Helvetica findfont 81.3741 sf 0 0 m (m) show NC gr  319 584 m cl s 381 584 m cl s 443 584 m cl s 505 584 m cl s 567 584 m cl s 629 584 m cl s 691 584 m cl s 753 584 m cl s 815 584 m cl s 877 584 m cl s
 939 584 m cl s 1001 584 m cl s 1063 584 m cl s 1125 584 m cl s 1187 584 m cl s 1249 584 m cl s 1311 584 m cl s 1373 584 m cl s 1435 584 m cl s 1497 584 m cl s 1559 584 m cl s 1621 584 m cl s 1683 584 m cl s 1745 584 m cl s 1807 584 m cl s 1869 584 m
 cl s 1931 584 m cl s 1993 584 m cl s 2055 584 m cl s 2117 584 m cl s 2179 584 m cl s 319 1729 m 1860 X s 319 1729 m cl s 381 1729 m cl s 443 1729 m cl s 505 1729 m cl s 567 1729 m cl s 629 1729 m cl s 691 1729 m cl s 753 1729 m cl s 815 1729 m cl s
 877 1729 m cl s 939 1729 m cl s 1001 1729 m cl s 1063 1729 m cl s 1125 1729 m cl s 1187 1729 m cl s 1249 1729 m cl s 1311 1729 m cl s 1373 1729 m cl s 1435 1729 m cl s 1497 1729 m cl s 1559 1729 m cl s 1621 1729 m cl s 1683 1729 m cl s 1745 1729 m
 cl s 1807 1729 m cl s 1869 1729 m cl s 1931 1729 m cl s 1993 1729 m cl s 2055 1729 m cl s 2117 1729 m cl s 2179 1729 m cl s 319 584 m 1145 Y s
 gsave  2263 1770 2 313 C 166.096 1091.49 t 90 r /Helvetica findfont 81.3741 sf 0 0 m (Events / 200 GeV) show NC gr  341 637 m -22 X s 341 668 m -22 X s 341 690 m -22 X s 341 707 m -22 X s 341 721 m -22 X s 341 733 m -22 X s 341 743 m -22 X s 341 752
 m -22 X s 363 760 m -44 X s
 gsave  2263 1770 2 313 C 300.555 732.632 t 0 r  -36 0 t /Helvetica findfont 64.4212 sf 0 0 m (1) show NC gr  341 813 m -22 X s 341 843 m -22 X s 341 865 m -22 X s 341 882 m -22 X s 341 896 m -22 X s 341 908 m -22 X s 341 918 m -22 X s 341 927 m -22
 X s 363 935 m -44 X s
 gsave  2263 1770 2 313 C 300.555 908.073 t 0 r  -73 0 t /Helvetica findfont 64.4212 sf 0 0 m (10) show NC gr  341 988 m -22 X s 341 1019 m -22 X s 341 1041 m -22 X s 341 1058 m -22 X s 341 1072 m -22 X s 341 1083 m -22 X s 341 1094 m -22 X s 341
 1103 m -22 X s 363 1111 m -44 X s
 gsave  2263 1770 2 313 C 274.567 1108.44 t 0 r /Helvetica findfont 44.0776 sf 0 0 m (2) show NC gr 
 gsave  2263 1770 2 313 C 203.383 1081.32 t 0 r /Helvetica findfont 64.4212 sf 0 0 m (10) show NC gr  341 1163 m -22 X s 341 1194 m -22 X s 341 1216 m -22 X s 341 1233 m -22 X s 341 1247 m -22 X s 341 1259 m -22 X s 341 1269 m -22 X s 341 1278 m -22
 X s 363 1286 m -44 X s
 gsave  2263 1770 2 313 C 274.567 1288.09 t 0 r /Helvetica findfont 44.0776 sf 0 0 m (3) show NC gr 
 gsave  2263 1770 2 313 C 203.383 1257.58 t 0 r /Helvetica findfont 64.4212 sf 0 0 m (10) show NC gr  341 1339 m -22 X s 341 1370 m -22 X s 341 1392 m -22 X s 341 1409 m -22 X s 341 1423 m -22 X s 341 1434 m -22 X s 341 1445 m -22 X s 341 1453 m -22
 X s 363 1462 m -44 X s
 gsave  2263 1770 2 313 C 274.567 1460.97 t 0 r /Helvetica findfont 44.0776 sf 0 0 m (4) show NC gr 
 gsave  2263 1770 2 313 C 203.383 1433.85 t 0 r /Helvetica findfont 64.4212 sf 0 0 m (10) show NC gr  341 1514 m -22 X s 341 1545 m -22 X s 341 1567 m -22 X s 341 1584 m -22 X s 341 1598 m -22 X s 341 1610 m -22 X s 341 1620 m -22 X s 341 1629 m -22
 X s 363 1637 m -44 X s
 gsave  2263 1770 2 313 C 274.567 1637.23 t 0 r /Helvetica findfont 44.0776 sf 0 0 m (5) show NC gr 
 gsave  2263 1770 2 313 C 203.383 1606.72 t 0 r /Helvetica findfont 64.4212 sf 0 0 m (10) show NC gr  341 1690 m -22 X s 341 1721 m -22 X s 2179 584 m 1145 Y s 2157 637 m 22 X s 2157 668 m 22 X s 2157 690 m 22 X s 2157 707 m 22 X s 2157 721 m 22 X s
 2157 733 m 22 X s 2157 743 m 22 X s 2157 752 m 22 X s 2136 760 m 43 X s 2157 813 m 22 X s 2157 843 m 22 X s 2157 865 m 22 X s 2157 882 m 22 X s 2157 896 m 22 X s 2157 908 m 22 X s 2157 918 m 22 X s 2157 927 m 22 X s 2136 935 m 43 X s 2157 988 m 22 X
 s 2157 1019 m 22 X s 2157 1041 m 22 X s 2157 1058 m 22 X s 2157 1072 m 22 X s 2157 1083 m 22 X s 2157 1094 m 22 X s 2157 1103 m 22 X s 2136 1111 m 43 X s 2157 1163 m 22 X s 2157 1194 m 22 X s 2157 1216 m 22 X s 2157 1233 m 22 X s 2157 1247 m 22 X s
 2157 1259 m 22 X s 2157 1269 m 22 X s 2157 1278 m 22 X s 2136 1286 m 43 X s 2157 1339 m 22 X s 2157 1370 m 22 X s 2157 1392 m 22 X s 2157 1409 m 22 X s 2157 1423 m 22 X s 2157 1434 m 22 X s 2157 1445 m 22 X s 2157 1453 m 22 X s 2136 1462 m 43 X s
 2157 1514 m 22 X s 2157 1545 m 22 X s 2157 1567 m 22 X s 2157 1584 m 22 X s 2157 1598 m 22 X s 2157 1610 m 22 X s 2157 1620 m 22 X s 2157 1629 m 22 X s 2136 1637 m 43 X s 2157 1690 m 22 X s 2157 1721 m 22 X s 0.4 0.6 1 c black 0.4 0.6 1 c 319 584 m
 124 X 506 Y 124 X 24 Y 124 X -17 Y 124 X -62 Y 124 X -33 Y 124 X -59 Y 124 X -53 Y 124 X -36 Y 124 X -57 Y 124 X -8 Y 124 X -78 Y 124 X -7 Y 124 X -120 Y 124 X 127 Y 124 X -127 Y f black 0.4 0.6 1 c black 319 584 m 124 X 506 Y 124 X 24 Y 124 X -17 Y
 124 X -62 Y 124 X -33 Y 124 X -59 Y 124 X -53 Y 124 X -36 Y 124 X -57 Y 124 X -8 Y 124 X -78 Y 124 X -7 Y 124 X -120 Y 124 X 127 Y 124 X s 0.999 0.999 0.999 c black 0.999 0.999 0.999 c 319 584 m 124 X 486 Y 124 X 22 Y 124 X -14 Y 124 X -68 Y 124 X
 -30 Y 124 X -61 Y 124 X -51 Y 124 X -48 Y 124 X -48 Y 124 X -23 Y 124 X -60 Y 124 X -22 Y 124 X -83 Y 124 X 104 Y 124 X -104 Y f black 0.999 0.999 0.999 c black 319 584 m 124 X 486 Y 124 X 22 Y 124 X -14 Y 124 X -68 Y 124 X -30 Y 124 X -61 Y 124 X
 -51 Y 124 X -48 Y 124 X -48 Y 124 X -23 Y 124 X -60 Y 124 X -22 Y 124 X -83 Y 124 X 104 Y 124 X s 1 1 1 c black 319 584 m 124 X 486 Y 124 X 22 Y 124 X -14 Y 124 X -68 Y 124 X -30 Y 124 X -61 Y 124 X -51 Y 124 X -48 Y 124 X -48 Y 124 X -23 Y 124 X
 -60 Y 124 X -22 Y 124 X -83 Y 124 X 104 Y 124 X s 0.6 1 0.6 c black 0.6 1 0.6 c 319 584 m 124 X 486 Y 124 X 22 Y 124 X -14 Y 124 X -68 Y 124 X -30 Y 124 X -61 Y 124 X -51 Y 124 X -48 Y 124 X -48 Y 124 X -23 Y 124 X -60 Y 124 X -22 Y 124 X -83 Y 124
 X 104 Y 124 X -104 Y f black 0.6 1 0.6 c black 319 584 m 124 X 486 Y 124 X 22 Y 124 X -14 Y 124 X -68 Y 124 X -30 Y 124 X -61 Y 124 X -51 Y 124 X -48 Y 124 X -48 Y 124 X -23 Y 124 X -60 Y 124 X -22 Y 124 X -83 Y 124 X 104 Y 124 X s 0.999 0.999 0.999
 c black 0.999 0.999 0.999 c 319 584 m 124 X 433 Y 124 X 25 Y 124 X 1 Y 124 X -76 Y 124 X -15 Y 124 X -50 Y 124 X -51 Y 124 X -46 Y 124 X -43 Y 124 X -20 Y 124 X -58 Y 124 X -20 Y 124 X -80 Y 124 X 103 Y 124 X -103 Y f black 0.999 0.999 0.999 c black
 319 584 m 124 X 433 Y 124 X 25 Y 124 X 1 Y 124 X -76 Y 124 X -15 Y 124 X -50 Y 124 X -51 Y 124 X -46 Y 124 X -43 Y 124 X -20 Y 124 X -58 Y 124 X -20 Y 124 X -80 Y 124 X 103 Y 124 X s 1 1 1 c black 319 584 m 124 X 433 Y 124 X 25 Y 124 X 1 Y 124 X -76
 Y 124 X -15 Y 124 X -50 Y 124 X -51 Y 124 X -46 Y 124 X -43 Y 124 X -20 Y 124 X -58 Y 124 X -20 Y 124 X -80 Y 124 X 103 Y 124 X s 1 0.8 0.4 c black 1 0.8 0.4 c 319 584 m 124 X 433 Y 124 X 25 Y 124 X 1 Y 124 X -76 Y 124 X -15 Y 124 X -50 Y 124 X -51
 Y 124 X -46 Y 124 X -43 Y 124 X -20 Y 124 X -58 Y 124 X -20 Y 124 X -80 Y 124 X 103 Y 124 X -103 Y f black 1 0.8 0.4 c black 319 584 m 124 X 433 Y 124 X 25 Y 124 X 1 Y 124 X -76 Y 124 X -15 Y 124 X -50 Y 124 X -51 Y 124 X -46 Y 124 X -43 Y 124 X -20
 Y 124 X -58 Y 124 X -20 Y 124 X -80 Y 124 X 103 Y 124 X s 0.999 0.999 0.999 c black 0.999 0.999 0.999 c 319 584 m 124 X 309 Y 124 X 5 Y 124 X 12 Y 124 X -72 Y 124 X -2 Y 124 X -56 Y 124 X -31 Y 124 X -83 Y 124 X -7 Y 124 X -49 Y 124 X -12 Y 124 X
 -14 Y 248 X 51 Y 124 X -51 Y f black 0.999 0.999 0.999 c black 319 584 m 124 X 309 Y 124 X 5 Y 124 X 12 Y 124 X -72 Y 124 X -2 Y 124 X -56 Y 124 X -31 Y 124 X -83 Y 124 X -7 Y 124 X -49 Y 124 X -12 Y 124 X -14 Y 248 X 51 Y 124 X s 1 1 1 c black 319
 584 m 124 X 309 Y 124 X 5 Y 124 X 12 Y 124 X -72 Y 124 X -2 Y 124 X -56 Y 124 X -31 Y 124 X -83 Y 124 X -7 Y 124 X -49 Y 124 X -12 Y 124 X -14 Y 248 X 51 Y 124 X s 1 0.4 0.6 c black 1 0.4 0.6 c 319 584 m 124 X 309 Y 124 X 5 Y 124 X 12 Y 124 X -72 Y
 124 X -2 Y 124 X -56 Y 124 X -31 Y 124 X -83 Y 124 X -7 Y 124 X -49 Y 124 X -12 Y 124 X -14 Y 248 X 51 Y 124 X -51 Y f black 1 0.4 0.6 c black 319 584 m 124 X 309 Y 124 X 5 Y 124 X 12 Y 124 X -72 Y 124 X -2 Y 124 X -56 Y 124 X -31 Y 124 X -83 Y 124
 X -7 Y 124 X -49 Y 124 X -12 Y 124 X -14 Y 248 X 51 Y 124 X s 0.999 0.999 0.999 c black 0.999 0.999 0.999 c 319 584 m 124 X 223 Y 124 X -46 Y 124 X 32 Y 124 X -48 Y 124 X 20 Y 124 X -62 Y 124 X -12 Y 124 X -56 Y 124 X 3 Y 124 X -31 Y 124 X -23 Y 496
 X f black 0.999 0.999 0.999 c black 319 584 m 124 X 223 Y 124 X -46 Y 124 X 32 Y 124 X -48 Y 124 X 20 Y 124 X -62 Y 124 X -12 Y 124 X -56 Y 124 X 3 Y 124 X -31 Y 124 X -23 Y 496 X s 1 1 1 c black 319 584 m 124 X 223 Y 124 X -46 Y 124 X 32 Y 124 X
 -48 Y 124 X 20 Y 124 X -62 Y 124 X -12 Y 124 X -56 Y 124 X 3 Y 124 X -31 Y 124 X -23 Y 496 X s 0 0 0.4 c black 0 0 0.4 c 319 584 m 124 X 223 Y 124 X -46 Y 124 X 32 Y 124 X -48 Y 124 X 20 Y 124 X -62 Y 124 X -12 Y 124 X -56 Y 124 X 3 Y 124 X -31 Y
 124 X -23 Y 496 X f black 0 0 0.4 c black 319 584 m 124 X 223 Y 124 X -46 Y 124 X 32 Y 124 X -48 Y 124 X 20 Y 124 X -62 Y 124 X -12 Y 124 X -56 Y 124 X 3 Y 124 X -31 Y 124 X -23 Y 496 X s 1 0 0 c 6 lw 1 1 1 c black 1 0 0 c 319 584 m 124 X 506 Y 124
 X 24 Y 124 X -17 Y 124 X -62 Y 124 X -33 Y 124 X -59 Y 124 X -53 Y 124 X -36 Y 124 X -57 Y 124 X -8 Y 124 X -78 Y 124 X -7 Y 124 X -120 Y 124 X 127 Y 124 X s black 3 lw 1 0 0 c 1 lw << /PatternType 1 /PaintType 2 /TilingType 1 /BBox [ 0 0 100 100 ]
 /XStep 100 /YStep 100 /PaintProc { begin gsave 0 100 m 100 0 l s gr end } >> [ 0.24 0 0 0.24 0 0 ] makepattern /P05 exch def /cs {[/Pattern /DeviceRGB] setcolorspace} def /FA {f [/DeviceRGB] setcolorspace} def cs 1 0 0 P05 setcolor 443 584 m 512 Y
 124 X 23 Y 124 X -17 Y 124 X -62 Y 124 X -31 Y 124 X -56 Y 124 X -51 Y 124 X -37 Y 124 X -47 Y 124 X -4 Y 124 X -75 Y 124 X -4 Y 124 X -124 Y 124 X 124 Y 124 X -151 Y 90 Y -124 X -90 Y -124 X 64 Y -124 X 19 Y -124 X 85 Y -124 X 15 Y -124 X 75 Y -124
 X 35 Y -124 X 55 Y -124 X 63 Y -124 X 34 Y -124 X 63 Y -124 X 17 Y -124 X -25 Y -124 X -500 Y FA 6 lw 1 1 1 c 15 lw 1125 929 m -5 Y s 1125 924 m cl s 1249 917 m 6 Y s 1249 923 m cl s 1249 876 m -18 Y s 1249 858 m cl s 1373 886 m 12 Y s 1373 898 m cl
 s 1373 845 m -29 Y s 1373 816 m cl s 1497 864 m 17 Y s 1497 881 m cl s 1497 823 m -39 Y s 1497 784 m cl s 1621 780 m 43 Y s 1621 823 m cl s 1621 739 m -112 Y s 1621 627 m cl s 1869 780 m 43 Y s 1869 823 m cl s 1869 739 m -112 Y s 1869 627 m cl s
 2117 780 m 43 Y s 2117 823 m cl s 2117 739 m -112 Y s 2117 627 m cl s black 1 1 1 c 3 lw /w 43 def /w2 {w 2 div} def /w3 {w 3 div} def 505 1082 629 1119 753 1083 877 1045 1001 995 1125 949 1249 896 1373 865 1497 843 1621 760 10 { m20} R 15 lw 3 lw
 1869 760 m20 15 lw 3 lw 2117 760 m20 15 lw black 6 lw 1 1 1 c black 3 lw /w 33 def /w2 {w 2 div} def /w3 {w 3 div} def 505 1082 m20 6 lw 3 lw 629 1119 m20 6 lw 3 lw 753 1083 m20 6 lw 3 lw 877 1045 m20 6 lw 1001 977 m 5 Y s 1001 1009 m 1 Y s 3 lw
 1001 995 m20 6 lw 1125 923 m 13 Y s 1125 963 m 5 Y s 3 lw 1125 949 m20 6 lw 1249 856 m 27 Y s 1249 910 m 12 Y s 3 lw 1249 896 m20 6 lw 1373 813 m 39 Y s 1373 879 m 17 Y s 3 lw 1373 865 m20 6 lw 1497 778 m 52 Y s 1497 857 m 21 Y s 3 lw 1497 843 m20 6
 lw 1621 584 m 162 Y s 1621 773 m 40 Y s 3 lw 1621 760 m20 6 lw 1869 584 m 162 Y s 1869 773 m 40 Y s 3 lw 1869 760 m20 6 lw 2117 584 m 162 Y s 2117 773 m 40 Y s 3 lw 2117 760 m20 6 lw 1001 1009 m 1 Y s 1001 1010 m cl s 1001 982 m -5 Y s 1001 977 m cl
 s 1125 963 m 6 Y s 1125 969 m cl s 1125 936 m -12 Y s 1125 924 m cl s 1249 910 m 13 Y s 1249 923 m cl s 1249 883 m -25 Y s 1249 858 m cl s 1373 879 m 19 Y s 1373 898 m cl s 1373 852 m -36 Y s 1373 816 m cl s 1497 857 m 24 Y s 1497 881 m cl s 1497
 830 m -46 Y s 1497 784 m cl s 1621 773 m 50 Y s 1621 823 m cl s 1621 746 m -119 Y s 1621 627 m cl s 1869 773 m 50 Y s 1869 823 m cl s 1869 746 m -119 Y s 1869 627 m cl s 2117 773 m 50 Y s 2117 823 m cl s 2117 746 m -119 Y s 2117 627 m cl s 3 lw 505
 1082 629 1119 753 1083 877 1045 1001 995 1125 949 1249 896 1373 865 1497 843 1621 760 10 { m20} R 6 lw 3 lw 1869 760 m20 6 lw 3 lw 2117 760 m20 6 lw 3 lw 319 584 m 1860 X s 319 584 m cl s 381 584 m cl s 443 584 m cl s 505 584 m cl s 567 584 m cl s
 629 584 m cl s 691 584 m cl s 753 584 m cl s 815 584 m cl s 877 584 m cl s 939 584 m cl s 1001 584 m cl s 1063 584 m cl s 1125 584 m cl s 1187 584 m cl s 1249 584 m cl s 1311 584 m cl s 1373 584 m cl s 1435 584 m cl s 1497 584 m cl s 1559 584 m cl s
 1621 584 m cl s 1683 584 m cl s 1745 584 m cl s 1807 584 m cl s 1869 584 m cl s 1931 584 m cl s 1993 584 m cl s 2055 584 m cl s 2117 584 m cl s 2179 584 m cl s 319 1729 m 1860 X s 319 1729 m cl s 381 1729 m cl s 443 1729 m cl s 505 1729 m cl s 567
 1729 m cl s 629 1729 m cl s 691 1729 m cl s 753 1729 m cl s 815 1729 m cl s 877 1729 m cl s 939 1729 m cl s 1001 1729 m cl s 1063 1729 m cl s 1125 1729 m cl s 1187 1729 m cl s 1249 1729 m cl s 1311 1729 m cl s 1373 1729 m cl s 1435 1729 m cl s 1497
 1729 m cl s 1559 1729 m cl s 1621 1729 m cl s 1683 1729 m cl s 1745 1729 m cl s 1807 1729 m cl s 1869 1729 m cl s 1931 1729 m cl s 1993 1729 m cl s 2055 1729 m cl s 2117 1729 m cl s 2179 1729 m cl s 319 584 m 1145 Y s 341 637 m -22 X s 341 668 m -22
 X s 341 690 m -22 X s 341 707 m -22 X s 341 721 m -22 X s 341 733 m -22 X s 341 743 m -22 X s 341 752 m -22 X s 363 760 m -44 X s 341 813 m -22 X s 341 843 m -22 X s 341 865 m -22 X s 341 882 m -22 X s 341 896 m -22 X s 341 908 m -22 X s 341 918 m
 -22 X s 341 927 m -22 X s 363 935 m -44 X s 341 988 m -22 X s 341 1019 m -22 X s 341 1041 m -22 X s 341 1058 m -22 X s 341 1072 m -22 X s 341 1083 m -22 X s 341 1094 m -22 X s 341 1103 m -22 X s 363 1111 m -44 X s 341 1163 m -22 X s 341 1194 m -22 X
 s 341 1216 m -22 X s 341 1233 m -22 X s 341 1247 m -22 X s 341 1259 m -22 X s 341 1269 m -22 X s 341 1278 m -22 X s 363 1286 m -44 X s 341 1339 m -22 X s 341 1370 m -22 X s 341 1392 m -22 X s 341 1409 m -22 X s 341 1423 m -22 X s 341 1434 m -22 X s
 341 1445 m -22 X s 341 1453 m -22 X s 363 1462 m -44 X s 341 1514 m -22 X s 341 1545 m -22 X s 341 1567 m -22 X s 341 1584 m -22 X s 341 1598 m -22 X s 341 1610 m -22 X s 341 1620 m -22 X s 341 1629 m -22 X s 363 1637 m -44 X s 341 1690 m -22 X s
 341 1721 m -22 X s 2179 584 m 1145 Y s 2157 637 m 22 X s 2157 668 m 22 X s 2157 690 m 22 X s 2157 707 m 22 X s 2157 721 m 22 X s 2157 733 m 22 X s 2157 743 m 22 X s 2157 752 m 22 X s 2136 760 m 43 X s 2157 813 m 22 X s 2157 843 m 22 X s 2157 865 m
 22 X s 2157 882 m 22 X s 2157 896 m 22 X s 2157 908 m 22 X s 2157 918 m 22 X s 2157 927 m 22 X s 2136 935 m 43 X s 2157 988 m 22 X s 2157 1019 m 22 X s 2157 1041 m 22 X s 2157 1058 m 22 X s 2157 1072 m 22 X s 2157 1083 m 22 X s 2157 1094 m 22 X s
 2157 1103 m 22 X s 2136 1111 m 43 X s 2157 1163 m 22 X s 2157 1194 m 22 X s 2157 1216 m 22 X s 2157 1233 m 22 X s 2157 1247 m 22 X s 2157 1259 m 22 X s 2157 1269 m 22 X s 2157 1278 m 22 X s 2136 1286 m 43 X s 2157 1339 m 22 X s 2157 1370 m 22 X s
 2157 1392 m 22 X s 2157 1409 m 22 X s 2157 1423 m 22 X s 2157 1434 m 22 X s 2157 1445 m 22 X s 2157 1453 m 22 X s 2136 1462 m 43 X s 2157 1514 m 22 X s 2157 1545 m 22 X s 2157 1567 m 22 X s 2157 1584 m 22 X s 2157 1598 m 22 X s 2157 1610 m 22 X s
 2157 1620 m 22 X s 2157 1629 m 22 X s 2136 1637 m 43 X s 2157 1690 m 22 X s 2157 1721 m 22 X s
 gsave  2263 1770 2 313 C 406.765 1447.41 t 0 r /Helvetica findfont 64.4212 sf 0 0 m (VR0LdPhi for MB\255GGd) show NC gr 
 gsave  2263 1770 2 313 C 1464.36 1630.45 t 0 r /Helvetica findfont 64.4212 sf 0 0 m (SM Total) show NC gr  1 1 1 c 1338 1616 m 107 X 64 Y -107 X f 1 0 0 c 6 lw 1338 1648 m 107 X s black
 gsave  2263 1770 2 313 C 1464.36 1538.93 t 0 r /Helvetica findfont 64.4212 sf 0 0 m (Data) show NC gr  1391 1529 m 55 Y s 3 lw 1391 1557 m20 6 lw
 gsave  2263 1770 2 313 C 1464.36 1447.41 t 0 r /Helvetica findfont 64.4212 sf 0 0 m (W+jets) show NC gr  0.4 0.6 1 c 3 lw 1338 1434 m 107 X 64 Y -107 X f 6 lw black 3 lw 1338 1498 m 107 X s 1338 1434 m 107 X s 1445 1434 m 64 Y s 1338 1434 m 64 Y s
 gsave  2263 1770 2 313 C 1498.25 1355.88 t 0 r /Helvetica findfont 64.4212 sf 0 0 m (\(+EW\) & single top) show NC gr 
 gsave  2263 1770 2 313 C 1481.3 1355.88 t 0 r /Helvetica findfont 64.4212 sf 0 0 m (t) show NC gr  1481 1407 m 17 X s
 gsave  2263 1770 2 313 C 1464.36 1355.88 t 0 r /Helvetica findfont 64.4212 sf 0 0 m (t) show NC gr  0.6 1 0.6 c 1338 1343 m 107 X 63 Y -107 X f black 1338 1406 m 107 X s 1338 1343 m 107 X s 1445 1343 m 63 Y s 1338 1343 m 63 Y s
 gsave  2263 1770 2 313 C 1464.36 1264.36 t 0 r /Helvetica findfont 64.4212 sf 0 0 m (Z+jets) show NC gr  1 0.8 0.4 c 1338 1252 m 107 X 63 Y -107 X f black 1338 1315 m 107 X s 1338 1252 m 107 X s 1445 1252 m 63 Y s 1338 1252 m 63 Y s
 gsave  2263 1770 2 313 C 1464.36 1172.84 t 0 r /Helvetica findfont 64.4212 sf 0 0 m (Diboson) show NC gr  1 0.4 0.6 c 1338 1161 m 107 X 63 Y -107 X f black 1338 1224 m 107 X s 1338 1161 m 107 X s 1445 1161 m 63 Y s 1338 1161 m 63 Y s
 gsave  2263 1770 2 313 C 1464.36 1081.32 t 0 r /Helvetica findfont 64.4212 sf 0 0 m (Multi\255jet) show NC gr  0 0 0.4 c 1338 1070 m 107 X 63 Y -107 X f black 1338 1133 m 107 X s 1338 1070 m 107 X s 1445 1070 m 63 Y s 1338 1070 m 63 Y s
 gsave  2263 1770 2 313 C 911.832 1566.05 t 0 r /Helvetica findfont 44.0776 sf 0 0 m (\2551) show NC gr 
 gsave  2263 1770 2 313 C 471.17 1535.54 t 0 r /Helvetica findfont 64.4212 sf 0 0 m (=13TeV, 139 fb) show NC gr 
 gsave  2263 1770 2 313 C 440.662 1535.54 t 0 r /Helvetica findfont 64.4212 sf 0 0 m (s) show NC gr  6 lw 420 1573 m 7 -41 d s 3 lw 427 1532 m 7 61 d s 434 1593 m 37 X s 1 1 1 c 2254 561 2 2 bf black 1 1 1 c black 1860 358 318 187 bl 1 1 1 c black
 1860 358 318 187 bl 6 lw 1 1 1 c black 3 lw 504 350 m20 6 lw 3 lw 628 376 m20 6 lw 3 lw 752 339 m20 6 lw 3 lw 876 388 m20 6 lw 3 lw 1000 352 m20 6 lw 3 lw 1124 379 m20 6 lw 3 lw 1248 379 m20 6 lw 3 lw 1372 391 m20 6 lw 3 lw 1496 504 m20 6 lw 3 lw
 1620 314 m20 6 lw 3 lw 1868 543 m20 6 lw 3 lw 2116 513 m20 6 lw 3 lw 318 187 m 1860 X s
 gsave  2254 561 2 2 C 1959.25 33.8971 t 0 r /Helvetica findfont 78.1689 sf 0 0 m ( [GeV]) show NC gr 
 gsave  2254 561 2 2 C 1901.63 13.5588 t 0 r /Helvetica findfont 50.9797 sf 0 0 m (eff) show NC gr 
 gsave  2254 561 2 2 C 1840.61 33.8971 t 0 r /Helvetica findfont 78.1689 sf 0 0 m (m) show NC gr  318 201 m -14 Y s 380 194 m -7 Y s 442 194 m -7 Y s 504 194 m -7 Y s 566 194 m -7 Y s 628 201 m -14 Y s 690 194 m -7 Y s 752 194 m -7 Y s 814 194 m -7 Y
 s 876 194 m -7 Y s 938 201 m -14 Y s 1000 194 m -7 Y s 1062 194 m -7 Y s 1124 194 m -7 Y s 1186 194 m -7 Y s 1248 201 m -14 Y s 1310 194 m -7 Y s 1372 194 m -7 Y s 1434 194 m -7 Y s 1496 194 m -7 Y s 1558 201 m -14 Y s 1620 194 m -7 Y s 1682 194 m
 -7 Y s 1744 194 m -7 Y s 1806 194 m -7 Y s 1868 201 m -14 Y s 1930 194 m -7 Y s 1992 194 m -7 Y s 2054 194 m -7 Y s 2116 194 m -7 Y s 2178 201 m -14 Y s
 gsave  2254 561 2 2 C 227.111 118.64 t 0 r /Helvetica findfont 78.1689 sf 0 0 m (1000) show NC gr 
 gsave  2254 561 2 2 C 538.964 118.64 t 0 r /Helvetica findfont 78.1689 sf 0 0 m (1500) show NC gr 
 gsave  2254 561 2 2 C 847.428 118.64 t 0 r /Helvetica findfont 78.1689 sf 0 0 m (2000) show NC gr 
 gsave  2254 561 2 2 C 1159.28 118.64 t 0 r /Helvetica findfont 78.1689 sf 0 0 m (2500) show NC gr 
 gsave  2254 561 2 2 C 1467.74 118.64 t 0 r /Helvetica findfont 78.1689 sf 0 0 m (3000) show NC gr 
 gsave  2254 561 2 2 C 1779.6 118.64 t 0 r /Helvetica findfont 78.1689 sf 0 0 m (3500) show NC gr 
 gsave  2254 561 2 2 C 2088.06 118.64 t 0 r /Helvetica findfont 78.1689 sf 0 0 m (4000) show NC gr  318 545 m 1860 X s 318 531 m 14 Y s 380 538 m 7 Y s 442 538 m 7 Y s 504 538 m 7 Y s 566 538 m 7 Y s 628 531 m 14 Y s 690 538 m 7 Y s 752 538 m 7 Y s
 814 538 m 7 Y s 876 538 m 7 Y s 938 531 m 14 Y s 1000 538 m 7 Y s 1062 538 m 7 Y s 1124 538 m 7 Y s 1186 538 m 7 Y s 1248 531 m 14 Y s 1310 538 m 7 Y s 1372 538 m 7 Y s 1434 538 m 7 Y s 1496 538 m 7 Y s 1558 531 m 14 Y s 1620 538 m 7 Y s 1682 538 m
 7 Y s 1744 538 m 7 Y s 1806 538 m 7 Y s 1868 531 m 14 Y s 1930 538 m 7 Y s 1992 538 m 7 Y s 2054 538 m 7 Y s 2116 538 m 7 Y s 2178 531 m 14 Y s 318 187 m 358 Y s
 gsave  2254 561 2 2 C 166.096 284.736 t 90 r /Helvetica findfont 67.9729 sf 0 0 m (Data/SM) show NC gr  361 203 m -43 X s 339 220 m -21 X s 339 236 m -21 X s 339 252 m -21 X s 339 268 m -21 X s 361 285 m -43 X s 339 301 m -21 X s 339 317 m -21 X s
 339 334 m -21 X s 339 350 m -21 X s 361 366 m -43 X s 339 382 m -21 X s 339 399 m -21 X s 339 415 m -21 X s 339 431 m -21 X s 361 447 m -43 X s 339 464 m -21 X s 339 480 m -21 X s 339 496 m -21 X s 339 512 m -21 X s 361 529 m -43 X s 361 203 m -43 X
 s 339 187 m -21 X s 361 529 m -43 X s
 gsave  2254 561 2 2 C 261.008 183.044 t 0 r /Helvetica findfont 57.777 sf 0 0 m (0) show NC gr 
 gsave  2254 561 2 2 C 213.552 261.008 t 0 r /Helvetica findfont 57.777 sf 0 0 m (0.5) show NC gr 
 gsave  2254 561 2 2 C 271.177 342.361 t 0 r /Helvetica findfont 57.777 sf 0 0 m (1) show NC gr 
 gsave  2254 561 2 2 C 213.552 423.714 t 0 r /Helvetica findfont 57.777 sf 0 0 m (1.5) show NC gr 
 gsave  2254 561 2 2 C 261.008 505.067 t 0 r /Helvetica findfont 57.777 sf 0 0 m (2) show NC gr  2178 187 m 358 Y s 2135 203 m 43 X s 2157 220 m 21 X s 2157 236 m 21 X s 2157 252 m 21 X s 2157 268 m 21 X s 2135 285 m 43 X s 2157 301 m 21 X s 2157 317
 m 21 X s 2157 334 m 21 X s 2157 350 m 21 X s 2135 366 m 43 X s 2157 382 m 21 X s 2157 399 m 21 X s 2157 415 m 21 X s 2157 431 m 21 X s 2135 447 m 43 X s 2157 464 m 21 X s 2157 480 m 21 X s 2157 496 m 21 X s 2157 512 m 21 X s 2135 529 m 43 X s 2135
 203 m 43 X s 2157 187 m 21 X s 2135 529 m 43 X s 9 lw 504 364 m 4 Y s 504 368 m cl s 504 337 m -4 Y s 504 333 m cl s 628 390 m 2 Y s 628 392 m cl s 628 362 m -2 Y s 628 360 m cl s 752 352 m 3 Y s 752 355 m cl s 752 325 m -2 Y s 752 323 m cl s 876
 402 m 15 Y s 876 417 m cl s 876 375 m -15 Y s 876 360 m cl s 1000 366 m 18 Y s 1000 384 m cl s 1000 339 m -18 Y s 1000 321 m cl s 1124 393 m 38 Y s 1124 431 m cl s 1124 365 m -36 Y s 1124 329 m cl s 1248 393 m 61 Y s 1248 454 m cl s 1248 365 m -55 Y
 s 1248 310 m cl s 1372 405 m 87 Y s 1372 492 m cl s 1372 378 m -76 Y s 1372 302 m cl s 1496 517 m 28 Y s 1496 545 m cl s 1496 490 m -149 Y s 1496 341 m cl s 1620 328 m 129 Y s 1620 457 m cl s 1620 301 m -78 Y s 1620 223 m cl s 1868 530 m -267 Y s
 1868 263 m cl s 2116 526 m 19 Y s 2116 545 m cl s 2116 499 m -242 Y s 2116 257 m cl s 3 lw 504 350 628 376 752 339 876 388 1000 352 1124 379 1248 379 1372 391 1496 504 1620 314 10 { m20} R 9 lw 3 lw 1868 543 m20 9 lw 3 lw 2116 513 m20 9 lw 1 0 0 c 6
 lw black 3 lw 1 0 0 c 2178 227 m s 2178 255 m s 2178 284 m s 2178 312 m -8 -8 d s 2178 341 m -37 -37 d s 2178 369 m -65 -65 d s 2178 398 m -94 -94 d s 2054 274 m -18 -18 d s 2178 427 m -123 -123 d s 2054 303 m -47 -47 d s 2151 428 m -172 -172 d s
 2123 428 m -173 -172 d s 2094 428 m -164 -163 d s 2065 428 m -147 -146 d s 2054 446 m -164 -164 d s 2054 475 m -193 -193 d s 2027 476 m -195 -194 d s 1998 476 m -192 -191 d s 1970 476 m -182 -182 d s 1941 476 m -11 -11 d s 1915 450 m -156 -156 d s
 1886 450 m -156 -156 d s 1858 450 m -157 -156 d s 1829 450 m -148 -147 d s 1788 438 m -135 -135 d s 1759 438 m -135 -135 d s 1730 438 m -135 -135 d s 1702 438 m -135 -135 d s 1664 429 m -116 -116 d s 1636 429 m -116 -116 d s 1607 429 m -116 -116 d s
 1578 429 m -116 -116 d s 1539 419 m -105 -105 d s 1510 419 m -77 -78 d s 1482 419 m -78 -78 d s 1453 419 m -19 -19 d s 1425 391 m -50 -50 d s 1397 391 m -50 -50 d s 1368 391 m -50 -50 d s 1339 391 m -51 -51 d s 1311 391 m -51 -51 d s 1283 392 m -52
 -52 d s 1254 392 m -52 -52 d s 1225 392 m -48 -49 d s 1197 392 m -49 -49 d s 1165 389 m -46 -46 d s 1136 389 m -45 -46 d s 1107 389 m -45 -46 d s 1079 389 m -38 -38 d s 1042 381 m -30 -30 d s 1014 381 m -30 -30 d s 985 381 m -30 -30 d s 956 381 m
 -26 -26 d s 924 377 m -23 -22 d s 895 377 m -23 -22 d s 867 377 m -23 -22 d s 838 377 m -23 -22 d s 809 377 m -22 -22 d s 780 377 m -22 -22 d s 751 377 m -22 -22 d s 723 377 m -22 -22 d s 694 377 m -22 -22 d s 665 377 m -22 -22 d s 637 377 m -22 -22
 d s 608 377 m -22 -22 d s 442 211 m s 434 203 m cl s 579 377 m -24 -24 d s 442 240 m s 405 203 m cl s 553 379 m -26 -26 d s 442 269 m s 376 203 m cl s 524 379 m -26 -26 d s 442 297 m s 348 203 m cl s 495 379 m -26 -26 d s 442 326 m s 319 203 m cl s
 467 379 m -25 -25 d s 6 lw black[ 4 8] 0 sd 3 lw 318 447 m 1860 X s 318 285 m 1860 X s 1 0 0 c[  12 12 ] 0 sd 6 lw 318 366 m 1860 X s
 gr  gr showpage
end
%%EOF
