%!PS-Adobe-2.0 EPSF-2.0
%%BoundingBox:  0 0 567 521
%%Title: Distributions/meffInc_distrCRY_MB-C_afterFit_forThesis.eps: canvas
%%Creator: ROOT Version 6.04/16
%%CreationDate: Tue May 19 22:04:36 2020
%%DocumentNeededResources: ProcSet (FontSetInit)
%%EndComments
%%BeginProlog
80 dict begin
/s {stroke} def /l {lineto} def /m {moveto} def /t {translate} def
/r {rotate} def /rl {roll}  def /R {repeat} def
/d {rlineto} def /rm {rmoveto} def /gr {grestore} def /f {eofill} def
/c {setrgbcolor} def /black {0 setgray} def /sd {setdash} def
/cl {closepath} def /sf {scalefont setfont} def /lw {setlinewidth} def
/box {m dup 0 exch d exch 0 d 0 exch neg d cl} def
/NC{systemdict begin initclip end}def/C{NC box clip newpath}def
/bl {box s} def /bf {gsave box gsave f grestore 1 lw [] 0 sd s grestore} def /Y { 0 exch d} def /X { 0 d} def 
/K {{pop pop 0 moveto} exch kshow} bind def
/ita {/ang 15 def gsave [1 0 ang dup sin exch cos div 1 0 0] concat} def 
/mp {newpath /y exch def /x exch def} def
/side {[w .77 mul w .23 mul] .385 w mul sd w 0 l currentpoint t -144 r} def
/mr {mp x y w2 0 360 arc} def /m24 {mr s} def /m20 {mr f} def
/mb {mp x y w2 add m w2 neg 0 d 0 w neg d w 0 d 0 w d cl} def
/mt {mp x y w2 add m w2 neg w neg d w 0 d cl} def
/m21 {mb f} def /m25 {mb s} def /m22 {mt f} def /m26{mt s} def
/m23 {mp x y w2 sub m w2 w d w neg 0 d cl f} def
/m27 {mp x y w2 add m w3 neg w2 neg d w3 w2 neg d w3 w2 d cl s} def
/m28 {mp x w2 sub y w2 sub w3 add m w3 0 d  0 w3 neg d w3 0 d 0 w3 d w3 0 d  0 w3 d w3 neg 0 d 0 w3 d w3 neg 0 d 0 w3 neg d w3 neg 0 d cl s } def
/m29 {mp gsave x w2 sub y w2 add w3 sub m currentpoint t 4 {side} repeat cl fill gr} def
/m30 {mp gsave x w2 sub y w2 add w3 sub m currentpoint t 4 {side} repeat cl s gr} def
/m31 {mp x y w2 sub m 0 w d x w2 sub y m w 0 d x w2 sub y w2 add m w w neg d x w2 sub y w2 sub m w w d s} def
/m32 {mp x y w2 sub m w2 w d w neg 0 d cl s} def
/m33 {mp x y w2 add m w3 neg w2 neg d w3 w2 neg d w3 w2 d cl f} def
/m34 {mp x w2 sub y w2 sub w3 add m w3 0 d  0 w3 neg d w3 0 d 0 w3 d w3 0 d  0 w3 d w3 neg 0 d 0 w3 d w3 neg 0 d 0 w3 neg d w3 neg 0 d cl f } def
/m2 {mp x y w2 sub m 0 w d x w2 sub y m w 0 d s} def
/m5 {mp x w2 sub y w2 sub m w w d x w2 sub y w2 add m w w neg d s} def
%%IncludeResource: ProcSet (FontSetInit)
%%IncludeResource: font Times-Roman
%%IncludeResource: font Times-Italic
%%IncludeResource: font Times-Bold
%%IncludeResource: font Times-BoldItalic
%%IncludeResource: font Helvetica
%%IncludeResource: font Helvetica-Oblique
%%IncludeResource: font Helvetica-Bold
%%IncludeResource: font Helvetica-BoldOblique
%%IncludeResource: font Courier
%%IncludeResource: font Courier-Oblique
%%IncludeResource: font Courier-Bold
%%IncludeResource: font Courier-BoldOblique
%%IncludeResource: font Symbol
%%IncludeResource: font ZapfDingbats
/reEncode {exch findfont dup length dict begin {1 index /FID eq  {pop pop} {def} ifelse } forall /Encoding exch def currentdict end dup /FontName get exch definefont pop } def [/Times-Bold /Times-Italic /Times-BoldItalic /Helvetica /Helvetica-Oblique
 /Helvetica-Bold /Helvetica-BoldOblique /Courier /Courier-Oblique /Courier-Bold /Courier-BoldOblique /Times-Roman /AvantGarde-Book /AvantGarde-BookOblique /AvantGarde-Demi /AvantGarde-DemiOblique /Bookman-Demi /Bookman-DemiItalic /Bookman-Light
 /Bookman-LightItalic /Helvetica-Narrow /Helvetica-Narrow-Bold /Helvetica-Narrow-BoldOblique /Helvetica-Narrow-Oblique /NewCenturySchlbk-Roman /NewCenturySchlbk-Bold /NewCenturySchlbk-BoldItalic /NewCenturySchlbk-Italic /Palatino-Bold
 /Palatino-BoldItalic /Palatino-Italic /Palatino-Roman ] {ISOLatin1Encoding reEncode } forall
%%EndProlog
%%BeginSetup
%%EndSetup
newpath  gsave  .25 .25 scale  gsave  0 0 t black[  ] 0 sd 3 lw 1 1 1 c 2268 2085 0 0 bf black 1 1 1 c 2263 1770 2 313 bf black 1 1 1 c black 1860 1145 319 584 bl 1 1 1 c black 1860 1145 319 584 bl 6 lw 1 1 1 c black 3 lw /w 33 def /w2 {w 2 div} def
 /w3 {w 3 div} def 374 1180 m20 6 lw 3 lw 483 1152 m20 6 lw 3 lw 593 1123 m20 6 lw 3 lw 702 1093 m20 6 lw 3 lw 812 1063 m20 6 lw 3 lw 921 1034 m20 6 lw 3 lw 1030 1015 m20 6 lw 3 lw 1140 972 m20 6 lw 3 lw 1249 938 m20 6 lw 3 lw 1359 914 m20 6 lw 3 lw
 1468 907 m20 6 lw 3 lw 1578 874 m20 6 lw 1687 825 m 5 Y s 1687 857 m s 3 lw 1687 843 m20 6 lw 1796 778 m 14 Y s 1796 819 m 5 Y s 3 lw 1796 806 m20 6 lw 1906 806 m 8 Y s 1906 841 m 2 Y s 3 lw 1906 828 m20 6 lw 2015 746 m 24 Y s 2015 798 m 8 Y s 3 lw
 2015 784 m20 6 lw 2125 789 m 12 Y s 2125 828 m 4 Y s 3 lw 2125 814 m20 6 lw 3 lw 319 584 m 1860 X s
 gsave  2263 1770 2 313 C 1949.08 369.478 t 0 r /Helvetica findfont 81.3741 sf 0 0 m ( [GeV]) show NC gr 
 gsave  2263 1770 2 313 C 1888.07 342.361 t 0 r /Helvetica findfont 54.2494 sf 0 0 m (eff) show NC gr 
 gsave  2263 1770 2 313 C 1823.66 369.478 t 0 r /Helvetica findfont 81.3741 sf 0 0 m (m) show NC gr  538 584 m cl s 593 584 m cl s 647 584 m cl s 702 584 m cl s 757 584 m cl s 812 584 m cl s 866 584 m cl s 921 584 m cl s 976 584 m cl s 1030 584 m cl
 s 1085 584 m cl s 1140 584 m cl s 1195 584 m cl s 1249 584 m cl s 1304 584 m cl s 1359 584 m cl s 1413 584 m cl s 1468 584 m cl s 1523 584 m cl s 1578 584 m cl s 1632 584 m cl s 1687 584 m cl s 1742 584 m cl s 1796 584 m cl s 1851 584 m cl s 1906
 584 m cl s 1961 584 m cl s 2015 584 m cl s 2070 584 m cl s 2125 584 m cl s 2179 584 m cl s 538 584 m cl s 483 584 m cl s 429 584 m cl s 374 584 m cl s 319 584 m cl s 319 1729 m 1860 X s 538 1729 m cl s 593 1729 m cl s 647 1729 m cl s 702 1729 m cl s
 757 1729 m cl s 812 1729 m cl s 866 1729 m cl s 921 1729 m cl s 976 1729 m cl s 1030 1729 m cl s 1085 1729 m cl s 1140 1729 m cl s 1195 1729 m cl s 1249 1729 m cl s 1304 1729 m cl s 1359 1729 m cl s 1413 1729 m cl s 1468 1729 m cl s 1523 1729 m cl s
 1578 1729 m cl s 1632 1729 m cl s 1687 1729 m cl s 1742 1729 m cl s 1796 1729 m cl s 1851 1729 m cl s 1906 1729 m cl s 1961 1729 m cl s 2015 1729 m cl s 2070 1729 m cl s 2125 1729 m cl s 2179 1729 m cl s 538 1729 m cl s 483 1729 m cl s 429 1729 m cl
 s 374 1729 m cl s 319 1729 m cl s 319 584 m 1145 Y s
 gsave  2263 1770 2 313 C 166.096 1091.49 t 90 r /Helvetica findfont 81.3741 sf 0 0 m (Events / 200 GeV) show NC gr  341 622 m -22 X s 341 644 m -22 X s 341 659 m -22 X s 341 671 m -22 X s 341 681 m -22 X s 341 690 m -22 X s 341 697 m -22 X s 341 703
 m -22 X s 363 709 m -44 X s
 gsave  2263 1770 2 313 C 300.555 681.832 t 0 r  -36 0 t /Helvetica findfont 64.4212 sf 0 0 m (1) show NC gr  341 746 m -22 X s 341 768 m -22 X s 341 784 m -22 X s 341 796 m -22 X s 341 806 m -22 X s 341 814 m -22 X s 341 822 m -22 X s 341 828 m -22
 X s 363 834 m -44 X s
 gsave  2263 1770 2 313 C 300.555 806.472 t 0 r  -73 0 t /Helvetica findfont 64.4212 sf 0 0 m (10) show NC gr  341 871 m -22 X s 341 893 m -22 X s 341 909 m -22 X s 341 921 m -22 X s 341 931 m -22 X s 341 939 m -22 X s 341 946 m -22 X s 341 953 m -22
 X s 363 958 m -44 X s
 gsave  2263 1770 2 313 C 274.567 955.898 t 0 r /Helvetica findfont 44.0776 sf 0 0 m (2) show NC gr 
 gsave  2263 1770 2 313 C 203.383 928.781 t 0 r /Helvetica findfont 64.4212 sf 0 0 m (10) show NC gr  341 996 m -22 X s 341 1018 m -22 X s 341 1033 m -22 X s 341 1045 m -22 X s 341 1055 m -22 X s 341 1064 m -22 X s 341 1071 m -22 X s 341 1077 m -22 X
 s 363 1083 m -44 X s
 gsave  2263 1770 2 313 C 274.567 1084.71 t 0 r /Helvetica findfont 44.0776 sf 0 0 m (3) show NC gr 
 gsave  2263 1770 2 313 C 203.383 1054.2 t 0 r /Helvetica findfont 64.4212 sf 0 0 m (10) show NC gr  341 1120 m -22 X s 341 1142 m -22 X s 341 1158 m -22 X s 341 1170 m -22 X s 341 1180 m -22 X s 341 1188 m -22 X s 341 1195 m -22 X s 341 1202 m -22 X
 s 363 1208 m -44 X s
 gsave  2263 1770 2 313 C 274.567 1206.74 t 0 r /Helvetica findfont 44.0776 sf 0 0 m (4) show NC gr 
 gsave  2263 1770 2 313 C 203.383 1179.62 t 0 r /Helvetica findfont 64.4212 sf 0 0 m (10) show NC gr  341 1245 m -22 X s 341 1267 m -22 X s 341 1283 m -22 X s 341 1295 m -22 X s 341 1304 m -22 X s 341 1313 m -22 X s 341 1320 m -22 X s 341 1326 m -22
 X s 363 1332 m -44 X s
 gsave  2263 1770 2 313 C 274.567 1332.16 t 0 r /Helvetica findfont 44.0776 sf 0 0 m (5) show NC gr 
 gsave  2263 1770 2 313 C 203.383 1301.65 t 0 r /Helvetica findfont 64.4212 sf 0 0 m (10) show NC gr  341 1370 m -22 X s 341 1392 m -22 X s 341 1407 m -22 X s 341 1419 m -22 X s 341 1429 m -22 X s 341 1437 m -22 X s 341 1445 m -22 X s 341 1451 m -22
 X s 363 1457 m -44 X s
 gsave  2263 1770 2 313 C 274.567 1457.58 t 0 r /Helvetica findfont 44.0776 sf 0 0 m (6) show NC gr 
 gsave  2263 1770 2 313 C 203.383 1427.07 t 0 r /Helvetica findfont 64.4212 sf 0 0 m (10) show NC gr  341 1494 m -22 X s 341 1516 m -22 X s 341 1532 m -22 X s 341 1544 m -22 X s 341 1554 m -22 X s 341 1562 m -22 X s 341 1569 m -22 X s 341 1576 m -22
 X s 363 1581 m -44 X s
 gsave  2263 1770 2 313 C 274.567 1579.61 t 0 r /Helvetica findfont 44.0776 sf 0 0 m (7) show NC gr 
 gsave  2263 1770 2 313 C 203.383 1552.49 t 0 r /Helvetica findfont 64.4212 sf 0 0 m (10) show NC gr  341 1619 m -22 X s 341 1641 m -22 X s 341 1656 m -22 X s 341 1669 m -22 X s 341 1678 m -22 X s 341 1687 m -22 X s 341 1694 m -22 X s 341 1700 m -22
 X s 363 1706 m -44 X s
 gsave  2263 1770 2 313 C 274.567 1708.41 t 0 r /Helvetica findfont 44.0776 sf 0 0 m (8) show NC gr 
 gsave  2263 1770 2 313 C 203.383 1677.91 t 0 r /Helvetica findfont 64.4212 sf 0 0 m (10) show NC gr  2179 584 m 1145 Y s 2157 622 m 22 X s 2157 644 m 22 X s 2157 659 m 22 X s 2157 671 m 22 X s 2157 681 m 22 X s 2157 690 m 22 X s 2157 697 m 22 X s
 2157 703 m 22 X s 2136 709 m 43 X s 2157 746 m 22 X s 2157 768 m 22 X s 2157 784 m 22 X s 2157 796 m 22 X s 2157 806 m 22 X s 2157 814 m 22 X s 2157 822 m 22 X s 2157 828 m 22 X s 2136 834 m 43 X s 2157 871 m 22 X s 2157 893 m 22 X s 2157 909 m 22 X
 s 2157 921 m 22 X s 2157 931 m 22 X s 2157 939 m 22 X s 2157 946 m 22 X s 2157 953 m 22 X s 2136 958 m 43 X s 2157 996 m 22 X s 2157 1018 m 22 X s 2157 1033 m 22 X s 2157 1045 m 22 X s 2157 1055 m 22 X s 2157 1064 m 22 X s 2157 1071 m 22 X s 2157
 1077 m 22 X s 2136 1083 m 43 X s 2157 1120 m 22 X s 2157 1142 m 22 X s 2157 1158 m 22 X s 2157 1170 m 22 X s 2157 1180 m 22 X s 2157 1188 m 22 X s 2157 1195 m 22 X s 2157 1202 m 22 X s 2136 1208 m 43 X s 2157 1245 m 22 X s 2157 1267 m 22 X s 2157
 1283 m 22 X s 2157 1295 m 22 X s 2157 1304 m 22 X s 2157 1313 m 22 X s 2157 1320 m 22 X s 2157 1326 m 22 X s 2136 1332 m 43 X s 2157 1370 m 22 X s 2157 1392 m 22 X s 2157 1407 m 22 X s 2157 1419 m 22 X s 2157 1429 m 22 X s 2157 1437 m 22 X s 2157
 1445 m 22 X s 2157 1451 m 22 X s 2136 1457 m 43 X s 2157 1494 m 22 X s 2157 1516 m 22 X s 2157 1532 m 22 X s 2157 1544 m 22 X s 2157 1554 m 22 X s 2157 1562 m 22 X s 2157 1569 m 22 X s 2157 1576 m 22 X s 2136 1581 m 43 X s 2157 1619 m 22 X s 2157
 1641 m 22 X s 2157 1656 m 22 X s 2157 1669 m 22 X s 2157 1678 m 22 X s 2157 1687 m 22 X s 2157 1694 m 22 X s 2157 1700 m 22 X s 2136 1706 m 43 X s 1 1 0 c black 1 1 0 c 319 584 m 596 Y 110 X -29 Y 109 X -28 Y 109 X -30 Y 110 X -30 Y 109 X -29 Y 110
 X -25 Y 109 X -31 Y 110 X -28 Y 109 X -28 Y 109 X -25 Y 110 X -25 Y 109 X -25 Y 110 X -7 Y 109 X -31 Y 110 X -40 Y 109 X 29 Y 109 X -214 Y f black 1 1 0 c black 319 1180 m 110 X -29 Y 109 X -28 Y 109 X -30 Y 110 X -30 Y 109 X -29 Y 110 X -25 Y 109 X
 -31 Y 110 X -28 Y 109 X -28 Y 109 X -25 Y 110 X -25 Y 109 X -25 Y 110 X -7 Y 109 X -31 Y 110 X -40 Y 109 X 29 Y 109 X s 0.999 0.999 0.999 c black 0.999 0.999 0.999 c 319 584 m 325 Y 110 X -22 Y 109 X -24 Y 109 X -27 Y 110 X -30 Y 109 X -54 Y 110 X
 -22 Y 109 X -16 Y 110 X -43 Y 109 X 20 Y 109 X -53 Y 110 X 40 Y 109 X -45 Y 110 X -49 Y 109 X 42 Y 110 X -42 Y 218 X f black 0.999 0.999 0.999 c black 319 909 m 110 X -22 Y 109 X -24 Y 109 X -27 Y 110 X -30 Y 109 X -54 Y 110 X -22 Y 109 X -16 Y 110
 X -43 Y 109 X 20 Y 109 X -53 Y 110 X 40 Y 109 X -45 Y 110 X -49 Y 109 X 42 Y 110 X -42 Y 218 X s 1 1 1 c black 319 909 m 110 X -22 Y 109 X -24 Y 109 X -27 Y 110 X -30 Y 109 X -54 Y 110 X -22 Y 109 X -16 Y 110 X -43 Y 109 X 20 Y 109 X -53 Y 110 X 40
 Y 109 X -45 Y 110 X -49 Y 109 X 42 Y 110 X -42 Y 218 X s 0.4 0.6 1 c black 0.4 0.6 1 c 319 584 m 325 Y 110 X -22 Y 109 X -24 Y 109 X -27 Y 110 X -30 Y 109 X -54 Y 110 X -22 Y 109 X -16 Y 110 X -43 Y 109 X 20 Y 109 X -53 Y 110 X 40 Y 109 X -45 Y 110
 X -49 Y 109 X 42 Y 110 X -42 Y 218 X f black 0.4 0.6 1 c black 319 909 m 110 X -22 Y 109 X -24 Y 109 X -27 Y 110 X -30 Y 109 X -54 Y 110 X -22 Y 109 X -16 Y 110 X -43 Y 109 X 20 Y 109 X -53 Y 110 X 40 Y 109 X -45 Y 110 X -49 Y 109 X 42 Y 110 X -42 Y
 218 X s 0.999 0.999 0.999 c black 0.999 0.999 0.999 c 319 584 m 276 Y 110 X -9 Y 109 X -20 Y 109 X -49 Y 110 X -29 Y 109 X -70 Y 110 X -45 Y 109 X -2 Y 110 X -52 Y 109 X 81 Y 109 X -81 Y 110 X 80 Y 109 X -60 Y 110 X -20 Y 437 X f black 0.999 0.999
 0.999 c black 319 860 m 110 X -9 Y 109 X -20 Y 109 X -49 Y 110 X -29 Y 109 X -70 Y 110 X -45 Y 109 X -2 Y 110 X -52 Y 109 X 81 Y 109 X -81 Y 110 X 80 Y 109 X -60 Y 110 X -20 Y 437 X s 1 1 1 c black 319 860 m 110 X -9 Y 109 X -20 Y 109 X -49 Y 110 X
 -29 Y 109 X -70 Y 110 X -45 Y 109 X -2 Y 110 X -52 Y 109 X 81 Y 109 X -81 Y 110 X 80 Y 109 X -60 Y 110 X -20 Y 437 X s 0.6 1 0.6 c black 0.6 1 0.6 c 319 584 m 276 Y 110 X -9 Y 109 X -20 Y 109 X -49 Y 110 X -29 Y 109 X -70 Y 110 X -45 Y 109 X -2 Y
 110 X -52 Y 109 X 81 Y 109 X -81 Y 110 X 80 Y 109 X -60 Y 110 X -20 Y 437 X f black 0.6 1 0.6 c black 319 860 m 110 X -9 Y 109 X -20 Y 109 X -49 Y 110 X -29 Y 109 X -70 Y 110 X -45 Y 109 X -2 Y 110 X -52 Y 109 X 81 Y 109 X -81 Y 110 X 80 Y 109 X -60
 Y 110 X -20 Y 437 X s 0.999 0.999 0.999 c black 0.999 0.999 0.999 c 319 584 m 161 Y 110 X -22 Y 109 X -9 Y 109 X 14 Y 110 X -18 Y 109 X -79 Y 110 X -47 Y 1203 X f black 0.999 0.999 0.999 c black 319 745 m 110 X -22 Y 109 X -9 Y 109 X 14 Y 110 X -18
 Y 109 X -79 Y 110 X -47 Y 1203 X s 1 1 1 c black 319 745 m 110 X -22 Y 109 X -9 Y 109 X 14 Y 110 X -18 Y 109 X -79 Y 110 X -47 Y 1203 X s 1 0.4 0.6 c black 1 0.4 0.6 c 319 584 m 161 Y 110 X -22 Y 109 X -9 Y 109 X 14 Y 110 X -18 Y 109 X -79 Y 110 X
 -47 Y 1203 X f black 1 0.4 0.6 c black 319 745 m 110 X -22 Y 109 X -9 Y 109 X 14 Y 110 X -18 Y 109 X -79 Y 110 X -47 Y 1203 X s 1 0 0 c 6 lw 1 1 1 c black 1 0 0 c 319 1180 m 110 X -29 Y 109 X -28 Y 109 X -30 Y 110 X -30 Y 109 X -29 Y 110 X -25 Y 109
 X -31 Y 110 X -28 Y 109 X -28 Y 109 X -25 Y 110 X -25 Y 109 X -25 Y 110 X -7 Y 109 X -31 Y 110 X -40 Y 109 X 29 Y 109 X s black 3 lw 1 0 0 c 1 lw << /PatternType 1 /PaintType 2 /TilingType 1 /BBox [ 0 0 100 100 ] /XStep 100 /YStep 100 /PaintProc {
 begin gsave 0 100 m 100 0 l s gr end } >> [ 0.24 0 0 0.24 0 0 ] makepattern /P05 exch def /cs {[/Pattern /DeviceRGB] setcolorspace} def /FA {f [/DeviceRGB] setcolorspace} def cs 1 0 0 P05 setcolor 319 584 m 597 Y 110 X -29 Y 109 X -28 Y 109 X -30 Y
 110 X -30 Y 109 X -28 Y 110 X -25 Y 109 X -31 Y 110 X -27 Y 109 X -29 Y 109 X -25 Y 110 X -24 Y 109 X -24 Y 110 X -2 Y 109 X -30 Y 110 X -45 Y 109 X 28 Y 109 X -218 Y 210 Y -109 X -32 Y -109 X 35 Y -110 X 33 Y -109 X 14 Y -110 X 25 Y -109 X 25 Y
 -110 X 26 Y -109 X 27 Y -109 X 29 Y -110 X 31 Y -109 X 26 Y -110 X 29 Y -109 X 30 Y -110 X 30 Y -109 X 29 Y -109 X 29 Y -110 X -596 Y FA 6 lw 1 1 1 c 15 lw 1796 786 m -7 Y s 1796 779 m cl s 1906 808 m -1 Y s 1906 807 m cl s 2015 804 m 3 Y s 2015 807
 m cl s 2015 764 m -15 Y s 2015 749 m cl s 2125 794 m -4 Y s 2125 790 m cl s black 1 1 1 c 3 lw /w 43 def /w2 {w 2 div} def /w3 {w 3 div} def 374 1180 483 1152 593 1123 702 1093 812 1063 921 1034 1030 1015 1140 972 1249 938 1359 914 1468 907 1578 874
 1687 843 1796 806 1906 828 2015 784 2125 814 17 { m20} R 15 lw black 6 lw 1 1 1 c black 3 lw /w 33 def /w2 {w 2 div} def /w3 {w 3 div} def 374 1180 m20 6 lw 3 lw 483 1152 m20 6 lw 3 lw 593 1123 m20 6 lw 3 lw 702 1093 m20 6 lw 3 lw 812 1063 m20 6 lw
 3 lw 921 1034 m20 6 lw 3 lw 1030 1015 m20 6 lw 3 lw 1140 972 m20 6 lw 3 lw 1249 938 m20 6 lw 3 lw 1359 914 m20 6 lw 3 lw 1468 907 m20 6 lw 3 lw 1578 874 m20 6 lw 1687 825 m 5 Y s 1687 857 m s 3 lw 1687 843 m20 6 lw 1796 778 m 14 Y s 1796 819 m 5 Y s
 3 lw 1796 806 m20 6 lw 1906 806 m 8 Y s 1906 841 m 2 Y s 3 lw 1906 828 m20 6 lw 2015 746 m 24 Y s 2015 798 m 8 Y s 3 lw 2015 784 m20 6 lw 2125 789 m 12 Y s 2125 828 m 4 Y s 3 lw 2125 814 m20 6 lw 1687 857 m s 1687 857 m cl s 1687 830 m -5 Y s 1687
 825 m cl s 1796 819 m 6 Y s 1796 825 m cl s 1796 792 m -13 Y s 1796 779 m cl s 1906 841 m 3 Y s 1906 844 m cl s 1906 814 m -7 Y s 1906 807 m cl s 2015 798 m 9 Y s 2015 807 m cl s 2015 770 m -21 Y s 2015 749 m cl s 2125 828 m 4 Y s 2125 832 m cl s
 2125 801 m -11 Y s 2125 790 m cl s 3 lw 374 1180 483 1152 593 1123 702 1093 812 1063 921 1034 1030 1015 1140 972 1249 938 1359 914 1468 907 1578 874 1687 843 1796 806 1906 828 2015 784 2125 814 17 { m20} R 6 lw 3 lw 319 584 m 1860 X s 538 584 m cl s
 593 584 m cl s 647 584 m cl s 702 584 m cl s 757 584 m cl s 812 584 m cl s 866 584 m cl s 921 584 m cl s 976 584 m cl s 1030 584 m cl s 1085 584 m cl s 1140 584 m cl s 1195 584 m cl s 1249 584 m cl s 1304 584 m cl s 1359 584 m cl s 1413 584 m cl s
 1468 584 m cl s 1523 584 m cl s 1578 584 m cl s 1632 584 m cl s 1687 584 m cl s 1742 584 m cl s 1796 584 m cl s 1851 584 m cl s 1906 584 m cl s 1961 584 m cl s 2015 584 m cl s 2070 584 m cl s 2125 584 m cl s 2179 584 m cl s 538 584 m cl s 483 584 m
 cl s 429 584 m cl s 374 584 m cl s 319 584 m cl s 319 1729 m 1860 X s 538 1729 m cl s 593 1729 m cl s 647 1729 m cl s 702 1729 m cl s 757 1729 m cl s 812 1729 m cl s 866 1729 m cl s 921 1729 m cl s 976 1729 m cl s 1030 1729 m cl s 1085 1729 m cl s
 1140 1729 m cl s 1195 1729 m cl s 1249 1729 m cl s 1304 1729 m cl s 1359 1729 m cl s 1413 1729 m cl s 1468 1729 m cl s 1523 1729 m cl s 1578 1729 m cl s 1632 1729 m cl s 1687 1729 m cl s 1742 1729 m cl s 1796 1729 m cl s 1851 1729 m cl s 1906 1729 m
 cl s 1961 1729 m cl s 2015 1729 m cl s 2070 1729 m cl s 2125 1729 m cl s 2179 1729 m cl s 538 1729 m cl s 483 1729 m cl s 429 1729 m cl s 374 1729 m cl s 319 1729 m cl s 319 584 m 1145 Y s 341 622 m -22 X s 341 644 m -22 X s 341 659 m -22 X s 341
 671 m -22 X s 341 681 m -22 X s 341 690 m -22 X s 341 697 m -22 X s 341 703 m -22 X s 363 709 m -44 X s 341 746 m -22 X s 341 768 m -22 X s 341 784 m -22 X s 341 796 m -22 X s 341 806 m -22 X s 341 814 m -22 X s 341 822 m -22 X s 341 828 m -22 X s
 363 834 m -44 X s 341 871 m -22 X s 341 893 m -22 X s 341 909 m -22 X s 341 921 m -22 X s 341 931 m -22 X s 341 939 m -22 X s 341 946 m -22 X s 341 953 m -22 X s 363 958 m -44 X s 341 996 m -22 X s 341 1018 m -22 X s 341 1033 m -22 X s 341 1045 m
 -22 X s 341 1055 m -22 X s 341 1064 m -22 X s 341 1071 m -22 X s 341 1077 m -22 X s 363 1083 m -44 X s 341 1120 m -22 X s 341 1142 m -22 X s 341 1158 m -22 X s 341 1170 m -22 X s 341 1180 m -22 X s 341 1188 m -22 X s 341 1195 m -22 X s 341 1202 m
 -22 X s 363 1208 m -44 X s 341 1245 m -22 X s 341 1267 m -22 X s 341 1283 m -22 X s 341 1295 m -22 X s 341 1304 m -22 X s 341 1313 m -22 X s 341 1320 m -22 X s 341 1326 m -22 X s 363 1332 m -44 X s 341 1370 m -22 X s 341 1392 m -22 X s 341 1407 m
 -22 X s 341 1419 m -22 X s 341 1429 m -22 X s 341 1437 m -22 X s 341 1445 m -22 X s 341 1451 m -22 X s 363 1457 m -44 X s 341 1494 m -22 X s 341 1516 m -22 X s 341 1532 m -22 X s 341 1544 m -22 X s 341 1554 m -22 X s 341 1562 m -22 X s 341 1569 m
 -22 X s 341 1576 m -22 X s 363 1581 m -44 X s 341 1619 m -22 X s 341 1641 m -22 X s 341 1656 m -22 X s 341 1669 m -22 X s 341 1678 m -22 X s 341 1687 m -22 X s 341 1694 m -22 X s 341 1700 m -22 X s 363 1706 m -44 X s 2179 584 m 1145 Y s 2157 622 m
 22 X s 2157 644 m 22 X s 2157 659 m 22 X s 2157 671 m 22 X s 2157 681 m 22 X s 2157 690 m 22 X s 2157 697 m 22 X s 2157 703 m 22 X s 2136 709 m 43 X s 2157 746 m 22 X s 2157 768 m 22 X s 2157 784 m 22 X s 2157 796 m 22 X s 2157 806 m 22 X s 2157 814
 m 22 X s 2157 822 m 22 X s 2157 828 m 22 X s 2136 834 m 43 X s 2157 871 m 22 X s 2157 893 m 22 X s 2157 909 m 22 X s 2157 921 m 22 X s 2157 931 m 22 X s 2157 939 m 22 X s 2157 946 m 22 X s 2157 953 m 22 X s 2136 958 m 43 X s 2157 996 m 22 X s 2157
 1018 m 22 X s 2157 1033 m 22 X s 2157 1045 m 22 X s 2157 1055 m 22 X s 2157 1064 m 22 X s 2157 1071 m 22 X s 2157 1077 m 22 X s 2136 1083 m 43 X s 2157 1120 m 22 X s 2157 1142 m 22 X s 2157 1158 m 22 X s 2157 1170 m 22 X s 2157 1180 m 22 X s 2157
 1188 m 22 X s 2157 1195 m 22 X s 2157 1202 m 22 X s 2136 1208 m 43 X s 2157 1245 m 22 X s 2157 1267 m 22 X s 2157 1283 m 22 X s 2157 1295 m 22 X s 2157 1304 m 22 X s 2157 1313 m 22 X s 2157 1320 m 22 X s 2157 1326 m 22 X s 2136 1332 m 43 X s 2157
 1370 m 22 X s 2157 1392 m 22 X s 2157 1407 m 22 X s 2157 1419 m 22 X s 2157 1429 m 22 X s 2157 1437 m 22 X s 2157 1445 m 22 X s 2157 1451 m 22 X s 2136 1457 m 43 X s 2157 1494 m 22 X s 2157 1516 m 22 X s 2157 1532 m 22 X s 2157 1544 m 22 X s 2157
 1554 m 22 X s 2157 1562 m 22 X s 2157 1569 m 22 X s 2157 1576 m 22 X s 2136 1581 m 43 X s 2157 1619 m 22 X s 2157 1641 m 22 X s 2157 1656 m 22 X s 2157 1669 m 22 X s 2157 1678 m 22 X s 2157 1687 m 22 X s 2157 1694 m 22 X s 2157 1700 m 22 X s 2136
 1706 m 43 X s
 gsave  2263 1770 2 313 C 406.765 1447.41 t 0 r /Helvetica findfont 64.4212 sf 0 0 m (CRY for MB\255C) show NC gr 
 gsave  2263 1770 2 313 C 1464.36 1616.89 t 0 r /Helvetica findfont 64.4212 sf 0 0 m (SM Total) show NC gr  1 1 1 c 1338 1603 m 107 X 74 Y -107 X f 1 0 0 c 6 lw 1338 1640 m 107 X s black
 gsave  2263 1770 2 313 C 1464.36 1511.81 t 0 r /Helvetica findfont 64.4212 sf 0 0 m (Data) show NC gr  1391 1502 m 64 Y s 3 lw 1391 1534 m20 6 lw
 gsave  2263 1770 2 313 C 1464.36 1406.73 t 0 r /Helvetica findfont 64.4212 sf 0 0 m (GAMMAjets) show NC gr  1 1 0 c 3 lw 1338 1391 m 107 X 74 Y -107 X f 6 lw black 3 lw 1338 1465 m 107 X s 1338 1391 m 107 X s 1445 1391 m 74 Y s 1338 1391 m 74 Y s
 gsave  2263 1770 2 313 C 1464.36 1298.26 t 0 r /Helvetica findfont 64.4212 sf 0 0 m (W+jets) show NC gr  0.4 0.6 1 c 1338 1284 m 107 X 75 Y -107 X f black 1338 1359 m 107 X s 1338 1284 m 107 X s 1445 1284 m 75 Y s 1338 1284 m 75 Y s
 gsave  2263 1770 2 313 C 1498.25 1193.18 t 0 r /Helvetica findfont 64.4212 sf 0 0 m (\(+EW\) & single top) show NC gr 
 gsave  2263 1770 2 313 C 1481.3 1193.18 t 0 r /Helvetica findfont 64.4212 sf 0 0 m (t) show NC gr  1481 1244 m 17 X s
 gsave  2263 1770 2 313 C 1464.36 1193.18 t 0 r /Helvetica findfont 64.4212 sf 0 0 m (t) show NC gr  0.6 1 0.6 c 1338 1178 m 107 X 75 Y -107 X f black 1338 1253 m 107 X s 1338 1178 m 107 X s 1445 1178 m 75 Y s 1338 1178 m 75 Y s
 gsave  2263 1770 2 313 C 1464.36 1088.1 t 0 r /Helvetica findfont 64.4212 sf 0 0 m (Diboson) show NC gr  1 0.4 0.6 c 1338 1072 m 107 X 74 Y -107 X f black 1338 1146 m 107 X s 1338 1072 m 107 X s 1445 1072 m 74 Y s 1338 1072 m 74 Y s
 gsave  2263 1770 2 313 C 911.832 1566.05 t 0 r /Helvetica findfont 44.0776 sf 0 0 m (\2551) show NC gr 
 gsave  2263 1770 2 313 C 471.17 1535.54 t 0 r /Helvetica findfont 64.4212 sf 0 0 m (=13TeV, 139 fb) show NC gr 
 gsave  2263 1770 2 313 C 440.662 1535.54 t 0 r /Helvetica findfont 64.4212 sf 0 0 m (s) show NC gr  6 lw 420 1573 m 7 -41 d s 3 lw 427 1532 m 7 61 d s 434 1593 m 37 X s 1 1 1 c 2254 561 2 2 bf black 1 1 1 c black 1860 358 318 187 bl 1 1 1 c black
 1860 358 318 187 bl 6 lw 1 1 1 c black 3 lw 373 364 m20 6 lw 3 lw 482 368 m20 6 lw 3 lw 591 368 m20 6 lw 3 lw 701 368 m20 6 lw 3 lw 810 365 m20 6 lw 3 lw 920 366 m20 6 lw 3 lw 1029 385 m20 6 lw 3 lw 1139 349 m20 6 lw 3 lw 1248 334 m20 6 lw 3 lw 1358
 343 m20 6 lw 3 lw 1467 401 m20 6 lw 3 lw 1576 370 m20 6 lw 3 lw 1686 355 m20 6 lw 3 lw 1795 289 m20 6 lw 3 lw 1905 434 m20 6 lw 3 lw 2014 420 m20 6 lw 3 lw 2124 422 m20 6 lw 3 lw 318 187 m 1860 X s
 gsave  2254 561 2 2 C 1959.25 33.8971 t 0 r /Helvetica findfont 78.1689 sf 0 0 m ( [GeV]) show NC gr 
 gsave  2254 561 2 2 C 1901.63 13.5588 t 0 r /Helvetica findfont 50.9797 sf 0 0 m (eff) show NC gr 
 gsave  2254 561 2 2 C 1840.61 33.8971 t 0 r /Helvetica findfont 78.1689 sf 0 0 m (m) show NC gr  537 201 m -14 Y s 591 194 m -7 Y s 646 194 m -7 Y s 701 194 m -7 Y s 756 194 m -7 Y s 810 201 m -14 Y s 865 194 m -7 Y s 920 194 m -7 Y s 975 194 m -7 Y
 s 1029 194 m -7 Y s 1084 201 m -14 Y s 1139 194 m -7 Y s 1193 194 m -7 Y s 1248 194 m -7 Y s 1303 194 m -7 Y s 1358 201 m -14 Y s 1412 194 m -7 Y s 1467 194 m -7 Y s 1522 194 m -7 Y s 1576 194 m -7 Y s 1631 201 m -14 Y s 1686 194 m -7 Y s 1741 194 m
 -7 Y s 1795 194 m -7 Y s 1850 194 m -7 Y s 1905 201 m -14 Y s 1959 194 m -7 Y s 2014 194 m -7 Y s 2069 194 m -7 Y s 2124 194 m -7 Y s 2178 201 m -14 Y s 537 201 m -14 Y s 482 194 m -7 Y s 427 194 m -7 Y s 373 194 m -7 Y s 318 194 m -7 Y s
 gsave  2254 561 2 2 C 447.442 118.64 t 0 r /Helvetica findfont 78.1689 sf 0 0 m (2000) show NC gr 
 gsave  2254 561 2 2 C 722.008 118.64 t 0 r /Helvetica findfont 78.1689 sf 0 0 m (2500) show NC gr 
 gsave  2254 561 2 2 C 993.185 118.64 t 0 r /Helvetica findfont 78.1689 sf 0 0 m (3000) show NC gr 
 gsave  2254 561 2 2 C 1267.75 118.64 t 0 r /Helvetica findfont 78.1689 sf 0 0 m (3500) show NC gr 
 gsave  2254 561 2 2 C 1542.32 118.64 t 0 r /Helvetica findfont 78.1689 sf 0 0 m (4000) show NC gr 
 gsave  2254 561 2 2 C 1813.5 118.64 t 0 r /Helvetica findfont 78.1689 sf 0 0 m (4500) show NC gr 
 gsave  2254 561 2 2 C 2088.06 118.64 t 0 r /Helvetica findfont 78.1689 sf 0 0 m (5000) show NC gr  318 545 m 1860 X s 537 531 m 14 Y s 591 538 m 7 Y s 646 538 m 7 Y s 701 538 m 7 Y s 756 538 m 7 Y s 810 531 m 14 Y s 865 538 m 7 Y s 920 538 m 7 Y s
 975 538 m 7 Y s 1029 538 m 7 Y s 1084 531 m 14 Y s 1139 538 m 7 Y s 1193 538 m 7 Y s 1248 538 m 7 Y s 1303 538 m 7 Y s 1358 531 m 14 Y s 1412 538 m 7 Y s 1467 538 m 7 Y s 1522 538 m 7 Y s 1576 538 m 7 Y s 1631 531 m 14 Y s 1686 538 m 7 Y s 1741 538
 m 7 Y s 1795 538 m 7 Y s 1850 538 m 7 Y s 1905 531 m 14 Y s 1959 538 m 7 Y s 2014 538 m 7 Y s 2069 538 m 7 Y s 2124 538 m 7 Y s 2178 531 m 14 Y s 537 531 m 14 Y s 482 538 m 7 Y s 427 538 m 7 Y s 373 538 m 7 Y s 318 538 m 7 Y s 318 187 m 358 Y s
 gsave  2254 561 2 2 C 166.096 284.736 t 90 r /Helvetica findfont 67.9729 sf 0 0 m (Data/SM) show NC gr  361 203 m -43 X s 339 220 m -21 X s 339 236 m -21 X s 339 252 m -21 X s 339 268 m -21 X s 361 285 m -43 X s 339 301 m -21 X s 339 317 m -21 X s
 339 334 m -21 X s 339 350 m -21 X s 361 366 m -43 X s 339 382 m -21 X s 339 399 m -21 X s 339 415 m -21 X s 339 431 m -21 X s 361 447 m -43 X s 339 464 m -21 X s 339 480 m -21 X s 339 496 m -21 X s 339 512 m -21 X s 361 529 m -43 X s 361 203 m -43 X
 s 339 187 m -21 X s 361 529 m -43 X s
 gsave  2254 561 2 2 C 261.008 183.044 t 0 r /Helvetica findfont 57.777 sf 0 0 m (0) show NC gr 
 gsave  2254 561 2 2 C 213.552 261.008 t 0 r /Helvetica findfont 57.777 sf 0 0 m (0.5) show NC gr 
 gsave  2254 561 2 2 C 271.177 342.361 t 0 r /Helvetica findfont 57.777 sf 0 0 m (1) show NC gr 
 gsave  2254 561 2 2 C 213.552 423.714 t 0 r /Helvetica findfont 57.777 sf 0 0 m (1.5) show NC gr 
 gsave  2254 561 2 2 C 261.008 505.067 t 0 r /Helvetica findfont 57.777 sf 0 0 m (2) show NC gr  2178 187 m 358 Y s 2135 203 m 43 X s 2157 220 m 21 X s 2157 236 m 21 X s 2157 252 m 21 X s 2157 268 m 21 X s 2135 285 m 43 X s 2157 301 m 21 X s 2157 317
 m 21 X s 2157 334 m 21 X s 2157 350 m 21 X s 2135 366 m 43 X s 2157 382 m 21 X s 2157 399 m 21 X s 2157 415 m 21 X s 2157 431 m 21 X s 2135 447 m 43 X s 2157 464 m 21 X s 2157 480 m 21 X s 2157 496 m 21 X s 2157 512 m 21 X s 2135 529 m 43 X s 2135
 203 m 43 X s 2157 187 m 21 X s 2135 529 m 43 X s 9 lw 1248 348 m 2 Y s 1248 350 m cl s 1248 321 m -3 Y s 1248 318 m cl s 1358 357 m 7 Y s 1358 364 m cl s 1358 330 m -8 Y s 1358 322 m cl s 1467 414 m 19 Y s 1467 433 m cl s 1467 387 m -17 Y s 1467 370
 m cl s 1576 384 m 23 Y s 1576 407 m cl s 1576 357 m -23 Y s 1576 334 m cl s 1686 369 m 31 Y s 1686 400 m cl s 1686 342 m -30 Y s 1686 312 m cl s 1795 303 m 23 Y s 1795 326 m cl s 1795 276 m -21 Y s 1795 255 m cl s 1905 447 m 66 Y s 1905 513 m cl s
 1905 420 m -61 Y s 1905 359 m cl s 2014 433 m 103 Y s 2014 536 m cl s 2014 406 m -89 Y s 2014 317 m cl s 2124 435 m 72 Y s 2124 507 m cl s 2124 408 m -67 Y s 2124 341 m cl s 3 lw 373 364 482 368 591 368 701 368 810 365 920 366 1029 385 1139 349 1248
 334 1358 343 1467 401 1576 370 1686 355 1795 289 1905 434 2014 420 2124 422 17 { m20} R 9 lw 1 0 0 c 6 lw black 3 lw 1 0 0 c 2178 227 m s 2178 255 m s 2178 284 m s 2178 312 m s 2178 341 m s 2178 369 m -16 -16 d s 2159 379 m -26 -26 d s 2130 379 m
 -25 -26 d s 2102 379 m -26 -26 d s 2073 379 m -30 -31 d s 2049 384 m -35 -36 d s 2020 384 m -35 -36 d s 1992 384 m -51 -51 d s 1963 384 m -51 -51 d s 1950 399 m -66 -66 d s 1921 399 m -66 -66 d s 1892 399 m -61 -61 d s 1864 399 m -62 -61 d s 1831
 394 m -58 -56 d s 1802 394 m -57 -56 d s 1773 394 m -39 -39 d s 1744 394 m -3 -3 d s 1727 377 m -22 -22 d s 1698 377 m -21 -22 d s 1669 377 m -21 -22 d s 1640 377 m -19 -20 d s 1610 375 m -18 -18 d s 1581 375 m -17 -18 d s 1553 375 m -18 -18 d s
 1524 375 m -16 -16 d s 1494 373 m -15 -14 d s 1465 373 m -15 -14 d s 1436 373 m -14 -14 d s 1406 372 m -12 -12 d s 1378 372 m -13 -12 d s 1349 372 m -12 -12 d s 1320 372 m -12 -12 d s 1293 374 m -15 -16 d s 1265 374 m -16 -16 d s 1236 374 m -16 -16
 d s 1207 374 m -14 -14 d s 1176 371 m -10 -10 d s 1147 371 m -10 -10 d s 1118 371 m -10 -10 d s 1090 371 m -11 -11 d s 1062 372 m -12 -12 d s 1033 372 m -11 -12 d s 1004 372 m -11 -12 d s 975 372 m -1 Y s 974 370 m -8 -8 d s 946 370 m -9 -8 d s 917
 370 m -9 -8 d s 888 370 m -8 -8 d s 858 369 m -6 -6 d s 830 369 m -7 -6 d s 801 369 m -6 -6 d s 772 369 m -6 -6 d s 743 369 m -6 -6 d s 715 369 m -6 -6 d s 686 369 m -6 -6 d s 657 369 m -6 -6 d s 629 369 m -7 -6 d s 600 369 m -6 -6 d s 572 369 m -7
 -6 d s 543 369 m -6 -6 d s 512 368 m -3 -3 d s 484 368 m -3 -3 d s 455 368 m -3 -3 d s 318 231 m s 426 368 m -3 -3 d s 318 259 m s 398 368 m -3 -3 d s 318 288 m s 369 368 m -3 -3 d s 318 317 m s 340 368 m -3 -3 d s 318 345 m s 6 lw black[ 4 8] 0 sd
 3 lw 318 447 m 1860 X s 318 285 m 1860 X s 1 0 0 c[  12 12 ] 0 sd 6 lw 318 366 m 1860 X s
 gr  gr showpage
end
%%EOF
