%!PS-Adobe-2.0 EPSF-2.0
%%BoundingBox:  0 0 567 521
%%Title: Distributions/meffInc_distrCRW_MB-GGd_afterFit_forThesis.eps: canvas
%%Creator: ROOT Version 6.04/16
%%CreationDate: Tue May 19 22:04:18 2020
%%DocumentNeededResources: ProcSet (FontSetInit)
%%EndComments
%%BeginProlog
80 dict begin
/s {stroke} def /l {lineto} def /m {moveto} def /t {translate} def
/r {rotate} def /rl {roll}  def /R {repeat} def
/d {rlineto} def /rm {rmoveto} def /gr {grestore} def /f {eofill} def
/c {setrgbcolor} def /black {0 setgray} def /sd {setdash} def
/cl {closepath} def /sf {scalefont setfont} def /lw {setlinewidth} def
/box {m dup 0 exch d exch 0 d 0 exch neg d cl} def
/NC{systemdict begin initclip end}def/C{NC box clip newpath}def
/bl {box s} def /bf {gsave box gsave f grestore 1 lw [] 0 sd s grestore} def /Y { 0 exch d} def /X { 0 d} def 
/K {{pop pop 0 moveto} exch kshow} bind def
/ita {/ang 15 def gsave [1 0 ang dup sin exch cos div 1 0 0] concat} def 
/mp {newpath /y exch def /x exch def} def
/side {[w .77 mul w .23 mul] .385 w mul sd w 0 l currentpoint t -144 r} def
/mr {mp x y w2 0 360 arc} def /m24 {mr s} def /m20 {mr f} def
/mb {mp x y w2 add m w2 neg 0 d 0 w neg d w 0 d 0 w d cl} def
/mt {mp x y w2 add m w2 neg w neg d w 0 d cl} def
/m21 {mb f} def /m25 {mb s} def /m22 {mt f} def /m26{mt s} def
/m23 {mp x y w2 sub m w2 w d w neg 0 d cl f} def
/m27 {mp x y w2 add m w3 neg w2 neg d w3 w2 neg d w3 w2 d cl s} def
/m28 {mp x w2 sub y w2 sub w3 add m w3 0 d  0 w3 neg d w3 0 d 0 w3 d w3 0 d  0 w3 d w3 neg 0 d 0 w3 d w3 neg 0 d 0 w3 neg d w3 neg 0 d cl s } def
/m29 {mp gsave x w2 sub y w2 add w3 sub m currentpoint t 4 {side} repeat cl fill gr} def
/m30 {mp gsave x w2 sub y w2 add w3 sub m currentpoint t 4 {side} repeat cl s gr} def
/m31 {mp x y w2 sub m 0 w d x w2 sub y m w 0 d x w2 sub y w2 add m w w neg d x w2 sub y w2 sub m w w d s} def
/m32 {mp x y w2 sub m w2 w d w neg 0 d cl s} def
/m33 {mp x y w2 add m w3 neg w2 neg d w3 w2 neg d w3 w2 d cl f} def
/m34 {mp x w2 sub y w2 sub w3 add m w3 0 d  0 w3 neg d w3 0 d 0 w3 d w3 0 d  0 w3 d w3 neg 0 d 0 w3 d w3 neg 0 d 0 w3 neg d w3 neg 0 d cl f } def
/m2 {mp x y w2 sub m 0 w d x w2 sub y m w 0 d s} def
/m5 {mp x w2 sub y w2 sub m w w d x w2 sub y w2 add m w w neg d s} def
%%IncludeResource: ProcSet (FontSetInit)
%%IncludeResource: font Times-Roman
%%IncludeResource: font Times-Italic
%%IncludeResource: font Times-Bold
%%IncludeResource: font Times-BoldItalic
%%IncludeResource: font Helvetica
%%IncludeResource: font Helvetica-Oblique
%%IncludeResource: font Helvetica-Bold
%%IncludeResource: font Helvetica-BoldOblique
%%IncludeResource: font Courier
%%IncludeResource: font Courier-Oblique
%%IncludeResource: font Courier-Bold
%%IncludeResource: font Courier-BoldOblique
%%IncludeResource: font Symbol
%%IncludeResource: font ZapfDingbats
/reEncode {exch findfont dup length dict begin {1 index /FID eq  {pop pop} {def} ifelse } forall /Encoding exch def currentdict end dup /FontName get exch definefont pop } def [/Times-Bold /Times-Italic /Times-BoldItalic /Helvetica /Helvetica-Oblique
 /Helvetica-Bold /Helvetica-BoldOblique /Courier /Courier-Oblique /Courier-Bold /Courier-BoldOblique /Times-Roman /AvantGarde-Book /AvantGarde-BookOblique /AvantGarde-Demi /AvantGarde-DemiOblique /Bookman-Demi /Bookman-DemiItalic /Bookman-Light
 /Bookman-LightItalic /Helvetica-Narrow /Helvetica-Narrow-Bold /Helvetica-Narrow-BoldOblique /Helvetica-Narrow-Oblique /NewCenturySchlbk-Roman /NewCenturySchlbk-Bold /NewCenturySchlbk-BoldItalic /NewCenturySchlbk-Italic /Palatino-Bold
 /Palatino-BoldItalic /Palatino-Italic /Palatino-Roman ] {ISOLatin1Encoding reEncode } forall
%%EndProlog
%%BeginSetup
%%EndSetup
newpath  gsave  .25 .25 scale  gsave  0 0 t black[  ] 0 sd 3 lw 1 1 1 c 2268 2085 0 0 bf black 1 1 1 c 2263 1770 2 313 bf black 1 1 1 c black 1860 1145 319 584 bl 1 1 1 c black 1860 1145 319 584 bl 6 lw 1 1 1 c black 3 lw /w 33 def /w2 {w 2 div} def
 /w3 {w 3 div} def 381 1175 m20 6 lw 3 lw 505 1189 m20 6 lw 3 lw 629 1168 m20 6 lw 3 lw 753 1144 m20 6 lw 3 lw 877 1116 m20 6 lw 3 lw 1001 1092 m20 6 lw 3 lw 1125 1062 m20 6 lw 3 lw 1249 1040 m20 6 lw 3 lw 1373 1003 m20 6 lw 1497 924 m 4 Y s 1497 955
 m s 3 lw 1497 941 m20 6 lw 1621 947 m 1 Y s 3 lw 1621 961 m20 6 lw 1745 907 m 6 Y s 1745 940 m 1 Y s 3 lw 1745 926 m20 6 lw 1869 916 m 4 Y s 1869 948 m s 3 lw 1869 934 m20 6 lw 1993 808 m 26 Y s 1993 861 m 12 Y s 3 lw 1993 848 m20 6 lw 2117 884 m 9
 Y s 2117 920 m 4 Y s 3 lw 2117 907 m20 6 lw 3 lw 319 584 m 1860 X s
 gsave  2263 1770 2 313 C 1949.08 369.478 t 0 r /Helvetica findfont 81.3741 sf 0 0 m ( [GeV]) show NC gr 
 gsave  2263 1770 2 313 C 1888.07 342.361 t 0 r /Helvetica findfont 54.2494 sf 0 0 m (eff) show NC gr 
 gsave  2263 1770 2 313 C 1823.66 369.478 t 0 r /Helvetica findfont 81.3741 sf 0 0 m (m) show NC gr  319 584 m cl s 381 584 m cl s 443 584 m cl s 505 584 m cl s 567 584 m cl s 629 584 m cl s 691 584 m cl s 753 584 m cl s 815 584 m cl s 877 584 m cl s
 939 584 m cl s 1001 584 m cl s 1063 584 m cl s 1125 584 m cl s 1187 584 m cl s 1249 584 m cl s 1311 584 m cl s 1373 584 m cl s 1435 584 m cl s 1497 584 m cl s 1559 584 m cl s 1621 584 m cl s 1683 584 m cl s 1745 584 m cl s 1807 584 m cl s 1869 584 m
 cl s 1931 584 m cl s 1993 584 m cl s 2055 584 m cl s 2117 584 m cl s 2179 584 m cl s 319 1729 m 1860 X s 319 1729 m cl s 381 1729 m cl s 443 1729 m cl s 505 1729 m cl s 567 1729 m cl s 629 1729 m cl s 691 1729 m cl s 753 1729 m cl s 815 1729 m cl s
 877 1729 m cl s 939 1729 m cl s 1001 1729 m cl s 1063 1729 m cl s 1125 1729 m cl s 1187 1729 m cl s 1249 1729 m cl s 1311 1729 m cl s 1373 1729 m cl s 1435 1729 m cl s 1497 1729 m cl s 1559 1729 m cl s 1621 1729 m cl s 1683 1729 m cl s 1745 1729 m
 cl s 1807 1729 m cl s 1869 1729 m cl s 1931 1729 m cl s 1993 1729 m cl s 2055 1729 m cl s 2117 1729 m cl s 2179 1729 m cl s 319 584 m 1145 Y s
 gsave  2263 1770 2 313 C 166.096 1091.49 t 90 r /Helvetica findfont 81.3741 sf 0 0 m (Events / 200 GeV) show NC gr  341 631 m -22 X s 341 658 m -22 X s 341 678 m -22 X s 341 693 m -22 X s 341 705 m -22 X s 341 715 m -22 X s 341 724 m -22 X s 341 732
 m -22 X s 363 739 m -44 X s
 gsave  2263 1770 2 313 C 300.555 712.253 t 0 r  -36 0 t /Helvetica findfont 64.4212 sf 0 0 m (1) show NC gr  341 786 m -22 X s 341 813 m -22 X s 341 833 m -22 X s 341 848 m -22 X s 341 860 m -22 X s 341 870 m -22 X s 341 879 m -22 X s 341 887 m -22
 X s 363 894 m -44 X s
 gsave  2263 1770 2 313 C 300.555 867.314 t 0 r  -73 0 t /Helvetica findfont 64.4212 sf 0 0 m (10) show NC gr  341 941 m -22 X s 341 968 m -22 X s 341 988 m -22 X s 341 1003 m -22 X s 341 1015 m -22 X s 341 1025 m -22 X s 341 1034 m -22 X s 341 1042
 m -22 X s 363 1049 m -44 X s
 gsave  2263 1770 2 313 C 274.567 1047.42 t 0 r /Helvetica findfont 44.0776 sf 0 0 m (2) show NC gr 
 gsave  2263 1770 2 313 C 203.383 1020.3 t 0 r /Helvetica findfont 64.4212 sf 0 0 m (10) show NC gr  341 1096 m -22 X s 341 1123 m -22 X s 341 1143 m -22 X s 341 1158 m -22 X s 341 1170 m -22 X s 341 1181 m -22 X s 341 1190 m -22 X s 341 1197 m -22 X
 s 363 1205 m -44 X s
 gsave  2263 1770 2 313 C 274.567 1206.74 t 0 r /Helvetica findfont 44.0776 sf 0 0 m (3) show NC gr 
 gsave  2263 1770 2 313 C 203.383 1176.23 t 0 r /Helvetica findfont 64.4212 sf 0 0 m (10) show NC gr  341 1251 m -22 X s 341 1279 m -22 X s 341 1298 m -22 X s 341 1313 m -22 X s 341 1325 m -22 X s 341 1336 m -22 X s 341 1345 m -22 X s 341 1353 m -22
 X s 363 1360 m -44 X s
 gsave  2263 1770 2 313 C 274.567 1359.27 t 0 r /Helvetica findfont 44.0776 sf 0 0 m (4) show NC gr 
 gsave  2263 1770 2 313 C 203.383 1332.16 t 0 r /Helvetica findfont 64.4212 sf 0 0 m (10) show NC gr  341 1406 m -22 X s 341 1434 m -22 X s 341 1453 m -22 X s 341 1468 m -22 X s 341 1480 m -22 X s 341 1491 m -22 X s 341 1500 m -22 X s 341 1508 m -22
 X s 363 1515 m -44 X s
 gsave  2263 1770 2 313 C 274.567 1515.2 t 0 r /Helvetica findfont 44.0776 sf 0 0 m (5) show NC gr 
 gsave  2263 1770 2 313 C 203.383 1484.69 t 0 r /Helvetica findfont 64.4212 sf 0 0 m (10) show NC gr  341 1561 m -22 X s 341 1589 m -22 X s 341 1608 m -22 X s 341 1623 m -22 X s 341 1635 m -22 X s 341 1646 m -22 X s 341 1655 m -22 X s 341 1663 m -22
 X s 363 1670 m -44 X s
 gsave  2263 1770 2 313 C 274.567 1671.13 t 0 r /Helvetica findfont 44.0776 sf 0 0 m (6) show NC gr 
 gsave  2263 1770 2 313 C 203.383 1640.62 t 0 r /Helvetica findfont 64.4212 sf 0 0 m (10) show NC gr  341 1716 m -22 X s 2179 584 m 1145 Y s 2157 631 m 22 X s 2157 658 m 22 X s 2157 678 m 22 X s 2157 693 m 22 X s 2157 705 m 22 X s 2157 715 m 22 X s
 2157 724 m 22 X s 2157 732 m 22 X s 2136 739 m 43 X s 2157 786 m 22 X s 2157 813 m 22 X s 2157 833 m 22 X s 2157 848 m 22 X s 2157 860 m 22 X s 2157 870 m 22 X s 2157 879 m 22 X s 2157 887 m 22 X s 2136 894 m 43 X s 2157 941 m 22 X s 2157 968 m 22 X
 s 2157 988 m 22 X s 2157 1003 m 22 X s 2157 1015 m 22 X s 2157 1025 m 22 X s 2157 1034 m 22 X s 2157 1042 m 22 X s 2136 1049 m 43 X s 2157 1096 m 22 X s 2157 1123 m 22 X s 2157 1143 m 22 X s 2157 1158 m 22 X s 2157 1170 m 22 X s 2157 1181 m 22 X s
 2157 1190 m 22 X s 2157 1197 m 22 X s 2136 1205 m 43 X s 2157 1251 m 22 X s 2157 1279 m 22 X s 2157 1298 m 22 X s 2157 1313 m 22 X s 2157 1325 m 22 X s 2157 1336 m 22 X s 2157 1345 m 22 X s 2157 1353 m 22 X s 2136 1360 m 43 X s 2157 1406 m 22 X s
 2157 1434 m 22 X s 2157 1453 m 22 X s 2157 1468 m 22 X s 2157 1480 m 22 X s 2157 1491 m 22 X s 2157 1500 m 22 X s 2157 1508 m 22 X s 2136 1515 m 43 X s 2157 1561 m 22 X s 2157 1589 m 22 X s 2157 1608 m 22 X s 2157 1623 m 22 X s 2157 1635 m 22 X s
 2157 1646 m 22 X s 2157 1655 m 22 X s 2157 1663 m 22 X s 2136 1670 m 43 X s 2157 1716 m 22 X s 0.4 0.6 1 c black 0.4 0.6 1 c 319 584 m 583 Y 124 X 22 Y 124 X -16 Y 124 X -28 Y 124 X -25 Y 124 X -25 Y 124 X -33 Y 124 X -28 Y 124 X -27 Y 124 X -29 Y
 124 X -31 Y 124 X -33 Y 124 X -27 Y 124 X -29 Y 124 X 61 Y 124 X -335 Y f black 0.4 0.6 1 c black 319 1167 m 124 X 22 Y 124 X -16 Y 124 X -28 Y 124 X -25 Y 124 X -25 Y 124 X -33 Y 124 X -28 Y 124 X -27 Y 124 X -29 Y 124 X -31 Y 124 X -33 Y 124 X -27
 Y 124 X -29 Y 124 X 61 Y 124 X s 0.999 0.999 0.999 c black 0.999 0.999 0.999 c 319 584 m 487 Y 124 X 17 Y 124 X -18 Y 124 X -32 Y 124 X -28 Y 124 X -25 Y 124 X -45 Y 124 X -27 Y 124 X -24 Y 124 X -37 Y 124 X -32 Y 124 X -33 Y 124 X -16 Y 124 X -34 Y
 124 X 48 Y 124 X -201 Y f black 0.999 0.999 0.999 c black 319 1071 m 124 X 17 Y 124 X -18 Y 124 X -32 Y 124 X -28 Y 124 X -25 Y 124 X -45 Y 124 X -27 Y 124 X -24 Y 124 X -37 Y 124 X -32 Y 124 X -33 Y 124 X -16 Y 124 X -34 Y 124 X 48 Y 124 X s 1 1 1
 c black 319 1071 m 124 X 17 Y 124 X -18 Y 124 X -32 Y 124 X -28 Y 124 X -25 Y 124 X -45 Y 124 X -27 Y 124 X -24 Y 124 X -37 Y 124 X -32 Y 124 X -33 Y 124 X -16 Y 124 X -34 Y 124 X 48 Y 124 X s 0.6 1 0.6 c black 0.6 1 0.6 c 319 584 m 487 Y 124 X 17 Y
 124 X -18 Y 124 X -32 Y 124 X -28 Y 124 X -25 Y 124 X -45 Y 124 X -27 Y 124 X -24 Y 124 X -37 Y 124 X -32 Y 124 X -33 Y 124 X -16 Y 124 X -34 Y 124 X 48 Y 124 X -201 Y f black 0.6 1 0.6 c black 319 1071 m 124 X 17 Y 124 X -18 Y 124 X -32 Y 124 X -28
 Y 124 X -25 Y 124 X -45 Y 124 X -27 Y 124 X -24 Y 124 X -37 Y 124 X -32 Y 124 X -33 Y 124 X -16 Y 124 X -34 Y 124 X 48 Y 124 X s 0.999 0.999 0.999 c black 0.999 0.999 0.999 c 319 584 m 403 Y 124 X 22 Y 124 X -12 Y 124 X -20 Y 124 X -23 Y 124 X -24 Y
 124 X -33 Y 124 X -20 Y 124 X -13 Y 124 X -40 Y 124 X -31 Y 124 X -31 Y 124 X -4 Y 124 X -35 Y 124 X 4 Y 124 X -143 Y f black 0.999 0.999 0.999 c black 319 987 m 124 X 22 Y 124 X -12 Y 124 X -20 Y 124 X -23 Y 124 X -24 Y 124 X -33 Y 124 X -20 Y 124
 X -13 Y 124 X -40 Y 124 X -31 Y 124 X -31 Y 124 X -4 Y 124 X -35 Y 124 X 4 Y 124 X s 1 1 1 c black 319 987 m 124 X 22 Y 124 X -12 Y 124 X -20 Y 124 X -23 Y 124 X -24 Y 124 X -33 Y 124 X -20 Y 124 X -13 Y 124 X -40 Y 124 X -31 Y 124 X -31 Y 124 X -4
 Y 124 X -35 Y 124 X 4 Y 124 X s 1 0.8 0.4 c black 1 0.8 0.4 c 319 584 m 403 Y 124 X 22 Y 124 X -12 Y 124 X -20 Y 124 X -23 Y 124 X -24 Y 124 X -33 Y 124 X -20 Y 124 X -13 Y 124 X -40 Y 124 X -31 Y 124 X -31 Y 124 X -4 Y 124 X -35 Y 124 X 4 Y 124 X
 -143 Y f black 1 0.8 0.4 c black 319 987 m 124 X 22 Y 124 X -12 Y 124 X -20 Y 124 X -23 Y 124 X -24 Y 124 X -33 Y 124 X -20 Y 124 X -13 Y 124 X -40 Y 124 X -31 Y 124 X -31 Y 124 X -4 Y 124 X -35 Y 124 X 4 Y 124 X s 0.999 0.999 0.999 c black 0.999
 0.999 0.999 c 319 584 m 396 Y 124 X 23 Y 124 X -11 Y 124 X -22 Y 124 X -23 Y 124 X -23 Y 124 X -32 Y 124 X -21 Y 124 X -11 Y 124 X -41 Y 124 X -30 Y 124 X -32 Y 124 X -1 Y 124 X -75 Y 124 X 37 Y 124 X -134 Y f black 0.999 0.999 0.999 c black 319 980
 m 124 X 23 Y 124 X -11 Y 124 X -22 Y 124 X -23 Y 124 X -23 Y 124 X -32 Y 124 X -21 Y 124 X -11 Y 124 X -41 Y 124 X -30 Y 124 X -32 Y 124 X -1 Y 124 X -75 Y 124 X 37 Y 124 X s 1 1 1 c black 319 980 m 124 X 23 Y 124 X -11 Y 124 X -22 Y 124 X -23 Y 124
 X -23 Y 124 X -32 Y 124 X -21 Y 124 X -11 Y 124 X -41 Y 124 X -30 Y 124 X -32 Y 124 X -1 Y 124 X -75 Y 124 X 37 Y 124 X s 1 0.4 0.6 c black 1 0.4 0.6 c 319 584 m 396 Y 124 X 23 Y 124 X -11 Y 124 X -22 Y 124 X -23 Y 124 X -23 Y 124 X -32 Y 124 X -21
 Y 124 X -11 Y 124 X -41 Y 124 X -30 Y 124 X -32 Y 124 X -1 Y 124 X -75 Y 124 X 37 Y 124 X -134 Y f black 1 0.4 0.6 c black 319 980 m 124 X 23 Y 124 X -11 Y 124 X -22 Y 124 X -23 Y 124 X -23 Y 124 X -32 Y 124 X -21 Y 124 X -11 Y 124 X -41 Y 124 X -30
 Y 124 X -32 Y 124 X -1 Y 124 X -75 Y 124 X 37 Y 124 X s 1 0 0 c 6 lw 1 1 1 c black 1 0 0 c 319 1167 m 124 X 22 Y 124 X -16 Y 124 X -28 Y 124 X -25 Y 124 X -25 Y 124 X -33 Y 124 X -28 Y 124 X -27 Y 124 X -29 Y 124 X -31 Y 124 X -33 Y 124 X -27 Y 124
 X -29 Y 124 X 61 Y 124 X s black 3 lw 1 0 0 c 1 lw << /PatternType 1 /PaintType 2 /TilingType 1 /BBox [ 0 0 100 100 ] /XStep 100 /YStep 100 /PaintProc { begin gsave 0 100 m 100 0 l s gr end } >> [ 0.24 0 0 0.24 0 0 ] makepattern /P05 exch def /cs
 {[/Pattern /DeviceRGB] setcolorspace} def /FA {f [/DeviceRGB] setcolorspace} def cs 1 0 0 P05 setcolor 319 584 m 586 Y 124 X 21 Y 124 X -17 Y 124 X -27 Y 124 X -26 Y 124 X -24 Y 124 X -32 Y 124 X -28 Y 124 X -28 Y 124 X -27 Y 124 X -30 Y 124 X -33 Y
 124 X -25 Y 124 X -29 Y 124 X 64 Y 124 X -345 Y 322 Y -124 X -57 Y -124 X 30 Y -124 X 30 Y -124 X 33 Y -124 X 31 Y -124 X 31 Y -124 X 27 Y -124 X 29 Y -124 X 33 Y -124 X 25 Y -124 X 26 Y -124 X 27 Y -124 X 16 Y -124 X -22 Y -124 X -581 Y FA 6 lw 1 1
 1 c 15 lw 1993 868 m 6 Y s 1993 874 m cl s 1993 827 m -17 Y s 1993 810 m cl s 2117 886 m -2 Y s 2117 884 m cl s black 1 1 1 c 3 lw /w 43 def /w2 {w 2 div} def /w3 {w 3 div} def 381 1175 505 1189 629 1168 753 1144 877 1116 1001 1092 1125 1062 1249
 1040 1373 1003 1497 941 1621 961 1745 926 1869 934 1993 848 2117 907 15 { m20} R 15 lw black 6 lw 1 1 1 c black 3 lw /w 33 def /w2 {w 2 div} def /w3 {w 3 div} def 381 1175 m20 6 lw 3 lw 505 1189 m20 6 lw 3 lw 629 1168 m20 6 lw 3 lw 753 1144 m20 6 lw
 3 lw 877 1116 m20 6 lw 3 lw 1001 1092 m20 6 lw 3 lw 1125 1062 m20 6 lw 3 lw 1249 1040 m20 6 lw 3 lw 1373 1003 m20 6 lw 1497 924 m 4 Y s 1497 955 m s 3 lw 1497 941 m20 6 lw 1621 947 m 1 Y s 3 lw 1621 961 m20 6 lw 1745 907 m 6 Y s 1745 940 m 1 Y s 3
 lw 1745 926 m20 6 lw 1869 916 m 4 Y s 1869 948 m s 3 lw 1869 934 m20 6 lw 1993 808 m 26 Y s 1993 861 m 12 Y s 3 lw 1993 848 m20 6 lw 2117 884 m 9 Y s 2117 920 m 4 Y s 3 lw 2117 907 m20 6 lw 1497 955 m s 1497 955 m cl s 1497 928 m -4 Y s 1497 924 m
 cl s 1621 948 m -1 Y s 1621 947 m cl s 1745 940 m 1 Y s 1745 941 m cl s 1745 913 m -6 Y s 1745 907 m cl s 1869 948 m s 1869 948 m cl s 1869 920 m -4 Y s 1869 916 m cl s 1993 861 m 13 Y s 1993 874 m cl s 1993 834 m -24 Y s 1993 810 m cl s 2117 920 m
 4 Y s 2117 924 m cl s 2117 893 m -9 Y s 2117 884 m cl s 3 lw 381 1175 505 1189 629 1168 753 1144 877 1116 1001 1092 1125 1062 1249 1040 1373 1003 1497 941 1621 961 1745 926 1869 934 1993 848 2117 907 15 { m20} R 6 lw 3 lw 319 584 m 1860 X s 319 584
 m cl s 381 584 m cl s 443 584 m cl s 505 584 m cl s 567 584 m cl s 629 584 m cl s 691 584 m cl s 753 584 m cl s 815 584 m cl s 877 584 m cl s 939 584 m cl s 1001 584 m cl s 1063 584 m cl s 1125 584 m cl s 1187 584 m cl s 1249 584 m cl s 1311 584 m
 cl s 1373 584 m cl s 1435 584 m cl s 1497 584 m cl s 1559 584 m cl s 1621 584 m cl s 1683 584 m cl s 1745 584 m cl s 1807 584 m cl s 1869 584 m cl s 1931 584 m cl s 1993 584 m cl s 2055 584 m cl s 2117 584 m cl s 2179 584 m cl s 319 1729 m 1860 X s
 319 1729 m cl s 381 1729 m cl s 443 1729 m cl s 505 1729 m cl s 567 1729 m cl s 629 1729 m cl s 691 1729 m cl s 753 1729 m cl s 815 1729 m cl s 877 1729 m cl s 939 1729 m cl s 1001 1729 m cl s 1063 1729 m cl s 1125 1729 m cl s 1187 1729 m cl s 1249
 1729 m cl s 1311 1729 m cl s 1373 1729 m cl s 1435 1729 m cl s 1497 1729 m cl s 1559 1729 m cl s 1621 1729 m cl s 1683 1729 m cl s 1745 1729 m cl s 1807 1729 m cl s 1869 1729 m cl s 1931 1729 m cl s 1993 1729 m cl s 2055 1729 m cl s 2117 1729 m cl s
 2179 1729 m cl s 319 584 m 1145 Y s 341 631 m -22 X s 341 658 m -22 X s 341 678 m -22 X s 341 693 m -22 X s 341 705 m -22 X s 341 715 m -22 X s 341 724 m -22 X s 341 732 m -22 X s 363 739 m -44 X s 341 786 m -22 X s 341 813 m -22 X s 341 833 m -22 X
 s 341 848 m -22 X s 341 860 m -22 X s 341 870 m -22 X s 341 879 m -22 X s 341 887 m -22 X s 363 894 m -44 X s 341 941 m -22 X s 341 968 m -22 X s 341 988 m -22 X s 341 1003 m -22 X s 341 1015 m -22 X s 341 1025 m -22 X s 341 1034 m -22 X s 341 1042
 m -22 X s 363 1049 m -44 X s 341 1096 m -22 X s 341 1123 m -22 X s 341 1143 m -22 X s 341 1158 m -22 X s 341 1170 m -22 X s 341 1181 m -22 X s 341 1190 m -22 X s 341 1197 m -22 X s 363 1205 m -44 X s 341 1251 m -22 X s 341 1279 m -22 X s 341 1298 m
 -22 X s 341 1313 m -22 X s 341 1325 m -22 X s 341 1336 m -22 X s 341 1345 m -22 X s 341 1353 m -22 X s 363 1360 m -44 X s 341 1406 m -22 X s 341 1434 m -22 X s 341 1453 m -22 X s 341 1468 m -22 X s 341 1480 m -22 X s 341 1491 m -22 X s 341 1500 m
 -22 X s 341 1508 m -22 X s 363 1515 m -44 X s 341 1561 m -22 X s 341 1589 m -22 X s 341 1608 m -22 X s 341 1623 m -22 X s 341 1635 m -22 X s 341 1646 m -22 X s 341 1655 m -22 X s 341 1663 m -22 X s 363 1670 m -44 X s 341 1716 m -22 X s 2179 584 m
 1145 Y s 2157 631 m 22 X s 2157 658 m 22 X s 2157 678 m 22 X s 2157 693 m 22 X s 2157 705 m 22 X s 2157 715 m 22 X s 2157 724 m 22 X s 2157 732 m 22 X s 2136 739 m 43 X s 2157 786 m 22 X s 2157 813 m 22 X s 2157 833 m 22 X s 2157 848 m 22 X s 2157
 860 m 22 X s 2157 870 m 22 X s 2157 879 m 22 X s 2157 887 m 22 X s 2136 894 m 43 X s 2157 941 m 22 X s 2157 968 m 22 X s 2157 988 m 22 X s 2157 1003 m 22 X s 2157 1015 m 22 X s 2157 1025 m 22 X s 2157 1034 m 22 X s 2157 1042 m 22 X s 2136 1049 m 43
 X s 2157 1096 m 22 X s 2157 1123 m 22 X s 2157 1143 m 22 X s 2157 1158 m 22 X s 2157 1170 m 22 X s 2157 1181 m 22 X s 2157 1190 m 22 X s 2157 1197 m 22 X s 2136 1205 m 43 X s 2157 1251 m 22 X s 2157 1279 m 22 X s 2157 1298 m 22 X s 2157 1313 m 22 X
 s 2157 1325 m 22 X s 2157 1336 m 22 X s 2157 1345 m 22 X s 2157 1353 m 22 X s 2136 1360 m 43 X s 2157 1406 m 22 X s 2157 1434 m 22 X s 2157 1453 m 22 X s 2157 1468 m 22 X s 2157 1480 m 22 X s 2157 1491 m 22 X s 2157 1500 m 22 X s 2157 1508 m 22 X s
 2136 1515 m 43 X s 2157 1561 m 22 X s 2157 1589 m 22 X s 2157 1608 m 22 X s 2157 1623 m 22 X s 2157 1635 m 22 X s 2157 1646 m 22 X s 2157 1655 m 22 X s 2157 1663 m 22 X s 2136 1670 m 43 X s 2157 1716 m 22 X s
 gsave  2263 1770 2 313 C 406.765 1447.41 t 0 r /Helvetica findfont 64.4212 sf 0 0 m (CRW for MB\255GGd) show NC gr 
 gsave  2263 1770 2 313 C 1464.36 1616.89 t 0 r /Helvetica findfont 64.4212 sf 0 0 m (SM Total) show NC gr  1 1 1 c 1338 1603 m 107 X 74 Y -107 X f 1 0 0 c 6 lw 1338 1640 m 107 X s black
 gsave  2263 1770 2 313 C 1464.36 1511.81 t 0 r /Helvetica findfont 64.4212 sf 0 0 m (Data) show NC gr  1391 1502 m 64 Y s 3 lw 1391 1534 m20 6 lw
 gsave  2263 1770 2 313 C 1464.36 1406.73 t 0 r /Helvetica findfont 64.4212 sf 0 0 m (W+jets) show NC gr  0.4 0.6 1 c 3 lw 1338 1391 m 107 X 74 Y -107 X f 6 lw black 3 lw 1338 1465 m 107 X s 1338 1391 m 107 X s 1445 1391 m 74 Y s 1338 1391 m 74 Y s
 gsave  2263 1770 2 313 C 1498.25 1298.26 t 0 r /Helvetica findfont 64.4212 sf 0 0 m (\(+EW\) & single top) show NC gr 
 gsave  2263 1770 2 313 C 1481.3 1298.26 t 0 r /Helvetica findfont 64.4212 sf 0 0 m (t) show NC gr  1481 1349 m 17 X s
 gsave  2263 1770 2 313 C 1464.36 1298.26 t 0 r /Helvetica findfont 64.4212 sf 0 0 m (t) show NC gr  0.6 1 0.6 c 1338 1284 m 107 X 75 Y -107 X f black 1338 1359 m 107 X s 1338 1284 m 107 X s 1445 1284 m 75 Y s 1338 1284 m 75 Y s
 gsave  2263 1770 2 313 C 1464.36 1193.18 t 0 r /Helvetica findfont 64.4212 sf 0 0 m (Z+jets) show NC gr  1 0.8 0.4 c 1338 1178 m 107 X 75 Y -107 X f black 1338 1253 m 107 X s 1338 1178 m 107 X s 1445 1178 m 75 Y s 1338 1178 m 75 Y s
 gsave  2263 1770 2 313 C 1464.36 1088.1 t 0 r /Helvetica findfont 64.4212 sf 0 0 m (Diboson) show NC gr  1 0.4 0.6 c 1338 1072 m 107 X 74 Y -107 X f black 1338 1146 m 107 X s 1338 1072 m 107 X s 1445 1072 m 74 Y s 1338 1072 m 74 Y s
 gsave  2263 1770 2 313 C 911.832 1566.05 t 0 r /Helvetica findfont 44.0776 sf 0 0 m (\2551) show NC gr 
 gsave  2263 1770 2 313 C 471.17 1535.54 t 0 r /Helvetica findfont 64.4212 sf 0 0 m (=13TeV, 139 fb) show NC gr 
 gsave  2263 1770 2 313 C 440.662 1535.54 t 0 r /Helvetica findfont 64.4212 sf 0 0 m (s) show NC gr  6 lw 420 1573 m 7 -41 d s 3 lw 427 1532 m 7 61 d s 434 1593 m 37 X s 1 1 1 c 2254 561 2 2 bf black 1 1 1 c black 1860 358 318 187 bl 1 1 1 c black
 1860 358 318 187 bl 6 lw 1 1 1 c black 3 lw 380 386 m20 6 lw 3 lw 504 367 m20 6 lw 3 lw 628 355 m20 6 lw 3 lw 752 364 m20 6 lw 3 lw 876 358 m20 6 lw 3 lw 1000 359 m20 6 lw 3 lw 1124 366 m20 6 lw 3 lw 1248 381 m20 6 lw 3 lw 1372 357 m20 6 lw 3 lw
 1496 298 m20 6 lw 3 lw 1620 404 m20 6 lw 3 lw 1744 397 m20 6 lw 3 lw 1868 529 m20 6 lw 3 lw 1992 344 m20 6 lw 3 lw 2116 340 m20 6 lw 3 lw 318 187 m 1860 X s
 gsave  2254 561 2 2 C 1959.25 33.8971 t 0 r /Helvetica findfont 78.1689 sf 0 0 m ( [GeV]) show NC gr 
 gsave  2254 561 2 2 C 1901.63 13.5588 t 0 r /Helvetica findfont 50.9797 sf 0 0 m (eff) show NC gr 
 gsave  2254 561 2 2 C 1840.61 33.8971 t 0 r /Helvetica findfont 78.1689 sf 0 0 m (m) show NC gr  318 201 m -14 Y s 380 194 m -7 Y s 442 194 m -7 Y s 504 194 m -7 Y s 566 194 m -7 Y s 628 201 m -14 Y s 690 194 m -7 Y s 752 194 m -7 Y s 814 194 m -7 Y
 s 876 194 m -7 Y s 938 201 m -14 Y s 1000 194 m -7 Y s 1062 194 m -7 Y s 1124 194 m -7 Y s 1186 194 m -7 Y s 1248 201 m -14 Y s 1310 194 m -7 Y s 1372 194 m -7 Y s 1434 194 m -7 Y s 1496 194 m -7 Y s 1558 201 m -14 Y s 1620 194 m -7 Y s 1682 194 m
 -7 Y s 1744 194 m -7 Y s 1806 194 m -7 Y s 1868 201 m -14 Y s 1930 194 m -7 Y s 1992 194 m -7 Y s 2054 194 m -7 Y s 2116 194 m -7 Y s 2178 201 m -14 Y s
 gsave  2254 561 2 2 C 227.111 118.64 t 0 r /Helvetica findfont 78.1689 sf 0 0 m (1000) show NC gr 
 gsave  2254 561 2 2 C 538.964 118.64 t 0 r /Helvetica findfont 78.1689 sf 0 0 m (1500) show NC gr 
 gsave  2254 561 2 2 C 847.428 118.64 t 0 r /Helvetica findfont 78.1689 sf 0 0 m (2000) show NC gr 
 gsave  2254 561 2 2 C 1159.28 118.64 t 0 r /Helvetica findfont 78.1689 sf 0 0 m (2500) show NC gr 
 gsave  2254 561 2 2 C 1467.74 118.64 t 0 r /Helvetica findfont 78.1689 sf 0 0 m (3000) show NC gr 
 gsave  2254 561 2 2 C 1779.6 118.64 t 0 r /Helvetica findfont 78.1689 sf 0 0 m (3500) show NC gr 
 gsave  2254 561 2 2 C 2088.06 118.64 t 0 r /Helvetica findfont 78.1689 sf 0 0 m (4000) show NC gr  318 545 m 1860 X s 318 531 m 14 Y s 380 538 m 7 Y s 442 538 m 7 Y s 504 538 m 7 Y s 566 538 m 7 Y s 628 531 m 14 Y s 690 538 m 7 Y s 752 538 m 7 Y s
 814 538 m 7 Y s 876 538 m 7 Y s 938 531 m 14 Y s 1000 538 m 7 Y s 1062 538 m 7 Y s 1124 538 m 7 Y s 1186 538 m 7 Y s 1248 531 m 14 Y s 1310 538 m 7 Y s 1372 538 m 7 Y s 1434 538 m 7 Y s 1496 538 m 7 Y s 1558 531 m 14 Y s 1620 538 m 7 Y s 1682 538 m
 7 Y s 1744 538 m 7 Y s 1806 538 m 7 Y s 1868 531 m 14 Y s 1930 538 m 7 Y s 1992 538 m 7 Y s 2054 538 m 7 Y s 2116 538 m 7 Y s 2178 531 m 14 Y s 318 187 m 358 Y s
 gsave  2254 561 2 2 C 166.096 284.736 t 90 r /Helvetica findfont 67.9729 sf 0 0 m (Data/SM) show NC gr  361 203 m -43 X s 339 220 m -21 X s 339 236 m -21 X s 339 252 m -21 X s 339 268 m -21 X s 361 285 m -43 X s 339 301 m -21 X s 339 317 m -21 X s
 339 334 m -21 X s 339 350 m -21 X s 361 366 m -43 X s 339 382 m -21 X s 339 399 m -21 X s 339 415 m -21 X s 339 431 m -21 X s 361 447 m -43 X s 339 464 m -21 X s 339 480 m -21 X s 339 496 m -21 X s 339 512 m -21 X s 361 529 m -43 X s 361 203 m -43 X
 s 339 187 m -21 X s 361 529 m -43 X s
 gsave  2254 561 2 2 C 261.008 183.044 t 0 r /Helvetica findfont 57.777 sf 0 0 m (0) show NC gr 
 gsave  2254 561 2 2 C 213.552 261.008 t 0 r /Helvetica findfont 57.777 sf 0 0 m (0.5) show NC gr 
 gsave  2254 561 2 2 C 271.177 342.361 t 0 r /Helvetica findfont 57.777 sf 0 0 m (1) show NC gr 
 gsave  2254 561 2 2 C 213.552 423.714 t 0 r /Helvetica findfont 57.777 sf 0 0 m (1.5) show NC gr 
 gsave  2254 561 2 2 C 261.008 505.067 t 0 r /Helvetica findfont 57.777 sf 0 0 m (2) show NC gr  2178 187 m 358 Y s 2135 203 m 43 X s 2157 220 m 21 X s 2157 236 m 21 X s 2157 252 m 21 X s 2157 268 m 21 X s 2135 285 m 43 X s 2157 301 m 21 X s 2157 317
 m 21 X s 2157 334 m 21 X s 2157 350 m 21 X s 2135 366 m 43 X s 2157 382 m 21 X s 2157 399 m 21 X s 2157 415 m 21 X s 2157 431 m 21 X s 2135 447 m 43 X s 2157 464 m 21 X s 2157 480 m 21 X s 2157 496 m 21 X s 2157 512 m 21 X s 2135 529 m 43 X s 2135
 203 m 43 X s 2157 187 m 21 X s 2135 529 m 43 X s 9 lw 1124 380 m 1 Y s 1124 381 m cl s 1124 352 m -1 Y s 1124 351 m cl s 1248 395 m 5 Y s 1248 400 m cl s 1248 368 m -6 Y s 1248 362 m cl s 1372 371 m 8 Y s 1372 379 m cl s 1372 344 m -8 Y s 1372 336 m
 cl s 1496 311 m 8 Y s 1496 319 m cl s 1496 284 m -7 Y s 1496 277 m cl s 1620 418 m 25 Y s 1620 443 m cl s 1620 390 m -24 Y s 1620 366 m cl s 1744 410 m 36 Y s 1744 446 m cl s 1744 383 m -34 Y s 1744 349 m cl s 1868 543 m 2 Y s 1868 545 m cl s 1868
 516 m -63 Y s 1868 453 m cl s 1992 357 m 53 Y s 1992 410 m cl s 1992 330 m -47 Y s 1992 283 m cl s 2116 353 m 27 Y s 2116 380 m cl s 2116 326 m -25 Y s 2116 301 m cl s 3 lw 380 386 504 367 628 355 752 364 876 358 1000 359 1124 366 1248 381 1372 357
 1496 298 1620 404 1744 397 1868 529 1992 344 2116 340 15 { m20} R 9 lw 1 0 0 c 6 lw black 3 lw 1 0 0 c 2178 227 m s 2178 255 m s 2178 284 m s 2178 312 m s 2178 341 m -2 -2 d s 2178 369 m -30 -30 d s 2173 393 m -54 -54 d s 2145 393 m -55 -54 d s 2116
 393 m -54 -54 d s 2087 393 m -47 -47 d s 2059 393 m -5 -4 d s 2052 386 m -41 -40 d s 2023 386 m -40 -40 d s 1994 386 m -40 -40 d s 1966 386 m -39 -38 d s 1937 386 m -39 -38 d s 1906 384 m -36 -36 d s 1878 384 m -37 -36 d s 1849 384 m -37 -36 d s
 1820 384 m -31 -30 d s 1786 378 m -25 -24 d s 1757 378 m -25 -24 d s 1728 378 m -25 -24 d s 1700 378 m -25 -24 d s 1671 378 m -25 -24 d s 1642 378 m -24 -24 d s 1613 378 m -24 -24 d s 1585 378 m -25 -24 d s 1555 377 m -22 -22 d s 1526 377 m -22 -22
 d s 1498 377 m -23 -22 d s 1469 377 m -23 -22 d s 1440 377 m -18 -18 d s 1407 373 m -14 -14 d s 1378 373 m -13 -14 d s 1350 373 m -14 -14 d s 1321 373 m -13 -13 d s 1292 372 m -13 -12 d s 1263 372 m -13 -12 d s 1235 372 m -13 -12 d s 1206 372 m -13
 -12 d s 1177 372 m -13 -12 d s 1148 372 m -12 -12 d s 1120 372 m -13 -12 d s 1091 372 m -13 -12 d s 1062 372 m s 1061 371 m -10 -10 d s 1032 371 m -10 -10 d s 1004 371 m -10 -10 d s 975 371 m -10 -10 d s 946 371 m -9 -9 d s 916 370 m -7 -8 d s 888
 370 m -8 -8 d s 859 370 m -8 -8 d s 830 370 m -7 -8 d s 802 370 m -8 -8 d s 773 370 m -8 -8 d s 744 370 m -7 -8 d s 716 370 m -8 -8 d s 687 370 m -8 -8 d s 658 370 m -8 -8 d s 630 370 m -8 -8 d s 601 370 m -8 -8 d s 572 370 m -8 -8 d s 544 370 m -8
 -8 d s 515 370 m -8 -8 d s 486 370 m -8 -8 d s 458 370 m -9 -8 d s 318 231 m s 430 371 m -10 -10 d s 318 259 m s 401 371 m -10 -10 d s 318 288 m s 373 371 m -11 -10 d s 318 317 m s 344 371 m -11 -10 d s 318 345 m s 6 lw black[ 4 8] 0 sd 3 lw 318 447
 m 1860 X s 318 285 m 1860 X s 1 0 0 c[  12 12 ] 0 sd 6 lw 318 366 m 1860 X s
 gr  gr showpage
end
%%EOF
