%!PS-Adobe-2.0 EPSF-2.0
%%BoundingBox:  0 0 567 521
%%Title: Distributions/meffInc_distrVR0LdPhi_MB-SSd_afterFit_forThesis.eps: canvas
%%Creator: ROOT Version 6.04/16
%%CreationDate: Tue May 19 22:04:44 2020
%%DocumentNeededResources: ProcSet (FontSetInit)
%%EndComments
%%BeginProlog
80 dict begin
/s {stroke} def /l {lineto} def /m {moveto} def /t {translate} def
/r {rotate} def /rl {roll}  def /R {repeat} def
/d {rlineto} def /rm {rmoveto} def /gr {grestore} def /f {eofill} def
/c {setrgbcolor} def /black {0 setgray} def /sd {setdash} def
/cl {closepath} def /sf {scalefont setfont} def /lw {setlinewidth} def
/box {m dup 0 exch d exch 0 d 0 exch neg d cl} def
/NC{systemdict begin initclip end}def/C{NC box clip newpath}def
/bl {box s} def /bf {gsave box gsave f grestore 1 lw [] 0 sd s grestore} def /Y { 0 exch d} def /X { 0 d} def 
/K {{pop pop 0 moveto} exch kshow} bind def
/ita {/ang 15 def gsave [1 0 ang dup sin exch cos div 1 0 0] concat} def 
/mp {newpath /y exch def /x exch def} def
/side {[w .77 mul w .23 mul] .385 w mul sd w 0 l currentpoint t -144 r} def
/mr {mp x y w2 0 360 arc} def /m24 {mr s} def /m20 {mr f} def
/mb {mp x y w2 add m w2 neg 0 d 0 w neg d w 0 d 0 w d cl} def
/mt {mp x y w2 add m w2 neg w neg d w 0 d cl} def
/m21 {mb f} def /m25 {mb s} def /m22 {mt f} def /m26{mt s} def
/m23 {mp x y w2 sub m w2 w d w neg 0 d cl f} def
/m27 {mp x y w2 add m w3 neg w2 neg d w3 w2 neg d w3 w2 d cl s} def
/m28 {mp x w2 sub y w2 sub w3 add m w3 0 d  0 w3 neg d w3 0 d 0 w3 d w3 0 d  0 w3 d w3 neg 0 d 0 w3 d w3 neg 0 d 0 w3 neg d w3 neg 0 d cl s } def
/m29 {mp gsave x w2 sub y w2 add w3 sub m currentpoint t 4 {side} repeat cl fill gr} def
/m30 {mp gsave x w2 sub y w2 add w3 sub m currentpoint t 4 {side} repeat cl s gr} def
/m31 {mp x y w2 sub m 0 w d x w2 sub y m w 0 d x w2 sub y w2 add m w w neg d x w2 sub y w2 sub m w w d s} def
/m32 {mp x y w2 sub m w2 w d w neg 0 d cl s} def
/m33 {mp x y w2 add m w3 neg w2 neg d w3 w2 neg d w3 w2 d cl f} def
/m34 {mp x w2 sub y w2 sub w3 add m w3 0 d  0 w3 neg d w3 0 d 0 w3 d w3 0 d  0 w3 d w3 neg 0 d 0 w3 d w3 neg 0 d 0 w3 neg d w3 neg 0 d cl f } def
/m2 {mp x y w2 sub m 0 w d x w2 sub y m w 0 d s} def
/m5 {mp x w2 sub y w2 sub m w w d x w2 sub y w2 add m w w neg d s} def
%%IncludeResource: ProcSet (FontSetInit)
%%IncludeResource: font Times-Roman
%%IncludeResource: font Times-Italic
%%IncludeResource: font Times-Bold
%%IncludeResource: font Times-BoldItalic
%%IncludeResource: font Helvetica
%%IncludeResource: font Helvetica-Oblique
%%IncludeResource: font Helvetica-Bold
%%IncludeResource: font Helvetica-BoldOblique
%%IncludeResource: font Courier
%%IncludeResource: font Courier-Oblique
%%IncludeResource: font Courier-Bold
%%IncludeResource: font Courier-BoldOblique
%%IncludeResource: font Symbol
%%IncludeResource: font ZapfDingbats
/reEncode {exch findfont dup length dict begin {1 index /FID eq  {pop pop} {def} ifelse } forall /Encoding exch def currentdict end dup /FontName get exch definefont pop } def [/Times-Bold /Times-Italic /Times-BoldItalic /Helvetica /Helvetica-Oblique
 /Helvetica-Bold /Helvetica-BoldOblique /Courier /Courier-Oblique /Courier-Bold /Courier-BoldOblique /Times-Roman /AvantGarde-Book /AvantGarde-BookOblique /AvantGarde-Demi /AvantGarde-DemiOblique /Bookman-Demi /Bookman-DemiItalic /Bookman-Light
 /Bookman-LightItalic /Helvetica-Narrow /Helvetica-Narrow-Bold /Helvetica-Narrow-BoldOblique /Helvetica-Narrow-Oblique /NewCenturySchlbk-Roman /NewCenturySchlbk-Bold /NewCenturySchlbk-BoldItalic /NewCenturySchlbk-Italic /Palatino-Bold
 /Palatino-BoldItalic /Palatino-Italic /Palatino-Roman ] {ISOLatin1Encoding reEncode } forall
%%EndProlog
%%BeginSetup
%%EndSetup
newpath  gsave  .25 .25 scale  gsave  0 0 t black[  ] 0 sd 3 lw 1 1 1 c 2268 2085 0 0 bf black 1 1 1 c 2263 1770 2 313 bf black 1 1 1 c black 1860 1145 319 584 bl 1 1 1 c black 1860 1145 319 584 bl 6 lw 1 1 1 c black 3 lw /w 33 def /w2 {w 2 div} def
 /w3 {w 3 div} def 459 1166 m20 6 lw 3 lw 552 1182 m20 6 lw 3 lw 645 1151 m20 6 lw 3 lw 738 1113 m20 6 lw 3 lw 831 1066 m20 6 lw 3 lw 924 1027 m20 6 lw 1017 946 m 2 Y s 3 lw 1017 962 m20 6 lw 1110 911 m 7 Y s 1110 945 m 1 Y s 3 lw 1110 931 m20 6 lw
 1203 895 m 8 Y s 1203 930 m 4 Y s 3 lw 1203 917 m20 6 lw 1296 789 m 34 Y s 1296 850 m 14 Y s 3 lw 1296 836 m20 6 lw 1389 705 m 70 Y s 1389 803 m 23 Y s 3 lw 1389 789 m20 6 lw 1482 758 m 45 Y s 1482 830 m 18 Y s 3 lw 1482 817 m20 6 lw 1947 584 m 144
 Y s 1947 755 m 34 Y s 3 lw 1947 742 m20 6 lw 3 lw 319 584 m 1860 X s
 gsave  2263 1770 2 313 C 1949.08 369.478 t 0 r /Helvetica findfont 81.3741 sf 0 0 m ( [GeV]) show NC gr 
 gsave  2263 1770 2 313 C 1888.07 342.361 t 0 r /Helvetica findfont 54.2494 sf 0 0 m (eff) show NC gr 
 gsave  2263 1770 2 313 C 1823.66 369.478 t 0 r /Helvetica findfont 81.3741 sf 0 0 m (m) show NC gr  319 584 m cl s 366 584 m cl s 412 584 m cl s 459 584 m cl s 505 584 m cl s 552 584 m cl s 598 584 m cl s 645 584 m cl s 691 584 m cl s 738 584 m cl s
 784 584 m cl s 831 584 m cl s 877 584 m cl s 924 584 m cl s 970 584 m cl s 1017 584 m cl s 1063 584 m cl s 1110 584 m cl s 1156 584 m cl s 1203 584 m cl s 1249 584 m cl s 1296 584 m cl s 1342 584 m cl s 1389 584 m cl s 1435 584 m cl s 1482 584 m cl
 s 1528 584 m cl s 1575 584 m cl s 1621 584 m cl s 1668 584 m cl s 1714 584 m cl s 1761 584 m cl s 1807 584 m cl s 1854 584 m cl s 1900 584 m cl s 1947 584 m cl s 1993 584 m cl s 2040 584 m cl s 2086 584 m cl s 2133 584 m cl s 2179 584 m cl s 319
 1729 m 1860 X s 319 1729 m cl s 366 1729 m cl s 412 1729 m cl s 459 1729 m cl s 505 1729 m cl s 552 1729 m cl s 598 1729 m cl s 645 1729 m cl s 691 1729 m cl s 738 1729 m cl s 784 1729 m cl s 831 1729 m cl s 877 1729 m cl s 924 1729 m cl s 970 1729
 m cl s 1017 1729 m cl s 1063 1729 m cl s 1110 1729 m cl s 1156 1729 m cl s 1203 1729 m cl s 1249 1729 m cl s 1296 1729 m cl s 1342 1729 m cl s 1389 1729 m cl s 1435 1729 m cl s 1482 1729 m cl s 1528 1729 m cl s 1575 1729 m cl s 1621 1729 m cl s 1668
 1729 m cl s 1714 1729 m cl s 1761 1729 m cl s 1807 1729 m cl s 1854 1729 m cl s 1900 1729 m cl s 1947 1729 m cl s 1993 1729 m cl s 2040 1729 m cl s 2086 1729 m cl s 2133 1729 m cl s 2179 1729 m cl s 319 584 m 1145 Y s
 gsave  2263 1770 2 313 C 166.096 1091.49 t 90 r /Helvetica findfont 81.3741 sf 0 0 m (Events / 200 GeV) show NC gr  341 632 m -22 X s 341 659 m -22 X s 341 679 m -22 X s 341 694 m -22 X s 341 707 m -22 X s 341 717 m -22 X s 341 726 m -22 X s 341 734
 m -22 X s 363 742 m -44 X s
 gsave  2263 1770 2 313 C 300.555 714.512 t 0 r  -36 0 t /Helvetica findfont 64.4212 sf 0 0 m (1) show NC gr  341 789 m -22 X s 341 817 m -22 X s 341 836 m -22 X s 341 852 m -22 X s 341 864 m -22 X s 341 875 m -22 X s 341 884 m -22 X s 341 892 m -22
 X s 363 899 m -44 X s
 gsave  2263 1770 2 313 C 300.555 871.833 t 0 r  -73 0 t /Helvetica findfont 64.4212 sf 0 0 m (10) show NC gr  341 946 m -22 X s 341 974 m -22 X s 341 994 m -22 X s 341 1009 m -22 X s 341 1021 m -22 X s 341 1032 m -22 X s 341 1041 m -22 X s 341 1049
 m -22 X s 363 1056 m -44 X s
 gsave  2263 1770 2 313 C 274.567 1054.2 t 0 r /Helvetica findfont 44.0776 sf 0 0 m (2) show NC gr 
 gsave  2263 1770 2 313 C 203.383 1027.08 t 0 r /Helvetica findfont 64.4212 sf 0 0 m (10) show NC gr  341 1104 m -22 X s 341 1131 m -22 X s 341 1151 m -22 X s 341 1166 m -22 X s 341 1179 m -22 X s 341 1189 m -22 X s 341 1198 m -22 X s 341 1206 m -22
 X s 363 1214 m -44 X s
 gsave  2263 1770 2 313 C 274.567 1216.91 t 0 r /Helvetica findfont 44.0776 sf 0 0 m (3) show NC gr 
 gsave  2263 1770 2 313 C 203.383 1186.4 t 0 r /Helvetica findfont 64.4212 sf 0 0 m (10) show NC gr  341 1261 m -22 X s 341 1289 m -22 X s 341 1308 m -22 X s 341 1324 m -22 X s 341 1336 m -22 X s 341 1347 m -22 X s 341 1356 m -22 X s 341 1364 m -22 X
 s 363 1371 m -44 X s
 gsave  2263 1770 2 313 C 274.567 1369.44 t 0 r /Helvetica findfont 44.0776 sf 0 0 m (4) show NC gr 
 gsave  2263 1770 2 313 C 203.383 1342.33 t 0 r /Helvetica findfont 64.4212 sf 0 0 m (10) show NC gr  341 1418 m -22 X s 341 1446 m -22 X s 341 1466 m -22 X s 341 1481 m -22 X s 341 1493 m -22 X s 341 1504 m -22 X s 341 1513 m -22 X s 341 1521 m -22
 X s 363 1528 m -44 X s
 gsave  2263 1770 2 313 C 274.567 1528.76 t 0 r /Helvetica findfont 44.0776 sf 0 0 m (5) show NC gr 
 gsave  2263 1770 2 313 C 203.383 1498.25 t 0 r /Helvetica findfont 64.4212 sf 0 0 m (10) show NC gr  341 1576 m -22 X s 341 1603 m -22 X s 341 1623 m -22 X s 341 1638 m -22 X s 341 1651 m -22 X s 341 1661 m -22 X s 341 1670 m -22 X s 341 1678 m -22
 X s 363 1686 m -44 X s
 gsave  2263 1770 2 313 C 274.567 1688.08 t 0 r /Helvetica findfont 44.0776 sf 0 0 m (6) show NC gr 
 gsave  2263 1770 2 313 C 203.383 1657.57 t 0 r /Helvetica findfont 64.4212 sf 0 0 m (10) show NC gr  2179 584 m 1145 Y s 2157 632 m 22 X s 2157 659 m 22 X s 2157 679 m 22 X s 2157 694 m 22 X s 2157 707 m 22 X s 2157 717 m 22 X s 2157 726 m 22 X s
 2157 734 m 22 X s 2136 742 m 43 X s 2157 789 m 22 X s 2157 817 m 22 X s 2157 836 m 22 X s 2157 852 m 22 X s 2157 864 m 22 X s 2157 875 m 22 X s 2157 884 m 22 X s 2157 892 m 22 X s 2136 899 m 43 X s 2157 946 m 22 X s 2157 974 m 22 X s 2157 994 m 22 X
 s 2157 1009 m 22 X s 2157 1021 m 22 X s 2157 1032 m 22 X s 2157 1041 m 22 X s 2157 1049 m 22 X s 2136 1056 m 43 X s 2157 1104 m 22 X s 2157 1131 m 22 X s 2157 1151 m 22 X s 2157 1166 m 22 X s 2157 1179 m 22 X s 2157 1189 m 22 X s 2157 1198 m 22 X s
 2157 1206 m 22 X s 2136 1214 m 43 X s 2157 1261 m 22 X s 2157 1289 m 22 X s 2157 1308 m 22 X s 2157 1324 m 22 X s 2157 1336 m 22 X s 2157 1347 m 22 X s 2157 1356 m 22 X s 2157 1364 m 22 X s 2136 1371 m 43 X s 2157 1418 m 22 X s 2157 1446 m 22 X s
 2157 1466 m 22 X s 2157 1481 m 22 X s 2157 1493 m 22 X s 2157 1504 m 22 X s 2157 1513 m 22 X s 2157 1521 m 22 X s 2136 1528 m 43 X s 2157 1576 m 22 X s 2157 1603 m 22 X s 2157 1623 m 22 X s 2157 1638 m 22 X s 2157 1651 m 22 X s 2157 1661 m 22 X s
 2157 1670 m 22 X s 2157 1678 m 22 X s 2136 1686 m 43 X s 0.4 0.6 1 c black 0.4 0.6 1 c 319 584 m 93 X 579 Y 93 X 18 Y 93 X -24 Y 93 X -49 Y 93 X -44 Y 93 X -45 Y 93 X -44 Y 93 X -34 Y 93 X -40 Y 93 X -54 Y 93 X -30 Y 93 X -30 Y 93 X -34 Y 93 X -5 Y
 93 X -11 Y 93 X -38 Y 93 X -78 Y 93 X 39 Y 93 X -39 Y 93 X -37 Y f black 0.4 0.6 1 c black 319 584 m 93 X 579 Y 93 X 18 Y 93 X -24 Y 93 X -49 Y 93 X -44 Y 93 X -45 Y 93 X -44 Y 93 X -34 Y 93 X -40 Y 93 X -54 Y 93 X -30 Y 93 X -30 Y 93 X -34 Y 93 X
 -5 Y 93 X -11 Y 93 X -38 Y 93 X -78 Y 93 X 39 Y 93 X -39 Y 93 X s 0.999 0.999 0.999 c black 0.999 0.999 0.999 c 319 584 m 93 X 554 Y 93 X 17 Y 93 X -23 Y 93 X -50 Y 93 X -43 Y 93 X -45 Y 93 X -42 Y 93 X -35 Y 93 X -40 Y 93 X -68 Y 93 X -15 Y 93 X
 -26 Y 93 X -51 Y 93 X 20 Y 93 X -16 Y 93 X -39 Y 93 X -91 Y 93 X 54 Y 93 X -49 Y 93 X -12 Y f black 0.999 0.999 0.999 c black 319 584 m 93 X 554 Y 93 X 17 Y 93 X -23 Y 93 X -50 Y 93 X -43 Y 93 X -45 Y 93 X -42 Y 93 X -35 Y 93 X -40 Y 93 X -68 Y 93 X
 -15 Y 93 X -26 Y 93 X -51 Y 93 X 20 Y 93 X -16 Y 93 X -39 Y 93 X -91 Y 93 X 54 Y 93 X -49 Y 93 X s 1 1 1 c black 319 584 m 93 X 554 Y 93 X 17 Y 93 X -23 Y 93 X -50 Y 93 X -43 Y 93 X -45 Y 93 X -42 Y 93 X -35 Y 93 X -40 Y 93 X -68 Y 93 X -15 Y 93 X
 -26 Y 93 X -51 Y 93 X 20 Y 93 X -16 Y 93 X -39 Y 93 X -91 Y 93 X 54 Y 93 X -49 Y 93 X s 0.6 1 0.6 c black 0.6 1 0.6 c 319 584 m 93 X 554 Y 93 X 17 Y 93 X -23 Y 93 X -50 Y 93 X -43 Y 93 X -45 Y 93 X -42 Y 93 X -35 Y 93 X -40 Y 93 X -68 Y 93 X -15 Y
 93 X -26 Y 93 X -51 Y 93 X 20 Y 93 X -16 Y 93 X -39 Y 93 X -91 Y 93 X 54 Y 93 X -49 Y 93 X -12 Y f black 0.6 1 0.6 c black 319 584 m 93 X 554 Y 93 X 17 Y 93 X -23 Y 93 X -50 Y 93 X -43 Y 93 X -45 Y 93 X -42 Y 93 X -35 Y 93 X -40 Y 93 X -68 Y 93 X
 -15 Y 93 X -26 Y 93 X -51 Y 93 X 20 Y 93 X -16 Y 93 X -39 Y 93 X -91 Y 93 X 54 Y 93 X -49 Y 93 X s 0.999 0.999 0.999 c black 0.999 0.999 0.999 c 319 584 m 93 X 540 Y 93 X 18 Y 93 X -20 Y 93 X -49 Y 93 X -42 Y 93 X -43 Y 93 X -40 Y 93 X -35 Y 93 X
 -40 Y 93 X -67 Y 93 X -13 Y 93 X -27 Y 93 X -58 Y 93 X 29 Y 93 X -16 Y 93 X -39 Y 93 X -91 Y 93 X 54 Y 93 X -50 Y 93 X -11 Y f black 0.999 0.999 0.999 c black 319 584 m 93 X 540 Y 93 X 18 Y 93 X -20 Y 93 X -49 Y 93 X -42 Y 93 X -43 Y 93 X -40 Y 93 X
 -35 Y 93 X -40 Y 93 X -67 Y 93 X -13 Y 93 X -27 Y 93 X -58 Y 93 X 29 Y 93 X -16 Y 93 X -39 Y 93 X -91 Y 93 X 54 Y 93 X -50 Y 93 X s 1 1 1 c black 319 584 m 93 X 540 Y 93 X 18 Y 93 X -20 Y 93 X -49 Y 93 X -42 Y 93 X -43 Y 93 X -40 Y 93 X -35 Y 93 X
 -40 Y 93 X -67 Y 93 X -13 Y 93 X -27 Y 93 X -58 Y 93 X 29 Y 93 X -16 Y 93 X -39 Y 93 X -91 Y 93 X 54 Y 93 X -50 Y 93 X s 1 0.8 0.4 c black 1 0.8 0.4 c 319 584 m 93 X 540 Y 93 X 18 Y 93 X -20 Y 93 X -49 Y 93 X -42 Y 93 X -43 Y 93 X -40 Y 93 X -35 Y
 93 X -40 Y 93 X -67 Y 93 X -13 Y 93 X -27 Y 93 X -58 Y 93 X 29 Y 93 X -16 Y 93 X -39 Y 93 X -91 Y 93 X 54 Y 93 X -50 Y 93 X -11 Y f black 1 0.8 0.4 c black 319 584 m 93 X 540 Y 93 X 18 Y 93 X -20 Y 93 X -49 Y 93 X -42 Y 93 X -43 Y 93 X -40 Y 93 X
 -35 Y 93 X -40 Y 93 X -67 Y 93 X -13 Y 93 X -27 Y 93 X -58 Y 93 X 29 Y 93 X -16 Y 93 X -39 Y 93 X -91 Y 93 X 54 Y 93 X -50 Y 93 X s 0.999 0.999 0.999 c black 0.999 0.999 0.999 c 319 584 m 93 X 372 Y 93 X 27 Y 93 X -20 Y 93 X -44 Y 93 X -47 Y 93 X
 -34 Y 93 X -40 Y 93 X -38 Y 93 X -33 Y 93 X -68 Y 93 X -54 Y 93 X -21 Y 186 X 10 Y 93 X -10 Y 93 X 64 Y 93 X -64 Y 279 X f black 0.999 0.999 0.999 c black 319 584 m 93 X 372 Y 93 X 27 Y 93 X -20 Y 93 X -44 Y 93 X -47 Y 93 X -34 Y 93 X -40 Y 93 X -38
 Y 93 X -33 Y 93 X -68 Y 93 X -54 Y 93 X -21 Y 186 X 10 Y 93 X -10 Y 93 X 64 Y 93 X -64 Y 279 X s 1 1 1 c black 319 584 m 93 X 372 Y 93 X 27 Y 93 X -20 Y 93 X -44 Y 93 X -47 Y 93 X -34 Y 93 X -40 Y 93 X -38 Y 93 X -33 Y 93 X -68 Y 93 X -54 Y 93 X -21
 Y 186 X 10 Y 93 X -10 Y 93 X 64 Y 93 X -64 Y 279 X s 1 0.4 0.6 c black 1 0.4 0.6 c 319 584 m 93 X 372 Y 93 X 27 Y 93 X -20 Y 93 X -44 Y 93 X -47 Y 93 X -34 Y 93 X -40 Y 93 X -38 Y 93 X -33 Y 93 X -68 Y 93 X -54 Y 93 X -21 Y 186 X 10 Y 93 X -10 Y 93
 X 64 Y 93 X -64 Y 279 X f black 1 0.4 0.6 c black 319 584 m 93 X 372 Y 93 X 27 Y 93 X -20 Y 93 X -44 Y 93 X -47 Y 93 X -34 Y 93 X -40 Y 93 X -38 Y 93 X -33 Y 93 X -68 Y 93 X -54 Y 93 X -21 Y 186 X 10 Y 93 X -10 Y 93 X 64 Y 93 X -64 Y 279 X s 0.999
 0.999 0.999 c black 0.999 0.999 0.999 c 319 584 m 93 X 282 Y 93 X 10 Y 93 X -21 Y 93 X -93 Y 93 X -14 Y 93 X -66 Y 93 X -59 Y 93 X -34 Y 93 X 6 Y 93 X -11 Y 930 X f black 0.999 0.999 0.999 c black 319 584 m 93 X 282 Y 93 X 10 Y 93 X -21 Y 93 X -93 Y
 93 X -14 Y 93 X -66 Y 93 X -59 Y 93 X -34 Y 93 X 6 Y 93 X -11 Y 930 X s 1 1 1 c black 319 584 m 93 X 282 Y 93 X 10 Y 93 X -21 Y 93 X -93 Y 93 X -14 Y 93 X -66 Y 93 X -59 Y 93 X -34 Y 93 X 6 Y 93 X -11 Y 930 X s 0 0 0.4 c black 0 0 0.4 c 319 584 m 93
 X 282 Y 93 X 10 Y 93 X -21 Y 93 X -93 Y 93 X -14 Y 93 X -66 Y 93 X -59 Y 93 X -34 Y 93 X 6 Y 93 X -11 Y 930 X f black 0 0 0.4 c black 319 584 m 93 X 282 Y 93 X 10 Y 93 X -21 Y 93 X -93 Y 93 X -14 Y 93 X -66 Y 93 X -59 Y 93 X -34 Y 93 X 6 Y 93 X -11
 Y 930 X s 1 0 0 c 6 lw 1 1 1 c black 1 0 0 c 319 584 m 93 X 579 Y 93 X 18 Y 93 X -24 Y 93 X -49 Y 93 X -44 Y 93 X -45 Y 93 X -44 Y 93 X -34 Y 93 X -40 Y 93 X -54 Y 93 X -30 Y 93 X -30 Y 93 X -34 Y 93 X -5 Y 93 X -11 Y 93 X -38 Y 93 X -78 Y 93 X 39 Y
 93 X -39 Y 93 X s black 3 lw 1 0 0 c 1 lw << /PatternType 1 /PaintType 2 /TilingType 1 /BBox [ 0 0 100 100 ] /XStep 100 /YStep 100 /PaintProc { begin gsave 0 100 m 100 0 l s gr end } >> [ 0.24 0 0 0.24 0 0 ] makepattern /P05 exch def /cs {[/Pattern
 /DeviceRGB] setcolorspace} def /FA {f [/DeviceRGB] setcolorspace} def cs 1 0 0 P05 setcolor 412 584 m 582 Y 93 X 18 Y 93 X -24 Y 93 X -49 Y 93 X -44 Y 93 X -44 Y 93 X -43 Y 93 X -34 Y 93 X -36 Y 93 X -55 Y 93 X -26 Y 93 X -27 Y 93 X -31 Y 93 X -1 Y
 93 X 12 Y 93 X 51 Y 93 X -166 Y 93 X 21 Y 93 X -49 Y 93 X -55 Y 12 Y -93 X 15 Y -93 X -27 Y -279 X 129 Y -93 X 16 Y -93 X 40 Y -93 X 35 Y -93 X 34 Y -93 X 53 Y -93 X 44 Y -93 X 35 Y -93 X 44 Y -93 X 46 Y -93 X 45 Y -93 X 49 Y -93 X 24 Y -93 X -18 Y
 -93 X -576 Y FA 6 lw 1 1 1 c 15 lw 1203 897 m -2 Y s 1203 895 m cl s 1296 857 m 9 Y s 1296 866 m cl s 1296 816 m -24 Y s 1296 792 m cl s 1389 809 m 21 Y s 1389 830 m cl s 1389 769 m -51 Y s 1389 718 m cl s 1482 837 m 13 Y s 1482 850 m cl s 1482 796
 m -33 Y s 1482 763 m cl s 1947 762 m 36 Y s 1947 798 m cl s 1947 721 m -99 Y s 1947 622 m cl s black 1 1 1 c 3 lw /w 43 def /w2 {w 2 div} def /w3 {w 3 div} def 459 1166 552 1182 645 1151 738 1113 831 1066 924 1027 1017 962 1110 931 1203 917 1296 836
 1389 789 1482 817 12 { m20} R 15 lw 3 lw 1947 742 m20 15 lw black 6 lw 1 1 1 c black 3 lw /w 33 def /w2 {w 2 div} def /w3 {w 3 div} def 459 1166 m20 6 lw 3 lw 552 1182 m20 6 lw 3 lw 645 1151 m20 6 lw 3 lw 738 1113 m20 6 lw 3 lw 831 1066 m20 6 lw 3
 lw 924 1027 m20 6 lw 1017 946 m 2 Y s 3 lw 1017 962 m20 6 lw 1110 911 m 7 Y s 1110 945 m 1 Y s 3 lw 1110 931 m20 6 lw 1203 895 m 8 Y s 1203 930 m 4 Y s 3 lw 1203 917 m20 6 lw 1296 789 m 34 Y s 1296 850 m 14 Y s 3 lw 1296 836 m20 6 lw 1389 705 m 70 Y
 s 1389 803 m 23 Y s 3 lw 1389 789 m20 6 lw 1482 758 m 45 Y s 1482 830 m 18 Y s 3 lw 1482 817 m20 6 lw 1947 584 m 144 Y s 1947 755 m 34 Y s 3 lw 1947 742 m20 6 lw 1017 948 m -1 Y s 1017 947 m cl s 1110 945 m 2 Y s 1110 947 m cl s 1110 918 m -6 Y s
 1110 912 m cl s 1203 930 m 4 Y s 1203 934 m cl s 1203 903 m -8 Y s 1203 895 m cl s 1296 850 m 16 Y s 1296 866 m cl s 1296 823 m -31 Y s 1296 792 m cl s 1389 803 m 27 Y s 1389 830 m cl s 1389 775 m -57 Y s 1389 718 m cl s 1482 830 m 20 Y s 1482 850 m
 cl s 1482 803 m -40 Y s 1482 763 m cl s 1947 755 m 43 Y s 1947 798 m cl s 1947 728 m -106 Y s 1947 622 m cl s 3 lw 459 1166 552 1182 645 1151 738 1113 831 1066 924 1027 1017 962 1110 931 1203 917 1296 836 1389 789 1482 817 12 { m20} R 6 lw 3 lw 1947
 742 m20 6 lw 3 lw 319 584 m 1860 X s 319 584 m cl s 366 584 m cl s 412 584 m cl s 459 584 m cl s 505 584 m cl s 552 584 m cl s 598 584 m cl s 645 584 m cl s 691 584 m cl s 738 584 m cl s 784 584 m cl s 831 584 m cl s 877 584 m cl s 924 584 m cl s
 970 584 m cl s 1017 584 m cl s 1063 584 m cl s 1110 584 m cl s 1156 584 m cl s 1203 584 m cl s 1249 584 m cl s 1296 584 m cl s 1342 584 m cl s 1389 584 m cl s 1435 584 m cl s 1482 584 m cl s 1528 584 m cl s 1575 584 m cl s 1621 584 m cl s 1668 584 m
 cl s 1714 584 m cl s 1761 584 m cl s 1807 584 m cl s 1854 584 m cl s 1900 584 m cl s 1947 584 m cl s 1993 584 m cl s 2040 584 m cl s 2086 584 m cl s 2133 584 m cl s 2179 584 m cl s 319 1729 m 1860 X s 319 1729 m cl s 366 1729 m cl s 412 1729 m cl s
 459 1729 m cl s 505 1729 m cl s 552 1729 m cl s 598 1729 m cl s 645 1729 m cl s 691 1729 m cl s 738 1729 m cl s 784 1729 m cl s 831 1729 m cl s 877 1729 m cl s 924 1729 m cl s 970 1729 m cl s 1017 1729 m cl s 1063 1729 m cl s 1110 1729 m cl s 1156
 1729 m cl s 1203 1729 m cl s 1249 1729 m cl s 1296 1729 m cl s 1342 1729 m cl s 1389 1729 m cl s 1435 1729 m cl s 1482 1729 m cl s 1528 1729 m cl s 1575 1729 m cl s 1621 1729 m cl s 1668 1729 m cl s 1714 1729 m cl s 1761 1729 m cl s 1807 1729 m cl s
 1854 1729 m cl s 1900 1729 m cl s 1947 1729 m cl s 1993 1729 m cl s 2040 1729 m cl s 2086 1729 m cl s 2133 1729 m cl s 2179 1729 m cl s 319 584 m 1145 Y s 341 632 m -22 X s 341 659 m -22 X s 341 679 m -22 X s 341 694 m -22 X s 341 707 m -22 X s 341
 717 m -22 X s 341 726 m -22 X s 341 734 m -22 X s 363 742 m -44 X s 341 789 m -22 X s 341 817 m -22 X s 341 836 m -22 X s 341 852 m -22 X s 341 864 m -22 X s 341 875 m -22 X s 341 884 m -22 X s 341 892 m -22 X s 363 899 m -44 X s 341 946 m -22 X s
 341 974 m -22 X s 341 994 m -22 X s 341 1009 m -22 X s 341 1021 m -22 X s 341 1032 m -22 X s 341 1041 m -22 X s 341 1049 m -22 X s 363 1056 m -44 X s 341 1104 m -22 X s 341 1131 m -22 X s 341 1151 m -22 X s 341 1166 m -22 X s 341 1179 m -22 X s 341
 1189 m -22 X s 341 1198 m -22 X s 341 1206 m -22 X s 363 1214 m -44 X s 341 1261 m -22 X s 341 1289 m -22 X s 341 1308 m -22 X s 341 1324 m -22 X s 341 1336 m -22 X s 341 1347 m -22 X s 341 1356 m -22 X s 341 1364 m -22 X s 363 1371 m -44 X s 341
 1418 m -22 X s 341 1446 m -22 X s 341 1466 m -22 X s 341 1481 m -22 X s 341 1493 m -22 X s 341 1504 m -22 X s 341 1513 m -22 X s 341 1521 m -22 X s 363 1528 m -44 X s 341 1576 m -22 X s 341 1603 m -22 X s 341 1623 m -22 X s 341 1638 m -22 X s 341
 1651 m -22 X s 341 1661 m -22 X s 341 1670 m -22 X s 341 1678 m -22 X s 363 1686 m -44 X s 2179 584 m 1145 Y s 2157 632 m 22 X s 2157 659 m 22 X s 2157 679 m 22 X s 2157 694 m 22 X s 2157 707 m 22 X s 2157 717 m 22 X s 2157 726 m 22 X s 2157 734 m
 22 X s 2136 742 m 43 X s 2157 789 m 22 X s 2157 817 m 22 X s 2157 836 m 22 X s 2157 852 m 22 X s 2157 864 m 22 X s 2157 875 m 22 X s 2157 884 m 22 X s 2157 892 m 22 X s 2136 899 m 43 X s 2157 946 m 22 X s 2157 974 m 22 X s 2157 994 m 22 X s 2157
 1009 m 22 X s 2157 1021 m 22 X s 2157 1032 m 22 X s 2157 1041 m 22 X s 2157 1049 m 22 X s 2136 1056 m 43 X s 2157 1104 m 22 X s 2157 1131 m 22 X s 2157 1151 m 22 X s 2157 1166 m 22 X s 2157 1179 m 22 X s 2157 1189 m 22 X s 2157 1198 m 22 X s 2157
 1206 m 22 X s 2136 1214 m 43 X s 2157 1261 m 22 X s 2157 1289 m 22 X s 2157 1308 m 22 X s 2157 1324 m 22 X s 2157 1336 m 22 X s 2157 1347 m 22 X s 2157 1356 m 22 X s 2157 1364 m 22 X s 2136 1371 m 43 X s 2157 1418 m 22 X s 2157 1446 m 22 X s 2157
 1466 m 22 X s 2157 1481 m 22 X s 2157 1493 m 22 X s 2157 1504 m 22 X s 2157 1513 m 22 X s 2157 1521 m 22 X s 2136 1528 m 43 X s 2157 1576 m 22 X s 2157 1603 m 22 X s 2157 1623 m 22 X s 2157 1638 m 22 X s 2157 1651 m 22 X s 2157 1661 m 22 X s 2157
 1670 m 22 X s 2157 1678 m 22 X s 2136 1686 m 43 X s
 gsave  2263 1770 2 313 C 406.765 1447.41 t 0 r /Helvetica findfont 64.4212 sf 0 0 m (VR0LdPhi for MB\255SSd) show NC gr 
 gsave  2263 1770 2 313 C 1464.36 1630.45 t 0 r /Helvetica findfont 64.4212 sf 0 0 m (SM Total) show NC gr  1 1 1 c 1338 1616 m 107 X 64 Y -107 X f 1 0 0 c 6 lw 1338 1648 m 107 X s black
 gsave  2263 1770 2 313 C 1464.36 1538.93 t 0 r /Helvetica findfont 64.4212 sf 0 0 m (Data) show NC gr  1391 1529 m 55 Y s 3 lw 1391 1557 m20 6 lw
 gsave  2263 1770 2 313 C 1464.36 1447.41 t 0 r /Helvetica findfont 64.4212 sf 0 0 m (W+jets) show NC gr  0.4 0.6 1 c 3 lw 1338 1434 m 107 X 64 Y -107 X f 6 lw black 3 lw 1338 1498 m 107 X s 1338 1434 m 107 X s 1445 1434 m 64 Y s 1338 1434 m 64 Y s
 gsave  2263 1770 2 313 C 1498.25 1355.88 t 0 r /Helvetica findfont 64.4212 sf 0 0 m (\(+EW\) & single top) show NC gr 
 gsave  2263 1770 2 313 C 1481.3 1355.88 t 0 r /Helvetica findfont 64.4212 sf 0 0 m (t) show NC gr  1481 1407 m 17 X s
 gsave  2263 1770 2 313 C 1464.36 1355.88 t 0 r /Helvetica findfont 64.4212 sf 0 0 m (t) show NC gr  0.6 1 0.6 c 1338 1343 m 107 X 63 Y -107 X f black 1338 1406 m 107 X s 1338 1343 m 107 X s 1445 1343 m 63 Y s 1338 1343 m 63 Y s
 gsave  2263 1770 2 313 C 1464.36 1264.36 t 0 r /Helvetica findfont 64.4212 sf 0 0 m (Z+jets) show NC gr  1 0.8 0.4 c 1338 1252 m 107 X 63 Y -107 X f black 1338 1315 m 107 X s 1338 1252 m 107 X s 1445 1252 m 63 Y s 1338 1252 m 63 Y s
 gsave  2263 1770 2 313 C 1464.36 1172.84 t 0 r /Helvetica findfont 64.4212 sf 0 0 m (Diboson) show NC gr  1 0.4 0.6 c 1338 1161 m 107 X 63 Y -107 X f black 1338 1224 m 107 X s 1338 1161 m 107 X s 1445 1161 m 63 Y s 1338 1161 m 63 Y s
 gsave  2263 1770 2 313 C 1464.36 1081.32 t 0 r /Helvetica findfont 64.4212 sf 0 0 m (Multi\255jet) show NC gr  0 0 0.4 c 1338 1070 m 107 X 63 Y -107 X f black 1338 1133 m 107 X s 1338 1070 m 107 X s 1445 1070 m 63 Y s 1338 1070 m 63 Y s
 gsave  2263 1770 2 313 C 911.832 1566.05 t 0 r /Helvetica findfont 44.0776 sf 0 0 m (\2551) show NC gr 
 gsave  2263 1770 2 313 C 471.17 1535.54 t 0 r /Helvetica findfont 64.4212 sf 0 0 m (=13TeV, 139 fb) show NC gr 
 gsave  2263 1770 2 313 C 440.662 1535.54 t 0 r /Helvetica findfont 64.4212 sf 0 0 m (s) show NC gr  6 lw 420 1573 m 7 -41 d s 3 lw 427 1532 m 7 61 d s 434 1593 m 37 X s 1 1 1 c 2254 561 2 2 bf black 1 1 1 c black 1860 358 318 187 bl 1 1 1 c black
 1860 358 318 187 bl 6 lw 1 1 1 c black 3 lw 457 373 m20 6 lw 3 lw 550 366 m20 6 lw 3 lw 643 352 m20 6 lw 3 lw 736 379 m20 6 lw 3 lw 829 373 m20 6 lw 3 lw 923 387 m20 6 lw 3 lw 1016 336 m20 6 lw 3 lw 1109 345 m20 6 lw 3 lw 1202 408 m20 6 lw 3 lw 1295
 342 m20 6 lw 3 lw 1388 311 m20 6 lw 3 lw 1481 453 m20 6 lw 3 lw 318 187 m 1860 X s
 gsave  2254 561 2 2 C 1959.25 33.8971 t 0 r /Helvetica findfont 78.1689 sf 0 0 m ( [GeV]) show NC gr 
 gsave  2254 561 2 2 C 1901.63 13.5588 t 0 r /Helvetica findfont 50.9797 sf 0 0 m (eff) show NC gr 
 gsave  2254 561 2 2 C 1840.61 33.8971 t 0 r /Helvetica findfont 78.1689 sf 0 0 m (m) show NC gr  318 201 m -14 Y s 364 194 m -7 Y s 411 194 m -7 Y s 457 194 m -7 Y s 504 194 m -7 Y s 550 201 m -14 Y s 597 194 m -7 Y s 643 194 m -7 Y s 690 194 m -7 Y
 s 736 194 m -7 Y s 783 201 m -14 Y s 829 194 m -7 Y s 876 194 m -7 Y s 923 194 m -7 Y s 969 194 m -7 Y s 1016 201 m -14 Y s 1062 194 m -7 Y s 1109 194 m -7 Y s 1155 194 m -7 Y s 1202 194 m -7 Y s 1248 201 m -14 Y s 1295 194 m -7 Y s 1341 194 m -7 Y
 s 1388 194 m -7 Y s 1434 194 m -7 Y s 1481 201 m -14 Y s 1527 194 m -7 Y s 1574 194 m -7 Y s 1620 194 m -7 Y s 1667 194 m -7 Y s 1713 201 m -14 Y s 1760 194 m -7 Y s 1806 194 m -7 Y s 1853 194 m -7 Y s 1899 194 m -7 Y s 1946 201 m -14 Y s 1992 194 m
 -7 Y s 2039 194 m -7 Y s 2085 194 m -7 Y s 2132 194 m -7 Y s 2178 201 m -14 Y s
 gsave  2254 561 2 2 C 227.111 118.64 t 0 r /Helvetica findfont 78.1689 sf 0 0 m (1000) show NC gr 
 gsave  2254 561 2 2 C 461.001 118.64 t 0 r /Helvetica findfont 78.1689 sf 0 0 m (1500) show NC gr 
 gsave  2254 561 2 2 C 691.501 118.64 t 0 r /Helvetica findfont 78.1689 sf 0 0 m (2000) show NC gr 
 gsave  2254 561 2 2 C 925.391 118.64 t 0 r /Helvetica findfont 78.1689 sf 0 0 m (2500) show NC gr 
 gsave  2254 561 2 2 C 1159.28 118.64 t 0 r /Helvetica findfont 78.1689 sf 0 0 m (3000) show NC gr 
 gsave  2254 561 2 2 C 1389.78 118.64 t 0 r /Helvetica findfont 78.1689 sf 0 0 m (3500) show NC gr 
 gsave  2254 561 2 2 C 1623.67 118.64 t 0 r /Helvetica findfont 78.1689 sf 0 0 m (4000) show NC gr 
 gsave  2254 561 2 2 C 1857.56 118.64 t 0 r /Helvetica findfont 78.1689 sf 0 0 m (4500) show NC gr 
 gsave  2254 561 2 2 C 2088.06 118.64 t 0 r /Helvetica findfont 78.1689 sf 0 0 m (5000) show NC gr  318 545 m 1860 X s 318 531 m 14 Y s 364 538 m 7 Y s 411 538 m 7 Y s 457 538 m 7 Y s 504 538 m 7 Y s 550 531 m 14 Y s 597 538 m 7 Y s 643 538 m 7 Y s
 690 538 m 7 Y s 736 538 m 7 Y s 783 531 m 14 Y s 829 538 m 7 Y s 876 538 m 7 Y s 923 538 m 7 Y s 969 538 m 7 Y s 1016 531 m 14 Y s 1062 538 m 7 Y s 1109 538 m 7 Y s 1155 538 m 7 Y s 1202 538 m 7 Y s 1248 531 m 14 Y s 1295 538 m 7 Y s 1341 538 m 7 Y
 s 1388 538 m 7 Y s 1434 538 m 7 Y s 1481 531 m 14 Y s 1527 538 m 7 Y s 1574 538 m 7 Y s 1620 538 m 7 Y s 1667 538 m 7 Y s 1713 531 m 14 Y s 1760 538 m 7 Y s 1806 538 m 7 Y s 1853 538 m 7 Y s 1899 538 m 7 Y s 1946 531 m 14 Y s 1992 538 m 7 Y s 2039
 538 m 7 Y s 2085 538 m 7 Y s 2132 538 m 7 Y s 2178 531 m 14 Y s 318 187 m 358 Y s
 gsave  2254 561 2 2 C 166.096 284.736 t 90 r /Helvetica findfont 67.9729 sf 0 0 m (Data/SM) show NC gr  361 203 m -43 X s 339 220 m -21 X s 339 236 m -21 X s 339 252 m -21 X s 339 268 m -21 X s 361 285 m -43 X s 339 301 m -21 X s 339 317 m -21 X s
 339 334 m -21 X s 339 350 m -21 X s 361 366 m -43 X s 339 382 m -21 X s 339 399 m -21 X s 339 415 m -21 X s 339 431 m -21 X s 361 447 m -43 X s 339 464 m -21 X s 339 480 m -21 X s 339 496 m -21 X s 339 512 m -21 X s 361 529 m -43 X s 361 203 m -43 X
 s 339 187 m -21 X s 361 529 m -43 X s
 gsave  2254 561 2 2 C 261.008 183.044 t 0 r /Helvetica findfont 57.777 sf 0 0 m (0) show NC gr 
 gsave  2254 561 2 2 C 213.552 261.008 t 0 r /Helvetica findfont 57.777 sf 0 0 m (0.5) show NC gr 
 gsave  2254 561 2 2 C 271.177 342.361 t 0 r /Helvetica findfont 57.777 sf 0 0 m (1) show NC gr 
 gsave  2254 561 2 2 C 213.552 423.714 t 0 r /Helvetica findfont 57.777 sf 0 0 m (1.5) show NC gr 
 gsave  2254 561 2 2 C 261.008 505.067 t 0 r /Helvetica findfont 57.777 sf 0 0 m (2) show NC gr  2178 187 m 358 Y s 2135 203 m 43 X s 2157 220 m 21 X s 2157 236 m 21 X s 2157 252 m 21 X s 2157 268 m 21 X s 2135 285 m 43 X s 2157 301 m 21 X s 2157 317
 m 21 X s 2157 334 m 21 X s 2157 350 m 21 X s 2135 366 m 43 X s 2157 382 m 21 X s 2157 399 m 21 X s 2157 415 m 21 X s 2157 431 m 21 X s 2135 447 m 43 X s 2157 464 m 21 X s 2157 480 m 21 X s 2157 496 m 21 X s 2157 512 m 21 X s 2135 529 m 43 X s 2135
 203 m 43 X s 2157 187 m 21 X s 2135 529 m 43 X s 9 lw 829 386 m 3 Y s 829 389 m cl s 829 359 m -2 Y s 829 357 m cl s 923 400 m 9 Y s 923 409 m cl s 923 373 m -9 Y s 923 364 m cl s 1016 350 m 13 Y s 1016 363 m cl s 1016 323 m -13 Y s 1016 310 m cl s
 1109 358 m 23 Y s 1109 381 m cl s 1109 331 m -21 Y s 1109 310 m cl s 1202 422 m 44 Y s 1202 466 m cl s 1202 395 m -43 Y s 1202 352 m cl s 1295 356 m 61 Y s 1295 417 m cl s 1295 329 m -53 Y s 1295 276 m cl s 1388 324 m 74 Y s 1388 398 m cl s 1388 297
 m -55 Y s 1388 242 m cl s 1481 467 m 78 Y s 1481 545 m cl s 1481 440 m -122 Y s 1481 318 m cl s 1946 545 m -175 Y s 1946 370 m cl s 3 lw 457 373 550 366 643 352 736 379 829 373 923 387 1016 336 1109 345 1202 408 1295 342 1388 311 1481 453 12 { m20}
 R 9 lw 1 0 0 c 6 lw black 3 lw 1 0 0 c 2178 227 m s 2178 255 m s 2178 284 m s 2178 312 m s 2178 341 m -24 -25 d s 2178 369 m -53 -53 d s 2178 398 m -82 -82 d s 2085 305 m -23 -23 d s 1992 213 m -6 -7 d s 2167 416 m -133 -134 d s 1992 241 m -35 -35 d
 s 2139 416 m -134 -134 d s 1992 270 m -64 -64 d s 2110 416 m -210 -210 d s 1899 206 m -18 -19 d s 2085 420 m -233 -233 d s 2085 448 m -262 -261 d s 2058 450 m -252 -251 d s 2029 450 m -236 -236 d s 2001 450 m -237 -236 d s 1992 470 m -257 -256 d s
 1992 499 m -279 -279 d s 1991 526 m -278 -277 d s 1962 526 m -249 -248 d s 1934 526 m -225 -224 d s 1905 526 m -225 -224 d s 1895 545 m -243 -243 d s 1867 545 m -244 -243 d s 1838 545 m -228 -228 d s 1809 545 m -3 -3 d s 1783 518 m -70 -69 d s 1694
 430 m -113 -113 d s 1754 518 m -41 -40 d s 1665 430 m -113 -113 d s 1725 518 m -12 -12 d s 1637 430 m -110 -109 d s 1592 415 m -87 -88 d s 1564 415 m -88 -88 d s 1535 415 m -8 -8 d s 1525 405 m -78 -78 d s 1497 405 m -69 -68 d s 1468 405 m -68 -68 d
 s 1439 405 m -5 -5 d s 1429 395 m -58 -58 d s 1401 395 m -59 -58 d s 1372 395 m -49 -49 d s 1343 395 m -2 -2 d s 1334 386 m -39 -40 d s 1305 386 m -39 -40 d s 1276 386 m -41 -42 d s 1248 386 m -42 -42 d s 1222 388 m -45 -44 d s 1193 388 m -38 -38 d
 s 1164 388 m -35 -35 d s 1127 379 m -27 -26 d s 1098 379 m -27 -26 d s 1069 379 m -25 -24 d s 1039 378 m -23 -23 d s 1010 378 m -23 -23 d s 981 378 m -21 -22 d s 951 376 m -20 -20 d s 922 376 m -19 -20 d s 894 376 m -18 -18 d s 863 374 m -16 -16 d s
 835 374 m -17 -16 d s 806 374 m -16 -16 d s 776 373 m -14 -14 d s 748 373 m -15 -14 d s 719 373 m -15 -14 d s 690 373 m -14 -14 d s 661 373 m -14 -14 d s 633 373 m -14 -14 d s 604 373 m -14 -14 d s 576 373 m -15 -14 d s 411 209 m s 405 203 m cl s
 547 373 m -15 -14 d s 411 238 m s 376 203 m cl s 518 373 m -15 -15 d s 411 266 m s 348 203 m cl s 490 374 m -15 -16 d s 411 295 m s 319 203 m cl s 461 374 m -15 -16 d s 411 324 m s 433 374 m -16 -16 d s 411 352 m s 6 lw black[ 4 8] 0 sd 3 lw 318 447
 m 1860 X s 318 285 m 1860 X s 1 0 0 c[  12 12 ] 0 sd 6 lw 318 366 m 1860 X s
 gr  gr showpage
end
%%EOF
