%!PS-Adobe-2.0 EPSF-2.0
%%BoundingBox:  0 0 567 521
%%Title: Distributions/meffInc_distrVR0LmetSig_MB-C_afterFit_forThesis.eps: canvas
%%Creator: ROOT Version 6.04/16
%%CreationDate: Tue May 19 22:04:59 2020
%%DocumentNeededResources: ProcSet (FontSetInit)
%%EndComments
%%BeginProlog
80 dict begin
/s {stroke} def /l {lineto} def /m {moveto} def /t {translate} def
/r {rotate} def /rl {roll}  def /R {repeat} def
/d {rlineto} def /rm {rmoveto} def /gr {grestore} def /f {eofill} def
/c {setrgbcolor} def /black {0 setgray} def /sd {setdash} def
/cl {closepath} def /sf {scalefont setfont} def /lw {setlinewidth} def
/box {m dup 0 exch d exch 0 d 0 exch neg d cl} def
/NC{systemdict begin initclip end}def/C{NC box clip newpath}def
/bl {box s} def /bf {gsave box gsave f grestore 1 lw [] 0 sd s grestore} def /Y { 0 exch d} def /X { 0 d} def 
/K {{pop pop 0 moveto} exch kshow} bind def
/ita {/ang 15 def gsave [1 0 ang dup sin exch cos div 1 0 0] concat} def 
/mp {newpath /y exch def /x exch def} def
/side {[w .77 mul w .23 mul] .385 w mul sd w 0 l currentpoint t -144 r} def
/mr {mp x y w2 0 360 arc} def /m24 {mr s} def /m20 {mr f} def
/mb {mp x y w2 add m w2 neg 0 d 0 w neg d w 0 d 0 w d cl} def
/mt {mp x y w2 add m w2 neg w neg d w 0 d cl} def
/m21 {mb f} def /m25 {mb s} def /m22 {mt f} def /m26{mt s} def
/m23 {mp x y w2 sub m w2 w d w neg 0 d cl f} def
/m27 {mp x y w2 add m w3 neg w2 neg d w3 w2 neg d w3 w2 d cl s} def
/m28 {mp x w2 sub y w2 sub w3 add m w3 0 d  0 w3 neg d w3 0 d 0 w3 d w3 0 d  0 w3 d w3 neg 0 d 0 w3 d w3 neg 0 d 0 w3 neg d w3 neg 0 d cl s } def
/m29 {mp gsave x w2 sub y w2 add w3 sub m currentpoint t 4 {side} repeat cl fill gr} def
/m30 {mp gsave x w2 sub y w2 add w3 sub m currentpoint t 4 {side} repeat cl s gr} def
/m31 {mp x y w2 sub m 0 w d x w2 sub y m w 0 d x w2 sub y w2 add m w w neg d x w2 sub y w2 sub m w w d s} def
/m32 {mp x y w2 sub m w2 w d w neg 0 d cl s} def
/m33 {mp x y w2 add m w3 neg w2 neg d w3 w2 neg d w3 w2 d cl f} def
/m34 {mp x w2 sub y w2 sub w3 add m w3 0 d  0 w3 neg d w3 0 d 0 w3 d w3 0 d  0 w3 d w3 neg 0 d 0 w3 d w3 neg 0 d 0 w3 neg d w3 neg 0 d cl f } def
/m2 {mp x y w2 sub m 0 w d x w2 sub y m w 0 d s} def
/m5 {mp x w2 sub y w2 sub m w w d x w2 sub y w2 add m w w neg d s} def
%%IncludeResource: ProcSet (FontSetInit)
%%IncludeResource: font Times-Roman
%%IncludeResource: font Times-Italic
%%IncludeResource: font Times-Bold
%%IncludeResource: font Times-BoldItalic
%%IncludeResource: font Helvetica
%%IncludeResource: font Helvetica-Oblique
%%IncludeResource: font Helvetica-Bold
%%IncludeResource: font Helvetica-BoldOblique
%%IncludeResource: font Courier
%%IncludeResource: font Courier-Oblique
%%IncludeResource: font Courier-Bold
%%IncludeResource: font Courier-BoldOblique
%%IncludeResource: font Symbol
%%IncludeResource: font ZapfDingbats
/reEncode {exch findfont dup length dict begin {1 index /FID eq  {pop pop} {def} ifelse } forall /Encoding exch def currentdict end dup /FontName get exch definefont pop } def [/Times-Bold /Times-Italic /Times-BoldItalic /Helvetica /Helvetica-Oblique
 /Helvetica-Bold /Helvetica-BoldOblique /Courier /Courier-Oblique /Courier-Bold /Courier-BoldOblique /Times-Roman /AvantGarde-Book /AvantGarde-BookOblique /AvantGarde-Demi /AvantGarde-DemiOblique /Bookman-Demi /Bookman-DemiItalic /Bookman-Light
 /Bookman-LightItalic /Helvetica-Narrow /Helvetica-Narrow-Bold /Helvetica-Narrow-BoldOblique /Helvetica-Narrow-Oblique /NewCenturySchlbk-Roman /NewCenturySchlbk-Bold /NewCenturySchlbk-BoldItalic /NewCenturySchlbk-Italic /Palatino-Bold
 /Palatino-BoldItalic /Palatino-Italic /Palatino-Roman ] {ISOLatin1Encoding reEncode } forall
%%EndProlog
%%BeginSetup
%%EndSetup
newpath  gsave  .25 .25 scale  gsave  0 0 t black[  ] 0 sd 3 lw 1 1 1 c 2268 2085 0 0 bf black 1 1 1 c 2263 1770 2 313 bf black 1 1 1 c black 1860 1145 319 584 bl 1 1 1 c black 1860 1145 319 584 bl 6 lw 1 1 1 c black 3 lw /w 33 def /w2 {w 2 div} def
 /w3 {w 3 div} def 374 1103 m20 6 lw 3 lw 483 1069 m20 6 lw 3 lw 593 1034 m20 6 lw 3 lw 702 1009 m20 6 lw 3 lw 812 974 m20 6 lw 3 lw 921 936 m20 6 lw 1030 899 m 2 Y s 3 lw 1030 914 m20 6 lw 1140 789 m 23 Y s 1140 839 m 9 Y s 3 lw 1140 826 m20 6 lw
 1249 837 m 11 Y s 1249 876 m 4 Y s 3 lw 1249 862 m20 6 lw 1359 789 m 23 Y s 1359 839 m 9 Y s 3 lw 1359 826 m20 6 lw 1468 741 m 40 Y s 1468 808 m 14 Y s 3 lw 1468 794 m20 6 lw 1578 769 m 29 Y s 1578 825 m 12 Y s 3 lw 1578 812 m20 6 lw 1687 693 m 63 Y
 s 1687 783 m 19 Y s 3 lw 1687 769 m20 6 lw 3 lw 319 584 m 1860 X s
 gsave  2263 1770 2 313 C 1949.08 369.478 t 0 r /Helvetica findfont 81.3741 sf 0 0 m ( [GeV]) show NC gr 
 gsave  2263 1770 2 313 C 1888.07 342.361 t 0 r /Helvetica findfont 54.2494 sf 0 0 m (eff) show NC gr 
 gsave  2263 1770 2 313 C 1823.66 369.478 t 0 r /Helvetica findfont 81.3741 sf 0 0 m (m) show NC gr  538 584 m cl s 593 584 m cl s 647 584 m cl s 702 584 m cl s 757 584 m cl s 812 584 m cl s 866 584 m cl s 921 584 m cl s 976 584 m cl s 1030 584 m cl
 s 1085 584 m cl s 1140 584 m cl s 1195 584 m cl s 1249 584 m cl s 1304 584 m cl s 1359 584 m cl s 1413 584 m cl s 1468 584 m cl s 1523 584 m cl s 1578 584 m cl s 1632 584 m cl s 1687 584 m cl s 1742 584 m cl s 1796 584 m cl s 1851 584 m cl s 1906
 584 m cl s 1961 584 m cl s 2015 584 m cl s 2070 584 m cl s 2125 584 m cl s 2179 584 m cl s 538 584 m cl s 483 584 m cl s 429 584 m cl s 374 584 m cl s 319 584 m cl s 319 1729 m 1860 X s 538 1729 m cl s 593 1729 m cl s 647 1729 m cl s 702 1729 m cl s
 757 1729 m cl s 812 1729 m cl s 866 1729 m cl s 921 1729 m cl s 976 1729 m cl s 1030 1729 m cl s 1085 1729 m cl s 1140 1729 m cl s 1195 1729 m cl s 1249 1729 m cl s 1304 1729 m cl s 1359 1729 m cl s 1413 1729 m cl s 1468 1729 m cl s 1523 1729 m cl s
 1578 1729 m cl s 1632 1729 m cl s 1687 1729 m cl s 1742 1729 m cl s 1796 1729 m cl s 1851 1729 m cl s 1906 1729 m cl s 1961 1729 m cl s 2015 1729 m cl s 2070 1729 m cl s 2125 1729 m cl s 2179 1729 m cl s 538 1729 m cl s 483 1729 m cl s 429 1729 m cl
 s 374 1729 m cl s 319 1729 m cl s 319 584 m 1145 Y s
 gsave  2263 1770 2 313 C 166.096 1091.49 t 90 r /Helvetica findfont 81.3741 sf 0 0 m (Events / 200 GeV) show NC gr  341 627 m -22 X s 341 652 m -22 X s 341 670 m -22 X s 341 684 m -22 X s 341 695 m -22 X s 341 704 m -22 X s 341 713 m -22 X s 341 720
 m -22 X s 363 726 m -44 X s
 gsave  2263 1770 2 313 C 300.555 699.266 t 0 r  -36 0 t /Helvetica findfont 64.4212 sf 0 0 m (1) show NC gr  341 769 m -22 X s 341 794 m -22 X s 341 812 m -22 X s 341 826 m -22 X s 341 837 m -22 X s 341 846 m -22 X s 341 855 m -22 X s 341 862 m -22
 X s 363 868 m -44 X s
 gsave  2263 1770 2 313 C 300.555 841.34 t 0 r  -73 0 t /Helvetica findfont 64.4212 sf 0 0 m (10) show NC gr  341 911 m -22 X s 341 936 m -22 X s 341 954 m -22 X s 341 968 m -22 X s 341 979 m -22 X s 341 989 m -22 X s 341 997 m -22 X s 341 1004 m -22
 X s 363 1011 m -44 X s
 gsave  2263 1770 2 313 C 274.567 1010.13 t 0 r /Helvetica findfont 44.0776 sf 0 0 m (2) show NC gr 
 gsave  2263 1770 2 313 C 203.383 983.016 t 0 r /Helvetica findfont 64.4212 sf 0 0 m (10) show NC gr  341 1053 m -22 X s 341 1078 m -22 X s 341 1096 m -22 X s 341 1110 m -22 X s 341 1121 m -22 X s 341 1131 m -22 X s 341 1139 m -22 X s 341 1146 m -22
 X s 363 1153 m -44 X s
 gsave  2263 1770 2 313 C 274.567 1155.89 t 0 r /Helvetica findfont 44.0776 sf 0 0 m (3) show NC gr 
 gsave  2263 1770 2 313 C 203.383 1125.38 t 0 r /Helvetica findfont 64.4212 sf 0 0 m (10) show NC gr  341 1195 m -22 X s 341 1220 m -22 X s 341 1238 m -22 X s 341 1252 m -22 X s 341 1263 m -22 X s 341 1273 m -22 X s 341 1281 m -22 X s 341 1288 m -22
 X s 363 1295 m -44 X s
 gsave  2263 1770 2 313 C 274.567 1291.48 t 0 r /Helvetica findfont 44.0776 sf 0 0 m (4) show NC gr 
 gsave  2263 1770 2 313 C 203.383 1264.36 t 0 r /Helvetica findfont 64.4212 sf 0 0 m (10) show NC gr  341 1337 m -22 X s 341 1362 m -22 X s 341 1380 m -22 X s 341 1394 m -22 X s 341 1405 m -22 X s 341 1415 m -22 X s 341 1423 m -22 X s 341 1430 m -22
 X s 363 1437 m -44 X s
 gsave  2263 1770 2 313 C 274.567 1437.24 t 0 r /Helvetica findfont 44.0776 sf 0 0 m (5) show NC gr 
 gsave  2263 1770 2 313 C 203.383 1406.73 t 0 r /Helvetica findfont 64.4212 sf 0 0 m (10) show NC gr  341 1480 m -22 X s 341 1505 m -22 X s 341 1522 m -22 X s 341 1536 m -22 X s 341 1547 m -22 X s 341 1557 m -22 X s 341 1565 m -22 X s 341 1572 m -22
 X s 363 1579 m -44 X s
 gsave  2263 1770 2 313 C 274.567 1579.61 t 0 r /Helvetica findfont 44.0776 sf 0 0 m (6) show NC gr 
 gsave  2263 1770 2 313 C 203.383 1549.1 t 0 r /Helvetica findfont 64.4212 sf 0 0 m (10) show NC gr  341 1622 m -22 X s 341 1647 m -22 X s 341 1664 m -22 X s 341 1678 m -22 X s 341 1689 m -22 X s 341 1699 m -22 X s 341 1707 m -22 X s 341 1714 m -22 X
 s 363 1721 m -44 X s
 gsave  2263 1770 2 313 C 274.567 1718.58 t 0 r /Helvetica findfont 44.0776 sf 0 0 m (7) show NC gr 
 gsave  2263 1770 2 313 C 203.383 1691.47 t 0 r /Helvetica findfont 64.4212 sf 0 0 m (10) show NC gr  2179 584 m 1145 Y s 2157 627 m 22 X s 2157 652 m 22 X s 2157 670 m 22 X s 2157 684 m 22 X s 2157 695 m 22 X s 2157 704 m 22 X s 2157 713 m 22 X s
 2157 720 m 22 X s 2136 726 m 43 X s 2157 769 m 22 X s 2157 794 m 22 X s 2157 812 m 22 X s 2157 826 m 22 X s 2157 837 m 22 X s 2157 846 m 22 X s 2157 855 m 22 X s 2157 862 m 22 X s 2136 868 m 43 X s 2157 911 m 22 X s 2157 936 m 22 X s 2157 954 m 22 X
 s 2157 968 m 22 X s 2157 979 m 22 X s 2157 989 m 22 X s 2157 997 m 22 X s 2157 1004 m 22 X s 2136 1011 m 43 X s 2157 1053 m 22 X s 2157 1078 m 22 X s 2157 1096 m 22 X s 2157 1110 m 22 X s 2157 1121 m 22 X s 2157 1131 m 22 X s 2157 1139 m 22 X s 2157
 1146 m 22 X s 2136 1153 m 43 X s 2157 1195 m 22 X s 2157 1220 m 22 X s 2157 1238 m 22 X s 2157 1252 m 22 X s 2157 1263 m 22 X s 2157 1273 m 22 X s 2157 1281 m 22 X s 2157 1288 m 22 X s 2136 1295 m 43 X s 2157 1337 m 22 X s 2157 1362 m 22 X s 2157
 1380 m 22 X s 2157 1394 m 22 X s 2157 1405 m 22 X s 2157 1415 m 22 X s 2157 1423 m 22 X s 2157 1430 m 22 X s 2136 1437 m 43 X s 2157 1480 m 22 X s 2157 1505 m 22 X s 2157 1522 m 22 X s 2157 1536 m 22 X s 2157 1547 m 22 X s 2157 1557 m 22 X s 2157
 1565 m 22 X s 2157 1572 m 22 X s 2136 1579 m 43 X s 2157 1622 m 22 X s 2157 1647 m 22 X s 2157 1664 m 22 X s 2157 1678 m 22 X s 2157 1689 m 22 X s 2157 1699 m 22 X s 2157 1707 m 22 X s 2157 1714 m 22 X s 2136 1721 m 43 X s 0.4 0.6 1 c black 0.4 0.6
 1 c 319 584 m 520 Y 110 X -31 Y 109 X -31 Y 109 X -35 Y 110 X -30 Y 109 X -34 Y 110 X -33 Y 109 X -26 Y 110 X -33 Y 109 X -29 Y 109 X -22 Y 110 X -3 Y 109 X -57 Y 110 X -6 Y 109 X -54 Y 110 X -6 Y 109 X 46 Y 109 X -136 Y f black 0.4 0.6 1 c black
 319 1104 m 110 X -31 Y 109 X -31 Y 109 X -35 Y 110 X -30 Y 109 X -34 Y 110 X -33 Y 109 X -26 Y 110 X -33 Y 109 X -29 Y 109 X -22 Y 110 X -3 Y 109 X -57 Y 110 X -6 Y 109 X -54 Y 110 X -6 Y 109 X 46 Y 109 X s 0.999 0.999 0.999 c black 0.999 0.999
 0.999 c 319 584 m 488 Y 110 X -27 Y 109 X -27 Y 109 X -36 Y 110 X -28 Y 109 X -32 Y 110 X -33 Y 109 X -23 Y 110 X -43 Y 109 X -21 Y 109 X -35 Y 110 X 7 Y 109 X -58 Y 110 X 5 Y 109 X -61 Y 110 X -8 Y 109 X 44 Y 109 X -112 Y f black 0.999 0.999 0.999
 c black 319 1072 m 110 X -27 Y 109 X -27 Y 109 X -36 Y 110 X -28 Y 109 X -32 Y 110 X -33 Y 109 X -23 Y 110 X -43 Y 109 X -21 Y 109 X -35 Y 110 X 7 Y 109 X -58 Y 110 X 5 Y 109 X -61 Y 110 X -8 Y 109 X 44 Y 109 X s 1 1 1 c black 319 1072 m 110 X -27 Y
 109 X -27 Y 109 X -36 Y 110 X -28 Y 109 X -32 Y 110 X -33 Y 109 X -23 Y 110 X -43 Y 109 X -21 Y 109 X -35 Y 110 X 7 Y 109 X -58 Y 110 X 5 Y 109 X -61 Y 110 X -8 Y 109 X 44 Y 109 X s 0.6 1 0.6 c black 0.6 1 0.6 c 319 584 m 488 Y 110 X -27 Y 109 X -27
 Y 109 X -36 Y 110 X -28 Y 109 X -32 Y 110 X -33 Y 109 X -23 Y 110 X -43 Y 109 X -21 Y 109 X -35 Y 110 X 7 Y 109 X -58 Y 110 X 5 Y 109 X -61 Y 110 X -8 Y 109 X 44 Y 109 X -112 Y f black 0.6 1 0.6 c black 319 1072 m 110 X -27 Y 109 X -27 Y 109 X -36 Y
 110 X -28 Y 109 X -32 Y 110 X -33 Y 109 X -23 Y 110 X -43 Y 109 X -21 Y 109 X -35 Y 110 X 7 Y 109 X -58 Y 110 X 5 Y 109 X -61 Y 110 X -8 Y 109 X 44 Y 109 X s 0.999 0.999 0.999 c black 0.999 0.999 0.999 c 319 584 m 470 Y 110 X -27 Y 109 X -29 Y 109 X
 -30 Y 110 X -26 Y 109 X -33 Y 110 X -30 Y 109 X -26 Y 110 X -40 Y 109 X -17 Y 109 X -37 Y 110 X 12 Y 109 X -63 Y 110 X 10 Y 109 X -64 Y 110 X -10 Y 109 X 49 Y 109 X -109 Y f black 0.999 0.999 0.999 c black 319 1054 m 110 X -27 Y 109 X -29 Y 109 X
 -30 Y 110 X -26 Y 109 X -33 Y 110 X -30 Y 109 X -26 Y 110 X -40 Y 109 X -17 Y 109 X -37 Y 110 X 12 Y 109 X -63 Y 110 X 10 Y 109 X -64 Y 110 X -10 Y 109 X 49 Y 109 X s 1 1 1 c black 319 1054 m 110 X -27 Y 109 X -29 Y 109 X -30 Y 110 X -26 Y 109 X -33
 Y 110 X -30 Y 109 X -26 Y 110 X -40 Y 109 X -17 Y 109 X -37 Y 110 X 12 Y 109 X -63 Y 110 X 10 Y 109 X -64 Y 110 X -10 Y 109 X 49 Y 109 X s 1 0.8 0.4 c black 1 0.8 0.4 c 319 584 m 470 Y 110 X -27 Y 109 X -29 Y 109 X -30 Y 110 X -26 Y 109 X -33 Y 110
 X -30 Y 109 X -26 Y 110 X -40 Y 109 X -17 Y 109 X -37 Y 110 X 12 Y 109 X -63 Y 110 X 10 Y 109 X -64 Y 110 X -10 Y 109 X 49 Y 109 X -109 Y f black 1 0.8 0.4 c black 319 1054 m 110 X -27 Y 109 X -29 Y 109 X -30 Y 110 X -26 Y 109 X -33 Y 110 X -30 Y
 109 X -26 Y 110 X -40 Y 109 X -17 Y 109 X -37 Y 110 X 12 Y 109 X -63 Y 110 X 10 Y 109 X -64 Y 110 X -10 Y 109 X 49 Y 109 X s 0.999 0.999 0.999 c black 0.999 0.999 0.999 c 319 584 m 342 Y 110 X -24 Y 109 X -33 Y 109 X -44 Y 110 X -14 Y 109 X -20 Y
 110 X 2 Y 109 X -45 Y 110 X -65 Y 109 X 31 Y 109 X -21 Y 110 X -83 Y 109 X -26 Y 110 X 87 Y 109 X -87 Y 219 X 17 Y 109 X -17 Y f black 0.999 0.999 0.999 c black 319 926 m 110 X -24 Y 109 X -33 Y 109 X -44 Y 110 X -14 Y 109 X -20 Y 110 X 2 Y 109 X
 -45 Y 110 X -65 Y 109 X 31 Y 109 X -21 Y 110 X -83 Y 109 X -26 Y 110 X 87 Y 109 X -87 Y 219 X 17 Y 109 X s 1 1 1 c black 319 926 m 110 X -24 Y 109 X -33 Y 109 X -44 Y 110 X -14 Y 109 X -20 Y 110 X 2 Y 109 X -45 Y 110 X -65 Y 109 X 31 Y 109 X -21 Y
 110 X -83 Y 109 X -26 Y 110 X 87 Y 109 X -87 Y 219 X 17 Y 109 X s 1 0.4 0.6 c black 1 0.4 0.6 c 319 584 m 342 Y 110 X -24 Y 109 X -33 Y 109 X -44 Y 110 X -14 Y 109 X -20 Y 110 X 2 Y 109 X -45 Y 110 X -65 Y 109 X 31 Y 109 X -21 Y 110 X -83 Y 109 X
 -26 Y 110 X 87 Y 109 X -87 Y 219 X 17 Y 109 X -17 Y f black 1 0.4 0.6 c black 319 926 m 110 X -24 Y 109 X -33 Y 109 X -44 Y 110 X -14 Y 109 X -20 Y 110 X 2 Y 109 X -45 Y 110 X -65 Y 109 X 31 Y 109 X -21 Y 110 X -83 Y 109 X -26 Y 110 X 87 Y 109 X -87
 Y 219 X 17 Y 109 X s 0.999 0.999 0.999 c black 0.999 0.999 0.999 c 319 584 m 66 Y 110 X -40 Y 109 X -26 Y 657 X 57 Y 109 X -28 Y 109 X -26 Y 110 X -3 Y 219 X 18 Y 109 X -18 Y 219 X 2 Y 109 X -2 Y f black 0.999 0.999 0.999 c black 319 650 m 110 X -40
 Y 109 X -26 Y 657 X 57 Y 109 X -28 Y 109 X -26 Y 110 X -3 Y 219 X 18 Y 109 X -18 Y 219 X 2 Y 109 X s 1 1 1 c black 319 650 m 110 X -40 Y 109 X -26 Y 657 X 57 Y 109 X -28 Y 109 X -26 Y 110 X -3 Y 219 X 18 Y 109 X -18 Y 219 X 2 Y 109 X s 0 0 0.4 c
 black 0 0 0.4 c 319 584 m 66 Y 110 X -40 Y 109 X -26 Y 657 X 57 Y 109 X -28 Y 109 X -26 Y 110 X -3 Y 219 X 18 Y 109 X -18 Y 219 X 2 Y 109 X -2 Y f black 0 0 0.4 c black 319 650 m 110 X -40 Y 109 X -26 Y 657 X 57 Y 109 X -28 Y 109 X -26 Y 110 X -3 Y
 219 X 18 Y 109 X -18 Y 219 X 2 Y 109 X s 1 0 0 c 6 lw 1 1 1 c black 1 0 0 c 319 1104 m 110 X -31 Y 109 X -31 Y 109 X -35 Y 110 X -30 Y 109 X -34 Y 110 X -33 Y 109 X -26 Y 110 X -33 Y 109 X -29 Y 109 X -22 Y 110 X -3 Y 109 X -57 Y 110 X -6 Y 109 X
 -54 Y 110 X -6 Y 109 X 46 Y 109 X s black 3 lw 1 0 0 c 1 lw << /PatternType 1 /PaintType 2 /TilingType 1 /BBox [ 0 0 100 100 ] /XStep 100 /YStep 100 /PaintProc { begin gsave 0 100 m 100 0 l s gr end } >> [ 0.24 0 0 0.24 0 0 ] makepattern /P05 exch
 def /cs {[/Pattern /DeviceRGB] setcolorspace} def /FA {f [/DeviceRGB] setcolorspace} def cs 1 0 0 P05 setcolor 319 584 m 522 Y 110 X -30 Y 109 X -31 Y 109 X -35 Y 110 X -29 Y 109 X -34 Y 110 X -27 Y 109 X -29 Y 110 X -34 Y 109 X -23 Y 109 X -19 Y
 110 X -5 Y 109 X -61 Y 219 X -59 Y 110 X 3 Y 109 X 38 Y 109 X -147 Y 121 Y -109 X -57 Y -109 X 19 Y -110 X 47 Y -109 X 15 Y -110 X 51 Y -109 X 2 Y -110 X 23 Y -109 X 40 Y -109 X 32 Y -110 X 21 Y -109 X 41 Y -110 X 34 Y -109 X 31 Y -110 X 35 Y -109 X
 32 Y -109 X 30 Y -110 X -517 Y FA 6 lw 1 1 1 c 15 lw 1140 846 m 4 Y s 1140 850 m cl s 1140 805 m -14 Y s 1140 791 m cl s 1249 842 m -4 Y s 1249 838 m cl s 1359 846 m 4 Y s 1359 850 m cl s 1359 805 m -14 Y s 1359 791 m cl s 1468 815 m 9 Y s 1468 824
 m cl s 1468 774 m -28 Y s 1468 746 m cl s 1578 832 m 6 Y s 1578 838 m cl s 1578 792 m -20 Y s 1578 772 m cl s 1687 789 m 17 Y s 1687 806 m cl s 1687 749 m -44 Y s 1687 705 m cl s black 1 1 1 c 3 lw /w 43 def /w2 {w 2 div} def /w3 {w 3 div} def 374
 1103 483 1069 593 1034 702 1009 812 974 921 936 1030 914 1140 826 1249 862 1359 826 1468 794 1578 812 1687 769 13 { m20} R 15 lw black 6 lw 1 1 1 c black 3 lw /w 33 def /w2 {w 2 div} def /w3 {w 3 div} def 374 1103 m20 6 lw 3 lw 483 1069 m20 6 lw 3
 lw 593 1034 m20 6 lw 3 lw 702 1009 m20 6 lw 3 lw 812 974 m20 6 lw 3 lw 921 936 m20 6 lw 1030 899 m 2 Y s 3 lw 1030 914 m20 6 lw 1140 789 m 23 Y s 1140 839 m 9 Y s 3 lw 1140 826 m20 6 lw 1249 837 m 11 Y s 1249 876 m 4 Y s 3 lw 1249 862 m20 6 lw 1359
 789 m 23 Y s 1359 839 m 9 Y s 3 lw 1359 826 m20 6 lw 1468 741 m 40 Y s 1468 808 m 14 Y s 3 lw 1468 794 m20 6 lw 1578 769 m 29 Y s 1578 825 m 12 Y s 3 lw 1578 812 m20 6 lw 1687 693 m 63 Y s 1687 783 m 19 Y s 3 lw 1687 769 m20 6 lw 1030 901 m -2 Y s
 1030 899 m cl s 1140 839 m 11 Y s 1140 850 m cl s 1140 812 m -21 Y s 1140 791 m cl s 1249 876 m 4 Y s 1249 880 m cl s 1249 848 m -10 Y s 1249 838 m cl s 1359 839 m 11 Y s 1359 850 m cl s 1359 812 m -21 Y s 1359 791 m cl s 1468 808 m 16 Y s 1468 824
 m cl s 1468 781 m -35 Y s 1468 746 m cl s 1578 825 m 13 Y s 1578 838 m cl s 1578 798 m -26 Y s 1578 772 m cl s 1687 783 m 23 Y s 1687 806 m cl s 1687 756 m -51 Y s 1687 705 m cl s 3 lw 374 1103 483 1069 593 1034 702 1009 812 974 921 936 1030 914
 1140 826 1249 862 1359 826 1468 794 1578 812 1687 769 13 { m20} R 6 lw 3 lw 319 584 m 1860 X s 538 584 m cl s 593 584 m cl s 647 584 m cl s 702 584 m cl s 757 584 m cl s 812 584 m cl s 866 584 m cl s 921 584 m cl s 976 584 m cl s 1030 584 m cl s
 1085 584 m cl s 1140 584 m cl s 1195 584 m cl s 1249 584 m cl s 1304 584 m cl s 1359 584 m cl s 1413 584 m cl s 1468 584 m cl s 1523 584 m cl s 1578 584 m cl s 1632 584 m cl s 1687 584 m cl s 1742 584 m cl s 1796 584 m cl s 1851 584 m cl s 1906 584
 m cl s 1961 584 m cl s 2015 584 m cl s 2070 584 m cl s 2125 584 m cl s 2179 584 m cl s 538 584 m cl s 483 584 m cl s 429 584 m cl s 374 584 m cl s 319 584 m cl s 319 1729 m 1860 X s 538 1729 m cl s 593 1729 m cl s 647 1729 m cl s 702 1729 m cl s 757
 1729 m cl s 812 1729 m cl s 866 1729 m cl s 921 1729 m cl s 976 1729 m cl s 1030 1729 m cl s 1085 1729 m cl s 1140 1729 m cl s 1195 1729 m cl s 1249 1729 m cl s 1304 1729 m cl s 1359 1729 m cl s 1413 1729 m cl s 1468 1729 m cl s 1523 1729 m cl s
 1578 1729 m cl s 1632 1729 m cl s 1687 1729 m cl s 1742 1729 m cl s 1796 1729 m cl s 1851 1729 m cl s 1906 1729 m cl s 1961 1729 m cl s 2015 1729 m cl s 2070 1729 m cl s 2125 1729 m cl s 2179 1729 m cl s 538 1729 m cl s 483 1729 m cl s 429 1729 m cl
 s 374 1729 m cl s 319 1729 m cl s 319 584 m 1145 Y s 341 627 m -22 X s 341 652 m -22 X s 341 670 m -22 X s 341 684 m -22 X s 341 695 m -22 X s 341 704 m -22 X s 341 713 m -22 X s 341 720 m -22 X s 363 726 m -44 X s 341 769 m -22 X s 341 794 m -22 X
 s 341 812 m -22 X s 341 826 m -22 X s 341 837 m -22 X s 341 846 m -22 X s 341 855 m -22 X s 341 862 m -22 X s 363 868 m -44 X s 341 911 m -22 X s 341 936 m -22 X s 341 954 m -22 X s 341 968 m -22 X s 341 979 m -22 X s 341 989 m -22 X s 341 997 m -22
 X s 341 1004 m -22 X s 363 1011 m -44 X s 341 1053 m -22 X s 341 1078 m -22 X s 341 1096 m -22 X s 341 1110 m -22 X s 341 1121 m -22 X s 341 1131 m -22 X s 341 1139 m -22 X s 341 1146 m -22 X s 363 1153 m -44 X s 341 1195 m -22 X s 341 1220 m -22 X
 s 341 1238 m -22 X s 341 1252 m -22 X s 341 1263 m -22 X s 341 1273 m -22 X s 341 1281 m -22 X s 341 1288 m -22 X s 363 1295 m -44 X s 341 1337 m -22 X s 341 1362 m -22 X s 341 1380 m -22 X s 341 1394 m -22 X s 341 1405 m -22 X s 341 1415 m -22 X s
 341 1423 m -22 X s 341 1430 m -22 X s 363 1437 m -44 X s 341 1480 m -22 X s 341 1505 m -22 X s 341 1522 m -22 X s 341 1536 m -22 X s 341 1547 m -22 X s 341 1557 m -22 X s 341 1565 m -22 X s 341 1572 m -22 X s 363 1579 m -44 X s 341 1622 m -22 X s
 341 1647 m -22 X s 341 1664 m -22 X s 341 1678 m -22 X s 341 1689 m -22 X s 341 1699 m -22 X s 341 1707 m -22 X s 341 1714 m -22 X s 363 1721 m -44 X s 2179 584 m 1145 Y s 2157 627 m 22 X s 2157 652 m 22 X s 2157 670 m 22 X s 2157 684 m 22 X s 2157
 695 m 22 X s 2157 704 m 22 X s 2157 713 m 22 X s 2157 720 m 22 X s 2136 726 m 43 X s 2157 769 m 22 X s 2157 794 m 22 X s 2157 812 m 22 X s 2157 826 m 22 X s 2157 837 m 22 X s 2157 846 m 22 X s 2157 855 m 22 X s 2157 862 m 22 X s 2136 868 m 43 X s
 2157 911 m 22 X s 2157 936 m 22 X s 2157 954 m 22 X s 2157 968 m 22 X s 2157 979 m 22 X s 2157 989 m 22 X s 2157 997 m 22 X s 2157 1004 m 22 X s 2136 1011 m 43 X s 2157 1053 m 22 X s 2157 1078 m 22 X s 2157 1096 m 22 X s 2157 1110 m 22 X s 2157 1121
 m 22 X s 2157 1131 m 22 X s 2157 1139 m 22 X s 2157 1146 m 22 X s 2136 1153 m 43 X s 2157 1195 m 22 X s 2157 1220 m 22 X s 2157 1238 m 22 X s 2157 1252 m 22 X s 2157 1263 m 22 X s 2157 1273 m 22 X s 2157 1281 m 22 X s 2157 1288 m 22 X s 2136 1295 m
 43 X s 2157 1337 m 22 X s 2157 1362 m 22 X s 2157 1380 m 22 X s 2157 1394 m 22 X s 2157 1405 m 22 X s 2157 1415 m 22 X s 2157 1423 m 22 X s 2157 1430 m 22 X s 2136 1437 m 43 X s 2157 1480 m 22 X s 2157 1505 m 22 X s 2157 1522 m 22 X s 2157 1536 m 22
 X s 2157 1547 m 22 X s 2157 1557 m 22 X s 2157 1565 m 22 X s 2157 1572 m 22 X s 2136 1579 m 43 X s 2157 1622 m 22 X s 2157 1647 m 22 X s 2157 1664 m 22 X s 2157 1678 m 22 X s 2157 1689 m 22 X s 2157 1699 m 22 X s 2157 1707 m 22 X s 2157 1714 m 22 X
 s 2136 1721 m 43 X s
 gsave  2263 1770 2 313 C 406.765 1447.41 t 0 r /Helvetica findfont 64.4212 sf 0 0 m (VR0LmetSig for MB\255C) show NC gr 
 gsave  2263 1770 2 313 C 1464.36 1630.45 t 0 r /Helvetica findfont 64.4212 sf 0 0 m (SM Total) show NC gr  1 1 1 c 1338 1616 m 107 X 64 Y -107 X f 1 0 0 c 6 lw 1338 1648 m 107 X s black
 gsave  2263 1770 2 313 C 1464.36 1538.93 t 0 r /Helvetica findfont 64.4212 sf 0 0 m (Data) show NC gr  1391 1529 m 55 Y s 3 lw 1391 1557 m20 6 lw
 gsave  2263 1770 2 313 C 1464.36 1447.41 t 0 r /Helvetica findfont 64.4212 sf 0 0 m (W+jets) show NC gr  0.4 0.6 1 c 3 lw 1338 1434 m 107 X 64 Y -107 X f 6 lw black 3 lw 1338 1498 m 107 X s 1338 1434 m 107 X s 1445 1434 m 64 Y s 1338 1434 m 64 Y s
 gsave  2263 1770 2 313 C 1498.25 1355.88 t 0 r /Helvetica findfont 64.4212 sf 0 0 m (\(+EW\) & single top) show NC gr 
 gsave  2263 1770 2 313 C 1481.3 1355.88 t 0 r /Helvetica findfont 64.4212 sf 0 0 m (t) show NC gr  1481 1407 m 17 X s
 gsave  2263 1770 2 313 C 1464.36 1355.88 t 0 r /Helvetica findfont 64.4212 sf 0 0 m (t) show NC gr  0.6 1 0.6 c 1338 1343 m 107 X 63 Y -107 X f black 1338 1406 m 107 X s 1338 1343 m 107 X s 1445 1343 m 63 Y s 1338 1343 m 63 Y s
 gsave  2263 1770 2 313 C 1464.36 1264.36 t 0 r /Helvetica findfont 64.4212 sf 0 0 m (Z+jets) show NC gr  1 0.8 0.4 c 1338 1252 m 107 X 63 Y -107 X f black 1338 1315 m 107 X s 1338 1252 m 107 X s 1445 1252 m 63 Y s 1338 1252 m 63 Y s
 gsave  2263 1770 2 313 C 1464.36 1172.84 t 0 r /Helvetica findfont 64.4212 sf 0 0 m (Diboson) show NC gr  1 0.4 0.6 c 1338 1161 m 107 X 63 Y -107 X f black 1338 1224 m 107 X s 1338 1161 m 107 X s 1445 1161 m 63 Y s 1338 1161 m 63 Y s
 gsave  2263 1770 2 313 C 1464.36 1081.32 t 0 r /Helvetica findfont 64.4212 sf 0 0 m (Multi\255jet) show NC gr  0 0 0.4 c 1338 1070 m 107 X 63 Y -107 X f black 1338 1133 m 107 X s 1338 1070 m 107 X s 1445 1070 m 63 Y s 1338 1070 m 63 Y s
 gsave  2263 1770 2 313 C 911.832 1566.05 t 0 r /Helvetica findfont 44.0776 sf 0 0 m (\2551) show NC gr 
 gsave  2263 1770 2 313 C 471.17 1535.54 t 0 r /Helvetica findfont 64.4212 sf 0 0 m (=13TeV, 139 fb) show NC gr 
 gsave  2263 1770 2 313 C 440.662 1535.54 t 0 r /Helvetica findfont 64.4212 sf 0 0 m (s) show NC gr  6 lw 420 1573 m 7 -41 d s 3 lw 427 1532 m 7 61 d s 434 1593 m 37 X s 1 1 1 c 2254 561 2 2 bf black 1 1 1 c black 1860 358 318 187 bl 1 1 1 c black
 1860 358 318 187 bl 6 lw 1 1 1 c black 3 lw 373 365 m20 6 lw 3 lw 482 354 m20 6 lw 3 lw 591 346 m20 6 lw 3 lw 701 370 m20 6 lw 3 lw 810 358 m20 6 lw 3 lw 920 349 m20 6 lw 3 lw 1029 378 m20 6 lw 3 lw 1139 266 m20 6 lw 3 lw 1248 396 m20 6 lw 3 lw 1358
 377 m20 6 lw 3 lw 1467 350 m20 6 lw 3 lw 1576 411 m20 6 lw 3 lw 1686 464 m20 6 lw 3 lw 318 187 m 1860 X s
 gsave  2254 561 2 2 C 1959.25 33.8971 t 0 r /Helvetica findfont 78.1689 sf 0 0 m ( [GeV]) show NC gr 
 gsave  2254 561 2 2 C 1901.63 13.5588 t 0 r /Helvetica findfont 50.9797 sf 0 0 m (eff) show NC gr 
 gsave  2254 561 2 2 C 1840.61 33.8971 t 0 r /Helvetica findfont 78.1689 sf 0 0 m (m) show NC gr  537 201 m -14 Y s 591 194 m -7 Y s 646 194 m -7 Y s 701 194 m -7 Y s 756 194 m -7 Y s 810 201 m -14 Y s 865 194 m -7 Y s 920 194 m -7 Y s 975 194 m -7 Y
 s 1029 194 m -7 Y s 1084 201 m -14 Y s 1139 194 m -7 Y s 1193 194 m -7 Y s 1248 194 m -7 Y s 1303 194 m -7 Y s 1358 201 m -14 Y s 1412 194 m -7 Y s 1467 194 m -7 Y s 1522 194 m -7 Y s 1576 194 m -7 Y s 1631 201 m -14 Y s 1686 194 m -7 Y s 1741 194 m
 -7 Y s 1795 194 m -7 Y s 1850 194 m -7 Y s 1905 201 m -14 Y s 1959 194 m -7 Y s 2014 194 m -7 Y s 2069 194 m -7 Y s 2124 194 m -7 Y s 2178 201 m -14 Y s 537 201 m -14 Y s 482 194 m -7 Y s 427 194 m -7 Y s 373 194 m -7 Y s 318 194 m -7 Y s
 gsave  2254 561 2 2 C 447.442 118.64 t 0 r /Helvetica findfont 78.1689 sf 0 0 m (2000) show NC gr 
 gsave  2254 561 2 2 C 722.008 118.64 t 0 r /Helvetica findfont 78.1689 sf 0 0 m (2500) show NC gr 
 gsave  2254 561 2 2 C 993.185 118.64 t 0 r /Helvetica findfont 78.1689 sf 0 0 m (3000) show NC gr 
 gsave  2254 561 2 2 C 1267.75 118.64 t 0 r /Helvetica findfont 78.1689 sf 0 0 m (3500) show NC gr 
 gsave  2254 561 2 2 C 1542.32 118.64 t 0 r /Helvetica findfont 78.1689 sf 0 0 m (4000) show NC gr 
 gsave  2254 561 2 2 C 1813.5 118.64 t 0 r /Helvetica findfont 78.1689 sf 0 0 m (4500) show NC gr 
 gsave  2254 561 2 2 C 2088.06 118.64 t 0 r /Helvetica findfont 78.1689 sf 0 0 m (5000) show NC gr  318 545 m 1860 X s 537 531 m 14 Y s 591 538 m 7 Y s 646 538 m 7 Y s 701 538 m 7 Y s 756 538 m 7 Y s 810 531 m 14 Y s 865 538 m 7 Y s 920 538 m 7 Y s
 975 538 m 7 Y s 1029 538 m 7 Y s 1084 531 m 14 Y s 1139 538 m 7 Y s 1193 538 m 7 Y s 1248 538 m 7 Y s 1303 538 m 7 Y s 1358 531 m 14 Y s 1412 538 m 7 Y s 1467 538 m 7 Y s 1522 538 m 7 Y s 1576 538 m 7 Y s 1631 531 m 14 Y s 1686 538 m 7 Y s 1741 538
 m 7 Y s 1795 538 m 7 Y s 1850 538 m 7 Y s 1905 531 m 14 Y s 1959 538 m 7 Y s 2014 538 m 7 Y s 2069 538 m 7 Y s 2124 538 m 7 Y s 2178 531 m 14 Y s 537 531 m 14 Y s 482 538 m 7 Y s 427 538 m 7 Y s 373 538 m 7 Y s 318 538 m 7 Y s 318 187 m 358 Y s
 gsave  2254 561 2 2 C 166.096 284.736 t 90 r /Helvetica findfont 67.9729 sf 0 0 m (Data/SM) show NC gr  361 203 m -43 X s 339 220 m -21 X s 339 236 m -21 X s 339 252 m -21 X s 339 268 m -21 X s 361 285 m -43 X s 339 301 m -21 X s 339 317 m -21 X s
 339 334 m -21 X s 339 350 m -21 X s 361 366 m -43 X s 339 382 m -21 X s 339 399 m -21 X s 339 415 m -21 X s 339 431 m -21 X s 361 447 m -43 X s 339 464 m -21 X s 339 480 m -21 X s 339 496 m -21 X s 339 512 m -21 X s 361 529 m -43 X s 361 203 m -43 X
 s 339 187 m -21 X s 361 529 m -43 X s
 gsave  2254 561 2 2 C 261.008 183.044 t 0 r /Helvetica findfont 57.777 sf 0 0 m (0) show NC gr 
 gsave  2254 561 2 2 C 213.552 261.008 t 0 r /Helvetica findfont 57.777 sf 0 0 m (0.5) show NC gr 
 gsave  2254 561 2 2 C 271.177 342.361 t 0 r /Helvetica findfont 57.777 sf 0 0 m (1) show NC gr 
 gsave  2254 561 2 2 C 213.552 423.714 t 0 r /Helvetica findfont 57.777 sf 0 0 m (1.5) show NC gr 
 gsave  2254 561 2 2 C 261.008 505.067 t 0 r /Helvetica findfont 57.777 sf 0 0 m (2) show NC gr  2178 187 m 358 Y s 2135 203 m 43 X s 2157 220 m 21 X s 2157 236 m 21 X s 2157 252 m 21 X s 2157 268 m 21 X s 2135 285 m 43 X s 2157 301 m 21 X s 2157 317
 m 21 X s 2157 334 m 21 X s 2157 350 m 21 X s 2135 366 m 43 X s 2157 382 m 21 X s 2157 399 m 21 X s 2157 415 m 21 X s 2157 431 m 21 X s 2135 447 m 43 X s 2157 464 m 21 X s 2157 480 m 21 X s 2157 496 m 21 X s 2157 512 m 21 X s 2135 529 m 43 X s 2135
 203 m 43 X s 2157 187 m 21 X s 2135 529 m 43 X s 9 lw 701 384 m 3 Y s 701 387 m cl s 701 357 m -4 Y s 701 353 m cl s 810 371 m 7 Y s 810 378 m cl s 810 344 m -7 Y s 810 337 m cl s 920 362 m 13 Y s 920 375 m cl s 920 335 m -13 Y s 920 322 m cl s 1029
 392 m 25 Y s 1029 417 m cl s 1029 365 m -24 Y s 1029 341 m cl s 1139 280 m 16 Y s 1139 296 m cl s 1139 253 m -14 Y s 1139 239 m cl s 1248 410 m 53 Y s 1248 463 m cl s 1248 383 m -50 Y s 1248 333 m cl s 1358 391 m 69 Y s 1358 460 m cl s 1358 364 m
 -62 Y s 1358 302 m cl s 1467 364 m 79 Y s 1467 443 m cl s 1467 337 m -66 Y s 1467 271 m cl s 1576 425 m 98 Y s 1576 523 m cl s 1576 398 m -86 Y s 1576 312 m cl s 1686 477 m 68 Y s 1686 545 m cl s 1686 450 m -154 Y s 1686 296 m cl s 3 lw 373 365 482
 354 591 346 701 370 810 358 920 349 1029 378 1139 266 1248 396 1358 377 1467 350 1576 411 1686 464 13 { m20} R 9 lw 1 0 0 c 6 lw black 3 lw 1 0 0 c 2178 227 m cl s 2178 255 m cl s 2178 284 m s 2178 312 m s 2178 341 m -8 -9 d s 2178 369 m -37 -37 d s
 2178 398 m -66 -66 d s 2152 400 m -69 -68 d s 2069 318 m -8 -8 d s 2123 400 m -91 -90 d s 2094 400 m -91 -90 d s 2069 403 m -94 -93 d s 2059 423 m -100 -100 d s 2031 423 m -87 -87 d s 2002 423 m -87 -87 d s 1973 423 m -14 -14 d s 1947 396 m -60 -60
 d s 1918 396 m -60 -60 d s 1850 328 m -7 -7 d s 1889 396 m -75 -75 d s 1861 396 m -75 -75 d s 1847 411 m -90 -90 d s 1818 411 m -77 -78 d s 1790 411 m -72 -71 d s 1761 411 m -71 -71 d s 1714 392 m -53 -52 d s 1685 392 m -53 -52 d s 1631 339 m -10
 -11 d s 1656 392 m -64 -64 d s 1631 396 m -68 -68 d s 1610 404 m -75 -76 d s 1581 404 m -80 -80 d s 1553 404 m -81 -80 d s 1524 404 m -80 -80 d s 1500 409 m -85 -85 d s 1472 409 m -81 -81 d s 1443 409 m -80 -81 d s 1414 409 m -2 -2 d s 1409 404 m
 -75 -76 d s 1381 404 m -76 -76 d s 1352 404 m -54 -54 d s 1323 404 m -20 -21 d s 1302 382 m -33 -32 d s 1273 382 m -33 -32 d s 1245 382 m -33 -32 d s 1216 382 m -35 -35 d s 1190 385 m -38 -38 d s 1161 385 m -38 -38 d s 1132 385 m -37 -38 d s 1104
 385 m -47 -47 d s 1084 394 m -56 -56 d s 1055 394 m -56 -56 d s 1027 394 m -52 -52 d s 998 394 m -39 -39 d s 952 377 m -21 -22 d s 923 377 m -21 -22 d s 895 377 m -22 -22 d s 866 377 m -21 -21 d s 837 376 m -21 -20 d s 808 376 m -20 -20 d s 779 376
 m -20 -20 d s 749 375 m -18 -18 d s 721 375 m -18 -18 d s 692 375 m -18 -18 d s 663 375 m -17 -17 d s 633 373 m -15 -14 d s 604 373 m -14 -14 d s 576 373 m -15 -14 d s 547 373 m -14 -14 d s 518 373 m -14 -14 d s 489 373 m -14 -14 d s 460 373 m -13
 -14 d s 318 231 m s 432 373 m -14 -13 d s 318 259 m s 403 372 m -13 -12 d s 318 288 m s 374 372 m -13 -12 d s 318 317 m s 345 372 m -13 -12 d s 318 345 m s 6 lw black[ 4 8] 0 sd 3 lw 318 447 m 1860 X s 318 285 m 1860 X s 1 0 0 c[  12 12 ] 0 sd 6 lw
 318 366 m 1860 X s
 gr  gr showpage
end
%%EOF
