%!PS-Adobe-2.0 EPSF-2.0
%%BoundingBox:  0 0 567 521
%%Title: Distributions/meffInc_distrCRT_MB-GGo_afterFit_forThesis.eps: canvas
%%Creator: ROOT Version 6.04/16
%%CreationDate: Tue May 19 22:04:10 2020
%%DocumentNeededResources: ProcSet (FontSetInit)
%%EndComments
%%BeginProlog
80 dict begin
/s {stroke} def /l {lineto} def /m {moveto} def /t {translate} def
/r {rotate} def /rl {roll}  def /R {repeat} def
/d {rlineto} def /rm {rmoveto} def /gr {grestore} def /f {eofill} def
/c {setrgbcolor} def /black {0 setgray} def /sd {setdash} def
/cl {closepath} def /sf {scalefont setfont} def /lw {setlinewidth} def
/box {m dup 0 exch d exch 0 d 0 exch neg d cl} def
/NC{systemdict begin initclip end}def/C{NC box clip newpath}def
/bl {box s} def /bf {gsave box gsave f grestore 1 lw [] 0 sd s grestore} def /Y { 0 exch d} def /X { 0 d} def 
/K {{pop pop 0 moveto} exch kshow} bind def
/ita {/ang 15 def gsave [1 0 ang dup sin exch cos div 1 0 0] concat} def 
/mp {newpath /y exch def /x exch def} def
/side {[w .77 mul w .23 mul] .385 w mul sd w 0 l currentpoint t -144 r} def
/mr {mp x y w2 0 360 arc} def /m24 {mr s} def /m20 {mr f} def
/mb {mp x y w2 add m w2 neg 0 d 0 w neg d w 0 d 0 w d cl} def
/mt {mp x y w2 add m w2 neg w neg d w 0 d cl} def
/m21 {mb f} def /m25 {mb s} def /m22 {mt f} def /m26{mt s} def
/m23 {mp x y w2 sub m w2 w d w neg 0 d cl f} def
/m27 {mp x y w2 add m w3 neg w2 neg d w3 w2 neg d w3 w2 d cl s} def
/m28 {mp x w2 sub y w2 sub w3 add m w3 0 d  0 w3 neg d w3 0 d 0 w3 d w3 0 d  0 w3 d w3 neg 0 d 0 w3 d w3 neg 0 d 0 w3 neg d w3 neg 0 d cl s } def
/m29 {mp gsave x w2 sub y w2 add w3 sub m currentpoint t 4 {side} repeat cl fill gr} def
/m30 {mp gsave x w2 sub y w2 add w3 sub m currentpoint t 4 {side} repeat cl s gr} def
/m31 {mp x y w2 sub m 0 w d x w2 sub y m w 0 d x w2 sub y w2 add m w w neg d x w2 sub y w2 sub m w w d s} def
/m32 {mp x y w2 sub m w2 w d w neg 0 d cl s} def
/m33 {mp x y w2 add m w3 neg w2 neg d w3 w2 neg d w3 w2 d cl f} def
/m34 {mp x w2 sub y w2 sub w3 add m w3 0 d  0 w3 neg d w3 0 d 0 w3 d w3 0 d  0 w3 d w3 neg 0 d 0 w3 d w3 neg 0 d 0 w3 neg d w3 neg 0 d cl f } def
/m2 {mp x y w2 sub m 0 w d x w2 sub y m w 0 d s} def
/m5 {mp x w2 sub y w2 sub m w w d x w2 sub y w2 add m w w neg d s} def
%%IncludeResource: ProcSet (FontSetInit)
%%IncludeResource: font Times-Roman
%%IncludeResource: font Times-Italic
%%IncludeResource: font Times-Bold
%%IncludeResource: font Times-BoldItalic
%%IncludeResource: font Helvetica
%%IncludeResource: font Helvetica-Oblique
%%IncludeResource: font Helvetica-Bold
%%IncludeResource: font Helvetica-BoldOblique
%%IncludeResource: font Courier
%%IncludeResource: font Courier-Oblique
%%IncludeResource: font Courier-Bold
%%IncludeResource: font Courier-BoldOblique
%%IncludeResource: font Symbol
%%IncludeResource: font ZapfDingbats
/reEncode {exch findfont dup length dict begin {1 index /FID eq  {pop pop} {def} ifelse } forall /Encoding exch def currentdict end dup /FontName get exch definefont pop } def [/Times-Bold /Times-Italic /Times-BoldItalic /Helvetica /Helvetica-Oblique
 /Helvetica-Bold /Helvetica-BoldOblique /Courier /Courier-Oblique /Courier-Bold /Courier-BoldOblique /Times-Roman /AvantGarde-Book /AvantGarde-BookOblique /AvantGarde-Demi /AvantGarde-DemiOblique /Bookman-Demi /Bookman-DemiItalic /Bookman-Light
 /Bookman-LightItalic /Helvetica-Narrow /Helvetica-Narrow-Bold /Helvetica-Narrow-BoldOblique /Helvetica-Narrow-Oblique /NewCenturySchlbk-Roman /NewCenturySchlbk-Bold /NewCenturySchlbk-BoldItalic /NewCenturySchlbk-Italic /Palatino-Bold
 /Palatino-BoldItalic /Palatino-Italic /Palatino-Roman ] {ISOLatin1Encoding reEncode } forall
%%EndProlog
%%BeginSetup
%%EndSetup
newpath  gsave  .25 .25 scale  gsave  0 0 t black[  ] 0 sd 3 lw 1 1 1 c 2268 2085 0 0 bf black 1 1 1 c 2263 1770 2 313 bf black 1 1 1 c black 1860 1145 319 584 bl 1 1 1 c black 1860 1145 319 584 bl 6 lw 1 1 1 c black 3 lw /w 33 def /w2 {w 2 div} def
 /w3 {w 3 div} def 381 1037 m20 6 lw 3 lw 505 1119 m20 6 lw 3 lw 629 1119 m20 6 lw 3 lw 753 1102 m20 6 lw 3 lw 877 1057 m20 6 lw 3 lw 1001 1042 m20 6 lw 1125 953 m 7 Y s 1125 987 m 3 Y s 3 lw 1125 974 m20 6 lw 1249 967 m 6 Y s 1249 1000 m 1 Y s 3 lw
 1249 986 m20 6 lw 1373 895 m 17 Y s 1373 939 m 8 Y s 3 lw 1373 926 m20 6 lw 1497 777 m 52 Y s 1497 856 m 21 Y s 3 lw 1497 842 m20 6 lw 1621 836 m 31 Y s 1621 895 m 14 Y s 3 lw 1621 881 m20 6 lw 1745 812 m 39 Y s 1745 878 m 17 Y s 3 lw 1745 864 m20 6
 lw 1869 718 m 80 Y s 1869 825 m 27 Y s 3 lw 1869 812 m20 6 lw 2117 718 m 80 Y s 2117 825 m 27 Y s 3 lw 2117 812 m20 6 lw 3 lw 319 584 m 1860 X s
 gsave  2263 1770 2 313 C 1949.08 369.478 t 0 r /Helvetica findfont 81.3741 sf 0 0 m ( [GeV]) show NC gr 
 gsave  2263 1770 2 313 C 1888.07 342.361 t 0 r /Helvetica findfont 54.2494 sf 0 0 m (eff) show NC gr 
 gsave  2263 1770 2 313 C 1823.66 369.478 t 0 r /Helvetica findfont 81.3741 sf 0 0 m (m) show NC gr  319 584 m cl s 381 584 m cl s 443 584 m cl s 505 584 m cl s 567 584 m cl s 629 584 m cl s 691 584 m cl s 753 584 m cl s 815 584 m cl s 877 584 m cl s
 939 584 m cl s 1001 584 m cl s 1063 584 m cl s 1125 584 m cl s 1187 584 m cl s 1249 584 m cl s 1311 584 m cl s 1373 584 m cl s 1435 584 m cl s 1497 584 m cl s 1559 584 m cl s 1621 584 m cl s 1683 584 m cl s 1745 584 m cl s 1807 584 m cl s 1869 584 m
 cl s 1931 584 m cl s 1993 584 m cl s 2055 584 m cl s 2117 584 m cl s 2179 584 m cl s 319 1729 m 1860 X s 319 1729 m cl s 381 1729 m cl s 443 1729 m cl s 505 1729 m cl s 567 1729 m cl s 629 1729 m cl s 691 1729 m cl s 753 1729 m cl s 815 1729 m cl s
 877 1729 m cl s 939 1729 m cl s 1001 1729 m cl s 1063 1729 m cl s 1125 1729 m cl s 1187 1729 m cl s 1249 1729 m cl s 1311 1729 m cl s 1373 1729 m cl s 1435 1729 m cl s 1497 1729 m cl s 1559 1729 m cl s 1621 1729 m cl s 1683 1729 m cl s 1745 1729 m
 cl s 1807 1729 m cl s 1869 1729 m cl s 1931 1729 m cl s 1993 1729 m cl s 2055 1729 m cl s 2117 1729 m cl s 2179 1729 m cl s 319 584 m 1145 Y s
 gsave  2263 1770 2 313 C 166.096 1091.49 t 90 r /Helvetica findfont 81.3741 sf 0 0 m (Events / 200 GeV) show NC gr  341 637 m -22 X s 341 668 m -22 X s 341 689 m -22 X s 341 706 m -22 X s 341 720 m -22 X s 341 732 m -22 X s 341 742 m -22 X s 341 751
 m -22 X s 363 759 m -44 X s
 gsave  2263 1770 2 313 C 300.555 731.817 t 0 r  -36 0 t /Helvetica findfont 64.4212 sf 0 0 m (1) show NC gr  341 812 m -22 X s 341 842 m -22 X s 341 864 m -22 X s 341 881 m -22 X s 341 895 m -22 X s 341 907 m -22 X s 341 917 m -22 X s 341 926 m -22
 X s 363 934 m -44 X s
 gsave  2263 1770 2 313 C 300.555 906.443 t 0 r  -73 0 t /Helvetica findfont 64.4212 sf 0 0 m (10) show NC gr  341 986 m -22 X s 341 1017 m -22 X s 341 1039 m -22 X s 341 1056 m -22 X s 341 1069 m -22 X s 341 1081 m -22 X s 341 1091 m -22 X s 341
 1100 m -22 X s 363 1108 m -44 X s
 gsave  2263 1770 2 313 C 274.567 1105.05 t 0 r /Helvetica findfont 44.0776 sf 0 0 m (2) show NC gr 
 gsave  2263 1770 2 313 C 203.383 1077.93 t 0 r /Helvetica findfont 64.4212 sf 0 0 m (10) show NC gr  341 1161 m -22 X s 341 1192 m -22 X s 341 1213 m -22 X s 341 1230 m -22 X s 341 1244 m -22 X s 341 1256 m -22 X s 341 1266 m -22 X s 341 1275 m -22
 X s 363 1283 m -44 X s
 gsave  2263 1770 2 313 C 274.567 1284.7 t 0 r /Helvetica findfont 44.0776 sf 0 0 m (3) show NC gr 
 gsave  2263 1770 2 313 C 203.383 1254.19 t 0 r /Helvetica findfont 64.4212 sf 0 0 m (10) show NC gr  341 1335 m -22 X s 341 1366 m -22 X s 341 1388 m -22 X s 341 1405 m -22 X s 341 1419 m -22 X s 341 1430 m -22 X s 341 1441 m -22 X s 341 1449 m -22
 X s 363 1457 m -44 X s
 gsave  2263 1770 2 313 C 274.567 1454.19 t 0 r /Helvetica findfont 44.0776 sf 0 0 m (4) show NC gr 
 gsave  2263 1770 2 313 C 203.383 1427.07 t 0 r /Helvetica findfont 64.4212 sf 0 0 m (10) show NC gr  341 1510 m -22 X s 341 1541 m -22 X s 341 1563 m -22 X s 341 1579 m -22 X s 341 1593 m -22 X s 341 1605 m -22 X s 341 1615 m -22 X s 341 1624 m -22
 X s 363 1632 m -44 X s
 gsave  2263 1770 2 313 C 274.567 1633.84 t 0 r /Helvetica findfont 44.0776 sf 0 0 m (5) show NC gr 
 gsave  2263 1770 2 313 C 203.383 1603.33 t 0 r /Helvetica findfont 64.4212 sf 0 0 m (10) show NC gr  341 1685 m -22 X s 341 1715 m -22 X s 2179 584 m 1145 Y s 2157 637 m 22 X s 2157 668 m 22 X s 2157 689 m 22 X s 2157 706 m 22 X s 2157 720 m 22 X s
 2157 732 m 22 X s 2157 742 m 22 X s 2157 751 m 22 X s 2136 759 m 43 X s 2157 812 m 22 X s 2157 842 m 22 X s 2157 864 m 22 X s 2157 881 m 22 X s 2157 895 m 22 X s 2157 907 m 22 X s 2157 917 m 22 X s 2157 926 m 22 X s 2136 934 m 43 X s 2157 986 m 22 X
 s 2157 1017 m 22 X s 2157 1039 m 22 X s 2157 1056 m 22 X s 2157 1069 m 22 X s 2157 1081 m 22 X s 2157 1091 m 22 X s 2157 1100 m 22 X s 2136 1108 m 43 X s 2157 1161 m 22 X s 2157 1192 m 22 X s 2157 1213 m 22 X s 2157 1230 m 22 X s 2157 1244 m 22 X s
 2157 1256 m 22 X s 2157 1266 m 22 X s 2157 1275 m 22 X s 2136 1283 m 43 X s 2157 1335 m 22 X s 2157 1366 m 22 X s 2157 1388 m 22 X s 2157 1405 m 22 X s 2157 1419 m 22 X s 2157 1430 m 22 X s 2157 1441 m 22 X s 2157 1449 m 22 X s 2136 1457 m 43 X s
 2157 1510 m 22 X s 2157 1541 m 22 X s 2157 1563 m 22 X s 2157 1579 m 22 X s 2157 1593 m 22 X s 2157 1605 m 22 X s 2157 1615 m 22 X s 2157 1624 m 22 X s 2136 1632 m 43 X s 2157 1685 m 22 X s 2157 1715 m 22 X s 0.6 1 0.6 c black 0.6 1 0.6 c 319 584 m
 438 Y 124 X 99 Y 124 X -2 Y 124 X -26 Y 124 X -23 Y 124 X -22 Y 124 X -57 Y 124 X -30 Y 124 X -26 Y 124 X -45 Y 124 X -26 Y 124 X -45 Y 124 X -47 Y 124 X -30 Y 124 X 76 Y 124 X -234 Y f black 0.6 1 0.6 c black 319 1022 m 124 X 99 Y 124 X -2 Y 124 X
 -26 Y 124 X -23 Y 124 X -22 Y 124 X -57 Y 124 X -30 Y 124 X -26 Y 124 X -45 Y 124 X -26 Y 124 X -45 Y 124 X -47 Y 124 X -30 Y 124 X 76 Y 124 X s 0.999 0.999 0.999 c black 0.999 0.999 0.999 c 319 584 m 230 Y 124 X 111 Y 124 X 10 Y 124 X -7 Y 124 X -8
 Y 124 X -14 Y 124 X -30 Y 124 X -22 Y 124 X -31 Y 124 X -26 Y 124 X -27 Y 124 X -62 Y 124 X -8 Y 124 X -36 Y 124 X 123 Y 124 X -203 Y f black 0.999 0.999 0.999 c black 319 814 m 124 X 111 Y 124 X 10 Y 124 X -7 Y 124 X -8 Y 124 X -14 Y 124 X -30 Y
 124 X -22 Y 124 X -31 Y 124 X -26 Y 124 X -27 Y 124 X -62 Y 124 X -8 Y 124 X -36 Y 124 X 123 Y 124 X s 1 1 1 c black 319 814 m 124 X 111 Y 124 X 10 Y 124 X -7 Y 124 X -8 Y 124 X -14 Y 124 X -30 Y 124 X -22 Y 124 X -31 Y 124 X -26 Y 124 X -27 Y 124 X
 -62 Y 124 X -8 Y 124 X -36 Y 124 X 123 Y 124 X s 0.4 0.6 1 c black 0.4 0.6 1 c 319 584 m 230 Y 124 X 111 Y 124 X 10 Y 124 X -7 Y 124 X -8 Y 124 X -14 Y 124 X -30 Y 124 X -22 Y 124 X -31 Y 124 X -26 Y 124 X -27 Y 124 X -62 Y 124 X -8 Y 124 X -36 Y
 124 X 123 Y 124 X -203 Y f black 0.4 0.6 1 c black 319 814 m 124 X 111 Y 124 X 10 Y 124 X -7 Y 124 X -8 Y 124 X -14 Y 124 X -30 Y 124 X -22 Y 124 X -31 Y 124 X -26 Y 124 X -27 Y 124 X -62 Y 124 X -8 Y 124 X -36 Y 124 X 123 Y 124 X s 0.999 0.999
 0.999 c black 0.999 0.999 0.999 c 319 584 m 67 Y 124 X 99 Y 124 X 22 Y 124 X -8 Y 124 X 36 Y 124 X -8 Y 124 X -98 Y 124 X 31 Y 124 X -61 Y 124 X -80 Y 124 X 97 Y 124 X -97 Y 372 X 109 Y 124 X -109 Y f black 0.999 0.999 0.999 c black 319 651 m 124 X
 99 Y 124 X 22 Y 124 X -8 Y 124 X 36 Y 124 X -8 Y 124 X -98 Y 124 X 31 Y 124 X -61 Y 124 X -80 Y 124 X 97 Y 124 X -97 Y 372 X 109 Y 124 X s 1 1 1 c black 319 651 m 124 X 99 Y 124 X 22 Y 124 X -8 Y 124 X 36 Y 124 X -8 Y 124 X -98 Y 124 X 31 Y 124 X
 -61 Y 124 X -80 Y 124 X 97 Y 124 X -97 Y 372 X 109 Y 124 X s 1 0.8 0.4 c black 1 0.8 0.4 c 319 584 m 67 Y 124 X 99 Y 124 X 22 Y 124 X -8 Y 124 X 36 Y 124 X -8 Y 124 X -98 Y 124 X 31 Y 124 X -61 Y 124 X -80 Y 124 X 97 Y 124 X -97 Y 372 X 109 Y 124 X
 -109 Y f black 1 0.8 0.4 c black 319 651 m 124 X 99 Y 124 X 22 Y 124 X -8 Y 124 X 36 Y 124 X -8 Y 124 X -98 Y 124 X 31 Y 124 X -61 Y 124 X -80 Y 124 X 97 Y 124 X -97 Y 372 X 109 Y 124 X s 0.999 0.999 0.999 c black 0.999 0.999 0.999 c 319 584 m 67 Y
 124 X 88 Y 124 X 31 Y 124 X -8 Y 124 X 36 Y 124 X -8 Y 124 X -105 Y 124 X 36 Y 124 X -67 Y 124 X -70 Y 124 X 86 Y 124 X -86 Y 372 X 109 Y 124 X -109 Y f black 0.999 0.999 0.999 c black 319 651 m 124 X 88 Y 124 X 31 Y 124 X -8 Y 124 X 36 Y 124 X -8 Y
 124 X -105 Y 124 X 36 Y 124 X -67 Y 124 X -70 Y 124 X 86 Y 124 X -86 Y 372 X 109 Y 124 X s 1 1 1 c black 319 651 m 124 X 88 Y 124 X 31 Y 124 X -8 Y 124 X 36 Y 124 X -8 Y 124 X -105 Y 124 X 36 Y 124 X -67 Y 124 X -70 Y 124 X 86 Y 124 X -86 Y 372 X
 109 Y 124 X s 1 0.4 0.6 c black 1 0.4 0.6 c 319 584 m 67 Y 124 X 88 Y 124 X 31 Y 124 X -8 Y 124 X 36 Y 124 X -8 Y 124 X -105 Y 124 X 36 Y 124 X -67 Y 124 X -70 Y 124 X 86 Y 124 X -86 Y 372 X 109 Y 124 X -109 Y f black 1 0.4 0.6 c black 319 651 m 124
 X 88 Y 124 X 31 Y 124 X -8 Y 124 X 36 Y 124 X -8 Y 124 X -105 Y 124 X 36 Y 124 X -67 Y 124 X -70 Y 124 X 86 Y 124 X -86 Y 372 X 109 Y 124 X s 1 0 0 c 6 lw 1 1 1 c black 1 0 0 c 319 1022 m 124 X 99 Y 124 X -2 Y 124 X -26 Y 124 X -23 Y 124 X -22 Y 124
 X -57 Y 124 X -30 Y 124 X -26 Y 124 X -45 Y 124 X -26 Y 124 X -45 Y 124 X -47 Y 124 X -30 Y 124 X 76 Y 124 X s black 3 lw 1 0 0 c 1 lw << /PatternType 1 /PaintType 2 /TilingType 1 /BBox [ 0 0 100 100 ] /XStep 100 /YStep 100 /PaintProc { begin gsave
 0 100 m 100 0 l s gr end } >> [ 0.24 0 0 0.24 0 0 ] makepattern /P05 exch def /cs {[/Pattern /DeviceRGB] setcolorspace} def /FA {f [/DeviceRGB] setcolorspace} def cs 1 0 0 P05 setcolor 319 584 m 446 Y 124 X 97 Y 124 X -3 Y 124 X -26 Y 124 X -23 Y
 124 X -21 Y 124 X -52 Y 124 X -30 Y 124 X -26 Y 124 X -36 Y 124 X -26 Y 124 X -44 Y 124 X -30 Y 124 X -28 Y 124 X 59 Y 124 X -257 Y 200 Y -124 X -128 Y -124 X 38 Y -124 X 95 Y -124 X 48 Y -124 X 27 Y -124 X 58 Y -124 X 27 Y -124 X 29 Y -124 X 64 Y
 -124 X 22 Y -124 X 22 Y -124 X 27 Y -124 X 2 Y -124 X -102 Y -124 X -429 Y FA 6 lw 1 1 1 c 15 lw 1125 953 m s 1125 953 m cl s 1373 946 m 2 Y s 1373 948 m cl s 1373 905 m -9 Y s 1373 896 m cl s 1497 863 m 17 Y s 1497 880 m cl s 1497 822 m -39 Y s
 1497 783 m cl s 1621 901 m 9 Y s 1621 910 m cl s 1621 861 m -23 Y s 1621 838 m cl s 1745 884 m 13 Y s 1745 897 m cl s 1745 844 m -29 Y s 1745 815 m cl s 1869 832 m 25 Y s 1869 857 m cl s 1869 791 m -58 Y s 1869 733 m cl s 2117 832 m 25 Y s 2117 857
 m cl s 2117 791 m -58 Y s 2117 733 m cl s black 1 1 1 c 3 lw /w 43 def /w2 {w 2 div} def /w3 {w 3 div} def 381 1037 505 1119 629 1119 753 1102 877 1057 1001 1042 1125 974 1249 986 1373 926 1497 842 1621 881 1745 864 1869 812 13 { m20} R 15 lw 3 lw
 2117 812 m20 15 lw black 6 lw 1 1 1 c black 3 lw /w 33 def /w2 {w 2 div} def /w3 {w 3 div} def 381 1037 m20 6 lw 3 lw 505 1119 m20 6 lw 3 lw 629 1119 m20 6 lw 3 lw 753 1102 m20 6 lw 3 lw 877 1057 m20 6 lw 3 lw 1001 1042 m20 6 lw 1125 953 m 7 Y s
 1125 987 m 3 Y s 3 lw 1125 974 m20 6 lw 1249 967 m 6 Y s 1249 1000 m 1 Y s 3 lw 1249 986 m20 6 lw 1373 895 m 17 Y s 1373 939 m 8 Y s 3 lw 1373 926 m20 6 lw 1497 777 m 52 Y s 1497 856 m 21 Y s 3 lw 1497 842 m20 6 lw 1621 836 m 31 Y s 1621 895 m 14 Y
 s 3 lw 1621 881 m20 6 lw 1745 812 m 39 Y s 1745 878 m 17 Y s 3 lw 1745 864 m20 6 lw 1869 718 m 80 Y s 1869 825 m 27 Y s 3 lw 1869 812 m20 6 lw 2117 718 m 80 Y s 2117 825 m 27 Y s 3 lw 2117 812 m20 6 lw 1125 987 m 3 Y s 1125 990 m cl s 1125 960 m -7
 Y s 1125 953 m cl s 1249 1000 m 2 Y s 1249 1002 m cl s 1249 973 m -6 Y s 1249 967 m cl s 1373 939 m 9 Y s 1373 948 m cl s 1373 912 m -16 Y s 1373 896 m cl s 1497 856 m 24 Y s 1497 880 m cl s 1497 829 m -46 Y s 1497 783 m cl s 1621 895 m 15 Y s 1621
 910 m cl s 1621 867 m -29 Y s 1621 838 m cl s 1745 878 m 19 Y s 1745 897 m cl s 1745 851 m -36 Y s 1745 815 m cl s 1869 825 m 32 Y s 1869 857 m cl s 1869 798 m -65 Y s 1869 733 m cl s 2117 825 m 32 Y s 2117 857 m cl s 2117 798 m -65 Y s 2117 733 m
 cl s 3 lw 381 1037 505 1119 629 1119 753 1102 877 1057 1001 1042 1125 974 1249 986 1373 926 1497 842 1621 881 1745 864 1869 812 13 { m20} R 6 lw 3 lw 2117 812 m20 6 lw 3 lw 319 584 m 1860 X s 319 584 m cl s 381 584 m cl s 443 584 m cl s 505 584 m cl
 s 567 584 m cl s 629 584 m cl s 691 584 m cl s 753 584 m cl s 815 584 m cl s 877 584 m cl s 939 584 m cl s 1001 584 m cl s 1063 584 m cl s 1125 584 m cl s 1187 584 m cl s 1249 584 m cl s 1311 584 m cl s 1373 584 m cl s 1435 584 m cl s 1497 584 m cl
 s 1559 584 m cl s 1621 584 m cl s 1683 584 m cl s 1745 584 m cl s 1807 584 m cl s 1869 584 m cl s 1931 584 m cl s 1993 584 m cl s 2055 584 m cl s 2117 584 m cl s 2179 584 m cl s 319 1729 m 1860 X s 319 1729 m cl s 381 1729 m cl s 443 1729 m cl s 505
 1729 m cl s 567 1729 m cl s 629 1729 m cl s 691 1729 m cl s 753 1729 m cl s 815 1729 m cl s 877 1729 m cl s 939 1729 m cl s 1001 1729 m cl s 1063 1729 m cl s 1125 1729 m cl s 1187 1729 m cl s 1249 1729 m cl s 1311 1729 m cl s 1373 1729 m cl s 1435
 1729 m cl s 1497 1729 m cl s 1559 1729 m cl s 1621 1729 m cl s 1683 1729 m cl s 1745 1729 m cl s 1807 1729 m cl s 1869 1729 m cl s 1931 1729 m cl s 1993 1729 m cl s 2055 1729 m cl s 2117 1729 m cl s 2179 1729 m cl s 319 584 m 1145 Y s 341 637 m -22
 X s 341 668 m -22 X s 341 689 m -22 X s 341 706 m -22 X s 341 720 m -22 X s 341 732 m -22 X s 341 742 m -22 X s 341 751 m -22 X s 363 759 m -44 X s 341 812 m -22 X s 341 842 m -22 X s 341 864 m -22 X s 341 881 m -22 X s 341 895 m -22 X s 341 907 m
 -22 X s 341 917 m -22 X s 341 926 m -22 X s 363 934 m -44 X s 341 986 m -22 X s 341 1017 m -22 X s 341 1039 m -22 X s 341 1056 m -22 X s 341 1069 m -22 X s 341 1081 m -22 X s 341 1091 m -22 X s 341 1100 m -22 X s 363 1108 m -44 X s 341 1161 m -22 X
 s 341 1192 m -22 X s 341 1213 m -22 X s 341 1230 m -22 X s 341 1244 m -22 X s 341 1256 m -22 X s 341 1266 m -22 X s 341 1275 m -22 X s 363 1283 m -44 X s 341 1335 m -22 X s 341 1366 m -22 X s 341 1388 m -22 X s 341 1405 m -22 X s 341 1419 m -22 X s
 341 1430 m -22 X s 341 1441 m -22 X s 341 1449 m -22 X s 363 1457 m -44 X s 341 1510 m -22 X s 341 1541 m -22 X s 341 1563 m -22 X s 341 1579 m -22 X s 341 1593 m -22 X s 341 1605 m -22 X s 341 1615 m -22 X s 341 1624 m -22 X s 363 1632 m -44 X s
 341 1685 m -22 X s 341 1715 m -22 X s 2179 584 m 1145 Y s 2157 637 m 22 X s 2157 668 m 22 X s 2157 689 m 22 X s 2157 706 m 22 X s 2157 720 m 22 X s 2157 732 m 22 X s 2157 742 m 22 X s 2157 751 m 22 X s 2136 759 m 43 X s 2157 812 m 22 X s 2157 842 m
 22 X s 2157 864 m 22 X s 2157 881 m 22 X s 2157 895 m 22 X s 2157 907 m 22 X s 2157 917 m 22 X s 2157 926 m 22 X s 2136 934 m 43 X s 2157 986 m 22 X s 2157 1017 m 22 X s 2157 1039 m 22 X s 2157 1056 m 22 X s 2157 1069 m 22 X s 2157 1081 m 22 X s
 2157 1091 m 22 X s 2157 1100 m 22 X s 2136 1108 m 43 X s 2157 1161 m 22 X s 2157 1192 m 22 X s 2157 1213 m 22 X s 2157 1230 m 22 X s 2157 1244 m 22 X s 2157 1256 m 22 X s 2157 1266 m 22 X s 2157 1275 m 22 X s 2136 1283 m 43 X s 2157 1335 m 22 X s
 2157 1366 m 22 X s 2157 1388 m 22 X s 2157 1405 m 22 X s 2157 1419 m 22 X s 2157 1430 m 22 X s 2157 1441 m 22 X s 2157 1449 m 22 X s 2136 1457 m 43 X s 2157 1510 m 22 X s 2157 1541 m 22 X s 2157 1563 m 22 X s 2157 1579 m 22 X s 2157 1593 m 22 X s
 2157 1605 m 22 X s 2157 1615 m 22 X s 2157 1624 m 22 X s 2136 1632 m 43 X s 2157 1685 m 22 X s 2157 1715 m 22 X s
 gsave  2263 1770 2 313 C 406.765 1447.41 t 0 r /Helvetica findfont 64.4212 sf 0 0 m (CRT for MB\255GGo) show NC gr 
 gsave  2263 1770 2 313 C 1464.36 1616.89 t 0 r /Helvetica findfont 64.4212 sf 0 0 m (SM Total) show NC gr  1 1 1 c 1338 1603 m 107 X 74 Y -107 X f 1 0 0 c 6 lw 1338 1640 m 107 X s black
 gsave  2263 1770 2 313 C 1464.36 1511.81 t 0 r /Helvetica findfont 64.4212 sf 0 0 m (Data) show NC gr  1391 1502 m 64 Y s 3 lw 1391 1534 m20 6 lw
 gsave  2263 1770 2 313 C 1498.25 1406.73 t 0 r /Helvetica findfont 64.4212 sf 0 0 m (\(+EW\) & single top) show NC gr 
 gsave  2263 1770 2 313 C 1481.3 1406.73 t 0 r /Helvetica findfont 64.4212 sf 0 0 m (t) show NC gr  3 lw 1481 1458 m 17 X s
 gsave  2263 1770 2 313 C 1464.36 1406.73 t 0 r /Helvetica findfont 64.4212 sf 0 0 m (t) show NC gr  0.6 1 0.6 c 1338 1391 m 107 X 74 Y -107 X f black 1338 1465 m 107 X s 1338 1391 m 107 X s 1445 1391 m 74 Y s 1338 1391 m 74 Y s
 gsave  2263 1770 2 313 C 1464.36 1298.26 t 0 r /Helvetica findfont 64.4212 sf 0 0 m (W+jets) show NC gr  0.4 0.6 1 c 1338 1284 m 107 X 75 Y -107 X f black 1338 1359 m 107 X s 1338 1284 m 107 X s 1445 1284 m 75 Y s 1338 1284 m 75 Y s
 gsave  2263 1770 2 313 C 1464.36 1193.18 t 0 r /Helvetica findfont 64.4212 sf 0 0 m (Z+jets) show NC gr  1 0.8 0.4 c 1338 1178 m 107 X 75 Y -107 X f black 1338 1253 m 107 X s 1338 1178 m 107 X s 1445 1178 m 75 Y s 1338 1178 m 75 Y s
 gsave  2263 1770 2 313 C 1464.36 1088.1 t 0 r /Helvetica findfont 64.4212 sf 0 0 m (Diboson) show NC gr  1 0.4 0.6 c 1338 1072 m 107 X 74 Y -107 X f black 1338 1146 m 107 X s 1338 1072 m 107 X s 1445 1072 m 74 Y s 1338 1072 m 74 Y s
 gsave  2263 1770 2 313 C 911.832 1566.05 t 0 r /Helvetica findfont 44.0776 sf 0 0 m (\2551) show NC gr 
 gsave  2263 1770 2 313 C 471.17 1535.54 t 0 r /Helvetica findfont 64.4212 sf 0 0 m (=13TeV, 139 fb) show NC gr 
 gsave  2263 1770 2 313 C 440.662 1535.54 t 0 r /Helvetica findfont 64.4212 sf 0 0 m (s) show NC gr  6 lw 420 1573 m 7 -41 d s 3 lw 427 1532 m 7 61 d s 434 1593 m 37 X s 1 1 1 c 2254 561 2 2 bf black 1 1 1 c black 1860 358 318 187 bl 1 1 1 c black
 1860 358 318 187 bl 6 lw 1 1 1 c black 3 lw 380 401 m20 6 lw 3 lw 504 360 m20 6 lw 3 lw 628 367 m20 6 lw 3 lw 752 387 m20 6 lw 3 lw 876 341 m20 6 lw 3 lw 1000 355 m20 6 lw 3 lw 1124 333 m20 6 lw 3 lw 1248 429 m20 6 lw 3 lw 1372 347 m20 6 lw 3 lw
 1496 290 m20 6 lw 3 lw 1620 406 m20 6 lw 3 lw 1744 499 m20 6 lw 3 lw 1868 476 m20 6 lw 3 lw 2116 353 m20 6 lw 3 lw 318 187 m 1860 X s
 gsave  2254 561 2 2 C 1959.25 33.8971 t 0 r /Helvetica findfont 78.1689 sf 0 0 m ( [GeV]) show NC gr 
 gsave  2254 561 2 2 C 1901.63 13.5588 t 0 r /Helvetica findfont 50.9797 sf 0 0 m (eff) show NC gr 
 gsave  2254 561 2 2 C 1840.61 33.8971 t 0 r /Helvetica findfont 78.1689 sf 0 0 m (m) show NC gr  318 201 m -14 Y s 380 194 m -7 Y s 442 194 m -7 Y s 504 194 m -7 Y s 566 194 m -7 Y s 628 201 m -14 Y s 690 194 m -7 Y s 752 194 m -7 Y s 814 194 m -7 Y
 s 876 194 m -7 Y s 938 201 m -14 Y s 1000 194 m -7 Y s 1062 194 m -7 Y s 1124 194 m -7 Y s 1186 194 m -7 Y s 1248 201 m -14 Y s 1310 194 m -7 Y s 1372 194 m -7 Y s 1434 194 m -7 Y s 1496 194 m -7 Y s 1558 201 m -14 Y s 1620 194 m -7 Y s 1682 194 m
 -7 Y s 1744 194 m -7 Y s 1806 194 m -7 Y s 1868 201 m -14 Y s 1930 194 m -7 Y s 1992 194 m -7 Y s 2054 194 m -7 Y s 2116 194 m -7 Y s 2178 201 m -14 Y s
 gsave  2254 561 2 2 C 227.111 118.64 t 0 r /Helvetica findfont 78.1689 sf 0 0 m (1000) show NC gr 
 gsave  2254 561 2 2 C 538.964 118.64 t 0 r /Helvetica findfont 78.1689 sf 0 0 m (1500) show NC gr 
 gsave  2254 561 2 2 C 847.428 118.64 t 0 r /Helvetica findfont 78.1689 sf 0 0 m (2000) show NC gr 
 gsave  2254 561 2 2 C 1159.28 118.64 t 0 r /Helvetica findfont 78.1689 sf 0 0 m (2500) show NC gr 
 gsave  2254 561 2 2 C 1467.74 118.64 t 0 r /Helvetica findfont 78.1689 sf 0 0 m (3000) show NC gr 
 gsave  2254 561 2 2 C 1779.6 118.64 t 0 r /Helvetica findfont 78.1689 sf 0 0 m (3500) show NC gr 
 gsave  2254 561 2 2 C 2088.06 118.64 t 0 r /Helvetica findfont 78.1689 sf 0 0 m (4000) show NC gr  318 545 m 1860 X s 318 531 m 14 Y s 380 538 m 7 Y s 442 538 m 7 Y s 504 538 m 7 Y s 566 538 m 7 Y s 628 531 m 14 Y s 690 538 m 7 Y s 752 538 m 7 Y s
 814 538 m 7 Y s 876 538 m 7 Y s 938 531 m 14 Y s 1000 538 m 7 Y s 1062 538 m 7 Y s 1124 538 m 7 Y s 1186 538 m 7 Y s 1248 531 m 14 Y s 1310 538 m 7 Y s 1372 538 m 7 Y s 1434 538 m 7 Y s 1496 538 m 7 Y s 1558 531 m 14 Y s 1620 538 m 7 Y s 1682 538 m
 7 Y s 1744 538 m 7 Y s 1806 538 m 7 Y s 1868 531 m 14 Y s 1930 538 m 7 Y s 1992 538 m 7 Y s 2054 538 m 7 Y s 2116 538 m 7 Y s 2178 531 m 14 Y s 318 187 m 358 Y s
 gsave  2254 561 2 2 C 166.096 284.736 t 90 r /Helvetica findfont 67.9729 sf 0 0 m (Data/SM) show NC gr  361 203 m -43 X s 339 220 m -21 X s 339 236 m -21 X s 339 252 m -21 X s 339 268 m -21 X s 361 285 m -43 X s 339 301 m -21 X s 339 317 m -21 X s
 339 334 m -21 X s 339 350 m -21 X s 361 366 m -43 X s 339 382 m -21 X s 339 399 m -21 X s 339 415 m -21 X s 339 431 m -21 X s 361 447 m -43 X s 339 464 m -21 X s 339 480 m -21 X s 339 496 m -21 X s 339 512 m -21 X s 361 529 m -43 X s 361 203 m -43 X
 s 339 187 m -21 X s 361 529 m -43 X s
 gsave  2254 561 2 2 C 261.008 183.044 t 0 r /Helvetica findfont 57.777 sf 0 0 m (0) show NC gr 
 gsave  2254 561 2 2 C 213.552 261.008 t 0 r /Helvetica findfont 57.777 sf 0 0 m (0.5) show NC gr 
 gsave  2254 561 2 2 C 271.177 342.361 t 0 r /Helvetica findfont 57.777 sf 0 0 m (1) show NC gr 
 gsave  2254 561 2 2 C 213.552 423.714 t 0 r /Helvetica findfont 57.777 sf 0 0 m (1.5) show NC gr 
 gsave  2254 561 2 2 C 261.008 505.067 t 0 r /Helvetica findfont 57.777 sf 0 0 m (2) show NC gr  2178 187 m 358 Y s 2135 203 m 43 X s 2157 220 m 21 X s 2157 236 m 21 X s 2157 252 m 21 X s 2157 268 m 21 X s 2135 285 m 43 X s 2157 301 m 21 X s 2157 317
 m 21 X s 2157 334 m 21 X s 2157 350 m 21 X s 2135 366 m 43 X s 2157 382 m 21 X s 2157 399 m 21 X s 2157 415 m 21 X s 2157 431 m 21 X s 2135 447 m 43 X s 2157 464 m 21 X s 2157 480 m 21 X s 2157 496 m 21 X s 2157 512 m 21 X s 2135 529 m 43 X s 2135
 203 m 43 X s 2157 187 m 21 X s 2135 529 m 43 X s 9 lw 380 414 m 18 Y s 380 432 m cl s 380 387 m -18 Y s 380 369 m cl s 504 374 m 1 Y s 504 375 m cl s 504 347 m -1 Y s 504 346 m cl s 628 380 m 2 Y s 628 382 m cl s 628 353 m -2 Y s 628 351 m cl s 752
 401 m 5 Y s 752 406 m cl s 752 374 m -6 Y s 752 368 m cl s 876 355 m 6 Y s 876 361 m cl s 876 328 m -6 Y s 876 322 m cl s 1000 368 m 10 Y s 1000 378 m cl s 1000 341 m -10 Y s 1000 331 m cl s 1124 347 m 18 Y s 1124 365 m cl s 1124 320 m -18 Y s 1124
 302 m cl s 1248 442 m 38 Y s 1248 480 m cl s 1248 415 m -36 Y s 1248 379 m cl s 1372 360 m 36 Y s 1372 396 m cl s 1372 333 m -33 Y s 1372 300 m cl s 1496 303 m 42 Y s 1496 345 m cl s 1496 276 m -33 Y s 1496 243 m cl s 1620 420 m 82 Y s 1620 502 m cl
 s 1620 393 m -74 Y s 1620 319 m cl s 1744 513 m 32 Y s 1744 545 m cl s 1744 486 m -128 Y s 1744 358 m cl s 1868 490 m 55 Y s 1868 545 m cl s 1868 463 m -162 Y s 1868 301 m cl s 2116 367 m 108 Y s 2116 475 m cl s 2116 340 m -83 Y s 2116 257 m cl s 3
 lw 380 401 504 360 628 367 752 387 876 341 1000 355 1124 333 1248 429 1372 347 1496 290 1620 406 1744 499 1868 476 13 { m20} R 9 lw 3 lw 2116 353 m20 9 lw 1 0 0 c 6 lw black 3 lw 1 0 0 c 2178 227 m s 2178 255 m s 2178 284 m s 2178 312 m -5 -5 d s
 2178 341 m -33 -34 d s 2178 369 m -62 -62 d s 2178 398 m -91 -91 d s 2054 274 m -18 -18 d s 2177 425 m -118 -118 d s 2054 303 m -47 -47 d s 2148 425 m -170 -169 d s 2119 425 m -170 -169 d s 2090 425 m -164 -164 d s 2062 425 m -164 -164 d s 2054 446
 m -185 -185 d s 2054 475 m -214 -214 d s 2027 476 m -215 -215 d s 1999 476 m -193 -191 d s 1970 476 m -164 -163 d s 1941 476 m -163 -162 d s 1907 471 m -158 -157 d s 1878 471 m -157 -157 d s 1850 471 m -44 -43 d s 1797 418 m -105 -104 d s 1821 471 m
 -15 -15 d s 1768 418 m -101 -101 d s 1740 418 m -102 -101 d s 1711 418 m -101 -101 d s 1682 418 m s 1679 415 m -98 -98 d s 1650 415 m -96 -96 d s 1621 415 m -96 -96 d s 1593 415 m -96 -96 d s 1564 415 m -96 -96 d s 1533 413 m -94 -94 d s 1505 413 m
 -73 -73 d s 1476 413 m -73 -73 d s 1447 413 m -13 -13 d s 1426 392 m -52 -52 d s 1398 392 m -52 -52 d s 1369 392 m -52 -52 d s 1340 392 m -51 -51 d s 1312 392 m -51 -51 d s 1282 391 m -50 -50 d s 1253 391 m -50 -50 d s 1224 391 m -50 -50 d s 1196
 391 m -51 -50 d s 1167 391 m -50 -50 d s 1139 391 m -51 -50 d s 1110 391 m -48 -48 d s 1081 391 m -38 -38 d s 1040 379 m -25 -26 d s 1011 379 m -25 -26 d s 983 379 m -26 -26 d s 954 379 m -25 -26 d s 925 379 m -25 -26 d s 897 379 m -26 -26 d s 868
 379 m -25 -26 d s 839 379 m -25 -26 d s 811 379 m -26 -26 d s 782 379 m -26 -26 d s 753 379 m -26 -26 d s 725 379 m -26 -26 d s 696 379 m -24 -24 d s 666 377 m -23 -22 d s 637 377 m -23 -22 d s 608 377 m -22 -22 d s 580 377 m -25 -24 d s 553 379 m
 -27 -26 d s 524 379 m -27 -26 d s 496 379 m -27 -26 d s 467 379 m -31 -31 d s 318 231 m s 442 383 m -35 -35 d s 318 259 m s 414 384 m -36 -36 d s 318 288 m s 385 384 m -36 -36 d s 318 317 m s 357 384 m -36 -36 d s 318 345 m s 328 384 m -10 -10 d s 6
 lw black[ 4 8] 0 sd 3 lw 318 447 m 1860 X s 318 285 m 1860 X s 1 0 0 c[  12 12 ] 0 sd 6 lw 318 366 m 1860 X s
 gr  gr showpage
end
%%EOF
