%!PS-Adobe-2.0 EPSF-2.0
%%BoundingBox:  0 0 567 521
%%Title: Distributions/meffInc_distrCRW_MB-SSd_beforeFit_forThesis.eps: canvas
%%Creator: ROOT Version 6.04/16
%%CreationDate: Tue May 19 22:04:14 2020
%%DocumentNeededResources: ProcSet (FontSetInit)
%%EndComments
%%BeginProlog
80 dict begin
/s {stroke} def /l {lineto} def /m {moveto} def /t {translate} def
/r {rotate} def /rl {roll}  def /R {repeat} def
/d {rlineto} def /rm {rmoveto} def /gr {grestore} def /f {eofill} def
/c {setrgbcolor} def /black {0 setgray} def /sd {setdash} def
/cl {closepath} def /sf {scalefont setfont} def /lw {setlinewidth} def
/box {m dup 0 exch d exch 0 d 0 exch neg d cl} def
/NC{systemdict begin initclip end}def/C{NC box clip newpath}def
/bl {box s} def /bf {gsave box gsave f grestore 1 lw [] 0 sd s grestore} def /Y { 0 exch d} def /X { 0 d} def 
/K {{pop pop 0 moveto} exch kshow} bind def
/ita {/ang 15 def gsave [1 0 ang dup sin exch cos div 1 0 0] concat} def 
/mp {newpath /y exch def /x exch def} def
/side {[w .77 mul w .23 mul] .385 w mul sd w 0 l currentpoint t -144 r} def
/mr {mp x y w2 0 360 arc} def /m24 {mr s} def /m20 {mr f} def
/mb {mp x y w2 add m w2 neg 0 d 0 w neg d w 0 d 0 w d cl} def
/mt {mp x y w2 add m w2 neg w neg d w 0 d cl} def
/m21 {mb f} def /m25 {mb s} def /m22 {mt f} def /m26{mt s} def
/m23 {mp x y w2 sub m w2 w d w neg 0 d cl f} def
/m27 {mp x y w2 add m w3 neg w2 neg d w3 w2 neg d w3 w2 d cl s} def
/m28 {mp x w2 sub y w2 sub w3 add m w3 0 d  0 w3 neg d w3 0 d 0 w3 d w3 0 d  0 w3 d w3 neg 0 d 0 w3 d w3 neg 0 d 0 w3 neg d w3 neg 0 d cl s } def
/m29 {mp gsave x w2 sub y w2 add w3 sub m currentpoint t 4 {side} repeat cl fill gr} def
/m30 {mp gsave x w2 sub y w2 add w3 sub m currentpoint t 4 {side} repeat cl s gr} def
/m31 {mp x y w2 sub m 0 w d x w2 sub y m w 0 d x w2 sub y w2 add m w w neg d x w2 sub y w2 sub m w w d s} def
/m32 {mp x y w2 sub m w2 w d w neg 0 d cl s} def
/m33 {mp x y w2 add m w3 neg w2 neg d w3 w2 neg d w3 w2 d cl f} def
/m34 {mp x w2 sub y w2 sub w3 add m w3 0 d  0 w3 neg d w3 0 d 0 w3 d w3 0 d  0 w3 d w3 neg 0 d 0 w3 d w3 neg 0 d 0 w3 neg d w3 neg 0 d cl f } def
/m2 {mp x y w2 sub m 0 w d x w2 sub y m w 0 d s} def
/m5 {mp x w2 sub y w2 sub m w w d x w2 sub y w2 add m w w neg d s} def
%%IncludeResource: ProcSet (FontSetInit)
%%IncludeResource: font Times-Roman
%%IncludeResource: font Times-Italic
%%IncludeResource: font Times-Bold
%%IncludeResource: font Times-BoldItalic
%%IncludeResource: font Helvetica
%%IncludeResource: font Helvetica-Oblique
%%IncludeResource: font Helvetica-Bold
%%IncludeResource: font Helvetica-BoldOblique
%%IncludeResource: font Courier
%%IncludeResource: font Courier-Oblique
%%IncludeResource: font Courier-Bold
%%IncludeResource: font Courier-BoldOblique
%%IncludeResource: font Symbol
%%IncludeResource: font ZapfDingbats
/reEncode {exch findfont dup length dict begin {1 index /FID eq  {pop pop} {def} ifelse } forall /Encoding exch def currentdict end dup /FontName get exch definefont pop } def [/Times-Bold /Times-Italic /Times-BoldItalic /Helvetica /Helvetica-Oblique
 /Helvetica-Bold /Helvetica-BoldOblique /Courier /Courier-Oblique /Courier-Bold /Courier-BoldOblique /Times-Roman /AvantGarde-Book /AvantGarde-BookOblique /AvantGarde-Demi /AvantGarde-DemiOblique /Bookman-Demi /Bookman-DemiItalic /Bookman-Light
 /Bookman-LightItalic /Helvetica-Narrow /Helvetica-Narrow-Bold /Helvetica-Narrow-BoldOblique /Helvetica-Narrow-Oblique /NewCenturySchlbk-Roman /NewCenturySchlbk-Bold /NewCenturySchlbk-BoldItalic /NewCenturySchlbk-Italic /Palatino-Bold
 /Palatino-BoldItalic /Palatino-Italic /Palatino-Roman ] {ISOLatin1Encoding reEncode } forall
%%EndProlog
%%BeginSetup
%%EndSetup
newpath  gsave  .25 .25 scale  gsave  0 0 t black[  ] 0 sd 3 lw 1 1 1 c 2268 2085 0 0 bf black 1 1 1 c 2263 1770 2 313 bf black 1 1 1 c black 1860 1145 319 584 bl 1 1 1 c black 1860 1145 319 584 bl 6 lw 1 1 1 c black 3 lw /w 33 def /w2 {w 2 div} def
 /w3 {w 3 div} def 366 1249 m20 6 lw 3 lw 459 1239 m20 6 lw 3 lw 552 1209 m20 6 lw 3 lw 645 1177 m20 6 lw 3 lw 738 1142 m20 6 lw 3 lw 831 1111 m20 6 lw 3 lw 924 1083 m20 6 lw 3 lw 1017 1056 m20 6 lw 3 lw 1110 1019 m20 6 lw 3 lw 1203 983 m20 6 lw 3 lw
 1296 978 m20 6 lw 3 lw 1389 931 m20 6 lw 3 lw 1482 923 m20 6 lw 1575 835 m 9 Y s 1575 872 m 2 Y s 3 lw 1575 858 m20 6 lw 1668 796 m 18 Y s 1668 841 m 7 Y s 3 lw 1668 828 m20 6 lw 1761 796 m 18 Y s 1761 841 m 7 Y s 3 lw 1761 828 m20 6 lw 1854 782 m
 21 Y s 1854 830 m 9 Y s 3 lw 1854 817 m20 6 lw 1947 735 m 38 Y s 1947 800 m 14 Y s 3 lw 1947 786 m20 6 lw 2040 762 m 28 Y s 2040 817 m 11 Y s 3 lw 2040 804 m20 6 lw 2133 735 m 38 Y s 2133 800 m 14 Y s 3 lw 2133 786 m20 6 lw 3 lw 319 584 m 1860 X s
 gsave  2263 1770 2 313 C 1949.08 369.478 t 0 r /Helvetica findfont 81.3741 sf 0 0 m ( [GeV]) show NC gr 
 gsave  2263 1770 2 313 C 1888.07 342.361 t 0 r /Helvetica findfont 54.2494 sf 0 0 m (eff) show NC gr 
 gsave  2263 1770 2 313 C 1823.66 369.478 t 0 r /Helvetica findfont 81.3741 sf 0 0 m (m) show NC gr  319 584 m cl s 366 584 m cl s 412 584 m cl s 459 584 m cl s 505 584 m cl s 552 584 m cl s 598 584 m cl s 645 584 m cl s 691 584 m cl s 738 584 m cl s
 784 584 m cl s 831 584 m cl s 877 584 m cl s 924 584 m cl s 970 584 m cl s 1017 584 m cl s 1063 584 m cl s 1110 584 m cl s 1156 584 m cl s 1203 584 m cl s 1249 584 m cl s 1296 584 m cl s 1342 584 m cl s 1389 584 m cl s 1435 584 m cl s 1482 584 m cl
 s 1528 584 m cl s 1575 584 m cl s 1621 584 m cl s 1668 584 m cl s 1714 584 m cl s 1761 584 m cl s 1807 584 m cl s 1854 584 m cl s 1900 584 m cl s 1947 584 m cl s 1993 584 m cl s 2040 584 m cl s 2086 584 m cl s 2133 584 m cl s 2179 584 m cl s 319
 1729 m 1860 X s 319 1729 m cl s 366 1729 m cl s 412 1729 m cl s 459 1729 m cl s 505 1729 m cl s 552 1729 m cl s 598 1729 m cl s 645 1729 m cl s 691 1729 m cl s 738 1729 m cl s 784 1729 m cl s 831 1729 m cl s 877 1729 m cl s 924 1729 m cl s 970 1729
 m cl s 1017 1729 m cl s 1063 1729 m cl s 1110 1729 m cl s 1156 1729 m cl s 1203 1729 m cl s 1249 1729 m cl s 1296 1729 m cl s 1342 1729 m cl s 1389 1729 m cl s 1435 1729 m cl s 1482 1729 m cl s 1528 1729 m cl s 1575 1729 m cl s 1621 1729 m cl s 1668
 1729 m cl s 1714 1729 m cl s 1761 1729 m cl s 1807 1729 m cl s 1854 1729 m cl s 1900 1729 m cl s 1947 1729 m cl s 1993 1729 m cl s 2040 1729 m cl s 2086 1729 m cl s 2133 1729 m cl s 2179 1729 m cl s 319 584 m 1145 Y s
 gsave  2263 1770 2 313 C 166.096 1091.49 t 90 r /Helvetica findfont 81.3741 sf 0 0 m (Events / 200 GeV) show NC gr  341 626 m -22 X s 341 650 m -22 X s 341 667 m -22 X s 341 680 m -22 X s 341 691 m -22 X s 341 700 m -22 X s 341 708 m -22 X s 341 715
 m -22 X s 363 721 m -44 X s
 gsave  2263 1770 2 313 C 300.555 694.033 t 0 r  -36 0 t /Helvetica findfont 64.4212 sf 0 0 m (1) show NC gr  341 762 m -22 X s 341 786 m -22 X s 341 804 m -22 X s 341 817 m -22 X s 341 828 m -22 X s 341 837 m -22 X s 341 845 m -22 X s 341 852 m -22
 X s 363 858 m -44 X s
 gsave  2263 1770 2 313 C 300.555 830.874 t 0 r  -73 0 t /Helvetica findfont 64.4212 sf 0 0 m (10) show NC gr  341 899 m -22 X s 341 923 m -22 X s 341 940 m -22 X s 341 954 m -22 X s 341 964 m -22 X s 341 974 m -22 X s 341 982 m -22 X s 341 989 m -22
 X s 363 995 m -44 X s
 gsave  2263 1770 2 313 C 274.567 993.185 t 0 r /Helvetica findfont 44.0776 sf 0 0 m (2) show NC gr 
 gsave  2263 1770 2 313 C 203.383 966.068 t 0 r /Helvetica findfont 64.4212 sf 0 0 m (10) show NC gr  341 1036 m -22 X s 341 1060 m -22 X s 341 1077 m -22 X s 341 1090 m -22 X s 341 1101 m -22 X s 341 1110 m -22 X s 341 1118 m -22 X s 341 1125 m -22
 X s 363 1132 m -44 X s
 gsave  2263 1770 2 313 C 274.567 1132.16 t 0 r /Helvetica findfont 44.0776 sf 0 0 m (3) show NC gr 
 gsave  2263 1770 2 313 C 203.383 1101.66 t 0 r /Helvetica findfont 64.4212 sf 0 0 m (10) show NC gr  341 1173 m -22 X s 341 1197 m -22 X s 341 1214 m -22 X s 341 1227 m -22 X s 341 1238 m -22 X s 341 1247 m -22 X s 341 1255 m -22 X s 341 1262 m -22
 X s 363 1269 m -44 X s
 gsave  2263 1770 2 313 C 274.567 1267.75 t 0 r /Helvetica findfont 44.0776 sf 0 0 m (4) show NC gr 
 gsave  2263 1770 2 313 C 203.383 1240.63 t 0 r /Helvetica findfont 64.4212 sf 0 0 m (10) show NC gr  341 1310 m -22 X s 341 1334 m -22 X s 341 1351 m -22 X s 341 1364 m -22 X s 341 1375 m -22 X s 341 1384 m -22 X s 341 1392 m -22 X s 341 1399 m -22
 X s 363 1405 m -44 X s
 gsave  2263 1770 2 313 C 274.567 1406.73 t 0 r /Helvetica findfont 44.0776 sf 0 0 m (5) show NC gr 
 gsave  2263 1770 2 313 C 203.383 1376.22 t 0 r /Helvetica findfont 64.4212 sf 0 0 m (10) show NC gr  341 1447 m -22 X s 341 1471 m -22 X s 341 1488 m -22 X s 341 1501 m -22 X s 341 1512 m -22 X s 341 1521 m -22 X s 341 1529 m -22 X s 341 1536 m -22
 X s 363 1542 m -44 X s
 gsave  2263 1770 2 313 C 274.567 1542.32 t 0 r /Helvetica findfont 44.0776 sf 0 0 m (6) show NC gr 
 gsave  2263 1770 2 313 C 203.383 1511.81 t 0 r /Helvetica findfont 64.4212 sf 0 0 m (10) show NC gr  341 1583 m -22 X s 341 1607 m -22 X s 341 1625 m -22 X s 341 1638 m -22 X s 341 1649 m -22 X s 341 1658 m -22 X s 341 1666 m -22 X s 341 1673 m -22
 X s 363 1679 m -44 X s
 gsave  2263 1770 2 313 C 274.567 1677.91 t 0 r /Helvetica findfont 44.0776 sf 0 0 m (7) show NC gr 
 gsave  2263 1770 2 313 C 203.383 1650.79 t 0 r /Helvetica findfont 64.4212 sf 0 0 m (10) show NC gr  341 1720 m -22 X s 2179 584 m 1145 Y s 2157 626 m 22 X s 2157 650 m 22 X s 2157 667 m 22 X s 2157 680 m 22 X s 2157 691 m 22 X s 2157 700 m 22 X s
 2157 708 m 22 X s 2157 715 m 22 X s 2136 721 m 43 X s 2157 762 m 22 X s 2157 786 m 22 X s 2157 804 m 22 X s 2157 817 m 22 X s 2157 828 m 22 X s 2157 837 m 22 X s 2157 845 m 22 X s 2157 852 m 22 X s 2136 858 m 43 X s 2157 899 m 22 X s 2157 923 m 22 X
 s 2157 940 m 22 X s 2157 954 m 22 X s 2157 964 m 22 X s 2157 974 m 22 X s 2157 982 m 22 X s 2157 989 m 22 X s 2136 995 m 43 X s 2157 1036 m 22 X s 2157 1060 m 22 X s 2157 1077 m 22 X s 2157 1090 m 22 X s 2157 1101 m 22 X s 2157 1110 m 22 X s 2157
 1118 m 22 X s 2157 1125 m 22 X s 2136 1132 m 43 X s 2157 1173 m 22 X s 2157 1197 m 22 X s 2157 1214 m 22 X s 2157 1227 m 22 X s 2157 1238 m 22 X s 2157 1247 m 22 X s 2157 1255 m 22 X s 2157 1262 m 22 X s 2136 1269 m 43 X s 2157 1310 m 22 X s 2157
 1334 m 22 X s 2157 1351 m 22 X s 2157 1364 m 22 X s 2157 1375 m 22 X s 2157 1384 m 22 X s 2157 1392 m 22 X s 2157 1399 m 22 X s 2136 1405 m 43 X s 2157 1447 m 22 X s 2157 1471 m 22 X s 2157 1488 m 22 X s 2157 1501 m 22 X s 2157 1512 m 22 X s 2157
 1521 m 22 X s 2157 1529 m 22 X s 2157 1536 m 22 X s 2136 1542 m 43 X s 2157 1583 m 22 X s 2157 1607 m 22 X s 2157 1625 m 22 X s 2157 1638 m 22 X s 2157 1649 m 22 X s 2157 1658 m 22 X s 2157 1666 m 22 X s 2157 1673 m 22 X s 2136 1679 m 43 X s 2157
 1720 m 22 X s 0.4 0.6 1 c black 0.4 0.6 1 c 319 584 m 669 Y 93 X -8 Y 93 X -30 Y 93 X -33 Y 93 X -34 Y 93 X -29 Y 93 X -30 Y 93 X -31 Y 93 X -30 Y 93 X -29 Y 93 X -30 Y 93 X -29 Y 93 X -24 Y 93 X -23 Y 93 X -21 Y 93 X -43 Y 93 X -7 Y 93 X -46 Y 93 X
 -3 Y 93 X 47 Y 93 X -236 Y f black 0.4 0.6 1 c black 319 1253 m 93 X -8 Y 93 X -30 Y 93 X -33 Y 93 X -34 Y 93 X -29 Y 93 X -30 Y 93 X -31 Y 93 X -30 Y 93 X -29 Y 93 X -30 Y 93 X -29 Y 93 X -24 Y 93 X -23 Y 93 X -21 Y 93 X -43 Y 93 X -7 Y 93 X -46 Y
 93 X -3 Y 93 X 47 Y 93 X s 0.999 0.999 0.999 c black 0.999 0.999 0.999 c 319 584 m 564 Y 93 X -13 Y 93 X -31 Y 93 X -31 Y 93 X -34 Y 93 X -30 Y 93 X -28 Y 93 X -31 Y 93 X -29 Y 93 X -23 Y 93 X -36 Y 93 X -25 Y 93 X -15 Y 93 X -18 Y 93 X -14 Y 93 X
 -43 Y 93 X -48 Y 93 X -54 Y 93 X 45 Y 93 X -3 Y 93 X -103 Y f black 0.999 0.999 0.999 c black 319 1148 m 93 X -13 Y 93 X -31 Y 93 X -31 Y 93 X -34 Y 93 X -30 Y 93 X -28 Y 93 X -31 Y 93 X -29 Y 93 X -23 Y 93 X -36 Y 93 X -25 Y 93 X -15 Y 93 X -18 Y
 93 X -14 Y 93 X -43 Y 93 X -48 Y 93 X -54 Y 93 X 45 Y 93 X -3 Y 93 X s 1 1 1 c black 319 1148 m 93 X -13 Y 93 X -31 Y 93 X -31 Y 93 X -34 Y 93 X -30 Y 93 X -28 Y 93 X -31 Y 93 X -29 Y 93 X -23 Y 93 X -36 Y 93 X -25 Y 93 X -15 Y 93 X -18 Y 93 X -14 Y
 93 X -43 Y 93 X -48 Y 93 X -54 Y 93 X 45 Y 93 X -3 Y 93 X s 0.6 1 0.6 c black 0.6 1 0.6 c 319 584 m 564 Y 93 X -13 Y 93 X -31 Y 93 X -31 Y 93 X -34 Y 93 X -30 Y 93 X -28 Y 93 X -31 Y 93 X -29 Y 93 X -23 Y 93 X -36 Y 93 X -25 Y 93 X -15 Y 93 X -18 Y
 93 X -14 Y 93 X -43 Y 93 X -48 Y 93 X -54 Y 93 X 45 Y 93 X -3 Y 93 X -103 Y f black 0.6 1 0.6 c black 319 1148 m 93 X -13 Y 93 X -31 Y 93 X -31 Y 93 X -34 Y 93 X -30 Y 93 X -28 Y 93 X -31 Y 93 X -29 Y 93 X -23 Y 93 X -36 Y 93 X -25 Y 93 X -15 Y 93 X
 -18 Y 93 X -14 Y 93 X -43 Y 93 X -48 Y 93 X -54 Y 93 X 45 Y 93 X -3 Y 93 X s 0.999 0.999 0.999 c black 0.999 0.999 0.999 c 319 584 m 496 Y 93 X -7 Y 93 X -23 Y 93 X -31 Y 93 X -31 Y 93 X -30 Y 93 X -30 Y 93 X -30 Y 93 X -27 Y 93 X -23 Y 93 X -34 Y
 93 X -23 Y 93 X -31 Y 93 X -18 Y 93 X -18 Y 93 X -74 Y 93 X -45 Y 93 X -21 Y 93 X 7 Y 93 X -7 Y 93 X f black 0.999 0.999 0.999 c black 319 1080 m 93 X -7 Y 93 X -23 Y 93 X -31 Y 93 X -31 Y 93 X -30 Y 93 X -30 Y 93 X -30 Y 93 X -27 Y 93 X -23 Y 93 X
 -34 Y 93 X -23 Y 93 X -31 Y 93 X -18 Y 93 X -18 Y 93 X -74 Y 93 X -45 Y 93 X -21 Y 93 X 7 Y 93 X -7 Y 93 X s 1 1 1 c black 319 1080 m 93 X -7 Y 93 X -23 Y 93 X -31 Y 93 X -31 Y 93 X -30 Y 93 X -30 Y 93 X -30 Y 93 X -27 Y 93 X -23 Y 93 X -34 Y 93 X
 -23 Y 93 X -31 Y 93 X -18 Y 93 X -18 Y 93 X -74 Y 93 X -45 Y 93 X -21 Y 93 X 7 Y 93 X -7 Y 93 X s 1 0.8 0.4 c black 1 0.8 0.4 c 319 584 m 496 Y 93 X -7 Y 93 X -23 Y 93 X -31 Y 93 X -31 Y 93 X -30 Y 93 X -30 Y 93 X -30 Y 93 X -27 Y 93 X -23 Y 93 X
 -34 Y 93 X -23 Y 93 X -31 Y 93 X -18 Y 93 X -18 Y 93 X -74 Y 93 X -45 Y 93 X -21 Y 93 X 7 Y 93 X -7 Y 93 X f black 1 0.8 0.4 c black 319 1080 m 93 X -7 Y 93 X -23 Y 93 X -31 Y 93 X -31 Y 93 X -30 Y 93 X -30 Y 93 X -30 Y 93 X -27 Y 93 X -23 Y 93 X
 -34 Y 93 X -23 Y 93 X -31 Y 93 X -18 Y 93 X -18 Y 93 X -74 Y 93 X -45 Y 93 X -21 Y 93 X 7 Y 93 X -7 Y 93 X s 0.999 0.999 0.999 c black 0.999 0.999 0.999 c 319 584 m 489 Y 93 X -8 Y 93 X -21 Y 93 X -32 Y 93 X -31 Y 93 X -29 Y 93 X -30 Y 93 X -30 Y 93
 X -27 Y 93 X -22 Y 93 X -34 Y 93 X -22 Y 93 X -31 Y 93 X -36 Y 93 X 2 Y 93 X -116 Y 93 X -22 Y 186 X 1 Y 93 X -1 Y 93 X f black 0.999 0.999 0.999 c black 319 1073 m 93 X -8 Y 93 X -21 Y 93 X -32 Y 93 X -31 Y 93 X -29 Y 93 X -30 Y 93 X -30 Y 93 X -27
 Y 93 X -22 Y 93 X -34 Y 93 X -22 Y 93 X -31 Y 93 X -36 Y 93 X 2 Y 93 X -116 Y 93 X -22 Y 186 X 1 Y 93 X -1 Y 93 X s 1 1 1 c black 319 1073 m 93 X -8 Y 93 X -21 Y 93 X -32 Y 93 X -31 Y 93 X -29 Y 93 X -30 Y 93 X -30 Y 93 X -27 Y 93 X -22 Y 93 X -34 Y
 93 X -22 Y 93 X -31 Y 93 X -36 Y 93 X 2 Y 93 X -116 Y 93 X -22 Y 186 X 1 Y 93 X -1 Y 93 X s 1 0.4 0.6 c black 1 0.4 0.6 c 319 584 m 489 Y 93 X -8 Y 93 X -21 Y 93 X -32 Y 93 X -31 Y 93 X -29 Y 93 X -30 Y 93 X -30 Y 93 X -27 Y 93 X -22 Y 93 X -34 Y 93
 X -22 Y 93 X -31 Y 93 X -36 Y 93 X 2 Y 93 X -116 Y 93 X -22 Y 186 X 1 Y 93 X -1 Y 93 X f black 1 0.4 0.6 c black 319 1073 m 93 X -8 Y 93 X -21 Y 93 X -32 Y 93 X -31 Y 93 X -29 Y 93 X -30 Y 93 X -30 Y 93 X -27 Y 93 X -22 Y 93 X -34 Y 93 X -22 Y 93 X
 -31 Y 93 X -36 Y 93 X 2 Y 93 X -116 Y 93 X -22 Y 186 X 1 Y 93 X -1 Y 93 X s 1 0 0 c 6 lw 1 1 1 c black 1 0 0 c 319 1253 m 93 X -8 Y 93 X -30 Y 93 X -33 Y 93 X -34 Y 93 X -29 Y 93 X -30 Y 93 X -31 Y 93 X -30 Y 93 X -29 Y 93 X -30 Y 93 X -29 Y 93 X
 -24 Y 93 X -23 Y 93 X -21 Y 93 X -43 Y 93 X -7 Y 93 X -46 Y 93 X -3 Y 93 X 47 Y 93 X s black 3 lw 1 0 0 c 1 lw << /PatternType 1 /PaintType 2 /TilingType 1 /BBox [ 0 0 100 100 ] /XStep 100 /YStep 100 /PaintProc { begin gsave 0 100 m 100 0 l s gr end
 } >> [ 0.24 0 0 0.24 0 0 ] makepattern /P05 exch def /cs {[/Pattern /DeviceRGB] setcolorspace} def /FA {f [/DeviceRGB] setcolorspace} def cs 1 0 0 P05 setcolor 319 584 m 671 Y 93 X -8 Y 93 X -31 Y 93 X -33 Y 93 X -33 Y 93 X -29 Y 93 X -30 Y 93 X -31
 Y 93 X -30 Y 93 X -27 Y 93 X -31 Y 93 X -28 Y 93 X -23 Y 93 X -22 Y 93 X -20 Y 93 X -38 Y 93 X -3 Y 93 X -50 Y 93 X 1 Y 93 X 47 Y 93 X -252 Y 215 Y -93 X -47 Y -93 X 8 Y -93 X 40 Y -93 X 13 Y -93 X 52 Y -93 X 22 Y -93 X 23 Y -93 X 25 Y -93 X 30 Y
 -93 X 31 Y -93 X 30 Y -93 X 30 Y -93 X 32 Y -93 X 30 Y -93 X 29 Y -93 X 34 Y -93 X 32 Y -93 X 30 Y -93 X 7 Y -93 X -666 Y FA 6 lw 1 1 1 c 15 lw 1575 838 m -2 Y s 1575 836 m cl s 1668 848 m 1 Y s 1668 849 m cl s 1668 807 m -9 Y s 1668 798 m cl s 1761
 848 m 1 Y s 1761 849 m cl s 1761 807 m -9 Y s 1761 798 m cl s 1854 837 m 3 Y s 1854 840 m cl s 1854 796 m -13 Y s 1854 783 m cl s 1947 807 m 9 Y s 1947 816 m cl s 1947 766 m -26 Y s 1947 740 m cl s 2040 824 m 5 Y s 2040 829 m cl s 2040 783 m -18 Y s
 2040 765 m cl s 2133 807 m 9 Y s 2133 816 m cl s 2133 766 m -26 Y s 2133 740 m cl s black 1 1 1 c 3 lw /w 43 def /w2 {w 2 div} def /w3 {w 3 div} def 366 1249 459 1239 552 1209 645 1177 738 1142 831 1111 924 1083 1017 1056 1110 1019 1203 983 1296 978
 1389 931 1482 923 1575 858 1668 828 1761 828 1854 817 1947 786 2040 804 2133 786 20 { m20} R 15 lw black 6 lw 1 1 1 c black 3 lw /w 33 def /w2 {w 2 div} def /w3 {w 3 div} def 366 1249 m20 6 lw 3 lw 459 1239 m20 6 lw 3 lw 552 1209 m20 6 lw 3 lw 645
 1177 m20 6 lw 3 lw 738 1142 m20 6 lw 3 lw 831 1111 m20 6 lw 3 lw 924 1083 m20 6 lw 3 lw 1017 1056 m20 6 lw 3 lw 1110 1019 m20 6 lw 3 lw 1203 983 m20 6 lw 3 lw 1296 978 m20 6 lw 3 lw 1389 931 m20 6 lw 3 lw 1482 923 m20 6 lw 1575 835 m 9 Y s 1575 872
 m 2 Y s 3 lw 1575 858 m20 6 lw 1668 796 m 18 Y s 1668 841 m 7 Y s 3 lw 1668 828 m20 6 lw 1761 796 m 18 Y s 1761 841 m 7 Y s 3 lw 1761 828 m20 6 lw 1854 782 m 21 Y s 1854 830 m 9 Y s 3 lw 1854 817 m20 6 lw 1947 735 m 38 Y s 1947 800 m 14 Y s 3 lw
 1947 786 m20 6 lw 2040 762 m 28 Y s 2040 817 m 11 Y s 3 lw 2040 804 m20 6 lw 2133 735 m 38 Y s 2133 800 m 14 Y s 3 lw 2133 786 m20 6 lw 1575 872 m 3 Y s 1575 875 m cl s 1575 844 m -8 Y s 1575 836 m cl s 1668 841 m 8 Y s 1668 849 m cl s 1668 814 m
 -16 Y s 1668 798 m cl s 1761 841 m 8 Y s 1761 849 m cl s 1761 814 m -16 Y s 1761 798 m cl s 1854 830 m 10 Y s 1854 840 m cl s 1854 803 m -20 Y s 1854 783 m cl s 1947 800 m 16 Y s 1947 816 m cl s 1947 773 m -33 Y s 1947 740 m cl s 2040 817 m 12 Y s
 2040 829 m cl s 2040 790 m -25 Y s 2040 765 m cl s 2133 800 m 16 Y s 2133 816 m cl s 2133 773 m -33 Y s 2133 740 m cl s 3 lw 366 1249 459 1239 552 1209 645 1177 738 1142 831 1111 924 1083 1017 1056 1110 1019 1203 983 1296 978 1389 931 1482 923 1575
 858 1668 828 1761 828 1854 817 1947 786 2040 804 2133 786 20 { m20} R 6 lw 3 lw 319 584 m 1860 X s 319 584 m cl s 366 584 m cl s 412 584 m cl s 459 584 m cl s 505 584 m cl s 552 584 m cl s 598 584 m cl s 645 584 m cl s 691 584 m cl s 738 584 m cl s
 784 584 m cl s 831 584 m cl s 877 584 m cl s 924 584 m cl s 970 584 m cl s 1017 584 m cl s 1063 584 m cl s 1110 584 m cl s 1156 584 m cl s 1203 584 m cl s 1249 584 m cl s 1296 584 m cl s 1342 584 m cl s 1389 584 m cl s 1435 584 m cl s 1482 584 m cl
 s 1528 584 m cl s 1575 584 m cl s 1621 584 m cl s 1668 584 m cl s 1714 584 m cl s 1761 584 m cl s 1807 584 m cl s 1854 584 m cl s 1900 584 m cl s 1947 584 m cl s 1993 584 m cl s 2040 584 m cl s 2086 584 m cl s 2133 584 m cl s 2179 584 m cl s 319
 1729 m 1860 X s 319 1729 m cl s 366 1729 m cl s 412 1729 m cl s 459 1729 m cl s 505 1729 m cl s 552 1729 m cl s 598 1729 m cl s 645 1729 m cl s 691 1729 m cl s 738 1729 m cl s 784 1729 m cl s 831 1729 m cl s 877 1729 m cl s 924 1729 m cl s 970 1729
 m cl s 1017 1729 m cl s 1063 1729 m cl s 1110 1729 m cl s 1156 1729 m cl s 1203 1729 m cl s 1249 1729 m cl s 1296 1729 m cl s 1342 1729 m cl s 1389 1729 m cl s 1435 1729 m cl s 1482 1729 m cl s 1528 1729 m cl s 1575 1729 m cl s 1621 1729 m cl s 1668
 1729 m cl s 1714 1729 m cl s 1761 1729 m cl s 1807 1729 m cl s 1854 1729 m cl s 1900 1729 m cl s 1947 1729 m cl s 1993 1729 m cl s 2040 1729 m cl s 2086 1729 m cl s 2133 1729 m cl s 2179 1729 m cl s 319 584 m 1145 Y s 341 626 m -22 X s 341 650 m -22
 X s 341 667 m -22 X s 341 680 m -22 X s 341 691 m -22 X s 341 700 m -22 X s 341 708 m -22 X s 341 715 m -22 X s 363 721 m -44 X s 341 762 m -22 X s 341 786 m -22 X s 341 804 m -22 X s 341 817 m -22 X s 341 828 m -22 X s 341 837 m -22 X s 341 845 m
 -22 X s 341 852 m -22 X s 363 858 m -44 X s 341 899 m -22 X s 341 923 m -22 X s 341 940 m -22 X s 341 954 m -22 X s 341 964 m -22 X s 341 974 m -22 X s 341 982 m -22 X s 341 989 m -22 X s 363 995 m -44 X s 341 1036 m -22 X s 341 1060 m -22 X s 341
 1077 m -22 X s 341 1090 m -22 X s 341 1101 m -22 X s 341 1110 m -22 X s 341 1118 m -22 X s 341 1125 m -22 X s 363 1132 m -44 X s 341 1173 m -22 X s 341 1197 m -22 X s 341 1214 m -22 X s 341 1227 m -22 X s 341 1238 m -22 X s 341 1247 m -22 X s 341
 1255 m -22 X s 341 1262 m -22 X s 363 1269 m -44 X s 341 1310 m -22 X s 341 1334 m -22 X s 341 1351 m -22 X s 341 1364 m -22 X s 341 1375 m -22 X s 341 1384 m -22 X s 341 1392 m -22 X s 341 1399 m -22 X s 363 1405 m -44 X s 341 1447 m -22 X s 341
 1471 m -22 X s 341 1488 m -22 X s 341 1501 m -22 X s 341 1512 m -22 X s 341 1521 m -22 X s 341 1529 m -22 X s 341 1536 m -22 X s 363 1542 m -44 X s 341 1583 m -22 X s 341 1607 m -22 X s 341 1625 m -22 X s 341 1638 m -22 X s 341 1649 m -22 X s 341
 1658 m -22 X s 341 1666 m -22 X s 341 1673 m -22 X s 363 1679 m -44 X s 341 1720 m -22 X s 2179 584 m 1145 Y s 2157 626 m 22 X s 2157 650 m 22 X s 2157 667 m 22 X s 2157 680 m 22 X s 2157 691 m 22 X s 2157 700 m 22 X s 2157 708 m 22 X s 2157 715 m
 22 X s 2136 721 m 43 X s 2157 762 m 22 X s 2157 786 m 22 X s 2157 804 m 22 X s 2157 817 m 22 X s 2157 828 m 22 X s 2157 837 m 22 X s 2157 845 m 22 X s 2157 852 m 22 X s 2136 858 m 43 X s 2157 899 m 22 X s 2157 923 m 22 X s 2157 940 m 22 X s 2157 954
 m 22 X s 2157 964 m 22 X s 2157 974 m 22 X s 2157 982 m 22 X s 2157 989 m 22 X s 2136 995 m 43 X s 2157 1036 m 22 X s 2157 1060 m 22 X s 2157 1077 m 22 X s 2157 1090 m 22 X s 2157 1101 m 22 X s 2157 1110 m 22 X s 2157 1118 m 22 X s 2157 1125 m 22 X
 s 2136 1132 m 43 X s 2157 1173 m 22 X s 2157 1197 m 22 X s 2157 1214 m 22 X s 2157 1227 m 22 X s 2157 1238 m 22 X s 2157 1247 m 22 X s 2157 1255 m 22 X s 2157 1262 m 22 X s 2136 1269 m 43 X s 2157 1310 m 22 X s 2157 1334 m 22 X s 2157 1351 m 22 X s
 2157 1364 m 22 X s 2157 1375 m 22 X s 2157 1384 m 22 X s 2157 1392 m 22 X s 2157 1399 m 22 X s 2136 1405 m 43 X s 2157 1447 m 22 X s 2157 1471 m 22 X s 2157 1488 m 22 X s 2157 1501 m 22 X s 2157 1512 m 22 X s 2157 1521 m 22 X s 2157 1529 m 22 X s
 2157 1536 m 22 X s 2136 1542 m 43 X s 2157 1583 m 22 X s 2157 1607 m 22 X s 2157 1625 m 22 X s 2157 1638 m 22 X s 2157 1649 m 22 X s 2157 1658 m 22 X s 2157 1666 m 22 X s 2157 1673 m 22 X s 2136 1679 m 43 X s 2157 1720 m 22 X s
 gsave  2263 1770 2 313 C 406.765 1447.41 t 0 r /Helvetica findfont 64.4212 sf 0 0 m (CRW for MB\255SSd) show NC gr 
 gsave  2263 1770 2 313 C 1464.36 1616.89 t 0 r /Helvetica findfont 64.4212 sf 0 0 m (SM Total) show NC gr  1 1 1 c 1338 1603 m 107 X 74 Y -107 X f 1 0 0 c 6 lw 1338 1640 m 107 X s black
 gsave  2263 1770 2 313 C 1464.36 1511.81 t 0 r /Helvetica findfont 64.4212 sf 0 0 m (Data) show NC gr  1391 1502 m 64 Y s 3 lw 1391 1534 m20 6 lw
 gsave  2263 1770 2 313 C 1464.36 1406.73 t 0 r /Helvetica findfont 64.4212 sf 0 0 m (W+jets) show NC gr  0.4 0.6 1 c 3 lw 1338 1391 m 107 X 74 Y -107 X f 6 lw black 3 lw 1338 1465 m 107 X s 1338 1391 m 107 X s 1445 1391 m 74 Y s 1338 1391 m 74 Y s
 gsave  2263 1770 2 313 C 1498.25 1298.26 t 0 r /Helvetica findfont 64.4212 sf 0 0 m (\(+EW\) & single top) show NC gr 
 gsave  2263 1770 2 313 C 1481.3 1298.26 t 0 r /Helvetica findfont 64.4212 sf 0 0 m (t) show NC gr  1481 1349 m 17 X s
 gsave  2263 1770 2 313 C 1464.36 1298.26 t 0 r /Helvetica findfont 64.4212 sf 0 0 m (t) show NC gr  0.6 1 0.6 c 1338 1284 m 107 X 75 Y -107 X f black 1338 1359 m 107 X s 1338 1284 m 107 X s 1445 1284 m 75 Y s 1338 1284 m 75 Y s
 gsave  2263 1770 2 313 C 1464.36 1193.18 t 0 r /Helvetica findfont 64.4212 sf 0 0 m (Z+jets) show NC gr  1 0.8 0.4 c 1338 1178 m 107 X 75 Y -107 X f black 1338 1253 m 107 X s 1338 1178 m 107 X s 1445 1178 m 75 Y s 1338 1178 m 75 Y s
 gsave  2263 1770 2 313 C 1464.36 1088.1 t 0 r /Helvetica findfont 64.4212 sf 0 0 m (Diboson) show NC gr  1 0.4 0.6 c 1338 1072 m 107 X 74 Y -107 X f black 1338 1146 m 107 X s 1338 1072 m 107 X s 1445 1072 m 74 Y s 1338 1072 m 74 Y s
 gsave  2263 1770 2 313 C 911.832 1566.05 t 0 r /Helvetica findfont 44.0776 sf 0 0 m (\2551) show NC gr 
 gsave  2263 1770 2 313 C 471.17 1535.54 t 0 r /Helvetica findfont 64.4212 sf 0 0 m (=13TeV, 139 fb) show NC gr 
 gsave  2263 1770 2 313 C 440.662 1535.54 t 0 r /Helvetica findfont 64.4212 sf 0 0 m (s) show NC gr  6 lw 420 1573 m 7 -41 d s 3 lw 427 1532 m 7 61 d s 434 1593 m 37 X s 1 1 1 c 2254 561 2 2 bf black 1 1 1 c black 1860 358 318 187 bl 1 1 1 c black
 1860 358 318 187 bl 6 lw 1 1 1 c black 3 lw 364 357 m20 6 lw 3 lw 457 351 m20 6 lw 3 lw 550 351 m20 6 lw 3 lw 643 352 m20 6 lw 3 lw 736 350 m20 6 lw 3 lw 829 345 m20 6 lw 3 lw 923 350 m20 6 lw 3 lw 1016 360 m20 6 lw 3 lw 1109 342 m20 6 lw 3 lw 1202
 327 m20 6 lw 3 lw 1295 392 m20 6 lw 3 lw 1388 343 m20 6 lw 3 lw 1481 388 m20 6 lw 3 lw 1574 293 m20 6 lw 3 lw 1667 280 m20 6 lw 3 lw 1760 363 m20 6 lw 3 lw 1853 352 m20 6 lw 3 lw 1946 399 m20 6 lw 3 lw 2039 476 m20 6 lw 3 lw 2132 296 m20 6 lw 3 lw
 318 187 m 1860 X s
 gsave  2254 561 2 2 C 1959.25 33.8971 t 0 r /Helvetica findfont 78.1689 sf 0 0 m ( [GeV]) show NC gr 
 gsave  2254 561 2 2 C 1901.63 13.5588 t 0 r /Helvetica findfont 50.9797 sf 0 0 m (eff) show NC gr 
 gsave  2254 561 2 2 C 1840.61 33.8971 t 0 r /Helvetica findfont 78.1689 sf 0 0 m (m) show NC gr  318 201 m -14 Y s 364 194 m -7 Y s 411 194 m -7 Y s 457 194 m -7 Y s 504 194 m -7 Y s 550 201 m -14 Y s 597 194 m -7 Y s 643 194 m -7 Y s 690 194 m -7 Y
 s 736 194 m -7 Y s 783 201 m -14 Y s 829 194 m -7 Y s 876 194 m -7 Y s 923 194 m -7 Y s 969 194 m -7 Y s 1016 201 m -14 Y s 1062 194 m -7 Y s 1109 194 m -7 Y s 1155 194 m -7 Y s 1202 194 m -7 Y s 1248 201 m -14 Y s 1295 194 m -7 Y s 1341 194 m -7 Y
 s 1388 194 m -7 Y s 1434 194 m -7 Y s 1481 201 m -14 Y s 1527 194 m -7 Y s 1574 194 m -7 Y s 1620 194 m -7 Y s 1667 194 m -7 Y s 1713 201 m -14 Y s 1760 194 m -7 Y s 1806 194 m -7 Y s 1853 194 m -7 Y s 1899 194 m -7 Y s 1946 201 m -14 Y s 1992 194 m
 -7 Y s 2039 194 m -7 Y s 2085 194 m -7 Y s 2132 194 m -7 Y s 2178 201 m -14 Y s
 gsave  2254 561 2 2 C 227.111 118.64 t 0 r /Helvetica findfont 78.1689 sf 0 0 m (1000) show NC gr 
 gsave  2254 561 2 2 C 461.001 118.64 t 0 r /Helvetica findfont 78.1689 sf 0 0 m (1500) show NC gr 
 gsave  2254 561 2 2 C 691.501 118.64 t 0 r /Helvetica findfont 78.1689 sf 0 0 m (2000) show NC gr 
 gsave  2254 561 2 2 C 925.391 118.64 t 0 r /Helvetica findfont 78.1689 sf 0 0 m (2500) show NC gr 
 gsave  2254 561 2 2 C 1159.28 118.64 t 0 r /Helvetica findfont 78.1689 sf 0 0 m (3000) show NC gr 
 gsave  2254 561 2 2 C 1389.78 118.64 t 0 r /Helvetica findfont 78.1689 sf 0 0 m (3500) show NC gr 
 gsave  2254 561 2 2 C 1623.67 118.64 t 0 r /Helvetica findfont 78.1689 sf 0 0 m (4000) show NC gr 
 gsave  2254 561 2 2 C 1857.56 118.64 t 0 r /Helvetica findfont 78.1689 sf 0 0 m (4500) show NC gr 
 gsave  2254 561 2 2 C 2088.06 118.64 t 0 r /Helvetica findfont 78.1689 sf 0 0 m (5000) show NC gr  318 545 m 1860 X s 318 531 m 14 Y s 364 538 m 7 Y s 411 538 m 7 Y s 457 538 m 7 Y s 504 538 m 7 Y s 550 531 m 14 Y s 597 538 m 7 Y s 643 538 m 7 Y s
 690 538 m 7 Y s 736 538 m 7 Y s 783 531 m 14 Y s 829 538 m 7 Y s 876 538 m 7 Y s 923 538 m 7 Y s 969 538 m 7 Y s 1016 531 m 14 Y s 1062 538 m 7 Y s 1109 538 m 7 Y s 1155 538 m 7 Y s 1202 538 m 7 Y s 1248 531 m 14 Y s 1295 538 m 7 Y s 1341 538 m 7 Y
 s 1388 538 m 7 Y s 1434 538 m 7 Y s 1481 531 m 14 Y s 1527 538 m 7 Y s 1574 538 m 7 Y s 1620 538 m 7 Y s 1667 538 m 7 Y s 1713 531 m 14 Y s 1760 538 m 7 Y s 1806 538 m 7 Y s 1853 538 m 7 Y s 1899 538 m 7 Y s 1946 531 m 14 Y s 1992 538 m 7 Y s 2039
 538 m 7 Y s 2085 538 m 7 Y s 2132 538 m 7 Y s 2178 531 m 14 Y s 318 187 m 358 Y s
 gsave  2254 561 2 2 C 166.096 284.736 t 90 r /Helvetica findfont 67.9729 sf 0 0 m (Data/SM) show NC gr  361 203 m -43 X s 339 220 m -21 X s 339 236 m -21 X s 339 252 m -21 X s 339 268 m -21 X s 361 285 m -43 X s 339 301 m -21 X s 339 317 m -21 X s
 339 334 m -21 X s 339 350 m -21 X s 361 366 m -43 X s 339 382 m -21 X s 339 399 m -21 X s 339 415 m -21 X s 339 431 m -21 X s 361 447 m -43 X s 339 464 m -21 X s 339 480 m -21 X s 339 496 m -21 X s 339 512 m -21 X s 361 529 m -43 X s 361 203 m -43 X
 s 339 187 m -21 X s 361 529 m -43 X s
 gsave  2254 561 2 2 C 261.008 183.044 t 0 r /Helvetica findfont 57.777 sf 0 0 m (0) show NC gr 
 gsave  2254 561 2 2 C 213.552 261.008 t 0 r /Helvetica findfont 57.777 sf 0 0 m (0.5) show NC gr 
 gsave  2254 561 2 2 C 271.177 342.361 t 0 r /Helvetica findfont 57.777 sf 0 0 m (1) show NC gr 
 gsave  2254 561 2 2 C 213.552 423.714 t 0 r /Helvetica findfont 57.777 sf 0 0 m (1.5) show NC gr 
 gsave  2254 561 2 2 C 261.008 505.067 t 0 r /Helvetica findfont 57.777 sf 0 0 m (2) show NC gr  2178 187 m 358 Y s 2135 203 m 43 X s 2157 220 m 21 X s 2157 236 m 21 X s 2157 252 m 21 X s 2157 268 m 21 X s 2135 285 m 43 X s 2157 301 m 21 X s 2157 317
 m 21 X s 2157 334 m 21 X s 2157 350 m 21 X s 2135 366 m 43 X s 2157 382 m 21 X s 2157 399 m 21 X s 2157 415 m 21 X s 2157 431 m 21 X s 2135 447 m 43 X s 2157 464 m 21 X s 2157 480 m 21 X s 2157 496 m 21 X s 2157 512 m 21 X s 2135 529 m 43 X s 2135
 203 m 43 X s 2157 187 m 21 X s 2135 529 m 43 X s 9 lw 1202 341 m s 1202 341 m cl s 1202 314 m s 1202 314 m cl s 1295 406 m 8 Y s 1295 414 m cl s 1295 379 m -9 Y s 1295 370 m cl s 1388 357 m 10 Y s 1388 367 m cl s 1388 329 m -10 Y s 1388 319 m cl s
 1481 401 m 21 Y s 1481 422 m cl s 1481 374 m -19 Y s 1481 355 m cl s 1574 307 m 15 Y s 1574 322 m cl s 1574 280 m -15 Y s 1574 265 m cl s 1667 294 m 19 Y s 1667 313 m cl s 1667 267 m -17 Y s 1667 250 m cl s 1760 376 m 55 Y s 1760 431 m cl s 1760 349
 m -49 Y s 1760 300 m cl s 1853 365 m 57 Y s 1853 422 m cl s 1853 338 m -50 Y s 1853 288 m cl s 1946 412 m 111 Y s 1946 523 m cl s 1946 385 m -92 Y s 1946 293 m cl s 2039 490 m 55 Y s 2039 545 m cl s 2039 462 m -116 Y s 2039 346 m cl s 2132 309 m 45
 Y s 2132 354 m cl s 2132 282 m -36 Y s 2132 246 m cl s 3 lw 364 357 457 351 550 351 643 352 736 350 829 345 923 350 1016 360 1109 342 1202 327 1295 392 1388 343 1481 388 1574 293 1667 280 1760 363 1853 352 1946 399 2039 476 2132 296 20 { m20} R 9 lw
 1 0 0 c 6 lw black 3 lw 1 0 0 c 2178 227 m s 2178 255 m s 2178 284 m s 2178 312 m s 2178 341 m -23 -24 d s 2178 369 m -52 -52 d s 2178 398 m -81 -81 d s 2166 415 m -98 -98 d s 2138 415 m -98 -98 d s 2109 415 m -98 -98 d s 2081 415 m -89 -88 d s 2052
 415 m -87 -87 d s 2023 415 m -87 -87 d s 1995 415 m -3 -2 d s 1983 404 m -75 -76 d s 1899 320 m -4 -4 d s 1954 404 m -88 -88 d s 1926 404 m -88 -88 d s 1899 406 m -90 -90 d s 1881 416 m -89 -88 d s 1852 416 m -89 -88 d s 1824 416 m -89 -88 d s 1783
 405 m -70 -70 d s 1754 405 m -57 -57 d s 1726 405 m -13 -13 d s 1706 384 m -37 -36 d s 1677 384 m -37 -36 d s 1648 384 m -34 -34 d s 1617 382 m -32 -32 d s 1589 382 m -33 -32 d s 1560 382 m -32 -32 d s 1531 382 m -30 -30 d s 1500 380 m -28 -28 d s
 1472 380 m -28 -28 d s 1443 380 m -27 -27 d s 1413 379 m -25 -26 d s 1384 379 m -25 -26 d s 1356 379 m -23 -23 d s 1324 376 m -20 -20 d s 1295 376 m -19 -20 d s 1267 376 m -20 -19 d s 1238 375 m -19 -18 d s 1209 375 m -19 -18 d s 1180 375 m -19 -18
 d s 1148 371 m -11 -10 d s 1119 371 m -11 -10 d s 1090 371 m -11 -10 d s 1061 371 m -10 -10 d s 1033 371 m -11 -10 d s 1004 371 m -11 -10 d s 975 371 m -10 -10 d s 946 371 m -10 -10 d s 918 371 m -10 -10 d s 889 371 m -10 -10 d s 859 370 m -8 -8 d s
 830 370 m -7 -8 d s 802 370 m -8 -8 d s 774 371 m -10 -10 d s 745 371 m -10 -10 d s 717 371 m -10 -10 d s 686 369 m -6 -6 d s 658 369 m -7 -6 d s 629 369 m -7 -6 d s 600 369 m -8 -8 d s 573 371 m -10 -10 d s 545 371 m -11 -10 d s 516 371 m -10 -10 d
 s 488 372 m -11 -11 d s 459 372 m -11 -11 d s 318 231 m s 430 372 m -11 -11 d s 318 259 m s 403 372 m -13 -12 d s 318 288 m s 374 372 m -13 -12 d s 318 317 m s 345 372 m -13 -12 d s 318 345 m s 6 lw black[ 4 8] 0 sd 3 lw 318 447 m 1860 X s 318 285 m
 1860 X s 1 0 0 c[  12 12 ] 0 sd 6 lw 318 366 m 1860 X s
 gr  gr showpage
end
%%EOF
