%!PS-Adobe-2.0 EPSF-2.0
%%BoundingBox:  0 0 567 521
%%Title: Distributions/meffInc_distrCRT_MB-SSd_afterFit_forThesis.eps: canvas
%%Creator: ROOT Version 6.04/16
%%CreationDate: Tue May 19 22:03:59 2020
%%DocumentNeededResources: ProcSet (FontSetInit)
%%EndComments
%%BeginProlog
80 dict begin
/s {stroke} def /l {lineto} def /m {moveto} def /t {translate} def
/r {rotate} def /rl {roll}  def /R {repeat} def
/d {rlineto} def /rm {rmoveto} def /gr {grestore} def /f {eofill} def
/c {setrgbcolor} def /black {0 setgray} def /sd {setdash} def
/cl {closepath} def /sf {scalefont setfont} def /lw {setlinewidth} def
/box {m dup 0 exch d exch 0 d 0 exch neg d cl} def
/NC{systemdict begin initclip end}def/C{NC box clip newpath}def
/bl {box s} def /bf {gsave box gsave f grestore 1 lw [] 0 sd s grestore} def /Y { 0 exch d} def /X { 0 d} def 
/K {{pop pop 0 moveto} exch kshow} bind def
/ita {/ang 15 def gsave [1 0 ang dup sin exch cos div 1 0 0] concat} def 
/mp {newpath /y exch def /x exch def} def
/side {[w .77 mul w .23 mul] .385 w mul sd w 0 l currentpoint t -144 r} def
/mr {mp x y w2 0 360 arc} def /m24 {mr s} def /m20 {mr f} def
/mb {mp x y w2 add m w2 neg 0 d 0 w neg d w 0 d 0 w d cl} def
/mt {mp x y w2 add m w2 neg w neg d w 0 d cl} def
/m21 {mb f} def /m25 {mb s} def /m22 {mt f} def /m26{mt s} def
/m23 {mp x y w2 sub m w2 w d w neg 0 d cl f} def
/m27 {mp x y w2 add m w3 neg w2 neg d w3 w2 neg d w3 w2 d cl s} def
/m28 {mp x w2 sub y w2 sub w3 add m w3 0 d  0 w3 neg d w3 0 d 0 w3 d w3 0 d  0 w3 d w3 neg 0 d 0 w3 d w3 neg 0 d 0 w3 neg d w3 neg 0 d cl s } def
/m29 {mp gsave x w2 sub y w2 add w3 sub m currentpoint t 4 {side} repeat cl fill gr} def
/m30 {mp gsave x w2 sub y w2 add w3 sub m currentpoint t 4 {side} repeat cl s gr} def
/m31 {mp x y w2 sub m 0 w d x w2 sub y m w 0 d x w2 sub y w2 add m w w neg d x w2 sub y w2 sub m w w d s} def
/m32 {mp x y w2 sub m w2 w d w neg 0 d cl s} def
/m33 {mp x y w2 add m w3 neg w2 neg d w3 w2 neg d w3 w2 d cl f} def
/m34 {mp x w2 sub y w2 sub w3 add m w3 0 d  0 w3 neg d w3 0 d 0 w3 d w3 0 d  0 w3 d w3 neg 0 d 0 w3 d w3 neg 0 d 0 w3 neg d w3 neg 0 d cl f } def
/m2 {mp x y w2 sub m 0 w d x w2 sub y m w 0 d s} def
/m5 {mp x w2 sub y w2 sub m w w d x w2 sub y w2 add m w w neg d s} def
%%IncludeResource: ProcSet (FontSetInit)
%%IncludeResource: font Times-Roman
%%IncludeResource: font Times-Italic
%%IncludeResource: font Times-Bold
%%IncludeResource: font Times-BoldItalic
%%IncludeResource: font Helvetica
%%IncludeResource: font Helvetica-Oblique
%%IncludeResource: font Helvetica-Bold
%%IncludeResource: font Helvetica-BoldOblique
%%IncludeResource: font Courier
%%IncludeResource: font Courier-Oblique
%%IncludeResource: font Courier-Bold
%%IncludeResource: font Courier-BoldOblique
%%IncludeResource: font Symbol
%%IncludeResource: font ZapfDingbats
/reEncode {exch findfont dup length dict begin {1 index /FID eq  {pop pop} {def} ifelse } forall /Encoding exch def currentdict end dup /FontName get exch definefont pop } def [/Times-Bold /Times-Italic /Times-BoldItalic /Helvetica /Helvetica-Oblique
 /Helvetica-Bold /Helvetica-BoldOblique /Courier /Courier-Oblique /Courier-Bold /Courier-BoldOblique /Times-Roman /AvantGarde-Book /AvantGarde-BookOblique /AvantGarde-Demi /AvantGarde-DemiOblique /Bookman-Demi /Bookman-DemiItalic /Bookman-Light
 /Bookman-LightItalic /Helvetica-Narrow /Helvetica-Narrow-Bold /Helvetica-Narrow-BoldOblique /Helvetica-Narrow-Oblique /NewCenturySchlbk-Roman /NewCenturySchlbk-Bold /NewCenturySchlbk-BoldItalic /NewCenturySchlbk-Italic /Palatino-Bold
 /Palatino-BoldItalic /Palatino-Italic /Palatino-Roman ] {ISOLatin1Encoding reEncode } forall
%%EndProlog
%%BeginSetup
%%EndSetup
newpath  gsave  .25 .25 scale  gsave  0 0 t black[  ] 0 sd 3 lw 1 1 1 c 2268 2085 0 0 bf black 1 1 1 c 2263 1770 2 313 bf black 1 1 1 c black 1860 1145 319 584 bl 1 1 1 c black 1860 1145 319 584 bl 6 lw 1 1 1 c black 3 lw /w 33 def /w2 {w 2 div} def
 /w3 {w 3 div} def 366 1244 m20 6 lw 3 lw 459 1223 m20 6 lw 3 lw 552 1188 m20 6 lw 3 lw 645 1151 m20 6 lw 3 lw 738 1113 m20 6 lw 3 lw 831 1082 m20 6 lw 3 lw 924 1037 m20 6 lw 3 lw 1017 1003 m20 6 lw 3 lw 1110 987 m20 6 lw 3 lw 1203 947 m20 6 lw 1296
 890 m 1 Y s 3 lw 1296 905 m20 6 lw 1389 847 m 8 Y s 1389 882 m 3 Y s 3 lw 1389 869 m20 6 lw 1482 847 m 8 Y s 1482 882 m 3 Y s 3 lw 1482 869 m20 6 lw 1575 584 m 126 Y s 1575 737 m 29 Y s 3 lw 1575 724 m20 6 lw 1668 691 m 61 Y s 1668 779 m 19 Y s 3 lw
 1668 766 m20 6 lw 1761 785 m 22 Y s 1761 835 m 8 Y s 3 lw 1761 821 m20 6 lw 1854 584 m 126 Y s 1854 737 m 29 Y s 3 lw 1854 724 m20 6 lw 2133 584 m 126 Y s 2133 737 m 29 Y s 3 lw 2133 724 m20 6 lw 3 lw 319 584 m 1860 X s
 gsave  2263 1770 2 313 C 1949.08 369.478 t 0 r /Helvetica findfont 81.3741 sf 0 0 m ( [GeV]) show NC gr 
 gsave  2263 1770 2 313 C 1888.07 342.361 t 0 r /Helvetica findfont 54.2494 sf 0 0 m (eff) show NC gr 
 gsave  2263 1770 2 313 C 1823.66 369.478 t 0 r /Helvetica findfont 81.3741 sf 0 0 m (m) show NC gr  319 584 m cl s 366 584 m cl s 412 584 m cl s 459 584 m cl s 505 584 m cl s 552 584 m cl s 598 584 m cl s 645 584 m cl s 691 584 m cl s 738 584 m cl s
 784 584 m cl s 831 584 m cl s 877 584 m cl s 924 584 m cl s 970 584 m cl s 1017 584 m cl s 1063 584 m cl s 1110 584 m cl s 1156 584 m cl s 1203 584 m cl s 1249 584 m cl s 1296 584 m cl s 1342 584 m cl s 1389 584 m cl s 1435 584 m cl s 1482 584 m cl
 s 1528 584 m cl s 1575 584 m cl s 1621 584 m cl s 1668 584 m cl s 1714 584 m cl s 1761 584 m cl s 1807 584 m cl s 1854 584 m cl s 1900 584 m cl s 1947 584 m cl s 1993 584 m cl s 2040 584 m cl s 2086 584 m cl s 2133 584 m cl s 2179 584 m cl s 319
 1729 m 1860 X s 319 1729 m cl s 366 1729 m cl s 412 1729 m cl s 459 1729 m cl s 505 1729 m cl s 552 1729 m cl s 598 1729 m cl s 645 1729 m cl s 691 1729 m cl s 738 1729 m cl s 784 1729 m cl s 831 1729 m cl s 877 1729 m cl s 924 1729 m cl s 970 1729
 m cl s 1017 1729 m cl s 1063 1729 m cl s 1110 1729 m cl s 1156 1729 m cl s 1203 1729 m cl s 1249 1729 m cl s 1296 1729 m cl s 1342 1729 m cl s 1389 1729 m cl s 1435 1729 m cl s 1482 1729 m cl s 1528 1729 m cl s 1575 1729 m cl s 1621 1729 m cl s 1668
 1729 m cl s 1714 1729 m cl s 1761 1729 m cl s 1807 1729 m cl s 1854 1729 m cl s 1900 1729 m cl s 1947 1729 m cl s 1993 1729 m cl s 2040 1729 m cl s 2086 1729 m cl s 2133 1729 m cl s 2179 1729 m cl s 319 584 m 1145 Y s
 gsave  2263 1770 2 313 C 166.096 1091.49 t 90 r /Helvetica findfont 81.3741 sf 0 0 m (Events / 200 GeV) show NC gr  341 626 m -22 X s 341 651 m -22 X s 341 668 m -22 X s 341 682 m -22 X s 341 693 m -22 X s 341 702 m -22 X s 341 710 m -22 X s 341 717
 m -22 X s 363 724 m -44 X s
 gsave  2263 1770 2 313 C 300.555 696.508 t 0 r  -36 0 t /Helvetica findfont 64.4212 sf 0 0 m (1) show NC gr  341 766 m -22 X s 341 790 m -22 X s 341 808 m -22 X s 341 821 m -22 X s 341 832 m -22 X s 341 841 m -22 X s 341 849 m -22 X s 341 857 m -22
 X s 363 863 m -44 X s
 gsave  2263 1770 2 313 C 300.555 835.825 t 0 r  -73 0 t /Helvetica findfont 64.4212 sf 0 0 m (10) show NC gr  341 905 m -22 X s 341 929 m -22 X s 341 947 m -22 X s 341 960 m -22 X s 341 971 m -22 X s 341 981 m -22 X s 341 989 m -22 X s 341 996 m -22
 X s 363 1002 m -44 X s
 gsave  2263 1770 2 313 C 274.567 999.965 t 0 r /Helvetica findfont 44.0776 sf 0 0 m (2) show NC gr 
 gsave  2263 1770 2 313 C 203.383 972.847 t 0 r /Helvetica findfont 64.4212 sf 0 0 m (10) show NC gr  341 1044 m -22 X s 341 1069 m -22 X s 341 1086 m -22 X s 341 1100 m -22 X s 341 1111 m -22 X s 341 1120 m -22 X s 341 1128 m -22 X s 341 1135 m -22
 X s 363 1142 m -44 X s
 gsave  2263 1770 2 313 C 274.567 1142.33 t 0 r /Helvetica findfont 44.0776 sf 0 0 m (3) show NC gr 
 gsave  2263 1770 2 313 C 203.383 1111.83 t 0 r /Helvetica findfont 64.4212 sf 0 0 m (10) show NC gr  341 1184 m -22 X s 341 1208 m -22 X s 341 1225 m -22 X s 341 1239 m -22 X s 341 1250 m -22 X s 341 1259 m -22 X s 341 1267 m -22 X s 341 1275 m -22
 X s 363 1281 m -44 X s
 gsave  2263 1770 2 313 C 274.567 1277.92 t 0 r /Helvetica findfont 44.0776 sf 0 0 m (4) show NC gr 
 gsave  2263 1770 2 313 C 203.383 1250.8 t 0 r /Helvetica findfont 64.4212 sf 0 0 m (10) show NC gr  341 1323 m -22 X s 341 1347 m -22 X s 341 1365 m -22 X s 341 1378 m -22 X s 341 1389 m -22 X s 341 1399 m -22 X s 341 1407 m -22 X s 341 1414 m -22 X
 s 363 1420 m -44 X s
 gsave  2263 1770 2 313 C 274.567 1420.29 t 0 r /Helvetica findfont 44.0776 sf 0 0 m (5) show NC gr 
 gsave  2263 1770 2 313 C 203.383 1389.78 t 0 r /Helvetica findfont 64.4212 sf 0 0 m (10) show NC gr  341 1462 m -22 X s 341 1487 m -22 X s 341 1504 m -22 X s 341 1518 m -22 X s 341 1529 m -22 X s 341 1538 m -22 X s 341 1546 m -22 X s 341 1553 m -22
 X s 363 1560 m -44 X s
 gsave  2263 1770 2 313 C 274.567 1562.66 t 0 r /Helvetica findfont 44.0776 sf 0 0 m (6) show NC gr 
 gsave  2263 1770 2 313 C 203.383 1532.15 t 0 r /Helvetica findfont 64.4212 sf 0 0 m (10) show NC gr  341 1601 m -22 X s 341 1626 m -22 X s 341 1643 m -22 X s 341 1657 m -22 X s 341 1668 m -22 X s 341 1677 m -22 X s 341 1685 m -22 X s 341 1692 m -22
 X s 363 1699 m -44 X s
 gsave  2263 1770 2 313 C 274.567 1698.25 t 0 r /Helvetica findfont 44.0776 sf 0 0 m (7) show NC gr 
 gsave  2263 1770 2 313 C 203.383 1671.13 t 0 r /Helvetica findfont 64.4212 sf 0 0 m (10) show NC gr  2179 584 m 1145 Y s 2157 626 m 22 X s 2157 651 m 22 X s 2157 668 m 22 X s 2157 682 m 22 X s 2157 693 m 22 X s 2157 702 m 22 X s 2157 710 m 22 X s
 2157 717 m 22 X s 2136 724 m 43 X s 2157 766 m 22 X s 2157 790 m 22 X s 2157 808 m 22 X s 2157 821 m 22 X s 2157 832 m 22 X s 2157 841 m 22 X s 2157 849 m 22 X s 2157 857 m 22 X s 2136 863 m 43 X s 2157 905 m 22 X s 2157 929 m 22 X s 2157 947 m 22 X
 s 2157 960 m 22 X s 2157 971 m 22 X s 2157 981 m 22 X s 2157 989 m 22 X s 2157 996 m 22 X s 2136 1002 m 43 X s 2157 1044 m 22 X s 2157 1069 m 22 X s 2157 1086 m 22 X s 2157 1100 m 22 X s 2157 1111 m 22 X s 2157 1120 m 22 X s 2157 1128 m 22 X s 2157
 1135 m 22 X s 2136 1142 m 43 X s 2157 1184 m 22 X s 2157 1208 m 22 X s 2157 1225 m 22 X s 2157 1239 m 22 X s 2157 1250 m 22 X s 2157 1259 m 22 X s 2157 1267 m 22 X s 2157 1275 m 22 X s 2136 1281 m 43 X s 2157 1323 m 22 X s 2157 1347 m 22 X s 2157
 1365 m 22 X s 2157 1378 m 22 X s 2157 1389 m 22 X s 2157 1399 m 22 X s 2157 1407 m 22 X s 2157 1414 m 22 X s 2136 1420 m 43 X s 2157 1462 m 22 X s 2157 1487 m 22 X s 2157 1504 m 22 X s 2157 1518 m 22 X s 2157 1529 m 22 X s 2157 1538 m 22 X s 2157
 1546 m 22 X s 2157 1553 m 22 X s 2136 1560 m 43 X s 2157 1601 m 22 X s 2157 1626 m 22 X s 2157 1643 m 22 X s 2157 1657 m 22 X s 2157 1668 m 22 X s 2157 1677 m 22 X s 2157 1685 m 22 X s 2157 1692 m 22 X s 2136 1699 m 43 X s 0.6 1 0.6 c black 0.6 1
 0.6 c 319 584 m 657 Y 93 X -14 Y 93 X -36 Y 93 X -43 Y 93 X -32 Y 93 X -32 Y 93 X -46 Y 93 X -29 Y 93 X -28 Y 93 X -40 Y 93 X -28 Y 93 X -38 Y 93 X -38 Y 93 X -28 Y 93 X -24 Y 93 X -17 Y 93 X -17 Y 93 X 5 Y 93 X -53 Y 93 X 25 Y 93 X -144 Y f black
 0.6 1 0.6 c black 319 1241 m 93 X -14 Y 93 X -36 Y 93 X -43 Y 93 X -32 Y 93 X -32 Y 93 X -46 Y 93 X -29 Y 93 X -28 Y 93 X -40 Y 93 X -28 Y 93 X -38 Y 93 X -38 Y 93 X -28 Y 93 X -24 Y 93 X -17 Y 93 X -17 Y 93 X 5 Y 93 X -53 Y 93 X 25 Y 93 X s 0.999
 0.999 0.999 c black 0.999 0.999 0.999 c 319 584 m 552 Y 93 X -8 Y 93 X -30 Y 93 X -30 Y 93 X -31 Y 93 X -31 Y 93 X -30 Y 93 X -30 Y 93 X -21 Y 93 X -32 Y 93 X -28 Y 93 X -40 Y 93 X -20 Y 93 X -44 Y 93 X -15 Y 93 X -10 Y 93 X -8 Y 93 X 5 Y 93 X -72 Y
 93 X 46 Y 93 X -123 Y f black 0.999 0.999 0.999 c black 319 1136 m 93 X -8 Y 93 X -30 Y 93 X -30 Y 93 X -31 Y 93 X -31 Y 93 X -30 Y 93 X -30 Y 93 X -21 Y 93 X -32 Y 93 X -28 Y 93 X -40 Y 93 X -20 Y 93 X -44 Y 93 X -15 Y 93 X -10 Y 93 X -8 Y 93 X 5 Y
 93 X -72 Y 93 X 46 Y 93 X s 1 1 1 c black 319 1136 m 93 X -8 Y 93 X -30 Y 93 X -30 Y 93 X -31 Y 93 X -31 Y 93 X -30 Y 93 X -30 Y 93 X -21 Y 93 X -32 Y 93 X -28 Y 93 X -40 Y 93 X -20 Y 93 X -44 Y 93 X -15 Y 93 X -10 Y 93 X -8 Y 93 X 5 Y 93 X -72 Y 93
 X 46 Y 93 X s 0.4 0.6 1 c black 0.4 0.6 1 c 319 584 m 552 Y 93 X -8 Y 93 X -30 Y 93 X -30 Y 93 X -31 Y 93 X -31 Y 93 X -30 Y 93 X -30 Y 93 X -21 Y 93 X -32 Y 93 X -28 Y 93 X -40 Y 93 X -20 Y 93 X -44 Y 93 X -15 Y 93 X -10 Y 93 X -8 Y 93 X 5 Y 93 X
 -72 Y 93 X 46 Y 93 X -123 Y f black 0.4 0.6 1 c black 319 1136 m 93 X -8 Y 93 X -30 Y 93 X -30 Y 93 X -31 Y 93 X -31 Y 93 X -30 Y 93 X -30 Y 93 X -21 Y 93 X -32 Y 93 X -28 Y 93 X -40 Y 93 X -20 Y 93 X -44 Y 93 X -15 Y 93 X -10 Y 93 X -8 Y 93 X 5 Y
 93 X -72 Y 93 X 46 Y 93 X s 0.999 0.999 0.999 c black 0.999 0.999 0.999 c 319 584 m 406 Y 93 X -8 Y 93 X -22 Y 93 X -29 Y 93 X -21 Y 93 X -46 Y 93 X -26 Y 93 X -38 Y 93 X -13 Y 93 X -29 Y 93 X -15 Y 93 X -39 Y 93 X -44 Y 93 X -76 Y 93 X 40 Y 93 X 11
 Y 93 X -51 Y 93 X 66 Y 93 X -66 Y 186 X f black 0.999 0.999 0.999 c black 319 990 m 93 X -8 Y 93 X -22 Y 93 X -29 Y 93 X -21 Y 93 X -46 Y 93 X -26 Y 93 X -38 Y 93 X -13 Y 93 X -29 Y 93 X -15 Y 93 X -39 Y 93 X -44 Y 93 X -76 Y 93 X 40 Y 93 X 11 Y 93
 X -51 Y 93 X 66 Y 93 X -66 Y 186 X s 1 1 1 c black 319 990 m 93 X -8 Y 93 X -22 Y 93 X -29 Y 93 X -21 Y 93 X -46 Y 93 X -26 Y 93 X -38 Y 93 X -13 Y 93 X -29 Y 93 X -15 Y 93 X -39 Y 93 X -44 Y 93 X -76 Y 93 X 40 Y 93 X 11 Y 93 X -51 Y 93 X 66 Y 93 X
 -66 Y 186 X s 1 0.8 0.4 c black 1 0.8 0.4 c 319 584 m 406 Y 93 X -8 Y 93 X -22 Y 93 X -29 Y 93 X -21 Y 93 X -46 Y 93 X -26 Y 93 X -38 Y 93 X -13 Y 93 X -29 Y 93 X -15 Y 93 X -39 Y 93 X -44 Y 93 X -76 Y 93 X 40 Y 93 X 11 Y 93 X -51 Y 93 X 66 Y 93 X
 -66 Y 186 X f black 1 0.8 0.4 c black 319 990 m 93 X -8 Y 93 X -22 Y 93 X -29 Y 93 X -21 Y 93 X -46 Y 93 X -26 Y 93 X -38 Y 93 X -13 Y 93 X -29 Y 93 X -15 Y 93 X -39 Y 93 X -44 Y 93 X -76 Y 93 X 40 Y 93 X 11 Y 93 X -51 Y 93 X 66 Y 93 X -66 Y 186 X s
 0.999 0.999 0.999 c black 0.999 0.999 0.999 c 319 584 m 400 Y 93 X -9 Y 93 X -23 Y 93 X -27 Y 93 X -20 Y 93 X -47 Y 93 X -29 Y 93 X -35 Y 93 X -12 Y 93 X -32 Y 93 X -15 Y 93 X -35 Y 93 X -45 Y 93 X -71 Y 93 X 36 Y 93 X 15 Y 93 X -51 Y 93 X 64 Y 93 X
 -64 Y 186 X f black 0.999 0.999 0.999 c black 319 984 m 93 X -9 Y 93 X -23 Y 93 X -27 Y 93 X -20 Y 93 X -47 Y 93 X -29 Y 93 X -35 Y 93 X -12 Y 93 X -32 Y 93 X -15 Y 93 X -35 Y 93 X -45 Y 93 X -71 Y 93 X 36 Y 93 X 15 Y 93 X -51 Y 93 X 64 Y 93 X -64 Y
 186 X s 1 1 1 c black 319 984 m 93 X -9 Y 93 X -23 Y 93 X -27 Y 93 X -20 Y 93 X -47 Y 93 X -29 Y 93 X -35 Y 93 X -12 Y 93 X -32 Y 93 X -15 Y 93 X -35 Y 93 X -45 Y 93 X -71 Y 93 X 36 Y 93 X 15 Y 93 X -51 Y 93 X 64 Y 93 X -64 Y 186 X s 1 0.4 0.6 c
 black 1 0.4 0.6 c 319 584 m 400 Y 93 X -9 Y 93 X -23 Y 93 X -27 Y 93 X -20 Y 93 X -47 Y 93 X -29 Y 93 X -35 Y 93 X -12 Y 93 X -32 Y 93 X -15 Y 93 X -35 Y 93 X -45 Y 93 X -71 Y 93 X 36 Y 93 X 15 Y 93 X -51 Y 93 X 64 Y 93 X -64 Y 186 X f black 1 0.4
 0.6 c black 319 984 m 93 X -9 Y 93 X -23 Y 93 X -27 Y 93 X -20 Y 93 X -47 Y 93 X -29 Y 93 X -35 Y 93 X -12 Y 93 X -32 Y 93 X -15 Y 93 X -35 Y 93 X -45 Y 93 X -71 Y 93 X 36 Y 93 X 15 Y 93 X -51 Y 93 X 64 Y 93 X -64 Y 186 X s 1 0 0 c 6 lw 1 1 1 c
 black 1 0 0 c 319 1241 m 93 X -14 Y 93 X -36 Y 93 X -43 Y 93 X -32 Y 93 X -32 Y 93 X -46 Y 93 X -29 Y 93 X -28 Y 93 X -40 Y 93 X -28 Y 93 X -38 Y 93 X -38 Y 93 X -28 Y 93 X -24 Y 93 X -17 Y 93 X -17 Y 93 X 5 Y 93 X -53 Y 93 X 25 Y 93 X s black 3 lw
 1 0 0 c 1 lw << /PatternType 1 /PaintType 2 /TilingType 1 /BBox [ 0 0 100 100 ] /XStep 100 /YStep 100 /PaintProc { begin gsave 0 100 m 100 0 l s gr end } >> [ 0.24 0 0 0.24 0 0 ] makepattern /P05 exch def /cs {[/Pattern /DeviceRGB] setcolorspace}
 def /FA {f [/DeviceRGB] setcolorspace} def cs 1 0 0 P05 setcolor 319 584 m 657 Y 93 X -14 Y 93 X -35 Y 93 X -42 Y 93 X -33 Y 93 X -32 Y 93 X -44 Y 93 X -29 Y 93 X -28 Y 93 X -36 Y 93 X -28 Y 93 X -37 Y 93 X -32 Y 93 X -24 Y 93 X -26 Y 93 X -11 Y 93
 X -19 Y 93 X 7 Y 93 X -48 Y 93 X 17 Y 93 X -163 Y 116 Y -93 X -50 Y -93 X 71 Y -93 X 1 Y -93 X 12 Y -93 X 30 Y -93 X 20 Y -93 X 36 Y -93 X 47 Y -93 X 38 Y -93 X 28 Y -93 X 44 Y -93 X 28 Y -93 X 29 Y -93 X 48 Y -93 X 32 Y -93 X 33 Y -93 X 44 Y -93 X
 35 Y -93 X 14 Y -93 X -656 Y FA 6 lw 1 1 1 c 15 lw 1389 848 m s 1389 848 m cl s 1482 848 m s 1482 848 m cl s 1575 744 m 30 Y s 1575 774 m cl s 1575 703 m -85 Y s 1575 618 m cl s 1668 786 m 16 Y s 1668 802 m cl s 1668 745 m -42 Y s 1668 703 m cl s
 1761 841 m 3 Y s 1761 844 m cl s 1761 801 m -14 Y s 1761 787 m cl s 1854 744 m 30 Y s 1854 774 m cl s 1854 703 m -85 Y s 1854 618 m cl s 2133 744 m 30 Y s 2133 774 m cl s 2133 703 m -85 Y s 2133 618 m cl s black 1 1 1 c 3 lw /w 43 def /w2 {w 2 div}
 def /w3 {w 3 div} def 366 1244 459 1223 552 1188 645 1151 738 1113 831 1082 924 1037 1017 1003 1110 987 1203 947 1296 905 1389 869 1482 869 1575 724 1668 766 1761 821 1854 724 17 { m20} R 15 lw 3 lw 2133 724 m20 15 lw black 6 lw 1 1 1 c black 3 lw
 /w 33 def /w2 {w 2 div} def /w3 {w 3 div} def 366 1244 m20 6 lw 3 lw 459 1223 m20 6 lw 3 lw 552 1188 m20 6 lw 3 lw 645 1151 m20 6 lw 3 lw 738 1113 m20 6 lw 3 lw 831 1082 m20 6 lw 3 lw 924 1037 m20 6 lw 3 lw 1017 1003 m20 6 lw 3 lw 1110 987 m20 6 lw
 3 lw 1203 947 m20 6 lw 1296 890 m 1 Y s 3 lw 1296 905 m20 6 lw 1389 847 m 8 Y s 1389 882 m 3 Y s 3 lw 1389 869 m20 6 lw 1482 847 m 8 Y s 1482 882 m 3 Y s 3 lw 1482 869 m20 6 lw 1575 584 m 126 Y s 1575 737 m 29 Y s 3 lw 1575 724 m20 6 lw 1668 691 m
 61 Y s 1668 779 m 19 Y s 3 lw 1668 766 m20 6 lw 1761 785 m 22 Y s 1761 835 m 8 Y s 3 lw 1761 821 m20 6 lw 1854 584 m 126 Y s 1854 737 m 29 Y s 3 lw 1854 724 m20 6 lw 2133 584 m 126 Y s 2133 737 m 29 Y s 3 lw 2133 724 m20 6 lw 1296 891 m -1 Y s 1296
 890 m cl s 1389 882 m 3 Y s 1389 885 m cl s 1389 855 m -7 Y s 1389 848 m cl s 1482 882 m 3 Y s 1482 885 m cl s 1482 855 m -7 Y s 1482 848 m cl s 1575 737 m 37 Y s 1575 774 m cl s 1575 710 m -92 Y s 1575 618 m cl s 1668 779 m 23 Y s 1668 802 m cl s
 1668 752 m -49 Y s 1668 703 m cl s 1761 835 m 9 Y s 1761 844 m cl s 1761 807 m -20 Y s 1761 787 m cl s 1854 737 m 37 Y s 1854 774 m cl s 1854 710 m -92 Y s 1854 618 m cl s 2133 737 m 37 Y s 2133 774 m cl s 2133 710 m -92 Y s 2133 618 m cl s 3 lw 366
 1244 459 1223 552 1188 645 1151 738 1113 831 1082 924 1037 1017 1003 1110 987 1203 947 1296 905 1389 869 1482 869 1575 724 1668 766 1761 821 1854 724 17 { m20} R 6 lw 3 lw 2133 724 m20 6 lw 3 lw 319 584 m 1860 X s 319 584 m cl s 366 584 m cl s 412
 584 m cl s 459 584 m cl s 505 584 m cl s 552 584 m cl s 598 584 m cl s 645 584 m cl s 691 584 m cl s 738 584 m cl s 784 584 m cl s 831 584 m cl s 877 584 m cl s 924 584 m cl s 970 584 m cl s 1017 584 m cl s 1063 584 m cl s 1110 584 m cl s 1156 584 m
 cl s 1203 584 m cl s 1249 584 m cl s 1296 584 m cl s 1342 584 m cl s 1389 584 m cl s 1435 584 m cl s 1482 584 m cl s 1528 584 m cl s 1575 584 m cl s 1621 584 m cl s 1668 584 m cl s 1714 584 m cl s 1761 584 m cl s 1807 584 m cl s 1854 584 m cl s 1900
 584 m cl s 1947 584 m cl s 1993 584 m cl s 2040 584 m cl s 2086 584 m cl s 2133 584 m cl s 2179 584 m cl s 319 1729 m 1860 X s 319 1729 m cl s 366 1729 m cl s 412 1729 m cl s 459 1729 m cl s 505 1729 m cl s 552 1729 m cl s 598 1729 m cl s 645 1729 m
 cl s 691 1729 m cl s 738 1729 m cl s 784 1729 m cl s 831 1729 m cl s 877 1729 m cl s 924 1729 m cl s 970 1729 m cl s 1017 1729 m cl s 1063 1729 m cl s 1110 1729 m cl s 1156 1729 m cl s 1203 1729 m cl s 1249 1729 m cl s 1296 1729 m cl s 1342 1729 m
 cl s 1389 1729 m cl s 1435 1729 m cl s 1482 1729 m cl s 1528 1729 m cl s 1575 1729 m cl s 1621 1729 m cl s 1668 1729 m cl s 1714 1729 m cl s 1761 1729 m cl s 1807 1729 m cl s 1854 1729 m cl s 1900 1729 m cl s 1947 1729 m cl s 1993 1729 m cl s 2040
 1729 m cl s 2086 1729 m cl s 2133 1729 m cl s 2179 1729 m cl s 319 584 m 1145 Y s 341 626 m -22 X s 341 651 m -22 X s 341 668 m -22 X s 341 682 m -22 X s 341 693 m -22 X s 341 702 m -22 X s 341 710 m -22 X s 341 717 m -22 X s 363 724 m -44 X s 341
 766 m -22 X s 341 790 m -22 X s 341 808 m -22 X s 341 821 m -22 X s 341 832 m -22 X s 341 841 m -22 X s 341 849 m -22 X s 341 857 m -22 X s 363 863 m -44 X s 341 905 m -22 X s 341 929 m -22 X s 341 947 m -22 X s 341 960 m -22 X s 341 971 m -22 X s
 341 981 m -22 X s 341 989 m -22 X s 341 996 m -22 X s 363 1002 m -44 X s 341 1044 m -22 X s 341 1069 m -22 X s 341 1086 m -22 X s 341 1100 m -22 X s 341 1111 m -22 X s 341 1120 m -22 X s 341 1128 m -22 X s 341 1135 m -22 X s 363 1142 m -44 X s 341
 1184 m -22 X s 341 1208 m -22 X s 341 1225 m -22 X s 341 1239 m -22 X s 341 1250 m -22 X s 341 1259 m -22 X s 341 1267 m -22 X s 341 1275 m -22 X s 363 1281 m -44 X s 341 1323 m -22 X s 341 1347 m -22 X s 341 1365 m -22 X s 341 1378 m -22 X s 341
 1389 m -22 X s 341 1399 m -22 X s 341 1407 m -22 X s 341 1414 m -22 X s 363 1420 m -44 X s 341 1462 m -22 X s 341 1487 m -22 X s 341 1504 m -22 X s 341 1518 m -22 X s 341 1529 m -22 X s 341 1538 m -22 X s 341 1546 m -22 X s 341 1553 m -22 X s 363
 1560 m -44 X s 341 1601 m -22 X s 341 1626 m -22 X s 341 1643 m -22 X s 341 1657 m -22 X s 341 1668 m -22 X s 341 1677 m -22 X s 341 1685 m -22 X s 341 1692 m -22 X s 363 1699 m -44 X s 2179 584 m 1145 Y s 2157 626 m 22 X s 2157 651 m 22 X s 2157
 668 m 22 X s 2157 682 m 22 X s 2157 693 m 22 X s 2157 702 m 22 X s 2157 710 m 22 X s 2157 717 m 22 X s 2136 724 m 43 X s 2157 766 m 22 X s 2157 790 m 22 X s 2157 808 m 22 X s 2157 821 m 22 X s 2157 832 m 22 X s 2157 841 m 22 X s 2157 849 m 22 X s
 2157 857 m 22 X s 2136 863 m 43 X s 2157 905 m 22 X s 2157 929 m 22 X s 2157 947 m 22 X s 2157 960 m 22 X s 2157 971 m 22 X s 2157 981 m 22 X s 2157 989 m 22 X s 2157 996 m 22 X s 2136 1002 m 43 X s 2157 1044 m 22 X s 2157 1069 m 22 X s 2157 1086 m
 22 X s 2157 1100 m 22 X s 2157 1111 m 22 X s 2157 1120 m 22 X s 2157 1128 m 22 X s 2157 1135 m 22 X s 2136 1142 m 43 X s 2157 1184 m 22 X s 2157 1208 m 22 X s 2157 1225 m 22 X s 2157 1239 m 22 X s 2157 1250 m 22 X s 2157 1259 m 22 X s 2157 1267 m 22
 X s 2157 1275 m 22 X s 2136 1281 m 43 X s 2157 1323 m 22 X s 2157 1347 m 22 X s 2157 1365 m 22 X s 2157 1378 m 22 X s 2157 1389 m 22 X s 2157 1399 m 22 X s 2157 1407 m 22 X s 2157 1414 m 22 X s 2136 1420 m 43 X s 2157 1462 m 22 X s 2157 1487 m 22 X
 s 2157 1504 m 22 X s 2157 1518 m 22 X s 2157 1529 m 22 X s 2157 1538 m 22 X s 2157 1546 m 22 X s 2157 1553 m 22 X s 2136 1560 m 43 X s 2157 1601 m 22 X s 2157 1626 m 22 X s 2157 1643 m 22 X s 2157 1657 m 22 X s 2157 1668 m 22 X s 2157 1677 m 22 X s
 2157 1685 m 22 X s 2157 1692 m 22 X s 2136 1699 m 43 X s
 gsave  2263 1770 2 313 C 406.765 1447.41 t 0 r /Helvetica findfont 64.4212 sf 0 0 m (CRT for MB\255SSd) show NC gr 
 gsave  2263 1770 2 313 C 1464.36 1616.89 t 0 r /Helvetica findfont 64.4212 sf 0 0 m (SM Total) show NC gr  1 1 1 c 1338 1603 m 107 X 74 Y -107 X f 1 0 0 c 6 lw 1338 1640 m 107 X s black
 gsave  2263 1770 2 313 C 1464.36 1511.81 t 0 r /Helvetica findfont 64.4212 sf 0 0 m (Data) show NC gr  1391 1502 m 64 Y s 3 lw 1391 1534 m20 6 lw
 gsave  2263 1770 2 313 C 1498.25 1406.73 t 0 r /Helvetica findfont 64.4212 sf 0 0 m (\(+EW\) & single top) show NC gr 
 gsave  2263 1770 2 313 C 1481.3 1406.73 t 0 r /Helvetica findfont 64.4212 sf 0 0 m (t) show NC gr  3 lw 1481 1458 m 17 X s
 gsave  2263 1770 2 313 C 1464.36 1406.73 t 0 r /Helvetica findfont 64.4212 sf 0 0 m (t) show NC gr  0.6 1 0.6 c 1338 1391 m 107 X 74 Y -107 X f black 1338 1465 m 107 X s 1338 1391 m 107 X s 1445 1391 m 74 Y s 1338 1391 m 74 Y s
 gsave  2263 1770 2 313 C 1464.36 1298.26 t 0 r /Helvetica findfont 64.4212 sf 0 0 m (W+jets) show NC gr  0.4 0.6 1 c 1338 1284 m 107 X 75 Y -107 X f black 1338 1359 m 107 X s 1338 1284 m 107 X s 1445 1284 m 75 Y s 1338 1284 m 75 Y s
 gsave  2263 1770 2 313 C 1464.36 1193.18 t 0 r /Helvetica findfont 64.4212 sf 0 0 m (Z+jets) show NC gr  1 0.8 0.4 c 1338 1178 m 107 X 75 Y -107 X f black 1338 1253 m 107 X s 1338 1178 m 107 X s 1445 1178 m 75 Y s 1338 1178 m 75 Y s
 gsave  2263 1770 2 313 C 1464.36 1088.1 t 0 r /Helvetica findfont 64.4212 sf 0 0 m (Diboson) show NC gr  1 0.4 0.6 c 1338 1072 m 107 X 74 Y -107 X f black 1338 1146 m 107 X s 1338 1072 m 107 X s 1445 1072 m 74 Y s 1338 1072 m 74 Y s
 gsave  2263 1770 2 313 C 911.832 1566.05 t 0 r /Helvetica findfont 44.0776 sf 0 0 m (\2551) show NC gr 
 gsave  2263 1770 2 313 C 471.17 1535.54 t 0 r /Helvetica findfont 64.4212 sf 0 0 m (=13TeV, 139 fb) show NC gr 
 gsave  2263 1770 2 313 C 440.662 1535.54 t 0 r /Helvetica findfont 64.4212 sf 0 0 m (s) show NC gr  6 lw 420 1573 m 7 -41 d s 3 lw 427 1532 m 7 61 d s 434 1593 m 37 X s 1 1 1 c 2254 561 2 2 bf black 1 1 1 c black 1860 358 318 187 bl 1 1 1 c black
 1860 358 318 187 bl 6 lw 1 1 1 c black 3 lw 364 376 m20 6 lw 3 lw 457 357 m20 6 lw 3 lw 550 358 m20 6 lw 3 lw 643 372 m20 6 lw 3 lw 736 360 m20 6 lw 3 lw 829 361 m20 6 lw 3 lw 923 365 m20 6 lw 3 lw 1016 353 m20 6 lw 3 lw 1109 385 m20 6 lw 3 lw 1202
 383 m20 6 lw 3 lw 1295 345 m20 6 lw 3 lw 1388 349 m20 6 lw 3 lw 1481 477 m20 6 lw 3 lw 1574 243 m20 6 lw 3 lw 1667 321 m20 6 lw 3 lw 1853 307 m20 6 lw 3 lw 2132 355 m20 6 lw 3 lw 318 187 m 1860 X s
 gsave  2254 561 2 2 C 1959.25 33.8971 t 0 r /Helvetica findfont 78.1689 sf 0 0 m ( [GeV]) show NC gr 
 gsave  2254 561 2 2 C 1901.63 13.5588 t 0 r /Helvetica findfont 50.9797 sf 0 0 m (eff) show NC gr 
 gsave  2254 561 2 2 C 1840.61 33.8971 t 0 r /Helvetica findfont 78.1689 sf 0 0 m (m) show NC gr  318 201 m -14 Y s 364 194 m -7 Y s 411 194 m -7 Y s 457 194 m -7 Y s 504 194 m -7 Y s 550 201 m -14 Y s 597 194 m -7 Y s 643 194 m -7 Y s 690 194 m -7 Y
 s 736 194 m -7 Y s 783 201 m -14 Y s 829 194 m -7 Y s 876 194 m -7 Y s 923 194 m -7 Y s 969 194 m -7 Y s 1016 201 m -14 Y s 1062 194 m -7 Y s 1109 194 m -7 Y s 1155 194 m -7 Y s 1202 194 m -7 Y s 1248 201 m -14 Y s 1295 194 m -7 Y s 1341 194 m -7 Y
 s 1388 194 m -7 Y s 1434 194 m -7 Y s 1481 201 m -14 Y s 1527 194 m -7 Y s 1574 194 m -7 Y s 1620 194 m -7 Y s 1667 194 m -7 Y s 1713 201 m -14 Y s 1760 194 m -7 Y s 1806 194 m -7 Y s 1853 194 m -7 Y s 1899 194 m -7 Y s 1946 201 m -14 Y s 1992 194 m
 -7 Y s 2039 194 m -7 Y s 2085 194 m -7 Y s 2132 194 m -7 Y s 2178 201 m -14 Y s
 gsave  2254 561 2 2 C 227.111 118.64 t 0 r /Helvetica findfont 78.1689 sf 0 0 m (1000) show NC gr 
 gsave  2254 561 2 2 C 461.001 118.64 t 0 r /Helvetica findfont 78.1689 sf 0 0 m (1500) show NC gr 
 gsave  2254 561 2 2 C 691.501 118.64 t 0 r /Helvetica findfont 78.1689 sf 0 0 m (2000) show NC gr 
 gsave  2254 561 2 2 C 925.391 118.64 t 0 r /Helvetica findfont 78.1689 sf 0 0 m (2500) show NC gr 
 gsave  2254 561 2 2 C 1159.28 118.64 t 0 r /Helvetica findfont 78.1689 sf 0 0 m (3000) show NC gr 
 gsave  2254 561 2 2 C 1389.78 118.64 t 0 r /Helvetica findfont 78.1689 sf 0 0 m (3500) show NC gr 
 gsave  2254 561 2 2 C 1623.67 118.64 t 0 r /Helvetica findfont 78.1689 sf 0 0 m (4000) show NC gr 
 gsave  2254 561 2 2 C 1857.56 118.64 t 0 r /Helvetica findfont 78.1689 sf 0 0 m (4500) show NC gr 
 gsave  2254 561 2 2 C 2088.06 118.64 t 0 r /Helvetica findfont 78.1689 sf 0 0 m (5000) show NC gr  318 545 m 1860 X s 318 531 m 14 Y s 364 538 m 7 Y s 411 538 m 7 Y s 457 538 m 7 Y s 504 538 m 7 Y s 550 531 m 14 Y s 597 538 m 7 Y s 643 538 m 7 Y s
 690 538 m 7 Y s 736 538 m 7 Y s 783 531 m 14 Y s 829 538 m 7 Y s 876 538 m 7 Y s 923 538 m 7 Y s 969 538 m 7 Y s 1016 531 m 14 Y s 1062 538 m 7 Y s 1109 538 m 7 Y s 1155 538 m 7 Y s 1202 538 m 7 Y s 1248 531 m 14 Y s 1295 538 m 7 Y s 1341 538 m 7 Y
 s 1388 538 m 7 Y s 1434 538 m 7 Y s 1481 531 m 14 Y s 1527 538 m 7 Y s 1574 538 m 7 Y s 1620 538 m 7 Y s 1667 538 m 7 Y s 1713 531 m 14 Y s 1760 538 m 7 Y s 1806 538 m 7 Y s 1853 538 m 7 Y s 1899 538 m 7 Y s 1946 531 m 14 Y s 1992 538 m 7 Y s 2039
 538 m 7 Y s 2085 538 m 7 Y s 2132 538 m 7 Y s 2178 531 m 14 Y s 318 187 m 358 Y s
 gsave  2254 561 2 2 C 166.096 284.736 t 90 r /Helvetica findfont 67.9729 sf 0 0 m (Data/SM) show NC gr  361 203 m -43 X s 339 220 m -21 X s 339 236 m -21 X s 339 252 m -21 X s 339 268 m -21 X s 361 285 m -43 X s 339 301 m -21 X s 339 317 m -21 X s
 339 334 m -21 X s 339 350 m -21 X s 361 366 m -43 X s 339 382 m -21 X s 339 399 m -21 X s 339 415 m -21 X s 339 431 m -21 X s 361 447 m -43 X s 339 464 m -21 X s 339 480 m -21 X s 339 496 m -21 X s 339 512 m -21 X s 361 529 m -43 X s 361 203 m -43 X
 s 339 187 m -21 X s 361 529 m -43 X s
 gsave  2254 561 2 2 C 261.008 183.044 t 0 r /Helvetica findfont 57.777 sf 0 0 m (0) show NC gr 
 gsave  2254 561 2 2 C 213.552 261.008 t 0 r /Helvetica findfont 57.777 sf 0 0 m (0.5) show NC gr 
 gsave  2254 561 2 2 C 271.177 342.361 t 0 r /Helvetica findfont 57.777 sf 0 0 m (1) show NC gr 
 gsave  2254 561 2 2 C 213.552 423.714 t 0 r /Helvetica findfont 57.777 sf 0 0 m (1.5) show NC gr 
 gsave  2254 561 2 2 C 261.008 505.067 t 0 r /Helvetica findfont 57.777 sf 0 0 m (2) show NC gr  2178 187 m 358 Y s 2135 203 m 43 X s 2157 220 m 21 X s 2157 236 m 21 X s 2157 252 m 21 X s 2157 268 m 21 X s 2135 285 m 43 X s 2157 301 m 21 X s 2157 317
 m 21 X s 2157 334 m 21 X s 2157 350 m 21 X s 2135 366 m 43 X s 2157 382 m 21 X s 2157 399 m 21 X s 2157 415 m 21 X s 2157 431 m 21 X s 2135 447 m 43 X s 2157 464 m 21 X s 2157 480 m 21 X s 2157 496 m 21 X s 2157 512 m 21 X s 2135 529 m 43 X s 2135
 203 m 43 X s 2157 187 m 21 X s 2135 529 m 43 X s 9 lw 1016 366 m 2 Y s 1016 368 m cl s 1016 339 m -1 Y s 1016 338 m cl s 1109 399 m 6 Y s 1109 405 m cl s 1109 371 m -6 Y s 1109 365 m cl s 1202 396 m 15 Y s 1202 411 m cl s 1202 369 m -15 Y s 1202 354
 m cl s 1295 359 m 18 Y s 1295 377 m cl s 1295 331 m -17 Y s 1295 314 m cl s 1388 363 m 31 Y s 1388 394 m cl s 1388 336 m -30 Y s 1388 306 m cl s 1481 491 m 54 Y s 1481 545 m cl s 1481 463 m -67 Y s 1481 396 m cl s 1574 257 m 37 Y s 1574 294 m cl s
 1574 229 m -19 Y s 1574 210 m cl s 1667 334 m 82 Y s 1667 416 m cl s 1667 307 m -62 Y s 1667 245 m cl s 1760 545 m -120 Y s 1760 425 m cl s 1853 320 m 120 Y s 1853 440 m cl s 1853 293 m -72 Y s 1853 221 m cl s 2132 369 m 176 Y s 2132 545 m cl s 2132
 342 m -112 Y s 2132 230 m cl s 3 lw 364 376 457 357 550 358 643 372 736 360 829 361 923 365 1016 353 1109 385 1202 383 1295 345 1388 349 1481 477 1574 243 1667 321 15 { m20} R 9 lw 3 lw 1853 307 m20 9 lw 3 lw 2132 355 m20 9 lw 1 0 0 c 6 lw black 3
 lw 1 0 0 c 2178 227 m s 2178 255 m s 2178 284 m s 2178 312 m -6 -6 d s 2178 341 m -34 -35 d s 2178 369 m -63 -63 d s 2085 277 m -5 -6 d s 2178 398 m -92 -92 d s 2085 305 m -34 -34 d s 2177 426 m -154 -155 d s 2149 426 m -155 -155 d s 2120 426 m -132
 -132 d s 2091 426 m -131 -132 d s 2085 448 m -154 -154 d s 2069 461 m -167 -167 d s 2040 461 m -157 -157 d s 2012 461 m -20 -20 d s 1989 438 m -135 -134 d s 1960 438 m -134 -134 d s 1931 438 m -142 -142 d s 1902 438 m -3 -4 d s 1893 428 m -133 -132
 d s 1864 428 m -133 -132 d s 1836 428 m -123 -122 d s 1807 428 m -112 -111 d s 1787 436 m -120 -119 d s 1758 436 m -120 -119 d s 1729 436 m -16 -15 d s 1708 415 m -105 -104 d s 1679 415 m -104 -104 d s 1650 415 m -104 -104 d s 1622 415 m -95 -94 d s
 1599 421 m -96 -96 d s 1570 421 m -96 -96 d s 1541 421 m -96 -96 d s 1499 407 m -65 -64 d s 1470 407 m -63 -63 d s 1441 407 m -7 -7 d s 1422 388 m -43 -44 d s 1393 388 m -43 -44 d s 1365 388 m -43 -42 d s 1335 387 m -41 -41 d s 1306 387 m -41 -41 d
 s 1277 387 m -40 -41 d s 1249 387 m -1 -1 d s 1248 386 m -40 -40 d s 1219 386 m -39 -40 d s 1191 386 m -36 -36 d s 1162 386 m -7 -7 d s 1152 376 m -20 -20 d s 1123 376 m -19 -20 d s 1094 376 m -19 -20 d s 1066 376 m -20 -20 d s 1037 376 m -19 -20 d
 s 1008 376 m -19 -20 d s 980 376 m -19 -19 d s 950 375 m -18 -18 d s 922 375 m -19 -18 d s 893 375 m -17 -17 d s 859 370 m -8 -8 d s 831 370 m -9 -8 d s 802 370 m -8 -8 d s 773 370 m -8 -8 d s 744 370 m -8 -8 d s 716 370 m -8 -8 d s 687 370 m -8 -8
 d s 658 370 m -7 -8 d s 629 370 m -7 -8 d s 601 370 m -6 -6 d s 570 368 m -3 -4 d s 541 368 m -3 -4 d s 513 368 m -4 -4 d s 484 368 m -3 -4 d s 455 368 m -3 -4 d s 318 231 m s 426 368 m -3 -4 d s 318 259 m s 398 368 m -4 -4 d s 318 288 m s 369 368 m
 -3 -4 d s 318 317 m s 340 368 m -3 -4 d s 318 345 m s 6 lw black[ 4 8] 0 sd 3 lw 318 447 m 1860 X s 318 285 m 1860 X s 1 0 0 c[  12 12 ] 0 sd 6 lw 318 366 m 1860 X s
 gr  gr showpage
end
%%EOF
