%!PS-Adobe-2.0 EPSF-2.0
%%BoundingBox:  0 0 567 521
%%Title: Distributions/meffInc_distrCRW_MB-C_beforeFit_forThesis.eps: canvas
%%Creator: ROOT Version 6.04/16
%%CreationDate: Tue May 19 22:04:21 2020
%%DocumentNeededResources: ProcSet (FontSetInit)
%%EndComments
%%BeginProlog
80 dict begin
/s {stroke} def /l {lineto} def /m {moveto} def /t {translate} def
/r {rotate} def /rl {roll}  def /R {repeat} def
/d {rlineto} def /rm {rmoveto} def /gr {grestore} def /f {eofill} def
/c {setrgbcolor} def /black {0 setgray} def /sd {setdash} def
/cl {closepath} def /sf {scalefont setfont} def /lw {setlinewidth} def
/box {m dup 0 exch d exch 0 d 0 exch neg d cl} def
/NC{systemdict begin initclip end}def/C{NC box clip newpath}def
/bl {box s} def /bf {gsave box gsave f grestore 1 lw [] 0 sd s grestore} def /Y { 0 exch d} def /X { 0 d} def 
/K {{pop pop 0 moveto} exch kshow} bind def
/ita {/ang 15 def gsave [1 0 ang dup sin exch cos div 1 0 0] concat} def 
/mp {newpath /y exch def /x exch def} def
/side {[w .77 mul w .23 mul] .385 w mul sd w 0 l currentpoint t -144 r} def
/mr {mp x y w2 0 360 arc} def /m24 {mr s} def /m20 {mr f} def
/mb {mp x y w2 add m w2 neg 0 d 0 w neg d w 0 d 0 w d cl} def
/mt {mp x y w2 add m w2 neg w neg d w 0 d cl} def
/m21 {mb f} def /m25 {mb s} def /m22 {mt f} def /m26{mt s} def
/m23 {mp x y w2 sub m w2 w d w neg 0 d cl f} def
/m27 {mp x y w2 add m w3 neg w2 neg d w3 w2 neg d w3 w2 d cl s} def
/m28 {mp x w2 sub y w2 sub w3 add m w3 0 d  0 w3 neg d w3 0 d 0 w3 d w3 0 d  0 w3 d w3 neg 0 d 0 w3 d w3 neg 0 d 0 w3 neg d w3 neg 0 d cl s } def
/m29 {mp gsave x w2 sub y w2 add w3 sub m currentpoint t 4 {side} repeat cl fill gr} def
/m30 {mp gsave x w2 sub y w2 add w3 sub m currentpoint t 4 {side} repeat cl s gr} def
/m31 {mp x y w2 sub m 0 w d x w2 sub y m w 0 d x w2 sub y w2 add m w w neg d x w2 sub y w2 sub m w w d s} def
/m32 {mp x y w2 sub m w2 w d w neg 0 d cl s} def
/m33 {mp x y w2 add m w3 neg w2 neg d w3 w2 neg d w3 w2 d cl f} def
/m34 {mp x w2 sub y w2 sub w3 add m w3 0 d  0 w3 neg d w3 0 d 0 w3 d w3 0 d  0 w3 d w3 neg 0 d 0 w3 d w3 neg 0 d 0 w3 neg d w3 neg 0 d cl f } def
/m2 {mp x y w2 sub m 0 w d x w2 sub y m w 0 d s} def
/m5 {mp x w2 sub y w2 sub m w w d x w2 sub y w2 add m w w neg d s} def
%%IncludeResource: ProcSet (FontSetInit)
%%IncludeResource: font Times-Roman
%%IncludeResource: font Times-Italic
%%IncludeResource: font Times-Bold
%%IncludeResource: font Times-BoldItalic
%%IncludeResource: font Helvetica
%%IncludeResource: font Helvetica-Oblique
%%IncludeResource: font Helvetica-Bold
%%IncludeResource: font Helvetica-BoldOblique
%%IncludeResource: font Courier
%%IncludeResource: font Courier-Oblique
%%IncludeResource: font Courier-Bold
%%IncludeResource: font Courier-BoldOblique
%%IncludeResource: font Symbol
%%IncludeResource: font ZapfDingbats
/reEncode {exch findfont dup length dict begin {1 index /FID eq  {pop pop} {def} ifelse } forall /Encoding exch def currentdict end dup /FontName get exch definefont pop } def [/Times-Bold /Times-Italic /Times-BoldItalic /Helvetica /Helvetica-Oblique
 /Helvetica-Bold /Helvetica-BoldOblique /Courier /Courier-Oblique /Courier-Bold /Courier-BoldOblique /Times-Roman /AvantGarde-Book /AvantGarde-BookOblique /AvantGarde-Demi /AvantGarde-DemiOblique /Bookman-Demi /Bookman-DemiItalic /Bookman-Light
 /Bookman-LightItalic /Helvetica-Narrow /Helvetica-Narrow-Bold /Helvetica-Narrow-BoldOblique /Helvetica-Narrow-Oblique /NewCenturySchlbk-Roman /NewCenturySchlbk-Bold /NewCenturySchlbk-BoldItalic /NewCenturySchlbk-Italic /Palatino-Bold
 /Palatino-BoldItalic /Palatino-Italic /Palatino-Roman ] {ISOLatin1Encoding reEncode } forall
%%EndProlog
%%BeginSetup
%%EndSetup
newpath  gsave  .25 .25 scale  gsave  0 0 t black[  ] 0 sd 3 lw 1 1 1 c 2268 2085 0 0 bf black 1 1 1 c 2263 1770 2 313 bf black 1 1 1 c black 1860 1145 319 584 bl 1 1 1 c black 1860 1145 319 584 bl 6 lw 1 1 1 c black 3 lw /w 33 def /w2 {w 2 div} def
 /w3 {w 3 div} def 374 1151 m20 6 lw 3 lw 483 1120 m20 6 lw 3 lw 593 1092 m20 6 lw 3 lw 702 1067 m20 6 lw 3 lw 812 1040 m20 6 lw 3 lw 921 1006 m20 6 lw 3 lw 1030 968 m20 6 lw 3 lw 1140 961 m20 6 lw 3 lw 1249 917 m20 6 lw 3 lw 1359 911 m20 6 lw 1468
 823 m 8 Y s 1468 858 m 2 Y s 3 lw 1468 845 m20 6 lw 1578 786 m 16 Y s 1578 830 m 5 Y s 3 lw 1578 816 m20 6 lw 1687 786 m 16 Y s 1687 830 m 5 Y s 3 lw 1687 816 m20 6 lw 1796 772 m 20 Y s 1796 819 m 8 Y s 3 lw 1796 806 m20 6 lw 1906 728 m 35 Y s 1906
 790 m 13 Y s 3 lw 1906 777 m20 6 lw 2015 754 m 26 Y s 2015 807 m 9 Y s 3 lw 2015 793 m20 6 lw 2125 754 m 26 Y s 2125 807 m 9 Y s 3 lw 2125 793 m20 6 lw 3 lw 319 584 m 1860 X s
 gsave  2263 1770 2 313 C 1949.08 369.478 t 0 r /Helvetica findfont 81.3741 sf 0 0 m ( [GeV]) show NC gr 
 gsave  2263 1770 2 313 C 1888.07 342.361 t 0 r /Helvetica findfont 54.2494 sf 0 0 m (eff) show NC gr 
 gsave  2263 1770 2 313 C 1823.66 369.478 t 0 r /Helvetica findfont 81.3741 sf 0 0 m (m) show NC gr  538 584 m cl s 593 584 m cl s 647 584 m cl s 702 584 m cl s 757 584 m cl s 812 584 m cl s 866 584 m cl s 921 584 m cl s 976 584 m cl s 1030 584 m cl
 s 1085 584 m cl s 1140 584 m cl s 1195 584 m cl s 1249 584 m cl s 1304 584 m cl s 1359 584 m cl s 1413 584 m cl s 1468 584 m cl s 1523 584 m cl s 1578 584 m cl s 1632 584 m cl s 1687 584 m cl s 1742 584 m cl s 1796 584 m cl s 1851 584 m cl s 1906
 584 m cl s 1961 584 m cl s 2015 584 m cl s 2070 584 m cl s 2125 584 m cl s 2179 584 m cl s 538 584 m cl s 483 584 m cl s 429 584 m cl s 374 584 m cl s 319 584 m cl s 319 1729 m 1860 X s 538 1729 m cl s 593 1729 m cl s 647 1729 m cl s 702 1729 m cl s
 757 1729 m cl s 812 1729 m cl s 866 1729 m cl s 921 1729 m cl s 976 1729 m cl s 1030 1729 m cl s 1085 1729 m cl s 1140 1729 m cl s 1195 1729 m cl s 1249 1729 m cl s 1304 1729 m cl s 1359 1729 m cl s 1413 1729 m cl s 1468 1729 m cl s 1523 1729 m cl s
 1578 1729 m cl s 1632 1729 m cl s 1687 1729 m cl s 1742 1729 m cl s 1796 1729 m cl s 1851 1729 m cl s 1906 1729 m cl s 1961 1729 m cl s 2015 1729 m cl s 2070 1729 m cl s 2125 1729 m cl s 2179 1729 m cl s 538 1729 m cl s 483 1729 m cl s 429 1729 m cl
 s 374 1729 m cl s 319 1729 m cl s 319 584 m 1145 Y s
 gsave  2263 1770 2 313 C 166.096 1091.49 t 90 r /Helvetica findfont 81.3741 sf 0 0 m (Events / 200 GeV) show NC gr  341 624 m -22 X s 341 646 m -22 X s 341 663 m -22 X s 341 675 m -22 X s 341 686 m -22 X s 341 694 m -22 X s 341 702 m -22 X s 341 709
 m -22 X s 363 715 m -44 X s
 gsave  2263 1770 2 313 C 300.555 687.496 t 0 r  -36 0 t /Helvetica findfont 64.4212 sf 0 0 m (1) show NC gr  341 754 m -22 X s 341 777 m -22 X s 341 793 m -22 X s 341 806 m -22 X s 341 816 m -22 X s 341 825 m -22 X s 341 832 m -22 X s 341 839 m -22
 X s 363 845 m -44 X s
 gsave  2263 1770 2 313 C 300.555 817.799 t 0 r  -73 0 t /Helvetica findfont 64.4212 sf 0 0 m (10) show NC gr  341 884 m -22 X s 341 907 m -22 X s 341 923 m -22 X s 341 936 m -22 X s 341 946 m -22 X s 341 955 m -22 X s 341 963 m -22 X s 341 969 m -22
 X s 363 975 m -44 X s
 gsave  2263 1770 2 313 C 274.567 972.847 t 0 r /Helvetica findfont 44.0776 sf 0 0 m (2) show NC gr 
 gsave  2263 1770 2 313 C 203.383 945.729 t 0 r /Helvetica findfont 64.4212 sf 0 0 m (10) show NC gr  341 1014 m -22 X s 341 1037 m -22 X s 341 1054 m -22 X s 341 1066 m -22 X s 341 1077 m -22 X s 341 1085 m -22 X s 341 1093 m -22 X s 341 1100 m -22
 X s 363 1106 m -44 X s
 gsave  2263 1770 2 313 C 274.567 1108.44 t 0 r /Helvetica findfont 44.0776 sf 0 0 m (3) show NC gr 
 gsave  2263 1770 2 313 C 203.383 1077.93 t 0 r /Helvetica findfont 64.4212 sf 0 0 m (10) show NC gr  341 1145 m -22 X s 341 1168 m -22 X s 341 1184 m -22 X s 341 1197 m -22 X s 341 1207 m -22 X s 341 1216 m -22 X s 341 1223 m -22 X s 341 1230 m -22
 X s 363 1236 m -44 X s
 gsave  2263 1770 2 313 C 274.567 1233.85 t 0 r /Helvetica findfont 44.0776 sf 0 0 m (4) show NC gr 
 gsave  2263 1770 2 313 C 203.383 1206.74 t 0 r /Helvetica findfont 64.4212 sf 0 0 m (10) show NC gr  341 1275 m -22 X s 341 1298 m -22 X s 341 1314 m -22 X s 341 1327 m -22 X s 341 1337 m -22 X s 341 1346 m -22 X s 341 1354 m -22 X s 341 1360 m -22
 X s 363 1366 m -44 X s
 gsave  2263 1770 2 313 C 274.567 1369.44 t 0 r /Helvetica findfont 44.0776 sf 0 0 m (5) show NC gr 
 gsave  2263 1770 2 313 C 203.383 1338.94 t 0 r /Helvetica findfont 64.4212 sf 0 0 m (10) show NC gr  341 1405 m -22 X s 341 1428 m -22 X s 341 1445 m -22 X s 341 1457 m -22 X s 341 1468 m -22 X s 341 1476 m -22 X s 341 1484 m -22 X s 341 1490 m -22
 X s 363 1496 m -44 X s
 gsave  2263 1770 2 313 C 274.567 1498.25 t 0 r /Helvetica findfont 44.0776 sf 0 0 m (6) show NC gr 
 gsave  2263 1770 2 313 C 203.383 1467.74 t 0 r /Helvetica findfont 64.4212 sf 0 0 m (10) show NC gr  341 1536 m -22 X s 341 1559 m -22 X s 341 1575 m -22 X s 341 1588 m -22 X s 341 1598 m -22 X s 341 1607 m -22 X s 341 1614 m -22 X s 341 1621 m -22
 X s 363 1627 m -44 X s
 gsave  2263 1770 2 313 C 274.567 1623.67 t 0 r /Helvetica findfont 44.0776 sf 0 0 m (7) show NC gr 
 gsave  2263 1770 2 313 C 203.383 1596.55 t 0 r /Helvetica findfont 64.4212 sf 0 0 m (10) show NC gr  341 1666 m -22 X s 341 1689 m -22 X s 341 1705 m -22 X s 341 1718 m -22 X s 341 1728 m -22 X s 2179 584 m 1145 Y s 2157 624 m 22 X s 2157 646 m 22 X
 s 2157 663 m 22 X s 2157 675 m 22 X s 2157 686 m 22 X s 2157 694 m 22 X s 2157 702 m 22 X s 2157 709 m 22 X s 2136 715 m 43 X s 2157 754 m 22 X s 2157 777 m 22 X s 2157 793 m 22 X s 2157 806 m 22 X s 2157 816 m 22 X s 2157 825 m 22 X s 2157 832 m 22
 X s 2157 839 m 22 X s 2136 845 m 43 X s 2157 884 m 22 X s 2157 907 m 22 X s 2157 923 m 22 X s 2157 936 m 22 X s 2157 946 m 22 X s 2157 955 m 22 X s 2157 963 m 22 X s 2157 969 m 22 X s 2136 975 m 43 X s 2157 1014 m 22 X s 2157 1037 m 22 X s 2157 1054
 m 22 X s 2157 1066 m 22 X s 2157 1077 m 22 X s 2157 1085 m 22 X s 2157 1093 m 22 X s 2157 1100 m 22 X s 2136 1106 m 43 X s 2157 1145 m 22 X s 2157 1168 m 22 X s 2157 1184 m 22 X s 2157 1197 m 22 X s 2157 1207 m 22 X s 2157 1216 m 22 X s 2157 1223 m
 22 X s 2157 1230 m 22 X s 2136 1236 m 43 X s 2157 1275 m 22 X s 2157 1298 m 22 X s 2157 1314 m 22 X s 2157 1327 m 22 X s 2157 1337 m 22 X s 2157 1346 m 22 X s 2157 1354 m 22 X s 2157 1360 m 22 X s 2136 1366 m 43 X s 2157 1405 m 22 X s 2157 1428 m 22
 X s 2157 1445 m 22 X s 2157 1457 m 22 X s 2157 1468 m 22 X s 2157 1476 m 22 X s 2157 1484 m 22 X s 2157 1490 m 22 X s 2136 1496 m 43 X s 2157 1536 m 22 X s 2157 1559 m 22 X s 2157 1575 m 22 X s 2157 1588 m 22 X s 2157 1598 m 22 X s 2157 1607 m 22 X
 s 2157 1614 m 22 X s 2157 1621 m 22 X s 2136 1627 m 43 X s 2157 1666 m 22 X s 2157 1689 m 22 X s 2157 1705 m 22 X s 2157 1718 m 22 X s 2157 1728 m 22 X s 0.4 0.6 1 c black 0.4 0.6 1 c 319 584 m 572 Y 110 X -31 Y 109 X -26 Y 109 X -28 Y 110 X -30 Y
 109 X -30 Y 110 X -27 Y 109 X -29 Y 110 X -29 Y 109 X -19 Y 109 X -24 Y 110 X -23 Y 109 X -40 Y 110 X -7 Y 109 X -45 Y 110 X -3 Y 109 X 45 Y 109 X -226 Y f black 0.4 0.6 1 c black 319 1156 m 110 X -31 Y 109 X -26 Y 109 X -28 Y 110 X -30 Y 109 X -30
 Y 110 X -27 Y 109 X -29 Y 110 X -29 Y 109 X -19 Y 109 X -24 Y 110 X -23 Y 109 X -40 Y 110 X -7 Y 109 X -45 Y 110 X -3 Y 109 X 45 Y 109 X s 0.999 0.999 0.999 c black 0.999 0.999 0.999 c 319 584 m 460 Y 110 X -26 Y 109 X -27 Y 109 X -25 Y 110 X -28 Y
 109 X -32 Y 110 X -21 Y 109 X -34 Y 110 X -23 Y 109 X -12 Y 109 X -19 Y 110 X -16 Y 109 X -40 Y 110 X -48 Y 109 X -51 Y 110 X 43 Y 109 X -1 Y 109 X -100 Y f black 0.999 0.999 0.999 c black 319 1044 m 110 X -26 Y 109 X -27 Y 109 X -25 Y 110 X -28 Y
 109 X -32 Y 110 X -21 Y 109 X -34 Y 110 X -23 Y 109 X -12 Y 109 X -19 Y 110 X -16 Y 109 X -40 Y 110 X -48 Y 109 X -51 Y 110 X 43 Y 109 X -1 Y 109 X s 1 1 1 c black 319 1044 m 110 X -26 Y 109 X -27 Y 109 X -25 Y 110 X -28 Y 109 X -32 Y 110 X -21 Y
 109 X -34 Y 110 X -23 Y 109 X -12 Y 109 X -19 Y 110 X -16 Y 109 X -40 Y 110 X -48 Y 109 X -51 Y 110 X 43 Y 109 X -1 Y 109 X s 0.6 1 0.6 c black 0.6 1 0.6 c 319 584 m 460 Y 110 X -26 Y 109 X -27 Y 109 X -25 Y 110 X -28 Y 109 X -32 Y 110 X -21 Y 109 X
 -34 Y 110 X -23 Y 109 X -12 Y 109 X -19 Y 110 X -16 Y 109 X -40 Y 110 X -48 Y 109 X -51 Y 110 X 43 Y 109 X -1 Y 109 X -100 Y f black 0.6 1 0.6 c black 319 1044 m 110 X -26 Y 109 X -27 Y 109 X -25 Y 110 X -28 Y 109 X -32 Y 110 X -21 Y 109 X -34 Y 110
 X -23 Y 109 X -12 Y 109 X -19 Y 110 X -16 Y 109 X -40 Y 110 X -48 Y 109 X -51 Y 110 X 43 Y 109 X -1 Y 109 X s 0.999 0.999 0.999 c black 0.999 0.999 0.999 c 319 584 m 412 Y 110 X -25 Y 109 X -23 Y 109 X -31 Y 110 X -24 Y 109 X -37 Y 110 X -17 Y 109 X
 -32 Y 110 X -23 Y 109 X -30 Y 109 X -26 Y 110 X -10 Y 109 X -66 Y 110 X -47 Y 109 X -21 Y 110 X 6 Y 109 X -6 Y 109 X f black 0.999 0.999 0.999 c black 319 996 m 110 X -25 Y 109 X -23 Y 109 X -31 Y 110 X -24 Y 109 X -37 Y 110 X -17 Y 109 X -32 Y 110
 X -23 Y 109 X -30 Y 109 X -26 Y 110 X -10 Y 109 X -66 Y 110 X -47 Y 109 X -21 Y 110 X 6 Y 109 X -6 Y 109 X s 1 1 1 c black 319 996 m 110 X -25 Y 109 X -23 Y 109 X -31 Y 110 X -24 Y 109 X -37 Y 110 X -17 Y 109 X -32 Y 110 X -23 Y 109 X -30 Y 109 X
 -26 Y 110 X -10 Y 109 X -66 Y 110 X -47 Y 109 X -21 Y 110 X 6 Y 109 X -6 Y 109 X s 1 0.8 0.4 c black 1 0.8 0.4 c 319 584 m 412 Y 110 X -25 Y 109 X -23 Y 109 X -31 Y 110 X -24 Y 109 X -37 Y 110 X -17 Y 109 X -32 Y 110 X -23 Y 109 X -30 Y 109 X -26 Y
 110 X -10 Y 109 X -66 Y 110 X -47 Y 109 X -21 Y 110 X 6 Y 109 X -6 Y 109 X f black 1 0.8 0.4 c black 319 996 m 110 X -25 Y 109 X -23 Y 109 X -31 Y 110 X -24 Y 109 X -37 Y 110 X -17 Y 109 X -32 Y 110 X -23 Y 109 X -30 Y 109 X -26 Y 110 X -10 Y 109 X
 -66 Y 110 X -47 Y 109 X -21 Y 110 X 6 Y 109 X -6 Y 109 X s 0.999 0.999 0.999 c black 0.999 0.999 0.999 c 319 584 m 404 Y 110 X -24 Y 109 X -22 Y 109 X -31 Y 110 X -24 Y 109 X -37 Y 110 X -16 Y 109 X -32 Y 110 X -22 Y 109 X -30 Y 109 X -46 Y 110 X 11
 Y 109 X -99 Y 110 X -32 Y 219 X 1 Y 109 X -1 Y 109 X f black 0.999 0.999 0.999 c black 319 988 m 110 X -24 Y 109 X -22 Y 109 X -31 Y 110 X -24 Y 109 X -37 Y 110 X -16 Y 109 X -32 Y 110 X -22 Y 109 X -30 Y 109 X -46 Y 110 X 11 Y 109 X -99 Y 110 X -32
 Y 219 X 1 Y 109 X -1 Y 109 X s 1 1 1 c black 319 988 m 110 X -24 Y 109 X -22 Y 109 X -31 Y 110 X -24 Y 109 X -37 Y 110 X -16 Y 109 X -32 Y 110 X -22 Y 109 X -30 Y 109 X -46 Y 110 X 11 Y 109 X -99 Y 110 X -32 Y 219 X 1 Y 109 X -1 Y 109 X s 1 0.4 0.6
 c black 1 0.4 0.6 c 319 584 m 404 Y 110 X -24 Y 109 X -22 Y 109 X -31 Y 110 X -24 Y 109 X -37 Y 110 X -16 Y 109 X -32 Y 110 X -22 Y 109 X -30 Y 109 X -46 Y 110 X 11 Y 109 X -99 Y 110 X -32 Y 219 X 1 Y 109 X -1 Y 109 X f black 1 0.4 0.6 c black 319
 988 m 110 X -24 Y 109 X -22 Y 109 X -31 Y 110 X -24 Y 109 X -37 Y 110 X -16 Y 109 X -32 Y 110 X -22 Y 109 X -30 Y 109 X -46 Y 110 X 11 Y 109 X -99 Y 110 X -32 Y 219 X 1 Y 109 X -1 Y 109 X s 1 0 0 c 6 lw 1 1 1 c black 1 0 0 c 319 1156 m 110 X -31 Y
 109 X -26 Y 109 X -28 Y 110 X -30 Y 109 X -30 Y 110 X -27 Y 109 X -29 Y 110 X -29 Y 109 X -19 Y 109 X -24 Y 110 X -23 Y 109 X -40 Y 110 X -7 Y 109 X -45 Y 110 X -3 Y 109 X 45 Y 109 X s black 3 lw 1 0 0 c 1 lw << /PatternType 1 /PaintType 2
 /TilingType 1 /BBox [ 0 0 100 100 ] /XStep 100 /YStep 100 /PaintProc { begin gsave 0 100 m 100 0 l s gr end } >> [ 0.24 0 0 0.24 0 0 ] makepattern /P05 exch def /cs {[/Pattern /DeviceRGB] setcolorspace} def /FA {f [/DeviceRGB] setcolorspace} def cs
 1 0 0 P05 setcolor 319 584 m 573 Y 110 X -30 Y 109 X -26 Y 109 X -29 Y 110 X -29 Y 109 X -30 Y 110 X -27 Y 109 X -29 Y 110 X -27 Y 109 X -20 Y 109 X -23 Y 110 X -22 Y 109 X -38 Y 110 X -2 Y 109 X -52 Y 110 X 3 Y 109 X 46 Y 109 X -238 Y 212 Y -109 X
 -45 Y -109 X 10 Y -110 X 38 Y -109 X 14 Y -110 X 41 Y -109 X 25 Y -110 X 24 Y -109 X 20 Y -109 X 30 Y -110 X 29 Y -109 X 27 Y -110 X 31 Y -109 X 29 Y -110 X 29 Y -109 X 25 Y -109 X 31 Y -110 X -570 Y FA 6 lw 1 1 1 c 15 lw 1468 825 m -1 Y s 1468 824
 m cl s 1578 796 m -8 Y s 1578 788 m cl s 1687 796 m -8 Y s 1687 788 m cl s 1796 826 m 2 Y s 1796 828 m cl s 1796 785 m -11 Y s 1796 774 m cl s 1906 797 m 8 Y s 1906 805 m cl s 1906 756 m -23 Y s 1906 733 m cl s 2015 813 m 4 Y s 2015 817 m cl s 2015
 773 m -17 Y s 2015 756 m cl s 2125 813 m 4 Y s 2125 817 m cl s 2125 773 m -17 Y s 2125 756 m cl s black 1 1 1 c 3 lw /w 43 def /w2 {w 2 div} def /w3 {w 3 div} def 374 1151 483 1120 593 1092 702 1067 812 1040 921 1006 1030 968 1140 961 1249 917 1359
 911 1468 845 1578 816 1687 816 1796 806 1906 777 2015 793 2125 793 17 { m20} R 15 lw black 6 lw 1 1 1 c black 3 lw /w 33 def /w2 {w 2 div} def /w3 {w 3 div} def 374 1151 m20 6 lw 3 lw 483 1120 m20 6 lw 3 lw 593 1092 m20 6 lw 3 lw 702 1067 m20 6 lw 3
 lw 812 1040 m20 6 lw 3 lw 921 1006 m20 6 lw 3 lw 1030 968 m20 6 lw 3 lw 1140 961 m20 6 lw 3 lw 1249 917 m20 6 lw 3 lw 1359 911 m20 6 lw 1468 823 m 8 Y s 1468 858 m 2 Y s 3 lw 1468 845 m20 6 lw 1578 786 m 16 Y s 1578 830 m 5 Y s 3 lw 1578 816 m20 6
 lw 1687 786 m 16 Y s 1687 830 m 5 Y s 3 lw 1687 816 m20 6 lw 1796 772 m 20 Y s 1796 819 m 8 Y s 3 lw 1796 806 m20 6 lw 1906 728 m 35 Y s 1906 790 m 13 Y s 3 lw 1906 777 m20 6 lw 2015 754 m 26 Y s 2015 807 m 9 Y s 3 lw 2015 793 m20 6 lw 2125 754 m 26
 Y s 2125 807 m 9 Y s 3 lw 2125 793 m20 6 lw 1468 858 m 3 Y s 1468 861 m cl s 1468 831 m -7 Y s 1468 824 m cl s 1578 830 m 6 Y s 1578 836 m cl s 1578 802 m -14 Y s 1578 788 m cl s 1687 830 m 6 Y s 1687 836 m cl s 1687 802 m -14 Y s 1687 788 m cl s
 1796 819 m 9 Y s 1796 828 m cl s 1796 792 m -18 Y s 1796 774 m cl s 1906 790 m 15 Y s 1906 805 m cl s 1906 763 m -30 Y s 1906 733 m cl s 2015 807 m 10 Y s 2015 817 m cl s 2015 780 m -24 Y s 2015 756 m cl s 2125 807 m 10 Y s 2125 817 m cl s 2125 780
 m -24 Y s 2125 756 m cl s 3 lw 374 1151 483 1120 593 1092 702 1067 812 1040 921 1006 1030 968 1140 961 1249 917 1359 911 1468 845 1578 816 1687 816 1796 806 1906 777 2015 793 2125 793 17 { m20} R 6 lw 3 lw 319 584 m 1860 X s 538 584 m cl s 593 584 m
 cl s 647 584 m cl s 702 584 m cl s 757 584 m cl s 812 584 m cl s 866 584 m cl s 921 584 m cl s 976 584 m cl s 1030 584 m cl s 1085 584 m cl s 1140 584 m cl s 1195 584 m cl s 1249 584 m cl s 1304 584 m cl s 1359 584 m cl s 1413 584 m cl s 1468 584 m
 cl s 1523 584 m cl s 1578 584 m cl s 1632 584 m cl s 1687 584 m cl s 1742 584 m cl s 1796 584 m cl s 1851 584 m cl s 1906 584 m cl s 1961 584 m cl s 2015 584 m cl s 2070 584 m cl s 2125 584 m cl s 2179 584 m cl s 538 584 m cl s 483 584 m cl s 429
 584 m cl s 374 584 m cl s 319 584 m cl s 319 1729 m 1860 X s 538 1729 m cl s 593 1729 m cl s 647 1729 m cl s 702 1729 m cl s 757 1729 m cl s 812 1729 m cl s 866 1729 m cl s 921 1729 m cl s 976 1729 m cl s 1030 1729 m cl s 1085 1729 m cl s 1140 1729
 m cl s 1195 1729 m cl s 1249 1729 m cl s 1304 1729 m cl s 1359 1729 m cl s 1413 1729 m cl s 1468 1729 m cl s 1523 1729 m cl s 1578 1729 m cl s 1632 1729 m cl s 1687 1729 m cl s 1742 1729 m cl s 1796 1729 m cl s 1851 1729 m cl s 1906 1729 m cl s 1961
 1729 m cl s 2015 1729 m cl s 2070 1729 m cl s 2125 1729 m cl s 2179 1729 m cl s 538 1729 m cl s 483 1729 m cl s 429 1729 m cl s 374 1729 m cl s 319 1729 m cl s 319 584 m 1145 Y s 341 624 m -22 X s 341 646 m -22 X s 341 663 m -22 X s 341 675 m -22 X
 s 341 686 m -22 X s 341 694 m -22 X s 341 702 m -22 X s 341 709 m -22 X s 363 715 m -44 X s 341 754 m -22 X s 341 777 m -22 X s 341 793 m -22 X s 341 806 m -22 X s 341 816 m -22 X s 341 825 m -22 X s 341 832 m -22 X s 341 839 m -22 X s 363 845 m -44
 X s 341 884 m -22 X s 341 907 m -22 X s 341 923 m -22 X s 341 936 m -22 X s 341 946 m -22 X s 341 955 m -22 X s 341 963 m -22 X s 341 969 m -22 X s 363 975 m -44 X s 341 1014 m -22 X s 341 1037 m -22 X s 341 1054 m -22 X s 341 1066 m -22 X s 341
 1077 m -22 X s 341 1085 m -22 X s 341 1093 m -22 X s 341 1100 m -22 X s 363 1106 m -44 X s 341 1145 m -22 X s 341 1168 m -22 X s 341 1184 m -22 X s 341 1197 m -22 X s 341 1207 m -22 X s 341 1216 m -22 X s 341 1223 m -22 X s 341 1230 m -22 X s 363
 1236 m -44 X s 341 1275 m -22 X s 341 1298 m -22 X s 341 1314 m -22 X s 341 1327 m -22 X s 341 1337 m -22 X s 341 1346 m -22 X s 341 1354 m -22 X s 341 1360 m -22 X s 363 1366 m -44 X s 341 1405 m -22 X s 341 1428 m -22 X s 341 1445 m -22 X s 341
 1457 m -22 X s 341 1468 m -22 X s 341 1476 m -22 X s 341 1484 m -22 X s 341 1490 m -22 X s 363 1496 m -44 X s 341 1536 m -22 X s 341 1559 m -22 X s 341 1575 m -22 X s 341 1588 m -22 X s 341 1598 m -22 X s 341 1607 m -22 X s 341 1614 m -22 X s 341
 1621 m -22 X s 363 1627 m -44 X s 341 1666 m -22 X s 341 1689 m -22 X s 341 1705 m -22 X s 341 1718 m -22 X s 341 1728 m -22 X s 2179 584 m 1145 Y s 2157 624 m 22 X s 2157 646 m 22 X s 2157 663 m 22 X s 2157 675 m 22 X s 2157 686 m 22 X s 2157 694 m
 22 X s 2157 702 m 22 X s 2157 709 m 22 X s 2136 715 m 43 X s 2157 754 m 22 X s 2157 777 m 22 X s 2157 793 m 22 X s 2157 806 m 22 X s 2157 816 m 22 X s 2157 825 m 22 X s 2157 832 m 22 X s 2157 839 m 22 X s 2136 845 m 43 X s 2157 884 m 22 X s 2157 907
 m 22 X s 2157 923 m 22 X s 2157 936 m 22 X s 2157 946 m 22 X s 2157 955 m 22 X s 2157 963 m 22 X s 2157 969 m 22 X s 2136 975 m 43 X s 2157 1014 m 22 X s 2157 1037 m 22 X s 2157 1054 m 22 X s 2157 1066 m 22 X s 2157 1077 m 22 X s 2157 1085 m 22 X s
 2157 1093 m 22 X s 2157 1100 m 22 X s 2136 1106 m 43 X s 2157 1145 m 22 X s 2157 1168 m 22 X s 2157 1184 m 22 X s 2157 1197 m 22 X s 2157 1207 m 22 X s 2157 1216 m 22 X s 2157 1223 m 22 X s 2157 1230 m 22 X s 2136 1236 m 43 X s 2157 1275 m 22 X s
 2157 1298 m 22 X s 2157 1314 m 22 X s 2157 1327 m 22 X s 2157 1337 m 22 X s 2157 1346 m 22 X s 2157 1354 m 22 X s 2157 1360 m 22 X s 2136 1366 m 43 X s 2157 1405 m 22 X s 2157 1428 m 22 X s 2157 1445 m 22 X s 2157 1457 m 22 X s 2157 1468 m 22 X s
 2157 1476 m 22 X s 2157 1484 m 22 X s 2157 1490 m 22 X s 2136 1496 m 43 X s 2157 1536 m 22 X s 2157 1559 m 22 X s 2157 1575 m 22 X s 2157 1588 m 22 X s 2157 1598 m 22 X s 2157 1607 m 22 X s 2157 1614 m 22 X s 2157 1621 m 22 X s 2136 1627 m 43 X s
 2157 1666 m 22 X s 2157 1689 m 22 X s 2157 1705 m 22 X s 2157 1718 m 22 X s 2157 1728 m 22 X s
 gsave  2263 1770 2 313 C 406.765 1447.41 t 0 r /Helvetica findfont 64.4212 sf 0 0 m (CRW for MB\255C) show NC gr 
 gsave  2263 1770 2 313 C 1464.36 1616.89 t 0 r /Helvetica findfont 64.4212 sf 0 0 m (SM Total) show NC gr  1 1 1 c 1338 1603 m 107 X 74 Y -107 X f 1 0 0 c 6 lw 1338 1640 m 107 X s black
 gsave  2263 1770 2 313 C 1464.36 1511.81 t 0 r /Helvetica findfont 64.4212 sf 0 0 m (Data) show NC gr  1391 1502 m 64 Y s 3 lw 1391 1534 m20 6 lw
 gsave  2263 1770 2 313 C 1464.36 1406.73 t 0 r /Helvetica findfont 64.4212 sf 0 0 m (W+jets) show NC gr  0.4 0.6 1 c 3 lw 1338 1391 m 107 X 74 Y -107 X f 6 lw black 3 lw 1338 1465 m 107 X s 1338 1391 m 107 X s 1445 1391 m 74 Y s 1338 1391 m 74 Y s
 gsave  2263 1770 2 313 C 1498.25 1298.26 t 0 r /Helvetica findfont 64.4212 sf 0 0 m (\(+EW\) & single top) show NC gr 
 gsave  2263 1770 2 313 C 1481.3 1298.26 t 0 r /Helvetica findfont 64.4212 sf 0 0 m (t) show NC gr  1481 1349 m 17 X s
 gsave  2263 1770 2 313 C 1464.36 1298.26 t 0 r /Helvetica findfont 64.4212 sf 0 0 m (t) show NC gr  0.6 1 0.6 c 1338 1284 m 107 X 75 Y -107 X f black 1338 1359 m 107 X s 1338 1284 m 107 X s 1445 1284 m 75 Y s 1338 1284 m 75 Y s
 gsave  2263 1770 2 313 C 1464.36 1193.18 t 0 r /Helvetica findfont 64.4212 sf 0 0 m (Z+jets) show NC gr  1 0.8 0.4 c 1338 1178 m 107 X 75 Y -107 X f black 1338 1253 m 107 X s 1338 1178 m 107 X s 1445 1178 m 75 Y s 1338 1178 m 75 Y s
 gsave  2263 1770 2 313 C 1464.36 1088.1 t 0 r /Helvetica findfont 64.4212 sf 0 0 m (Diboson) show NC gr  1 0.4 0.6 c 1338 1072 m 107 X 74 Y -107 X f black 1338 1146 m 107 X s 1338 1072 m 107 X s 1445 1072 m 74 Y s 1338 1072 m 74 Y s
 gsave  2263 1770 2 313 C 911.832 1566.05 t 0 r /Helvetica findfont 44.0776 sf 0 0 m (\2551) show NC gr 
 gsave  2263 1770 2 313 C 471.17 1535.54 t 0 r /Helvetica findfont 64.4212 sf 0 0 m (=13TeV, 139 fb) show NC gr 
 gsave  2263 1770 2 313 C 440.662 1535.54 t 0 r /Helvetica findfont 64.4212 sf 0 0 m (s) show NC gr  6 lw 420 1573 m 7 -41 d s 3 lw 427 1532 m 7 61 d s 434 1593 m 37 X s 1 1 1 c 2254 561 2 2 bf black 1 1 1 c black 1860 358 318 187 bl 1 1 1 c black
 1860 358 318 187 bl 6 lw 1 1 1 c black 3 lw 373 352 m20 6 lw 3 lw 482 353 m20 6 lw 3 lw 591 346 m20 6 lw 3 lw 701 356 m20 6 lw 3 lw 810 362 m20 6 lw 3 lw 920 351 m20 6 lw 3 lw 1029 326 m20 6 lw 3 lw 1139 384 m20 6 lw 3 lw 1248 342 m20 6 lw 3 lw 1358
 378 m20 6 lw 3 lw 1467 286 m20 6 lw 3 lw 1576 279 m20 6 lw 3 lw 1686 354 m20 6 lw 3 lw 1795 346 m20 6 lw 3 lw 1905 394 m20 6 lw 3 lw 2014 471 m20 6 lw 3 lw 2124 323 m20 6 lw 3 lw 318 187 m 1860 X s
 gsave  2254 561 2 2 C 1959.25 33.8971 t 0 r /Helvetica findfont 78.1689 sf 0 0 m ( [GeV]) show NC gr 
 gsave  2254 561 2 2 C 1901.63 13.5588 t 0 r /Helvetica findfont 50.9797 sf 0 0 m (eff) show NC gr 
 gsave  2254 561 2 2 C 1840.61 33.8971 t 0 r /Helvetica findfont 78.1689 sf 0 0 m (m) show NC gr  537 201 m -14 Y s 591 194 m -7 Y s 646 194 m -7 Y s 701 194 m -7 Y s 756 194 m -7 Y s 810 201 m -14 Y s 865 194 m -7 Y s 920 194 m -7 Y s 975 194 m -7 Y
 s 1029 194 m -7 Y s 1084 201 m -14 Y s 1139 194 m -7 Y s 1193 194 m -7 Y s 1248 194 m -7 Y s 1303 194 m -7 Y s 1358 201 m -14 Y s 1412 194 m -7 Y s 1467 194 m -7 Y s 1522 194 m -7 Y s 1576 194 m -7 Y s 1631 201 m -14 Y s 1686 194 m -7 Y s 1741 194 m
 -7 Y s 1795 194 m -7 Y s 1850 194 m -7 Y s 1905 201 m -14 Y s 1959 194 m -7 Y s 2014 194 m -7 Y s 2069 194 m -7 Y s 2124 194 m -7 Y s 2178 201 m -14 Y s 537 201 m -14 Y s 482 194 m -7 Y s 427 194 m -7 Y s 373 194 m -7 Y s 318 194 m -7 Y s
 gsave  2254 561 2 2 C 447.442 118.64 t 0 r /Helvetica findfont 78.1689 sf 0 0 m (2000) show NC gr 
 gsave  2254 561 2 2 C 722.008 118.64 t 0 r /Helvetica findfont 78.1689 sf 0 0 m (2500) show NC gr 
 gsave  2254 561 2 2 C 993.185 118.64 t 0 r /Helvetica findfont 78.1689 sf 0 0 m (3000) show NC gr 
 gsave  2254 561 2 2 C 1267.75 118.64 t 0 r /Helvetica findfont 78.1689 sf 0 0 m (3500) show NC gr 
 gsave  2254 561 2 2 C 1542.32 118.64 t 0 r /Helvetica findfont 78.1689 sf 0 0 m (4000) show NC gr 
 gsave  2254 561 2 2 C 1813.5 118.64 t 0 r /Helvetica findfont 78.1689 sf 0 0 m (4500) show NC gr 
 gsave  2254 561 2 2 C 2088.06 118.64 t 0 r /Helvetica findfont 78.1689 sf 0 0 m (5000) show NC gr  318 545 m 1860 X s 537 531 m 14 Y s 591 538 m 7 Y s 646 538 m 7 Y s 701 538 m 7 Y s 756 538 m 7 Y s 810 531 m 14 Y s 865 538 m 7 Y s 920 538 m 7 Y s
 975 538 m 7 Y s 1029 538 m 7 Y s 1084 531 m 14 Y s 1139 538 m 7 Y s 1193 538 m 7 Y s 1248 538 m 7 Y s 1303 538 m 7 Y s 1358 531 m 14 Y s 1412 538 m 7 Y s 1467 538 m 7 Y s 1522 538 m 7 Y s 1576 538 m 7 Y s 1631 531 m 14 Y s 1686 538 m 7 Y s 1741 538
 m 7 Y s 1795 538 m 7 Y s 1850 538 m 7 Y s 1905 531 m 14 Y s 1959 538 m 7 Y s 2014 538 m 7 Y s 2069 538 m 7 Y s 2124 538 m 7 Y s 2178 531 m 14 Y s 537 531 m 14 Y s 482 538 m 7 Y s 427 538 m 7 Y s 373 538 m 7 Y s 318 538 m 7 Y s 318 187 m 358 Y s
 gsave  2254 561 2 2 C 166.096 284.736 t 90 r /Helvetica findfont 67.9729 sf 0 0 m (Data/SM) show NC gr  361 203 m -43 X s 339 220 m -21 X s 339 236 m -21 X s 339 252 m -21 X s 339 268 m -21 X s 361 285 m -43 X s 339 301 m -21 X s 339 317 m -21 X s
 339 334 m -21 X s 339 350 m -21 X s 361 366 m -43 X s 339 382 m -21 X s 339 399 m -21 X s 339 415 m -21 X s 339 431 m -21 X s 361 447 m -43 X s 339 464 m -21 X s 339 480 m -21 X s 339 496 m -21 X s 339 512 m -21 X s 361 529 m -43 X s 361 203 m -43 X
 s 339 187 m -21 X s 361 529 m -43 X s
 gsave  2254 561 2 2 C 261.008 183.044 t 0 r /Helvetica findfont 57.777 sf 0 0 m (0) show NC gr 
 gsave  2254 561 2 2 C 213.552 261.008 t 0 r /Helvetica findfont 57.777 sf 0 0 m (0.5) show NC gr 
 gsave  2254 561 2 2 C 271.177 342.361 t 0 r /Helvetica findfont 57.777 sf 0 0 m (1) show NC gr 
 gsave  2254 561 2 2 C 213.552 423.714 t 0 r /Helvetica findfont 57.777 sf 0 0 m (1.5) show NC gr 
 gsave  2254 561 2 2 C 261.008 505.067 t 0 r /Helvetica findfont 57.777 sf 0 0 m (2) show NC gr  2178 187 m 358 Y s 2135 203 m 43 X s 2157 220 m 21 X s 2157 236 m 21 X s 2157 252 m 21 X s 2157 268 m 21 X s 2135 285 m 43 X s 2157 301 m 21 X s 2157 317
 m 21 X s 2157 334 m 21 X s 2157 350 m 21 X s 2135 366 m 43 X s 2157 382 m 21 X s 2157 399 m 21 X s 2157 415 m 21 X s 2157 431 m 21 X s 2135 447 m 43 X s 2157 464 m 21 X s 2157 480 m 21 X s 2157 496 m 21 X s 2157 512 m 21 X s 2135 529 m 43 X s 2135
 203 m 43 X s 2157 187 m 21 X s 2135 529 m 43 X s 9 lw 1139 398 m 7 Y s 1139 405 m cl s 1139 371 m -7 Y s 1139 364 m cl s 1248 356 m 9 Y s 1248 365 m cl s 1248 328 m -9 Y s 1248 319 m cl s 1358 392 m 18 Y s 1358 410 m cl s 1358 365 m -17 Y s 1358 348
 m cl s 1467 300 m 13 Y s 1467 313 m cl s 1467 273 m -12 Y s 1467 261 m cl s 1576 292 m 19 Y s 1576 311 m cl s 1576 265 m -16 Y s 1576 249 m cl s 1686 367 m 51 Y s 1686 418 m cl s 1686 340 m -46 Y s 1686 294 m cl s 1795 359 m 54 Y s 1795 413 m cl s
 1795 332 m -48 Y s 1795 284 m cl s 1905 408 m 107 Y s 1905 515 m cl s 1905 381 m -90 Y s 1905 291 m cl s 2014 484 m 61 Y s 2014 545 m cl s 2014 457 m -114 Y s 2014 343 m cl s 2124 337 m 50 Y s 2124 387 m cl s 2124 310 m -44 Y s 2124 266 m cl s 3 lw
 373 352 482 353 591 346 701 356 810 362 920 351 1029 326 1139 384 1248 342 1358 378 1467 286 1576 279 1686 354 1795 346 1905 394 2014 471 2124 323 17 { m20} R 9 lw 1 0 0 c 6 lw black 3 lw 1 0 0 c 2178 227 m s 2178 255 m s 2178 284 m s 2178 312 m s
 2178 341 m -11 -11 d s 2178 369 m -39 -39 d s 2178 398 m -68 -68 d s 2154 402 m -73 -72 d s 2125 402 m -72 -72 d s 2097 402 m -73 -72 d s 2068 402 m -73 -72 d s 2039 402 m -72 -72 d s 2010 402 m -53 -53 d s 1982 402 m -54 -53 d s 1934 383 m -35 -34
 d s 1905 383 m -34 -34 d s 1877 383 m -55 -54 d s 1850 385 m -57 -56 d s 1839 403 m -74 -74 d s 1810 403 m -69 -70 d s 1782 403 m -56 -56 d s 1753 403 m -12 -12 d s 1735 385 m -38 -38 d s 1706 385 m -38 -38 d s 1678 385 m -39 -38 d s 1649 385 m -35
 -35 d s 1617 382 m -32 -32 d s 1588 382 m -31 -32 d s 1559 382 m -31 -32 d s 1531 382 m -28 -28 d s 1498 378 m -24 -24 d s 1470 378 m -24 -24 d s 1441 378 m -24 -24 d s 1409 375 m -18 -18 d s 1381 375 m -18 -18 d s 1352 375 m -18 -18 d s 1323 375 m
 -18 -18 d s 1296 377 m -21 -22 d s 1268 377 m -22 -22 d s 1239 377 m -22 -22 d s 1210 377 m -17 -18 d s 1177 373 m -13 -14 d s 1149 373 m -14 -14 d s 1120 373 m -13 -14 d s 1091 373 m -12 -13 d s 1062 372 m -12 -12 d s 1033 372 m -12 -12 d s 1005
 372 m -13 -12 d s 976 372 m -11 -11 d s 946 371 m -10 -10 d s 918 371 m -11 -10 d s 889 371 m -10 -10 d s 860 371 m -10 -10 d s 831 371 m -9 -10 d s 803 371 m -10 -10 d s 774 371 m -10 -10 d s 745 371 m -9 -10 d s 716 371 m -9 -10 d s 688 371 m -10
 -10 d s 659 371 m -9 -10 d s 630 370 m -9 -8 d s 601 370 m -8 -8 d s 573 370 m -9 -8 d s 544 370 m -10 -9 d s 516 371 m -10 -10 d s 488 371 m -11 -10 d s 459 371 m -11 -10 d s 318 231 m s 430 371 m -9 -9 d s 318 259 m s 400 370 m -7 -8 d s 318 288 m
 s 371 370 m -7 -8 d s 318 317 m s 342 370 m -7 -8 d s 318 345 m s 6 lw black[ 4 8] 0 sd 3 lw 318 447 m 1860 X s 318 285 m 1860 X s 1 0 0 c[  12 12 ] 0 sd 6 lw 318 366 m 1860 X s
 gr  gr showpage
end
%%EOF
