%!PS-Adobe-2.0 EPSF-2.0
%%BoundingBox:  0 0 567 521
%%Title: Distributions/meffInc_distrCRY_MB-GGd_afterFit_forThesis.eps: canvas
%%Creator: ROOT Version 6.04/16
%%CreationDate: Tue May 19 22:04:33 2020
%%DocumentNeededResources: ProcSet (FontSetInit)
%%EndComments
%%BeginProlog
80 dict begin
/s {stroke} def /l {lineto} def /m {moveto} def /t {translate} def
/r {rotate} def /rl {roll}  def /R {repeat} def
/d {rlineto} def /rm {rmoveto} def /gr {grestore} def /f {eofill} def
/c {setrgbcolor} def /black {0 setgray} def /sd {setdash} def
/cl {closepath} def /sf {scalefont setfont} def /lw {setlinewidth} def
/box {m dup 0 exch d exch 0 d 0 exch neg d cl} def
/NC{systemdict begin initclip end}def/C{NC box clip newpath}def
/bl {box s} def /bf {gsave box gsave f grestore 1 lw [] 0 sd s grestore} def /Y { 0 exch d} def /X { 0 d} def 
/K {{pop pop 0 moveto} exch kshow} bind def
/ita {/ang 15 def gsave [1 0 ang dup sin exch cos div 1 0 0] concat} def 
/mp {newpath /y exch def /x exch def} def
/side {[w .77 mul w .23 mul] .385 w mul sd w 0 l currentpoint t -144 r} def
/mr {mp x y w2 0 360 arc} def /m24 {mr s} def /m20 {mr f} def
/mb {mp x y w2 add m w2 neg 0 d 0 w neg d w 0 d 0 w d cl} def
/mt {mp x y w2 add m w2 neg w neg d w 0 d cl} def
/m21 {mb f} def /m25 {mb s} def /m22 {mt f} def /m26{mt s} def
/m23 {mp x y w2 sub m w2 w d w neg 0 d cl f} def
/m27 {mp x y w2 add m w3 neg w2 neg d w3 w2 neg d w3 w2 d cl s} def
/m28 {mp x w2 sub y w2 sub w3 add m w3 0 d  0 w3 neg d w3 0 d 0 w3 d w3 0 d  0 w3 d w3 neg 0 d 0 w3 d w3 neg 0 d 0 w3 neg d w3 neg 0 d cl s } def
/m29 {mp gsave x w2 sub y w2 add w3 sub m currentpoint t 4 {side} repeat cl fill gr} def
/m30 {mp gsave x w2 sub y w2 add w3 sub m currentpoint t 4 {side} repeat cl s gr} def
/m31 {mp x y w2 sub m 0 w d x w2 sub y m w 0 d x w2 sub y w2 add m w w neg d x w2 sub y w2 sub m w w d s} def
/m32 {mp x y w2 sub m w2 w d w neg 0 d cl s} def
/m33 {mp x y w2 add m w3 neg w2 neg d w3 w2 neg d w3 w2 d cl f} def
/m34 {mp x w2 sub y w2 sub w3 add m w3 0 d  0 w3 neg d w3 0 d 0 w3 d w3 0 d  0 w3 d w3 neg 0 d 0 w3 d w3 neg 0 d 0 w3 neg d w3 neg 0 d cl f } def
/m2 {mp x y w2 sub m 0 w d x w2 sub y m w 0 d s} def
/m5 {mp x w2 sub y w2 sub m w w d x w2 sub y w2 add m w w neg d s} def
%%IncludeResource: ProcSet (FontSetInit)
%%IncludeResource: font Times-Roman
%%IncludeResource: font Times-Italic
%%IncludeResource: font Times-Bold
%%IncludeResource: font Times-BoldItalic
%%IncludeResource: font Helvetica
%%IncludeResource: font Helvetica-Oblique
%%IncludeResource: font Helvetica-Bold
%%IncludeResource: font Helvetica-BoldOblique
%%IncludeResource: font Courier
%%IncludeResource: font Courier-Oblique
%%IncludeResource: font Courier-Bold
%%IncludeResource: font Courier-BoldOblique
%%IncludeResource: font Symbol
%%IncludeResource: font ZapfDingbats
/reEncode {exch findfont dup length dict begin {1 index /FID eq  {pop pop} {def} ifelse } forall /Encoding exch def currentdict end dup /FontName get exch definefont pop } def [/Times-Bold /Times-Italic /Times-BoldItalic /Helvetica /Helvetica-Oblique
 /Helvetica-Bold /Helvetica-BoldOblique /Courier /Courier-Oblique /Courier-Bold /Courier-BoldOblique /Times-Roman /AvantGarde-Book /AvantGarde-BookOblique /AvantGarde-Demi /AvantGarde-DemiOblique /Bookman-Demi /Bookman-DemiItalic /Bookman-Light
 /Bookman-LightItalic /Helvetica-Narrow /Helvetica-Narrow-Bold /Helvetica-Narrow-BoldOblique /Helvetica-Narrow-Oblique /NewCenturySchlbk-Roman /NewCenturySchlbk-Bold /NewCenturySchlbk-BoldItalic /NewCenturySchlbk-Italic /Palatino-Bold
 /Palatino-BoldItalic /Palatino-Italic /Palatino-Roman ] {ISOLatin1Encoding reEncode } forall
%%EndProlog
%%BeginSetup
%%EndSetup
newpath  gsave  .25 .25 scale  gsave  0 0 t black[  ] 0 sd 3 lw 1 1 1 c 2268 2085 0 0 bf black 1 1 1 c 2263 1770 2 313 bf black 1 1 1 c black 1860 1145 319 584 bl 1 1 1 c black 1860 1145 319 584 bl 6 lw 1 1 1 c black 3 lw /w 33 def /w2 {w 2 div} def
 /w3 {w 3 div} def 381 1202 m20 6 lw 3 lw 505 1210 m20 6 lw 3 lw 629 1186 m20 6 lw 3 lw 753 1160 m20 6 lw 3 lw 877 1123 m20 6 lw 3 lw 1001 1094 m20 6 lw 3 lw 1125 1059 m20 6 lw 3 lw 1249 1035 m20 6 lw 3 lw 1373 996 m20 6 lw 3 lw 1497 977 m20 6 lw
 1621 930 m 1 Y s 3 lw 1621 944 m20 6 lw 1745 884 m 7 Y s 1745 918 m 2 Y s 3 lw 1745 904 m20 6 lw 1869 840 m 14 Y s 1869 882 m 6 Y s 3 lw 1869 868 m20 6 lw 1993 849 m 13 Y s 1993 889 m 5 Y s 3 lw 1993 876 m20 6 lw 2117 878 m 8 Y s 2117 913 m 2 Y s 3
 lw 2117 899 m20 6 lw 3 lw 319 584 m 1860 X s
 gsave  2263 1770 2 313 C 1949.08 369.478 t 0 r /Helvetica findfont 81.3741 sf 0 0 m ( [GeV]) show NC gr 
 gsave  2263 1770 2 313 C 1888.07 342.361 t 0 r /Helvetica findfont 54.2494 sf 0 0 m (eff) show NC gr 
 gsave  2263 1770 2 313 C 1823.66 369.478 t 0 r /Helvetica findfont 81.3741 sf 0 0 m (m) show NC gr  319 584 m cl s 381 584 m cl s 443 584 m cl s 505 584 m cl s 567 584 m cl s 629 584 m cl s 691 584 m cl s 753 584 m cl s 815 584 m cl s 877 584 m cl s
 939 584 m cl s 1001 584 m cl s 1063 584 m cl s 1125 584 m cl s 1187 584 m cl s 1249 584 m cl s 1311 584 m cl s 1373 584 m cl s 1435 584 m cl s 1497 584 m cl s 1559 584 m cl s 1621 584 m cl s 1683 584 m cl s 1745 584 m cl s 1807 584 m cl s 1869 584 m
 cl s 1931 584 m cl s 1993 584 m cl s 2055 584 m cl s 2117 584 m cl s 2179 584 m cl s 319 1729 m 1860 X s 319 1729 m cl s 381 1729 m cl s 443 1729 m cl s 505 1729 m cl s 567 1729 m cl s 629 1729 m cl s 691 1729 m cl s 753 1729 m cl s 815 1729 m cl s
 877 1729 m cl s 939 1729 m cl s 1001 1729 m cl s 1063 1729 m cl s 1125 1729 m cl s 1187 1729 m cl s 1249 1729 m cl s 1311 1729 m cl s 1373 1729 m cl s 1435 1729 m cl s 1497 1729 m cl s 1559 1729 m cl s 1621 1729 m cl s 1683 1729 m cl s 1745 1729 m
 cl s 1807 1729 m cl s 1869 1729 m cl s 1931 1729 m cl s 1993 1729 m cl s 2055 1729 m cl s 2117 1729 m cl s 2179 1729 m cl s 319 584 m 1145 Y s
 gsave  2263 1770 2 313 C 166.096 1091.49 t 90 r /Helvetica findfont 81.3741 sf 0 0 m (Events / 200 GeV) show NC gr  341 629 m -22 X s 341 655 m -22 X s 341 674 m -22 X s 341 689 m -22 X s 341 700 m -22 X s 341 710 m -22 X s 341 719 m -22 X s 341 727
 m -22 X s 363 733 m -44 X s
 gsave  2263 1770 2 313 C 300.555 706.269 t 0 r  -36 0 t /Helvetica findfont 64.4212 sf 0 0 m (1) show NC gr  341 778 m -22 X s 341 805 m -22 X s 341 823 m -22 X s 341 838 m -22 X s 341 849 m -22 X s 341 859 m -22 X s 341 868 m -22 X s 341 876 m -22
 X s 363 882 m -44 X s
 gsave  2263 1770 2 313 C 300.555 855.345 t 0 r  -73 0 t /Helvetica findfont 64.4212 sf 0 0 m (10) show NC gr  341 927 m -22 X s 341 954 m -22 X s 341 972 m -22 X s 341 987 m -22 X s 341 998 m -22 X s 341 1008 m -22 X s 341 1017 m -22 X s 341 1025 m
 -22 X s 363 1032 m -44 X s
 gsave  2263 1770 2 313 C 274.567 1030.47 t 0 r /Helvetica findfont 44.0776 sf 0 0 m (2) show NC gr 
 gsave  2263 1770 2 313 C 203.383 1003.35 t 0 r /Helvetica findfont 64.4212 sf 0 0 m (10) show NC gr  341 1076 m -22 X s 341 1103 m -22 X s 341 1121 m -22 X s 341 1136 m -22 X s 341 1148 m -22 X s 341 1158 m -22 X s 341 1166 m -22 X s 341 1174 m -22
 X s 363 1181 m -44 X s
 gsave  2263 1770 2 313 C 274.567 1183.01 t 0 r /Helvetica findfont 44.0776 sf 0 0 m (3) show NC gr 
 gsave  2263 1770 2 313 C 203.383 1152.5 t 0 r /Helvetica findfont 64.4212 sf 0 0 m (10) show NC gr  341 1225 m -22 X s 341 1252 m -22 X s 341 1270 m -22 X s 341 1285 m -22 X s 341 1297 m -22 X s 341 1307 m -22 X s 341 1315 m -22 X s 341 1323 m -22 X
 s 363 1330 m -44 X s
 gsave  2263 1770 2 313 C 274.567 1328.77 t 0 r /Helvetica findfont 44.0776 sf 0 0 m (4) show NC gr 
 gsave  2263 1770 2 313 C 203.383 1301.65 t 0 r /Helvetica findfont 64.4212 sf 0 0 m (10) show NC gr  341 1375 m -22 X s 341 1401 m -22 X s 341 1419 m -22 X s 341 1434 m -22 X s 341 1446 m -22 X s 341 1456 m -22 X s 341 1464 m -22 X s 341 1472 m -22
 X s 363 1479 m -44 X s
 gsave  2263 1770 2 313 C 274.567 1481.3 t 0 r /Helvetica findfont 44.0776 sf 0 0 m (5) show NC gr 
 gsave  2263 1770 2 313 C 203.383 1450.8 t 0 r /Helvetica findfont 64.4212 sf 0 0 m (10) show NC gr  341 1524 m -22 X s 341 1550 m -22 X s 341 1569 m -22 X s 341 1583 m -22 X s 341 1595 m -22 X s 341 1605 m -22 X s 341 1613 m -22 X s 341 1621 m -22 X
 s 363 1628 m -44 X s
 gsave  2263 1770 2 313 C 274.567 1630.45 t 0 r /Helvetica findfont 44.0776 sf 0 0 m (6) show NC gr 
 gsave  2263 1770 2 313 C 203.383 1599.94 t 0 r /Helvetica findfont 64.4212 sf 0 0 m (10) show NC gr  341 1673 m -22 X s 341 1699 m -22 X s 341 1718 m -22 X s 2179 584 m 1145 Y s 2157 629 m 22 X s 2157 655 m 22 X s 2157 674 m 22 X s 2157 689 m 22 X s
 2157 700 m 22 X s 2157 710 m 22 X s 2157 719 m 22 X s 2157 727 m 22 X s 2136 733 m 43 X s 2157 778 m 22 X s 2157 805 m 22 X s 2157 823 m 22 X s 2157 838 m 22 X s 2157 849 m 22 X s 2157 859 m 22 X s 2157 868 m 22 X s 2157 876 m 22 X s 2136 882 m 43 X
 s 2157 927 m 22 X s 2157 954 m 22 X s 2157 972 m 22 X s 2157 987 m 22 X s 2157 998 m 22 X s 2157 1008 m 22 X s 2157 1017 m 22 X s 2157 1025 m 22 X s 2136 1032 m 43 X s 2157 1076 m 22 X s 2157 1103 m 22 X s 2157 1121 m 22 X s 2157 1136 m 22 X s 2157
 1148 m 22 X s 2157 1158 m 22 X s 2157 1166 m 22 X s 2157 1174 m 22 X s 2136 1181 m 43 X s 2157 1225 m 22 X s 2157 1252 m 22 X s 2157 1270 m 22 X s 2157 1285 m 22 X s 2157 1297 m 22 X s 2157 1307 m 22 X s 2157 1315 m 22 X s 2157 1323 m 22 X s 2136
 1330 m 43 X s 2157 1375 m 22 X s 2157 1401 m 22 X s 2157 1419 m 22 X s 2157 1434 m 22 X s 2157 1446 m 22 X s 2157 1456 m 22 X s 2157 1464 m 22 X s 2157 1472 m 22 X s 2136 1479 m 43 X s 2157 1524 m 22 X s 2157 1550 m 22 X s 2157 1569 m 22 X s 2157
 1583 m 22 X s 2157 1595 m 22 X s 2157 1605 m 22 X s 2157 1613 m 22 X s 2157 1621 m 22 X s 2136 1628 m 43 X s 2157 1673 m 22 X s 2157 1699 m 22 X s 2157 1718 m 22 X s 1 1 0 c black 1 1 0 c 319 584 m 614 Y 124 X 12 Y 124 X -22 Y 124 X -31 Y 124 X -26
 Y 124 X -38 Y 124 X -27 Y 124 X -34 Y 124 X -32 Y 124 X -23 Y 124 X -45 Y 124 X -23 Y 124 X -29 Y 124 X -34 Y 124 X 41 Y 124 X -303 Y f black 1 1 0 c black 319 1198 m 124 X 12 Y 124 X -22 Y 124 X -31 Y 124 X -26 Y 124 X -38 Y 124 X -27 Y 124 X -34 Y
 124 X -32 Y 124 X -23 Y 124 X -45 Y 124 X -23 Y 124 X -29 Y 124 X -34 Y 124 X 41 Y 124 X s 0.999 0.999 0.999 c black 0.999 0.999 0.999 c 319 584 m 352 Y 124 X 2 Y 124 X -31 Y 124 X -41 Y 124 X -22 Y 124 X -29 Y 124 X -52 Y 124 X -23 Y 124 X -40 Y
 124 X -14 Y 124 X -35 Y 124 X -67 Y 124 X 23 Y 124 X -23 Y 124 X 50 Y 124 X -50 Y f black 0.999 0.999 0.999 c black 319 936 m 124 X 2 Y 124 X -31 Y 124 X -41 Y 124 X -22 Y 124 X -29 Y 124 X -52 Y 124 X -23 Y 124 X -40 Y 124 X -14 Y 124 X -35 Y 124 X
 -67 Y 124 X 23 Y 124 X -23 Y 124 X 50 Y 124 X s 1 1 1 c black 319 936 m 124 X 2 Y 124 X -31 Y 124 X -41 Y 124 X -22 Y 124 X -29 Y 124 X -52 Y 124 X -23 Y 124 X -40 Y 124 X -14 Y 124 X -35 Y 124 X -67 Y 124 X 23 Y 124 X -23 Y 124 X 50 Y 124 X s 0.4
 0.6 1 c black 0.4 0.6 1 c 319 584 m 352 Y 124 X 2 Y 124 X -31 Y 124 X -41 Y 124 X -22 Y 124 X -29 Y 124 X -52 Y 124 X -23 Y 124 X -40 Y 124 X -14 Y 124 X -35 Y 124 X -67 Y 124 X 23 Y 124 X -23 Y 124 X 50 Y 124 X -50 Y f black 0.4 0.6 1 c black 319
 936 m 124 X 2 Y 124 X -31 Y 124 X -41 Y 124 X -22 Y 124 X -29 Y 124 X -52 Y 124 X -23 Y 124 X -40 Y 124 X -14 Y 124 X -35 Y 124 X -67 Y 124 X 23 Y 124 X -23 Y 124 X 50 Y 124 X s 0.999 0.999 0.999 c black 0.999 0.999 0.999 c 319 584 m 342 Y 248 X -39
 Y 124 X -49 Y 124 X -20 Y 124 X -34 Y 124 X -64 Y 124 X -10 Y 124 X -42 Y 124 X -15 Y 124 X -69 Y 496 X 24 Y 124 X -24 Y f black 0.999 0.999 0.999 c black 319 926 m 248 X -39 Y 124 X -49 Y 124 X -20 Y 124 X -34 Y 124 X -64 Y 124 X -10 Y 124 X -42 Y
 124 X -15 Y 124 X -69 Y 496 X 24 Y 124 X s 1 1 1 c black 319 926 m 248 X -39 Y 124 X -49 Y 124 X -20 Y 124 X -34 Y 124 X -64 Y 124 X -10 Y 124 X -42 Y 124 X -15 Y 124 X -69 Y 496 X 24 Y 124 X s 0.6 1 0.6 c black 0.6 1 0.6 c 319 584 m 342 Y 248 X -39
 Y 124 X -49 Y 124 X -20 Y 124 X -34 Y 124 X -64 Y 124 X -10 Y 124 X -42 Y 124 X -15 Y 124 X -69 Y 496 X 24 Y 124 X -24 Y f black 0.6 1 0.6 c black 319 926 m 248 X -39 Y 124 X -49 Y 124 X -20 Y 124 X -34 Y 124 X -64 Y 124 X -10 Y 124 X -42 Y 124 X
 -15 Y 124 X -69 Y 496 X 24 Y 124 X s 0.999 0.999 0.999 c black 0.999 0.999 0.999 c 319 584 m 75 Y 124 X 78 Y 124 X -65 Y 124 X 44 Y 124 X -51 Y 124 X -39 Y 124 X -42 Y 124 X 19 Y 124 X -19 Y 868 X f black 0.999 0.999 0.999 c black 319 659 m 124 X 78
 Y 124 X -65 Y 124 X 44 Y 124 X -51 Y 124 X -39 Y 124 X -42 Y 124 X 19 Y 124 X -19 Y 868 X s 1 1 1 c black 319 659 m 124 X 78 Y 124 X -65 Y 124 X 44 Y 124 X -51 Y 124 X -39 Y 124 X -42 Y 124 X 19 Y 124 X -19 Y 868 X s 1 0.4 0.6 c black 1 0.4 0.6 c
 319 584 m 75 Y 124 X 78 Y 124 X -65 Y 124 X 44 Y 124 X -51 Y 124 X -39 Y 124 X -42 Y 124 X 19 Y 124 X -19 Y 868 X f black 1 0.4 0.6 c black 319 659 m 124 X 78 Y 124 X -65 Y 124 X 44 Y 124 X -51 Y 124 X -39 Y 124 X -42 Y 124 X 19 Y 124 X -19 Y 868 X
 s 1 0 0 c 6 lw 1 1 1 c black 1 0 0 c 319 1198 m 124 X 12 Y 124 X -22 Y 124 X -31 Y 124 X -26 Y 124 X -38 Y 124 X -27 Y 124 X -34 Y 124 X -32 Y 124 X -23 Y 124 X -45 Y 124 X -23 Y 124 X -28 Y 124 X -35 Y 124 X 41 Y 124 X s black 3 lw 1 0 0 c 1 lw <<
 /PatternType 1 /PaintType 2 /TilingType 1 /BBox [ 0 0 100 100 ] /XStep 100 /YStep 100 /PaintProc { begin gsave 0 100 m 100 0 l s gr end } >> [ 0.24 0 0 0.24 0 0 ] makepattern /P05 exch def /cs {[/Pattern /DeviceRGB] setcolorspace} def /FA {f
 [/DeviceRGB] setcolorspace} def cs 1 0 0 P05 setcolor 319 584 m 616 Y 124 X 12 Y 124 X -22 Y 124 X -31 Y 124 X -26 Y 124 X -38 Y 124 X -25 Y 124 X -34 Y 124 X -31 Y 124 X -23 Y 124 X -45 Y 124 X -22 Y 124 X -28 Y 124 X -33 Y 124 X 40 Y 124 X -310 Y
 295 Y -124 X -41 Y -124 X 35 Y -124 X 29 Y -124 X 25 Y -124 X 43 Y -124 X 25 Y -124 X 33 Y -124 X 34 Y -124 X 28 Y -124 X 38 Y -124 X 27 Y -124 X 31 Y -124 X 22 Y -124 X -12 Y -124 X -612 Y FA 6 lw 1 1 1 c 15 lw 1869 848 m -7 Y s 1869 841 m cl s
 1993 855 m -5 Y s 1993 850 m cl s 2117 879 m s 2117 879 m cl s black 1 1 1 c 3 lw /w 43 def /w2 {w 2 div} def /w3 {w 3 div} def 381 1202 505 1210 629 1186 753 1160 877 1123 1001 1094 1125 1059 1249 1035 1373 996 1497 977 1621 944 1745 904 1869 868
 1993 876 2117 899 15 { m20} R 15 lw black 6 lw 1 1 1 c black 3 lw /w 33 def /w2 {w 2 div} def /w3 {w 3 div} def 381 1202 m20 6 lw 3 lw 505 1210 m20 6 lw 3 lw 629 1186 m20 6 lw 3 lw 753 1160 m20 6 lw 3 lw 877 1123 m20 6 lw 3 lw 1001 1094 m20 6 lw 3
 lw 1125 1059 m20 6 lw 3 lw 1249 1035 m20 6 lw 3 lw 1373 996 m20 6 lw 3 lw 1497 977 m20 6 lw 1621 930 m 1 Y s 3 lw 1621 944 m20 6 lw 1745 884 m 7 Y s 1745 918 m 2 Y s 3 lw 1745 904 m20 6 lw 1869 840 m 14 Y s 1869 882 m 6 Y s 3 lw 1869 868 m20 6 lw
 1993 849 m 13 Y s 1993 889 m 5 Y s 3 lw 1993 876 m20 6 lw 2117 878 m 8 Y s 2117 913 m 2 Y s 3 lw 2117 899 m20 6 lw 1621 931 m -1 Y s 1621 930 m cl s 1745 918 m 2 Y s 1745 920 m cl s 1745 891 m -6 Y s 1745 885 m cl s 1869 882 m 6 Y s 1869 888 m cl s
 1869 854 m -13 Y s 1869 841 m cl s 1993 889 m 6 Y s 1993 895 m cl s 1993 862 m -12 Y s 1993 850 m cl s 2117 913 m 3 Y s 2117 916 m cl s 2117 886 m -7 Y s 2117 879 m cl s 3 lw 381 1202 505 1210 629 1186 753 1160 877 1123 1001 1094 1125 1059 1249 1035
 1373 996 1497 977 1621 944 1745 904 1869 868 1993 876 2117 899 15 { m20} R 6 lw 3 lw 319 584 m 1860 X s 319 584 m cl s 381 584 m cl s 443 584 m cl s 505 584 m cl s 567 584 m cl s 629 584 m cl s 691 584 m cl s 753 584 m cl s 815 584 m cl s 877 584 m
 cl s 939 584 m cl s 1001 584 m cl s 1063 584 m cl s 1125 584 m cl s 1187 584 m cl s 1249 584 m cl s 1311 584 m cl s 1373 584 m cl s 1435 584 m cl s 1497 584 m cl s 1559 584 m cl s 1621 584 m cl s 1683 584 m cl s 1745 584 m cl s 1807 584 m cl s 1869
 584 m cl s 1931 584 m cl s 1993 584 m cl s 2055 584 m cl s 2117 584 m cl s 2179 584 m cl s 319 1729 m 1860 X s 319 1729 m cl s 381 1729 m cl s 443 1729 m cl s 505 1729 m cl s 567 1729 m cl s 629 1729 m cl s 691 1729 m cl s 753 1729 m cl s 815 1729 m
 cl s 877 1729 m cl s 939 1729 m cl s 1001 1729 m cl s 1063 1729 m cl s 1125 1729 m cl s 1187 1729 m cl s 1249 1729 m cl s 1311 1729 m cl s 1373 1729 m cl s 1435 1729 m cl s 1497 1729 m cl s 1559 1729 m cl s 1621 1729 m cl s 1683 1729 m cl s 1745
 1729 m cl s 1807 1729 m cl s 1869 1729 m cl s 1931 1729 m cl s 1993 1729 m cl s 2055 1729 m cl s 2117 1729 m cl s 2179 1729 m cl s 319 584 m 1145 Y s 341 629 m -22 X s 341 655 m -22 X s 341 674 m -22 X s 341 689 m -22 X s 341 700 m -22 X s 341 710 m
 -22 X s 341 719 m -22 X s 341 727 m -22 X s 363 733 m -44 X s 341 778 m -22 X s 341 805 m -22 X s 341 823 m -22 X s 341 838 m -22 X s 341 849 m -22 X s 341 859 m -22 X s 341 868 m -22 X s 341 876 m -22 X s 363 882 m -44 X s 341 927 m -22 X s 341 954
 m -22 X s 341 972 m -22 X s 341 987 m -22 X s 341 998 m -22 X s 341 1008 m -22 X s 341 1017 m -22 X s 341 1025 m -22 X s 363 1032 m -44 X s 341 1076 m -22 X s 341 1103 m -22 X s 341 1121 m -22 X s 341 1136 m -22 X s 341 1148 m -22 X s 341 1158 m -22
 X s 341 1166 m -22 X s 341 1174 m -22 X s 363 1181 m -44 X s 341 1225 m -22 X s 341 1252 m -22 X s 341 1270 m -22 X s 341 1285 m -22 X s 341 1297 m -22 X s 341 1307 m -22 X s 341 1315 m -22 X s 341 1323 m -22 X s 363 1330 m -44 X s 341 1375 m -22 X
 s 341 1401 m -22 X s 341 1419 m -22 X s 341 1434 m -22 X s 341 1446 m -22 X s 341 1456 m -22 X s 341 1464 m -22 X s 341 1472 m -22 X s 363 1479 m -44 X s 341 1524 m -22 X s 341 1550 m -22 X s 341 1569 m -22 X s 341 1583 m -22 X s 341 1595 m -22 X s
 341 1605 m -22 X s 341 1613 m -22 X s 341 1621 m -22 X s 363 1628 m -44 X s 341 1673 m -22 X s 341 1699 m -22 X s 341 1718 m -22 X s 2179 584 m 1145 Y s 2157 629 m 22 X s 2157 655 m 22 X s 2157 674 m 22 X s 2157 689 m 22 X s 2157 700 m 22 X s 2157
 710 m 22 X s 2157 719 m 22 X s 2157 727 m 22 X s 2136 733 m 43 X s 2157 778 m 22 X s 2157 805 m 22 X s 2157 823 m 22 X s 2157 838 m 22 X s 2157 849 m 22 X s 2157 859 m 22 X s 2157 868 m 22 X s 2157 876 m 22 X s 2136 882 m 43 X s 2157 927 m 22 X s
 2157 954 m 22 X s 2157 972 m 22 X s 2157 987 m 22 X s 2157 998 m 22 X s 2157 1008 m 22 X s 2157 1017 m 22 X s 2157 1025 m 22 X s 2136 1032 m 43 X s 2157 1076 m 22 X s 2157 1103 m 22 X s 2157 1121 m 22 X s 2157 1136 m 22 X s 2157 1148 m 22 X s 2157
 1158 m 22 X s 2157 1166 m 22 X s 2157 1174 m 22 X s 2136 1181 m 43 X s 2157 1225 m 22 X s 2157 1252 m 22 X s 2157 1270 m 22 X s 2157 1285 m 22 X s 2157 1297 m 22 X s 2157 1307 m 22 X s 2157 1315 m 22 X s 2157 1323 m 22 X s 2136 1330 m 43 X s 2157
 1375 m 22 X s 2157 1401 m 22 X s 2157 1419 m 22 X s 2157 1434 m 22 X s 2157 1446 m 22 X s 2157 1456 m 22 X s 2157 1464 m 22 X s 2157 1472 m 22 X s 2136 1479 m 43 X s 2157 1524 m 22 X s 2157 1550 m 22 X s 2157 1569 m 22 X s 2157 1583 m 22 X s 2157
 1595 m 22 X s 2157 1605 m 22 X s 2157 1613 m 22 X s 2157 1621 m 22 X s 2136 1628 m 43 X s 2157 1673 m 22 X s 2157 1699 m 22 X s 2157 1718 m 22 X s
 gsave  2263 1770 2 313 C 406.765 1447.41 t 0 r /Helvetica findfont 64.4212 sf 0 0 m (CRY for MB\255GGd) show NC gr 
 gsave  2263 1770 2 313 C 1464.36 1616.89 t 0 r /Helvetica findfont 64.4212 sf 0 0 m (SM Total) show NC gr  1 1 1 c 1338 1603 m 107 X 74 Y -107 X f 1 0 0 c 6 lw 1338 1640 m 107 X s black
 gsave  2263 1770 2 313 C 1464.36 1511.81 t 0 r /Helvetica findfont 64.4212 sf 0 0 m (Data) show NC gr  1391 1502 m 64 Y s 3 lw 1391 1534 m20 6 lw
 gsave  2263 1770 2 313 C 1464.36 1406.73 t 0 r /Helvetica findfont 64.4212 sf 0 0 m (GAMMAjets) show NC gr  1 1 0 c 3 lw 1338 1391 m 107 X 74 Y -107 X f 6 lw black 3 lw 1338 1465 m 107 X s 1338 1391 m 107 X s 1445 1391 m 74 Y s 1338 1391 m 74 Y s
 gsave  2263 1770 2 313 C 1464.36 1298.26 t 0 r /Helvetica findfont 64.4212 sf 0 0 m (W+jets) show NC gr  0.4 0.6 1 c 1338 1284 m 107 X 75 Y -107 X f black 1338 1359 m 107 X s 1338 1284 m 107 X s 1445 1284 m 75 Y s 1338 1284 m 75 Y s
 gsave  2263 1770 2 313 C 1498.25 1193.18 t 0 r /Helvetica findfont 64.4212 sf 0 0 m (\(+EW\) & single top) show NC gr 
 gsave  2263 1770 2 313 C 1481.3 1193.18 t 0 r /Helvetica findfont 64.4212 sf 0 0 m (t) show NC gr  1481 1244 m 17 X s
 gsave  2263 1770 2 313 C 1464.36 1193.18 t 0 r /Helvetica findfont 64.4212 sf 0 0 m (t) show NC gr  0.6 1 0.6 c 1338 1178 m 107 X 75 Y -107 X f black 1338 1253 m 107 X s 1338 1178 m 107 X s 1445 1178 m 75 Y s 1338 1178 m 75 Y s
 gsave  2263 1770 2 313 C 1464.36 1088.1 t 0 r /Helvetica findfont 64.4212 sf 0 0 m (Diboson) show NC gr  1 0.4 0.6 c 1338 1072 m 107 X 74 Y -107 X f black 1338 1146 m 107 X s 1338 1072 m 107 X s 1445 1072 m 74 Y s 1338 1072 m 74 Y s
 gsave  2263 1770 2 313 C 911.832 1566.05 t 0 r /Helvetica findfont 44.0776 sf 0 0 m (\2551) show NC gr 
 gsave  2263 1770 2 313 C 471.17 1535.54 t 0 r /Helvetica findfont 64.4212 sf 0 0 m (=13TeV, 139 fb) show NC gr 
 gsave  2263 1770 2 313 C 440.662 1535.54 t 0 r /Helvetica findfont 64.4212 sf 0 0 m (s) show NC gr  6 lw 420 1573 m 7 -41 d s 3 lw 427 1532 m 7 61 d s 434 1593 m 37 X s 1 1 1 c 2254 561 2 2 bf black 1 1 1 c black 1860 358 318 187 bl 1 1 1 c black
 1860 358 318 187 bl 6 lw 1 1 1 c black 3 lw 380 376 m20 6 lw 3 lw 504 365 m20 6 lw 3 lw 628 361 m20 6 lw 3 lw 752 372 m20 6 lw 3 lw 876 348 m20 6 lw 3 lw 1000 369 m20 6 lw 3 lw 1124 348 m20 6 lw 3 lw 1248 372 m20 6 lw 3 lw 1372 357 m20 6 lw 3 lw
 1496 367 m20 6 lw 3 lw 1620 399 m20 6 lw 3 lw 1744 354 m20 6 lw 3 lw 1868 337 m20 6 lw 3 lw 1992 459 m20 6 lw 3 lw 2116 401 m20 6 lw 3 lw 318 187 m 1860 X s
 gsave  2254 561 2 2 C 1959.25 33.8971 t 0 r /Helvetica findfont 78.1689 sf 0 0 m ( [GeV]) show NC gr 
 gsave  2254 561 2 2 C 1901.63 13.5588 t 0 r /Helvetica findfont 50.9797 sf 0 0 m (eff) show NC gr 
 gsave  2254 561 2 2 C 1840.61 33.8971 t 0 r /Helvetica findfont 78.1689 sf 0 0 m (m) show NC gr  318 201 m -14 Y s 380 194 m -7 Y s 442 194 m -7 Y s 504 194 m -7 Y s 566 194 m -7 Y s 628 201 m -14 Y s 690 194 m -7 Y s 752 194 m -7 Y s 814 194 m -7 Y
 s 876 194 m -7 Y s 938 201 m -14 Y s 1000 194 m -7 Y s 1062 194 m -7 Y s 1124 194 m -7 Y s 1186 194 m -7 Y s 1248 201 m -14 Y s 1310 194 m -7 Y s 1372 194 m -7 Y s 1434 194 m -7 Y s 1496 194 m -7 Y s 1558 201 m -14 Y s 1620 194 m -7 Y s 1682 194 m
 -7 Y s 1744 194 m -7 Y s 1806 194 m -7 Y s 1868 201 m -14 Y s 1930 194 m -7 Y s 1992 194 m -7 Y s 2054 194 m -7 Y s 2116 194 m -7 Y s 2178 201 m -14 Y s
 gsave  2254 561 2 2 C 227.111 118.64 t 0 r /Helvetica findfont 78.1689 sf 0 0 m (1000) show NC gr 
 gsave  2254 561 2 2 C 538.964 118.64 t 0 r /Helvetica findfont 78.1689 sf 0 0 m (1500) show NC gr 
 gsave  2254 561 2 2 C 847.428 118.64 t 0 r /Helvetica findfont 78.1689 sf 0 0 m (2000) show NC gr 
 gsave  2254 561 2 2 C 1159.28 118.64 t 0 r /Helvetica findfont 78.1689 sf 0 0 m (2500) show NC gr 
 gsave  2254 561 2 2 C 1467.74 118.64 t 0 r /Helvetica findfont 78.1689 sf 0 0 m (3000) show NC gr 
 gsave  2254 561 2 2 C 1779.6 118.64 t 0 r /Helvetica findfont 78.1689 sf 0 0 m (3500) show NC gr 
 gsave  2254 561 2 2 C 2088.06 118.64 t 0 r /Helvetica findfont 78.1689 sf 0 0 m (4000) show NC gr  318 545 m 1860 X s 318 531 m 14 Y s 380 538 m 7 Y s 442 538 m 7 Y s 504 538 m 7 Y s 566 538 m 7 Y s 628 531 m 14 Y s 690 538 m 7 Y s 752 538 m 7 Y s
 814 538 m 7 Y s 876 538 m 7 Y s 938 531 m 14 Y s 1000 538 m 7 Y s 1062 538 m 7 Y s 1124 538 m 7 Y s 1186 538 m 7 Y s 1248 531 m 14 Y s 1310 538 m 7 Y s 1372 538 m 7 Y s 1434 538 m 7 Y s 1496 538 m 7 Y s 1558 531 m 14 Y s 1620 538 m 7 Y s 1682 538 m
 7 Y s 1744 538 m 7 Y s 1806 538 m 7 Y s 1868 531 m 14 Y s 1930 538 m 7 Y s 1992 538 m 7 Y s 2054 538 m 7 Y s 2116 538 m 7 Y s 2178 531 m 14 Y s 318 187 m 358 Y s
 gsave  2254 561 2 2 C 166.096 284.736 t 90 r /Helvetica findfont 67.9729 sf 0 0 m (Data/SM) show NC gr  361 203 m -43 X s 339 220 m -21 X s 339 236 m -21 X s 339 252 m -21 X s 339 268 m -21 X s 361 285 m -43 X s 339 301 m -21 X s 339 317 m -21 X s
 339 334 m -21 X s 339 350 m -21 X s 361 366 m -43 X s 339 382 m -21 X s 339 399 m -21 X s 339 415 m -21 X s 339 431 m -21 X s 361 447 m -43 X s 339 464 m -21 X s 339 480 m -21 X s 339 496 m -21 X s 339 512 m -21 X s 361 529 m -43 X s 361 203 m -43 X
 s 339 187 m -21 X s 361 529 m -43 X s
 gsave  2254 561 2 2 C 261.008 183.044 t 0 r /Helvetica findfont 57.777 sf 0 0 m (0) show NC gr 
 gsave  2254 561 2 2 C 213.552 261.008 t 0 r /Helvetica findfont 57.777 sf 0 0 m (0.5) show NC gr 
 gsave  2254 561 2 2 C 271.177 342.361 t 0 r /Helvetica findfont 57.777 sf 0 0 m (1) show NC gr 
 gsave  2254 561 2 2 C 213.552 423.714 t 0 r /Helvetica findfont 57.777 sf 0 0 m (1.5) show NC gr 
 gsave  2254 561 2 2 C 261.008 505.067 t 0 r /Helvetica findfont 57.777 sf 0 0 m (2) show NC gr  2178 187 m 358 Y s 2135 203 m 43 X s 2157 220 m 21 X s 2157 236 m 21 X s 2157 252 m 21 X s 2157 268 m 21 X s 2135 285 m 43 X s 2157 301 m 21 X s 2157 317
 m 21 X s 2157 334 m 21 X s 2157 350 m 21 X s 2135 366 m 43 X s 2157 382 m 21 X s 2157 399 m 21 X s 2157 415 m 21 X s 2157 431 m 21 X s 2135 447 m 43 X s 2157 464 m 21 X s 2157 480 m 21 X s 2157 496 m 21 X s 2157 512 m 21 X s 2135 529 m 43 X s 2135
 203 m 43 X s 2157 187 m 21 X s 2135 529 m 43 X s 9 lw 1248 386 m 3 Y s 1248 389 m cl s 1248 359 m -3 Y s 1248 356 m cl s 1372 370 m 7 Y s 1372 377 m cl s 1372 343 m -6 Y s 1372 337 m cl s 1496 380 m 12 Y s 1496 392 m cl s 1496 353 m -11 Y s 1496 342
 m cl s 1620 413 m 25 Y s 1620 438 m cl s 1620 386 m -25 Y s 1620 361 m cl s 1744 368 m 27 Y s 1744 395 m cl s 1744 341 m -26 Y s 1744 315 m cl s 1868 351 m 35 Y s 1868 386 m cl s 1868 324 m -33 Y s 1868 291 m cl s 1992 472 m 73 Y s 1992 545 m cl s
 1992 445 m -69 Y s 1992 376 m cl s 2116 414 m 42 Y s 2116 456 m cl s 2116 387 m -40 Y s 2116 347 m cl s 3 lw 380 376 504 365 628 361 752 372 876 348 1000 369 1124 348 1248 372 1372 357 1496 367 1620 399 1744 354 1868 337 1992 459 2116 401 15 { m20}
 R 9 lw 1 0 0 c 6 lw black 3 lw 1 0 0 c 2178 227 m s 2178 255 m s 2178 284 m s 2178 312 m s 2178 341 m s 2178 369 m -23 -23 d s 2166 386 m -40 -40 d s 2137 386 m -39 -40 d s 2109 386 m -40 -40 d s 2080 386 m -39 -40 d s 2051 386 m -39 -40 d s 2022
 386 m -39 -40 d s 1994 386 m -40 -40 d s 1965 386 m -38 -38 d s 1936 386 m -38 -38 d s 1906 384 m -36 -36 d s 1878 384 m -37 -36 d s 1849 384 m -37 -36 d s 1820 384 m -34 -34 d s 1790 382 m -33 -32 d s 1761 382 m -33 -32 d s 1732 382 m -32 -32 d s
 1703 382 m -27 -27 d s 1670 378 m -23 -23 d s 1641 378 m -23 -23 d s 1613 378 m -23 -23 d s 1584 378 m -23 -23 d s 1558 352 m -1 Y s 1558 380 m -29 -29 d s 1530 381 m -30 -30 d s 1501 381 m -29 -30 d s 1472 381 m -29 -30 d s 1444 381 m -28 -27 d s
 1413 379 m -25 -25 d s 1384 379 m -25 -25 d s 1355 379 m -25 -25 d s 1327 379 m -23 -24 d s 1296 377 m -21 -22 d s 1267 377 m -21 -22 d s 1239 377 m -21 -22 d s 1210 377 m -21 -22 d s 1180 376 m -19 -20 d s 1152 376 m -19 -20 d s 1123 376 m -19 -20
 d s 1094 376 m -19 -20 d s 1066 376 m -16 -16 d s 1034 372 m -13 -12 d s 1005 372 m -13 -12 d s 976 372 m -12 -12 d s 948 372 m -13 -12 d s 919 372 m -12 -12 d s 890 372 m -12 -12 d s 861 372 m -12 -12 d s 833 372 m -13 -12 d s 803 371 m -10 -10 d s
 774 371 m -10 -10 d s 746 371 m -11 -10 d s 717 371 m -10 -10 d s 688 371 m -10 -10 d s 659 371 m -9 -10 d s 630 371 m -9 -10 d s 602 371 m -10 -10 d s 573 371 m -9 -9 d s 544 371 m -9 -9 d s 515 371 m -9 -9 d s 487 371 m -9 -9 d s 458 371 m -9 -9 d
 s 318 231 m s 430 371 m -10 -10 d s 318 259 m s 401 371 m -10 -10 d s 318 288 m s 372 371 m -9 -10 d s 318 317 m s 344 371 m -10 -10 d s 318 345 m s 6 lw black[ 4 8] 0 sd 3 lw 318 447 m 1860 X s 318 285 m 1860 X s 1 0 0 c[  12 12 ] 0 sd 6 lw 318 366
 m 1860 X s
 gr  gr showpage
end
%%EOF
