%!PS-Adobe-2.0 EPSF-2.0
%%BoundingBox:  0 0 567 521
%%Title: Distributions/meffInc_distrSR_MB-C_beforeFit_forThesis.eps: canvas
%%Creator: ROOT Version 6.04/16
%%CreationDate: Tue May 19 22:05:14 2020
%%DocumentNeededResources: ProcSet (FontSetInit)
%%EndComments
%%BeginProlog
80 dict begin
/s {stroke} def /l {lineto} def /m {moveto} def /t {translate} def
/r {rotate} def /rl {roll}  def /R {repeat} def
/d {rlineto} def /rm {rmoveto} def /gr {grestore} def /f {eofill} def
/c {setrgbcolor} def /black {0 setgray} def /sd {setdash} def
/cl {closepath} def /sf {scalefont setfont} def /lw {setlinewidth} def
/box {m dup 0 exch d exch 0 d 0 exch neg d cl} def
/NC{systemdict begin initclip end}def/C{NC box clip newpath}def
/bl {box s} def /bf {gsave box gsave f grestore 1 lw [] 0 sd s grestore} def /Y { 0 exch d} def /X { 0 d} def 
/K {{pop pop 0 moveto} exch kshow} bind def
/ita {/ang 15 def gsave [1 0 ang dup sin exch cos div 1 0 0] concat} def 
/mp {newpath /y exch def /x exch def} def
/side {[w .77 mul w .23 mul] .385 w mul sd w 0 l currentpoint t -144 r} def
/mr {mp x y w2 0 360 arc} def /m24 {mr s} def /m20 {mr f} def
/mb {mp x y w2 add m w2 neg 0 d 0 w neg d w 0 d 0 w d cl} def
/mt {mp x y w2 add m w2 neg w neg d w 0 d cl} def
/m21 {mb f} def /m25 {mb s} def /m22 {mt f} def /m26{mt s} def
/m23 {mp x y w2 sub m w2 w d w neg 0 d cl f} def
/m27 {mp x y w2 add m w3 neg w2 neg d w3 w2 neg d w3 w2 d cl s} def
/m28 {mp x w2 sub y w2 sub w3 add m w3 0 d  0 w3 neg d w3 0 d 0 w3 d w3 0 d  0 w3 d w3 neg 0 d 0 w3 d w3 neg 0 d 0 w3 neg d w3 neg 0 d cl s } def
/m29 {mp gsave x w2 sub y w2 add w3 sub m currentpoint t 4 {side} repeat cl fill gr} def
/m30 {mp gsave x w2 sub y w2 add w3 sub m currentpoint t 4 {side} repeat cl s gr} def
/m31 {mp x y w2 sub m 0 w d x w2 sub y m w 0 d x w2 sub y w2 add m w w neg d x w2 sub y w2 sub m w w d s} def
/m32 {mp x y w2 sub m w2 w d w neg 0 d cl s} def
/m33 {mp x y w2 add m w3 neg w2 neg d w3 w2 neg d w3 w2 d cl f} def
/m34 {mp x w2 sub y w2 sub w3 add m w3 0 d  0 w3 neg d w3 0 d 0 w3 d w3 0 d  0 w3 d w3 neg 0 d 0 w3 d w3 neg 0 d 0 w3 neg d w3 neg 0 d cl f } def
/m2 {mp x y w2 sub m 0 w d x w2 sub y m w 0 d s} def
/m5 {mp x w2 sub y w2 sub m w w d x w2 sub y w2 add m w w neg d s} def
%%IncludeResource: ProcSet (FontSetInit)
%%IncludeResource: font Times-Roman
%%IncludeResource: font Times-Italic
%%IncludeResource: font Times-Bold
%%IncludeResource: font Times-BoldItalic
%%IncludeResource: font Helvetica
%%IncludeResource: font Helvetica-Oblique
%%IncludeResource: font Helvetica-Bold
%%IncludeResource: font Helvetica-BoldOblique
%%IncludeResource: font Courier
%%IncludeResource: font Courier-Oblique
%%IncludeResource: font Courier-Bold
%%IncludeResource: font Courier-BoldOblique
%%IncludeResource: font Symbol
%%IncludeResource: font ZapfDingbats
/reEncode {exch findfont dup length dict begin {1 index /FID eq  {pop pop} {def} ifelse } forall /Encoding exch def currentdict end dup /FontName get exch definefont pop } def [/Times-Bold /Times-Italic /Times-BoldItalic /Helvetica /Helvetica-Oblique
 /Helvetica-Bold /Helvetica-BoldOblique /Courier /Courier-Oblique /Courier-Bold /Courier-BoldOblique /Times-Roman /AvantGarde-Book /AvantGarde-BookOblique /AvantGarde-Demi /AvantGarde-DemiOblique /Bookman-Demi /Bookman-DemiItalic /Bookman-Light
 /Bookman-LightItalic /Helvetica-Narrow /Helvetica-Narrow-Bold /Helvetica-Narrow-BoldOblique /Helvetica-Narrow-Oblique /NewCenturySchlbk-Roman /NewCenturySchlbk-Bold /NewCenturySchlbk-BoldItalic /NewCenturySchlbk-Italic /Palatino-Bold
 /Palatino-BoldItalic /Palatino-Italic /Palatino-Roman ] {ISOLatin1Encoding reEncode } forall
%%EndProlog
%%BeginSetup
%%EndSetup
newpath  gsave  .25 .25 scale  gsave  0 0 t black[  ] 0 sd 3 lw 1 1 1 c 2268 2085 0 0 bf black 1 1 1 c 2263 1770 2 313 bf black 1 1 1 c black 1860 1145 319 584 bl 1 1 1 c black 1860 1145 319 584 bl 6 lw 1 1 1 c black 3 lw /w 33 def /w2 {w 2 div} def
 /w3 {w 3 div} def 374 1148 m20 6 lw 3 lw 483 1119 m20 6 lw 3 lw 593 1092 m20 6 lw 3 lw 702 1062 m20 6 lw 3 lw 812 1025 m20 6 lw 3 lw 921 1000 m20 6 lw 3 lw 1030 974 m20 6 lw 3 lw 1140 933 m20 6 lw 1249 877 m s 3 lw 1249 891 m20 6 lw 1359 855 m 3 Y s
 3 lw 1359 872 m20 6 lw 1468 874 m 1 Y s 3 lw 1468 888 m20 6 lw 1578 789 m 17 Y s 1578 833 m 6 Y s 3 lw 1578 819 m20 6 lw 1687 686 m 57 Y s 1687 770 m 17 Y s 3 lw 1687 756 m20 6 lw 1796 730 m 36 Y s 1796 793 m 12 Y s 3 lw 1796 779 m20 6 lw 1906 584 m
 119 Y s 1906 730 m 26 Y s 3 lw 1906 716 m20 6 lw 2125 584 m 119 Y s 2125 730 m 26 Y s 3 lw 2125 716 m20 6 lw 3 lw 319 584 m 1860 X s
 gsave  2263 1770 2 313 C 1949.08 369.478 t 0 r /Helvetica findfont 81.3741 sf 0 0 m ( [GeV]) show NC gr 
 gsave  2263 1770 2 313 C 1888.07 342.361 t 0 r /Helvetica findfont 54.2494 sf 0 0 m (eff) show NC gr 
 gsave  2263 1770 2 313 C 1823.66 369.478 t 0 r /Helvetica findfont 81.3741 sf 0 0 m (m) show NC gr  538 584 m cl s 593 584 m cl s 647 584 m cl s 702 584 m cl s 757 584 m cl s 812 584 m cl s 866 584 m cl s 921 584 m cl s 976 584 m cl s 1030 584 m cl
 s 1085 584 m cl s 1140 584 m cl s 1195 584 m cl s 1249 584 m cl s 1304 584 m cl s 1359 584 m cl s 1413 584 m cl s 1468 584 m cl s 1523 584 m cl s 1578 584 m cl s 1632 584 m cl s 1687 584 m cl s 1742 584 m cl s 1796 584 m cl s 1851 584 m cl s 1906
 584 m cl s 1961 584 m cl s 2015 584 m cl s 2070 584 m cl s 2125 584 m cl s 2179 584 m cl s 538 584 m cl s 483 584 m cl s 429 584 m cl s 374 584 m cl s 319 584 m cl s 319 1729 m 1860 X s 538 1729 m cl s 593 1729 m cl s 647 1729 m cl s 702 1729 m cl s
 757 1729 m cl s 812 1729 m cl s 866 1729 m cl s 921 1729 m cl s 976 1729 m cl s 1030 1729 m cl s 1085 1729 m cl s 1140 1729 m cl s 1195 1729 m cl s 1249 1729 m cl s 1304 1729 m cl s 1359 1729 m cl s 1413 1729 m cl s 1468 1729 m cl s 1523 1729 m cl s
 1578 1729 m cl s 1632 1729 m cl s 1687 1729 m cl s 1742 1729 m cl s 1796 1729 m cl s 1851 1729 m cl s 1906 1729 m cl s 1961 1729 m cl s 2015 1729 m cl s 2070 1729 m cl s 2125 1729 m cl s 2179 1729 m cl s 538 1729 m cl s 483 1729 m cl s 429 1729 m cl
 s 374 1729 m cl s 319 1729 m cl s 319 584 m 1145 Y s
 gsave  2263 1770 2 313 C 166.096 1091.49 t 90 r /Helvetica findfont 81.3741 sf 0 0 m (Events / 200 GeV) show NC gr  341 624 m -22 X s 341 647 m -22 X s 341 664 m -22 X s 341 677 m -22 X s 341 687 m -22 X s 341 696 m -22 X s 341 704 m -22 X s 341 710
 m -22 X s 363 716 m -44 X s
 gsave  2263 1770 2 313 C 300.555 689.24 t 0 r  -36 0 t /Helvetica findfont 64.4212 sf 0 0 m (1) show NC gr  341 756 m -22 X s 341 779 m -22 X s 341 796 m -22 X s 341 809 m -22 X s 341 819 m -22 X s 341 828 m -22 X s 341 836 m -22 X s 341 842 m -22 X
 s 363 848 m -44 X s
 gsave  2263 1770 2 313 C 300.555 821.287 t 0 r  -73 0 t /Helvetica findfont 64.4212 sf 0 0 m (10) show NC gr  341 888 m -22 X s 341 911 m -22 X s 341 928 m -22 X s 341 941 m -22 X s 341 951 m -22 X s 341 960 m -22 X s 341 968 m -22 X s 341 974 m -22
 X s 363 980 m -44 X s
 gsave  2263 1770 2 313 C 274.567 979.626 t 0 r /Helvetica findfont 44.0776 sf 0 0 m (2) show NC gr 
 gsave  2263 1770 2 313 C 203.383 952.509 t 0 r /Helvetica findfont 64.4212 sf 0 0 m (10) show NC gr  341 1020 m -22 X s 341 1043 m -22 X s 341 1060 m -22 X s 341 1073 m -22 X s 341 1083 m -22 X s 341 1092 m -22 X s 341 1100 m -22 X s 341 1106 m -22
 X s 363 1113 m -44 X s
 gsave  2263 1770 2 313 C 274.567 1115.21 t 0 r /Helvetica findfont 44.0776 sf 0 0 m (3) show NC gr 
 gsave  2263 1770 2 313 C 203.383 1084.71 t 0 r /Helvetica findfont 64.4212 sf 0 0 m (10) show NC gr  341 1152 m -22 X s 341 1176 m -22 X s 341 1192 m -22 X s 341 1205 m -22 X s 341 1215 m -22 X s 341 1224 m -22 X s 341 1232 m -22 X s 341 1239 m -22
 X s 363 1245 m -44 X s
 gsave  2263 1770 2 313 C 274.567 1244.02 t 0 r /Helvetica findfont 44.0776 sf 0 0 m (4) show NC gr 
 gsave  2263 1770 2 313 C 203.383 1216.91 t 0 r /Helvetica findfont 64.4212 sf 0 0 m (10) show NC gr  341 1284 m -22 X s 341 1308 m -22 X s 341 1324 m -22 X s 341 1337 m -22 X s 341 1347 m -22 X s 341 1356 m -22 X s 341 1364 m -22 X s 341 1371 m -22
 X s 363 1377 m -44 X s
 gsave  2263 1770 2 313 C 274.567 1379.61 t 0 r /Helvetica findfont 44.0776 sf 0 0 m (5) show NC gr 
 gsave  2263 1770 2 313 C 203.383 1349.1 t 0 r /Helvetica findfont 64.4212 sf 0 0 m (10) show NC gr  341 1416 m -22 X s 341 1440 m -22 X s 341 1456 m -22 X s 341 1469 m -22 X s 341 1479 m -22 X s 341 1488 m -22 X s 341 1496 m -22 X s 341 1503 m -22 X
 s 363 1509 m -44 X s
 gsave  2263 1770 2 313 C 274.567 1511.81 t 0 r /Helvetica findfont 44.0776 sf 0 0 m (6) show NC gr 
 gsave  2263 1770 2 313 C 203.383 1481.3 t 0 r /Helvetica findfont 64.4212 sf 0 0 m (10) show NC gr  341 1548 m -22 X s 341 1572 m -22 X s 341 1588 m -22 X s 341 1601 m -22 X s 341 1611 m -22 X s 341 1620 m -22 X s 341 1628 m -22 X s 341 1635 m -22 X
 s 363 1641 m -44 X s
 gsave  2263 1770 2 313 C 274.567 1640.62 t 0 r /Helvetica findfont 44.0776 sf 0 0 m (7) show NC gr 
 gsave  2263 1770 2 313 C 203.383 1613.5 t 0 r /Helvetica findfont 64.4212 sf 0 0 m (10) show NC gr  341 1680 m -22 X s 341 1704 m -22 X s 341 1720 m -22 X s 2179 584 m 1145 Y s 2157 624 m 22 X s 2157 647 m 22 X s 2157 664 m 22 X s 2157 677 m 22 X s
 2157 687 m 22 X s 2157 696 m 22 X s 2157 704 m 22 X s 2157 710 m 22 X s 2136 716 m 43 X s 2157 756 m 22 X s 2157 779 m 22 X s 2157 796 m 22 X s 2157 809 m 22 X s 2157 819 m 22 X s 2157 828 m 22 X s 2157 836 m 22 X s 2157 842 m 22 X s 2136 848 m 43 X
 s 2157 888 m 22 X s 2157 911 m 22 X s 2157 928 m 22 X s 2157 941 m 22 X s 2157 951 m 22 X s 2157 960 m 22 X s 2157 968 m 22 X s 2157 974 m 22 X s 2136 980 m 43 X s 2157 1020 m 22 X s 2157 1043 m 22 X s 2157 1060 m 22 X s 2157 1073 m 22 X s 2157 1083
 m 22 X s 2157 1092 m 22 X s 2157 1100 m 22 X s 2157 1106 m 22 X s 2136 1113 m 43 X s 2157 1152 m 22 X s 2157 1176 m 22 X s 2157 1192 m 22 X s 2157 1205 m 22 X s 2157 1215 m 22 X s 2157 1224 m 22 X s 2157 1232 m 22 X s 2157 1239 m 22 X s 2136 1245 m
 43 X s 2157 1284 m 22 X s 2157 1308 m 22 X s 2157 1324 m 22 X s 2157 1337 m 22 X s 2157 1347 m 22 X s 2157 1356 m 22 X s 2157 1364 m 22 X s 2157 1371 m 22 X s 2136 1377 m 43 X s 2157 1416 m 22 X s 2157 1440 m 22 X s 2157 1456 m 22 X s 2157 1469 m 22
 X s 2157 1479 m 22 X s 2157 1488 m 22 X s 2157 1496 m 22 X s 2157 1503 m 22 X s 2136 1509 m 43 X s 2157 1548 m 22 X s 2157 1572 m 22 X s 2157 1588 m 22 X s 2157 1601 m 22 X s 2157 1611 m 22 X s 2157 1620 m 22 X s 2157 1628 m 22 X s 2157 1635 m 22 X
 s 2136 1641 m 43 X s 2157 1680 m 22 X s 2157 1704 m 22 X s 2157 1720 m 22 X s 0.4 0.6 1 c black 0.4 0.6 1 c 319 584 m 563 Y 110 X -28 Y 109 X -30 Y 109 X -29 Y 110 X -32 Y 109 X -26 Y 110 X -34 Y 109 X -28 Y 110 X -26 Y 109 X -33 Y 109 X -24 Y 110 X
 -22 Y 109 X -43 Y 110 X -18 Y 109 X -16 Y 110 X -47 Y 109 X 37 Y 109 X -164 Y f black 0.4 0.6 1 c black 319 1147 m 110 X -28 Y 109 X -30 Y 109 X -29 Y 110 X -32 Y 109 X -26 Y 110 X -34 Y 109 X -28 Y 110 X -26 Y 109 X -33 Y 109 X -24 Y 110 X -22 Y
 109 X -43 Y 110 X -18 Y 109 X -16 Y 110 X -47 Y 109 X 37 Y 109 X s 0.999 0.999 0.999 c black 0.999 0.999 0.999 c 319 584 m 547 Y 110 X -28 Y 109 X -30 Y 109 X -27 Y 110 X -32 Y 109 X -25 Y 110 X -35 Y 109 X -27 Y 110 X -26 Y 109 X -34 Y 109 X -23 Y
 110 X -21 Y 109 X -52 Y 110 X -7 Y 109 X -21 Y 110 X -46 Y 109 X 42 Y 109 X -155 Y f black 0.999 0.999 0.999 c black 319 1131 m 110 X -28 Y 109 X -30 Y 109 X -27 Y 110 X -32 Y 109 X -25 Y 110 X -35 Y 109 X -27 Y 110 X -26 Y 109 X -34 Y 109 X -23 Y
 110 X -21 Y 109 X -52 Y 110 X -7 Y 109 X -21 Y 110 X -46 Y 109 X 42 Y 109 X s 1 1 1 c black 319 1131 m 110 X -28 Y 109 X -30 Y 109 X -27 Y 110 X -32 Y 109 X -25 Y 110 X -35 Y 109 X -27 Y 110 X -26 Y 109 X -34 Y 109 X -23 Y 110 X -21 Y 109 X -52 Y
 110 X -7 Y 109 X -21 Y 110 X -46 Y 109 X 42 Y 109 X s 0.6 1 0.6 c black 0.6 1 0.6 c 319 584 m 547 Y 110 X -28 Y 109 X -30 Y 109 X -27 Y 110 X -32 Y 109 X -25 Y 110 X -35 Y 109 X -27 Y 110 X -26 Y 109 X -34 Y 109 X -23 Y 110 X -21 Y 109 X -52 Y 110 X
 -7 Y 109 X -21 Y 110 X -46 Y 109 X 42 Y 109 X -155 Y f black 0.6 1 0.6 c black 319 1131 m 110 X -28 Y 109 X -30 Y 109 X -27 Y 110 X -32 Y 109 X -25 Y 110 X -35 Y 109 X -27 Y 110 X -26 Y 109 X -34 Y 109 X -23 Y 110 X -21 Y 109 X -52 Y 110 X -7 Y 109
 X -21 Y 110 X -46 Y 109 X 42 Y 109 X s 0.999 0.999 0.999 c black 0.999 0.999 0.999 c 319 584 m 543 Y 110 X -28 Y 109 X -30 Y 109 X -27 Y 110 X -32 Y 109 X -24 Y 110 X -36 Y 109 X -26 Y 110 X -26 Y 109 X -38 Y 109 X -19 Y 110 X -20 Y 109 X -51 Y 110
 X -14 Y 109 X -14 Y 110 X -46 Y 109 X 41 Y 109 X -153 Y f black 0.999 0.999 0.999 c black 319 1127 m 110 X -28 Y 109 X -30 Y 109 X -27 Y 110 X -32 Y 109 X -24 Y 110 X -36 Y 109 X -26 Y 110 X -26 Y 109 X -38 Y 109 X -19 Y 110 X -20 Y 109 X -51 Y 110
 X -14 Y 109 X -14 Y 110 X -46 Y 109 X 41 Y 109 X s 1 1 1 c black 319 1127 m 110 X -28 Y 109 X -30 Y 109 X -27 Y 110 X -32 Y 109 X -24 Y 110 X -36 Y 109 X -26 Y 110 X -26 Y 109 X -38 Y 109 X -19 Y 110 X -20 Y 109 X -51 Y 110 X -14 Y 109 X -14 Y 110 X
 -46 Y 109 X 41 Y 109 X s 1 0.8 0.4 c black 1 0.8 0.4 c 319 584 m 543 Y 110 X -28 Y 109 X -30 Y 109 X -27 Y 110 X -32 Y 109 X -24 Y 110 X -36 Y 109 X -26 Y 110 X -26 Y 109 X -38 Y 109 X -19 Y 110 X -20 Y 109 X -51 Y 110 X -14 Y 109 X -14 Y 110 X -46
 Y 109 X 41 Y 109 X -153 Y f black 1 0.8 0.4 c black 319 1127 m 110 X -28 Y 109 X -30 Y 109 X -27 Y 110 X -32 Y 109 X -24 Y 110 X -36 Y 109 X -26 Y 110 X -26 Y 109 X -38 Y 109 X -19 Y 110 X -20 Y 109 X -51 Y 110 X -14 Y 109 X -14 Y 110 X -46 Y 109 X
 41 Y 109 X s 0.999 0.999 0.999 c black 0.999 0.999 0.999 c 319 584 m 399 Y 110 X -21 Y 109 X -36 Y 109 X -22 Y 110 X -24 Y 109 X -18 Y 110 X -41 Y 109 X -19 Y 110 X -25 Y 109 X -30 Y 109 X -28 Y 110 X -7 Y 109 X -93 Y 110 X 5 Y 109 X -40 Y 110 X 30
 Y 109 X 7 Y 109 X -37 Y f black 0.999 0.999 0.999 c black 319 983 m 110 X -21 Y 109 X -36 Y 109 X -22 Y 110 X -24 Y 109 X -18 Y 110 X -41 Y 109 X -19 Y 110 X -25 Y 109 X -30 Y 109 X -28 Y 110 X -7 Y 109 X -93 Y 110 X 5 Y 109 X -40 Y 110 X 30 Y 109 X
 7 Y 109 X s 1 1 1 c black 319 983 m 110 X -21 Y 109 X -36 Y 109 X -22 Y 110 X -24 Y 109 X -18 Y 110 X -41 Y 109 X -19 Y 110 X -25 Y 109 X -30 Y 109 X -28 Y 110 X -7 Y 109 X -93 Y 110 X 5 Y 109 X -40 Y 110 X 30 Y 109 X 7 Y 109 X s 1 0.4 0.6 c black 1
 0.4 0.6 c 319 584 m 399 Y 110 X -21 Y 109 X -36 Y 109 X -22 Y 110 X -24 Y 109 X -18 Y 110 X -41 Y 109 X -19 Y 110 X -25 Y 109 X -30 Y 109 X -28 Y 110 X -7 Y 109 X -93 Y 110 X 5 Y 109 X -40 Y 110 X 30 Y 109 X 7 Y 109 X -37 Y f black 1 0.4 0.6 c black
 319 983 m 110 X -21 Y 109 X -36 Y 109 X -22 Y 110 X -24 Y 109 X -18 Y 110 X -41 Y 109 X -19 Y 110 X -25 Y 109 X -30 Y 109 X -28 Y 110 X -7 Y 109 X -93 Y 110 X 5 Y 109 X -40 Y 110 X 30 Y 109 X 7 Y 109 X s 0.999 0.999 0.999 c black 0.999 0.999 0.999 c
 319 584 m 69 Y 110 X -28 Y 109 X -41 Y 1641 X f black 0.999 0.999 0.999 c black 319 653 m 110 X -28 Y 109 X -41 Y 1641 X s 1 1 1 c black 319 653 m 110 X -28 Y 109 X -41 Y 1641 X s 0 0 0.4 c black 0 0 0.4 c 319 584 m 69 Y 110 X -28 Y 109 X -41 Y 1641
 X f black 0 0 0.4 c black 319 653 m 110 X -28 Y 109 X -41 Y 1641 X s 1 0 0 c 6 lw 1 1 1 c black 1 0 0 c 319 1147 m 110 X -28 Y 109 X -30 Y 109 X -29 Y 110 X -32 Y 109 X -26 Y 110 X -34 Y 109 X -28 Y 110 X -26 Y 109 X -33 Y 109 X -24 Y 110 X -22 Y
 109 X -43 Y 110 X -18 Y 109 X -16 Y 110 X -47 Y 109 X 37 Y 109 X s black 3 lw 1 0 0 c 1 lw << /PatternType 1 /PaintType 2 /TilingType 1 /BBox [ 0 0 100 100 ] /XStep 100 /YStep 100 /PaintProc { begin gsave 0 100 m 100 0 l s gr end } >> [ 0.24 0 0
 0.24 0 0 ] makepattern /P05 exch def /cs {[/Pattern /DeviceRGB] setcolorspace} def /FA {f [/DeviceRGB] setcolorspace} def cs 1 0 0 P05 setcolor 319 584 m 566 Y 110 X -28 Y 109 X -30 Y 109 X -29 Y 110 X -32 Y 109 X -26 Y 110 X -32 Y 109 X -29 Y 110 X
 -26 Y 109 X -32 Y 109 X -24 Y 110 X -20 Y 109 X -44 Y 110 X -16 Y 109 X -15 Y 110 X -48 Y 109 X 38 Y 109 X -173 Y 153 Y -109 X -37 Y -109 X 47 Y -110 X 16 Y -109 X 22 Y -110 X 41 Y -109 X 26 Y -110 X 22 Y -109 X 35 Y -109 X 27 Y -110 X 26 Y -109 X
 36 Y -110 X 26 Y -109 X 32 Y -110 X 29 Y -109 X 30 Y -109 X 29 Y -110 X -560 Y FA 6 lw 1 1 1 c 15 lw 1578 839 m 1 Y s 1578 840 m cl s 1578 799 m -9 Y s 1578 790 m cl s 1687 776 m 14 Y s 1687 790 m cl s 1687 736 m -39 Y s 1687 697 m cl s 1796 800 m 8
 Y s 1796 808 m cl s 1796 759 m -24 Y s 1796 735 m cl s 1906 737 m 27 Y s 1906 764 m cl s 1906 696 m -80 Y s 1906 616 m cl s 2125 737 m 27 Y s 2125 764 m cl s 2125 696 m -80 Y s 2125 616 m cl s black 1 1 1 c 3 lw /w 43 def /w2 {w 2 div} def /w3 {w 3
 div} def 374 1148 483 1119 593 1092 702 1062 812 1025 921 1000 1030 974 1140 933 1249 891 1359 872 1468 888 1578 819 1687 756 1796 779 1906 716 15 { m20} R 15 lw 3 lw 2125 716 m20 15 lw black 6 lw 1 1 1 c black 3 lw /w 33 def /w2 {w 2 div} def /w3
 {w 3 div} def 374 1148 m20 6 lw 3 lw 483 1119 m20 6 lw 3 lw 593 1092 m20 6 lw 3 lw 702 1062 m20 6 lw 3 lw 812 1025 m20 6 lw 3 lw 921 1000 m20 6 lw 3 lw 1030 974 m20 6 lw 3 lw 1140 933 m20 6 lw 1249 877 m s 3 lw 1249 891 m20 6 lw 1359 855 m 3 Y s 3
 lw 1359 872 m20 6 lw 1468 874 m 1 Y s 3 lw 1468 888 m20 6 lw 1578 789 m 17 Y s 1578 833 m 6 Y s 3 lw 1578 819 m20 6 lw 1687 686 m 57 Y s 1687 770 m 17 Y s 3 lw 1687 756 m20 6 lw 1796 730 m 36 Y s 1796 793 m 12 Y s 3 lw 1796 779 m20 6 lw 1906 584 m
 119 Y s 1906 730 m 26 Y s 3 lw 1906 716 m20 6 lw 2125 584 m 119 Y s 2125 730 m 26 Y s 3 lw 2125 716 m20 6 lw 1249 877 m s 1249 877 m cl s 1359 858 m -3 Y s 1359 855 m cl s 1468 875 m -1 Y s 1468 874 m cl s 1578 833 m 7 Y s 1578 840 m cl s 1578 806 m
 -16 Y s 1578 790 m cl s 1687 770 m 20 Y s 1687 790 m cl s 1687 743 m -46 Y s 1687 697 m cl s 1796 793 m 15 Y s 1796 808 m cl s 1796 766 m -31 Y s 1796 735 m cl s 1906 730 m 34 Y s 1906 764 m cl s 1906 703 m -87 Y s 1906 616 m cl s 2125 730 m 34 Y s
 2125 764 m cl s 2125 703 m -87 Y s 2125 616 m cl s 3 lw 374 1148 483 1119 593 1092 702 1062 812 1025 921 1000 1030 974 1140 933 1249 891 1359 872 1468 888 1578 819 1687 756 1796 779 1906 716 15 { m20} R 6 lw 3 lw 2125 716 m20 6 lw 3 lw 319 584 m
 1860 X s 538 584 m cl s 593 584 m cl s 647 584 m cl s 702 584 m cl s 757 584 m cl s 812 584 m cl s 866 584 m cl s 921 584 m cl s 976 584 m cl s 1030 584 m cl s 1085 584 m cl s 1140 584 m cl s 1195 584 m cl s 1249 584 m cl s 1304 584 m cl s 1359 584
 m cl s 1413 584 m cl s 1468 584 m cl s 1523 584 m cl s 1578 584 m cl s 1632 584 m cl s 1687 584 m cl s 1742 584 m cl s 1796 584 m cl s 1851 584 m cl s 1906 584 m cl s 1961 584 m cl s 2015 584 m cl s 2070 584 m cl s 2125 584 m cl s 2179 584 m cl s
 538 584 m cl s 483 584 m cl s 429 584 m cl s 374 584 m cl s 319 584 m cl s 319 1729 m 1860 X s 538 1729 m cl s 593 1729 m cl s 647 1729 m cl s 702 1729 m cl s 757 1729 m cl s 812 1729 m cl s 866 1729 m cl s 921 1729 m cl s 976 1729 m cl s 1030 1729
 m cl s 1085 1729 m cl s 1140 1729 m cl s 1195 1729 m cl s 1249 1729 m cl s 1304 1729 m cl s 1359 1729 m cl s 1413 1729 m cl s 1468 1729 m cl s 1523 1729 m cl s 1578 1729 m cl s 1632 1729 m cl s 1687 1729 m cl s 1742 1729 m cl s 1796 1729 m cl s 1851
 1729 m cl s 1906 1729 m cl s 1961 1729 m cl s 2015 1729 m cl s 2070 1729 m cl s 2125 1729 m cl s 2179 1729 m cl s 538 1729 m cl s 483 1729 m cl s 429 1729 m cl s 374 1729 m cl s 319 1729 m cl s 319 584 m 1145 Y s 341 624 m -22 X s 341 647 m -22 X s
 341 664 m -22 X s 341 677 m -22 X s 341 687 m -22 X s 341 696 m -22 X s 341 704 m -22 X s 341 710 m -22 X s 363 716 m -44 X s 341 756 m -22 X s 341 779 m -22 X s 341 796 m -22 X s 341 809 m -22 X s 341 819 m -22 X s 341 828 m -22 X s 341 836 m -22 X
 s 341 842 m -22 X s 363 848 m -44 X s 341 888 m -22 X s 341 911 m -22 X s 341 928 m -22 X s 341 941 m -22 X s 341 951 m -22 X s 341 960 m -22 X s 341 968 m -22 X s 341 974 m -22 X s 363 980 m -44 X s 341 1020 m -22 X s 341 1043 m -22 X s 341 1060 m
 -22 X s 341 1073 m -22 X s 341 1083 m -22 X s 341 1092 m -22 X s 341 1100 m -22 X s 341 1106 m -22 X s 363 1113 m -44 X s 341 1152 m -22 X s 341 1176 m -22 X s 341 1192 m -22 X s 341 1205 m -22 X s 341 1215 m -22 X s 341 1224 m -22 X s 341 1232 m
 -22 X s 341 1239 m -22 X s 363 1245 m -44 X s 341 1284 m -22 X s 341 1308 m -22 X s 341 1324 m -22 X s 341 1337 m -22 X s 341 1347 m -22 X s 341 1356 m -22 X s 341 1364 m -22 X s 341 1371 m -22 X s 363 1377 m -44 X s 341 1416 m -22 X s 341 1440 m
 -22 X s 341 1456 m -22 X s 341 1469 m -22 X s 341 1479 m -22 X s 341 1488 m -22 X s 341 1496 m -22 X s 341 1503 m -22 X s 363 1509 m -44 X s 341 1548 m -22 X s 341 1572 m -22 X s 341 1588 m -22 X s 341 1601 m -22 X s 341 1611 m -22 X s 341 1620 m
 -22 X s 341 1628 m -22 X s 341 1635 m -22 X s 363 1641 m -44 X s 341 1680 m -22 X s 341 1704 m -22 X s 341 1720 m -22 X s 2179 584 m 1145 Y s 2157 624 m 22 X s 2157 647 m 22 X s 2157 664 m 22 X s 2157 677 m 22 X s 2157 687 m 22 X s 2157 696 m 22 X s
 2157 704 m 22 X s 2157 710 m 22 X s 2136 716 m 43 X s 2157 756 m 22 X s 2157 779 m 22 X s 2157 796 m 22 X s 2157 809 m 22 X s 2157 819 m 22 X s 2157 828 m 22 X s 2157 836 m 22 X s 2157 842 m 22 X s 2136 848 m 43 X s 2157 888 m 22 X s 2157 911 m 22 X
 s 2157 928 m 22 X s 2157 941 m 22 X s 2157 951 m 22 X s 2157 960 m 22 X s 2157 968 m 22 X s 2157 974 m 22 X s 2136 980 m 43 X s 2157 1020 m 22 X s 2157 1043 m 22 X s 2157 1060 m 22 X s 2157 1073 m 22 X s 2157 1083 m 22 X s 2157 1092 m 22 X s 2157
 1100 m 22 X s 2157 1106 m 22 X s 2136 1113 m 43 X s 2157 1152 m 22 X s 2157 1176 m 22 X s 2157 1192 m 22 X s 2157 1205 m 22 X s 2157 1215 m 22 X s 2157 1224 m 22 X s 2157 1232 m 22 X s 2157 1239 m 22 X s 2136 1245 m 43 X s 2157 1284 m 22 X s 2157
 1308 m 22 X s 2157 1324 m 22 X s 2157 1337 m 22 X s 2157 1347 m 22 X s 2157 1356 m 22 X s 2157 1364 m 22 X s 2157 1371 m 22 X s 2136 1377 m 43 X s 2157 1416 m 22 X s 2157 1440 m 22 X s 2157 1456 m 22 X s 2157 1469 m 22 X s 2157 1479 m 22 X s 2157
 1488 m 22 X s 2157 1496 m 22 X s 2157 1503 m 22 X s 2136 1509 m 43 X s 2157 1548 m 22 X s 2157 1572 m 22 X s 2157 1588 m 22 X s 2157 1601 m 22 X s 2157 1611 m 22 X s 2157 1620 m 22 X s 2157 1628 m 22 X s 2157 1635 m 22 X s 2136 1641 m 43 X s 2157
 1680 m 22 X s 2157 1704 m 22 X s 2157 1720 m 22 X s
 gsave  2263 1770 2 313 C 406.765 1447.41 t 0 r /Helvetica findfont 64.4212 sf 0 0 m (SR for MB\255C) show NC gr 
 gsave  2263 1770 2 313 C 1464.36 1630.45 t 0 r /Helvetica findfont 64.4212 sf 0 0 m (SM Total) show NC gr  1 1 1 c 1338 1616 m 107 X 64 Y -107 X f 1 0 0 c 6 lw 1338 1648 m 107 X s black
 gsave  2263 1770 2 313 C 1464.36 1538.93 t 0 r /Helvetica findfont 64.4212 sf 0 0 m (Data) show NC gr  1391 1529 m 55 Y s 3 lw 1391 1557 m20 6 lw
 gsave  2263 1770 2 313 C 1464.36 1447.41 t 0 r /Helvetica findfont 64.4212 sf 0 0 m (W+jets) show NC gr  0.4 0.6 1 c 3 lw 1338 1434 m 107 X 64 Y -107 X f 6 lw black 3 lw 1338 1498 m 107 X s 1338 1434 m 107 X s 1445 1434 m 64 Y s 1338 1434 m 64 Y s
 gsave  2263 1770 2 313 C 1498.25 1355.88 t 0 r /Helvetica findfont 64.4212 sf 0 0 m (\(+EW\) & single top) show NC gr 
 gsave  2263 1770 2 313 C 1481.3 1355.88 t 0 r /Helvetica findfont 64.4212 sf 0 0 m (t) show NC gr  1481 1407 m 17 X s
 gsave  2263 1770 2 313 C 1464.36 1355.88 t 0 r /Helvetica findfont 64.4212 sf 0 0 m (t) show NC gr  0.6 1 0.6 c 1338 1343 m 107 X 63 Y -107 X f black 1338 1406 m 107 X s 1338 1343 m 107 X s 1445 1343 m 63 Y s 1338 1343 m 63 Y s
 gsave  2263 1770 2 313 C 1464.36 1264.36 t 0 r /Helvetica findfont 64.4212 sf 0 0 m (Z+jets) show NC gr  1 0.8 0.4 c 1338 1252 m 107 X 63 Y -107 X f black 1338 1315 m 107 X s 1338 1252 m 107 X s 1445 1252 m 63 Y s 1338 1252 m 63 Y s
 gsave  2263 1770 2 313 C 1464.36 1172.84 t 0 r /Helvetica findfont 64.4212 sf 0 0 m (Diboson) show NC gr  1 0.4 0.6 c 1338 1161 m 107 X 63 Y -107 X f black 1338 1224 m 107 X s 1338 1161 m 107 X s 1445 1161 m 63 Y s 1338 1161 m 63 Y s
 gsave  2263 1770 2 313 C 1464.36 1081.32 t 0 r /Helvetica findfont 64.4212 sf 0 0 m (Multi\255jet) show NC gr  0 0 0.4 c 1338 1070 m 107 X 63 Y -107 X f black 1338 1133 m 107 X s 1338 1070 m 107 X s 1445 1070 m 63 Y s 1338 1070 m 63 Y s
 gsave  2263 1770 2 313 C 911.832 1566.05 t 0 r /Helvetica findfont 44.0776 sf 0 0 m (\2551) show NC gr 
 gsave  2263 1770 2 313 C 471.17 1535.54 t 0 r /Helvetica findfont 64.4212 sf 0 0 m (=13TeV, 139 fb) show NC gr 
 gsave  2263 1770 2 313 C 440.662 1535.54 t 0 r /Helvetica findfont 64.4212 sf 0 0 m (s) show NC gr  6 lw 420 1573 m 7 -41 d s 3 lw 427 1532 m 7 61 d s 434 1593 m 37 X s 1 1 1 c 2254 561 2 2 bf black 1 1 1 c black 1860 358 318 187 bl 1 1 1 c black
 1860 358 318 187 bl 6 lw 1 1 1 c black 3 lw 373 369 m20 6 lw 3 lw 482 368 m20 6 lw 3 lw 591 377 m20 6 lw 3 lw 701 372 m20 6 lw 3 lw 810 358 m20 6 lw 3 lw 920 362 m20 6 lw 3 lw 1029 385 m20 6 lw 3 lw 1139 348 m20 6 lw 3 lw 1248 313 m20 6 lw 3 lw 1358
 342 m20 6 lw 3 lw 1467 482 m20 6 lw 3 lw 1576 327 m20 6 lw 3 lw 1686 291 m20 6 lw 3 lw 1795 383 m20 6 lw 3 lw 1905 282 m20 6 lw 3 lw 2124 297 m20 6 lw 3 lw 318 187 m 1860 X s
 gsave  2254 561 2 2 C 1959.25 33.8971 t 0 r /Helvetica findfont 78.1689 sf 0 0 m ( [GeV]) show NC gr 
 gsave  2254 561 2 2 C 1901.63 13.5588 t 0 r /Helvetica findfont 50.9797 sf 0 0 m (eff) show NC gr 
 gsave  2254 561 2 2 C 1840.61 33.8971 t 0 r /Helvetica findfont 78.1689 sf 0 0 m (m) show NC gr  537 201 m -14 Y s 591 194 m -7 Y s 646 194 m -7 Y s 701 194 m -7 Y s 756 194 m -7 Y s 810 201 m -14 Y s 865 194 m -7 Y s 920 194 m -7 Y s 975 194 m -7 Y
 s 1029 194 m -7 Y s 1084 201 m -14 Y s 1139 194 m -7 Y s 1193 194 m -7 Y s 1248 194 m -7 Y s 1303 194 m -7 Y s 1358 201 m -14 Y s 1412 194 m -7 Y s 1467 194 m -7 Y s 1522 194 m -7 Y s 1576 194 m -7 Y s 1631 201 m -14 Y s 1686 194 m -7 Y s 1741 194 m
 -7 Y s 1795 194 m -7 Y s 1850 194 m -7 Y s 1905 201 m -14 Y s 1959 194 m -7 Y s 2014 194 m -7 Y s 2069 194 m -7 Y s 2124 194 m -7 Y s 2178 201 m -14 Y s 537 201 m -14 Y s 482 194 m -7 Y s 427 194 m -7 Y s 373 194 m -7 Y s 318 194 m -7 Y s
 gsave  2254 561 2 2 C 447.442 118.64 t 0 r /Helvetica findfont 78.1689 sf 0 0 m (2000) show NC gr 
 gsave  2254 561 2 2 C 722.008 118.64 t 0 r /Helvetica findfont 78.1689 sf 0 0 m (2500) show NC gr 
 gsave  2254 561 2 2 C 993.185 118.64 t 0 r /Helvetica findfont 78.1689 sf 0 0 m (3000) show NC gr 
 gsave  2254 561 2 2 C 1267.75 118.64 t 0 r /Helvetica findfont 78.1689 sf 0 0 m (3500) show NC gr 
 gsave  2254 561 2 2 C 1542.32 118.64 t 0 r /Helvetica findfont 78.1689 sf 0 0 m (4000) show NC gr 
 gsave  2254 561 2 2 C 1813.5 118.64 t 0 r /Helvetica findfont 78.1689 sf 0 0 m (4500) show NC gr 
 gsave  2254 561 2 2 C 2088.06 118.64 t 0 r /Helvetica findfont 78.1689 sf 0 0 m (5000) show NC gr  318 545 m 1860 X s 537 531 m 14 Y s 591 538 m 7 Y s 646 538 m 7 Y s 701 538 m 7 Y s 756 538 m 7 Y s 810 531 m 14 Y s 865 538 m 7 Y s 920 538 m 7 Y s
 975 538 m 7 Y s 1029 538 m 7 Y s 1084 531 m 14 Y s 1139 538 m 7 Y s 1193 538 m 7 Y s 1248 538 m 7 Y s 1303 538 m 7 Y s 1358 531 m 14 Y s 1412 538 m 7 Y s 1467 538 m 7 Y s 1522 538 m 7 Y s 1576 538 m 7 Y s 1631 531 m 14 Y s 1686 538 m 7 Y s 1741 538
 m 7 Y s 1795 538 m 7 Y s 1850 538 m 7 Y s 1905 531 m 14 Y s 1959 538 m 7 Y s 2014 538 m 7 Y s 2069 538 m 7 Y s 2124 538 m 7 Y s 2178 531 m 14 Y s 537 531 m 14 Y s 482 538 m 7 Y s 427 538 m 7 Y s 373 538 m 7 Y s 318 538 m 7 Y s 318 187 m 358 Y s
 gsave  2254 561 2 2 C 166.096 284.736 t 90 r /Helvetica findfont 67.9729 sf 0 0 m (Data/SM) show NC gr  361 203 m -43 X s 339 220 m -21 X s 339 236 m -21 X s 339 252 m -21 X s 339 268 m -21 X s 361 285 m -43 X s 339 301 m -21 X s 339 317 m -21 X s
 339 334 m -21 X s 339 350 m -21 X s 361 366 m -43 X s 339 382 m -21 X s 339 399 m -21 X s 339 415 m -21 X s 339 431 m -21 X s 361 447 m -43 X s 339 464 m -21 X s 339 480 m -21 X s 339 496 m -21 X s 339 512 m -21 X s 361 529 m -43 X s 361 203 m -43 X
 s 339 187 m -21 X s 361 529 m -43 X s
 gsave  2254 561 2 2 C 261.008 183.044 t 0 r /Helvetica findfont 57.777 sf 0 0 m (0) show NC gr 
 gsave  2254 561 2 2 C 213.552 261.008 t 0 r /Helvetica findfont 57.777 sf 0 0 m (0.5) show NC gr 
 gsave  2254 561 2 2 C 271.177 342.361 t 0 r /Helvetica findfont 57.777 sf 0 0 m (1) show NC gr 
 gsave  2254 561 2 2 C 213.552 423.714 t 0 r /Helvetica findfont 57.777 sf 0 0 m (1.5) show NC gr 
 gsave  2254 561 2 2 C 261.008 505.067 t 0 r /Helvetica findfont 57.777 sf 0 0 m (2) show NC gr  2178 187 m 358 Y s 2135 203 m 43 X s 2157 220 m 21 X s 2157 236 m 21 X s 2157 252 m 21 X s 2157 268 m 21 X s 2135 285 m 43 X s 2157 301 m 21 X s 2157 317
 m 21 X s 2157 334 m 21 X s 2157 350 m 21 X s 2135 366 m 43 X s 2157 382 m 21 X s 2157 399 m 21 X s 2157 415 m 21 X s 2157 431 m 21 X s 2135 447 m 43 X s 2157 464 m 21 X s 2157 480 m 21 X s 2157 496 m 21 X s 2157 512 m 21 X s 2135 529 m 43 X s 2135
 203 m 43 X s 2157 187 m 21 X s 2135 529 m 43 X s 9 lw 1029 398 m 6 Y s 1029 404 m cl s 1029 371 m -5 Y s 1029 366 m cl s 1139 362 m 8 Y s 1139 370 m cl s 1139 335 m -9 Y s 1139 326 m cl s 1248 327 m 10 Y s 1248 337 m cl s 1248 299 m -10 Y s 1248 289
 m cl s 1358 356 m 23 Y s 1358 379 m cl s 1358 329 m -22 Y s 1358 307 m cl s 1467 496 m 49 Y s 1467 545 m cl s 1467 469 m -48 Y s 1467 421 m cl s 1576 341 m 39 Y s 1576 380 m cl s 1576 314 m -36 Y s 1576 278 m cl s 1686 304 m 58 Y s 1686 362 m cl s
 1686 277 m -42 Y s 1686 235 m cl s 1795 397 m 100 Y s 1795 497 m cl s 1795 369 m -83 Y s 1795 286 m cl s 1905 296 m 87 Y s 1905 383 m cl s 1905 268 m -51 Y s 1905 217 m cl s 2124 311 m 107 Y s 2124 418 m cl s 2124 284 m -64 Y s 2124 220 m cl s 3 lw
 373 369 482 368 591 377 701 372 810 358 920 362 1029 385 1139 348 1248 313 1358 342 1467 482 1576 327 1686 291 1795 383 1905 282 15 { m20} R 9 lw 3 lw 2124 297 m20 9 lw 1 0 0 c 6 lw black 3 lw 1 0 0 c 2178 227 m s 2178 255 m s 2178 284 m s 2178 312
 m s 2178 341 m -2 -2 d s 2178 369 m -31 -30 d s 2174 394 m -55 -55 d s 2145 394 m -55 -55 d s 2116 394 m -53 -54 d s 2088 394 m -54 -54 d s 2058 392 m -53 -52 d s 2029 392 m -52 -52 d s 2000 392 m -54 -54 d s 1972 392 m -55 -54 d s 1945 394 m -57
 -56 d s 1916 394 m -56 -56 d s 1888 394 m -55 -55 d s 1859 394 m -55 -55 d s 1829 393 m -54 -54 d s 1800 393 m -54 -54 d s 1771 393 m -45 -46 d s 1743 393 m -2 -2 d s 1735 385 m -38 -38 d s 1706 385 m -38 -38 d s 1677 385 m -37 -38 d s 1649 385 m
 -42 -41 d s 1624 388 m -45 -44 d s 1595 388 m -45 -44 d s 1566 388 m -44 -44 d s 1538 388 m -38 -37 d s 1502 381 m -31 -30 d s 1473 381 m -31 -30 d s 1444 381 m -30 -30 d s 1412 349 m s 1415 381 m -32 -32 d s 1389 383 m -35 -34 d s 1360 383 m -34
 -34 d s 1332 383 m -32 -31 d s 1299 380 m -27 -28 d s 1271 380 m -28 -28 d s 1242 380 m -28 -28 d s 1213 380 m -25 -26 d s 1183 378 m -24 -24 d s 1154 378 m -24 -24 d s 1125 378 m -23 -24 d s 1097 378 m -28 -28 d s 1072 382 m -32 -32 d s 1043 382 m
 -31 -32 d s 1014 382 m -31 -32 d s 986 382 m -26 -26 d s 951 376 m -20 -20 d s 923 376 m -20 -20 d s 894 376 m -20 -20 d s 865 376 m s 865 375 m -19 -18 d s 836 375 m -19 -18 d s 807 375 m -19 -18 d s 779 375 m -19 -18 d s 750 375 m -19 -18 d s 721
 375 m -19 -18 d s 692 375 m -18 -18 d s 664 375 m -19 -18 d s 635 375 m -19 -18 d s 606 375 m -18 -18 d s 577 375 m -18 -18 d s 549 375 m -18 -18 d s 520 375 m -18 -18 d s 491 375 m -18 -18 d s 462 375 m -17 -18 d s 318 231 m s 434 375 m -18 -18 d s
 318 259 m s 405 375 m -17 -18 d s 318 288 m s 376 375 m -17 -18 d s 318 317 m s 347 375 m -17 -18 d s 318 345 m s 319 375 m -1 -1 d s 6 lw black[ 4 8] 0 sd 3 lw 318 447 m 1860 X s 318 285 m 1860 X s 1 0 0 c[  12 12 ] 0 sd 6 lw 318 366 m 1860 X s
 gr  gr showpage
end
%%EOF
