%!PS-Adobe-2.0 EPSF-2.0
%%BoundingBox:  0 0 567 521
%%Title: Distributions/met_distrCRW_MB-GGd_afterFit_forThesis.eps: canvas
%%Creator: ROOT Version 6.04/16
%%CreationDate: Tue May 19 22:01:19 2020
%%DocumentNeededResources: ProcSet (FontSetInit)
%%EndComments
%%BeginProlog
80 dict begin
/s {stroke} def /l {lineto} def /m {moveto} def /t {translate} def
/r {rotate} def /rl {roll}  def /R {repeat} def
/d {rlineto} def /rm {rmoveto} def /gr {grestore} def /f {eofill} def
/c {setrgbcolor} def /black {0 setgray} def /sd {setdash} def
/cl {closepath} def /sf {scalefont setfont} def /lw {setlinewidth} def
/box {m dup 0 exch d exch 0 d 0 exch neg d cl} def
/NC{systemdict begin initclip end}def/C{NC box clip newpath}def
/bl {box s} def /bf {gsave box gsave f grestore 1 lw [] 0 sd s grestore} def /Y { 0 exch d} def /X { 0 d} def 
/K {{pop pop 0 moveto} exch kshow} bind def
/ita {/ang 15 def gsave [1 0 ang dup sin exch cos div 1 0 0] concat} def 
/mp {newpath /y exch def /x exch def} def
/side {[w .77 mul w .23 mul] .385 w mul sd w 0 l currentpoint t -144 r} def
/mr {mp x y w2 0 360 arc} def /m24 {mr s} def /m20 {mr f} def
/mb {mp x y w2 add m w2 neg 0 d 0 w neg d w 0 d 0 w d cl} def
/mt {mp x y w2 add m w2 neg w neg d w 0 d cl} def
/m21 {mb f} def /m25 {mb s} def /m22 {mt f} def /m26{mt s} def
/m23 {mp x y w2 sub m w2 w d w neg 0 d cl f} def
/m27 {mp x y w2 add m w3 neg w2 neg d w3 w2 neg d w3 w2 d cl s} def
/m28 {mp x w2 sub y w2 sub w3 add m w3 0 d  0 w3 neg d w3 0 d 0 w3 d w3 0 d  0 w3 d w3 neg 0 d 0 w3 d w3 neg 0 d 0 w3 neg d w3 neg 0 d cl s } def
/m29 {mp gsave x w2 sub y w2 add w3 sub m currentpoint t 4 {side} repeat cl fill gr} def
/m30 {mp gsave x w2 sub y w2 add w3 sub m currentpoint t 4 {side} repeat cl s gr} def
/m31 {mp x y w2 sub m 0 w d x w2 sub y m w 0 d x w2 sub y w2 add m w w neg d x w2 sub y w2 sub m w w d s} def
/m32 {mp x y w2 sub m w2 w d w neg 0 d cl s} def
/m33 {mp x y w2 add m w3 neg w2 neg d w3 w2 neg d w3 w2 d cl f} def
/m34 {mp x w2 sub y w2 sub w3 add m w3 0 d  0 w3 neg d w3 0 d 0 w3 d w3 0 d  0 w3 d w3 neg 0 d 0 w3 d w3 neg 0 d 0 w3 neg d w3 neg 0 d cl f } def
/m2 {mp x y w2 sub m 0 w d x w2 sub y m w 0 d s} def
/m5 {mp x w2 sub y w2 sub m w w d x w2 sub y w2 add m w w neg d s} def
%%IncludeResource: ProcSet (FontSetInit)
%%IncludeResource: font Times-Roman
%%IncludeResource: font Times-Italic
%%IncludeResource: font Times-Bold
%%IncludeResource: font Times-BoldItalic
%%IncludeResource: font Helvetica
%%IncludeResource: font Helvetica-Oblique
%%IncludeResource: font Helvetica-Bold
%%IncludeResource: font Helvetica-BoldOblique
%%IncludeResource: font Courier
%%IncludeResource: font Courier-Oblique
%%IncludeResource: font Courier-Bold
%%IncludeResource: font Courier-BoldOblique
%%IncludeResource: font Symbol
%%IncludeResource: font ZapfDingbats
/reEncode {exch findfont dup length dict begin {1 index /FID eq  {pop pop} {def} ifelse } forall /Encoding exch def currentdict end dup /FontName get exch definefont pop } def [/Times-Bold /Times-Italic /Times-BoldItalic /Helvetica /Helvetica-Oblique
 /Helvetica-Bold /Helvetica-BoldOblique /Courier /Courier-Oblique /Courier-Bold /Courier-BoldOblique /Times-Roman /AvantGarde-Book /AvantGarde-BookOblique /AvantGarde-Demi /AvantGarde-DemiOblique /Bookman-Demi /Bookman-DemiItalic /Bookman-Light
 /Bookman-LightItalic /Helvetica-Narrow /Helvetica-Narrow-Bold /Helvetica-Narrow-BoldOblique /Helvetica-Narrow-Oblique /NewCenturySchlbk-Roman /NewCenturySchlbk-Bold /NewCenturySchlbk-BoldItalic /NewCenturySchlbk-Italic /Palatino-Bold
 /Palatino-BoldItalic /Palatino-Italic /Palatino-Roman ] {ISOLatin1Encoding reEncode } forall
%%EndProlog
%%BeginSetup
%%EndSetup
newpath  gsave  .25 .25 scale  gsave  0 0 t black[  ] 0 sd 3 lw 1 1 1 c 2268 2085 0 0 bf black 1 1 1 c 2263 1770 2 313 bf black 1 1 1 c black 1860 1145 319 584 bl 1 1 1 c black 1860 1145 319 584 bl 6 lw 1 1 1 c black 3 lw /w 33 def /w2 {w 2 div} def
 /w3 {w 3 div} def 366 1208 m20 6 lw 3 lw 459 1177 m20 6 lw 3 lw 552 1130 m20 6 lw 3 lw 645 1081 m20 6 lw 3 lw 738 1044 m20 6 lw 3 lw 831 974 m20 6 lw 924 926 m 1 Y s 3 lw 924 941 m20 6 lw 1017 867 m 9 Y s 1017 903 m 4 Y s 3 lw 1017 890 m20 6 lw 1110
 873 m 9 Y s 1110 909 m 3 Y s 3 lw 1110 896 m20 6 lw 1203 830 m 17 Y s 1203 874 m 7 Y s 3 lw 1203 861 m20 6 lw 1389 699 m 67 Y s 1389 793 m 21 Y s 3 lw 1389 779 m20 6 lw 3 lw 319 584 m 1860 X s
 gsave  2263 1770 2 313 C 1949.08 355.92 t 0 r /Helvetica findfont 81.3741 sf 0 0 m ( [GeV]) show NC gr 
 gsave  2263 1770 2 313 C 1837.22 396.596 t 0 r /Helvetica findfont 54.2494 sf 0 0 m (miss) show NC gr 
 gsave  2263 1770 2 313 C 1837.22 332.192 t 0 r /Helvetica findfont 54.2494 sf 0 0 m (T) show NC gr 
 gsave  2263 1770 2 313 C 1786.38 355.92 t 0 r /Helvetica findfont 81.3741 sf 0 0 m (E) show NC gr  412 584 m cl s 459 584 m cl s 505 584 m cl s 552 584 m cl s 598 584 m cl s 645 584 m cl s 691 584 m cl s 738 584 m cl s 784 584 m cl s 831 584 m cl s
 877 584 m cl s 924 584 m cl s 970 584 m cl s 1017 584 m cl s 1063 584 m cl s 1110 584 m cl s 1156 584 m cl s 1203 584 m cl s 1249 584 m cl s 1296 584 m cl s 1342 584 m cl s 1389 584 m cl s 1435 584 m cl s 1482 584 m cl s 1528 584 m cl s 1575 584 m
 cl s 1621 584 m cl s 1668 584 m cl s 1714 584 m cl s 1761 584 m cl s 1807 584 m cl s 1854 584 m cl s 1900 584 m cl s 1947 584 m cl s 1993 584 m cl s 2040 584 m cl s 2086 584 m cl s 412 584 m cl s 366 584 m cl s 319 584 m cl s 2086 584 m cl s 2133
 584 m cl s 2179 584 m cl s 319 1729 m 1860 X s 412 1729 m cl s 459 1729 m cl s 505 1729 m cl s 552 1729 m cl s 598 1729 m cl s 645 1729 m cl s 691 1729 m cl s 738 1729 m cl s 784 1729 m cl s 831 1729 m cl s 877 1729 m cl s 924 1729 m cl s 970 1729 m
 cl s 1017 1729 m cl s 1063 1729 m cl s 1110 1729 m cl s 1156 1729 m cl s 1203 1729 m cl s 1249 1729 m cl s 1296 1729 m cl s 1342 1729 m cl s 1389 1729 m cl s 1435 1729 m cl s 1482 1729 m cl s 1528 1729 m cl s 1575 1729 m cl s 1621 1729 m cl s 1668
 1729 m cl s 1714 1729 m cl s 1761 1729 m cl s 1807 1729 m cl s 1854 1729 m cl s 1900 1729 m cl s 1947 1729 m cl s 1993 1729 m cl s 2040 1729 m cl s 2086 1729 m cl s 412 1729 m cl s 366 1729 m cl s 319 1729 m cl s 2086 1729 m cl s 2133 1729 m cl s
 2179 1729 m cl s 319 584 m 1145 Y s
 gsave  2263 1770 2 313 C 166.096 1091.49 t 90 r /Helvetica findfont 81.3741 sf 0 0 m (Events / 100 GeV) show NC gr  341 629 m -22 X s 341 656 m -22 X s 341 674 m -22 X s 341 689 m -22 X s 341 701 m -22 X s 341 711 m -22 X s 341 720 m -22 X s 341 727
 m -22 X s 363 734 m -44 X s
 gsave  2263 1770 2 313 C 300.555 706.894 t 0 r  -36 0 t /Helvetica findfont 64.4212 sf 0 0 m (1) show NC gr  341 779 m -22 X s 341 805 m -22 X s 341 824 m -22 X s 341 839 m -22 X s 341 851 m -22 X s 341 861 m -22 X s 341 869 m -22 X s 341 877 m -22
 X s 363 884 m -44 X s
 gsave  2263 1770 2 313 C 300.555 856.596 t 0 r  -73 0 t /Helvetica findfont 64.4212 sf 0 0 m (10) show NC gr  341 929 m -22 X s 341 955 m -22 X s 341 974 m -22 X s 341 988 m -22 X s 341 1000 m -22 X s 341 1010 m -22 X s 341 1019 m -22 X s 341 1027 m
 -22 X s 363 1033 m -44 X s
 gsave  2263 1770 2 313 C 274.567 1030.47 t 0 r /Helvetica findfont 44.0776 sf 0 0 m (2) show NC gr 
 gsave  2263 1770 2 313 C 203.383 1003.35 t 0 r /Helvetica findfont 64.4212 sf 0 0 m (10) show NC gr  341 1078 m -22 X s 341 1105 m -22 X s 341 1124 m -22 X s 341 1138 m -22 X s 341 1150 m -22 X s 341 1160 m -22 X s 341 1169 m -22 X s 341 1176 m -22
 X s 363 1183 m -44 X s
 gsave  2263 1770 2 313 C 274.567 1186.4 t 0 r /Helvetica findfont 44.0776 sf 0 0 m (3) show NC gr 
 gsave  2263 1770 2 313 C 203.383 1155.89 t 0 r /Helvetica findfont 64.4212 sf 0 0 m (10) show NC gr  341 1228 m -22 X s 341 1255 m -22 X s 341 1273 m -22 X s 341 1288 m -22 X s 341 1300 m -22 X s 341 1310 m -22 X s 341 1318 m -22 X s 341 1326 m -22
 X s 363 1333 m -44 X s
 gsave  2263 1770 2 313 C 274.567 1332.16 t 0 r /Helvetica findfont 44.0776 sf 0 0 m (4) show NC gr 
 gsave  2263 1770 2 313 C 203.383 1305.04 t 0 r /Helvetica findfont 64.4212 sf 0 0 m (10) show NC gr  341 1378 m -22 X s 341 1404 m -22 X s 341 1423 m -22 X s 341 1437 m -22 X s 341 1449 m -22 X s 341 1459 m -22 X s 341 1468 m -22 X s 341 1476 m -22
 X s 363 1483 m -44 X s
 gsave  2263 1770 2 313 C 274.567 1484.69 t 0 r /Helvetica findfont 44.0776 sf 0 0 m (5) show NC gr 
 gsave  2263 1770 2 313 C 203.383 1454.19 t 0 r /Helvetica findfont 64.4212 sf 0 0 m (10) show NC gr  341 1528 m -22 X s 341 1554 m -22 X s 341 1573 m -22 X s 341 1587 m -22 X s 341 1599 m -22 X s 341 1609 m -22 X s 341 1618 m -22 X s 341 1625 m -22
 X s 363 1632 m -44 X s
 gsave  2263 1770 2 313 C 274.567 1633.84 t 0 r /Helvetica findfont 44.0776 sf 0 0 m (6) show NC gr 
 gsave  2263 1770 2 313 C 203.383 1603.33 t 0 r /Helvetica findfont 64.4212 sf 0 0 m (10) show NC gr  341 1677 m -22 X s 341 1704 m -22 X s 341 1722 m -22 X s 2179 584 m 1145 Y s 2157 629 m 22 X s 2157 656 m 22 X s 2157 674 m 22 X s 2157 689 m 22 X s
 2157 701 m 22 X s 2157 711 m 22 X s 2157 720 m 22 X s 2157 727 m 22 X s 2136 734 m 43 X s 2157 779 m 22 X s 2157 805 m 22 X s 2157 824 m 22 X s 2157 839 m 22 X s 2157 851 m 22 X s 2157 861 m 22 X s 2157 869 m 22 X s 2157 877 m 22 X s 2136 884 m 43 X
 s 2157 929 m 22 X s 2157 955 m 22 X s 2157 974 m 22 X s 2157 988 m 22 X s 2157 1000 m 22 X s 2157 1010 m 22 X s 2157 1019 m 22 X s 2157 1027 m 22 X s 2136 1033 m 43 X s 2157 1078 m 22 X s 2157 1105 m 22 X s 2157 1124 m 22 X s 2157 1138 m 22 X s 2157
 1150 m 22 X s 2157 1160 m 22 X s 2157 1169 m 22 X s 2157 1176 m 22 X s 2136 1183 m 43 X s 2157 1228 m 22 X s 2157 1255 m 22 X s 2157 1273 m 22 X s 2157 1288 m 22 X s 2157 1300 m 22 X s 2157 1310 m 22 X s 2157 1318 m 22 X s 2157 1326 m 22 X s 2136
 1333 m 43 X s 2157 1378 m 22 X s 2157 1404 m 22 X s 2157 1423 m 22 X s 2157 1437 m 22 X s 2157 1449 m 22 X s 2157 1459 m 22 X s 2157 1468 m 22 X s 2157 1476 m 22 X s 2136 1483 m 43 X s 2157 1528 m 22 X s 2157 1554 m 22 X s 2157 1573 m 22 X s 2157
 1587 m 22 X s 2157 1599 m 22 X s 2157 1609 m 22 X s 2157 1618 m 22 X s 2157 1625 m 22 X s 2136 1632 m 43 X s 2157 1677 m 22 X s 2157 1704 m 22 X s 2157 1722 m 22 X s 0.4 0.6 1 c black 0.4 0.6 1 c 319 584 m 623 Y 93 X -27 Y 93 X -48 Y 93 X -53 Y 93 X
 -47 Y 93 X -46 Y 93 X -41 Y 93 X -49 Y 93 X -36 Y 93 X -53 Y 93 X -29 Y 93 X -28 Y 93 X -53 Y 93 X -14 Y 93 X -72 Y 93 X -2 Y 93 X -25 Y 372 X f black 0.4 0.6 1 c black 319 1207 m 93 X -27 Y 93 X -48 Y 93 X -53 Y 93 X -47 Y 93 X -46 Y 93 X -41 Y 93
 X -49 Y 93 X -36 Y 93 X -53 Y 93 X -29 Y 93 X -28 Y 93 X -53 Y 93 X -14 Y 93 X -72 Y 93 X -2 Y 93 X -25 Y 372 X s 0.999 0.999 0.999 c black 0.999 0.999 0.999 c 319 584 m 530 Y 93 X -36 Y 93 X -57 Y 93 X -61 Y 93 X -56 Y 93 X -46 Y 93 X -41 Y 93 X
 -65 Y 93 X -4 Y 93 X -81 Y 93 X 3 Y 93 X -49 Y 93 X -37 Y 744 X f black 0.999 0.999 0.999 c black 319 1114 m 93 X -36 Y 93 X -57 Y 93 X -61 Y 93 X -56 Y 93 X -46 Y 93 X -41 Y 93 X -65 Y 93 X -4 Y 93 X -81 Y 93 X 3 Y 93 X -49 Y 93 X -37 Y 744 X s 1 1
 1 c black 319 1114 m 93 X -36 Y 93 X -57 Y 93 X -61 Y 93 X -56 Y 93 X -46 Y 93 X -41 Y 93 X -65 Y 93 X -4 Y 93 X -81 Y 93 X 3 Y 93 X -49 Y 93 X -37 Y 744 X s 0.6 1 0.6 c black 0.6 1 0.6 c 319 584 m 530 Y 93 X -36 Y 93 X -57 Y 93 X -61 Y 93 X -56 Y
 93 X -46 Y 93 X -41 Y 93 X -65 Y 93 X -4 Y 93 X -81 Y 93 X 3 Y 93 X -49 Y 93 X -37 Y 744 X f black 0.6 1 0.6 c black 319 1114 m 93 X -36 Y 93 X -57 Y 93 X -61 Y 93 X -56 Y 93 X -46 Y 93 X -41 Y 93 X -65 Y 93 X -4 Y 93 X -81 Y 93 X 3 Y 93 X -49 Y 93
 X -37 Y 744 X s 0.999 0.999 0.999 c black 0.999 0.999 0.999 c 319 584 m 448 Y 93 X -17 Y 93 X -43 Y 93 X -47 Y 93 X -52 Y 93 X -33 Y 93 X -41 Y 93 X -57 Y 93 X -9 Y 93 X -99 Y 93 X 14 Y 93 X -32 Y 93 X -32 Y 744 X f black 0.999 0.999 0.999 c black
 319 1032 m 93 X -17 Y 93 X -43 Y 93 X -47 Y 93 X -52 Y 93 X -33 Y 93 X -41 Y 93 X -57 Y 93 X -9 Y 93 X -99 Y 93 X 14 Y 93 X -32 Y 93 X -32 Y 744 X s 1 1 1 c black 319 1032 m 93 X -17 Y 93 X -43 Y 93 X -47 Y 93 X -52 Y 93 X -33 Y 93 X -41 Y 93 X -57
 Y 93 X -9 Y 93 X -99 Y 93 X 14 Y 93 X -32 Y 93 X -32 Y 744 X s 1 0.8 0.4 c black 1 0.8 0.4 c 319 584 m 448 Y 93 X -17 Y 93 X -43 Y 93 X -47 Y 93 X -52 Y 93 X -33 Y 93 X -41 Y 93 X -57 Y 93 X -9 Y 93 X -99 Y 93 X 14 Y 93 X -32 Y 93 X -32 Y 744 X f
 black 1 0.8 0.4 c black 319 1032 m 93 X -17 Y 93 X -43 Y 93 X -47 Y 93 X -52 Y 93 X -33 Y 93 X -41 Y 93 X -57 Y 93 X -9 Y 93 X -99 Y 93 X 14 Y 93 X -32 Y 93 X -32 Y 744 X s 0.999 0.999 0.999 c black 0.999 0.999 0.999 c 319 584 m 441 Y 93 X -16 Y 93
 X -41 Y 93 X -49 Y 93 X -50 Y 93 X -32 Y 93 X -41 Y 93 X -56 Y 93 X -8 Y 93 X -102 Y 93 X 16 Y 93 X -30 Y 93 X -32 Y 744 X f black 0.999 0.999 0.999 c black 319 1025 m 93 X -16 Y 93 X -41 Y 93 X -49 Y 93 X -50 Y 93 X -32 Y 93 X -41 Y 93 X -56 Y 93 X
 -8 Y 93 X -102 Y 93 X 16 Y 93 X -30 Y 93 X -32 Y 744 X s 1 1 1 c black 319 1025 m 93 X -16 Y 93 X -41 Y 93 X -49 Y 93 X -50 Y 93 X -32 Y 93 X -41 Y 93 X -56 Y 93 X -8 Y 93 X -102 Y 93 X 16 Y 93 X -30 Y 93 X -32 Y 744 X s 1 0.4 0.6 c black 1 0.4 0.6
 c 319 584 m 441 Y 93 X -16 Y 93 X -41 Y 93 X -49 Y 93 X -50 Y 93 X -32 Y 93 X -41 Y 93 X -56 Y 93 X -8 Y 93 X -102 Y 93 X 16 Y 93 X -30 Y 93 X -32 Y 744 X f black 1 0.4 0.6 c black 319 1025 m 93 X -16 Y 93 X -41 Y 93 X -49 Y 93 X -50 Y 93 X -32 Y 93
 X -41 Y 93 X -56 Y 93 X -8 Y 93 X -102 Y 93 X 16 Y 93 X -30 Y 93 X -32 Y 744 X s 1 0 0 c 6 lw 1 1 1 c black 1 0 0 c 319 1207 m 93 X -27 Y 93 X -48 Y 93 X -53 Y 93 X -47 Y 93 X -46 Y 93 X -41 Y 93 X -49 Y 93 X -36 Y 93 X -53 Y 93 X -29 Y 93 X -28 Y
 93 X -53 Y 93 X -14 Y 93 X -72 Y 93 X -2 Y 93 X -25 Y 372 X s black 3 lw 1 0 0 c 1 lw << /PatternType 1 /PaintType 2 /TilingType 1 /BBox [ 0 0 100 100 ] /XStep 100 /YStep 100 /PaintProc { begin gsave 0 100 m 100 0 l s gr end } >> [ 0.24 0 0 0.24 0 0
 ] makepattern /P05 exch def /cs {[/Pattern /DeviceRGB] setcolorspace} def /FA {f [/DeviceRGB] setcolorspace} def cs 1 0 0 P05 setcolor 319 584 m 624 Y 93 X -27 Y 93 X -48 Y 93 X -53 Y 93 X -46 Y 93 X -45 Y 93 X -40 Y 93 X -49 Y 93 X -34 Y 93 X -51 Y
 93 X -27 Y 93 X -27 Y 93 X -53 Y 93 X -11 Y 93 X -69 Y 93 X 1 Y 93 X -45 Y -93 X 3 Y -93 X 78 Y -93 X 19 Y -93 X 52 Y -93 X 29 Y -93 X 34 Y -93 X 55 Y -93 X 38 Y -93 X 49 Y -93 X 42 Y -93 X 46 Y -93 X 48 Y -93 X 53 Y -93 X 48 Y -93 X 28 Y -93 X -622
 Y FA 6 lw 1 1 1 c 15 lw 1017 870 m -3 Y s 1017 867 m cl s 1110 875 m -1 Y s 1110 874 m cl s 1203 881 m 1 Y s 1203 882 m cl s 1203 840 m -9 Y s 1203 831 m cl s 1389 799 m 19 Y s 1389 818 m cl s 1389 759 m -47 Y s 1389 712 m cl s black 1 1 1 c 3 lw /w
 43 def /w2 {w 2 div} def /w3 {w 3 div} def 366 1208 459 1177 552 1130 645 1081 738 1044 831 974 924 941 1017 890 1110 896 1203 861 10 { m20} R 15 lw 3 lw 1389 779 m20 15 lw black 6 lw 1 1 1 c black 3 lw /w 33 def /w2 {w 2 div} def /w3 {w 3 div} def
 366 1208 m20 6 lw 3 lw 459 1177 m20 6 lw 3 lw 552 1130 m20 6 lw 3 lw 645 1081 m20 6 lw 3 lw 738 1044 m20 6 lw 3 lw 831 974 m20 6 lw 924 926 m 1 Y s 3 lw 924 941 m20 6 lw 1017 867 m 9 Y s 1017 903 m 4 Y s 3 lw 1017 890 m20 6 lw 1110 873 m 9 Y s 1110
 909 m 3 Y s 3 lw 1110 896 m20 6 lw 1203 830 m 17 Y s 1203 874 m 7 Y s 3 lw 1203 861 m20 6 lw 1389 699 m 67 Y s 1389 793 m 21 Y s 3 lw 1389 779 m20 6 lw 924 927 m -1 Y s 924 926 m cl s 1017 903 m 4 Y s 1017 907 m cl s 1017 876 m -9 Y s 1017 867 m cl
 s 1110 909 m 3 Y s 1110 912 m cl s 1110 882 m -8 Y s 1110 874 m cl s 1203 874 m 8 Y s 1203 882 m cl s 1203 847 m -16 Y s 1203 831 m cl s 1389 793 m 25 Y s 1389 818 m cl s 1389 766 m -54 Y s 1389 712 m cl s 3 lw 366 1208 459 1177 552 1130 645 1081
 738 1044 831 974 924 941 1017 890 1110 896 1203 861 10 { m20} R 6 lw 3 lw 1389 779 m20 6 lw 3 lw 319 584 m 1860 X s 412 584 m cl s 459 584 m cl s 505 584 m cl s 552 584 m cl s 598 584 m cl s 645 584 m cl s 691 584 m cl s 738 584 m cl s 784 584 m cl
 s 831 584 m cl s 877 584 m cl s 924 584 m cl s 970 584 m cl s 1017 584 m cl s 1063 584 m cl s 1110 584 m cl s 1156 584 m cl s 1203 584 m cl s 1249 584 m cl s 1296 584 m cl s 1342 584 m cl s 1389 584 m cl s 1435 584 m cl s 1482 584 m cl s 1528 584 m
 cl s 1575 584 m cl s 1621 584 m cl s 1668 584 m cl s 1714 584 m cl s 1761 584 m cl s 1807 584 m cl s 1854 584 m cl s 1900 584 m cl s 1947 584 m cl s 1993 584 m cl s 2040 584 m cl s 2086 584 m cl s 412 584 m cl s 366 584 m cl s 319 584 m cl s 2086
 584 m cl s 2133 584 m cl s 2179 584 m cl s 319 1729 m 1860 X s 412 1729 m cl s 459 1729 m cl s 505 1729 m cl s 552 1729 m cl s 598 1729 m cl s 645 1729 m cl s 691 1729 m cl s 738 1729 m cl s 784 1729 m cl s 831 1729 m cl s 877 1729 m cl s 924 1729 m
 cl s 970 1729 m cl s 1017 1729 m cl s 1063 1729 m cl s 1110 1729 m cl s 1156 1729 m cl s 1203 1729 m cl s 1249 1729 m cl s 1296 1729 m cl s 1342 1729 m cl s 1389 1729 m cl s 1435 1729 m cl s 1482 1729 m cl s 1528 1729 m cl s 1575 1729 m cl s 1621
 1729 m cl s 1668 1729 m cl s 1714 1729 m cl s 1761 1729 m cl s 1807 1729 m cl s 1854 1729 m cl s 1900 1729 m cl s 1947 1729 m cl s 1993 1729 m cl s 2040 1729 m cl s 2086 1729 m cl s 412 1729 m cl s 366 1729 m cl s 319 1729 m cl s 2086 1729 m cl s
 2133 1729 m cl s 2179 1729 m cl s 319 584 m 1145 Y s 341 629 m -22 X s 341 656 m -22 X s 341 674 m -22 X s 341 689 m -22 X s 341 701 m -22 X s 341 711 m -22 X s 341 720 m -22 X s 341 727 m -22 X s 363 734 m -44 X s 341 779 m -22 X s 341 805 m -22 X
 s 341 824 m -22 X s 341 839 m -22 X s 341 851 m -22 X s 341 861 m -22 X s 341 869 m -22 X s 341 877 m -22 X s 363 884 m -44 X s 341 929 m -22 X s 341 955 m -22 X s 341 974 m -22 X s 341 988 m -22 X s 341 1000 m -22 X s 341 1010 m -22 X s 341 1019 m
 -22 X s 341 1027 m -22 X s 363 1033 m -44 X s 341 1078 m -22 X s 341 1105 m -22 X s 341 1124 m -22 X s 341 1138 m -22 X s 341 1150 m -22 X s 341 1160 m -22 X s 341 1169 m -22 X s 341 1176 m -22 X s 363 1183 m -44 X s 341 1228 m -22 X s 341 1255 m
 -22 X s 341 1273 m -22 X s 341 1288 m -22 X s 341 1300 m -22 X s 341 1310 m -22 X s 341 1318 m -22 X s 341 1326 m -22 X s 363 1333 m -44 X s 341 1378 m -22 X s 341 1404 m -22 X s 341 1423 m -22 X s 341 1437 m -22 X s 341 1449 m -22 X s 341 1459 m
 -22 X s 341 1468 m -22 X s 341 1476 m -22 X s 363 1483 m -44 X s 341 1528 m -22 X s 341 1554 m -22 X s 341 1573 m -22 X s 341 1587 m -22 X s 341 1599 m -22 X s 341 1609 m -22 X s 341 1618 m -22 X s 341 1625 m -22 X s 363 1632 m -44 X s 341 1677 m
 -22 X s 341 1704 m -22 X s 341 1722 m -22 X s 2179 584 m 1145 Y s 2157 629 m 22 X s 2157 656 m 22 X s 2157 674 m 22 X s 2157 689 m 22 X s 2157 701 m 22 X s 2157 711 m 22 X s 2157 720 m 22 X s 2157 727 m 22 X s 2136 734 m 43 X s 2157 779 m 22 X s
 2157 805 m 22 X s 2157 824 m 22 X s 2157 839 m 22 X s 2157 851 m 22 X s 2157 861 m 22 X s 2157 869 m 22 X s 2157 877 m 22 X s 2136 884 m 43 X s 2157 929 m 22 X s 2157 955 m 22 X s 2157 974 m 22 X s 2157 988 m 22 X s 2157 1000 m 22 X s 2157 1010 m 22
 X s 2157 1019 m 22 X s 2157 1027 m 22 X s 2136 1033 m 43 X s 2157 1078 m 22 X s 2157 1105 m 22 X s 2157 1124 m 22 X s 2157 1138 m 22 X s 2157 1150 m 22 X s 2157 1160 m 22 X s 2157 1169 m 22 X s 2157 1176 m 22 X s 2136 1183 m 43 X s 2157 1228 m 22 X
 s 2157 1255 m 22 X s 2157 1273 m 22 X s 2157 1288 m 22 X s 2157 1300 m 22 X s 2157 1310 m 22 X s 2157 1318 m 22 X s 2157 1326 m 22 X s 2136 1333 m 43 X s 2157 1378 m 22 X s 2157 1404 m 22 X s 2157 1423 m 22 X s 2157 1437 m 22 X s 2157 1449 m 22 X s
 2157 1459 m 22 X s 2157 1468 m 22 X s 2157 1476 m 22 X s 2136 1483 m 43 X s 2157 1528 m 22 X s 2157 1554 m 22 X s 2157 1573 m 22 X s 2157 1587 m 22 X s 2157 1599 m 22 X s 2157 1609 m 22 X s 2157 1618 m 22 X s 2157 1625 m 22 X s 2136 1632 m 43 X s
 2157 1677 m 22 X s 2157 1704 m 22 X s 2157 1722 m 22 X s
 gsave  2263 1770 2 313 C 406.765 1447.41 t 0 r /Helvetica findfont 64.4212 sf 0 0 m (CRW for MB\255GGd) show NC gr 
 gsave  2263 1770 2 313 C 1464.36 1616.89 t 0 r /Helvetica findfont 64.4212 sf 0 0 m (SM Total) show NC gr  1 1 1 c 1338 1603 m 107 X 74 Y -107 X f 1 0 0 c 6 lw 1338 1640 m 107 X s black
 gsave  2263 1770 2 313 C 1464.36 1511.81 t 0 r /Helvetica findfont 64.4212 sf 0 0 m (Data) show NC gr  1391 1502 m 64 Y s 3 lw 1391 1534 m20 6 lw
 gsave  2263 1770 2 313 C 1464.36 1406.73 t 0 r /Helvetica findfont 64.4212 sf 0 0 m (W+jets) show NC gr  0.4 0.6 1 c 3 lw 1338 1391 m 107 X 74 Y -107 X f 6 lw black 3 lw 1338 1465 m 107 X s 1338 1391 m 107 X s 1445 1391 m 74 Y s 1338 1391 m 74 Y s
 gsave  2263 1770 2 313 C 1498.25 1298.26 t 0 r /Helvetica findfont 64.4212 sf 0 0 m (\(+EW\) & single top) show NC gr 
 gsave  2263 1770 2 313 C 1481.3 1298.26 t 0 r /Helvetica findfont 64.4212 sf 0 0 m (t) show NC gr  1481 1349 m 17 X s
 gsave  2263 1770 2 313 C 1464.36 1298.26 t 0 r /Helvetica findfont 64.4212 sf 0 0 m (t) show NC gr  0.6 1 0.6 c 1338 1284 m 107 X 75 Y -107 X f black 1338 1359 m 107 X s 1338 1284 m 107 X s 1445 1284 m 75 Y s 1338 1284 m 75 Y s
 gsave  2263 1770 2 313 C 1464.36 1193.18 t 0 r /Helvetica findfont 64.4212 sf 0 0 m (Z+jets) show NC gr  1 0.8 0.4 c 1338 1178 m 107 X 75 Y -107 X f black 1338 1253 m 107 X s 1338 1178 m 107 X s 1445 1178 m 75 Y s 1338 1178 m 75 Y s
 gsave  2263 1770 2 313 C 1464.36 1088.1 t 0 r /Helvetica findfont 64.4212 sf 0 0 m (Diboson) show NC gr  1 0.4 0.6 c 1338 1072 m 107 X 74 Y -107 X f black 1338 1146 m 107 X s 1338 1072 m 107 X s 1445 1072 m 74 Y s 1338 1072 m 74 Y s
 gsave  2263 1770 2 313 C 911.832 1566.05 t 0 r /Helvetica findfont 44.0776 sf 0 0 m (\2551) show NC gr 
 gsave  2263 1770 2 313 C 471.17 1535.54 t 0 r /Helvetica findfont 64.4212 sf 0 0 m (=13TeV, 139 fb) show NC gr 
 gsave  2263 1770 2 313 C 440.662 1535.54 t 0 r /Helvetica findfont 64.4212 sf 0 0 m (s) show NC gr  6 lw 420 1573 m 7 -41 d s 3 lw 427 1532 m 7 61 d s 434 1593 m 37 X s 1 1 1 c 2254 561 2 2 bf black 1 1 1 c black 1860 358 318 187 bl 1 1 1 c black
 1860 358 318 187 bl 6 lw 1 1 1 c black 3 lw 364 369 m20 6 lw 3 lw 457 361 m20 6 lw 3 lw 550 362 m20 6 lw 3 lw 643 373 m20 6 lw 3 lw 736 399 m20 6 lw 3 lw 829 338 m20 6 lw 3 lw 923 355 m20 6 lw 3 lw 1016 351 m20 6 lw 3 lw 1109 484 m20 6 lw 3 lw 1388
 459 m20 6 lw 3 lw 318 187 m 1860 X s
 gsave  2254 561 2 2 C 1959.25 27.1177 t 0 r /Helvetica findfont 78.1689 sf 0 0 m ( [GeV]) show NC gr 
 gsave  2254 561 2 2 C 1854.17 64.4045 t 0 r /Helvetica findfont 50.9797 sf 0 0 m (miss) show NC gr 
 gsave  2254 561 2 2 C 1854.17 3.38971 t 0 r /Helvetica findfont 50.9797 sf 0 0 m (T) show NC gr 
 gsave  2254 561 2 2 C 1803.33 27.1177 t 0 r /Helvetica findfont 78.1689 sf 0 0 m (E) show NC gr  411 201 m -14 Y s 457 194 m -7 Y s 504 194 m -7 Y s 550 194 m -7 Y s 597 201 m -14 Y s 643 194 m -7 Y s 690 194 m -7 Y s 736 194 m -7 Y s 783 201 m -14
 Y s 829 194 m -7 Y s 876 194 m -7 Y s 923 194 m -7 Y s 969 201 m -14 Y s 1016 194 m -7 Y s 1062 194 m -7 Y s 1109 194 m -7 Y s 1155 201 m -14 Y s 1202 194 m -7 Y s 1248 194 m -7 Y s 1295 194 m -7 Y s 1341 201 m -14 Y s 1388 194 m -7 Y s 1434 194 m
 -7 Y s 1481 194 m -7 Y s 1527 201 m -14 Y s 1574 194 m -7 Y s 1620 194 m -7 Y s 1667 194 m -7 Y s 1713 201 m -14 Y s 1760 194 m -7 Y s 1806 194 m -7 Y s 1853 194 m -7 Y s 1899 201 m -14 Y s 1946 194 m -7 Y s 1992 194 m -7 Y s 2039 194 m -7 Y s 2085
 201 m -14 Y s 411 201 m -14 Y s 364 194 m -7 Y s 318 194 m -7 Y s 2085 201 m -14 Y s 2132 194 m -7 Y s
 gsave  2254 561 2 2 C 345.75 118.64 t 0 r /Helvetica findfont 78.1689 sf 0 0 m (400) show NC gr 
 gsave  2254 561 2 2 C 532.185 118.64 t 0 r /Helvetica findfont 78.1689 sf 0 0 m (600) show NC gr 
 gsave  2254 561 2 2 C 715.229 118.64 t 0 r /Helvetica findfont 78.1689 sf 0 0 m (800) show NC gr 
 gsave  2254 561 2 2 C 877.935 118.64 t 0 r /Helvetica findfont 78.1689 sf 0 0 m (1000) show NC gr 
 gsave  2254 561 2 2 C 1064.37 118.64 t 0 r /Helvetica findfont 78.1689 sf 0 0 m (1200) show NC gr 
 gsave  2254 561 2 2 C 1250.8 118.64 t 0 r /Helvetica findfont 78.1689 sf 0 0 m (1400) show NC gr 
 gsave  2254 561 2 2 C 1437.24 118.64 t 0 r /Helvetica findfont 78.1689 sf 0 0 m (1600) show NC gr 
 gsave  2254 561 2 2 C 1623.67 118.64 t 0 r /Helvetica findfont 78.1689 sf 0 0 m (1800) show NC gr 
 gsave  2254 561 2 2 C 1810.11 118.64 t 0 r /Helvetica findfont 78.1689 sf 0 0 m (2000) show NC gr 
 gsave  2254 561 2 2 C 1996.54 118.64 t 0 r /Helvetica findfont 78.1689 sf 0 0 m (2200) show NC gr  318 545 m 1860 X s 411 531 m 14 Y s 457 538 m 7 Y s 504 538 m 7 Y s 550 538 m 7 Y s 597 531 m 14 Y s 643 538 m 7 Y s 690 538 m 7 Y s 736 538 m 7 Y s
 783 531 m 14 Y s 829 538 m 7 Y s 876 538 m 7 Y s 923 538 m 7 Y s 969 531 m 14 Y s 1016 538 m 7 Y s 1062 538 m 7 Y s 1109 538 m 7 Y s 1155 531 m 14 Y s 1202 538 m 7 Y s 1248 538 m 7 Y s 1295 538 m 7 Y s 1341 531 m 14 Y s 1388 538 m 7 Y s 1434 538 m 7
 Y s 1481 538 m 7 Y s 1527 531 m 14 Y s 1574 538 m 7 Y s 1620 538 m 7 Y s 1667 538 m 7 Y s 1713 531 m 14 Y s 1760 538 m 7 Y s 1806 538 m 7 Y s 1853 538 m 7 Y s 1899 531 m 14 Y s 1946 538 m 7 Y s 1992 538 m 7 Y s 2039 538 m 7 Y s 2085 531 m 14 Y s 411
 531 m 14 Y s 364 538 m 7 Y s 318 538 m 7 Y s 2085 531 m 14 Y s 2132 538 m 7 Y s 318 187 m 358 Y s
 gsave  2254 561 2 2 C 166.096 284.736 t 90 r /Helvetica findfont 67.9729 sf 0 0 m (Data/SM) show NC gr  361 203 m -43 X s 339 220 m -21 X s 339 236 m -21 X s 339 252 m -21 X s 339 268 m -21 X s 361 285 m -43 X s 339 301 m -21 X s 339 317 m -21 X s
 339 334 m -21 X s 339 350 m -21 X s 361 366 m -43 X s 339 382 m -21 X s 339 399 m -21 X s 339 415 m -21 X s 339 431 m -21 X s 361 447 m -43 X s 339 464 m -21 X s 339 480 m -21 X s 339 496 m -21 X s 339 512 m -21 X s 361 529 m -43 X s 361 203 m -43 X
 s 339 187 m -21 X s 361 529 m -43 X s
 gsave  2254 561 2 2 C 261.008 183.044 t 0 r /Helvetica findfont 57.777 sf 0 0 m (0) show NC gr 
 gsave  2254 561 2 2 C 213.552 261.008 t 0 r /Helvetica findfont 57.777 sf 0 0 m (0.5) show NC gr 
 gsave  2254 561 2 2 C 271.177 342.361 t 0 r /Helvetica findfont 57.777 sf 0 0 m (1) show NC gr 
 gsave  2254 561 2 2 C 213.552 423.714 t 0 r /Helvetica findfont 57.777 sf 0 0 m (1.5) show NC gr 
 gsave  2254 561 2 2 C 261.008 505.067 t 0 r /Helvetica findfont 57.777 sf 0 0 m (2) show NC gr  2178 187 m 358 Y s 2135 203 m 43 X s 2157 220 m 21 X s 2157 236 m 21 X s 2157 252 m 21 X s 2157 268 m 21 X s 2135 285 m 43 X s 2157 301 m 21 X s 2157 317
 m 21 X s 2157 334 m 21 X s 2157 350 m 21 X s 2135 366 m 43 X s 2157 382 m 21 X s 2157 399 m 21 X s 2157 415 m 21 X s 2157 431 m 21 X s 2135 447 m 43 X s 2157 464 m 21 X s 2157 480 m 21 X s 2157 496 m 21 X s 2157 512 m 21 X s 2135 529 m 43 X s 2135
 203 m 43 X s 2157 187 m 21 X s 2135 529 m 43 X s 9 lw 736 413 m 4 Y s 736 417 m cl s 736 386 m -5 Y s 736 381 m cl s 829 352 m 8 Y s 829 360 m cl s 829 325 m -8 Y s 829 317 m cl s 923 369 m 17 Y s 923 386 m cl s 923 342 m -18 Y s 923 324 m cl s 1016
 365 m 32 Y s 1016 397 m cl s 1016 338 m -31 Y s 1016 307 m cl s 1109 498 m 47 Y s 1109 545 m cl s 1109 471 m -66 Y s 1109 405 m cl s 1202 545 m -108 Y s 1202 437 m cl s 1388 473 m 72 Y s 1388 545 m cl s 1388 446 m -151 Y s 1388 295 m cl s 3 lw 364
 369 457 361 550 362 643 373 736 399 829 338 923 355 1016 351 1109 484 9 { m20} R 9 lw 3 lw 1388 459 m20 9 lw 1 0 0 c 6 lw black 3 lw 1 0 0 c 2155 203 m cl s 2127 203 m cl s 2098 203 m cl s 2085 220 m s 2085 248 m s 2085 277 m -28 -28 d s 2085 305 m
 -57 -56 d s 2085 334 m -85 -85 d s 2085 363 m -103 -103 d s 2085 391 m -131 -131 d s 1899 206 m -6 -7 d s 2085 420 m -160 -160 d s 1899 234 m -35 -35 d s 2085 448 m -249 -249 d s 2085 477 m -278 -278 d s 2063 483 m -257 -256 d s 2035 483 m -229 -227
 d s 2006 483 m -200 -198 d s 1966 472 m -166 -165 d s 1937 472 m -165 -165 d s 1908 472 m -165 -165 d s 1899 492 m -185 -185 d s 1899 520 m -93 -92 d s 1804 425 m -109 -108 d s 1883 533 m -77 -77 d s 1775 425 m -108 -108 d s 1854 533 m -48 -48 d s
 1746 425 m -108 -108 d s 1826 533 m -20 -20 d s 1718 425 m -5 -4 d s 1708 415 m -90 -89 d s 1679 415 m -89 -89 d s 1650 415 m -89 -89 d s 1622 415 m -2 -1 d s 1613 406 m -81 -80 d s 1584 406 m -70 -70 d s 1555 406 m -70 -70 d s 1516 396 m -60 -60 d
 s 1488 396 m -61 -61 d s 1459 396 m -61 -61 d s 1431 397 m -62 -62 d s 1403 397 m -62 -61 d s 1374 397 m -60 -59 d s 1345 397 m -59 -59 d s 1314 394 m -57 -56 d s 1285 394 m -48 -48 d s 1257 394 m -49 -48 d s 1219 386 m -40 -40 d s 1191 386 m -36
 -36 d s 1162 386 m -34 -34 d s 1128 380 m -29 -28 d s 1099 380 m -29 -28 d s 1070 380 m -24 -24 d s 1037 376 m -20 -20 d s 1009 376 m -20 -20 d s 980 376 m -19 -19 d s 951 375 m -19 -18 d s 922 375 m -19 -18 d s 893 375 m -17 -17 d s 862 373 m -14
 -14 d s 834 373 m -15 -14 d s 805 373 m -14 -14 d s 775 372 m -12 -12 d s 747 372 m -13 -12 d s 718 372 m -12 -12 d s 688 371 m -10 -10 d s 659 371 m -9 -10 d s 630 371 m -9 -10 d s 602 371 m -9 -9 d s 572 370 m -8 -8 d s 544 370 m -8 -8 d s 515 370
 m -8 -8 d s 486 370 m -8 -8 d s 457 370 m -7 -8 d s 318 231 m s 429 370 m -8 -8 d s 318 259 m s 400 370 m -7 -8 d s 318 288 m s 371 370 m -7 -8 d s 318 317 m s 342 370 m -7 -8 d s 318 345 m s 6 lw black[ 4 8] 0 sd 3 lw 318 447 m 1860 X s 318 285 m
 1860 X s 1 0 0 c[  12 12 ] 0 sd 6 lw 318 366 m 1860 X s
 gr  gr showpage
end
%%EOF
