%!PS-Adobe-2.0 EPSF-2.0
%%BoundingBox:  0 0 567 521
%%Title: Distributions/met_distrCRT_MB-C_beforeFit_forThesis.eps: canvas
%%Creator: ROOT Version 6.04/16
%%CreationDate: Tue May 19 22:01:08 2020
%%DocumentNeededResources: ProcSet (FontSetInit)
%%EndComments
%%BeginProlog
80 dict begin
/s {stroke} def /l {lineto} def /m {moveto} def /t {translate} def
/r {rotate} def /rl {roll}  def /R {repeat} def
/d {rlineto} def /rm {rmoveto} def /gr {grestore} def /f {eofill} def
/c {setrgbcolor} def /black {0 setgray} def /sd {setdash} def
/cl {closepath} def /sf {scalefont setfont} def /lw {setlinewidth} def
/box {m dup 0 exch d exch 0 d 0 exch neg d cl} def
/NC{systemdict begin initclip end}def/C{NC box clip newpath}def
/bl {box s} def /bf {gsave box gsave f grestore 1 lw [] 0 sd s grestore} def /Y { 0 exch d} def /X { 0 d} def 
/K {{pop pop 0 moveto} exch kshow} bind def
/ita {/ang 15 def gsave [1 0 ang dup sin exch cos div 1 0 0] concat} def 
/mp {newpath /y exch def /x exch def} def
/side {[w .77 mul w .23 mul] .385 w mul sd w 0 l currentpoint t -144 r} def
/mr {mp x y w2 0 360 arc} def /m24 {mr s} def /m20 {mr f} def
/mb {mp x y w2 add m w2 neg 0 d 0 w neg d w 0 d 0 w d cl} def
/mt {mp x y w2 add m w2 neg w neg d w 0 d cl} def
/m21 {mb f} def /m25 {mb s} def /m22 {mt f} def /m26{mt s} def
/m23 {mp x y w2 sub m w2 w d w neg 0 d cl f} def
/m27 {mp x y w2 add m w3 neg w2 neg d w3 w2 neg d w3 w2 d cl s} def
/m28 {mp x w2 sub y w2 sub w3 add m w3 0 d  0 w3 neg d w3 0 d 0 w3 d w3 0 d  0 w3 d w3 neg 0 d 0 w3 d w3 neg 0 d 0 w3 neg d w3 neg 0 d cl s } def
/m29 {mp gsave x w2 sub y w2 add w3 sub m currentpoint t 4 {side} repeat cl fill gr} def
/m30 {mp gsave x w2 sub y w2 add w3 sub m currentpoint t 4 {side} repeat cl s gr} def
/m31 {mp x y w2 sub m 0 w d x w2 sub y m w 0 d x w2 sub y w2 add m w w neg d x w2 sub y w2 sub m w w d s} def
/m32 {mp x y w2 sub m w2 w d w neg 0 d cl s} def
/m33 {mp x y w2 add m w3 neg w2 neg d w3 w2 neg d w3 w2 d cl f} def
/m34 {mp x w2 sub y w2 sub w3 add m w3 0 d  0 w3 neg d w3 0 d 0 w3 d w3 0 d  0 w3 d w3 neg 0 d 0 w3 d w3 neg 0 d 0 w3 neg d w3 neg 0 d cl f } def
/m2 {mp x y w2 sub m 0 w d x w2 sub y m w 0 d s} def
/m5 {mp x w2 sub y w2 sub m w w d x w2 sub y w2 add m w w neg d s} def
%%IncludeResource: ProcSet (FontSetInit)
%%IncludeResource: font Times-Roman
%%IncludeResource: font Times-Italic
%%IncludeResource: font Times-Bold
%%IncludeResource: font Times-BoldItalic
%%IncludeResource: font Helvetica
%%IncludeResource: font Helvetica-Oblique
%%IncludeResource: font Helvetica-Bold
%%IncludeResource: font Helvetica-BoldOblique
%%IncludeResource: font Courier
%%IncludeResource: font Courier-Oblique
%%IncludeResource: font Courier-Bold
%%IncludeResource: font Courier-BoldOblique
%%IncludeResource: font Symbol
%%IncludeResource: font ZapfDingbats
/reEncode {exch findfont dup length dict begin {1 index /FID eq  {pop pop} {def} ifelse } forall /Encoding exch def currentdict end dup /FontName get exch definefont pop } def [/Times-Bold /Times-Italic /Times-BoldItalic /Helvetica /Helvetica-Oblique
 /Helvetica-Bold /Helvetica-BoldOblique /Courier /Courier-Oblique /Courier-Bold /Courier-BoldOblique /Times-Roman /AvantGarde-Book /AvantGarde-BookOblique /AvantGarde-Demi /AvantGarde-DemiOblique /Bookman-Demi /Bookman-DemiItalic /Bookman-Light
 /Bookman-LightItalic /Helvetica-Narrow /Helvetica-Narrow-Bold /Helvetica-Narrow-BoldOblique /Helvetica-Narrow-Oblique /NewCenturySchlbk-Roman /NewCenturySchlbk-Bold /NewCenturySchlbk-BoldItalic /NewCenturySchlbk-Italic /Palatino-Bold
 /Palatino-BoldItalic /Palatino-Italic /Palatino-Roman ] {ISOLatin1Encoding reEncode } forall
%%EndProlog
%%BeginSetup
%%EndSetup
newpath  gsave  .25 .25 scale  gsave  0 0 t black[  ] 0 sd 3 lw 1 1 1 c 2268 2085 0 0 bf black 1 1 1 c 2263 1770 2 313 bf black 1 1 1 c black 1860 1145 319 584 bl 1 1 1 c black 1860 1145 319 584 bl 6 lw 1 1 1 c black 3 lw /w 33 def /w2 {w 2 div} def
 /w3 {w 3 div} def 366 1033 m20 6 lw 3 lw 459 1111 m20 6 lw 3 lw 552 1093 m20 6 lw 3 lw 645 1061 m20 6 lw 3 lw 738 1025 m20 6 lw 3 lw 831 982 m20 6 lw 3 lw 924 925 m20 6 lw 1017 863 m 4 Y s 1017 894 m s 3 lw 1017 880 m20 6 lw 1110 780 m 22 Y s 1110
 829 m 8 Y s 3 lw 1110 816 m20 6 lw 1203 807 m 15 Y s 1203 849 m 5 Y s 3 lw 1203 835 m20 6 lw 1296 584 m 123 Y s 1296 734 m 27 Y s 3 lw 1296 720 m20 6 lw 1389 761 m 28 Y s 1389 816 m 10 Y s 3 lw 1389 802 m20 6 lw 3 lw 319 584 m 1860 X s
 gsave  2263 1770 2 313 C 1949.08 355.92 t 0 r /Helvetica findfont 81.3741 sf 0 0 m ( [GeV]) show NC gr 
 gsave  2263 1770 2 313 C 1837.22 396.596 t 0 r /Helvetica findfont 54.2494 sf 0 0 m (miss) show NC gr 
 gsave  2263 1770 2 313 C 1837.22 332.192 t 0 r /Helvetica findfont 54.2494 sf 0 0 m (T) show NC gr 
 gsave  2263 1770 2 313 C 1786.38 355.92 t 0 r /Helvetica findfont 81.3741 sf 0 0 m (E) show NC gr  412 584 m cl s 459 584 m cl s 505 584 m cl s 552 584 m cl s 598 584 m cl s 645 584 m cl s 691 584 m cl s 738 584 m cl s 784 584 m cl s 831 584 m cl s
 877 584 m cl s 924 584 m cl s 970 584 m cl s 1017 584 m cl s 1063 584 m cl s 1110 584 m cl s 1156 584 m cl s 1203 584 m cl s 1249 584 m cl s 1296 584 m cl s 1342 584 m cl s 1389 584 m cl s 1435 584 m cl s 1482 584 m cl s 1528 584 m cl s 1575 584 m
 cl s 1621 584 m cl s 1668 584 m cl s 1714 584 m cl s 1761 584 m cl s 1807 584 m cl s 1854 584 m cl s 1900 584 m cl s 1947 584 m cl s 1993 584 m cl s 2040 584 m cl s 2086 584 m cl s 412 584 m cl s 366 584 m cl s 319 584 m cl s 2086 584 m cl s 2133
 584 m cl s 2179 584 m cl s 319 1729 m 1860 X s 412 1729 m cl s 459 1729 m cl s 505 1729 m cl s 552 1729 m cl s 598 1729 m cl s 645 1729 m cl s 691 1729 m cl s 738 1729 m cl s 784 1729 m cl s 831 1729 m cl s 877 1729 m cl s 924 1729 m cl s 970 1729 m
 cl s 1017 1729 m cl s 1063 1729 m cl s 1110 1729 m cl s 1156 1729 m cl s 1203 1729 m cl s 1249 1729 m cl s 1296 1729 m cl s 1342 1729 m cl s 1389 1729 m cl s 1435 1729 m cl s 1482 1729 m cl s 1528 1729 m cl s 1575 1729 m cl s 1621 1729 m cl s 1668
 1729 m cl s 1714 1729 m cl s 1761 1729 m cl s 1807 1729 m cl s 1854 1729 m cl s 1900 1729 m cl s 1947 1729 m cl s 1993 1729 m cl s 2040 1729 m cl s 2086 1729 m cl s 412 1729 m cl s 366 1729 m cl s 319 1729 m cl s 2086 1729 m cl s 2133 1729 m cl s
 2179 1729 m cl s 319 584 m 1145 Y s
 gsave  2263 1770 2 313 C 166.096 1091.49 t 90 r /Helvetica findfont 81.3741 sf 0 0 m (Events / 100 GeV) show NC gr  341 625 m -22 X s 341 649 m -22 X s 341 666 m -22 X s 341 679 m -22 X s 341 690 m -22 X s 341 699 m -22 X s 341 707 m -22 X s 341 714
 m -22 X s 363 720 m -44 X s
 gsave  2263 1770 2 313 C 300.555 693.289 t 0 r  -36 0 t /Helvetica findfont 64.4212 sf 0 0 m (1) show NC gr  341 761 m -22 X s 341 785 m -22 X s 341 802 m -22 X s 341 816 m -22 X s 341 826 m -22 X s 341 835 m -22 X s 341 843 m -22 X s 341 850 m -22
 X s 363 857 m -44 X s
 gsave  2263 1770 2 313 C 300.555 829.385 t 0 r  -73 0 t /Helvetica findfont 64.4212 sf 0 0 m (10) show NC gr  341 897 m -22 X s 341 921 m -22 X s 341 938 m -22 X s 341 952 m -22 X s 341 962 m -22 X s 341 972 m -22 X s 341 979 m -22 X s 341 986 m -22
 X s 363 993 m -44 X s
 gsave  2263 1770 2 313 C 274.567 989.796 t 0 r /Helvetica findfont 44.0776 sf 0 0 m (2) show NC gr 
 gsave  2263 1770 2 313 C 203.383 962.678 t 0 r /Helvetica findfont 64.4212 sf 0 0 m (10) show NC gr  341 1034 m -22 X s 341 1058 m -22 X s 341 1075 m -22 X s 341 1088 m -22 X s 341 1099 m -22 X s 341 1108 m -22 X s 341 1116 m -22 X s 341 1122 m -22
 X s 363 1129 m -44 X s
 gsave  2263 1770 2 313 C 274.567 1128.77 t 0 r /Helvetica findfont 44.0776 sf 0 0 m (3) show NC gr 
 gsave  2263 1770 2 313 C 203.383 1098.27 t 0 r /Helvetica findfont 64.4212 sf 0 0 m (10) show NC gr  341 1170 m -22 X s 341 1194 m -22 X s 341 1211 m -22 X s 341 1224 m -22 X s 341 1235 m -22 X s 341 1244 m -22 X s 341 1252 m -22 X s 341 1259 m -22
 X s 363 1265 m -44 X s
 gsave  2263 1770 2 313 C 274.567 1264.36 t 0 r /Helvetica findfont 44.0776 sf 0 0 m (4) show NC gr 
 gsave  2263 1770 2 313 C 203.383 1237.24 t 0 r /Helvetica findfont 64.4212 sf 0 0 m (10) show NC gr  341 1306 m -22 X s 341 1330 m -22 X s 341 1347 m -22 X s 341 1360 m -22 X s 341 1371 m -22 X s 341 1380 m -22 X s 341 1388 m -22 X s 341 1395 m -22
 X s 363 1401 m -44 X s
 gsave  2263 1770 2 313 C 274.567 1403.34 t 0 r /Helvetica findfont 44.0776 sf 0 0 m (5) show NC gr 
 gsave  2263 1770 2 313 C 203.383 1372.83 t 0 r /Helvetica findfont 64.4212 sf 0 0 m (10) show NC gr  341 1442 m -22 X s 341 1466 m -22 X s 341 1483 m -22 X s 341 1496 m -22 X s 341 1507 m -22 X s 341 1516 m -22 X s 341 1524 m -22 X s 341 1531 m -22
 X s 363 1537 m -44 X s
 gsave  2263 1770 2 313 C 274.567 1538.93 t 0 r /Helvetica findfont 44.0776 sf 0 0 m (6) show NC gr 
 gsave  2263 1770 2 313 C 203.383 1508.42 t 0 r /Helvetica findfont 64.4212 sf 0 0 m (10) show NC gr  341 1578 m -22 X s 341 1602 m -22 X s 341 1619 m -22 X s 341 1632 m -22 X s 341 1643 m -22 X s 341 1652 m -22 X s 341 1660 m -22 X s 341 1667 m -22
 X s 363 1673 m -44 X s
 gsave  2263 1770 2 313 C 274.567 1671.13 t 0 r /Helvetica findfont 44.0776 sf 0 0 m (7) show NC gr 
 gsave  2263 1770 2 313 C 203.383 1644.01 t 0 r /Helvetica findfont 64.4212 sf 0 0 m (10) show NC gr  341 1714 m -22 X s 2179 584 m 1145 Y s 2157 625 m 22 X s 2157 649 m 22 X s 2157 666 m 22 X s 2157 679 m 22 X s 2157 690 m 22 X s 2157 699 m 22 X s
 2157 707 m 22 X s 2157 714 m 22 X s 2136 720 m 43 X s 2157 761 m 22 X s 2157 785 m 22 X s 2157 802 m 22 X s 2157 816 m 22 X s 2157 826 m 22 X s 2157 835 m 22 X s 2157 843 m 22 X s 2157 850 m 22 X s 2136 857 m 43 X s 2157 897 m 22 X s 2157 921 m 22 X
 s 2157 938 m 22 X s 2157 952 m 22 X s 2157 962 m 22 X s 2157 972 m 22 X s 2157 979 m 22 X s 2157 986 m 22 X s 2136 993 m 43 X s 2157 1034 m 22 X s 2157 1058 m 22 X s 2157 1075 m 22 X s 2157 1088 m 22 X s 2157 1099 m 22 X s 2157 1108 m 22 X s 2157
 1116 m 22 X s 2157 1122 m 22 X s 2136 1129 m 43 X s 2157 1170 m 22 X s 2157 1194 m 22 X s 2157 1211 m 22 X s 2157 1224 m 22 X s 2157 1235 m 22 X s 2157 1244 m 22 X s 2157 1252 m 22 X s 2157 1259 m 22 X s 2136 1265 m 43 X s 2157 1306 m 22 X s 2157
 1330 m 22 X s 2157 1347 m 22 X s 2157 1360 m 22 X s 2157 1371 m 22 X s 2157 1380 m 22 X s 2157 1388 m 22 X s 2157 1395 m 22 X s 2136 1401 m 43 X s 2157 1442 m 22 X s 2157 1466 m 22 X s 2157 1483 m 22 X s 2157 1496 m 22 X s 2157 1507 m 22 X s 2157
 1516 m 22 X s 2157 1524 m 22 X s 2157 1531 m 22 X s 2136 1537 m 43 X s 2157 1578 m 22 X s 2157 1602 m 22 X s 2157 1619 m 22 X s 2157 1632 m 22 X s 2157 1643 m 22 X s 2157 1652 m 22 X s 2157 1660 m 22 X s 2157 1667 m 22 X s 2136 1673 m 43 X s 2157
 1714 m 22 X s 0.6 1 0.6 c black 0.6 1 0.6 c 319 584 m 467 Y 93 X 79 Y 93 X -21 Y 93 X -30 Y 93 X -33 Y 93 X -44 Y 93 X -38 Y 93 X -49 Y 93 X -44 Y 93 X -34 Y 93 X -65 Y 93 X -33 Y 93 X -22 Y 93 X -32 Y 93 X -13 Y 93 X -56 Y 93 X -32 Y 372 X f black
 0.6 1 0.6 c black 319 1051 m 93 X 79 Y 93 X -21 Y 93 X -30 Y 93 X -33 Y 93 X -44 Y 93 X -38 Y 93 X -49 Y 93 X -44 Y 93 X -34 Y 93 X -65 Y 93 X -33 Y 93 X -22 Y 93 X -32 Y 93 X -13 Y 93 X -56 Y 93 X -32 Y 372 X s 0.999 0.999 0.999 c black 0.999 0.999
 0.999 c 319 584 m 364 Y 93 X 89 Y 93 X -13 Y 93 X -14 Y 93 X -19 Y 93 X -34 Y 93 X -40 Y 93 X -37 Y 93 X -34 Y 93 X -34 Y 93 X -60 Y 93 X -22 Y 93 X -55 Y 186 X -7 Y 93 X -55 Y 93 X -29 Y 372 X f black 0.999 0.999 0.999 c black 319 948 m 93 X 89 Y
 93 X -13 Y 93 X -14 Y 93 X -19 Y 93 X -34 Y 93 X -40 Y 93 X -37 Y 93 X -34 Y 93 X -34 Y 93 X -60 Y 93 X -22 Y 93 X -55 Y 186 X -7 Y 93 X -55 Y 93 X -29 Y 372 X s 1 1 1 c black 319 948 m 93 X 89 Y 93 X -13 Y 93 X -14 Y 93 X -19 Y 93 X -34 Y 93 X -40
 Y 93 X -37 Y 93 X -34 Y 93 X -34 Y 93 X -60 Y 93 X -22 Y 93 X -55 Y 186 X -7 Y 93 X -55 Y 93 X -29 Y 372 X s 0.4 0.6 1 c black 0.4 0.6 1 c 319 584 m 364 Y 93 X 89 Y 93 X -13 Y 93 X -14 Y 93 X -19 Y 93 X -34 Y 93 X -40 Y 93 X -37 Y 93 X -34 Y 93 X
 -34 Y 93 X -60 Y 93 X -22 Y 93 X -55 Y 186 X -7 Y 93 X -55 Y 93 X -29 Y 372 X f black 0.4 0.6 1 c black 319 948 m 93 X 89 Y 93 X -13 Y 93 X -14 Y 93 X -19 Y 93 X -34 Y 93 X -40 Y 93 X -37 Y 93 X -34 Y 93 X -34 Y 93 X -60 Y 93 X -22 Y 93 X -55 Y 186
 X -7 Y 93 X -55 Y 93 X -29 Y 372 X s 0.999 0.999 0.999 c black 0.999 0.999 0.999 c 319 584 m 218 Y 93 X 107 Y 93 X -26 Y 93 X -9 Y 93 X -19 Y 93 X -44 Y 93 X -49 Y 93 X -33 Y 93 X -22 Y 93 X -23 Y 93 X -28 Y 93 X -27 Y 93 X -45 Y 186 X 36 Y 93 X -36
 Y 465 X f black 0.999 0.999 0.999 c black 319 802 m 93 X 107 Y 93 X -26 Y 93 X -9 Y 93 X -19 Y 93 X -44 Y 93 X -49 Y 93 X -33 Y 93 X -22 Y 93 X -23 Y 93 X -28 Y 93 X -27 Y 93 X -45 Y 186 X 36 Y 93 X -36 Y 465 X s 1 1 1 c black 319 802 m 93 X 107 Y
 93 X -26 Y 93 X -9 Y 93 X -19 Y 93 X -44 Y 93 X -49 Y 93 X -33 Y 93 X -22 Y 93 X -23 Y 93 X -28 Y 93 X -27 Y 93 X -45 Y 186 X 36 Y 93 X -36 Y 465 X s 1 0.8 0.4 c black 1 0.8 0.4 c 319 584 m 218 Y 93 X 107 Y 93 X -26 Y 93 X -9 Y 93 X -19 Y 93 X -44 Y
 93 X -49 Y 93 X -33 Y 93 X -22 Y 93 X -23 Y 93 X -28 Y 93 X -27 Y 93 X -45 Y 186 X 36 Y 93 X -36 Y 465 X f black 1 0.8 0.4 c black 319 802 m 93 X 107 Y 93 X -26 Y 93 X -9 Y 93 X -19 Y 93 X -44 Y 93 X -49 Y 93 X -33 Y 93 X -22 Y 93 X -23 Y 93 X -28 Y
 93 X -27 Y 93 X -45 Y 186 X 36 Y 93 X -36 Y 465 X s 0.999 0.999 0.999 c black 0.999 0.999 0.999 c 319 584 m 199 Y 93 X 120 Y 93 X -27 Y 93 X -7 Y 93 X -18 Y 93 X -47 Y 93 X -49 Y 93 X -30 Y 93 X -21 Y 93 X -23 Y 93 X -28 Y 93 X -24 Y 93 X -45 Y 186
 X 36 Y 93 X -36 Y 465 X f black 0.999 0.999 0.999 c black 319 783 m 93 X 120 Y 93 X -27 Y 93 X -7 Y 93 X -18 Y 93 X -47 Y 93 X -49 Y 93 X -30 Y 93 X -21 Y 93 X -23 Y 93 X -28 Y 93 X -24 Y 93 X -45 Y 186 X 36 Y 93 X -36 Y 465 X s 1 1 1 c black 319
 783 m 93 X 120 Y 93 X -27 Y 93 X -7 Y 93 X -18 Y 93 X -47 Y 93 X -49 Y 93 X -30 Y 93 X -21 Y 93 X -23 Y 93 X -28 Y 93 X -24 Y 93 X -45 Y 186 X 36 Y 93 X -36 Y 465 X s 1 0.4 0.6 c black 1 0.4 0.6 c 319 584 m 199 Y 93 X 120 Y 93 X -27 Y 93 X -7 Y 93 X
 -18 Y 93 X -47 Y 93 X -49 Y 93 X -30 Y 93 X -21 Y 93 X -23 Y 93 X -28 Y 93 X -24 Y 93 X -45 Y 186 X 36 Y 93 X -36 Y 465 X f black 1 0.4 0.6 c black 319 783 m 93 X 120 Y 93 X -27 Y 93 X -7 Y 93 X -18 Y 93 X -47 Y 93 X -49 Y 93 X -30 Y 93 X -21 Y 93 X
 -23 Y 93 X -28 Y 93 X -24 Y 93 X -45 Y 186 X 36 Y 93 X -36 Y 465 X s 1 0 0 c 6 lw 1 1 1 c black 1 0 0 c 319 1051 m 93 X 79 Y 93 X -21 Y 93 X -30 Y 93 X -33 Y 93 X -44 Y 93 X -38 Y 93 X -49 Y 93 X -44 Y 93 X -34 Y 93 X -65 Y 93 X -33 Y 93 X -22 Y 93
 X -32 Y 93 X -13 Y 93 X -56 Y 93 X -32 Y 372 X s black 3 lw 1 0 0 c 1 lw << /PatternType 1 /PaintType 2 /TilingType 1 /BBox [ 0 0 100 100 ] /XStep 100 /YStep 100 /PaintProc { begin gsave 0 100 m 100 0 l s gr end } >> [ 0.24 0 0 0.24 0 0 ]
 makepattern /P05 exch def /cs {[/Pattern /DeviceRGB] setcolorspace} def /FA {f [/DeviceRGB] setcolorspace} def cs 1 0 0 P05 setcolor 319 584 m 469 Y 93 X 80 Y 93 X -21 Y 93 X -30 Y 93 X -33 Y 93 X -44 Y 93 X -37 Y 93 X -49 Y 93 X -43 Y 93 X -33 Y 93
 X -62 Y 93 X -21 Y 93 X -24 Y 93 X -40 Y 93 X -7 Y 93 X -56 Y 93 X -49 Y 93 X 8 Y 93 X -8 Y -186 X 8 Y -93 X 57 Y -93 X 22 Y -93 X 20 Y -93 X 15 Y -93 X 55 Y -93 X 69 Y -93 X 35 Y -93 X 45 Y -93 X 51 Y -93 X 38 Y -93 X 44 Y -93 X 34 Y -93 X 29 Y -93
 X 21 Y -93 X -79 Y -93 X -464 Y FA 6 lw 1 1 1 c 15 lw 1110 836 m 2 Y s 1110 838 m cl s 1110 795 m -13 Y s 1110 782 m cl s 1203 815 m -7 Y s 1203 808 m cl s 1296 741 m 28 Y s 1296 769 m cl s 1296 700 m -83 Y s 1296 617 m cl s 1389 823 m 5 Y s 1389
 828 m cl s 1389 782 m -18 Y s 1389 764 m cl s black 1 1 1 c 3 lw /w 43 def /w2 {w 2 div} def /w3 {w 3 div} def 366 1033 459 1111 552 1093 645 1061 738 1025 831 982 924 925 1017 880 1110 816 1203 835 1296 720 1389 802 12 { m20} R 15 lw black 6 lw 1 1
 1 c black 3 lw /w 33 def /w2 {w 2 div} def /w3 {w 3 div} def 366 1033 m20 6 lw 3 lw 459 1111 m20 6 lw 3 lw 552 1093 m20 6 lw 3 lw 645 1061 m20 6 lw 3 lw 738 1025 m20 6 lw 3 lw 831 982 m20 6 lw 3 lw 924 925 m20 6 lw 1017 863 m 4 Y s 1017 894 m s 3 lw
 1017 880 m20 6 lw 1110 780 m 22 Y s 1110 829 m 8 Y s 3 lw 1110 816 m20 6 lw 1203 807 m 15 Y s 1203 849 m 5 Y s 3 lw 1203 835 m20 6 lw 1296 584 m 123 Y s 1296 734 m 27 Y s 3 lw 1296 720 m20 6 lw 1389 761 m 28 Y s 1389 816 m 10 Y s 3 lw 1389 802 m20 6
 lw 1017 894 m s 1017 894 m cl s 1017 867 m -4 Y s 1017 863 m cl s 1110 829 m 9 Y s 1110 838 m cl s 1110 802 m -20 Y s 1110 782 m cl s 1203 849 m 6 Y s 1203 855 m cl s 1203 822 m -14 Y s 1203 808 m cl s 1296 734 m 35 Y s 1296 769 m cl s 1296 707 m
 -90 Y s 1296 617 m cl s 1389 816 m 12 Y s 1389 828 m cl s 1389 789 m -25 Y s 1389 764 m cl s 3 lw 366 1033 459 1111 552 1093 645 1061 738 1025 831 982 924 925 1017 880 1110 816 1203 835 1296 720 1389 802 12 { m20} R 6 lw 3 lw 319 584 m 1860 X s 412
 584 m cl s 459 584 m cl s 505 584 m cl s 552 584 m cl s 598 584 m cl s 645 584 m cl s 691 584 m cl s 738 584 m cl s 784 584 m cl s 831 584 m cl s 877 584 m cl s 924 584 m cl s 970 584 m cl s 1017 584 m cl s 1063 584 m cl s 1110 584 m cl s 1156 584 m
 cl s 1203 584 m cl s 1249 584 m cl s 1296 584 m cl s 1342 584 m cl s 1389 584 m cl s 1435 584 m cl s 1482 584 m cl s 1528 584 m cl s 1575 584 m cl s 1621 584 m cl s 1668 584 m cl s 1714 584 m cl s 1761 584 m cl s 1807 584 m cl s 1854 584 m cl s 1900
 584 m cl s 1947 584 m cl s 1993 584 m cl s 2040 584 m cl s 2086 584 m cl s 412 584 m cl s 366 584 m cl s 319 584 m cl s 2086 584 m cl s 2133 584 m cl s 2179 584 m cl s 319 1729 m 1860 X s 412 1729 m cl s 459 1729 m cl s 505 1729 m cl s 552 1729 m cl
 s 598 1729 m cl s 645 1729 m cl s 691 1729 m cl s 738 1729 m cl s 784 1729 m cl s 831 1729 m cl s 877 1729 m cl s 924 1729 m cl s 970 1729 m cl s 1017 1729 m cl s 1063 1729 m cl s 1110 1729 m cl s 1156 1729 m cl s 1203 1729 m cl s 1249 1729 m cl s
 1296 1729 m cl s 1342 1729 m cl s 1389 1729 m cl s 1435 1729 m cl s 1482 1729 m cl s 1528 1729 m cl s 1575 1729 m cl s 1621 1729 m cl s 1668 1729 m cl s 1714 1729 m cl s 1761 1729 m cl s 1807 1729 m cl s 1854 1729 m cl s 1900 1729 m cl s 1947 1729 m
 cl s 1993 1729 m cl s 2040 1729 m cl s 2086 1729 m cl s 412 1729 m cl s 366 1729 m cl s 319 1729 m cl s 2086 1729 m cl s 2133 1729 m cl s 2179 1729 m cl s 319 584 m 1145 Y s 341 625 m -22 X s 341 649 m -22 X s 341 666 m -22 X s 341 679 m -22 X s 341
 690 m -22 X s 341 699 m -22 X s 341 707 m -22 X s 341 714 m -22 X s 363 720 m -44 X s 341 761 m -22 X s 341 785 m -22 X s 341 802 m -22 X s 341 816 m -22 X s 341 826 m -22 X s 341 835 m -22 X s 341 843 m -22 X s 341 850 m -22 X s 363 857 m -44 X s
 341 897 m -22 X s 341 921 m -22 X s 341 938 m -22 X s 341 952 m -22 X s 341 962 m -22 X s 341 972 m -22 X s 341 979 m -22 X s 341 986 m -22 X s 363 993 m -44 X s 341 1034 m -22 X s 341 1058 m -22 X s 341 1075 m -22 X s 341 1088 m -22 X s 341 1099 m
 -22 X s 341 1108 m -22 X s 341 1116 m -22 X s 341 1122 m -22 X s 363 1129 m -44 X s 341 1170 m -22 X s 341 1194 m -22 X s 341 1211 m -22 X s 341 1224 m -22 X s 341 1235 m -22 X s 341 1244 m -22 X s 341 1252 m -22 X s 341 1259 m -22 X s 363 1265 m
 -44 X s 341 1306 m -22 X s 341 1330 m -22 X s 341 1347 m -22 X s 341 1360 m -22 X s 341 1371 m -22 X s 341 1380 m -22 X s 341 1388 m -22 X s 341 1395 m -22 X s 363 1401 m -44 X s 341 1442 m -22 X s 341 1466 m -22 X s 341 1483 m -22 X s 341 1496 m
 -22 X s 341 1507 m -22 X s 341 1516 m -22 X s 341 1524 m -22 X s 341 1531 m -22 X s 363 1537 m -44 X s 341 1578 m -22 X s 341 1602 m -22 X s 341 1619 m -22 X s 341 1632 m -22 X s 341 1643 m -22 X s 341 1652 m -22 X s 341 1660 m -22 X s 341 1667 m
 -22 X s 363 1673 m -44 X s 341 1714 m -22 X s 2179 584 m 1145 Y s 2157 625 m 22 X s 2157 649 m 22 X s 2157 666 m 22 X s 2157 679 m 22 X s 2157 690 m 22 X s 2157 699 m 22 X s 2157 707 m 22 X s 2157 714 m 22 X s 2136 720 m 43 X s 2157 761 m 22 X s
 2157 785 m 22 X s 2157 802 m 22 X s 2157 816 m 22 X s 2157 826 m 22 X s 2157 835 m 22 X s 2157 843 m 22 X s 2157 850 m 22 X s 2136 857 m 43 X s 2157 897 m 22 X s 2157 921 m 22 X s 2157 938 m 22 X s 2157 952 m 22 X s 2157 962 m 22 X s 2157 972 m 22 X
 s 2157 979 m 22 X s 2157 986 m 22 X s 2136 993 m 43 X s 2157 1034 m 22 X s 2157 1058 m 22 X s 2157 1075 m 22 X s 2157 1088 m 22 X s 2157 1099 m 22 X s 2157 1108 m 22 X s 2157 1116 m 22 X s 2157 1122 m 22 X s 2136 1129 m 43 X s 2157 1170 m 22 X s
 2157 1194 m 22 X s 2157 1211 m 22 X s 2157 1224 m 22 X s 2157 1235 m 22 X s 2157 1244 m 22 X s 2157 1252 m 22 X s 2157 1259 m 22 X s 2136 1265 m 43 X s 2157 1306 m 22 X s 2157 1330 m 22 X s 2157 1347 m 22 X s 2157 1360 m 22 X s 2157 1371 m 22 X s
 2157 1380 m 22 X s 2157 1388 m 22 X s 2157 1395 m 22 X s 2136 1401 m 43 X s 2157 1442 m 22 X s 2157 1466 m 22 X s 2157 1483 m 22 X s 2157 1496 m 22 X s 2157 1507 m 22 X s 2157 1516 m 22 X s 2157 1524 m 22 X s 2157 1531 m 22 X s 2136 1537 m 43 X s
 2157 1578 m 22 X s 2157 1602 m 22 X s 2157 1619 m 22 X s 2157 1632 m 22 X s 2157 1643 m 22 X s 2157 1652 m 22 X s 2157 1660 m 22 X s 2157 1667 m 22 X s 2136 1673 m 43 X s 2157 1714 m 22 X s
 gsave  2263 1770 2 313 C 406.765 1447.41 t 0 r /Helvetica findfont 64.4212 sf 0 0 m (CRT for MB\255C) show NC gr 
 gsave  2263 1770 2 313 C 1464.36 1616.89 t 0 r /Helvetica findfont 64.4212 sf 0 0 m (SM Total) show NC gr  1 1 1 c 1338 1603 m 107 X 74 Y -107 X f 1 0 0 c 6 lw 1338 1640 m 107 X s black
 gsave  2263 1770 2 313 C 1464.36 1511.81 t 0 r /Helvetica findfont 64.4212 sf 0 0 m (Data) show NC gr  1391 1502 m 64 Y s 3 lw 1391 1534 m20 6 lw
 gsave  2263 1770 2 313 C 1498.25 1406.73 t 0 r /Helvetica findfont 64.4212 sf 0 0 m (\(+EW\) & single top) show NC gr 
 gsave  2263 1770 2 313 C 1481.3 1406.73 t 0 r /Helvetica findfont 64.4212 sf 0 0 m (t) show NC gr  3 lw 1481 1458 m 17 X s
 gsave  2263 1770 2 313 C 1464.36 1406.73 t 0 r /Helvetica findfont 64.4212 sf 0 0 m (t) show NC gr  0.6 1 0.6 c 1338 1391 m 107 X 74 Y -107 X f black 1338 1465 m 107 X s 1338 1391 m 107 X s 1445 1391 m 74 Y s 1338 1391 m 74 Y s
 gsave  2263 1770 2 313 C 1464.36 1298.26 t 0 r /Helvetica findfont 64.4212 sf 0 0 m (W+jets) show NC gr  0.4 0.6 1 c 1338 1284 m 107 X 75 Y -107 X f black 1338 1359 m 107 X s 1338 1284 m 107 X s 1445 1284 m 75 Y s 1338 1284 m 75 Y s
 gsave  2263 1770 2 313 C 1464.36 1193.18 t 0 r /Helvetica findfont 64.4212 sf 0 0 m (Z+jets) show NC gr  1 0.8 0.4 c 1338 1178 m 107 X 75 Y -107 X f black 1338 1253 m 107 X s 1338 1178 m 107 X s 1445 1178 m 75 Y s 1338 1178 m 75 Y s
 gsave  2263 1770 2 313 C 1464.36 1088.1 t 0 r /Helvetica findfont 64.4212 sf 0 0 m (Diboson) show NC gr  1 0.4 0.6 c 1338 1072 m 107 X 74 Y -107 X f black 1338 1146 m 107 X s 1338 1072 m 107 X s 1445 1072 m 74 Y s 1338 1072 m 74 Y s
 gsave  2263 1770 2 313 C 911.832 1566.05 t 0 r /Helvetica findfont 44.0776 sf 0 0 m (\2551) show NC gr 
 gsave  2263 1770 2 313 C 471.17 1535.54 t 0 r /Helvetica findfont 64.4212 sf 0 0 m (=13TeV, 139 fb) show NC gr 
 gsave  2263 1770 2 313 C 440.662 1535.54 t 0 r /Helvetica findfont 64.4212 sf 0 0 m (s) show NC gr  6 lw 420 1573 m 7 -41 d s 3 lw 427 1532 m 7 61 d s 434 1593 m 37 X s 1 1 1 c 2254 561 2 2 bf black 1 1 1 c black 1860 358 318 187 bl 1 1 1 c black
 1860 358 318 187 bl 6 lw 1 1 1 c black 3 lw 364 325 m20 6 lw 3 lw 457 321 m20 6 lw 3 lw 550 328 m20 6 lw 3 lw 643 322 m20 6 lw 3 lw 736 318 m20 6 lw 3 lw 829 318 m20 6 lw 3 lw 923 287 m20 6 lw 3 lw 1016 295 m20 6 lw 3 lw 1109 267 m20 6 lw 3 lw 1202
 362 m20 6 lw 3 lw 1295 271 m20 6 lw 3 lw 318 187 m 1860 X s
 gsave  2254 561 2 2 C 1959.25 27.1177 t 0 r /Helvetica findfont 78.1689 sf 0 0 m ( [GeV]) show NC gr 
 gsave  2254 561 2 2 C 1854.17 64.4045 t 0 r /Helvetica findfont 50.9797 sf 0 0 m (miss) show NC gr 
 gsave  2254 561 2 2 C 1854.17 3.38971 t 0 r /Helvetica findfont 50.9797 sf 0 0 m (T) show NC gr 
 gsave  2254 561 2 2 C 1803.33 27.1177 t 0 r /Helvetica findfont 78.1689 sf 0 0 m (E) show NC gr  411 201 m -14 Y s 457 194 m -7 Y s 504 194 m -7 Y s 550 194 m -7 Y s 597 201 m -14 Y s 643 194 m -7 Y s 690 194 m -7 Y s 736 194 m -7 Y s 783 201 m -14
 Y s 829 194 m -7 Y s 876 194 m -7 Y s 923 194 m -7 Y s 969 201 m -14 Y s 1016 194 m -7 Y s 1062 194 m -7 Y s 1109 194 m -7 Y s 1155 201 m -14 Y s 1202 194 m -7 Y s 1248 194 m -7 Y s 1295 194 m -7 Y s 1341 201 m -14 Y s 1388 194 m -7 Y s 1434 194 m
 -7 Y s 1481 194 m -7 Y s 1527 201 m -14 Y s 1574 194 m -7 Y s 1620 194 m -7 Y s 1667 194 m -7 Y s 1713 201 m -14 Y s 1760 194 m -7 Y s 1806 194 m -7 Y s 1853 194 m -7 Y s 1899 201 m -14 Y s 1946 194 m -7 Y s 1992 194 m -7 Y s 2039 194 m -7 Y s 2085
 201 m -14 Y s 411 201 m -14 Y s 364 194 m -7 Y s 318 194 m -7 Y s 2085 201 m -14 Y s 2132 194 m -7 Y s
 gsave  2254 561 2 2 C 345.75 118.64 t 0 r /Helvetica findfont 78.1689 sf 0 0 m (400) show NC gr 
 gsave  2254 561 2 2 C 532.185 118.64 t 0 r /Helvetica findfont 78.1689 sf 0 0 m (600) show NC gr 
 gsave  2254 561 2 2 C 715.229 118.64 t 0 r /Helvetica findfont 78.1689 sf 0 0 m (800) show NC gr 
 gsave  2254 561 2 2 C 877.935 118.64 t 0 r /Helvetica findfont 78.1689 sf 0 0 m (1000) show NC gr 
 gsave  2254 561 2 2 C 1064.37 118.64 t 0 r /Helvetica findfont 78.1689 sf 0 0 m (1200) show NC gr 
 gsave  2254 561 2 2 C 1250.8 118.64 t 0 r /Helvetica findfont 78.1689 sf 0 0 m (1400) show NC gr 
 gsave  2254 561 2 2 C 1437.24 118.64 t 0 r /Helvetica findfont 78.1689 sf 0 0 m (1600) show NC gr 
 gsave  2254 561 2 2 C 1623.67 118.64 t 0 r /Helvetica findfont 78.1689 sf 0 0 m (1800) show NC gr 
 gsave  2254 561 2 2 C 1810.11 118.64 t 0 r /Helvetica findfont 78.1689 sf 0 0 m (2000) show NC gr 
 gsave  2254 561 2 2 C 1996.54 118.64 t 0 r /Helvetica findfont 78.1689 sf 0 0 m (2200) show NC gr  318 545 m 1860 X s 411 531 m 14 Y s 457 538 m 7 Y s 504 538 m 7 Y s 550 538 m 7 Y s 597 531 m 14 Y s 643 538 m 7 Y s 690 538 m 7 Y s 736 538 m 7 Y s
 783 531 m 14 Y s 829 538 m 7 Y s 876 538 m 7 Y s 923 538 m 7 Y s 969 531 m 14 Y s 1016 538 m 7 Y s 1062 538 m 7 Y s 1109 538 m 7 Y s 1155 531 m 14 Y s 1202 538 m 7 Y s 1248 538 m 7 Y s 1295 538 m 7 Y s 1341 531 m 14 Y s 1388 538 m 7 Y s 1434 538 m 7
 Y s 1481 538 m 7 Y s 1527 531 m 14 Y s 1574 538 m 7 Y s 1620 538 m 7 Y s 1667 538 m 7 Y s 1713 531 m 14 Y s 1760 538 m 7 Y s 1806 538 m 7 Y s 1853 538 m 7 Y s 1899 531 m 14 Y s 1946 538 m 7 Y s 1992 538 m 7 Y s 2039 538 m 7 Y s 2085 531 m 14 Y s 411
 531 m 14 Y s 364 538 m 7 Y s 318 538 m 7 Y s 2085 531 m 14 Y s 2132 538 m 7 Y s 318 187 m 358 Y s
 gsave  2254 561 2 2 C 166.096 284.736 t 90 r /Helvetica findfont 67.9729 sf 0 0 m (Data/SM) show NC gr  361 203 m -43 X s 339 220 m -21 X s 339 236 m -21 X s 339 252 m -21 X s 339 268 m -21 X s 361 285 m -43 X s 339 301 m -21 X s 339 317 m -21 X s
 339 334 m -21 X s 339 350 m -21 X s 361 366 m -43 X s 339 382 m -21 X s 339 399 m -21 X s 339 415 m -21 X s 339 431 m -21 X s 361 447 m -43 X s 339 464 m -21 X s 339 480 m -21 X s 339 496 m -21 X s 339 512 m -21 X s 361 529 m -43 X s 361 203 m -43 X
 s 339 187 m -21 X s 361 529 m -43 X s
 gsave  2254 561 2 2 C 261.008 183.044 t 0 r /Helvetica findfont 57.777 sf 0 0 m (0) show NC gr 
 gsave  2254 561 2 2 C 213.552 261.008 t 0 r /Helvetica findfont 57.777 sf 0 0 m (0.5) show NC gr 
 gsave  2254 561 2 2 C 271.177 342.361 t 0 r /Helvetica findfont 57.777 sf 0 0 m (1) show NC gr 
 gsave  2254 561 2 2 C 213.552 423.714 t 0 r /Helvetica findfont 57.777 sf 0 0 m (1.5) show NC gr 
 gsave  2254 561 2 2 C 261.008 505.067 t 0 r /Helvetica findfont 57.777 sf 0 0 m (2) show NC gr  2178 187 m 358 Y s 2135 203 m 43 X s 2157 220 m 21 X s 2157 236 m 21 X s 2157 252 m 21 X s 2157 268 m 21 X s 2135 285 m 43 X s 2157 301 m 21 X s 2157 317
 m 21 X s 2157 334 m 21 X s 2157 350 m 21 X s 2135 366 m 43 X s 2157 382 m 21 X s 2157 399 m 21 X s 2157 415 m 21 X s 2157 431 m 21 X s 2135 447 m 43 X s 2157 464 m 21 X s 2157 480 m 21 X s 2157 496 m 21 X s 2157 512 m 21 X s 2135 529 m 43 X s 2135
 203 m 43 X s 2157 187 m 21 X s 2135 529 m 43 X s 9 lw 923 301 m 1 Y s 923 302 m cl s 923 274 m -1 Y s 923 273 m cl s 1016 308 m 10 Y s 1016 318 m cl s 1016 281 m -10 Y s 1016 271 m cl s 1109 281 m 17 Y s 1109 298 m cl s 1109 254 m -14 Y s 1109 240 m
 cl s 1202 376 m 49 Y s 1202 425 m cl s 1202 349 m -45 Y s 1202 304 m cl s 1295 285 m 74 Y s 1295 359 m cl s 1295 258 m -43 Y s 1295 215 m cl s 1388 545 m -93 Y s 1388 452 m cl s 3 lw 364 325 457 321 550 328 643 322 736 318 829 318 923 287 1016 295
 1109 267 1202 362 1295 271 11 { m20} R 9 lw 1 0 0 c 6 lw black 3 lw 1 0 0 c 2178 227 m s 2178 255 m -19 -19 d s 2178 284 m -47 -48 d s 2178 312 m -76 -76 d s 2178 341 m -93 -93 d s 2178 369 m -97 -97 d s 2178 398 m -126 -126 d s 2178 427 m -155 -155
 d s 2178 455 m -184 -183 d s 2178 484 m -202 -202 d s 2162 496 m -215 -214 d s 1899 234 m -4 -4 d s 2133 496 m -215 -214 d s 1899 263 m -33 -33 d s 2104 496 m -19 -19 d s 2069 460 m -232 -230 d s 2040 460 m -231 -230 d s 2011 460 m -205 -204 d s
 1972 450 m -166 -165 d s 1944 450 m -139 -139 d s 1915 450 m -139 -139 d s 1899 463 m -152 -152 d s 1899 492 m -180 -181 d s 1881 502 m -75 -74 d s 1799 421 m -108 -108 d s 1853 502 m -47 -46 d s 1771 421 m -109 -108 d s 1824 502 m -18 -17 d s 1742
 421 m -108 -108 d s 1712 420 m -92 -92 d s 1683 420 m -87 -88 d s 1655 420 m -88 -88 d s 1626 420 m -6 -6 d s 1606 400 m -67 -68 d s 1527 321 m -14 -14 d s 1578 400 m -94 -93 d s 1549 400 m -93 -93 d s 1527 407 m -111 -111 d s 1517 425 m -129 -129 d
 s 1488 425 m -129 -129 d s 1460 425 m -119 -118 d s 1434 428 m -93 -92 d s 1413 436 m -97 -97 d s 1384 436 m -43 -43 d s 1341 393 m -54 -54 d s 1356 436 m -15 -15 d s 1312 393 m -53 -54 d s 1284 393 m -44 -44 d s 1255 393 m -7 -7 d s 1245 383 m -34
 -34 d s 1216 383 m -33 -34 d s 1187 383 m -32 -33 d s 1159 383 m -32 -32 d s 1129 381 m -31 -30 d s 1100 381 m -31 -30 d s 1071 381 m -27 -27 d s 1039 378 m -24 -24 d s 1010 378 m -23 -24 d s 982 378 m -22 -21 d s 951 375 m -19 -18 d s 922 375 m -19
 -18 d s 893 375 m -17 -17 d s 863 374 m -16 -16 d s 835 374 m -17 -16 d s 806 374 m -17 -16 d s 776 373 m -14 -14 d s 748 373 m -15 -14 d s 719 373 m -15 -14 d s 690 373 m s 690 373 m -14 -14 d s 661 373 m -13 -14 d s 632 373 m -13 -14 d s 604 373 m
 -14 -14 d s 575 373 m -14 -14 d s 547 373 m -14 -14 d s 518 373 m -14 -14 d s 489 373 m -14 -14 d s 461 373 m -14 -14 d s 318 231 m s 432 373 m -14 -14 d s 318 259 m s 403 373 m -14 -14 d s 318 288 m s 374 373 m -14 -14 d s 318 317 m s 346 373 m -14
 -14 d s 318 345 m s 6 lw black[ 4 8] 0 sd 3 lw 318 447 m 1860 X s 318 285 m 1860 X s 1 0 0 c[  12 12 ] 0 sd 6 lw 318 366 m 1860 X s
 gr  gr showpage
end
%%EOF
