%!PS-Adobe-2.0 EPSF-2.0
%%BoundingBox:  0 0 567 521
%%Title: Distributions/met_distrCRY_MB-GGd_beforeFit_forThesis.eps: canvas
%%Creator: ROOT Version 6.04/16
%%CreationDate: Tue May 19 22:01:34 2020
%%DocumentNeededResources: ProcSet (FontSetInit)
%%EndComments
%%BeginProlog
80 dict begin
/s {stroke} def /l {lineto} def /m {moveto} def /t {translate} def
/r {rotate} def /rl {roll}  def /R {repeat} def
/d {rlineto} def /rm {rmoveto} def /gr {grestore} def /f {eofill} def
/c {setrgbcolor} def /black {0 setgray} def /sd {setdash} def
/cl {closepath} def /sf {scalefont setfont} def /lw {setlinewidth} def
/box {m dup 0 exch d exch 0 d 0 exch neg d cl} def
/NC{systemdict begin initclip end}def/C{NC box clip newpath}def
/bl {box s} def /bf {gsave box gsave f grestore 1 lw [] 0 sd s grestore} def /Y { 0 exch d} def /X { 0 d} def 
/K {{pop pop 0 moveto} exch kshow} bind def
/ita {/ang 15 def gsave [1 0 ang dup sin exch cos div 1 0 0] concat} def 
/mp {newpath /y exch def /x exch def} def
/side {[w .77 mul w .23 mul] .385 w mul sd w 0 l currentpoint t -144 r} def
/mr {mp x y w2 0 360 arc} def /m24 {mr s} def /m20 {mr f} def
/mb {mp x y w2 add m w2 neg 0 d 0 w neg d w 0 d 0 w d cl} def
/mt {mp x y w2 add m w2 neg w neg d w 0 d cl} def
/m21 {mb f} def /m25 {mb s} def /m22 {mt f} def /m26{mt s} def
/m23 {mp x y w2 sub m w2 w d w neg 0 d cl f} def
/m27 {mp x y w2 add m w3 neg w2 neg d w3 w2 neg d w3 w2 d cl s} def
/m28 {mp x w2 sub y w2 sub w3 add m w3 0 d  0 w3 neg d w3 0 d 0 w3 d w3 0 d  0 w3 d w3 neg 0 d 0 w3 d w3 neg 0 d 0 w3 neg d w3 neg 0 d cl s } def
/m29 {mp gsave x w2 sub y w2 add w3 sub m currentpoint t 4 {side} repeat cl fill gr} def
/m30 {mp gsave x w2 sub y w2 add w3 sub m currentpoint t 4 {side} repeat cl s gr} def
/m31 {mp x y w2 sub m 0 w d x w2 sub y m w 0 d x w2 sub y w2 add m w w neg d x w2 sub y w2 sub m w w d s} def
/m32 {mp x y w2 sub m w2 w d w neg 0 d cl s} def
/m33 {mp x y w2 add m w3 neg w2 neg d w3 w2 neg d w3 w2 d cl f} def
/m34 {mp x w2 sub y w2 sub w3 add m w3 0 d  0 w3 neg d w3 0 d 0 w3 d w3 0 d  0 w3 d w3 neg 0 d 0 w3 d w3 neg 0 d 0 w3 neg d w3 neg 0 d cl f } def
/m2 {mp x y w2 sub m 0 w d x w2 sub y m w 0 d s} def
/m5 {mp x w2 sub y w2 sub m w w d x w2 sub y w2 add m w w neg d s} def
%%IncludeResource: ProcSet (FontSetInit)
%%IncludeResource: font Times-Roman
%%IncludeResource: font Times-Italic
%%IncludeResource: font Times-Bold
%%IncludeResource: font Times-BoldItalic
%%IncludeResource: font Helvetica
%%IncludeResource: font Helvetica-Oblique
%%IncludeResource: font Helvetica-Bold
%%IncludeResource: font Helvetica-BoldOblique
%%IncludeResource: font Courier
%%IncludeResource: font Courier-Oblique
%%IncludeResource: font Courier-Bold
%%IncludeResource: font Courier-BoldOblique
%%IncludeResource: font Symbol
%%IncludeResource: font ZapfDingbats
/reEncode {exch findfont dup length dict begin {1 index /FID eq  {pop pop} {def} ifelse } forall /Encoding exch def currentdict end dup /FontName get exch definefont pop } def [/Times-Bold /Times-Italic /Times-BoldItalic /Helvetica /Helvetica-Oblique
 /Helvetica-Bold /Helvetica-BoldOblique /Courier /Courier-Oblique /Courier-Bold /Courier-BoldOblique /Times-Roman /AvantGarde-Book /AvantGarde-BookOblique /AvantGarde-Demi /AvantGarde-DemiOblique /Bookman-Demi /Bookman-DemiItalic /Bookman-Light
 /Bookman-LightItalic /Helvetica-Narrow /Helvetica-Narrow-Bold /Helvetica-Narrow-BoldOblique /Helvetica-Narrow-Oblique /NewCenturySchlbk-Roman /NewCenturySchlbk-Bold /NewCenturySchlbk-BoldItalic /NewCenturySchlbk-Italic /Palatino-Bold
 /Palatino-BoldItalic /Palatino-Italic /Palatino-Roman ] {ISOLatin1Encoding reEncode } forall
%%EndProlog
%%BeginSetup
%%EndSetup
newpath  gsave  .25 .25 scale  gsave  0 0 t black[  ] 0 sd 3 lw 1 1 1 c 2268 2085 0 0 bf black 1 1 1 c 2263 1770 2 313 bf black 1 1 1 c black 1860 1145 319 584 bl 1 1 1 c black 1860 1145 319 584 bl 6 lw 1 1 1 c black 3 lw /w 33 def /w2 {w 2 div} def
 /w3 {w 3 div} def 366 1218 m20 6 lw 3 lw 459 1195 m20 6 lw 3 lw 552 1153 m20 6 lw 3 lw 645 1113 m20 6 lw 3 lw 738 1082 m20 6 lw 3 lw 831 1029 m20 6 lw 3 lw 924 1005 m20 6 lw 3 lw 1017 969 m20 6 lw 1110 915 m 1 Y s 3 lw 1110 929 m20 6 lw 1203 890 m 4
 Y s 1203 921 m s 3 lw 1203 907 m20 6 lw 1296 864 m 8 Y s 1296 899 m 3 Y s 3 lw 1296 886 m20 6 lw 1389 696 m 63 Y s 1389 786 m 20 Y s 3 lw 1389 773 m20 6 lw 1482 696 m 63 Y s 1482 786 m 20 Y s 3 lw 1482 773 m20 6 lw 1575 744 m 41 Y s 1575 812 m 15 Y
 s 3 lw 1575 798 m20 6 lw 1668 584 m 132 Y s 1668 743 m 30 Y s 3 lw 1668 729 m20 6 lw 2133 584 m 132 Y s 2133 743 m 30 Y s 3 lw 2133 729 m20 6 lw 3 lw 319 584 m 1860 X s
 gsave  2263 1770 2 313 C 1949.08 355.92 t 0 r /Helvetica findfont 81.3741 sf 0 0 m ( [GeV]) show NC gr 
 gsave  2263 1770 2 313 C 1837.22 396.596 t 0 r /Helvetica findfont 54.2494 sf 0 0 m (miss) show NC gr 
 gsave  2263 1770 2 313 C 1837.22 332.192 t 0 r /Helvetica findfont 54.2494 sf 0 0 m (T) show NC gr 
 gsave  2263 1770 2 313 C 1786.38 355.92 t 0 r /Helvetica findfont 81.3741 sf 0 0 m (E) show NC gr  412 584 m cl s 459 584 m cl s 505 584 m cl s 552 584 m cl s 598 584 m cl s 645 584 m cl s 691 584 m cl s 738 584 m cl s 784 584 m cl s 831 584 m cl s
 877 584 m cl s 924 584 m cl s 970 584 m cl s 1017 584 m cl s 1063 584 m cl s 1110 584 m cl s 1156 584 m cl s 1203 584 m cl s 1249 584 m cl s 1296 584 m cl s 1342 584 m cl s 1389 584 m cl s 1435 584 m cl s 1482 584 m cl s 1528 584 m cl s 1575 584 m
 cl s 1621 584 m cl s 1668 584 m cl s 1714 584 m cl s 1761 584 m cl s 1807 584 m cl s 1854 584 m cl s 1900 584 m cl s 1947 584 m cl s 1993 584 m cl s 2040 584 m cl s 2086 584 m cl s 412 584 m cl s 366 584 m cl s 319 584 m cl s 2086 584 m cl s 2133
 584 m cl s 2179 584 m cl s 319 1729 m 1860 X s 412 1729 m cl s 459 1729 m cl s 505 1729 m cl s 552 1729 m cl s 598 1729 m cl s 645 1729 m cl s 691 1729 m cl s 738 1729 m cl s 784 1729 m cl s 831 1729 m cl s 877 1729 m cl s 924 1729 m cl s 970 1729 m
 cl s 1017 1729 m cl s 1063 1729 m cl s 1110 1729 m cl s 1156 1729 m cl s 1203 1729 m cl s 1249 1729 m cl s 1296 1729 m cl s 1342 1729 m cl s 1389 1729 m cl s 1435 1729 m cl s 1482 1729 m cl s 1528 1729 m cl s 1575 1729 m cl s 1621 1729 m cl s 1668
 1729 m cl s 1714 1729 m cl s 1761 1729 m cl s 1807 1729 m cl s 1854 1729 m cl s 1900 1729 m cl s 1947 1729 m cl s 1993 1729 m cl s 2040 1729 m cl s 2086 1729 m cl s 412 1729 m cl s 366 1729 m cl s 319 1729 m cl s 2086 1729 m cl s 2133 1729 m cl s
 2179 1729 m cl s 319 584 m 1145 Y s
 gsave  2263 1770 2 313 C 166.096 1091.49 t 90 r /Helvetica findfont 81.3741 sf 0 0 m (Events / 100 GeV) show NC gr  341 628 m -22 X s 341 653 m -22 X s 341 672 m -22 X s 341 686 m -22 X s 341 697 m -22 X s 341 707 m -22 X s 341 715 m -22 X s 341 723
 m -22 X s 363 729 m -44 X s
 gsave  2263 1770 2 313 C 300.555 702.083 t 0 r  -36 0 t /Helvetica findfont 64.4212 sf 0 0 m (1) show NC gr  341 773 m -22 X s 341 798 m -22 X s 341 816 m -22 X s 341 830 m -22 X s 341 842 m -22 X s 341 852 m -22 X s 341 860 m -22 X s 341 867 m -22
 X s 363 874 m -44 X s
 gsave  2263 1770 2 313 C 300.555 846.974 t 0 r  -73 0 t /Helvetica findfont 64.4212 sf 0 0 m (10) show NC gr  341 918 m -22 X s 341 943 m -22 X s 341 961 m -22 X s 341 975 m -22 X s 341 987 m -22 X s 341 997 m -22 X s 341 1005 m -22 X s 341 1012 m
 -22 X s 363 1019 m -44 X s
 gsave  2263 1770 2 313 C 274.567 1016.91 t 0 r /Helvetica findfont 44.0776 sf 0 0 m (2) show NC gr 
 gsave  2263 1770 2 313 C 203.383 989.796 t 0 r /Helvetica findfont 64.4212 sf 0 0 m (10) show NC gr  341 1063 m -22 X s 341 1088 m -22 X s 341 1106 m -22 X s 341 1120 m -22 X s 341 1132 m -22 X s 341 1141 m -22 X s 341 1150 m -22 X s 341 1157 m -22
 X s 363 1164 m -44 X s
 gsave  2263 1770 2 313 C 274.567 1166.06 t 0 r /Helvetica findfont 44.0776 sf 0 0 m (3) show NC gr 
 gsave  2263 1770 2 313 C 203.383 1135.55 t 0 r /Helvetica findfont 64.4212 sf 0 0 m (10) show NC gr  341 1207 m -22 X s 341 1233 m -22 X s 341 1251 m -22 X s 341 1265 m -22 X s 341 1277 m -22 X s 341 1286 m -22 X s 341 1295 m -22 X s 341 1302 m -22
 X s 363 1309 m -44 X s
 gsave  2263 1770 2 313 C 274.567 1308.43 t 0 r /Helvetica findfont 44.0776 sf 0 0 m (4) show NC gr 
 gsave  2263 1770 2 313 C 203.383 1281.31 t 0 r /Helvetica findfont 64.4212 sf 0 0 m (10) show NC gr  341 1352 m -22 X s 341 1378 m -22 X s 341 1396 m -22 X s 341 1410 m -22 X s 341 1422 m -22 X s 341 1431 m -22 X s 341 1440 m -22 X s 341 1447 m -22
 X s 363 1454 m -44 X s
 gsave  2263 1770 2 313 C 274.567 1454.19 t 0 r /Helvetica findfont 44.0776 sf 0 0 m (5) show NC gr 
 gsave  2263 1770 2 313 C 203.383 1423.68 t 0 r /Helvetica findfont 64.4212 sf 0 0 m (10) show NC gr  341 1497 m -22 X s 341 1523 m -22 X s 341 1541 m -22 X s 341 1555 m -22 X s 341 1566 m -22 X s 341 1576 m -22 X s 341 1585 m -22 X s 341 1592 m -22
 X s 363 1599 m -44 X s
 gsave  2263 1770 2 313 C 274.567 1599.94 t 0 r /Helvetica findfont 44.0776 sf 0 0 m (6) show NC gr 
 gsave  2263 1770 2 313 C 203.383 1569.44 t 0 r /Helvetica findfont 64.4212 sf 0 0 m (10) show NC gr  341 1642 m -22 X s 341 1668 m -22 X s 341 1686 m -22 X s 341 1700 m -22 X s 341 1711 m -22 X s 341 1721 m -22 X s 2179 584 m 1145 Y s 2157 628 m 22
 X s 2157 653 m 22 X s 2157 672 m 22 X s 2157 686 m 22 X s 2157 697 m 22 X s 2157 707 m 22 X s 2157 715 m 22 X s 2157 723 m 22 X s 2136 729 m 43 X s 2157 773 m 22 X s 2157 798 m 22 X s 2157 816 m 22 X s 2157 830 m 22 X s 2157 842 m 22 X s 2157 852 m
 22 X s 2157 860 m 22 X s 2157 867 m 22 X s 2136 874 m 43 X s 2157 918 m 22 X s 2157 943 m 22 X s 2157 961 m 22 X s 2157 975 m 22 X s 2157 987 m 22 X s 2157 997 m 22 X s 2157 1005 m 22 X s 2157 1012 m 22 X s 2136 1019 m 43 X s 2157 1063 m 22 X s 2157
 1088 m 22 X s 2157 1106 m 22 X s 2157 1120 m 22 X s 2157 1132 m 22 X s 2157 1141 m 22 X s 2157 1150 m 22 X s 2157 1157 m 22 X s 2136 1164 m 43 X s 2157 1207 m 22 X s 2157 1233 m 22 X s 2157 1251 m 22 X s 2157 1265 m 22 X s 2157 1277 m 22 X s 2157
 1286 m 22 X s 2157 1295 m 22 X s 2157 1302 m 22 X s 2136 1309 m 43 X s 2157 1352 m 22 X s 2157 1378 m 22 X s 2157 1396 m 22 X s 2157 1410 m 22 X s 2157 1422 m 22 X s 2157 1431 m 22 X s 2157 1440 m 22 X s 2157 1447 m 22 X s 2136 1454 m 43 X s 2157
 1497 m 22 X s 2157 1523 m 22 X s 2157 1541 m 22 X s 2157 1555 m 22 X s 2157 1566 m 22 X s 2157 1576 m 22 X s 2157 1585 m 22 X s 2157 1592 m 22 X s 2136 1599 m 43 X s 2157 1642 m 22 X s 2157 1668 m 22 X s 2157 1686 m 22 X s 2157 1700 m 22 X s 2157
 1711 m 22 X s 2157 1721 m 22 X s 1 1 0 c black 1 1 0 c 319 584 m 641 Y 93 X -20 Y 93 X -41 Y 93 X -41 Y 93 X -41 Y 93 X -38 Y 93 X -40 Y 93 X -35 Y 93 X -36 Y 93 X -36 Y 93 X -39 Y 93 X -26 Y 93 X -38 Y 93 X -20 Y 93 X -51 Y 93 X -17 Y 93 X -28 Y 93
 X -39 Y 93 X -16 Y 93 X 25 Y 93 X -64 Y f black 1 1 0 c black 319 1225 m 93 X -20 Y 93 X -41 Y 93 X -41 Y 93 X -41 Y 93 X -38 Y 93 X -40 Y 93 X -35 Y 93 X -36 Y 93 X -36 Y 93 X -39 Y 93 X -26 Y 93 X -38 Y 93 X -20 Y 93 X -51 Y 93 X -17 Y 93 X -28 Y
 93 X -39 Y 93 X -16 Y 93 X 25 Y 93 X s 0.999 0.999 0.999 c black 0.999 0.999 0.999 c 319 584 m 374 Y 93 X -21 Y 93 X -47 Y 93 X -34 Y 93 X -41 Y 93 X -53 Y 93 X -7 Y 93 X -11 Y 93 X -145 Y 93 X 72 Y 93 X -87 Y 279 X 54 Y 93 X -54 Y 558 X f black
 0.999 0.999 0.999 c black 319 958 m 93 X -21 Y 93 X -47 Y 93 X -34 Y 93 X -41 Y 93 X -53 Y 93 X -7 Y 93 X -11 Y 93 X -145 Y 93 X 72 Y 93 X -87 Y 279 X 54 Y 93 X -54 Y 558 X s 1 1 1 c black 319 958 m 93 X -21 Y 93 X -47 Y 93 X -34 Y 93 X -41 Y 93 X
 -53 Y 93 X -7 Y 93 X -11 Y 93 X -145 Y 93 X 72 Y 93 X -87 Y 279 X 54 Y 93 X -54 Y 558 X s 0.4 0.6 1 c black 0.4 0.6 1 c 319 584 m 374 Y 93 X -21 Y 93 X -47 Y 93 X -34 Y 93 X -41 Y 93 X -53 Y 93 X -7 Y 93 X -11 Y 93 X -145 Y 93 X 72 Y 93 X -87 Y 279
 X 54 Y 93 X -54 Y 558 X f black 0.4 0.6 1 c black 319 958 m 93 X -21 Y 93 X -47 Y 93 X -34 Y 93 X -41 Y 93 X -53 Y 93 X -7 Y 93 X -11 Y 93 X -145 Y 93 X 72 Y 93 X -87 Y 279 X 54 Y 93 X -54 Y 558 X s 0.999 0.999 0.999 c black 0.999 0.999 0.999 c 319
 584 m 362 Y 93 X -29 Y 93 X -48 Y 93 X -29 Y 93 X -46 Y 93 X -69 Y 93 X 5 Y 93 X -9 Y 93 X -137 Y 93 X 73 Y 93 X -73 Y 279 X 54 Y 93 X -54 Y 558 X f black 0.999 0.999 0.999 c black 319 946 m 93 X -29 Y 93 X -48 Y 93 X -29 Y 93 X -46 Y 93 X -69 Y 93
 X 5 Y 93 X -9 Y 93 X -137 Y 93 X 73 Y 93 X -73 Y 279 X 54 Y 93 X -54 Y 558 X s 1 1 1 c black 319 946 m 93 X -29 Y 93 X -48 Y 93 X -29 Y 93 X -46 Y 93 X -69 Y 93 X 5 Y 93 X -9 Y 93 X -137 Y 93 X 73 Y 93 X -73 Y 279 X 54 Y 93 X -54 Y 558 X s 0.6 1 0.6
 c black 0.6 1 0.6 c 319 584 m 362 Y 93 X -29 Y 93 X -48 Y 93 X -29 Y 93 X -46 Y 93 X -69 Y 93 X 5 Y 93 X -9 Y 93 X -137 Y 93 X 73 Y 93 X -73 Y 279 X 54 Y 93 X -54 Y 558 X f black 0.6 1 0.6 c black 319 946 m 93 X -29 Y 93 X -48 Y 93 X -29 Y 93 X -46
 Y 93 X -69 Y 93 X 5 Y 93 X -9 Y 93 X -137 Y 93 X 73 Y 93 X -73 Y 279 X 54 Y 93 X -54 Y 558 X s 0.999 0.999 0.999 c black 0.999 0.999 0.999 c 319 584 m 160 Y 93 X -51 Y 93 X -19 Y 93 X 18 Y 93 X -21 Y 93 X -87 Y 186 X 37 Y 93 X -37 Y 1116 X f black
 0.999 0.999 0.999 c black 319 744 m 93 X -51 Y 93 X -19 Y 93 X 18 Y 93 X -21 Y 93 X -87 Y 186 X 37 Y 93 X -37 Y 1116 X s 1 1 1 c black 319 744 m 93 X -51 Y 93 X -19 Y 93 X 18 Y 93 X -21 Y 93 X -87 Y 186 X 37 Y 93 X -37 Y 1116 X s 1 0.4 0.6 c black 1
 0.4 0.6 c 319 584 m 160 Y 93 X -51 Y 93 X -19 Y 93 X 18 Y 93 X -21 Y 93 X -87 Y 186 X 37 Y 93 X -37 Y 1116 X f black 1 0.4 0.6 c black 319 744 m 93 X -51 Y 93 X -19 Y 93 X 18 Y 93 X -21 Y 93 X -87 Y 186 X 37 Y 93 X -37 Y 1116 X s 1 0 0 c 6 lw 1 1 1
 c black 1 0 0 c 319 1225 m 93 X -20 Y 93 X -41 Y 93 X -41 Y 93 X -41 Y 93 X -38 Y 93 X -40 Y 93 X -35 Y 93 X -36 Y 93 X -36 Y 93 X -39 Y 93 X -26 Y 93 X -38 Y 93 X -20 Y 93 X -51 Y 93 X -17 Y 93 X -28 Y 93 X -39 Y 93 X -16 Y 93 X 25 Y 93 X s black 3
 lw 1 0 0 c 1 lw << /PatternType 1 /PaintType 2 /TilingType 1 /BBox [ 0 0 100 100 ] /XStep 100 /YStep 100 /PaintProc { begin gsave 0 100 m 100 0 l s gr end } >> [ 0.24 0 0 0.24 0 0 ] makepattern /P05 exch def /cs {[/Pattern /DeviceRGB] setcolorspace}
 def /FA {f [/DeviceRGB] setcolorspace} def cs 1 0 0 P05 setcolor 319 584 m 642 Y 93 X -20 Y 93 X -41 Y 93 X -40 Y 93 X -41 Y 93 X -37 Y 93 X -40 Y 93 X -35 Y 93 X -35 Y 93 X -36 Y 93 X -39 Y 93 X -25 Y 93 X -37 Y 93 X -17 Y 93 X -52 Y 93 X -16 Y 93
 X -27 Y 93 X -37 Y 93 X -14 Y 93 X 24 Y 93 X -77 Y 49 Y -93 X -27 Y -93 X 17 Y -93 X 42 Y -93 X 31 Y -93 X 18 Y -93 X 49 Y -93 X 25 Y -93 X 39 Y -93 X 26 Y -93 X 39 Y -93 X 36 Y -93 X 37 Y -93 X 35 Y -93 X 41 Y -93 X 39 Y -93 X 42 Y -93 X 40 Y -93 X
 41 Y -93 X 21 Y -93 X -640 Y FA 6 lw 1 1 1 c 15 lw 1296 865 m s 1296 865 m cl s 1389 793 m 17 Y s 1389 810 m cl s 1389 752 m -44 Y s 1389 708 m cl s 1482 793 m 17 Y s 1482 810 m cl s 1482 752 m -44 Y s 1482 708 m cl s 1575 819 m 10 Y s 1575 829 m cl
 s 1575 778 m -29 Y s 1575 749 m cl s 1668 750 m 31 Y s 1668 781 m cl s 1668 709 m -90 Y s 1668 619 m cl s 2133 750 m 31 Y s 2133 781 m cl s 2133 709 m -90 Y s 2133 619 m cl s black 1 1 1 c 3 lw /w 43 def /w2 {w 2 div} def /w3 {w 3 div} def 366 1218
 459 1195 552 1153 645 1113 738 1082 831 1029 924 1005 1017 969 1110 929 1203 907 1296 886 1389 773 1482 773 1575 798 1668 729 15 { m20} R 15 lw 3 lw 2133 729 m20 15 lw black 6 lw 1 1 1 c black 3 lw /w 33 def /w2 {w 2 div} def /w3 {w 3 div} def 366
 1218 m20 6 lw 3 lw 459 1195 m20 6 lw 3 lw 552 1153 m20 6 lw 3 lw 645 1113 m20 6 lw 3 lw 738 1082 m20 6 lw 3 lw 831 1029 m20 6 lw 3 lw 924 1005 m20 6 lw 3 lw 1017 969 m20 6 lw 1110 915 m 1 Y s 3 lw 1110 929 m20 6 lw 1203 890 m 4 Y s 1203 921 m s 3 lw
 1203 907 m20 6 lw 1296 864 m 8 Y s 1296 899 m 3 Y s 3 lw 1296 886 m20 6 lw 1389 696 m 63 Y s 1389 786 m 20 Y s 3 lw 1389 773 m20 6 lw 1482 696 m 63 Y s 1482 786 m 20 Y s 3 lw 1482 773 m20 6 lw 1575 744 m 41 Y s 1575 812 m 15 Y s 3 lw 1575 798 m20 6
 lw 1668 584 m 132 Y s 1668 743 m 30 Y s 3 lw 1668 729 m20 6 lw 2133 584 m 132 Y s 2133 743 m 30 Y s 3 lw 2133 729 m20 6 lw 1110 916 m -1 Y s 1110 915 m cl s 1203 921 m s 1203 921 m cl s 1203 894 m -4 Y s 1203 890 m cl s 1296 899 m 3 Y s 1296 902 m
 cl s 1296 872 m -7 Y s 1296 865 m cl s 1389 786 m 24 Y s 1389 810 m cl s 1389 759 m -51 Y s 1389 708 m cl s 1482 786 m 24 Y s 1482 810 m cl s 1482 759 m -51 Y s 1482 708 m cl s 1575 812 m 17 Y s 1575 829 m cl s 1575 785 m -36 Y s 1575 749 m cl s
 1668 743 m 38 Y s 1668 781 m cl s 1668 716 m -97 Y s 1668 619 m cl s 2133 743 m 38 Y s 2133 781 m cl s 2133 716 m -97 Y s 2133 619 m cl s 3 lw 366 1218 459 1195 552 1153 645 1113 738 1082 831 1029 924 1005 1017 969 1110 929 1203 907 1296 886 1389
 773 1482 773 1575 798 1668 729 15 { m20} R 6 lw 3 lw 2133 729 m20 6 lw 3 lw 319 584 m 1860 X s 412 584 m cl s 459 584 m cl s 505 584 m cl s 552 584 m cl s 598 584 m cl s 645 584 m cl s 691 584 m cl s 738 584 m cl s 784 584 m cl s 831 584 m cl s 877
 584 m cl s 924 584 m cl s 970 584 m cl s 1017 584 m cl s 1063 584 m cl s 1110 584 m cl s 1156 584 m cl s 1203 584 m cl s 1249 584 m cl s 1296 584 m cl s 1342 584 m cl s 1389 584 m cl s 1435 584 m cl s 1482 584 m cl s 1528 584 m cl s 1575 584 m cl s
 1621 584 m cl s 1668 584 m cl s 1714 584 m cl s 1761 584 m cl s 1807 584 m cl s 1854 584 m cl s 1900 584 m cl s 1947 584 m cl s 1993 584 m cl s 2040 584 m cl s 2086 584 m cl s 412 584 m cl s 366 584 m cl s 319 584 m cl s 2086 584 m cl s 2133 584 m
 cl s 2179 584 m cl s 319 1729 m 1860 X s 412 1729 m cl s 459 1729 m cl s 505 1729 m cl s 552 1729 m cl s 598 1729 m cl s 645 1729 m cl s 691 1729 m cl s 738 1729 m cl s 784 1729 m cl s 831 1729 m cl s 877 1729 m cl s 924 1729 m cl s 970 1729 m cl s
 1017 1729 m cl s 1063 1729 m cl s 1110 1729 m cl s 1156 1729 m cl s 1203 1729 m cl s 1249 1729 m cl s 1296 1729 m cl s 1342 1729 m cl s 1389 1729 m cl s 1435 1729 m cl s 1482 1729 m cl s 1528 1729 m cl s 1575 1729 m cl s 1621 1729 m cl s 1668 1729 m
 cl s 1714 1729 m cl s 1761 1729 m cl s 1807 1729 m cl s 1854 1729 m cl s 1900 1729 m cl s 1947 1729 m cl s 1993 1729 m cl s 2040 1729 m cl s 2086 1729 m cl s 412 1729 m cl s 366 1729 m cl s 319 1729 m cl s 2086 1729 m cl s 2133 1729 m cl s 2179 1729
 m cl s 319 584 m 1145 Y s 341 628 m -22 X s 341 653 m -22 X s 341 672 m -22 X s 341 686 m -22 X s 341 697 m -22 X s 341 707 m -22 X s 341 715 m -22 X s 341 723 m -22 X s 363 729 m -44 X s 341 773 m -22 X s 341 798 m -22 X s 341 816 m -22 X s 341 830
 m -22 X s 341 842 m -22 X s 341 852 m -22 X s 341 860 m -22 X s 341 867 m -22 X s 363 874 m -44 X s 341 918 m -22 X s 341 943 m -22 X s 341 961 m -22 X s 341 975 m -22 X s 341 987 m -22 X s 341 997 m -22 X s 341 1005 m -22 X s 341 1012 m -22 X s 363
 1019 m -44 X s 341 1063 m -22 X s 341 1088 m -22 X s 341 1106 m -22 X s 341 1120 m -22 X s 341 1132 m -22 X s 341 1141 m -22 X s 341 1150 m -22 X s 341 1157 m -22 X s 363 1164 m -44 X s 341 1207 m -22 X s 341 1233 m -22 X s 341 1251 m -22 X s 341
 1265 m -22 X s 341 1277 m -22 X s 341 1286 m -22 X s 341 1295 m -22 X s 341 1302 m -22 X s 363 1309 m -44 X s 341 1352 m -22 X s 341 1378 m -22 X s 341 1396 m -22 X s 341 1410 m -22 X s 341 1422 m -22 X s 341 1431 m -22 X s 341 1440 m -22 X s 341
 1447 m -22 X s 363 1454 m -44 X s 341 1497 m -22 X s 341 1523 m -22 X s 341 1541 m -22 X s 341 1555 m -22 X s 341 1566 m -22 X s 341 1576 m -22 X s 341 1585 m -22 X s 341 1592 m -22 X s 363 1599 m -44 X s 341 1642 m -22 X s 341 1668 m -22 X s 341
 1686 m -22 X s 341 1700 m -22 X s 341 1711 m -22 X s 341 1721 m -22 X s 2179 584 m 1145 Y s 2157 628 m 22 X s 2157 653 m 22 X s 2157 672 m 22 X s 2157 686 m 22 X s 2157 697 m 22 X s 2157 707 m 22 X s 2157 715 m 22 X s 2157 723 m 22 X s 2136 729 m 43
 X s 2157 773 m 22 X s 2157 798 m 22 X s 2157 816 m 22 X s 2157 830 m 22 X s 2157 842 m 22 X s 2157 852 m 22 X s 2157 860 m 22 X s 2157 867 m 22 X s 2136 874 m 43 X s 2157 918 m 22 X s 2157 943 m 22 X s 2157 961 m 22 X s 2157 975 m 22 X s 2157 987 m
 22 X s 2157 997 m 22 X s 2157 1005 m 22 X s 2157 1012 m 22 X s 2136 1019 m 43 X s 2157 1063 m 22 X s 2157 1088 m 22 X s 2157 1106 m 22 X s 2157 1120 m 22 X s 2157 1132 m 22 X s 2157 1141 m 22 X s 2157 1150 m 22 X s 2157 1157 m 22 X s 2136 1164 m 43
 X s 2157 1207 m 22 X s 2157 1233 m 22 X s 2157 1251 m 22 X s 2157 1265 m 22 X s 2157 1277 m 22 X s 2157 1286 m 22 X s 2157 1295 m 22 X s 2157 1302 m 22 X s 2136 1309 m 43 X s 2157 1352 m 22 X s 2157 1378 m 22 X s 2157 1396 m 22 X s 2157 1410 m 22 X
 s 2157 1422 m 22 X s 2157 1431 m 22 X s 2157 1440 m 22 X s 2157 1447 m 22 X s 2136 1454 m 43 X s 2157 1497 m 22 X s 2157 1523 m 22 X s 2157 1541 m 22 X s 2157 1555 m 22 X s 2157 1566 m 22 X s 2157 1576 m 22 X s 2157 1585 m 22 X s 2157 1592 m 22 X s
 2136 1599 m 43 X s 2157 1642 m 22 X s 2157 1668 m 22 X s 2157 1686 m 22 X s 2157 1700 m 22 X s 2157 1711 m 22 X s 2157 1721 m 22 X s
 gsave  2263 1770 2 313 C 406.765 1447.41 t 0 r /Helvetica findfont 64.4212 sf 0 0 m (CRY for MB\255GGd) show NC gr 
 gsave  2263 1770 2 313 C 1464.36 1616.89 t 0 r /Helvetica findfont 64.4212 sf 0 0 m (SM Total) show NC gr  1 1 1 c 1338 1603 m 107 X 74 Y -107 X f 1 0 0 c 6 lw 1338 1640 m 107 X s black
 gsave  2263 1770 2 313 C 1464.36 1511.81 t 0 r /Helvetica findfont 64.4212 sf 0 0 m (Data) show NC gr  1391 1502 m 64 Y s 3 lw 1391 1534 m20 6 lw
 gsave  2263 1770 2 313 C 1464.36 1406.73 t 0 r /Helvetica findfont 64.4212 sf 0 0 m (GAMMAjets) show NC gr  1 1 0 c 3 lw 1338 1391 m 107 X 74 Y -107 X f 6 lw black 3 lw 1338 1465 m 107 X s 1338 1391 m 107 X s 1445 1391 m 74 Y s 1338 1391 m 74 Y s
 gsave  2263 1770 2 313 C 1464.36 1298.26 t 0 r /Helvetica findfont 64.4212 sf 0 0 m (W+jets) show NC gr  0.4 0.6 1 c 1338 1284 m 107 X 75 Y -107 X f black 1338 1359 m 107 X s 1338 1284 m 107 X s 1445 1284 m 75 Y s 1338 1284 m 75 Y s
 gsave  2263 1770 2 313 C 1498.25 1193.18 t 0 r /Helvetica findfont 64.4212 sf 0 0 m (\(+EW\) & single top) show NC gr 
 gsave  2263 1770 2 313 C 1481.3 1193.18 t 0 r /Helvetica findfont 64.4212 sf 0 0 m (t) show NC gr  1481 1244 m 17 X s
 gsave  2263 1770 2 313 C 1464.36 1193.18 t 0 r /Helvetica findfont 64.4212 sf 0 0 m (t) show NC gr  0.6 1 0.6 c 1338 1178 m 107 X 75 Y -107 X f black 1338 1253 m 107 X s 1338 1178 m 107 X s 1445 1178 m 75 Y s 1338 1178 m 75 Y s
 gsave  2263 1770 2 313 C 1464.36 1088.1 t 0 r /Helvetica findfont 64.4212 sf 0 0 m (Diboson) show NC gr  1 0.4 0.6 c 1338 1072 m 107 X 74 Y -107 X f black 1338 1146 m 107 X s 1338 1072 m 107 X s 1445 1072 m 74 Y s 1338 1072 m 74 Y s
 gsave  2263 1770 2 313 C 911.832 1566.05 t 0 r /Helvetica findfont 44.0776 sf 0 0 m (\2551) show NC gr 
 gsave  2263 1770 2 313 C 471.17 1535.54 t 0 r /Helvetica findfont 64.4212 sf 0 0 m (=13TeV, 139 fb) show NC gr 
 gsave  2263 1770 2 313 C 440.662 1535.54 t 0 r /Helvetica findfont 64.4212 sf 0 0 m (s) show NC gr  6 lw 420 1573 m 7 -41 d s 3 lw 427 1532 m 7 61 d s 434 1593 m 37 X s 1 1 1 c 2254 561 2 2 bf black 1 1 1 c black 1860 358 318 187 bl 1 1 1 c black
 1860 358 318 187 bl 6 lw 1 1 1 c black 3 lw 364 350 m20 6 lw 3 lw 457 343 m20 6 lw 3 lw 550 340 m20 6 lw 3 lw 643 342 m20 6 lw 3 lw 736 366 m20 6 lw 3 lw 829 333 m20 6 lw 3 lw 923 368 m20 6 lw 3 lw 1016 365 m20 6 lw 3 lw 1109 358 m20 6 lw 3 lw 1202
 396 m20 6 lw 3 lw 1295 457 m20 6 lw 3 lw 1388 267 m20 6 lw 3 lw 1481 319 m20 6 lw 3 lw 1574 442 m20 6 lw 3 lw 1667 383 m20 6 lw 3 lw 318 187 m 1860 X s
 gsave  2254 561 2 2 C 1959.25 27.1177 t 0 r /Helvetica findfont 78.1689 sf 0 0 m ( [GeV]) show NC gr 
 gsave  2254 561 2 2 C 1854.17 64.4045 t 0 r /Helvetica findfont 50.9797 sf 0 0 m (miss) show NC gr 
 gsave  2254 561 2 2 C 1854.17 3.38971 t 0 r /Helvetica findfont 50.9797 sf 0 0 m (T) show NC gr 
 gsave  2254 561 2 2 C 1803.33 27.1177 t 0 r /Helvetica findfont 78.1689 sf 0 0 m (E) show NC gr  411 201 m -14 Y s 457 194 m -7 Y s 504 194 m -7 Y s 550 194 m -7 Y s 597 201 m -14 Y s 643 194 m -7 Y s 690 194 m -7 Y s 736 194 m -7 Y s 783 201 m -14
 Y s 829 194 m -7 Y s 876 194 m -7 Y s 923 194 m -7 Y s 969 201 m -14 Y s 1016 194 m -7 Y s 1062 194 m -7 Y s 1109 194 m -7 Y s 1155 201 m -14 Y s 1202 194 m -7 Y s 1248 194 m -7 Y s 1295 194 m -7 Y s 1341 201 m -14 Y s 1388 194 m -7 Y s 1434 194 m
 -7 Y s 1481 194 m -7 Y s 1527 201 m -14 Y s 1574 194 m -7 Y s 1620 194 m -7 Y s 1667 194 m -7 Y s 1713 201 m -14 Y s 1760 194 m -7 Y s 1806 194 m -7 Y s 1853 194 m -7 Y s 1899 201 m -14 Y s 1946 194 m -7 Y s 1992 194 m -7 Y s 2039 194 m -7 Y s 2085
 201 m -14 Y s 411 201 m -14 Y s 364 194 m -7 Y s 318 194 m -7 Y s 2085 201 m -14 Y s 2132 194 m -7 Y s
 gsave  2254 561 2 2 C 345.75 118.64 t 0 r /Helvetica findfont 78.1689 sf 0 0 m (400) show NC gr 
 gsave  2254 561 2 2 C 532.185 118.64 t 0 r /Helvetica findfont 78.1689 sf 0 0 m (600) show NC gr 
 gsave  2254 561 2 2 C 715.229 118.64 t 0 r /Helvetica findfont 78.1689 sf 0 0 m (800) show NC gr 
 gsave  2254 561 2 2 C 877.935 118.64 t 0 r /Helvetica findfont 78.1689 sf 0 0 m (1000) show NC gr 
 gsave  2254 561 2 2 C 1064.37 118.64 t 0 r /Helvetica findfont 78.1689 sf 0 0 m (1200) show NC gr 
 gsave  2254 561 2 2 C 1250.8 118.64 t 0 r /Helvetica findfont 78.1689 sf 0 0 m (1400) show NC gr 
 gsave  2254 561 2 2 C 1437.24 118.64 t 0 r /Helvetica findfont 78.1689 sf 0 0 m (1600) show NC gr 
 gsave  2254 561 2 2 C 1623.67 118.64 t 0 r /Helvetica findfont 78.1689 sf 0 0 m (1800) show NC gr 
 gsave  2254 561 2 2 C 1810.11 118.64 t 0 r /Helvetica findfont 78.1689 sf 0 0 m (2000) show NC gr 
 gsave  2254 561 2 2 C 1996.54 118.64 t 0 r /Helvetica findfont 78.1689 sf 0 0 m (2200) show NC gr  318 545 m 1860 X s 411 531 m 14 Y s 457 538 m 7 Y s 504 538 m 7 Y s 550 538 m 7 Y s 597 531 m 14 Y s 643 538 m 7 Y s 690 538 m 7 Y s 736 538 m 7 Y s
 783 531 m 14 Y s 829 538 m 7 Y s 876 538 m 7 Y s 923 538 m 7 Y s 969 531 m 14 Y s 1016 538 m 7 Y s 1062 538 m 7 Y s 1109 538 m 7 Y s 1155 531 m 14 Y s 1202 538 m 7 Y s 1248 538 m 7 Y s 1295 538 m 7 Y s 1341 531 m 14 Y s 1388 538 m 7 Y s 1434 538 m 7
 Y s 1481 538 m 7 Y s 1527 531 m 14 Y s 1574 538 m 7 Y s 1620 538 m 7 Y s 1667 538 m 7 Y s 1713 531 m 14 Y s 1760 538 m 7 Y s 1806 538 m 7 Y s 1853 538 m 7 Y s 1899 531 m 14 Y s 1946 538 m 7 Y s 1992 538 m 7 Y s 2039 538 m 7 Y s 2085 531 m 14 Y s 411
 531 m 14 Y s 364 538 m 7 Y s 318 538 m 7 Y s 2085 531 m 14 Y s 2132 538 m 7 Y s 318 187 m 358 Y s
 gsave  2254 561 2 2 C 166.096 284.736 t 90 r /Helvetica findfont 67.9729 sf 0 0 m (Data/SM) show NC gr  361 203 m -43 X s 339 220 m -21 X s 339 236 m -21 X s 339 252 m -21 X s 339 268 m -21 X s 361 285 m -43 X s 339 301 m -21 X s 339 317 m -21 X s
 339 334 m -21 X s 339 350 m -21 X s 361 366 m -43 X s 339 382 m -21 X s 339 399 m -21 X s 339 415 m -21 X s 339 431 m -21 X s 361 447 m -43 X s 339 464 m -21 X s 339 480 m -21 X s 339 496 m -21 X s 339 512 m -21 X s 361 529 m -43 X s 361 203 m -43 X
 s 339 187 m -21 X s 361 529 m -43 X s
 gsave  2254 561 2 2 C 261.008 183.044 t 0 r /Helvetica findfont 57.777 sf 0 0 m (0) show NC gr 
 gsave  2254 561 2 2 C 213.552 261.008 t 0 r /Helvetica findfont 57.777 sf 0 0 m (0.5) show NC gr 
 gsave  2254 561 2 2 C 271.177 342.361 t 0 r /Helvetica findfont 57.777 sf 0 0 m (1) show NC gr 
 gsave  2254 561 2 2 C 213.552 423.714 t 0 r /Helvetica findfont 57.777 sf 0 0 m (1.5) show NC gr 
 gsave  2254 561 2 2 C 261.008 505.067 t 0 r /Helvetica findfont 57.777 sf 0 0 m (2) show NC gr  2178 187 m 358 Y s 2135 203 m 43 X s 2157 220 m 21 X s 2157 236 m 21 X s 2157 252 m 21 X s 2157 268 m 21 X s 2135 285 m 43 X s 2157 301 m 21 X s 2157 317
 m 21 X s 2157 334 m 21 X s 2157 350 m 21 X s 2135 366 m 43 X s 2157 382 m 21 X s 2157 399 m 21 X s 2157 415 m 21 X s 2157 431 m 21 X s 2135 447 m 43 X s 2157 464 m 21 X s 2157 480 m 21 X s 2157 496 m 21 X s 2157 512 m 21 X s 2135 529 m 43 X s 2135
 203 m 43 X s 2157 187 m 21 X s 2135 529 m 43 X s 9 lw 923 382 m 5 Y s 923 387 m cl s 923 355 m -5 Y s 923 350 m cl s 1016 379 m 10 Y s 1016 389 m cl s 1016 352 m -11 Y s 1016 341 m cl s 1109 371 m 18 Y s 1109 389 m cl s 1109 344 m -18 Y s 1109 326 m
 cl s 1202 410 m 34 Y s 1202 444 m cl s 1202 383 m -33 Y s 1202 350 m cl s 1295 470 m 62 Y s 1295 532 m cl s 1295 443 m -58 Y s 1295 385 m cl s 1388 281 m 38 Y s 1388 319 m cl s 1388 254 m -28 Y s 1388 226 m cl s 1481 332 m 80 Y s 1481 412 m cl s
 1481 305 m -61 Y s 1481 244 m cl s 1574 456 m 89 Y s 1574 545 m cl s 1574 429 m -116 Y s 1574 313 m cl s 1667 397 m 148 Y s 1667 545 m cl s 1667 370 m -135 Y s 1667 235 m cl s 2132 545 m -239 Y s 2132 306 m cl s 3 lw 364 350 457 343 550 340 643 342
 736 366 829 333 923 368 1016 365 1109 358 1202 396 1295 457 1388 267 1481 319 1574 442 1667 383 15 { m20} R 9 lw 1 0 0 c 6 lw black 3 lw 1 0 0 c 2178 227 m s 2178 255 m s 2178 284 m s 2178 312 m s 2178 341 m -10 -11 d s 2178 369 m -39 -39 d s 2178
 398 m -68 -68 d s 2154 402 m -76 -76 d s 2125 402 m -76 -76 d s 2096 402 m -76 -76 d s 2071 406 m -79 -79 d s 2043 406 m -76 -75 d s 2014 406 m -75 -75 d s 1981 401 m -71 -70 d s 1952 401 m -65 -65 d s 1923 401 m -65 -65 d s 1889 396 m -59 -60 d s
 1860 396 m -54 -55 d s 1832 396 m -55 -55 d s 1798 391 m -49 -50 d s 1769 391 m -49 -50 d s 1741 391 m -46 -46 d s 1708 387 m -42 -42 d s 1680 387 m -43 -42 d s 1651 387 m -47 -46 d s 1622 387 m -46 -46 d s 1598 392 m -51 -51 d s 1569 392 m -42 -42
 d s 1541 392 m -41 -41 d s 1501 381 m -29 -30 d s 1472 381 m -29 -30 d s 1444 381 m -28 -28 d s 1413 379 m -25 -26 d s 1384 379 m -25 -26 d s 1356 379 m -24 -24 d s 1325 377 m -22 -22 d s 1297 377 m -23 -22 d s 1268 377 m -22 -22 d s 1239 377 m -22
 -22 d s 1210 377 m -21 -22 d s 1182 377 m -22 -22 d s 1153 377 m -22 -22 d s 1124 377 m -22 -22 d s 1096 377 m -22 -22 d s 1067 377 m -20 -20 d s 1036 375 m -18 -18 d s 1008 375 m -18 -18 d s 979 375 m -18 -18 d s 950 375 m -18 -18 d s 922 375 m -18
 -18 d s 893 375 m -17 -17 d s 863 374 m -16 -16 d s 834 374 m -15 -16 d s 806 374 m -16 -16 d s 775 372 m -12 -12 d s 746 372 m -11 -12 d s 717 372 m -11 -12 d s 687 370 m -8 -8 d s 658 370 m -8 -8 d s 630 370 m -8 -8 d s 601 370 m -7 -7 d s 572 369
 m -7 -6 d s 543 369 m -7 -6 d s 514 369 m -6 -6 d s 486 369 m -7 -6 d s 457 369 m -7 -6 d s 318 231 m s 428 369 m -6 -6 d s 318 259 m s 399 369 m -6 -6 d s 318 288 m s 371 369 m -7 -6 d s 318 317 m s 342 369 m -6 -6 d s 318 345 m s 6 lw black[ 4 8]
 0 sd 3 lw 318 447 m 1860 X s 318 285 m 1860 X s 1 0 0 c[  12 12 ] 0 sd 6 lw 318 366 m 1860 X s
 gr  gr showpage
end
%%EOF
