%!PS-Adobe-2.0 EPSF-2.0
%%BoundingBox:  0 0 567 521
%%Title: Distributions/met_distrCRW_MB-GGd_beforeFit_forThesis.eps: canvas
%%Creator: ROOT Version 6.04/16
%%CreationDate: Tue May 19 22:01:19 2020
%%DocumentNeededResources: ProcSet (FontSetInit)
%%EndComments
%%BeginProlog
80 dict begin
/s {stroke} def /l {lineto} def /m {moveto} def /t {translate} def
/r {rotate} def /rl {roll}  def /R {repeat} def
/d {rlineto} def /rm {rmoveto} def /gr {grestore} def /f {eofill} def
/c {setrgbcolor} def /black {0 setgray} def /sd {setdash} def
/cl {closepath} def /sf {scalefont setfont} def /lw {setlinewidth} def
/box {m dup 0 exch d exch 0 d 0 exch neg d cl} def
/NC{systemdict begin initclip end}def/C{NC box clip newpath}def
/bl {box s} def /bf {gsave box gsave f grestore 1 lw [] 0 sd s grestore} def /Y { 0 exch d} def /X { 0 d} def 
/K {{pop pop 0 moveto} exch kshow} bind def
/ita {/ang 15 def gsave [1 0 ang dup sin exch cos div 1 0 0] concat} def 
/mp {newpath /y exch def /x exch def} def
/side {[w .77 mul w .23 mul] .385 w mul sd w 0 l currentpoint t -144 r} def
/mr {mp x y w2 0 360 arc} def /m24 {mr s} def /m20 {mr f} def
/mb {mp x y w2 add m w2 neg 0 d 0 w neg d w 0 d 0 w d cl} def
/mt {mp x y w2 add m w2 neg w neg d w 0 d cl} def
/m21 {mb f} def /m25 {mb s} def /m22 {mt f} def /m26{mt s} def
/m23 {mp x y w2 sub m w2 w d w neg 0 d cl f} def
/m27 {mp x y w2 add m w3 neg w2 neg d w3 w2 neg d w3 w2 d cl s} def
/m28 {mp x w2 sub y w2 sub w3 add m w3 0 d  0 w3 neg d w3 0 d 0 w3 d w3 0 d  0 w3 d w3 neg 0 d 0 w3 d w3 neg 0 d 0 w3 neg d w3 neg 0 d cl s } def
/m29 {mp gsave x w2 sub y w2 add w3 sub m currentpoint t 4 {side} repeat cl fill gr} def
/m30 {mp gsave x w2 sub y w2 add w3 sub m currentpoint t 4 {side} repeat cl s gr} def
/m31 {mp x y w2 sub m 0 w d x w2 sub y m w 0 d x w2 sub y w2 add m w w neg d x w2 sub y w2 sub m w w d s} def
/m32 {mp x y w2 sub m w2 w d w neg 0 d cl s} def
/m33 {mp x y w2 add m w3 neg w2 neg d w3 w2 neg d w3 w2 d cl f} def
/m34 {mp x w2 sub y w2 sub w3 add m w3 0 d  0 w3 neg d w3 0 d 0 w3 d w3 0 d  0 w3 d w3 neg 0 d 0 w3 d w3 neg 0 d 0 w3 neg d w3 neg 0 d cl f } def
/m2 {mp x y w2 sub m 0 w d x w2 sub y m w 0 d s} def
/m5 {mp x w2 sub y w2 sub m w w d x w2 sub y w2 add m w w neg d s} def
%%IncludeResource: ProcSet (FontSetInit)
%%IncludeResource: font Times-Roman
%%IncludeResource: font Times-Italic
%%IncludeResource: font Times-Bold
%%IncludeResource: font Times-BoldItalic
%%IncludeResource: font Helvetica
%%IncludeResource: font Helvetica-Oblique
%%IncludeResource: font Helvetica-Bold
%%IncludeResource: font Helvetica-BoldOblique
%%IncludeResource: font Courier
%%IncludeResource: font Courier-Oblique
%%IncludeResource: font Courier-Bold
%%IncludeResource: font Courier-BoldOblique
%%IncludeResource: font Symbol
%%IncludeResource: font ZapfDingbats
/reEncode {exch findfont dup length dict begin {1 index /FID eq  {pop pop} {def} ifelse } forall /Encoding exch def currentdict end dup /FontName get exch definefont pop } def [/Times-Bold /Times-Italic /Times-BoldItalic /Helvetica /Helvetica-Oblique
 /Helvetica-Bold /Helvetica-BoldOblique /Courier /Courier-Oblique /Courier-Bold /Courier-BoldOblique /Times-Roman /AvantGarde-Book /AvantGarde-BookOblique /AvantGarde-Demi /AvantGarde-DemiOblique /Bookman-Demi /Bookman-DemiItalic /Bookman-Light
 /Bookman-LightItalic /Helvetica-Narrow /Helvetica-Narrow-Bold /Helvetica-Narrow-BoldOblique /Helvetica-Narrow-Oblique /NewCenturySchlbk-Roman /NewCenturySchlbk-Bold /NewCenturySchlbk-BoldItalic /NewCenturySchlbk-Italic /Palatino-Bold
 /Palatino-BoldItalic /Palatino-Italic /Palatino-Roman ] {ISOLatin1Encoding reEncode } forall
%%EndProlog
%%BeginSetup
%%EndSetup
newpath  gsave  .25 .25 scale  gsave  0 0 t black[  ] 0 sd 3 lw 1 1 1 c 2268 2085 0 0 bf black 1 1 1 c 2263 1770 2 313 bf black 1 1 1 c black 1860 1145 319 584 bl 1 1 1 c black 1860 1145 319 584 bl 6 lw 1 1 1 c black 3 lw /w 33 def /w2 {w 2 div} def
 /w3 {w 3 div} def 366 1204 m20 6 lw 3 lw 459 1174 m20 6 lw 3 lw 552 1127 m20 6 lw 3 lw 645 1078 m20 6 lw 3 lw 738 1041 m20 6 lw 3 lw 831 972 m20 6 lw 924 924 m 1 Y s 3 lw 924 939 m20 6 lw 1017 865 m 10 Y s 1017 902 m 3 Y s 3 lw 1017 888 m20 6 lw
 1110 872 m 8 Y s 1110 907 m 3 Y s 3 lw 1110 894 m20 6 lw 1203 828 m 17 Y s 1203 872 m 8 Y s 3 lw 1203 859 m20 6 lw 1389 699 m 65 Y s 1389 791 m 21 Y s 3 lw 1389 778 m20 6 lw 3 lw 319 584 m 1860 X s
 gsave  2263 1770 2 313 C 1949.08 355.92 t 0 r /Helvetica findfont 81.3741 sf 0 0 m ( [GeV]) show NC gr 
 gsave  2263 1770 2 313 C 1837.22 396.596 t 0 r /Helvetica findfont 54.2494 sf 0 0 m (miss) show NC gr 
 gsave  2263 1770 2 313 C 1837.22 332.192 t 0 r /Helvetica findfont 54.2494 sf 0 0 m (T) show NC gr 
 gsave  2263 1770 2 313 C 1786.38 355.92 t 0 r /Helvetica findfont 81.3741 sf 0 0 m (E) show NC gr  412 584 m cl s 459 584 m cl s 505 584 m cl s 552 584 m cl s 598 584 m cl s 645 584 m cl s 691 584 m cl s 738 584 m cl s 784 584 m cl s 831 584 m cl s
 877 584 m cl s 924 584 m cl s 970 584 m cl s 1017 584 m cl s 1063 584 m cl s 1110 584 m cl s 1156 584 m cl s 1203 584 m cl s 1249 584 m cl s 1296 584 m cl s 1342 584 m cl s 1389 584 m cl s 1435 584 m cl s 1482 584 m cl s 1528 584 m cl s 1575 584 m
 cl s 1621 584 m cl s 1668 584 m cl s 1714 584 m cl s 1761 584 m cl s 1807 584 m cl s 1854 584 m cl s 1900 584 m cl s 1947 584 m cl s 1993 584 m cl s 2040 584 m cl s 2086 584 m cl s 412 584 m cl s 366 584 m cl s 319 584 m cl s 2086 584 m cl s 2133
 584 m cl s 2179 584 m cl s 319 1729 m 1860 X s 412 1729 m cl s 459 1729 m cl s 505 1729 m cl s 552 1729 m cl s 598 1729 m cl s 645 1729 m cl s 691 1729 m cl s 738 1729 m cl s 784 1729 m cl s 831 1729 m cl s 877 1729 m cl s 924 1729 m cl s 970 1729 m
 cl s 1017 1729 m cl s 1063 1729 m cl s 1110 1729 m cl s 1156 1729 m cl s 1203 1729 m cl s 1249 1729 m cl s 1296 1729 m cl s 1342 1729 m cl s 1389 1729 m cl s 1435 1729 m cl s 1482 1729 m cl s 1528 1729 m cl s 1575 1729 m cl s 1621 1729 m cl s 1668
 1729 m cl s 1714 1729 m cl s 1761 1729 m cl s 1807 1729 m cl s 1854 1729 m cl s 1900 1729 m cl s 1947 1729 m cl s 1993 1729 m cl s 2040 1729 m cl s 2086 1729 m cl s 412 1729 m cl s 366 1729 m cl s 319 1729 m cl s 2086 1729 m cl s 2133 1729 m cl s
 2179 1729 m cl s 319 584 m 1145 Y s
 gsave  2263 1770 2 313 C 166.096 1091.49 t 90 r /Helvetica findfont 81.3741 sf 0 0 m (Events / 100 GeV) show NC gr  341 629 m -22 X s 341 655 m -22 X s 341 674 m -22 X s 341 688 m -22 X s 341 700 m -22 X s 341 710 m -22 X s 341 719 m -22 X s 341 726
 m -22 X s 363 733 m -44 X s
 gsave  2263 1770 2 313 C 300.555 706.012 t 0 r  -36 0 t /Helvetica findfont 64.4212 sf 0 0 m (1) show NC gr  341 778 m -22 X s 341 804 m -22 X s 341 823 m -22 X s 341 837 m -22 X s 341 849 m -22 X s 341 859 m -22 X s 341 868 m -22 X s 341 875 m -22
 X s 363 882 m -44 X s
 gsave  2263 1770 2 313 C 300.555 854.832 t 0 r  -73 0 t /Helvetica findfont 64.4212 sf 0 0 m (10) show NC gr  341 927 m -22 X s 341 953 m -22 X s 341 972 m -22 X s 341 986 m -22 X s 341 998 m -22 X s 341 1008 m -22 X s 341 1016 m -22 X s 341 1024 m
 -22 X s 363 1031 m -44 X s
 gsave  2263 1770 2 313 C 274.567 1030.47 t 0 r /Helvetica findfont 44.0776 sf 0 0 m (2) show NC gr 
 gsave  2263 1770 2 313 C 203.383 1003.35 t 0 r /Helvetica findfont 64.4212 sf 0 0 m (10) show NC gr  341 1076 m -22 X s 341 1102 m -22 X s 341 1120 m -22 X s 341 1135 m -22 X s 341 1147 m -22 X s 341 1157 m -22 X s 341 1165 m -22 X s 341 1173 m -22
 X s 363 1180 m -44 X s
 gsave  2263 1770 2 313 C 274.567 1179.62 t 0 r /Helvetica findfont 44.0776 sf 0 0 m (3) show NC gr 
 gsave  2263 1770 2 313 C 203.383 1149.11 t 0 r /Helvetica findfont 64.4212 sf 0 0 m (10) show NC gr  341 1224 m -22 X s 341 1251 m -22 X s 341 1269 m -22 X s 341 1284 m -22 X s 341 1295 m -22 X s 341 1305 m -22 X s 341 1314 m -22 X s 341 1322 m -22
 X s 363 1328 m -44 X s
 gsave  2263 1770 2 313 C 274.567 1325.38 t 0 r /Helvetica findfont 44.0776 sf 0 0 m (4) show NC gr 
 gsave  2263 1770 2 313 C 203.383 1298.26 t 0 r /Helvetica findfont 64.4212 sf 0 0 m (10) show NC gr  341 1373 m -22 X s 341 1399 m -22 X s 341 1418 m -22 X s 341 1432 m -22 X s 341 1444 m -22 X s 341 1454 m -22 X s 341 1463 m -22 X s 341 1470 m -22
 X s 363 1477 m -44 X s
 gsave  2263 1770 2 313 C 274.567 1477.91 t 0 r /Helvetica findfont 44.0776 sf 0 0 m (5) show NC gr 
 gsave  2263 1770 2 313 C 203.383 1447.41 t 0 r /Helvetica findfont 64.4212 sf 0 0 m (10) show NC gr  341 1522 m -22 X s 341 1548 m -22 X s 341 1567 m -22 X s 341 1581 m -22 X s 341 1593 m -22 X s 341 1603 m -22 X s 341 1612 m -22 X s 341 1619 m -22
 X s 363 1626 m -44 X s
 gsave  2263 1770 2 313 C 274.567 1627.06 t 0 r /Helvetica findfont 44.0776 sf 0 0 m (6) show NC gr 
 gsave  2263 1770 2 313 C 203.383 1596.55 t 0 r /Helvetica findfont 64.4212 sf 0 0 m (10) show NC gr  341 1671 m -22 X s 341 1697 m -22 X s 341 1716 m -22 X s 2179 584 m 1145 Y s 2157 629 m 22 X s 2157 655 m 22 X s 2157 674 m 22 X s 2157 688 m 22 X s
 2157 700 m 22 X s 2157 710 m 22 X s 2157 719 m 22 X s 2157 726 m 22 X s 2136 733 m 43 X s 2157 778 m 22 X s 2157 804 m 22 X s 2157 823 m 22 X s 2157 837 m 22 X s 2157 849 m 22 X s 2157 859 m 22 X s 2157 868 m 22 X s 2157 875 m 22 X s 2136 882 m 43 X
 s 2157 927 m 22 X s 2157 953 m 22 X s 2157 972 m 22 X s 2157 986 m 22 X s 2157 998 m 22 X s 2157 1008 m 22 X s 2157 1016 m 22 X s 2157 1024 m 22 X s 2136 1031 m 43 X s 2157 1076 m 22 X s 2157 1102 m 22 X s 2157 1120 m 22 X s 2157 1135 m 22 X s 2157
 1147 m 22 X s 2157 1157 m 22 X s 2157 1165 m 22 X s 2157 1173 m 22 X s 2136 1180 m 43 X s 2157 1224 m 22 X s 2157 1251 m 22 X s 2157 1269 m 22 X s 2157 1284 m 22 X s 2157 1295 m 22 X s 2157 1305 m 22 X s 2157 1314 m 22 X s 2157 1322 m 22 X s 2136
 1328 m 43 X s 2157 1373 m 22 X s 2157 1399 m 22 X s 2157 1418 m 22 X s 2157 1432 m 22 X s 2157 1444 m 22 X s 2157 1454 m 22 X s 2157 1463 m 22 X s 2157 1470 m 22 X s 2136 1477 m 43 X s 2157 1522 m 22 X s 2157 1548 m 22 X s 2157 1567 m 22 X s 2157
 1581 m 22 X s 2157 1593 m 22 X s 2157 1603 m 22 X s 2157 1612 m 22 X s 2157 1619 m 22 X s 2136 1626 m 43 X s 2157 1671 m 22 X s 2157 1697 m 22 X s 2157 1716 m 22 X s 0.4 0.6 1 c black 0.4 0.6 1 c 319 584 m 627 Y 93 X -26 Y 93 X -47 Y 93 X -52 Y 93 X
 -46 Y 93 X -45 Y 93 X -39 Y 93 X -51 Y 93 X -33 Y 93 X -52 Y 93 X -23 Y 93 X -36 Y 93 X -52 Y 93 X -10 Y 93 X -71 Y 186 X -44 Y 372 X f black 0.4 0.6 1 c black 319 1211 m 93 X -26 Y 93 X -47 Y 93 X -52 Y 93 X -46 Y 93 X -45 Y 93 X -39 Y 93 X -51 Y
 93 X -33 Y 93 X -52 Y 93 X -23 Y 93 X -36 Y 93 X -52 Y 93 X -10 Y 93 X -71 Y 186 X -44 Y 372 X s 0.999 0.999 0.999 c black 0.999 0.999 0.999 c 319 584 m 531 Y 93 X -32 Y 93 X -53 Y 93 X -56 Y 93 X -55 Y 93 X -44 Y 93 X -31 Y 93 X -78 Y 93 X 5 Y 93 X
 -64 Y 93 X 14 Y 93 X -86 Y 93 X -51 Y 744 X f black 0.999 0.999 0.999 c black 319 1115 m 93 X -32 Y 93 X -53 Y 93 X -56 Y 93 X -55 Y 93 X -44 Y 93 X -31 Y 93 X -78 Y 93 X 5 Y 93 X -64 Y 93 X 14 Y 93 X -86 Y 93 X -51 Y 744 X s 1 1 1 c black 319 1115
 m 93 X -32 Y 93 X -53 Y 93 X -56 Y 93 X -55 Y 93 X -44 Y 93 X -31 Y 93 X -78 Y 93 X 5 Y 93 X -64 Y 93 X 14 Y 93 X -86 Y 93 X -51 Y 744 X s 0.6 1 0.6 c black 0.6 1 0.6 c 319 584 m 531 Y 93 X -32 Y 93 X -53 Y 93 X -56 Y 93 X -55 Y 93 X -44 Y 93 X -31
 Y 93 X -78 Y 93 X 5 Y 93 X -64 Y 93 X 14 Y 93 X -86 Y 93 X -51 Y 744 X f black 0.6 1 0.6 c black 319 1115 m 93 X -32 Y 93 X -53 Y 93 X -56 Y 93 X -55 Y 93 X -44 Y 93 X -31 Y 93 X -78 Y 93 X 5 Y 93 X -64 Y 93 X 14 Y 93 X -86 Y 93 X -51 Y 744 X s
 0.999 0.999 0.999 c black 0.999 0.999 0.999 c 319 584 m 446 Y 93 X -18 Y 93 X -44 Y 93 X -47 Y 93 X -52 Y 93 X -32 Y 93 X -41 Y 93 X -57 Y 93 X -9 Y 93 X -97 Y 93 X 14 Y 93 X -31 Y 93 X -32 Y 744 X f black 0.999 0.999 0.999 c black 319 1030 m 93 X
 -18 Y 93 X -44 Y 93 X -47 Y 93 X -52 Y 93 X -32 Y 93 X -41 Y 93 X -57 Y 93 X -9 Y 93 X -97 Y 93 X 14 Y 93 X -31 Y 93 X -32 Y 744 X s 1 1 1 c black 319 1030 m 93 X -18 Y 93 X -44 Y 93 X -47 Y 93 X -52 Y 93 X -32 Y 93 X -41 Y 93 X -57 Y 93 X -9 Y 93 X
 -97 Y 93 X 14 Y 93 X -31 Y 93 X -32 Y 744 X s 1 0.8 0.4 c black 1 0.8 0.4 c 319 584 m 446 Y 93 X -18 Y 93 X -44 Y 93 X -47 Y 93 X -52 Y 93 X -32 Y 93 X -41 Y 93 X -57 Y 93 X -9 Y 93 X -97 Y 93 X 14 Y 93 X -31 Y 93 X -32 Y 744 X f black 1 0.8 0.4 c
 black 319 1030 m 93 X -18 Y 93 X -44 Y 93 X -47 Y 93 X -52 Y 93 X -32 Y 93 X -41 Y 93 X -57 Y 93 X -9 Y 93 X -97 Y 93 X 14 Y 93 X -31 Y 93 X -32 Y 744 X s 0.999 0.999 0.999 c black 0.999 0.999 0.999 c 319 584 m 437 Y 93 X -16 Y 93 X -42 Y 93 X -49 Y
 93 X -50 Y 93 X -31 Y 93 X -40 Y 93 X -57 Y 93 X -6 Y 93 X -102 Y 93 X 17 Y 93 X -29 Y 93 X -32 Y 744 X f black 0.999 0.999 0.999 c black 319 1021 m 93 X -16 Y 93 X -42 Y 93 X -49 Y 93 X -50 Y 93 X -31 Y 93 X -40 Y 93 X -57 Y 93 X -6 Y 93 X -102 Y
 93 X 17 Y 93 X -29 Y 93 X -32 Y 744 X s 1 1 1 c black 319 1021 m 93 X -16 Y 93 X -42 Y 93 X -49 Y 93 X -50 Y 93 X -31 Y 93 X -40 Y 93 X -57 Y 93 X -6 Y 93 X -102 Y 93 X 17 Y 93 X -29 Y 93 X -32 Y 744 X s 1 0.4 0.6 c black 1 0.4 0.6 c 319 584 m 437 Y
 93 X -16 Y 93 X -42 Y 93 X -49 Y 93 X -50 Y 93 X -31 Y 93 X -40 Y 93 X -57 Y 93 X -6 Y 93 X -102 Y 93 X 17 Y 93 X -29 Y 93 X -32 Y 744 X f black 1 0.4 0.6 c black 319 1021 m 93 X -16 Y 93 X -42 Y 93 X -49 Y 93 X -50 Y 93 X -31 Y 93 X -40 Y 93 X -57
 Y 93 X -6 Y 93 X -102 Y 93 X 17 Y 93 X -29 Y 93 X -32 Y 744 X s 1 0 0 c 6 lw 1 1 1 c black 1 0 0 c 319 1211 m 93 X -26 Y 93 X -47 Y 93 X -52 Y 93 X -46 Y 93 X -45 Y 93 X -39 Y 93 X -51 Y 93 X -33 Y 93 X -52 Y 93 X -23 Y 93 X -36 Y 93 X -52 Y 93 X
 -10 Y 93 X -71 Y 186 X -44 Y 372 X s black 3 lw 1 0 0 c 1 lw << /PatternType 1 /PaintType 2 /TilingType 1 /BBox [ 0 0 100 100 ] /XStep 100 /YStep 100 /PaintProc { begin gsave 0 100 m 100 0 l s gr end } >> [ 0.24 0 0 0.24 0 0 ] makepattern /P05 exch
 def /cs {[/Pattern /DeviceRGB] setcolorspace} def /FA {f [/DeviceRGB] setcolorspace} def cs 1 0 0 P05 setcolor 319 584 m 628 Y 93 X -26 Y 93 X -46 Y 93 X -52 Y 93 X -45 Y 93 X -45 Y 93 X -38 Y 93 X -50 Y 93 X -32 Y 93 X -50 Y 93 X -20 Y 93 X -34 Y
 93 X -53 Y 93 X -4 Y 93 X -70 Y 93 X 4 Y 93 X -67 Y 7 Y -93 X 10 Y -93 X 74 Y -93 X 20 Y -93 X 51 Y -93 X 39 Y -93 X 26 Y -93 X 54 Y -93 X 36 Y -93 X 51 Y -93 X 40 Y -93 X 45 Y -93 X 47 Y -93 X 53 Y -93 X 47 Y -93 X 26 Y -93 X -626 Y FA 6 lw 1 1 1 c
 15 lw 1017 868 m -3 Y s 1017 865 m cl s 1110 873 m -1 Y s 1110 872 m cl s 1203 879 m 1 Y s 1203 880 m cl s 1203 839 m -10 Y s 1203 829 m cl s 1389 798 m 18 Y s 1389 816 m cl s 1389 758 m -47 Y s 1389 711 m cl s black 1 1 1 c 3 lw /w 43 def /w2 {w 2
 div} def /w3 {w 3 div} def 366 1204 459 1174 552 1127 645 1078 738 1041 831 972 924 939 1017 888 1110 894 1203 859 10 { m20} R 15 lw 3 lw 1389 778 m20 15 lw black 6 lw 1 1 1 c black 3 lw /w 33 def /w2 {w 2 div} def /w3 {w 3 div} def 366 1204 m20 6
 lw 3 lw 459 1174 m20 6 lw 3 lw 552 1127 m20 6 lw 3 lw 645 1078 m20 6 lw 3 lw 738 1041 m20 6 lw 3 lw 831 972 m20 6 lw 924 924 m 1 Y s 3 lw 924 939 m20 6 lw 1017 865 m 10 Y s 1017 902 m 3 Y s 3 lw 1017 888 m20 6 lw 1110 872 m 8 Y s 1110 907 m 3 Y s 3
 lw 1110 894 m20 6 lw 1203 828 m 17 Y s 1203 872 m 8 Y s 3 lw 1203 859 m20 6 lw 1389 699 m 65 Y s 1389 791 m 21 Y s 3 lw 1389 778 m20 6 lw 924 925 m -1 Y s 924 924 m cl s 1017 902 m 3 Y s 1017 905 m cl s 1017 875 m -10 Y s 1017 865 m cl s 1110 907 m
 3 Y s 1110 910 m cl s 1110 880 m -8 Y s 1110 872 m cl s 1203 872 m 8 Y s 1203 880 m cl s 1203 845 m -16 Y s 1203 829 m cl s 1389 791 m 25 Y s 1389 816 m cl s 1389 764 m -53 Y s 1389 711 m cl s 3 lw 366 1204 459 1174 552 1127 645 1078 738 1041 831
 972 924 939 1017 888 1110 894 1203 859 10 { m20} R 6 lw 3 lw 1389 778 m20 6 lw 3 lw 319 584 m 1860 X s 412 584 m cl s 459 584 m cl s 505 584 m cl s 552 584 m cl s 598 584 m cl s 645 584 m cl s 691 584 m cl s 738 584 m cl s 784 584 m cl s 831 584 m
 cl s 877 584 m cl s 924 584 m cl s 970 584 m cl s 1017 584 m cl s 1063 584 m cl s 1110 584 m cl s 1156 584 m cl s 1203 584 m cl s 1249 584 m cl s 1296 584 m cl s 1342 584 m cl s 1389 584 m cl s 1435 584 m cl s 1482 584 m cl s 1528 584 m cl s 1575
 584 m cl s 1621 584 m cl s 1668 584 m cl s 1714 584 m cl s 1761 584 m cl s 1807 584 m cl s 1854 584 m cl s 1900 584 m cl s 1947 584 m cl s 1993 584 m cl s 2040 584 m cl s 2086 584 m cl s 412 584 m cl s 366 584 m cl s 319 584 m cl s 2086 584 m cl s
 2133 584 m cl s 2179 584 m cl s 319 1729 m 1860 X s 412 1729 m cl s 459 1729 m cl s 505 1729 m cl s 552 1729 m cl s 598 1729 m cl s 645 1729 m cl s 691 1729 m cl s 738 1729 m cl s 784 1729 m cl s 831 1729 m cl s 877 1729 m cl s 924 1729 m cl s 970
 1729 m cl s 1017 1729 m cl s 1063 1729 m cl s 1110 1729 m cl s 1156 1729 m cl s 1203 1729 m cl s 1249 1729 m cl s 1296 1729 m cl s 1342 1729 m cl s 1389 1729 m cl s 1435 1729 m cl s 1482 1729 m cl s 1528 1729 m cl s 1575 1729 m cl s 1621 1729 m cl s
 1668 1729 m cl s 1714 1729 m cl s 1761 1729 m cl s 1807 1729 m cl s 1854 1729 m cl s 1900 1729 m cl s 1947 1729 m cl s 1993 1729 m cl s 2040 1729 m cl s 2086 1729 m cl s 412 1729 m cl s 366 1729 m cl s 319 1729 m cl s 2086 1729 m cl s 2133 1729 m cl
 s 2179 1729 m cl s 319 584 m 1145 Y s 341 629 m -22 X s 341 655 m -22 X s 341 674 m -22 X s 341 688 m -22 X s 341 700 m -22 X s 341 710 m -22 X s 341 719 m -22 X s 341 726 m -22 X s 363 733 m -44 X s 341 778 m -22 X s 341 804 m -22 X s 341 823 m -22
 X s 341 837 m -22 X s 341 849 m -22 X s 341 859 m -22 X s 341 868 m -22 X s 341 875 m -22 X s 363 882 m -44 X s 341 927 m -22 X s 341 953 m -22 X s 341 972 m -22 X s 341 986 m -22 X s 341 998 m -22 X s 341 1008 m -22 X s 341 1016 m -22 X s 341 1024
 m -22 X s 363 1031 m -44 X s 341 1076 m -22 X s 341 1102 m -22 X s 341 1120 m -22 X s 341 1135 m -22 X s 341 1147 m -22 X s 341 1157 m -22 X s 341 1165 m -22 X s 341 1173 m -22 X s 363 1180 m -44 X s 341 1224 m -22 X s 341 1251 m -22 X s 341 1269 m
 -22 X s 341 1284 m -22 X s 341 1295 m -22 X s 341 1305 m -22 X s 341 1314 m -22 X s 341 1322 m -22 X s 363 1328 m -44 X s 341 1373 m -22 X s 341 1399 m -22 X s 341 1418 m -22 X s 341 1432 m -22 X s 341 1444 m -22 X s 341 1454 m -22 X s 341 1463 m
 -22 X s 341 1470 m -22 X s 363 1477 m -44 X s 341 1522 m -22 X s 341 1548 m -22 X s 341 1567 m -22 X s 341 1581 m -22 X s 341 1593 m -22 X s 341 1603 m -22 X s 341 1612 m -22 X s 341 1619 m -22 X s 363 1626 m -44 X s 341 1671 m -22 X s 341 1697 m
 -22 X s 341 1716 m -22 X s 2179 584 m 1145 Y s 2157 629 m 22 X s 2157 655 m 22 X s 2157 674 m 22 X s 2157 688 m 22 X s 2157 700 m 22 X s 2157 710 m 22 X s 2157 719 m 22 X s 2157 726 m 22 X s 2136 733 m 43 X s 2157 778 m 22 X s 2157 804 m 22 X s 2157
 823 m 22 X s 2157 837 m 22 X s 2157 849 m 22 X s 2157 859 m 22 X s 2157 868 m 22 X s 2157 875 m 22 X s 2136 882 m 43 X s 2157 927 m 22 X s 2157 953 m 22 X s 2157 972 m 22 X s 2157 986 m 22 X s 2157 998 m 22 X s 2157 1008 m 22 X s 2157 1016 m 22 X s
 2157 1024 m 22 X s 2136 1031 m 43 X s 2157 1076 m 22 X s 2157 1102 m 22 X s 2157 1120 m 22 X s 2157 1135 m 22 X s 2157 1147 m 22 X s 2157 1157 m 22 X s 2157 1165 m 22 X s 2157 1173 m 22 X s 2136 1180 m 43 X s 2157 1224 m 22 X s 2157 1251 m 22 X s
 2157 1269 m 22 X s 2157 1284 m 22 X s 2157 1295 m 22 X s 2157 1305 m 22 X s 2157 1314 m 22 X s 2157 1322 m 22 X s 2136 1328 m 43 X s 2157 1373 m 22 X s 2157 1399 m 22 X s 2157 1418 m 22 X s 2157 1432 m 22 X s 2157 1444 m 22 X s 2157 1454 m 22 X s
 2157 1463 m 22 X s 2157 1470 m 22 X s 2136 1477 m 43 X s 2157 1522 m 22 X s 2157 1548 m 22 X s 2157 1567 m 22 X s 2157 1581 m 22 X s 2157 1593 m 22 X s 2157 1603 m 22 X s 2157 1612 m 22 X s 2157 1619 m 22 X s 2136 1626 m 43 X s 2157 1671 m 22 X s
 2157 1697 m 22 X s 2157 1716 m 22 X s
 gsave  2263 1770 2 313 C 406.765 1447.41 t 0 r /Helvetica findfont 64.4212 sf 0 0 m (CRW for MB\255GGd) show NC gr 
 gsave  2263 1770 2 313 C 1464.36 1616.89 t 0 r /Helvetica findfont 64.4212 sf 0 0 m (SM Total) show NC gr  1 1 1 c 1338 1603 m 107 X 74 Y -107 X f 1 0 0 c 6 lw 1338 1640 m 107 X s black
 gsave  2263 1770 2 313 C 1464.36 1511.81 t 0 r /Helvetica findfont 64.4212 sf 0 0 m (Data) show NC gr  1391 1502 m 64 Y s 3 lw 1391 1534 m20 6 lw
 gsave  2263 1770 2 313 C 1464.36 1406.73 t 0 r /Helvetica findfont 64.4212 sf 0 0 m (W+jets) show NC gr  0.4 0.6 1 c 3 lw 1338 1391 m 107 X 74 Y -107 X f 6 lw black 3 lw 1338 1465 m 107 X s 1338 1391 m 107 X s 1445 1391 m 74 Y s 1338 1391 m 74 Y s
 gsave  2263 1770 2 313 C 1498.25 1298.26 t 0 r /Helvetica findfont 64.4212 sf 0 0 m (\(+EW\) & single top) show NC gr 
 gsave  2263 1770 2 313 C 1481.3 1298.26 t 0 r /Helvetica findfont 64.4212 sf 0 0 m (t) show NC gr  1481 1349 m 17 X s
 gsave  2263 1770 2 313 C 1464.36 1298.26 t 0 r /Helvetica findfont 64.4212 sf 0 0 m (t) show NC gr  0.6 1 0.6 c 1338 1284 m 107 X 75 Y -107 X f black 1338 1359 m 107 X s 1338 1284 m 107 X s 1445 1284 m 75 Y s 1338 1284 m 75 Y s
 gsave  2263 1770 2 313 C 1464.36 1193.18 t 0 r /Helvetica findfont 64.4212 sf 0 0 m (Z+jets) show NC gr  1 0.8 0.4 c 1338 1178 m 107 X 75 Y -107 X f black 1338 1253 m 107 X s 1338 1178 m 107 X s 1445 1178 m 75 Y s 1338 1178 m 75 Y s
 gsave  2263 1770 2 313 C 1464.36 1088.1 t 0 r /Helvetica findfont 64.4212 sf 0 0 m (Diboson) show NC gr  1 0.4 0.6 c 1338 1072 m 107 X 74 Y -107 X f black 1338 1146 m 107 X s 1338 1072 m 107 X s 1445 1072 m 74 Y s 1338 1072 m 74 Y s
 gsave  2263 1770 2 313 C 911.832 1566.05 t 0 r /Helvetica findfont 44.0776 sf 0 0 m (\2551) show NC gr 
 gsave  2263 1770 2 313 C 471.17 1535.54 t 0 r /Helvetica findfont 64.4212 sf 0 0 m (=13TeV, 139 fb) show NC gr 
 gsave  2263 1770 2 313 C 440.662 1535.54 t 0 r /Helvetica findfont 64.4212 sf 0 0 m (s) show NC gr  6 lw 420 1573 m 7 -41 d s 3 lw 427 1532 m 7 61 d s 434 1593 m 37 X s 1 1 1 c 2254 561 2 2 bf black 1 1 1 c black 1860 358 318 187 bl 1 1 1 c black
 1860 358 318 187 bl 6 lw 1 1 1 c black 3 lw 364 350 m20 6 lw 3 lw 457 341 m20 6 lw 3 lw 550 339 m20 6 lw 3 lw 643 347 m20 6 lw 3 lw 736 368 m20 6 lw 3 lw 829 317 m20 6 lw 3 lw 923 327 m20 6 lw 3 lw 1016 328 m20 6 lw 3 lw 1109 433 m20 6 lw 3 lw 1202
 498 m20 6 lw 3 lw 1388 414 m20 6 lw 3 lw 318 187 m 1860 X s
 gsave  2254 561 2 2 C 1959.25 27.1177 t 0 r /Helvetica findfont 78.1689 sf 0 0 m ( [GeV]) show NC gr 
 gsave  2254 561 2 2 C 1854.17 64.4045 t 0 r /Helvetica findfont 50.9797 sf 0 0 m (miss) show NC gr 
 gsave  2254 561 2 2 C 1854.17 3.38971 t 0 r /Helvetica findfont 50.9797 sf 0 0 m (T) show NC gr 
 gsave  2254 561 2 2 C 1803.33 27.1177 t 0 r /Helvetica findfont 78.1689 sf 0 0 m (E) show NC gr  411 201 m -14 Y s 457 194 m -7 Y s 504 194 m -7 Y s 550 194 m -7 Y s 597 201 m -14 Y s 643 194 m -7 Y s 690 194 m -7 Y s 736 194 m -7 Y s 783 201 m -14
 Y s 829 194 m -7 Y s 876 194 m -7 Y s 923 194 m -7 Y s 969 201 m -14 Y s 1016 194 m -7 Y s 1062 194 m -7 Y s 1109 194 m -7 Y s 1155 201 m -14 Y s 1202 194 m -7 Y s 1248 194 m -7 Y s 1295 194 m -7 Y s 1341 201 m -14 Y s 1388 194 m -7 Y s 1434 194 m
 -7 Y s 1481 194 m -7 Y s 1527 201 m -14 Y s 1574 194 m -7 Y s 1620 194 m -7 Y s 1667 194 m -7 Y s 1713 201 m -14 Y s 1760 194 m -7 Y s 1806 194 m -7 Y s 1853 194 m -7 Y s 1899 201 m -14 Y s 1946 194 m -7 Y s 1992 194 m -7 Y s 2039 194 m -7 Y s 2085
 201 m -14 Y s 411 201 m -14 Y s 364 194 m -7 Y s 318 194 m -7 Y s 2085 201 m -14 Y s 2132 194 m -7 Y s
 gsave  2254 561 2 2 C 345.75 118.64 t 0 r /Helvetica findfont 78.1689 sf 0 0 m (400) show NC gr 
 gsave  2254 561 2 2 C 532.185 118.64 t 0 r /Helvetica findfont 78.1689 sf 0 0 m (600) show NC gr 
 gsave  2254 561 2 2 C 715.229 118.64 t 0 r /Helvetica findfont 78.1689 sf 0 0 m (800) show NC gr 
 gsave  2254 561 2 2 C 877.935 118.64 t 0 r /Helvetica findfont 78.1689 sf 0 0 m (1000) show NC gr 
 gsave  2254 561 2 2 C 1064.37 118.64 t 0 r /Helvetica findfont 78.1689 sf 0 0 m (1200) show NC gr 
 gsave  2254 561 2 2 C 1250.8 118.64 t 0 r /Helvetica findfont 78.1689 sf 0 0 m (1400) show NC gr 
 gsave  2254 561 2 2 C 1437.24 118.64 t 0 r /Helvetica findfont 78.1689 sf 0 0 m (1600) show NC gr 
 gsave  2254 561 2 2 C 1623.67 118.64 t 0 r /Helvetica findfont 78.1689 sf 0 0 m (1800) show NC gr 
 gsave  2254 561 2 2 C 1810.11 118.64 t 0 r /Helvetica findfont 78.1689 sf 0 0 m (2000) show NC gr 
 gsave  2254 561 2 2 C 1996.54 118.64 t 0 r /Helvetica findfont 78.1689 sf 0 0 m (2200) show NC gr  318 545 m 1860 X s 411 531 m 14 Y s 457 538 m 7 Y s 504 538 m 7 Y s 550 538 m 7 Y s 597 531 m 14 Y s 643 538 m 7 Y s 690 538 m 7 Y s 736 538 m 7 Y s
 783 531 m 14 Y s 829 538 m 7 Y s 876 538 m 7 Y s 923 538 m 7 Y s 969 531 m 14 Y s 1016 538 m 7 Y s 1062 538 m 7 Y s 1109 538 m 7 Y s 1155 531 m 14 Y s 1202 538 m 7 Y s 1248 538 m 7 Y s 1295 538 m 7 Y s 1341 531 m 14 Y s 1388 538 m 7 Y s 1434 538 m 7
 Y s 1481 538 m 7 Y s 1527 531 m 14 Y s 1574 538 m 7 Y s 1620 538 m 7 Y s 1667 538 m 7 Y s 1713 531 m 14 Y s 1760 538 m 7 Y s 1806 538 m 7 Y s 1853 538 m 7 Y s 1899 531 m 14 Y s 1946 538 m 7 Y s 1992 538 m 7 Y s 2039 538 m 7 Y s 2085 531 m 14 Y s 411
 531 m 14 Y s 364 538 m 7 Y s 318 538 m 7 Y s 2085 531 m 14 Y s 2132 538 m 7 Y s 318 187 m 358 Y s
 gsave  2254 561 2 2 C 166.096 284.736 t 90 r /Helvetica findfont 67.9729 sf 0 0 m (Data/SM) show NC gr  361 203 m -43 X s 339 220 m -21 X s 339 236 m -21 X s 339 252 m -21 X s 339 268 m -21 X s 361 285 m -43 X s 339 301 m -21 X s 339 317 m -21 X s
 339 334 m -21 X s 339 350 m -21 X s 361 366 m -43 X s 339 382 m -21 X s 339 399 m -21 X s 339 415 m -21 X s 339 431 m -21 X s 361 447 m -43 X s 339 464 m -21 X s 339 480 m -21 X s 339 496 m -21 X s 339 512 m -21 X s 361 529 m -43 X s 361 203 m -43 X
 s 339 187 m -21 X s 361 529 m -43 X s
 gsave  2254 561 2 2 C 261.008 183.044 t 0 r /Helvetica findfont 57.777 sf 0 0 m (0) show NC gr 
 gsave  2254 561 2 2 C 213.552 261.008 t 0 r /Helvetica findfont 57.777 sf 0 0 m (0.5) show NC gr 
 gsave  2254 561 2 2 C 271.177 342.361 t 0 r /Helvetica findfont 57.777 sf 0 0 m (1) show NC gr 
 gsave  2254 561 2 2 C 213.552 423.714 t 0 r /Helvetica findfont 57.777 sf 0 0 m (1.5) show NC gr 
 gsave  2254 561 2 2 C 261.008 505.067 t 0 r /Helvetica findfont 57.777 sf 0 0 m (2) show NC gr  2178 187 m 358 Y s 2135 203 m 43 X s 2157 220 m 21 X s 2157 236 m 21 X s 2157 252 m 21 X s 2157 268 m 21 X s 2135 285 m 43 X s 2157 301 m 21 X s 2157 317
 m 21 X s 2157 334 m 21 X s 2157 350 m 21 X s 2135 366 m 43 X s 2157 382 m 21 X s 2157 399 m 21 X s 2157 415 m 21 X s 2157 431 m 21 X s 2135 447 m 43 X s 2157 464 m 21 X s 2157 480 m 21 X s 2157 496 m 21 X s 2157 512 m 21 X s 2135 529 m 43 X s 2135
 203 m 43 X s 2157 187 m 21 X s 2135 529 m 43 X s 9 lw 736 382 m 1 Y s 736 383 m cl s 736 354 m -1 Y s 736 353 m cl s 829 330 m 4 Y s 829 334 m cl s 829 303 m -4 Y s 829 299 m cl s 923 341 m 12 Y s 923 353 m cl s 923 314 m -12 Y s 923 302 m cl s 1016
 341 m 25 Y s 1016 366 m cl s 1016 314 m -23 Y s 1016 291 m cl s 1109 446 m 54 Y s 1109 500 m cl s 1109 419 m -51 Y s 1109 368 m cl s 1202 512 m 33 Y s 1202 545 m cl s 1202 484 m -94 Y s 1202 390 m cl s 1388 427 m 118 Y s 1388 545 m cl s 1388 400 m
 -122 Y s 1388 278 m cl s 3 lw 364 350 457 341 550 339 643 347 736 368 829 317 923 327 1016 328 1109 433 1202 498 10 { m20} R 9 lw 3 lw 1388 414 m20 9 lw 1 0 0 c 6 lw black 3 lw 1 0 0 c 2155 203 m cl s 2127 203 m cl s 2098 203 m cl s 2085 220 m s
 2085 248 m -5 -6 d s 2085 277 m -34 -35 d s 2085 305 m -63 -63 d s 2085 334 m -91 -92 d s 2085 363 m -109 -110 d s 2085 391 m -138 -138 d s 1899 206 m -10 -11 d s 2085 420 m -167 -167 d s 1899 234 m -39 -39 d s 2085 448 m -254 -253 d s 2085 477 m
 -279 -278 d s 2069 490 m -263 -263 d s 2041 490 m -235 -234 d s 2012 490 m -206 -205 d s 1972 479 m -184 -184 d s 1944 479 m -185 -184 d s 1915 479 m -184 -184 d s 1899 492 m -186 -186 d s 1899 520 m -210 -209 d s 1887 537 m -81 -81 d s 1787 437 m
 -127 -126 d s 1859 537 m -53 -52 d s 1758 437 m -127 -126 d s 1830 537 m -24 -24 d s 1730 437 m -122 -121 d s 1686 422 m -107 -106 d s 1657 422 m -106 -106 d s 1628 422 m -101 -101 d s 1594 416 m -82 -82 d s 1566 416 m -83 -82 d s 1537 416 m -10 -9
 d s 1519 398 m -65 -64 d s 1490 398 m -67 -67 d s 1461 398 m -67 -67 d s 1434 400 m -69 -69 d s 1406 401 m -65 -65 d s 1378 401 m -64 -64 d s 1349 401 m -64 -64 d s 1315 395 m -59 -58 d s 1286 395 m -50 -50 d s 1257 395 m -50 -50 d s 1221 387 m -43
 -42 d s 1192 387 m -38 -37 d s 1163 387 m -37 -37 d s 1130 382 m -33 -32 d s 1101 382 m -33 -32 d s 1072 382 m -28 -28 d s 1039 378 m -24 -24 d s 1010 378 m -23 -24 d s 982 378 m -23 -23 d s 952 377 m -22 -22 d s 923 377 m -21 -22 d s 895 377 m -19
 -19 d s 863 374 m -16 -16 d s 835 374 m -17 -16 d s 806 374 m -16 -16 d s 776 373 m -14 -14 d s 748 373 m -15 -14 d s 719 373 m -15 -14 d s 690 373 m s 688 371 m -10 -10 d s 659 371 m -10 -10 d s 631 371 m -10 -10 d s 602 371 m -9 -9 d s 572 370 m
 -7 -8 d s 543 370 m -7 -8 d s 514 370 m -7 -8 d s 485 369 m -5 -6 d s 456 369 m -5 -6 d s 318 231 m s 428 369 m -6 -6 d s 318 259 m s 398 368 m -4 -4 d s 318 288 m s 370 368 m -5 -4 d s 318 317 m s 341 368 m -4 -4 d s 318 345 m s 6 lw black[ 4 8] 0
 sd 3 lw 318 447 m 1860 X s 318 285 m 1860 X s 1 0 0 c[  12 12 ] 0 sd 6 lw 318 366 m 1860 X s
 gr  gr showpage
end
%%EOF
