%!PS-Adobe-2.0 EPSF-2.0
%%BoundingBox:  0 0 567 521
%%Title: Distributions/met_distrCRT_MB-GGd_beforeFit_forThesis.eps: canvas
%%Creator: ROOT Version 6.04/16
%%CreationDate: Tue May 19 22:01:04 2020
%%DocumentNeededResources: ProcSet (FontSetInit)
%%EndComments
%%BeginProlog
80 dict begin
/s {stroke} def /l {lineto} def /m {moveto} def /t {translate} def
/r {rotate} def /rl {roll}  def /R {repeat} def
/d {rlineto} def /rm {rmoveto} def /gr {grestore} def /f {eofill} def
/c {setrgbcolor} def /black {0 setgray} def /sd {setdash} def
/cl {closepath} def /sf {scalefont setfont} def /lw {setlinewidth} def
/box {m dup 0 exch d exch 0 d 0 exch neg d cl} def
/NC{systemdict begin initclip end}def/C{NC box clip newpath}def
/bl {box s} def /bf {gsave box gsave f grestore 1 lw [] 0 sd s grestore} def /Y { 0 exch d} def /X { 0 d} def 
/K {{pop pop 0 moveto} exch kshow} bind def
/ita {/ang 15 def gsave [1 0 ang dup sin exch cos div 1 0 0] concat} def 
/mp {newpath /y exch def /x exch def} def
/side {[w .77 mul w .23 mul] .385 w mul sd w 0 l currentpoint t -144 r} def
/mr {mp x y w2 0 360 arc} def /m24 {mr s} def /m20 {mr f} def
/mb {mp x y w2 add m w2 neg 0 d 0 w neg d w 0 d 0 w d cl} def
/mt {mp x y w2 add m w2 neg w neg d w 0 d cl} def
/m21 {mb f} def /m25 {mb s} def /m22 {mt f} def /m26{mt s} def
/m23 {mp x y w2 sub m w2 w d w neg 0 d cl f} def
/m27 {mp x y w2 add m w3 neg w2 neg d w3 w2 neg d w3 w2 d cl s} def
/m28 {mp x w2 sub y w2 sub w3 add m w3 0 d  0 w3 neg d w3 0 d 0 w3 d w3 0 d  0 w3 d w3 neg 0 d 0 w3 d w3 neg 0 d 0 w3 neg d w3 neg 0 d cl s } def
/m29 {mp gsave x w2 sub y w2 add w3 sub m currentpoint t 4 {side} repeat cl fill gr} def
/m30 {mp gsave x w2 sub y w2 add w3 sub m currentpoint t 4 {side} repeat cl s gr} def
/m31 {mp x y w2 sub m 0 w d x w2 sub y m w 0 d x w2 sub y w2 add m w w neg d x w2 sub y w2 sub m w w d s} def
/m32 {mp x y w2 sub m w2 w d w neg 0 d cl s} def
/m33 {mp x y w2 add m w3 neg w2 neg d w3 w2 neg d w3 w2 d cl f} def
/m34 {mp x w2 sub y w2 sub w3 add m w3 0 d  0 w3 neg d w3 0 d 0 w3 d w3 0 d  0 w3 d w3 neg 0 d 0 w3 d w3 neg 0 d 0 w3 neg d w3 neg 0 d cl f } def
/m2 {mp x y w2 sub m 0 w d x w2 sub y m w 0 d s} def
/m5 {mp x w2 sub y w2 sub m w w d x w2 sub y w2 add m w w neg d s} def
%%IncludeResource: ProcSet (FontSetInit)
%%IncludeResource: font Times-Roman
%%IncludeResource: font Times-Italic
%%IncludeResource: font Times-Bold
%%IncludeResource: font Times-BoldItalic
%%IncludeResource: font Helvetica
%%IncludeResource: font Helvetica-Oblique
%%IncludeResource: font Helvetica-Bold
%%IncludeResource: font Helvetica-BoldOblique
%%IncludeResource: font Courier
%%IncludeResource: font Courier-Oblique
%%IncludeResource: font Courier-Bold
%%IncludeResource: font Courier-BoldOblique
%%IncludeResource: font Symbol
%%IncludeResource: font ZapfDingbats
/reEncode {exch findfont dup length dict begin {1 index /FID eq  {pop pop} {def} ifelse } forall /Encoding exch def currentdict end dup /FontName get exch definefont pop } def [/Times-Bold /Times-Italic /Times-BoldItalic /Helvetica /Helvetica-Oblique
 /Helvetica-Bold /Helvetica-BoldOblique /Courier /Courier-Oblique /Courier-Bold /Courier-BoldOblique /Times-Roman /AvantGarde-Book /AvantGarde-BookOblique /AvantGarde-Demi /AvantGarde-DemiOblique /Bookman-Demi /Bookman-DemiItalic /Bookman-Light
 /Bookman-LightItalic /Helvetica-Narrow /Helvetica-Narrow-Bold /Helvetica-Narrow-BoldOblique /Helvetica-Narrow-Oblique /NewCenturySchlbk-Roman /NewCenturySchlbk-Bold /NewCenturySchlbk-BoldItalic /NewCenturySchlbk-Italic /Palatino-Bold
 /Palatino-BoldItalic /Palatino-Italic /Palatino-Roman ] {ISOLatin1Encoding reEncode } forall
%%EndProlog
%%BeginSetup
%%EndSetup
newpath  gsave  .25 .25 scale  gsave  0 0 t black[  ] 0 sd 3 lw 1 1 1 c 2268 2085 0 0 bf black 1 1 1 c 2263 1770 2 313 bf black 1 1 1 c black 1860 1145 319 584 bl 1 1 1 c black 1860 1145 319 584 bl 6 lw 1 1 1 c black 3 lw /w 33 def /w2 {w 2 div} def
 /w3 {w 3 div} def 366 1214 m20 6 lw 3 lw 459 1170 m20 6 lw 3 lw 552 1104 m20 6 lw 3 lw 645 1040 m20 6 lw 3 lw 738 981 m20 6 lw 831 905 m 3 Y s 3 lw 831 921 m20 6 lw 924 845 m 12 Y s 924 884 m 5 Y s 3 lw 924 871 m20 6 lw 1017 824 m 17 Y s 1017 868 m
 7 Y s 3 lw 1017 855 m20 6 lw 1110 746 m 41 Y s 1110 814 m 16 Y s 3 lw 1110 801 m20 6 lw 1203 697 m 64 Y s 1203 788 m 21 Y s 3 lw 1203 775 m20 6 lw 1389 584 m 133 Y s 1389 744 m 31 Y s 3 lw 1389 731 m20 6 lw 3 lw 319 584 m 1860 X s
 gsave  2263 1770 2 313 C 1949.08 355.92 t 0 r /Helvetica findfont 81.3741 sf 0 0 m ( [GeV]) show NC gr 
 gsave  2263 1770 2 313 C 1837.22 396.596 t 0 r /Helvetica findfont 54.2494 sf 0 0 m (miss) show NC gr 
 gsave  2263 1770 2 313 C 1837.22 332.192 t 0 r /Helvetica findfont 54.2494 sf 0 0 m (T) show NC gr 
 gsave  2263 1770 2 313 C 1786.38 355.92 t 0 r /Helvetica findfont 81.3741 sf 0 0 m (E) show NC gr  412 584 m cl s 459 584 m cl s 505 584 m cl s 552 584 m cl s 598 584 m cl s 645 584 m cl s 691 584 m cl s 738 584 m cl s 784 584 m cl s 831 584 m cl s
 877 584 m cl s 924 584 m cl s 970 584 m cl s 1017 584 m cl s 1063 584 m cl s 1110 584 m cl s 1156 584 m cl s 1203 584 m cl s 1249 584 m cl s 1296 584 m cl s 1342 584 m cl s 1389 584 m cl s 1435 584 m cl s 1482 584 m cl s 1528 584 m cl s 1575 584 m
 cl s 1621 584 m cl s 1668 584 m cl s 1714 584 m cl s 1761 584 m cl s 1807 584 m cl s 1854 584 m cl s 1900 584 m cl s 1947 584 m cl s 1993 584 m cl s 2040 584 m cl s 2086 584 m cl s 412 584 m cl s 366 584 m cl s 319 584 m cl s 2086 584 m cl s 2133
 584 m cl s 2179 584 m cl s 319 1729 m 1860 X s 412 1729 m cl s 459 1729 m cl s 505 1729 m cl s 552 1729 m cl s 598 1729 m cl s 645 1729 m cl s 691 1729 m cl s 738 1729 m cl s 784 1729 m cl s 831 1729 m cl s 877 1729 m cl s 924 1729 m cl s 970 1729 m
 cl s 1017 1729 m cl s 1063 1729 m cl s 1110 1729 m cl s 1156 1729 m cl s 1203 1729 m cl s 1249 1729 m cl s 1296 1729 m cl s 1342 1729 m cl s 1389 1729 m cl s 1435 1729 m cl s 1482 1729 m cl s 1528 1729 m cl s 1575 1729 m cl s 1621 1729 m cl s 1668
 1729 m cl s 1714 1729 m cl s 1761 1729 m cl s 1807 1729 m cl s 1854 1729 m cl s 1900 1729 m cl s 1947 1729 m cl s 1993 1729 m cl s 2040 1729 m cl s 2086 1729 m cl s 412 1729 m cl s 366 1729 m cl s 319 1729 m cl s 2086 1729 m cl s 2133 1729 m cl s
 2179 1729 m cl s 319 584 m 1145 Y s
 gsave  2263 1770 2 313 C 166.096 1091.49 t 90 r /Helvetica findfont 81.3741 sf 0 0 m (Events / 100 GeV) show NC gr  341 628 m -22 X s 341 654 m -22 X s 341 672 m -22 X s 341 687 m -22 X s 341 698 m -22 X s 341 708 m -22 X s 341 717 m -22 X s 341 724
 m -22 X s 363 731 m -44 X s
 gsave  2263 1770 2 313 C 300.555 703.651 t 0 r  -36 0 t /Helvetica findfont 64.4212 sf 0 0 m (1) show NC gr  341 775 m -22 X s 341 801 m -22 X s 341 819 m -22 X s 341 833 m -22 X s 341 845 m -22 X s 341 855 m -22 X s 341 863 m -22 X s 341 871 m -22
 X s 363 877 m -44 X s
 gsave  2263 1770 2 313 C 300.555 850.11 t 0 r  -73 0 t /Helvetica findfont 64.4212 sf 0 0 m (10) show NC gr  341 921 m -22 X s 341 947 m -22 X s 341 965 m -22 X s 341 980 m -22 X s 341 991 m -22 X s 341 1001 m -22 X s 341 1009 m -22 X s 341 1017 m
 -22 X s 363 1024 m -44 X s
 gsave  2263 1770 2 313 C 274.567 1020.3 t 0 r /Helvetica findfont 44.0776 sf 0 0 m (2) show NC gr 
 gsave  2263 1770 2 313 C 203.383 993.185 t 0 r /Helvetica findfont 64.4212 sf 0 0 m (10) show NC gr  341 1068 m -22 X s 341 1094 m -22 X s 341 1112 m -22 X s 341 1126 m -22 X s 341 1138 m -22 X s 341 1147 m -22 X s 341 1156 m -22 X s 341 1163 m -22
 X s 363 1170 m -44 X s
 gsave  2263 1770 2 313 C 274.567 1172.84 t 0 r /Helvetica findfont 44.0776 sf 0 0 m (3) show NC gr 
 gsave  2263 1770 2 313 C 203.383 1142.33 t 0 r /Helvetica findfont 64.4212 sf 0 0 m (10) show NC gr  341 1214 m -22 X s 341 1240 m -22 X s 341 1258 m -22 X s 341 1273 m -22 X s 341 1284 m -22 X s 341 1294 m -22 X s 341 1302 m -22 X s 341 1310 m -22
 X s 363 1317 m -44 X s
 gsave  2263 1770 2 313 C 274.567 1315.21 t 0 r /Helvetica findfont 44.0776 sf 0 0 m (4) show NC gr 
 gsave  2263 1770 2 313 C 203.383 1288.09 t 0 r /Helvetica findfont 64.4212 sf 0 0 m (10) show NC gr  341 1361 m -22 X s 341 1386 m -22 X s 341 1405 m -22 X s 341 1419 m -22 X s 341 1431 m -22 X s 341 1440 m -22 X s 341 1449 m -22 X s 341 1456 m -22
 X s 363 1463 m -44 X s
 gsave  2263 1770 2 313 C 274.567 1464.36 t 0 r /Helvetica findfont 44.0776 sf 0 0 m (5) show NC gr 
 gsave  2263 1770 2 313 C 203.383 1433.85 t 0 r /Helvetica findfont 64.4212 sf 0 0 m (10) show NC gr  341 1507 m -22 X s 341 1533 m -22 X s 341 1551 m -22 X s 341 1565 m -22 X s 341 1577 m -22 X s 341 1587 m -22 X s 341 1595 m -22 X s 341 1603 m -22
 X s 363 1610 m -44 X s
 gsave  2263 1770 2 313 C 274.567 1610.11 t 0 r /Helvetica findfont 44.0776 sf 0 0 m (6) show NC gr 
 gsave  2263 1770 2 313 C 203.383 1579.61 t 0 r /Helvetica findfont 64.4212 sf 0 0 m (10) show NC gr  341 1654 m -22 X s 341 1679 m -22 X s 341 1698 m -22 X s 341 1712 m -22 X s 341 1723 m -22 X s 2179 584 m 1145 Y s 2157 628 m 22 X s 2157 654 m 22 X
 s 2157 672 m 22 X s 2157 687 m 22 X s 2157 698 m 22 X s 2157 708 m 22 X s 2157 717 m 22 X s 2157 724 m 22 X s 2136 731 m 43 X s 2157 775 m 22 X s 2157 801 m 22 X s 2157 819 m 22 X s 2157 833 m 22 X s 2157 845 m 22 X s 2157 855 m 22 X s 2157 863 m 22
 X s 2157 871 m 22 X s 2136 877 m 43 X s 2157 921 m 22 X s 2157 947 m 22 X s 2157 965 m 22 X s 2157 980 m 22 X s 2157 991 m 22 X s 2157 1001 m 22 X s 2157 1009 m 22 X s 2157 1017 m 22 X s 2136 1024 m 43 X s 2157 1068 m 22 X s 2157 1094 m 22 X s 2157
 1112 m 22 X s 2157 1126 m 22 X s 2157 1138 m 22 X s 2157 1147 m 22 X s 2157 1156 m 22 X s 2157 1163 m 22 X s 2136 1170 m 43 X s 2157 1214 m 22 X s 2157 1240 m 22 X s 2157 1258 m 22 X s 2157 1273 m 22 X s 2157 1284 m 22 X s 2157 1294 m 22 X s 2157
 1302 m 22 X s 2157 1310 m 22 X s 2136 1317 m 43 X s 2157 1361 m 22 X s 2157 1386 m 22 X s 2157 1405 m 22 X s 2157 1419 m 22 X s 2157 1431 m 22 X s 2157 1440 m 22 X s 2157 1449 m 22 X s 2157 1456 m 22 X s 2136 1463 m 43 X s 2157 1507 m 22 X s 2157
 1533 m 22 X s 2157 1551 m 22 X s 2157 1565 m 22 X s 2157 1577 m 22 X s 2157 1587 m 22 X s 2157 1595 m 22 X s 2157 1603 m 22 X s 2136 1610 m 43 X s 2157 1654 m 22 X s 2157 1679 m 22 X s 2157 1698 m 22 X s 2157 1712 m 22 X s 2157 1723 m 22 X s 0.6 1
 0.6 c black 0.6 1 0.6 c 319 584 m 635 Y 93 X -35 Y 93 X -62 Y 93 X -58 Y 93 X -53 Y 93 X -48 Y 93 X -49 Y 93 X -52 Y 93 X -51 Y 93 X -40 Y 93 X -51 Y 93 X -8 Y 93 X -99 Y 93 X -3 Y 93 X -26 Y 558 X f black 0.6 1 0.6 c black 319 1219 m 93 X -35 Y 93
 X -62 Y 93 X -58 Y 93 X -53 Y 93 X -48 Y 93 X -49 Y 93 X -52 Y 93 X -51 Y 93 X -40 Y 93 X -51 Y 93 X -8 Y 93 X -99 Y 93 X -3 Y 93 X -26 Y 558 X s 0.999 0.999 0.999 c black 0.999 0.999 0.999 c 319 584 m 503 Y 93 X -15 Y 93 X -49 Y 93 X -43 Y 93 X -48
 Y 93 X -45 Y 93 X -41 Y 93 X -34 Y 93 X -49 Y 93 X -33 Y 93 X -39 Y 93 X -33 Y 93 X -74 Y 93 X 22 Y 93 X -22 Y 558 X f black 0.999 0.999 0.999 c black 319 1087 m 93 X -15 Y 93 X -49 Y 93 X -43 Y 93 X -48 Y 93 X -45 Y 93 X -41 Y 93 X -34 Y 93 X -49 Y
 93 X -33 Y 93 X -39 Y 93 X -33 Y 93 X -74 Y 93 X 22 Y 93 X -22 Y 558 X s 1 1 1 c black 319 1087 m 93 X -15 Y 93 X -49 Y 93 X -43 Y 93 X -48 Y 93 X -45 Y 93 X -41 Y 93 X -34 Y 93 X -49 Y 93 X -33 Y 93 X -39 Y 93 X -33 Y 93 X -74 Y 93 X 22 Y 93 X -22
 Y 558 X s 0.4 0.6 1 c black 0.4 0.6 1 c 319 584 m 503 Y 93 X -15 Y 93 X -49 Y 93 X -43 Y 93 X -48 Y 93 X -45 Y 93 X -41 Y 93 X -34 Y 93 X -49 Y 93 X -33 Y 93 X -39 Y 93 X -33 Y 93 X -74 Y 93 X 22 Y 93 X -22 Y 558 X f black 0.4 0.6 1 c black 319 1087
 m 93 X -15 Y 93 X -49 Y 93 X -43 Y 93 X -48 Y 93 X -45 Y 93 X -41 Y 93 X -34 Y 93 X -49 Y 93 X -33 Y 93 X -39 Y 93 X -33 Y 93 X -74 Y 93 X 22 Y 93 X -22 Y 558 X s 0.999 0.999 0.999 c black 0.999 0.999 0.999 c 319 584 m 351 Y 186 X -51 Y 93 X -41 Y
 93 X -85 Y 93 X -33 Y 93 X -48 Y 93 X -88 Y 93 X 37 Y 93 X 2 Y 93 X -44 Y 930 X f black 0.999 0.999 0.999 c black 319 935 m 186 X -51 Y 93 X -41 Y 93 X -85 Y 93 X -33 Y 93 X -48 Y 93 X -88 Y 93 X 37 Y 93 X 2 Y 93 X -44 Y 930 X s 1 1 1 c black 319
 935 m 186 X -51 Y 93 X -41 Y 93 X -85 Y 93 X -33 Y 93 X -48 Y 93 X -88 Y 93 X 37 Y 93 X 2 Y 93 X -44 Y 930 X s 1 0.8 0.4 c black 1 0.8 0.4 c 319 584 m 351 Y 186 X -51 Y 93 X -41 Y 93 X -85 Y 93 X -33 Y 93 X -48 Y 93 X -88 Y 93 X 37 Y 93 X 2 Y 93 X
 -44 Y 930 X f black 1 0.8 0.4 c black 319 935 m 186 X -51 Y 93 X -41 Y 93 X -85 Y 93 X -33 Y 93 X -48 Y 93 X -88 Y 93 X 37 Y 93 X 2 Y 93 X -44 Y 930 X s 0.999 0.999 0.999 c black 0.999 0.999 0.999 c 319 584 m 343 Y 93 X 2 Y 93 X -54 Y 93 X -36 Y 93
 X -86 Y 93 X -34 Y 93 X -46 Y 93 X -89 Y 93 X 42 Y 93 X -2 Y 93 X -40 Y 930 X f black 0.999 0.999 0.999 c black 319 927 m 93 X 2 Y 93 X -54 Y 93 X -36 Y 93 X -86 Y 93 X -34 Y 93 X -46 Y 93 X -89 Y 93 X 42 Y 93 X -2 Y 93 X -40 Y 930 X s 1 1 1 c black
 319 927 m 93 X 2 Y 93 X -54 Y 93 X -36 Y 93 X -86 Y 93 X -34 Y 93 X -46 Y 93 X -89 Y 93 X 42 Y 93 X -2 Y 93 X -40 Y 930 X s 1 0.4 0.6 c black 1 0.4 0.6 c 319 584 m 343 Y 93 X 2 Y 93 X -54 Y 93 X -36 Y 93 X -86 Y 93 X -34 Y 93 X -46 Y 93 X -89 Y 93 X
 42 Y 93 X -2 Y 93 X -40 Y 930 X f black 1 0.4 0.6 c black 319 927 m 93 X 2 Y 93 X -54 Y 93 X -36 Y 93 X -86 Y 93 X -34 Y 93 X -46 Y 93 X -89 Y 93 X 42 Y 93 X -2 Y 93 X -40 Y 930 X s 1 0 0 c 6 lw 1 1 1 c black 1 0 0 c 319 1219 m 93 X -35 Y 93 X -62 Y
 93 X -58 Y 93 X -53 Y 93 X -48 Y 93 X -49 Y 93 X -52 Y 93 X -51 Y 93 X -40 Y 93 X -51 Y 93 X -8 Y 93 X -99 Y 93 X -3 Y 93 X -26 Y 558 X s black 3 lw 1 0 0 c 1 lw << /PatternType 1 /PaintType 2 /TilingType 1 /BBox [ 0 0 100 100 ] /XStep 100 /YStep
 100 /PaintProc { begin gsave 0 100 m 100 0 l s gr end } >> [ 0.24 0 0 0.24 0 0 ] makepattern /P05 exch def /cs {[/Pattern /DeviceRGB] setcolorspace} def /FA {f [/DeviceRGB] setcolorspace} def cs 1 0 0 P05 setcolor 319 584 m 636 Y 93 X -35 Y 93 X -61
 Y 93 X -57 Y 93 X -52 Y 93 X -47 Y 93 X -48 Y 93 X -51 Y 93 X -47 Y 93 X -39 Y 93 X -50 Y 93 X 5 Y 93 X -108 Y 93 X -1 Y 93 X -45 Y -93 X 5 Y -93 X 81 Y -93 X 36 Y -93 X 51 Y -93 X 42 Y -93 X 54 Y -93 X 55 Y -93 X 51 Y -93 X 49 Y -93 X 53 Y -93 X 59
 Y -93 X 63 Y -93 X 35 Y -93 X -634 Y FA 6 lw 1 1 1 c 15 lw 924 850 m -5 Y s 924 845 m cl s 1017 875 m 1 Y s 1017 876 m cl s 1017 834 m -9 Y s 1017 825 m cl s 1110 821 m 11 Y s 1110 832 m cl s 1110 780 m -29 Y s 1110 751 m cl s 1203 795 m 18 Y s 1203
 813 m cl s 1203 755 m -46 Y s 1203 709 m cl s 1389 751 m 32 Y s 1389 783 m cl s 1389 710 m -90 Y s 1389 620 m cl s black 1 1 1 c 3 lw /w 43 def /w2 {w 2 div} def /w3 {w 3 div} def 366 1214 459 1170 552 1104 645 1040 738 981 831 921 924 871 1017 855
 1110 801 1203 775 10 { m20} R 15 lw 3 lw 1389 731 m20 15 lw black 6 lw 1 1 1 c black 3 lw /w 33 def /w2 {w 2 div} def /w3 {w 3 div} def 366 1214 m20 6 lw 3 lw 459 1170 m20 6 lw 3 lw 552 1104 m20 6 lw 3 lw 645 1040 m20 6 lw 3 lw 738 981 m20 6 lw 831
 905 m 3 Y s 3 lw 831 921 m20 6 lw 924 845 m 12 Y s 924 884 m 5 Y s 3 lw 924 871 m20 6 lw 1017 824 m 17 Y s 1017 868 m 7 Y s 3 lw 1017 855 m20 6 lw 1110 746 m 41 Y s 1110 814 m 16 Y s 3 lw 1110 801 m20 6 lw 1203 697 m 64 Y s 1203 788 m 21 Y s 3 lw
 1203 775 m20 6 lw 1389 584 m 133 Y s 1389 744 m 31 Y s 3 lw 1389 731 m20 6 lw 831 908 m -3 Y s 831 905 m cl s 924 884 m 5 Y s 924 889 m cl s 924 857 m -12 Y s 924 845 m cl s 1017 868 m 8 Y s 1017 876 m cl s 1017 841 m -16 Y s 1017 825 m cl s 1110
 814 m 18 Y s 1110 832 m cl s 1110 787 m -36 Y s 1110 751 m cl s 1203 788 m 25 Y s 1203 813 m cl s 1203 761 m -52 Y s 1203 709 m cl s 1389 744 m 39 Y s 1389 783 m cl s 1389 717 m -97 Y s 1389 620 m cl s 3 lw 366 1214 459 1170 552 1104 645 1040 738
 981 831 921 924 871 1017 855 1110 801 1203 775 10 { m20} R 6 lw 3 lw 1389 731 m20 6 lw 3 lw 319 584 m 1860 X s 412 584 m cl s 459 584 m cl s 505 584 m cl s 552 584 m cl s 598 584 m cl s 645 584 m cl s 691 584 m cl s 738 584 m cl s 784 584 m cl s 831
 584 m cl s 877 584 m cl s 924 584 m cl s 970 584 m cl s 1017 584 m cl s 1063 584 m cl s 1110 584 m cl s 1156 584 m cl s 1203 584 m cl s 1249 584 m cl s 1296 584 m cl s 1342 584 m cl s 1389 584 m cl s 1435 584 m cl s 1482 584 m cl s 1528 584 m cl s
 1575 584 m cl s 1621 584 m cl s 1668 584 m cl s 1714 584 m cl s 1761 584 m cl s 1807 584 m cl s 1854 584 m cl s 1900 584 m cl s 1947 584 m cl s 1993 584 m cl s 2040 584 m cl s 2086 584 m cl s 412 584 m cl s 366 584 m cl s 319 584 m cl s 2086 584 m
 cl s 2133 584 m cl s 2179 584 m cl s 319 1729 m 1860 X s 412 1729 m cl s 459 1729 m cl s 505 1729 m cl s 552 1729 m cl s 598 1729 m cl s 645 1729 m cl s 691 1729 m cl s 738 1729 m cl s 784 1729 m cl s 831 1729 m cl s 877 1729 m cl s 924 1729 m cl s
 970 1729 m cl s 1017 1729 m cl s 1063 1729 m cl s 1110 1729 m cl s 1156 1729 m cl s 1203 1729 m cl s 1249 1729 m cl s 1296 1729 m cl s 1342 1729 m cl s 1389 1729 m cl s 1435 1729 m cl s 1482 1729 m cl s 1528 1729 m cl s 1575 1729 m cl s 1621 1729 m
 cl s 1668 1729 m cl s 1714 1729 m cl s 1761 1729 m cl s 1807 1729 m cl s 1854 1729 m cl s 1900 1729 m cl s 1947 1729 m cl s 1993 1729 m cl s 2040 1729 m cl s 2086 1729 m cl s 412 1729 m cl s 366 1729 m cl s 319 1729 m cl s 2086 1729 m cl s 2133 1729
 m cl s 2179 1729 m cl s 319 584 m 1145 Y s 341 628 m -22 X s 341 654 m -22 X s 341 672 m -22 X s 341 687 m -22 X s 341 698 m -22 X s 341 708 m -22 X s 341 717 m -22 X s 341 724 m -22 X s 363 731 m -44 X s 341 775 m -22 X s 341 801 m -22 X s 341 819
 m -22 X s 341 833 m -22 X s 341 845 m -22 X s 341 855 m -22 X s 341 863 m -22 X s 341 871 m -22 X s 363 877 m -44 X s 341 921 m -22 X s 341 947 m -22 X s 341 965 m -22 X s 341 980 m -22 X s 341 991 m -22 X s 341 1001 m -22 X s 341 1009 m -22 X s 341
 1017 m -22 X s 363 1024 m -44 X s 341 1068 m -22 X s 341 1094 m -22 X s 341 1112 m -22 X s 341 1126 m -22 X s 341 1138 m -22 X s 341 1147 m -22 X s 341 1156 m -22 X s 341 1163 m -22 X s 363 1170 m -44 X s 341 1214 m -22 X s 341 1240 m -22 X s 341
 1258 m -22 X s 341 1273 m -22 X s 341 1284 m -22 X s 341 1294 m -22 X s 341 1302 m -22 X s 341 1310 m -22 X s 363 1317 m -44 X s 341 1361 m -22 X s 341 1386 m -22 X s 341 1405 m -22 X s 341 1419 m -22 X s 341 1431 m -22 X s 341 1440 m -22 X s 341
 1449 m -22 X s 341 1456 m -22 X s 363 1463 m -44 X s 341 1507 m -22 X s 341 1533 m -22 X s 341 1551 m -22 X s 341 1565 m -22 X s 341 1577 m -22 X s 341 1587 m -22 X s 341 1595 m -22 X s 341 1603 m -22 X s 363 1610 m -44 X s 341 1654 m -22 X s 341
 1679 m -22 X s 341 1698 m -22 X s 341 1712 m -22 X s 341 1723 m -22 X s 2179 584 m 1145 Y s 2157 628 m 22 X s 2157 654 m 22 X s 2157 672 m 22 X s 2157 687 m 22 X s 2157 698 m 22 X s 2157 708 m 22 X s 2157 717 m 22 X s 2157 724 m 22 X s 2136 731 m 43
 X s 2157 775 m 22 X s 2157 801 m 22 X s 2157 819 m 22 X s 2157 833 m 22 X s 2157 845 m 22 X s 2157 855 m 22 X s 2157 863 m 22 X s 2157 871 m 22 X s 2136 877 m 43 X s 2157 921 m 22 X s 2157 947 m 22 X s 2157 965 m 22 X s 2157 980 m 22 X s 2157 991 m
 22 X s 2157 1001 m 22 X s 2157 1009 m 22 X s 2157 1017 m 22 X s 2136 1024 m 43 X s 2157 1068 m 22 X s 2157 1094 m 22 X s 2157 1112 m 22 X s 2157 1126 m 22 X s 2157 1138 m 22 X s 2157 1147 m 22 X s 2157 1156 m 22 X s 2157 1163 m 22 X s 2136 1170 m 43
 X s 2157 1214 m 22 X s 2157 1240 m 22 X s 2157 1258 m 22 X s 2157 1273 m 22 X s 2157 1284 m 22 X s 2157 1294 m 22 X s 2157 1302 m 22 X s 2157 1310 m 22 X s 2136 1317 m 43 X s 2157 1361 m 22 X s 2157 1386 m 22 X s 2157 1405 m 22 X s 2157 1419 m 22 X
 s 2157 1431 m 22 X s 2157 1440 m 22 X s 2157 1449 m 22 X s 2157 1456 m 22 X s 2136 1463 m 43 X s 2157 1507 m 22 X s 2157 1533 m 22 X s 2157 1551 m 22 X s 2157 1565 m 22 X s 2157 1577 m 22 X s 2157 1587 m 22 X s 2157 1595 m 22 X s 2157 1603 m 22 X s
 2136 1610 m 43 X s 2157 1654 m 22 X s 2157 1679 m 22 X s 2157 1698 m 22 X s 2157 1712 m 22 X s 2157 1723 m 22 X s
 gsave  2263 1770 2 313 C 406.765 1447.41 t 0 r /Helvetica findfont 64.4212 sf 0 0 m (CRT for MB\255GGd) show NC gr 
 gsave  2263 1770 2 313 C 1464.36 1616.89 t 0 r /Helvetica findfont 64.4212 sf 0 0 m (SM Total) show NC gr  1 1 1 c 1338 1603 m 107 X 74 Y -107 X f 1 0 0 c 6 lw 1338 1640 m 107 X s black
 gsave  2263 1770 2 313 C 1464.36 1511.81 t 0 r /Helvetica findfont 64.4212 sf 0 0 m (Data) show NC gr  1391 1502 m 64 Y s 3 lw 1391 1534 m20 6 lw
 gsave  2263 1770 2 313 C 1498.25 1406.73 t 0 r /Helvetica findfont 64.4212 sf 0 0 m (\(+EW\) & single top) show NC gr 
 gsave  2263 1770 2 313 C 1481.3 1406.73 t 0 r /Helvetica findfont 64.4212 sf 0 0 m (t) show NC gr  3 lw 1481 1458 m 17 X s
 gsave  2263 1770 2 313 C 1464.36 1406.73 t 0 r /Helvetica findfont 64.4212 sf 0 0 m (t) show NC gr  0.6 1 0.6 c 1338 1391 m 107 X 74 Y -107 X f black 1338 1465 m 107 X s 1338 1391 m 107 X s 1445 1391 m 74 Y s 1338 1391 m 74 Y s
 gsave  2263 1770 2 313 C 1464.36 1298.26 t 0 r /Helvetica findfont 64.4212 sf 0 0 m (W+jets) show NC gr  0.4 0.6 1 c 1338 1284 m 107 X 75 Y -107 X f black 1338 1359 m 107 X s 1338 1284 m 107 X s 1445 1284 m 75 Y s 1338 1284 m 75 Y s
 gsave  2263 1770 2 313 C 1464.36 1193.18 t 0 r /Helvetica findfont 64.4212 sf 0 0 m (Z+jets) show NC gr  1 0.8 0.4 c 1338 1178 m 107 X 75 Y -107 X f black 1338 1253 m 107 X s 1338 1178 m 107 X s 1445 1178 m 75 Y s 1338 1178 m 75 Y s
 gsave  2263 1770 2 313 C 1464.36 1088.1 t 0 r /Helvetica findfont 64.4212 sf 0 0 m (Diboson) show NC gr  1 0.4 0.6 c 1338 1072 m 107 X 74 Y -107 X f black 1338 1146 m 107 X s 1338 1072 m 107 X s 1445 1072 m 74 Y s 1338 1072 m 74 Y s
 gsave  2263 1770 2 313 C 911.832 1566.05 t 0 r /Helvetica findfont 44.0776 sf 0 0 m (\2551) show NC gr 
 gsave  2263 1770 2 313 C 471.17 1535.54 t 0 r /Helvetica findfont 64.4212 sf 0 0 m (=13TeV, 139 fb) show NC gr 
 gsave  2263 1770 2 313 C 440.662 1535.54 t 0 r /Helvetica findfont 64.4212 sf 0 0 m (s) show NC gr  6 lw 420 1573 m 7 -41 d s 3 lw 427 1532 m 7 61 d s 434 1593 m 37 X s 1 1 1 c 2254 561 2 2 bf black 1 1 1 c black 1860 358 318 187 bl 1 1 1 c black
 1860 358 318 187 bl 6 lw 1 1 1 c black 3 lw 364 353 m20 6 lw 3 lw 457 333 m20 6 lw 3 lw 550 326 m20 6 lw 3 lw 643 316 m20 6 lw 3 lw 736 304 m20 6 lw 3 lw 829 287 m20 6 lw 3 lw 923 285 m20 6 lw 3 lw 1016 349 m20 6 lw 3 lw 1109 341 m20 6 lw 3 lw 1202
 375 m20 6 lw 3 lw 1388 421 m20 6 lw 3 lw 318 187 m 1860 X s
 gsave  2254 561 2 2 C 1959.25 27.1177 t 0 r /Helvetica findfont 78.1689 sf 0 0 m ( [GeV]) show NC gr 
 gsave  2254 561 2 2 C 1854.17 64.4045 t 0 r /Helvetica findfont 50.9797 sf 0 0 m (miss) show NC gr 
 gsave  2254 561 2 2 C 1854.17 3.38971 t 0 r /Helvetica findfont 50.9797 sf 0 0 m (T) show NC gr 
 gsave  2254 561 2 2 C 1803.33 27.1177 t 0 r /Helvetica findfont 78.1689 sf 0 0 m (E) show NC gr  411 201 m -14 Y s 457 194 m -7 Y s 504 194 m -7 Y s 550 194 m -7 Y s 597 201 m -14 Y s 643 194 m -7 Y s 690 194 m -7 Y s 736 194 m -7 Y s 783 201 m -14
 Y s 829 194 m -7 Y s 876 194 m -7 Y s 923 194 m -7 Y s 969 201 m -14 Y s 1016 194 m -7 Y s 1062 194 m -7 Y s 1109 194 m -7 Y s 1155 201 m -14 Y s 1202 194 m -7 Y s 1248 194 m -7 Y s 1295 194 m -7 Y s 1341 201 m -14 Y s 1388 194 m -7 Y s 1434 194 m
 -7 Y s 1481 194 m -7 Y s 1527 201 m -14 Y s 1574 194 m -7 Y s 1620 194 m -7 Y s 1667 194 m -7 Y s 1713 201 m -14 Y s 1760 194 m -7 Y s 1806 194 m -7 Y s 1853 194 m -7 Y s 1899 201 m -14 Y s 1946 194 m -7 Y s 1992 194 m -7 Y s 2039 194 m -7 Y s 2085
 201 m -14 Y s 411 201 m -14 Y s 364 194 m -7 Y s 318 194 m -7 Y s 2085 201 m -14 Y s 2132 194 m -7 Y s
 gsave  2254 561 2 2 C 345.75 118.64 t 0 r /Helvetica findfont 78.1689 sf 0 0 m (400) show NC gr 
 gsave  2254 561 2 2 C 532.185 118.64 t 0 r /Helvetica findfont 78.1689 sf 0 0 m (600) show NC gr 
 gsave  2254 561 2 2 C 715.229 118.64 t 0 r /Helvetica findfont 78.1689 sf 0 0 m (800) show NC gr 
 gsave  2254 561 2 2 C 877.935 118.64 t 0 r /Helvetica findfont 78.1689 sf 0 0 m (1000) show NC gr 
 gsave  2254 561 2 2 C 1064.37 118.64 t 0 r /Helvetica findfont 78.1689 sf 0 0 m (1200) show NC gr 
 gsave  2254 561 2 2 C 1250.8 118.64 t 0 r /Helvetica findfont 78.1689 sf 0 0 m (1400) show NC gr 
 gsave  2254 561 2 2 C 1437.24 118.64 t 0 r /Helvetica findfont 78.1689 sf 0 0 m (1600) show NC gr 
 gsave  2254 561 2 2 C 1623.67 118.64 t 0 r /Helvetica findfont 78.1689 sf 0 0 m (1800) show NC gr 
 gsave  2254 561 2 2 C 1810.11 118.64 t 0 r /Helvetica findfont 78.1689 sf 0 0 m (2000) show NC gr 
 gsave  2254 561 2 2 C 1996.54 118.64 t 0 r /Helvetica findfont 78.1689 sf 0 0 m (2200) show NC gr  318 545 m 1860 X s 411 531 m 14 Y s 457 538 m 7 Y s 504 538 m 7 Y s 550 538 m 7 Y s 597 531 m 14 Y s 643 538 m 7 Y s 690 538 m 7 Y s 736 538 m 7 Y s
 783 531 m 14 Y s 829 538 m 7 Y s 876 538 m 7 Y s 923 538 m 7 Y s 969 531 m 14 Y s 1016 538 m 7 Y s 1062 538 m 7 Y s 1109 538 m 7 Y s 1155 531 m 14 Y s 1202 538 m 7 Y s 1248 538 m 7 Y s 1295 538 m 7 Y s 1341 531 m 14 Y s 1388 538 m 7 Y s 1434 538 m 7
 Y s 1481 538 m 7 Y s 1527 531 m 14 Y s 1574 538 m 7 Y s 1620 538 m 7 Y s 1667 538 m 7 Y s 1713 531 m 14 Y s 1760 538 m 7 Y s 1806 538 m 7 Y s 1853 538 m 7 Y s 1899 531 m 14 Y s 1946 538 m 7 Y s 1992 538 m 7 Y s 2039 538 m 7 Y s 2085 531 m 14 Y s 411
 531 m 14 Y s 364 538 m 7 Y s 318 538 m 7 Y s 2085 531 m 14 Y s 2132 538 m 7 Y s 318 187 m 358 Y s
 gsave  2254 561 2 2 C 166.096 284.736 t 90 r /Helvetica findfont 67.9729 sf 0 0 m (Data/SM) show NC gr  361 203 m -43 X s 339 220 m -21 X s 339 236 m -21 X s 339 252 m -21 X s 339 268 m -21 X s 361 285 m -43 X s 339 301 m -21 X s 339 317 m -21 X s
 339 334 m -21 X s 339 350 m -21 X s 361 366 m -43 X s 339 382 m -21 X s 339 399 m -21 X s 339 415 m -21 X s 339 431 m -21 X s 361 447 m -43 X s 339 464 m -21 X s 339 480 m -21 X s 339 496 m -21 X s 339 512 m -21 X s 361 529 m -43 X s 361 203 m -43 X
 s 339 187 m -21 X s 361 529 m -43 X s
 gsave  2254 561 2 2 C 261.008 183.044 t 0 r /Helvetica findfont 57.777 sf 0 0 m (0) show NC gr 
 gsave  2254 561 2 2 C 213.552 261.008 t 0 r /Helvetica findfont 57.777 sf 0 0 m (0.5) show NC gr 
 gsave  2254 561 2 2 C 271.177 342.361 t 0 r /Helvetica findfont 57.777 sf 0 0 m (1) show NC gr 
 gsave  2254 561 2 2 C 213.552 423.714 t 0 r /Helvetica findfont 57.777 sf 0 0 m (1.5) show NC gr 
 gsave  2254 561 2 2 C 261.008 505.067 t 0 r /Helvetica findfont 57.777 sf 0 0 m (2) show NC gr  2178 187 m 358 Y s 2135 203 m 43 X s 2157 220 m 21 X s 2157 236 m 21 X s 2157 252 m 21 X s 2157 268 m 21 X s 2135 285 m 43 X s 2157 301 m 21 X s 2157 317
 m 21 X s 2157 334 m 21 X s 2157 350 m 21 X s 2135 366 m 43 X s 2157 382 m 21 X s 2157 399 m 21 X s 2157 415 m 21 X s 2157 431 m 21 X s 2135 447 m 43 X s 2157 464 m 21 X s 2157 480 m 21 X s 2157 496 m 21 X s 2157 512 m 21 X s 2135 529 m 43 X s 2135
 203 m 43 X s 2157 187 m 21 X s 2135 529 m 43 X s 9 lw 736 318 m s 736 318 m cl s 736 291 m -1 Y s 736 290 m cl s 829 301 m 5 Y s 829 306 m cl s 829 274 m -5 Y s 829 269 m cl s 923 299 m 14 Y s 923 313 m cl s 923 272 m -13 Y s 923 259 m cl s 1016 362
 m 44 Y s 1016 406 m cl s 1016 335 m -40 Y s 1016 295 m cl s 1109 354 m 74 Y s 1109 428 m cl s 1109 327 m -61 Y s 1109 266 m cl s 1202 389 m 126 Y s 1202 515 m cl s 1202 362 m -97 Y s 1202 265 m cl s 1388 434 m 111 Y s 1388 545 m cl s 1388 407 m -166
 Y s 1388 241 m cl s 3 lw 364 353 457 333 550 326 643 316 736 304 829 287 923 285 1016 349 1109 341 1202 375 10 { m20} R 9 lw 3 lw 1388 421 m20 9 lw 1 0 0 c 6 lw black 3 lw 1 0 0 c 2178 227 m -26 -27 d s 2178 255 m -55 -55 d s 2178 284 m -84 -84 d s
 2178 312 m -93 -92 d s 2178 341 m -101 -101 d s 2178 369 m -130 -129 d s 2178 398 m -158 -158 d s 1992 213 m s 1983 203 m cl s 2178 427 m -186 -186 d s 1954 203 m cl s 2178 455 m -186 -185 d s 1926 203 m cl s 2178 484 m -186 -186 d s 1897 203 m cl s
 2178 512 m -186 -185 d s 1868 203 m cl s 2169 532 m -177 -176 d s 1840 203 m cl s 2141 532 m -149 -148 d s 1811 203 m cl s 2112 532 m -27 -26 d s 2072 492 m -80 -79 d s 1806 227 m s 2043 492 m -51 -51 d s 1806 256 m -10 -11 d s 2015 492 m -23 -22 d
 s 1806 285 m -39 -40 d s 1806 313 m -68 -68 d s 1806 342 m -93 -93 d s 1806 370 m -93 -92 d s 1806 399 m -99 -99 d s 1806 428 m -128 -128 d s 1806 456 m -157 -156 d s 1806 485 m -185 -185 d s 1779 487 m -176 -177 d s 1751 487 m -38 -38 d s 1696 432
 m -122 -122 d s 1722 487 m -9 -9 d s 1668 432 m -123 -122 d s 1639 432 m -118 -117 d s 1599 422 m -107 -107 d s 1571 422 m -107 -107 d s 1542 422 m -107 -107 d s 1434 314 m -27 -28 d s 1509 417 m -131 -131 d s 1480 417 m -131 -131 d s 1452 417 m
 -111 -110 d s 1434 428 m -97 -96 d s 1423 446 m -114 -114 d s 1394 446 m -114 -114 d s 1365 446 m -24 -25 d s 1320 400 m -69 -68 d s 1291 400 m -66 -66 d s 1262 400 m -66 -66 d s 1232 398 m -65 -64 d s 1203 398 m -61 -61 d s 1174 398 m -61 -61 d s
 1142 395 m -58 -58 d s 1114 395 m -52 -52 d s 1085 395 m -49 -49 d s 1048 386 m -41 -40 d s 1019 386 m -41 -40 d s 990 386 m -36 -36 d s 957 382 m -31 -32 d s 928 382 m -31 -32 d s 899 382 m -27 -27 d s 867 377 m -23 -22 d s 838 377 m -23 -22 d s
 809 377 m -23 -22 d s 778 375 m -18 -18 d s 749 375 m -18 -18 d s 721 375 m -18 -18 d s 692 375 m -17 -17 d s 662 374 m -15 -16 d s 633 374 m -15 -16 d s 605 374 m -14 -14 d s 574 372 m -11 -12 d s 545 372 m -11 -12 d s 517 372 m -12 -12 d s 486 370
 m -8 -8 d s 457 370 m -7 -8 d s 318 231 m s 429 370 m -8 -8 d s 318 259 m s 398 368 m -4 -4 d s 318 288 m s 370 368 m -5 -4 d s 318 317 m s 341 368 m -5 -4 d s 318 345 m s 6 lw black[ 4 8] 0 sd 3 lw 318 447 m 1860 X s 318 285 m 1860 X s 1 0 0 c[  12
 12 ] 0 sd 6 lw 318 366 m 1860 X s
 gr  gr showpage
end
%%EOF
