%!PS-Adobe-2.0 EPSF-2.0
%%BoundingBox:  0 0 567 521
%%Title: Distributions/met_distrVR0LmetSig_MB-GGd_afterFit_forThesis.eps: canvas
%%Creator: ROOT Version 6.04/16
%%CreationDate: Tue May 19 22:02:03 2020
%%DocumentNeededResources: ProcSet (FontSetInit)
%%EndComments
%%BeginProlog
80 dict begin
/s {stroke} def /l {lineto} def /m {moveto} def /t {translate} def
/r {rotate} def /rl {roll}  def /R {repeat} def
/d {rlineto} def /rm {rmoveto} def /gr {grestore} def /f {eofill} def
/c {setrgbcolor} def /black {0 setgray} def /sd {setdash} def
/cl {closepath} def /sf {scalefont setfont} def /lw {setlinewidth} def
/box {m dup 0 exch d exch 0 d 0 exch neg d cl} def
/NC{systemdict begin initclip end}def/C{NC box clip newpath}def
/bl {box s} def /bf {gsave box gsave f grestore 1 lw [] 0 sd s grestore} def /Y { 0 exch d} def /X { 0 d} def 
/K {{pop pop 0 moveto} exch kshow} bind def
/ita {/ang 15 def gsave [1 0 ang dup sin exch cos div 1 0 0] concat} def 
/mp {newpath /y exch def /x exch def} def
/side {[w .77 mul w .23 mul] .385 w mul sd w 0 l currentpoint t -144 r} def
/mr {mp x y w2 0 360 arc} def /m24 {mr s} def /m20 {mr f} def
/mb {mp x y w2 add m w2 neg 0 d 0 w neg d w 0 d 0 w d cl} def
/mt {mp x y w2 add m w2 neg w neg d w 0 d cl} def
/m21 {mb f} def /m25 {mb s} def /m22 {mt f} def /m26{mt s} def
/m23 {mp x y w2 sub m w2 w d w neg 0 d cl f} def
/m27 {mp x y w2 add m w3 neg w2 neg d w3 w2 neg d w3 w2 d cl s} def
/m28 {mp x w2 sub y w2 sub w3 add m w3 0 d  0 w3 neg d w3 0 d 0 w3 d w3 0 d  0 w3 d w3 neg 0 d 0 w3 d w3 neg 0 d 0 w3 neg d w3 neg 0 d cl s } def
/m29 {mp gsave x w2 sub y w2 add w3 sub m currentpoint t 4 {side} repeat cl fill gr} def
/m30 {mp gsave x w2 sub y w2 add w3 sub m currentpoint t 4 {side} repeat cl s gr} def
/m31 {mp x y w2 sub m 0 w d x w2 sub y m w 0 d x w2 sub y w2 add m w w neg d x w2 sub y w2 sub m w w d s} def
/m32 {mp x y w2 sub m w2 w d w neg 0 d cl s} def
/m33 {mp x y w2 add m w3 neg w2 neg d w3 w2 neg d w3 w2 d cl f} def
/m34 {mp x w2 sub y w2 sub w3 add m w3 0 d  0 w3 neg d w3 0 d 0 w3 d w3 0 d  0 w3 d w3 neg 0 d 0 w3 d w3 neg 0 d 0 w3 neg d w3 neg 0 d cl f } def
/m2 {mp x y w2 sub m 0 w d x w2 sub y m w 0 d s} def
/m5 {mp x w2 sub y w2 sub m w w d x w2 sub y w2 add m w w neg d s} def
%%IncludeResource: ProcSet (FontSetInit)
%%IncludeResource: font Times-Roman
%%IncludeResource: font Times-Italic
%%IncludeResource: font Times-Bold
%%IncludeResource: font Times-BoldItalic
%%IncludeResource: font Helvetica
%%IncludeResource: font Helvetica-Oblique
%%IncludeResource: font Helvetica-Bold
%%IncludeResource: font Helvetica-BoldOblique
%%IncludeResource: font Courier
%%IncludeResource: font Courier-Oblique
%%IncludeResource: font Courier-Bold
%%IncludeResource: font Courier-BoldOblique
%%IncludeResource: font Symbol
%%IncludeResource: font ZapfDingbats
/reEncode {exch findfont dup length dict begin {1 index /FID eq  {pop pop} {def} ifelse } forall /Encoding exch def currentdict end dup /FontName get exch definefont pop } def [/Times-Bold /Times-Italic /Times-BoldItalic /Helvetica /Helvetica-Oblique
 /Helvetica-Bold /Helvetica-BoldOblique /Courier /Courier-Oblique /Courier-Bold /Courier-BoldOblique /Times-Roman /AvantGarde-Book /AvantGarde-BookOblique /AvantGarde-Demi /AvantGarde-DemiOblique /Bookman-Demi /Bookman-DemiItalic /Bookman-Light
 /Bookman-LightItalic /Helvetica-Narrow /Helvetica-Narrow-Bold /Helvetica-Narrow-BoldOblique /Helvetica-Narrow-Oblique /NewCenturySchlbk-Roman /NewCenturySchlbk-Bold /NewCenturySchlbk-BoldItalic /NewCenturySchlbk-Italic /Palatino-Bold
 /Palatino-BoldItalic /Palatino-Italic /Palatino-Roman ] {ISOLatin1Encoding reEncode } forall
%%EndProlog
%%BeginSetup
%%EndSetup
newpath  gsave  .25 .25 scale  gsave  0 0 t black[  ] 0 sd 3 lw 1 1 1 c 2268 2085 0 0 bf black 1 1 1 c 2263 1770 2 313 bf black 1 1 1 c black 1860 1145 319 584 bl 1 1 1 c black 1860 1145 319 584 bl 6 lw 1 1 1 c black 3 lw /w 33 def /w2 {w 2 div} def
 /w3 {w 3 div} def 366 1186 m20 6 lw 3 lw 459 1145 m20 6 lw 3 lw 552 1075 m20 6 lw 3 lw 645 1010 m20 6 lw 738 921 m 4 Y s 738 952 m 1 Y s 3 lw 738 939 m20 6 lw 831 808 m 27 Y s 831 862 m 11 Y s 3 lw 831 849 m20 6 lw 924 756 m 44 Y s 924 828 m 17 Y s
 3 lw 924 814 m20 6 lw 1017 704 m 69 Y s 1017 800 m 23 Y s 3 lw 1017 787 m20 6 lw 1110 584 m 142 Y s 1110 753 m 34 Y s 3 lw 1110 740 m20 6 lw 1203 584 m 142 Y s 1203 753 m 34 Y s 3 lw 1203 740 m20 6 lw 3 lw 319 584 m 1860 X s
 gsave  2263 1770 2 313 C 1949.08 355.92 t 0 r /Helvetica findfont 81.3741 sf 0 0 m ( [GeV]) show NC gr 
 gsave  2263 1770 2 313 C 1837.22 396.596 t 0 r /Helvetica findfont 54.2494 sf 0 0 m (miss) show NC gr 
 gsave  2263 1770 2 313 C 1837.22 332.192 t 0 r /Helvetica findfont 54.2494 sf 0 0 m (T) show NC gr 
 gsave  2263 1770 2 313 C 1786.38 355.92 t 0 r /Helvetica findfont 81.3741 sf 0 0 m (E) show NC gr  412 584 m cl s 459 584 m cl s 505 584 m cl s 552 584 m cl s 598 584 m cl s 645 584 m cl s 691 584 m cl s 738 584 m cl s 784 584 m cl s 831 584 m cl s
 877 584 m cl s 924 584 m cl s 970 584 m cl s 1017 584 m cl s 1063 584 m cl s 1110 584 m cl s 1156 584 m cl s 1203 584 m cl s 1249 584 m cl s 1296 584 m cl s 1342 584 m cl s 1389 584 m cl s 1435 584 m cl s 1482 584 m cl s 1528 584 m cl s 1575 584 m
 cl s 1621 584 m cl s 1668 584 m cl s 1714 584 m cl s 1761 584 m cl s 1807 584 m cl s 1854 584 m cl s 1900 584 m cl s 1947 584 m cl s 1993 584 m cl s 2040 584 m cl s 2086 584 m cl s 412 584 m cl s 366 584 m cl s 319 584 m cl s 2086 584 m cl s 2133
 584 m cl s 2179 584 m cl s 319 1729 m 1860 X s 412 1729 m cl s 459 1729 m cl s 505 1729 m cl s 552 1729 m cl s 598 1729 m cl s 645 1729 m cl s 691 1729 m cl s 738 1729 m cl s 784 1729 m cl s 831 1729 m cl s 877 1729 m cl s 924 1729 m cl s 970 1729 m
 cl s 1017 1729 m cl s 1063 1729 m cl s 1110 1729 m cl s 1156 1729 m cl s 1203 1729 m cl s 1249 1729 m cl s 1296 1729 m cl s 1342 1729 m cl s 1389 1729 m cl s 1435 1729 m cl s 1482 1729 m cl s 1528 1729 m cl s 1575 1729 m cl s 1621 1729 m cl s 1668
 1729 m cl s 1714 1729 m cl s 1761 1729 m cl s 1807 1729 m cl s 1854 1729 m cl s 1900 1729 m cl s 1947 1729 m cl s 1993 1729 m cl s 2040 1729 m cl s 2086 1729 m cl s 412 1729 m cl s 366 1729 m cl s 319 1729 m cl s 2086 1729 m cl s 2133 1729 m cl s
 2179 1729 m cl s 319 584 m 1145 Y s
 gsave  2263 1770 2 313 C 166.096 1091.49 t 90 r /Helvetica findfont 81.3741 sf 0 0 m (Events / 100 GeV) show NC gr  341 631 m -22 X s 341 659 m -22 X s 341 678 m -22 X s 341 693 m -22 X s 341 705 m -22 X s 341 716 m -22 X s 341 725 m -22 X s 341 733
 m -22 X s 363 740 m -44 X s
 gsave  2263 1770 2 313 C 300.555 712.701 t 0 r  -36 0 t /Helvetica findfont 64.4212 sf 0 0 m (1) show NC gr  341 787 m -22 X s 341 814 m -22 X s 341 833 m -22 X s 341 849 m -22 X s 341 861 m -22 X s 341 871 m -22 X s 341 880 m -22 X s 341 888 m -22
 X s 363 895 m -44 X s
 gsave  2263 1770 2 313 C 300.555 868.211 t 0 r  -73 0 t /Helvetica findfont 64.4212 sf 0 0 m (10) show NC gr  341 942 m -22 X s 341 970 m -22 X s 341 989 m -22 X s 341 1004 m -22 X s 341 1016 m -22 X s 341 1027 m -22 X s 341 1036 m -22 X s 341 1044
 m -22 X s 363 1051 m -44 X s
 gsave  2263 1770 2 313 C 274.567 1050.81 t 0 r /Helvetica findfont 44.0776 sf 0 0 m (2) show NC gr 
 gsave  2263 1770 2 313 C 203.383 1023.69 t 0 r /Helvetica findfont 64.4212 sf 0 0 m (10) show NC gr  341 1098 m -22 X s 341 1125 m -22 X s 341 1144 m -22 X s 341 1160 m -22 X s 341 1172 m -22 X s 341 1182 m -22 X s 341 1191 m -22 X s 341 1199 m -22
 X s 363 1206 m -44 X s
 gsave  2263 1770 2 313 C 274.567 1206.74 t 0 r /Helvetica findfont 44.0776 sf 0 0 m (3) show NC gr 
 gsave  2263 1770 2 313 C 203.383 1176.23 t 0 r /Helvetica findfont 64.4212 sf 0 0 m (10) show NC gr  341 1253 m -22 X s 341 1281 m -22 X s 341 1300 m -22 X s 341 1315 m -22 X s 341 1327 m -22 X s 341 1338 m -22 X s 341 1347 m -22 X s 341 1355 m -22
 X s 363 1362 m -44 X s
 gsave  2263 1770 2 313 C 274.567 1359.27 t 0 r /Helvetica findfont 44.0776 sf 0 0 m (4) show NC gr 
 gsave  2263 1770 2 313 C 203.383 1332.16 t 0 r /Helvetica findfont 64.4212 sf 0 0 m (10) show NC gr  341 1409 m -22 X s 341 1436 m -22 X s 341 1455 m -22 X s 341 1471 m -22 X s 341 1483 m -22 X s 341 1493 m -22 X s 341 1502 m -22 X s 341 1510 m -22
 X s 363 1517 m -44 X s
 gsave  2263 1770 2 313 C 274.567 1518.59 t 0 r /Helvetica findfont 44.0776 sf 0 0 m (5) show NC gr 
 gsave  2263 1770 2 313 C 203.383 1488.08 t 0 r /Helvetica findfont 64.4212 sf 0 0 m (10) show NC gr  341 1564 m -22 X s 341 1592 m -22 X s 341 1611 m -22 X s 341 1626 m -22 X s 341 1638 m -22 X s 341 1649 m -22 X s 341 1658 m -22 X s 341 1666 m -22
 X s 363 1673 m -44 X s
 gsave  2263 1770 2 313 C 274.567 1674.52 t 0 r /Helvetica findfont 44.0776 sf 0 0 m (6) show NC gr 
 gsave  2263 1770 2 313 C 203.383 1644.01 t 0 r /Helvetica findfont 64.4212 sf 0 0 m (10) show NC gr  341 1720 m -22 X s 2179 584 m 1145 Y s 2157 631 m 22 X s 2157 659 m 22 X s 2157 678 m 22 X s 2157 693 m 22 X s 2157 705 m 22 X s 2157 716 m 22 X s
 2157 725 m 22 X s 2157 733 m 22 X s 2136 740 m 43 X s 2157 787 m 22 X s 2157 814 m 22 X s 2157 833 m 22 X s 2157 849 m 22 X s 2157 861 m 22 X s 2157 871 m 22 X s 2157 880 m 22 X s 2157 888 m 22 X s 2136 895 m 43 X s 2157 942 m 22 X s 2157 970 m 22 X
 s 2157 989 m 22 X s 2157 1004 m 22 X s 2157 1016 m 22 X s 2157 1027 m 22 X s 2157 1036 m 22 X s 2157 1044 m 22 X s 2136 1051 m 43 X s 2157 1098 m 22 X s 2157 1125 m 22 X s 2157 1144 m 22 X s 2157 1160 m 22 X s 2157 1172 m 22 X s 2157 1182 m 22 X s
 2157 1191 m 22 X s 2157 1199 m 22 X s 2136 1206 m 43 X s 2157 1253 m 22 X s 2157 1281 m 22 X s 2157 1300 m 22 X s 2157 1315 m 22 X s 2157 1327 m 22 X s 2157 1338 m 22 X s 2157 1347 m 22 X s 2157 1355 m 22 X s 2136 1362 m 43 X s 2157 1409 m 22 X s
 2157 1436 m 22 X s 2157 1455 m 22 X s 2157 1471 m 22 X s 2157 1483 m 22 X s 2157 1493 m 22 X s 2157 1502 m 22 X s 2157 1510 m 22 X s 2136 1517 m 43 X s 2157 1564 m 22 X s 2157 1592 m 22 X s 2157 1611 m 22 X s 2157 1626 m 22 X s 2157 1638 m 22 X s
 2157 1649 m 22 X s 2157 1658 m 22 X s 2157 1666 m 22 X s 2136 1673 m 43 X s 2157 1720 m 22 X s 0.4 0.6 1 c black 0.4 0.6 1 c 319 584 m 604 Y 93 X -42 Y 93 X -70 Y 93 X -59 Y 93 X -68 Y 93 X -54 Y 93 X -49 Y 93 X -75 Y 93 X -11 Y 93 X -66 Y 93 X -56
 Y 93 X -54 Y 93 X 18 Y 93 X -18 Y 651 X f black 0.4 0.6 1 c black 319 1188 m 93 X -42 Y 93 X -70 Y 93 X -59 Y 93 X -68 Y 93 X -54 Y 93 X -49 Y 93 X -75 Y 93 X -11 Y 93 X -66 Y 93 X -56 Y 93 X -54 Y 93 X 18 Y 93 X -18 Y 651 X s 0.999 0.999 0.999 c
 black 0.999 0.999 0.999 c 319 584 m 587 Y 93 X -44 Y 93 X -70 Y 93 X -61 Y 93 X -67 Y 93 X -51 Y 93 X -48 Y 93 X -94 Y 93 X 2 Y 93 X -60 Y 93 X -61 Y 93 X -33 Y 837 X f black 0.999 0.999 0.999 c black 319 1171 m 93 X -44 Y 93 X -70 Y 93 X -61 Y 93 X
 -67 Y 93 X -51 Y 93 X -48 Y 93 X -94 Y 93 X 2 Y 93 X -60 Y 93 X -61 Y 93 X -33 Y 837 X s 1 1 1 c black 319 1171 m 93 X -44 Y 93 X -70 Y 93 X -61 Y 93 X -67 Y 93 X -51 Y 93 X -48 Y 93 X -94 Y 93 X 2 Y 93 X -60 Y 93 X -61 Y 93 X -33 Y 837 X s 0.6 1
 0.6 c black 0.6 1 0.6 c 319 584 m 587 Y 93 X -44 Y 93 X -70 Y 93 X -61 Y 93 X -67 Y 93 X -51 Y 93 X -48 Y 93 X -94 Y 93 X 2 Y 93 X -60 Y 93 X -61 Y 93 X -33 Y 837 X f black 0.6 1 0.6 c black 319 1171 m 93 X -44 Y 93 X -70 Y 93 X -61 Y 93 X -67 Y 93
 X -51 Y 93 X -48 Y 93 X -94 Y 93 X 2 Y 93 X -60 Y 93 X -61 Y 93 X -33 Y 837 X s 0.999 0.999 0.999 c black 0.999 0.999 0.999 c 319 584 m 504 Y 93 X -26 Y 93 X -56 Y 93 X -51 Y 93 X -57 Y 93 X -40 Y 93 X -42 Y 93 X -97 Y 93 X 2 Y 93 X -51 Y 93 X -55 Y
 93 X -31 Y 837 X f black 0.999 0.999 0.999 c black 319 1088 m 93 X -26 Y 93 X -56 Y 93 X -51 Y 93 X -57 Y 93 X -40 Y 93 X -42 Y 93 X -97 Y 93 X 2 Y 93 X -51 Y 93 X -55 Y 93 X -31 Y 837 X s 1 1 1 c black 319 1088 m 93 X -26 Y 93 X -56 Y 93 X -51 Y 93
 X -57 Y 93 X -40 Y 93 X -42 Y 93 X -97 Y 93 X 2 Y 93 X -51 Y 93 X -55 Y 93 X -31 Y 837 X s 1 0.8 0.4 c black 1 0.8 0.4 c 319 584 m 504 Y 93 X -26 Y 93 X -56 Y 93 X -51 Y 93 X -57 Y 93 X -40 Y 93 X -42 Y 93 X -97 Y 93 X 2 Y 93 X -51 Y 93 X -55 Y 93 X
 -31 Y 837 X f black 1 0.8 0.4 c black 319 1088 m 93 X -26 Y 93 X -56 Y 93 X -51 Y 93 X -57 Y 93 X -40 Y 93 X -42 Y 93 X -97 Y 93 X 2 Y 93 X -51 Y 93 X -55 Y 93 X -31 Y 837 X s 0.999 0.999 0.999 c black 0.999 0.999 0.999 c 319 584 m 420 Y 93 X -45 Y
 93 X -67 Y 93 X -46 Y 93 X -54 Y 93 X -14 Y 93 X -88 Y 93 X -106 Y 93 X 12 Y 93 X 2 Y 93 X -14 Y 930 X f black 0.999 0.999 0.999 c black 319 1004 m 93 X -45 Y 93 X -67 Y 93 X -46 Y 93 X -54 Y 93 X -14 Y 93 X -88 Y 93 X -106 Y 93 X 12 Y 93 X 2 Y 93 X
 -14 Y 930 X s 1 1 1 c black 319 1004 m 93 X -45 Y 93 X -67 Y 93 X -46 Y 93 X -54 Y 93 X -14 Y 93 X -88 Y 93 X -106 Y 93 X 12 Y 93 X 2 Y 93 X -14 Y 930 X s 1 0.4 0.6 c black 1 0.4 0.6 c 319 584 m 420 Y 93 X -45 Y 93 X -67 Y 93 X -46 Y 93 X -54 Y 93 X
 -14 Y 93 X -88 Y 93 X -106 Y 93 X 12 Y 93 X 2 Y 93 X -14 Y 930 X f black 1 0.4 0.6 c black 319 1004 m 93 X -45 Y 93 X -67 Y 93 X -46 Y 93 X -54 Y 93 X -14 Y 93 X -88 Y 93 X -106 Y 93 X 12 Y 93 X 2 Y 93 X -14 Y 930 X s 0.999 0.999 0.999 c black 0.999
 0.999 0.999 c 319 584 m 372 Y 93 X -69 Y 93 X -74 Y 93 X -87 Y 93 X -103 Y 93 X -39 Y 1395 X f black 0.999 0.999 0.999 c black 319 956 m 93 X -69 Y 93 X -74 Y 93 X -87 Y 93 X -103 Y 93 X -39 Y 1395 X s 1 1 1 c black 319 956 m 93 X -69 Y 93 X -74 Y
 93 X -87 Y 93 X -103 Y 93 X -39 Y 1395 X s 0 0 0.4 c black 0 0 0.4 c 319 584 m 372 Y 93 X -69 Y 93 X -74 Y 93 X -87 Y 93 X -103 Y 93 X -39 Y 1395 X f black 0 0 0.4 c black 319 956 m 93 X -69 Y 93 X -74 Y 93 X -87 Y 93 X -103 Y 93 X -39 Y 1395 X s 1
 0 0 c 6 lw 1 1 1 c black 1 0 0 c 319 1188 m 93 X -42 Y 93 X -70 Y 93 X -59 Y 93 X -68 Y 93 X -54 Y 93 X -49 Y 93 X -75 Y 93 X -11 Y 93 X -66 Y 93 X -56 Y 93 X -54 Y 93 X 18 Y 93 X -18 Y 651 X s black 3 lw 1 0 0 c 1 lw << /PatternType 1 /PaintType 2
 /TilingType 1 /BBox [ 0 0 100 100 ] /XStep 100 /YStep 100 /PaintProc { begin gsave 0 100 m 100 0 l s gr end } >> [ 0.24 0 0 0.24 0 0 ] makepattern /P05 exch def /cs {[/Pattern /DeviceRGB] setcolorspace} def /FA {f [/DeviceRGB] setcolorspace} def cs
 1 0 0 P05 setcolor 319 584 m 607 Y 93 X -42 Y 93 X -69 Y 93 X -57 Y 93 X -67 Y 93 X -52 Y 93 X -49 Y 93 X -73 Y 93 X -5 Y 93 X -68 Y 93 X -55 Y 93 X -70 Y 93 X 54 Y 93 X -54 Y 186 X 1 Y 93 X -1 Y -465 X 32 Y -93 X 59 Y -93 X 61 Y -93 X 22 Y -93 X 76
 Y -93 X 50 Y -93 X 59 Y -93 X 68 Y -93 X 61 Y -93 X 70 Y -93 X 42 Y -93 X -600 Y FA 6 lw 1 1 1 c 15 lw 831 869 m 6 Y s 831 875 m cl s 831 828 m -17 Y s 831 811 m cl s 924 834 m 13 Y s 924 847 m cl s 924 794 m -33 Y s 924 761 m cl s 1017 807 m 20 Y s
 1017 827 m cl s 1017 766 m -49 Y s 1017 717 m cl s 1110 760 m 36 Y s 1110 796 m cl s 1110 719 m -97 Y s 1110 622 m cl s 1203 760 m 36 Y s 1203 796 m cl s 1203 719 m -97 Y s 1203 622 m cl s black 1 1 1 c 3 lw /w 43 def /w2 {w 2 div} def /w3 {w 3 div}
 def 366 1186 459 1145 552 1075 645 1010 738 939 831 849 924 814 1017 787 1110 740 1203 740 10 { m20} R 15 lw black 6 lw 1 1 1 c black 3 lw /w 33 def /w2 {w 2 div} def /w3 {w 3 div} def 366 1186 m20 6 lw 3 lw 459 1145 m20 6 lw 3 lw 552 1075 m20 6 lw
 3 lw 645 1010 m20 6 lw 738 921 m 4 Y s 738 952 m 1 Y s 3 lw 738 939 m20 6 lw 831 808 m 27 Y s 831 862 m 11 Y s 3 lw 831 849 m20 6 lw 924 756 m 44 Y s 924 828 m 17 Y s 3 lw 924 814 m20 6 lw 1017 704 m 69 Y s 1017 800 m 23 Y s 3 lw 1017 787 m20 6 lw
 1110 584 m 142 Y s 1110 753 m 34 Y s 3 lw 1110 740 m20 6 lw 1203 584 m 142 Y s 1203 753 m 34 Y s 3 lw 1203 740 m20 6 lw 738 952 m 1 Y s 738 953 m cl s 738 925 m -4 Y s 738 921 m cl s 831 862 m 13 Y s 831 875 m cl s 831 835 m -24 Y s 831 811 m cl s
 924 828 m 19 Y s 924 847 m cl s 924 800 m -39 Y s 924 761 m cl s 1017 800 m 27 Y s 1017 827 m cl s 1017 773 m -56 Y s 1017 717 m cl s 1110 753 m 43 Y s 1110 796 m cl s 1110 726 m -104 Y s 1110 622 m cl s 1203 753 m 43 Y s 1203 796 m cl s 1203 726 m
 -104 Y s 1203 622 m cl s 3 lw 366 1186 459 1145 552 1075 645 1010 738 939 831 849 924 814 1017 787 1110 740 1203 740 10 { m20} R 6 lw 3 lw 319 584 m 1860 X s 412 584 m cl s 459 584 m cl s 505 584 m cl s 552 584 m cl s 598 584 m cl s 645 584 m cl s
 691 584 m cl s 738 584 m cl s 784 584 m cl s 831 584 m cl s 877 584 m cl s 924 584 m cl s 970 584 m cl s 1017 584 m cl s 1063 584 m cl s 1110 584 m cl s 1156 584 m cl s 1203 584 m cl s 1249 584 m cl s 1296 584 m cl s 1342 584 m cl s 1389 584 m cl s
 1435 584 m cl s 1482 584 m cl s 1528 584 m cl s 1575 584 m cl s 1621 584 m cl s 1668 584 m cl s 1714 584 m cl s 1761 584 m cl s 1807 584 m cl s 1854 584 m cl s 1900 584 m cl s 1947 584 m cl s 1993 584 m cl s 2040 584 m cl s 2086 584 m cl s 412 584 m
 cl s 366 584 m cl s 319 584 m cl s 2086 584 m cl s 2133 584 m cl s 2179 584 m cl s 319 1729 m 1860 X s 412 1729 m cl s 459 1729 m cl s 505 1729 m cl s 552 1729 m cl s 598 1729 m cl s 645 1729 m cl s 691 1729 m cl s 738 1729 m cl s 784 1729 m cl s
 831 1729 m cl s 877 1729 m cl s 924 1729 m cl s 970 1729 m cl s 1017 1729 m cl s 1063 1729 m cl s 1110 1729 m cl s 1156 1729 m cl s 1203 1729 m cl s 1249 1729 m cl s 1296 1729 m cl s 1342 1729 m cl s 1389 1729 m cl s 1435 1729 m cl s 1482 1729 m cl
 s 1528 1729 m cl s 1575 1729 m cl s 1621 1729 m cl s 1668 1729 m cl s 1714 1729 m cl s 1761 1729 m cl s 1807 1729 m cl s 1854 1729 m cl s 1900 1729 m cl s 1947 1729 m cl s 1993 1729 m cl s 2040 1729 m cl s 2086 1729 m cl s 412 1729 m cl s 366 1729 m
 cl s 319 1729 m cl s 2086 1729 m cl s 2133 1729 m cl s 2179 1729 m cl s 319 584 m 1145 Y s 341 631 m -22 X s 341 659 m -22 X s 341 678 m -22 X s 341 693 m -22 X s 341 705 m -22 X s 341 716 m -22 X s 341 725 m -22 X s 341 733 m -22 X s 363 740 m -44
 X s 341 787 m -22 X s 341 814 m -22 X s 341 833 m -22 X s 341 849 m -22 X s 341 861 m -22 X s 341 871 m -22 X s 341 880 m -22 X s 341 888 m -22 X s 363 895 m -44 X s 341 942 m -22 X s 341 970 m -22 X s 341 989 m -22 X s 341 1004 m -22 X s 341 1016 m
 -22 X s 341 1027 m -22 X s 341 1036 m -22 X s 341 1044 m -22 X s 363 1051 m -44 X s 341 1098 m -22 X s 341 1125 m -22 X s 341 1144 m -22 X s 341 1160 m -22 X s 341 1172 m -22 X s 341 1182 m -22 X s 341 1191 m -22 X s 341 1199 m -22 X s 363 1206 m
 -44 X s 341 1253 m -22 X s 341 1281 m -22 X s 341 1300 m -22 X s 341 1315 m -22 X s 341 1327 m -22 X s 341 1338 m -22 X s 341 1347 m -22 X s 341 1355 m -22 X s 363 1362 m -44 X s 341 1409 m -22 X s 341 1436 m -22 X s 341 1455 m -22 X s 341 1471 m
 -22 X s 341 1483 m -22 X s 341 1493 m -22 X s 341 1502 m -22 X s 341 1510 m -22 X s 363 1517 m -44 X s 341 1564 m -22 X s 341 1592 m -22 X s 341 1611 m -22 X s 341 1626 m -22 X s 341 1638 m -22 X s 341 1649 m -22 X s 341 1658 m -22 X s 341 1666 m
 -22 X s 363 1673 m -44 X s 341 1720 m -22 X s 2179 584 m 1145 Y s 2157 631 m 22 X s 2157 659 m 22 X s 2157 678 m 22 X s 2157 693 m 22 X s 2157 705 m 22 X s 2157 716 m 22 X s 2157 725 m 22 X s 2157 733 m 22 X s 2136 740 m 43 X s 2157 787 m 22 X s
 2157 814 m 22 X s 2157 833 m 22 X s 2157 849 m 22 X s 2157 861 m 22 X s 2157 871 m 22 X s 2157 880 m 22 X s 2157 888 m 22 X s 2136 895 m 43 X s 2157 942 m 22 X s 2157 970 m 22 X s 2157 989 m 22 X s 2157 1004 m 22 X s 2157 1016 m 22 X s 2157 1027 m
 22 X s 2157 1036 m 22 X s 2157 1044 m 22 X s 2136 1051 m 43 X s 2157 1098 m 22 X s 2157 1125 m 22 X s 2157 1144 m 22 X s 2157 1160 m 22 X s 2157 1172 m 22 X s 2157 1182 m 22 X s 2157 1191 m 22 X s 2157 1199 m 22 X s 2136 1206 m 43 X s 2157 1253 m 22
 X s 2157 1281 m 22 X s 2157 1300 m 22 X s 2157 1315 m 22 X s 2157 1327 m 22 X s 2157 1338 m 22 X s 2157 1347 m 22 X s 2157 1355 m 22 X s 2136 1362 m 43 X s 2157 1409 m 22 X s 2157 1436 m 22 X s 2157 1455 m 22 X s 2157 1471 m 22 X s 2157 1483 m 22 X
 s 2157 1493 m 22 X s 2157 1502 m 22 X s 2157 1510 m 22 X s 2136 1517 m 43 X s 2157 1564 m 22 X s 2157 1592 m 22 X s 2157 1611 m 22 X s 2157 1626 m 22 X s 2157 1638 m 22 X s 2157 1649 m 22 X s 2157 1658 m 22 X s 2157 1666 m 22 X s 2136 1673 m 43 X s
 2157 1720 m 22 X s
 gsave  2263 1770 2 313 C 406.765 1447.41 t 0 r /Helvetica findfont 64.4212 sf 0 0 m (VR0LmetSig for MB\255GGd) show NC gr 
 gsave  2263 1770 2 313 C 1464.36 1630.45 t 0 r /Helvetica findfont 64.4212 sf 0 0 m (SM Total) show NC gr  1 1 1 c 1338 1616 m 107 X 64 Y -107 X f 1 0 0 c 6 lw 1338 1648 m 107 X s black
 gsave  2263 1770 2 313 C 1464.36 1538.93 t 0 r /Helvetica findfont 64.4212 sf 0 0 m (Data) show NC gr  1391 1529 m 55 Y s 3 lw 1391 1557 m20 6 lw
 gsave  2263 1770 2 313 C 1464.36 1447.41 t 0 r /Helvetica findfont 64.4212 sf 0 0 m (W+jets) show NC gr  0.4 0.6 1 c 3 lw 1338 1434 m 107 X 64 Y -107 X f 6 lw black 3 lw 1338 1498 m 107 X s 1338 1434 m 107 X s 1445 1434 m 64 Y s 1338 1434 m 64 Y s
 gsave  2263 1770 2 313 C 1498.25 1355.88 t 0 r /Helvetica findfont 64.4212 sf 0 0 m (\(+EW\) & single top) show NC gr 
 gsave  2263 1770 2 313 C 1481.3 1355.88 t 0 r /Helvetica findfont 64.4212 sf 0 0 m (t) show NC gr  1481 1407 m 17 X s
 gsave  2263 1770 2 313 C 1464.36 1355.88 t 0 r /Helvetica findfont 64.4212 sf 0 0 m (t) show NC gr  0.6 1 0.6 c 1338 1343 m 107 X 63 Y -107 X f black 1338 1406 m 107 X s 1338 1343 m 107 X s 1445 1343 m 63 Y s 1338 1343 m 63 Y s
 gsave  2263 1770 2 313 C 1464.36 1264.36 t 0 r /Helvetica findfont 64.4212 sf 0 0 m (Z+jets) show NC gr  1 0.8 0.4 c 1338 1252 m 107 X 63 Y -107 X f black 1338 1315 m 107 X s 1338 1252 m 107 X s 1445 1252 m 63 Y s 1338 1252 m 63 Y s
 gsave  2263 1770 2 313 C 1464.36 1172.84 t 0 r /Helvetica findfont 64.4212 sf 0 0 m (Diboson) show NC gr  1 0.4 0.6 c 1338 1161 m 107 X 63 Y -107 X f black 1338 1224 m 107 X s 1338 1161 m 107 X s 1445 1161 m 63 Y s 1338 1161 m 63 Y s
 gsave  2263 1770 2 313 C 1464.36 1081.32 t 0 r /Helvetica findfont 64.4212 sf 0 0 m (Multi\255jet) show NC gr  0 0 0.4 c 1338 1070 m 107 X 63 Y -107 X f black 1338 1133 m 107 X s 1338 1070 m 107 X s 1445 1070 m 63 Y s 1338 1070 m 63 Y s
 gsave  2263 1770 2 313 C 911.832 1566.05 t 0 r /Helvetica findfont 44.0776 sf 0 0 m (\2551) show NC gr 
 gsave  2263 1770 2 313 C 471.17 1535.54 t 0 r /Helvetica findfont 64.4212 sf 0 0 m (=13TeV, 139 fb) show NC gr 
 gsave  2263 1770 2 313 C 440.662 1535.54 t 0 r /Helvetica findfont 64.4212 sf 0 0 m (s) show NC gr  6 lw 420 1573 m 7 -41 d s 3 lw 427 1532 m 7 61 d s 434 1593 m 37 X s 1 1 1 c 2254 561 2 2 bf black 1 1 1 c black 1860 358 318 187 bl 1 1 1 c black
 1860 358 318 187 bl 6 lw 1 1 1 c black 3 lw 364 362 m20 6 lw 3 lw 457 364 m20 6 lw 3 lw 550 364 m20 6 lw 3 lw 643 351 m20 6 lw 3 lw 736 342 m20 6 lw 3 lw 829 285 m20 6 lw 3 lw 923 305 m20 6 lw 3 lw 1016 408 m20 6 lw 3 lw 1109 325 m20 6 lw 3 lw 1202
 524 m20 6 lw 3 lw 318 187 m 1860 X s
 gsave  2254 561 2 2 C 1959.25 27.1177 t 0 r /Helvetica findfont 78.1689 sf 0 0 m ( [GeV]) show NC gr 
 gsave  2254 561 2 2 C 1854.17 64.4045 t 0 r /Helvetica findfont 50.9797 sf 0 0 m (miss) show NC gr 
 gsave  2254 561 2 2 C 1854.17 3.38971 t 0 r /Helvetica findfont 50.9797 sf 0 0 m (T) show NC gr 
 gsave  2254 561 2 2 C 1803.33 27.1177 t 0 r /Helvetica findfont 78.1689 sf 0 0 m (E) show NC gr  411 201 m -14 Y s 457 194 m -7 Y s 504 194 m -7 Y s 550 194 m -7 Y s 597 201 m -14 Y s 643 194 m -7 Y s 690 194 m -7 Y s 736 194 m -7 Y s 783 201 m -14
 Y s 829 194 m -7 Y s 876 194 m -7 Y s 923 194 m -7 Y s 969 201 m -14 Y s 1016 194 m -7 Y s 1062 194 m -7 Y s 1109 194 m -7 Y s 1155 201 m -14 Y s 1202 194 m -7 Y s 1248 194 m -7 Y s 1295 194 m -7 Y s 1341 201 m -14 Y s 1388 194 m -7 Y s 1434 194 m
 -7 Y s 1481 194 m -7 Y s 1527 201 m -14 Y s 1574 194 m -7 Y s 1620 194 m -7 Y s 1667 194 m -7 Y s 1713 201 m -14 Y s 1760 194 m -7 Y s 1806 194 m -7 Y s 1853 194 m -7 Y s 1899 201 m -14 Y s 1946 194 m -7 Y s 1992 194 m -7 Y s 2039 194 m -7 Y s 2085
 201 m -14 Y s 411 201 m -14 Y s 364 194 m -7 Y s 318 194 m -7 Y s 2085 201 m -14 Y s 2132 194 m -7 Y s
 gsave  2254 561 2 2 C 345.75 118.64 t 0 r /Helvetica findfont 78.1689 sf 0 0 m (400) show NC gr 
 gsave  2254 561 2 2 C 532.185 118.64 t 0 r /Helvetica findfont 78.1689 sf 0 0 m (600) show NC gr 
 gsave  2254 561 2 2 C 715.229 118.64 t 0 r /Helvetica findfont 78.1689 sf 0 0 m (800) show NC gr 
 gsave  2254 561 2 2 C 877.935 118.64 t 0 r /Helvetica findfont 78.1689 sf 0 0 m (1000) show NC gr 
 gsave  2254 561 2 2 C 1064.37 118.64 t 0 r /Helvetica findfont 78.1689 sf 0 0 m (1200) show NC gr 
 gsave  2254 561 2 2 C 1250.8 118.64 t 0 r /Helvetica findfont 78.1689 sf 0 0 m (1400) show NC gr 
 gsave  2254 561 2 2 C 1437.24 118.64 t 0 r /Helvetica findfont 78.1689 sf 0 0 m (1600) show NC gr 
 gsave  2254 561 2 2 C 1623.67 118.64 t 0 r /Helvetica findfont 78.1689 sf 0 0 m (1800) show NC gr 
 gsave  2254 561 2 2 C 1810.11 118.64 t 0 r /Helvetica findfont 78.1689 sf 0 0 m (2000) show NC gr 
 gsave  2254 561 2 2 C 1996.54 118.64 t 0 r /Helvetica findfont 78.1689 sf 0 0 m (2200) show NC gr  318 545 m 1860 X s 411 531 m 14 Y s 457 538 m 7 Y s 504 538 m 7 Y s 550 538 m 7 Y s 597 531 m 14 Y s 643 538 m 7 Y s 690 538 m 7 Y s 736 538 m 7 Y s
 783 531 m 14 Y s 829 538 m 7 Y s 876 538 m 7 Y s 923 538 m 7 Y s 969 531 m 14 Y s 1016 538 m 7 Y s 1062 538 m 7 Y s 1109 538 m 7 Y s 1155 531 m 14 Y s 1202 538 m 7 Y s 1248 538 m 7 Y s 1295 538 m 7 Y s 1341 531 m 14 Y s 1388 538 m 7 Y s 1434 538 m 7
 Y s 1481 538 m 7 Y s 1527 531 m 14 Y s 1574 538 m 7 Y s 1620 538 m 7 Y s 1667 538 m 7 Y s 1713 531 m 14 Y s 1760 538 m 7 Y s 1806 538 m 7 Y s 1853 538 m 7 Y s 1899 531 m 14 Y s 1946 538 m 7 Y s 1992 538 m 7 Y s 2039 538 m 7 Y s 2085 531 m 14 Y s 411
 531 m 14 Y s 364 538 m 7 Y s 318 538 m 7 Y s 2085 531 m 14 Y s 2132 538 m 7 Y s 318 187 m 358 Y s
 gsave  2254 561 2 2 C 166.096 284.736 t 90 r /Helvetica findfont 67.9729 sf 0 0 m (Data/SM) show NC gr  361 203 m -43 X s 339 220 m -21 X s 339 236 m -21 X s 339 252 m -21 X s 339 268 m -21 X s 361 285 m -43 X s 339 301 m -21 X s 339 317 m -21 X s
 339 334 m -21 X s 339 350 m -21 X s 361 366 m -43 X s 339 382 m -21 X s 339 399 m -21 X s 339 415 m -21 X s 339 431 m -21 X s 361 447 m -43 X s 339 464 m -21 X s 339 480 m -21 X s 339 496 m -21 X s 339 512 m -21 X s 361 529 m -43 X s 361 203 m -43 X
 s 339 187 m -21 X s 361 529 m -43 X s
 gsave  2254 561 2 2 C 261.008 183.044 t 0 r /Helvetica findfont 57.777 sf 0 0 m (0) show NC gr 
 gsave  2254 561 2 2 C 213.552 261.008 t 0 r /Helvetica findfont 57.777 sf 0 0 m (0.5) show NC gr 
 gsave  2254 561 2 2 C 271.177 342.361 t 0 r /Helvetica findfont 57.777 sf 0 0 m (1) show NC gr 
 gsave  2254 561 2 2 C 213.552 423.714 t 0 r /Helvetica findfont 57.777 sf 0 0 m (1.5) show NC gr 
 gsave  2254 561 2 2 C 261.008 505.067 t 0 r /Helvetica findfont 57.777 sf 0 0 m (2) show NC gr  2178 187 m 358 Y s 2135 203 m 43 X s 2157 220 m 21 X s 2157 236 m 21 X s 2157 252 m 21 X s 2157 268 m 21 X s 2135 285 m 43 X s 2157 301 m 21 X s 2157 317
 m 21 X s 2157 334 m 21 X s 2157 350 m 21 X s 2135 366 m 43 X s 2157 382 m 21 X s 2157 399 m 21 X s 2157 415 m 21 X s 2157 431 m 21 X s 2135 447 m 43 X s 2157 464 m 21 X s 2157 480 m 21 X s 2157 496 m 21 X s 2157 512 m 21 X s 2135 529 m 43 X s 2135
 203 m 43 X s 2157 187 m 21 X s 2135 529 m 43 X s 9 lw 643 365 m 6 Y s 643 371 m cl s 643 338 m -7 Y s 643 331 m cl s 736 356 m 18 Y s 736 374 m cl s 736 328 m -17 Y s 736 311 m cl s 829 299 m 25 Y s 829 324 m cl s 829 272 m -22 Y s 829 250 m cl s
 923 319 m 51 Y s 923 370 m cl s 923 292 m -42 Y s 923 250 m cl s 1016 421 m 124 Y s 1016 545 m cl s 1016 394 m -118 Y s 1016 276 m cl s 1109 338 m 143 Y s 1109 481 m cl s 1109 311 m -86 Y s 1109 225 m cl s 1202 537 m 8 Y s 1202 545 m cl s 1202 510 m
 -251 Y s 1202 259 m cl s 3 lw 364 362 457 364 550 364 643 351 736 342 829 285 923 305 1016 408 1109 325 1202 524 10 { m20} R 9 lw 1 0 0 c 6 lw black 3 lw 1 0 0 c 2178 227 m s 2178 255 m s 2178 284 m -16 -16 d s 2178 312 m -44 -44 d s 2178 341 m -73
 -73 d s 2178 369 m -93 -92 d s 2178 398 m -104 -104 d s 2178 427 m -133 -133 d s 1992 241 m -14 -14 d s 2178 455 m -161 -161 d s 1992 270 m -42 -43 d s 2159 464 m -238 -237 d s 2130 464 m -231 -230 d s 2102 464 m -17 -16 d s 2075 438 m -187 -187 d s
 2046 438 m -187 -187 d s 2018 438 m -188 -187 d s 1806 227 m -2 -2 d s 1992 441 m -217 -216 d s 1992 470 m -245 -245 d s 1992 499 m -274 -274 d s 1970 505 m -257 -256 d s 1941 505 m -228 -227 d s 1913 505 m -14 -13 d s 1888 481 m -195 -195 d s 1860
 481 m -196 -195 d s 1831 481 m -196 -195 d s 1806 485 m -189 -189 d s 1800 507 m -212 -211 d s 1771 507 m -58 -58 d s 1710 446 m -151 -150 d s 1527 264 m -11 -11 d s 1742 507 m -29 -29 d s 1682 446 m -151 -150 d s 1527 292 m -39 -39 d s 1714 507 m
 -1 -1 d s 1653 446 m -194 -193 d s 1624 446 m -4 -4 d s 1614 436 m -180 -179 d s 1585 436 m -151 -151 d s 1557 436 m -125 -124 d s 1528 436 m -124 -124 d s 1527 464 m -152 -152 d s 1514 479 m -168 -167 d s 1485 479 m -51 -51 d s 1426 420 m -99 -99 d
 s 1456 479 m -22 -22 d s 1397 420 m -99 -99 d s 1368 420 m -99 -99 d s 1331 411 m -86 -85 d s 1302 411 m -85 -85 d s 1273 411 m -85 -85 d s 1240 406 m -81 -80 d s 1155 322 m -4 -4 d s 1211 406 m -88 -88 d s 1182 406 m -88 -88 d s 1155 408 m -90 -90
 d s 1133 414 m -76 -76 d s 1104 414 m -76 -76 d s 1076 414 m -14 -13 d s 1055 394 m -56 -56 d s 1027 394 m -57 -56 d s 998 394 m -53 -53 d s 969 394 m s 966 391 m -50 -50 d s 938 391 m -51 -50 d s 909 391 m -48 -48 d s 880 391 m -48 -48 d s 850 389
 m -47 -46 d s 821 389 m -39 -38 d s 792 389 m -38 -38 d s 756 381 m -31 -30 d s 727 381 m -31 -30 d s 698 381 m -29 -29 d s 668 380 m -28 -28 d s 640 380 m -28 -28 d s 611 380 m -23 -23 d s 578 375 m -19 -18 d s 549 375 m -19 -18 d s 520 375 m -16
 -16 d s 490 373 m -15 -14 d s 461 373 m -15 -14 d s 318 231 m s 432 373 m -15 -14 d s 318 259 m s 404 374 m -16 -16 d s 318 288 m s 376 374 m -17 -16 d s 318 317 m s 347 374 m -16 -16 d s 318 345 m s 318 374 m s 6 lw black[ 4 8] 0 sd 3 lw 318 447 m
 1860 X s 318 285 m 1860 X s 1 0 0 c[  12 12 ] 0 sd 6 lw 318 366 m 1860 X s
 gr  gr showpage
end
%%EOF
