%!PS-Adobe-2.0 EPSF-2.0
%%BoundingBox:  0 0 567 521
%%Title: Distributions/met_distrSR_MB-GGo_afterFit_forThesis.eps: canvas
%%Creator: ROOT Version 6.04/16
%%CreationDate: Tue May 19 22:02:26 2020
%%DocumentNeededResources: ProcSet (FontSetInit)
%%EndComments
%%BeginProlog
80 dict begin
/s {stroke} def /l {lineto} def /m {moveto} def /t {translate} def
/r {rotate} def /rl {roll}  def /R {repeat} def
/d {rlineto} def /rm {rmoveto} def /gr {grestore} def /f {eofill} def
/c {setrgbcolor} def /black {0 setgray} def /sd {setdash} def
/cl {closepath} def /sf {scalefont setfont} def /lw {setlinewidth} def
/box {m dup 0 exch d exch 0 d 0 exch neg d cl} def
/NC{systemdict begin initclip end}def/C{NC box clip newpath}def
/bl {box s} def /bf {gsave box gsave f grestore 1 lw [] 0 sd s grestore} def /Y { 0 exch d} def /X { 0 d} def 
/K {{pop pop 0 moveto} exch kshow} bind def
/ita {/ang 15 def gsave [1 0 ang dup sin exch cos div 1 0 0] concat} def 
/mp {newpath /y exch def /x exch def} def
/side {[w .77 mul w .23 mul] .385 w mul sd w 0 l currentpoint t -144 r} def
/mr {mp x y w2 0 360 arc} def /m24 {mr s} def /m20 {mr f} def
/mb {mp x y w2 add m w2 neg 0 d 0 w neg d w 0 d 0 w d cl} def
/mt {mp x y w2 add m w2 neg w neg d w 0 d cl} def
/m21 {mb f} def /m25 {mb s} def /m22 {mt f} def /m26{mt s} def
/m23 {mp x y w2 sub m w2 w d w neg 0 d cl f} def
/m27 {mp x y w2 add m w3 neg w2 neg d w3 w2 neg d w3 w2 d cl s} def
/m28 {mp x w2 sub y w2 sub w3 add m w3 0 d  0 w3 neg d w3 0 d 0 w3 d w3 0 d  0 w3 d w3 neg 0 d 0 w3 d w3 neg 0 d 0 w3 neg d w3 neg 0 d cl s } def
/m29 {mp gsave x w2 sub y w2 add w3 sub m currentpoint t 4 {side} repeat cl fill gr} def
/m30 {mp gsave x w2 sub y w2 add w3 sub m currentpoint t 4 {side} repeat cl s gr} def
/m31 {mp x y w2 sub m 0 w d x w2 sub y m w 0 d x w2 sub y w2 add m w w neg d x w2 sub y w2 sub m w w d s} def
/m32 {mp x y w2 sub m w2 w d w neg 0 d cl s} def
/m33 {mp x y w2 add m w3 neg w2 neg d w3 w2 neg d w3 w2 d cl f} def
/m34 {mp x w2 sub y w2 sub w3 add m w3 0 d  0 w3 neg d w3 0 d 0 w3 d w3 0 d  0 w3 d w3 neg 0 d 0 w3 d w3 neg 0 d 0 w3 neg d w3 neg 0 d cl f } def
/m2 {mp x y w2 sub m 0 w d x w2 sub y m w 0 d s} def
/m5 {mp x w2 sub y w2 sub m w w d x w2 sub y w2 add m w w neg d s} def
%%IncludeResource: ProcSet (FontSetInit)
%%IncludeResource: font Times-Roman
%%IncludeResource: font Times-Italic
%%IncludeResource: font Times-Bold
%%IncludeResource: font Times-BoldItalic
%%IncludeResource: font Helvetica
%%IncludeResource: font Helvetica-Oblique
%%IncludeResource: font Helvetica-Bold
%%IncludeResource: font Helvetica-BoldOblique
%%IncludeResource: font Courier
%%IncludeResource: font Courier-Oblique
%%IncludeResource: font Courier-Bold
%%IncludeResource: font Courier-BoldOblique
%%IncludeResource: font Symbol
%%IncludeResource: font ZapfDingbats
/reEncode {exch findfont dup length dict begin {1 index /FID eq  {pop pop} {def} ifelse } forall /Encoding exch def currentdict end dup /FontName get exch definefont pop } def [/Times-Bold /Times-Italic /Times-BoldItalic /Helvetica /Helvetica-Oblique
 /Helvetica-Bold /Helvetica-BoldOblique /Courier /Courier-Oblique /Courier-Bold /Courier-BoldOblique /Times-Roman /AvantGarde-Book /AvantGarde-BookOblique /AvantGarde-Demi /AvantGarde-DemiOblique /Bookman-Demi /Bookman-DemiItalic /Bookman-Light
 /Bookman-LightItalic /Helvetica-Narrow /Helvetica-Narrow-Bold /Helvetica-Narrow-BoldOblique /Helvetica-Narrow-Oblique /NewCenturySchlbk-Roman /NewCenturySchlbk-Bold /NewCenturySchlbk-BoldItalic /NewCenturySchlbk-Italic /Palatino-Bold
 /Palatino-BoldItalic /Palatino-Italic /Palatino-Roman ] {ISOLatin1Encoding reEncode } forall
%%EndProlog
%%BeginSetup
%%EndSetup
newpath  gsave  .25 .25 scale  gsave  0 0 t black[  ] 0 sd 3 lw 1 1 1 c 2268 2085 0 0 bf black 1 1 1 c 2263 1770 2 313 bf black 1 1 1 c black 1860 1145 319 584 bl 1 1 1 c black 1860 1145 319 584 bl 6 lw 1 1 1 c black 3 lw /w 33 def /w2 {w 2 div} def
 /w3 {w 3 div} def 366 1078 m20 6 lw 459 1045 m s 3 lw 459 1058 m20 6 lw 552 970 m 9 Y s 552 1006 m 4 Y s 3 lw 552 992 m20 6 lw 645 952 m 12 Y s 645 991 m 5 Y s 3 lw 645 977 m20 6 lw 738 868 m 28 Y s 738 923 m 14 Y s 3 lw 738 910 m20 6 lw 831 584 m
 170 Y s 831 781 m 41 Y s 3 lw 831 767 m20 6 lw 924 584 m 170 Y s 924 781 m 41 Y s 3 lw 924 767 m20 6 lw 3 lw 319 584 m 1860 X s
 gsave  2263 1770 2 313 C 1949.08 355.92 t 0 r /Helvetica findfont 81.3741 sf 0 0 m ( [GeV]) show NC gr 
 gsave  2263 1770 2 313 C 1837.22 396.596 t 0 r /Helvetica findfont 54.2494 sf 0 0 m (miss) show NC gr 
 gsave  2263 1770 2 313 C 1837.22 332.192 t 0 r /Helvetica findfont 54.2494 sf 0 0 m (T) show NC gr 
 gsave  2263 1770 2 313 C 1786.38 355.92 t 0 r /Helvetica findfont 81.3741 sf 0 0 m (E) show NC gr  412 584 m cl s 459 584 m cl s 505 584 m cl s 552 584 m cl s 598 584 m cl s 645 584 m cl s 691 584 m cl s 738 584 m cl s 784 584 m cl s 831 584 m cl s
 877 584 m cl s 924 584 m cl s 970 584 m cl s 1017 584 m cl s 1063 584 m cl s 1110 584 m cl s 1156 584 m cl s 1203 584 m cl s 1249 584 m cl s 1296 584 m cl s 1342 584 m cl s 1389 584 m cl s 1435 584 m cl s 1482 584 m cl s 1528 584 m cl s 1575 584 m
 cl s 1621 584 m cl s 1668 584 m cl s 1714 584 m cl s 1761 584 m cl s 1807 584 m cl s 1854 584 m cl s 1900 584 m cl s 1947 584 m cl s 1993 584 m cl s 2040 584 m cl s 2086 584 m cl s 412 584 m cl s 366 584 m cl s 319 584 m cl s 2086 584 m cl s 2133
 584 m cl s 2179 584 m cl s 319 1729 m 1860 X s 412 1729 m cl s 459 1729 m cl s 505 1729 m cl s 552 1729 m cl s 598 1729 m cl s 645 1729 m cl s 691 1729 m cl s 738 1729 m cl s 784 1729 m cl s 831 1729 m cl s 877 1729 m cl s 924 1729 m cl s 970 1729 m
 cl s 1017 1729 m cl s 1063 1729 m cl s 1110 1729 m cl s 1156 1729 m cl s 1203 1729 m cl s 1249 1729 m cl s 1296 1729 m cl s 1342 1729 m cl s 1389 1729 m cl s 1435 1729 m cl s 1482 1729 m cl s 1528 1729 m cl s 1575 1729 m cl s 1621 1729 m cl s 1668
 1729 m cl s 1714 1729 m cl s 1761 1729 m cl s 1807 1729 m cl s 1854 1729 m cl s 1900 1729 m cl s 1947 1729 m cl s 1993 1729 m cl s 2040 1729 m cl s 2086 1729 m cl s 412 1729 m cl s 366 1729 m cl s 319 1729 m cl s 2086 1729 m cl s 2133 1729 m cl s
 2179 1729 m cl s 319 584 m 1145 Y s
 gsave  2263 1770 2 313 C 166.096 1091.49 t 90 r /Helvetica findfont 81.3741 sf 0 0 m (Events / 100 GeV) show NC gr  341 639 m -22 X s 341 672 m -22 X s 341 694 m -22 X s 341 712 m -22 X s 341 727 m -22 X s 341 739 m -22 X s 341 750 m -22 X s 341 759
 m -22 X s 363 767 m -44 X s
 gsave  2263 1770 2 313 C 300.555 740.197 t 0 r  -36 0 t /Helvetica findfont 64.4212 sf 0 0 m (1) show NC gr  341 822 m -22 X s 341 855 m -22 X s 341 877 m -22 X s 341 895 m -22 X s 341 910 m -22 X s 341 922 m -22 X s 341 933 m -22 X s 341 942 m -22
 X s 363 950 m -44 X s
 gsave  2263 1770 2 313 C 300.555 923.201 t 0 r  -73 0 t /Helvetica findfont 64.4212 sf 0 0 m (10) show NC gr  341 1005 m -22 X s 341 1038 m -22 X s 341 1060 m -22 X s 341 1078 m -22 X s 341 1093 m -22 X s 341 1105 m -22 X s 341 1116 m -22 X s 341
 1125 m -22 X s 363 1133 m -44 X s
 gsave  2263 1770 2 313 C 274.567 1132.16 t 0 r /Helvetica findfont 44.0776 sf 0 0 m (2) show NC gr 
 gsave  2263 1770 2 313 C 203.383 1105.05 t 0 r /Helvetica findfont 64.4212 sf 0 0 m (10) show NC gr  341 1188 m -22 X s 341 1221 m -22 X s 341 1244 m -22 X s 341 1261 m -22 X s 341 1276 m -22 X s 341 1288 m -22 X s 341 1299 m -22 X s 341 1308 m -22
 X s 363 1316 m -44 X s
 gsave  2263 1770 2 313 C 274.567 1318.6 t 0 r /Helvetica findfont 44.0776 sf 0 0 m (3) show NC gr 
 gsave  2263 1770 2 313 C 203.383 1288.09 t 0 r /Helvetica findfont 64.4212 sf 0 0 m (10) show NC gr  341 1371 m -22 X s 341 1404 m -22 X s 341 1427 m -22 X s 341 1444 m -22 X s 341 1459 m -22 X s 341 1471 m -22 X s 341 1482 m -22 X s 341 1491 m -22
 X s 363 1499 m -44 X s
 gsave  2263 1770 2 313 C 274.567 1498.25 t 0 r /Helvetica findfont 44.0776 sf 0 0 m (4) show NC gr 
 gsave  2263 1770 2 313 C 203.383 1471.13 t 0 r /Helvetica findfont 64.4212 sf 0 0 m (10) show NC gr  341 1554 m -22 X s 341 1587 m -22 X s 341 1610 m -22 X s 341 1627 m -22 X s 341 1642 m -22 X s 341 1654 m -22 X s 341 1665 m -22 X s 341 1674 m -22
 X s 363 1682 m -44 X s
 gsave  2263 1770 2 313 C 274.567 1684.69 t 0 r /Helvetica findfont 44.0776 sf 0 0 m (5) show NC gr 
 gsave  2263 1770 2 313 C 203.383 1654.18 t 0 r /Helvetica findfont 64.4212 sf 0 0 m (10) show NC gr  2179 584 m 1145 Y s 2157 639 m 22 X s 2157 672 m 22 X s 2157 694 m 22 X s 2157 712 m 22 X s 2157 727 m 22 X s 2157 739 m 22 X s 2157 750 m 22 X s
 2157 759 m 22 X s 2136 767 m 43 X s 2157 822 m 22 X s 2157 855 m 22 X s 2157 877 m 22 X s 2157 895 m 22 X s 2157 910 m 22 X s 2157 922 m 22 X s 2157 933 m 22 X s 2157 942 m 22 X s 2136 950 m 43 X s 2157 1005 m 22 X s 2157 1038 m 22 X s 2157 1060 m
 22 X s 2157 1078 m 22 X s 2157 1093 m 22 X s 2157 1105 m 22 X s 2157 1116 m 22 X s 2157 1125 m 22 X s 2136 1133 m 43 X s 2157 1188 m 22 X s 2157 1221 m 22 X s 2157 1244 m 22 X s 2157 1261 m 22 X s 2157 1276 m 22 X s 2157 1288 m 22 X s 2157 1299 m 22
 X s 2157 1308 m 22 X s 2136 1316 m 43 X s 2157 1371 m 22 X s 2157 1404 m 22 X s 2157 1427 m 22 X s 2157 1444 m 22 X s 2157 1459 m 22 X s 2157 1471 m 22 X s 2157 1482 m 22 X s 2157 1491 m 22 X s 2136 1499 m 43 X s 2157 1554 m 22 X s 2157 1587 m 22 X
 s 2157 1610 m 22 X s 2157 1627 m 22 X s 2157 1642 m 22 X s 2157 1654 m 22 X s 2157 1665 m 22 X s 2157 1674 m 22 X s 2136 1682 m 43 X s 0.4 0.6 1 c black 0.4 0.6 1 c 319 584 m 508 Y 93 X -35 Y 93 X -60 Y 93 X -67 Y 93 X -51 Y 93 X -79 Y 93 X -67 Y 93
 X -24 Y 93 X -101 Y 93 X -24 Y 1023 X f black 0.4 0.6 1 c black 319 1092 m 93 X -35 Y 93 X -60 Y 93 X -67 Y 93 X -51 Y 93 X -79 Y 93 X -67 Y 93 X -24 Y 93 X -101 Y 93 X -24 Y 1023 X s 0.999 0.999 0.999 c black 0.999 0.999 0.999 c 319 584 m 494 Y 93
 X -42 Y 93 X -62 Y 93 X -70 Y 93 X -44 Y 93 X -82 Y 93 X -86 Y 93 X -8 Y 93 X -93 Y 93 X -7 Y 1023 X f black 0.999 0.999 0.999 c black 319 1078 m 93 X -42 Y 93 X -62 Y 93 X -70 Y 93 X -44 Y 93 X -82 Y 93 X -86 Y 93 X -8 Y 93 X -93 Y 93 X -7 Y 1023 X
 s 1 1 1 c black 319 1078 m 93 X -42 Y 93 X -62 Y 93 X -70 Y 93 X -44 Y 93 X -82 Y 93 X -86 Y 93 X -8 Y 93 X -93 Y 93 X -7 Y 1023 X s 0.6 1 0.6 c black 0.6 1 0.6 c 319 584 m 494 Y 93 X -42 Y 93 X -62 Y 93 X -70 Y 93 X -44 Y 93 X -82 Y 93 X -86 Y 93 X
 -8 Y 93 X -93 Y 93 X -7 Y 1023 X f black 0.6 1 0.6 c black 319 1078 m 93 X -42 Y 93 X -62 Y 93 X -70 Y 93 X -44 Y 93 X -82 Y 93 X -86 Y 93 X -8 Y 93 X -93 Y 93 X -7 Y 1023 X s 0.999 0.999 0.999 c black 0.999 0.999 0.999 c 319 584 m 381 Y 93 X 1 Y 93
 X -46 Y 93 X -45 Y 93 X -25 Y 93 X -93 Y 93 X -78 Y 93 X -3 Y 93 X -92 Y 1116 X f black 0.999 0.999 0.999 c black 319 965 m 93 X 1 Y 93 X -46 Y 93 X -45 Y 93 X -25 Y 93 X -93 Y 93 X -78 Y 93 X -3 Y 93 X -92 Y 1116 X s 1 1 1 c black 319 965 m 93 X 1
 Y 93 X -46 Y 93 X -45 Y 93 X -25 Y 93 X -93 Y 93 X -78 Y 93 X -3 Y 93 X -92 Y 1116 X s 1 0.8 0.4 c black 1 0.8 0.4 c 319 584 m 381 Y 93 X 1 Y 93 X -46 Y 93 X -45 Y 93 X -25 Y 93 X -93 Y 93 X -78 Y 93 X -3 Y 93 X -92 Y 1116 X f black 1 0.8 0.4 c
 black 319 965 m 93 X 1 Y 93 X -46 Y 93 X -45 Y 93 X -25 Y 93 X -93 Y 93 X -78 Y 93 X -3 Y 93 X -92 Y 1116 X s 0.999 0.999 0.999 c black 0.999 0.999 0.999 c 319 584 m 250 Y 93 X 5 Y 93 X -70 Y 93 X -17 Y 93 X -37 Y 93 X -98 Y 93 X -33 Y 1302 X f
 black 0.999 0.999 0.999 c black 319 834 m 93 X 5 Y 93 X -70 Y 93 X -17 Y 93 X -37 Y 93 X -98 Y 93 X -33 Y 1302 X s 1 1 1 c black 319 834 m 93 X 5 Y 93 X -70 Y 93 X -17 Y 93 X -37 Y 93 X -98 Y 93 X -33 Y 1302 X s 1 0.4 0.6 c black 1 0.4 0.6 c 319 584
 m 250 Y 93 X 5 Y 93 X -70 Y 93 X -17 Y 93 X -37 Y 93 X -98 Y 93 X -33 Y 1302 X f black 1 0.4 0.6 c black 319 834 m 93 X 5 Y 93 X -70 Y 93 X -17 Y 93 X -37 Y 93 X -98 Y 93 X -33 Y 1302 X s 0.999 0.999 0.999 c black 0.999 0.999 0.999 c 319 584 m 13 Y
 93 X -13 Y 1767 X f black 0.999 0.999 0.999 c black 319 597 m 93 X -13 Y 1767 X s 1 1 1 c black 319 597 m 93 X -13 Y 1767 X s 0 0 0.4 c black 0 0 0.4 c 319 584 m 13 Y 93 X -13 Y 1767 X f black 0 0 0.4 c black 319 597 m 93 X -13 Y 1767 X s 1 0 0 c 6
 lw 1 1 1 c black 1 0 0 c 319 1092 m 93 X -35 Y 93 X -60 Y 93 X -67 Y 93 X -51 Y 93 X -79 Y 93 X -67 Y 93 X -24 Y 93 X -101 Y 93 X -24 Y 1023 X s black 3 lw 1 0 0 c 1 lw << /PatternType 1 /PaintType 2 /TilingType 1 /BBox [ 0 0 100 100 ] /XStep 100
 /YStep 100 /PaintProc { begin gsave 0 100 m 100 0 l s gr end } >> [ 0.24 0 0 0.24 0 0 ] makepattern /P05 exch def /cs {[/Pattern /DeviceRGB] setcolorspace} def /FA {f [/DeviceRGB] setcolorspace} def cs 1 0 0 P05 setcolor 319 584 m 515 Y 93 X -35 Y
 93 X -59 Y 93 X -66 Y 93 X -50 Y 93 X -68 Y 93 X -69 Y 93 X -18 Y 93 X -110 Y 93 X -40 Y 5 Y -93 X 85 Y -93 X 35 Y -93 X 63 Y -93 X 95 Y -93 X 53 Y -93 X 67 Y -93 X 63 Y -93 X 35 Y -93 X -501 Y FA 6 lw 1 1 1 c 15 lw 552 972 m -1 Y s 552 971 m cl s
 645 957 m -4 Y s 645 953 m cl s 738 930 m 8 Y s 738 938 m cl s 738 889 m -19 Y s 738 870 m cl s 831 788 m 45 Y s 831 833 m cl s 831 747 m -119 Y s 831 628 m cl s 924 788 m 45 Y s 924 833 m cl s 924 747 m -119 Y s 924 628 m cl s black 1 1 1 c 3 lw /w
 43 def /w2 {w 2 div} def /w3 {w 3 div} def 366 1078 459 1058 552 992 645 977 738 910 831 767 924 767 7 { m20} R 15 lw black 6 lw 1 1 1 c black 3 lw /w 33 def /w2 {w 2 div} def /w3 {w 3 div} def 366 1078 m20 6 lw 459 1045 m s 3 lw 459 1058 m20 6 lw
 552 970 m 9 Y s 552 1006 m 4 Y s 3 lw 552 992 m20 6 lw 645 952 m 12 Y s 645 991 m 5 Y s 3 lw 645 977 m20 6 lw 738 868 m 28 Y s 738 923 m 14 Y s 3 lw 738 910 m20 6 lw 831 584 m 170 Y s 831 781 m 41 Y s 3 lw 831 767 m20 6 lw 924 584 m 170 Y s 924 781
 m 41 Y s 3 lw 924 767 m20 6 lw 459 1045 m s 459 1045 m cl s 552 1006 m 4 Y s 552 1010 m cl s 552 979 m -8 Y s 552 971 m cl s 645 991 m 5 Y s 645 996 m cl s 645 964 m -11 Y s 645 953 m cl s 738 923 m 15 Y s 738 938 m cl s 738 896 m -26 Y s 738 870 m
 cl s 831 781 m 52 Y s 831 833 m cl s 831 754 m -126 Y s 831 628 m cl s 924 781 m 52 Y s 924 833 m cl s 924 754 m -126 Y s 924 628 m cl s 3 lw 366 1078 459 1058 552 992 645 977 738 910 831 767 924 767 7 { m20} R 6 lw 3 lw 319 584 m 1860 X s 412 584 m
 cl s 459 584 m cl s 505 584 m cl s 552 584 m cl s 598 584 m cl s 645 584 m cl s 691 584 m cl s 738 584 m cl s 784 584 m cl s 831 584 m cl s 877 584 m cl s 924 584 m cl s 970 584 m cl s 1017 584 m cl s 1063 584 m cl s 1110 584 m cl s 1156 584 m cl s
 1203 584 m cl s 1249 584 m cl s 1296 584 m cl s 1342 584 m cl s 1389 584 m cl s 1435 584 m cl s 1482 584 m cl s 1528 584 m cl s 1575 584 m cl s 1621 584 m cl s 1668 584 m cl s 1714 584 m cl s 1761 584 m cl s 1807 584 m cl s 1854 584 m cl s 1900 584
 m cl s 1947 584 m cl s 1993 584 m cl s 2040 584 m cl s 2086 584 m cl s 412 584 m cl s 366 584 m cl s 319 584 m cl s 2086 584 m cl s 2133 584 m cl s 2179 584 m cl s 319 1729 m 1860 X s 412 1729 m cl s 459 1729 m cl s 505 1729 m cl s 552 1729 m cl s
 598 1729 m cl s 645 1729 m cl s 691 1729 m cl s 738 1729 m cl s 784 1729 m cl s 831 1729 m cl s 877 1729 m cl s 924 1729 m cl s 970 1729 m cl s 1017 1729 m cl s 1063 1729 m cl s 1110 1729 m cl s 1156 1729 m cl s 1203 1729 m cl s 1249 1729 m cl s
 1296 1729 m cl s 1342 1729 m cl s 1389 1729 m cl s 1435 1729 m cl s 1482 1729 m cl s 1528 1729 m cl s 1575 1729 m cl s 1621 1729 m cl s 1668 1729 m cl s 1714 1729 m cl s 1761 1729 m cl s 1807 1729 m cl s 1854 1729 m cl s 1900 1729 m cl s 1947 1729 m
 cl s 1993 1729 m cl s 2040 1729 m cl s 2086 1729 m cl s 412 1729 m cl s 366 1729 m cl s 319 1729 m cl s 2086 1729 m cl s 2133 1729 m cl s 2179 1729 m cl s 319 584 m 1145 Y s 341 639 m -22 X s 341 672 m -22 X s 341 694 m -22 X s 341 712 m -22 X s 341
 727 m -22 X s 341 739 m -22 X s 341 750 m -22 X s 341 759 m -22 X s 363 767 m -44 X s 341 822 m -22 X s 341 855 m -22 X s 341 877 m -22 X s 341 895 m -22 X s 341 910 m -22 X s 341 922 m -22 X s 341 933 m -22 X s 341 942 m -22 X s 363 950 m -44 X s
 341 1005 m -22 X s 341 1038 m -22 X s 341 1060 m -22 X s 341 1078 m -22 X s 341 1093 m -22 X s 341 1105 m -22 X s 341 1116 m -22 X s 341 1125 m -22 X s 363 1133 m -44 X s 341 1188 m -22 X s 341 1221 m -22 X s 341 1244 m -22 X s 341 1261 m -22 X s
 341 1276 m -22 X s 341 1288 m -22 X s 341 1299 m -22 X s 341 1308 m -22 X s 363 1316 m -44 X s 341 1371 m -22 X s 341 1404 m -22 X s 341 1427 m -22 X s 341 1444 m -22 X s 341 1459 m -22 X s 341 1471 m -22 X s 341 1482 m -22 X s 341 1491 m -22 X s
 363 1499 m -44 X s 341 1554 m -22 X s 341 1587 m -22 X s 341 1610 m -22 X s 341 1627 m -22 X s 341 1642 m -22 X s 341 1654 m -22 X s 341 1665 m -22 X s 341 1674 m -22 X s 363 1682 m -44 X s 2179 584 m 1145 Y s 2157 639 m 22 X s 2157 672 m 22 X s
 2157 694 m 22 X s 2157 712 m 22 X s 2157 727 m 22 X s 2157 739 m 22 X s 2157 750 m 22 X s 2157 759 m 22 X s 2136 767 m 43 X s 2157 822 m 22 X s 2157 855 m 22 X s 2157 877 m 22 X s 2157 895 m 22 X s 2157 910 m 22 X s 2157 922 m 22 X s 2157 933 m 22 X
 s 2157 942 m 22 X s 2136 950 m 43 X s 2157 1005 m 22 X s 2157 1038 m 22 X s 2157 1060 m 22 X s 2157 1078 m 22 X s 2157 1093 m 22 X s 2157 1105 m 22 X s 2157 1116 m 22 X s 2157 1125 m 22 X s 2136 1133 m 43 X s 2157 1188 m 22 X s 2157 1221 m 22 X s
 2157 1244 m 22 X s 2157 1261 m 22 X s 2157 1276 m 22 X s 2157 1288 m 22 X s 2157 1299 m 22 X s 2157 1308 m 22 X s 2136 1316 m 43 X s 2157 1371 m 22 X s 2157 1404 m 22 X s 2157 1427 m 22 X s 2157 1444 m 22 X s 2157 1459 m 22 X s 2157 1471 m 22 X s
 2157 1482 m 22 X s 2157 1491 m 22 X s 2136 1499 m 43 X s 2157 1554 m 22 X s 2157 1587 m 22 X s 2157 1610 m 22 X s 2157 1627 m 22 X s 2157 1642 m 22 X s 2157 1654 m 22 X s 2157 1665 m 22 X s 2157 1674 m 22 X s 2136 1682 m 43 X s
 gsave  2263 1770 2 313 C 406.765 1447.41 t 0 r /Helvetica findfont 64.4212 sf 0 0 m (SR for MB\255GGo) show NC gr 
 gsave  2263 1770 2 313 C 1464.36 1630.45 t 0 r /Helvetica findfont 64.4212 sf 0 0 m (SM Total) show NC gr  1 1 1 c 1338 1616 m 107 X 64 Y -107 X f 1 0 0 c 6 lw 1338 1648 m 107 X s black
 gsave  2263 1770 2 313 C 1464.36 1538.93 t 0 r /Helvetica findfont 64.4212 sf 0 0 m (Data) show NC gr  1391 1529 m 55 Y s 3 lw 1391 1557 m20 6 lw
 gsave  2263 1770 2 313 C 1464.36 1447.41 t 0 r /Helvetica findfont 64.4212 sf 0 0 m (W+jets) show NC gr  0.4 0.6 1 c 3 lw 1338 1434 m 107 X 64 Y -107 X f 6 lw black 3 lw 1338 1498 m 107 X s 1338 1434 m 107 X s 1445 1434 m 64 Y s 1338 1434 m 64 Y s
 gsave  2263 1770 2 313 C 1498.25 1355.88 t 0 r /Helvetica findfont 64.4212 sf 0 0 m (\(+EW\) & single top) show NC gr 
 gsave  2263 1770 2 313 C 1481.3 1355.88 t 0 r /Helvetica findfont 64.4212 sf 0 0 m (t) show NC gr  1481 1407 m 17 X s
 gsave  2263 1770 2 313 C 1464.36 1355.88 t 0 r /Helvetica findfont 64.4212 sf 0 0 m (t) show NC gr  0.6 1 0.6 c 1338 1343 m 107 X 63 Y -107 X f black 1338 1406 m 107 X s 1338 1343 m 107 X s 1445 1343 m 63 Y s 1338 1343 m 63 Y s
 gsave  2263 1770 2 313 C 1464.36 1264.36 t 0 r /Helvetica findfont 64.4212 sf 0 0 m (Z+jets) show NC gr  1 0.8 0.4 c 1338 1252 m 107 X 63 Y -107 X f black 1338 1315 m 107 X s 1338 1252 m 107 X s 1445 1252 m 63 Y s 1338 1252 m 63 Y s
 gsave  2263 1770 2 313 C 1464.36 1172.84 t 0 r /Helvetica findfont 64.4212 sf 0 0 m (Diboson) show NC gr  1 0.4 0.6 c 1338 1161 m 107 X 63 Y -107 X f black 1338 1224 m 107 X s 1338 1161 m 107 X s 1445 1161 m 63 Y s 1338 1161 m 63 Y s
 gsave  2263 1770 2 313 C 1464.36 1081.32 t 0 r /Helvetica findfont 64.4212 sf 0 0 m (Multi\255jet) show NC gr  0 0 0.4 c 1338 1070 m 107 X 63 Y -107 X f black 1338 1133 m 107 X s 1338 1070 m 107 X s 1445 1070 m 63 Y s 1338 1070 m 63 Y s
 gsave  2263 1770 2 313 C 911.832 1566.05 t 0 r /Helvetica findfont 44.0776 sf 0 0 m (\2551) show NC gr 
 gsave  2263 1770 2 313 C 471.17 1535.54 t 0 r /Helvetica findfont 64.4212 sf 0 0 m (=13TeV, 139 fb) show NC gr 
 gsave  2263 1770 2 313 C 440.662 1535.54 t 0 r /Helvetica findfont 64.4212 sf 0 0 m (s) show NC gr  6 lw 420 1573 m 7 -41 d s 3 lw 427 1532 m 7 61 d s 434 1593 m 37 X s 1 1 1 c 2254 561 2 2 bf black 1 1 1 c black 1860 358 318 187 bl 1 1 1 c black
 1860 358 318 187 bl 6 lw 1 1 1 c black 3 lw 364 340 m20 6 lw 3 lw 457 369 m20 6 lw 3 lw 550 358 m20 6 lw 3 lw 643 497 m20 6 lw 3 lw 736 444 m20 6 lw 3 lw 829 311 m20 6 lw 3 lw 923 453 m20 6 lw 3 lw 318 187 m 1860 X s
 gsave  2254 561 2 2 C 1959.25 27.1177 t 0 r /Helvetica findfont 78.1689 sf 0 0 m ( [GeV]) show NC gr 
 gsave  2254 561 2 2 C 1854.17 64.4045 t 0 r /Helvetica findfont 50.9797 sf 0 0 m (miss) show NC gr 
 gsave  2254 561 2 2 C 1854.17 3.38971 t 0 r /Helvetica findfont 50.9797 sf 0 0 m (T) show NC gr 
 gsave  2254 561 2 2 C 1803.33 27.1177 t 0 r /Helvetica findfont 78.1689 sf 0 0 m (E) show NC gr  411 201 m -14 Y s 457 194 m -7 Y s 504 194 m -7 Y s 550 194 m -7 Y s 597 201 m -14 Y s 643 194 m -7 Y s 690 194 m -7 Y s 736 194 m -7 Y s 783 201 m -14
 Y s 829 194 m -7 Y s 876 194 m -7 Y s 923 194 m -7 Y s 969 201 m -14 Y s 1016 194 m -7 Y s 1062 194 m -7 Y s 1109 194 m -7 Y s 1155 201 m -14 Y s 1202 194 m -7 Y s 1248 194 m -7 Y s 1295 194 m -7 Y s 1341 201 m -14 Y s 1388 194 m -7 Y s 1434 194 m
 -7 Y s 1481 194 m -7 Y s 1527 201 m -14 Y s 1574 194 m -7 Y s 1620 194 m -7 Y s 1667 194 m -7 Y s 1713 201 m -14 Y s 1760 194 m -7 Y s 1806 194 m -7 Y s 1853 194 m -7 Y s 1899 201 m -14 Y s 1946 194 m -7 Y s 1992 194 m -7 Y s 2039 194 m -7 Y s 2085
 201 m -14 Y s 411 201 m -14 Y s 364 194 m -7 Y s 318 194 m -7 Y s 2085 201 m -14 Y s 2132 194 m -7 Y s
 gsave  2254 561 2 2 C 345.75 118.64 t 0 r /Helvetica findfont 78.1689 sf 0 0 m (400) show NC gr 
 gsave  2254 561 2 2 C 532.185 118.64 t 0 r /Helvetica findfont 78.1689 sf 0 0 m (600) show NC gr 
 gsave  2254 561 2 2 C 715.229 118.64 t 0 r /Helvetica findfont 78.1689 sf 0 0 m (800) show NC gr 
 gsave  2254 561 2 2 C 877.935 118.64 t 0 r /Helvetica findfont 78.1689 sf 0 0 m (1000) show NC gr 
 gsave  2254 561 2 2 C 1064.37 118.64 t 0 r /Helvetica findfont 78.1689 sf 0 0 m (1200) show NC gr 
 gsave  2254 561 2 2 C 1250.8 118.64 t 0 r /Helvetica findfont 78.1689 sf 0 0 m (1400) show NC gr 
 gsave  2254 561 2 2 C 1437.24 118.64 t 0 r /Helvetica findfont 78.1689 sf 0 0 m (1600) show NC gr 
 gsave  2254 561 2 2 C 1623.67 118.64 t 0 r /Helvetica findfont 78.1689 sf 0 0 m (1800) show NC gr 
 gsave  2254 561 2 2 C 1810.11 118.64 t 0 r /Helvetica findfont 78.1689 sf 0 0 m (2000) show NC gr 
 gsave  2254 561 2 2 C 1996.54 118.64 t 0 r /Helvetica findfont 78.1689 sf 0 0 m (2200) show NC gr  318 545 m 1860 X s 411 531 m 14 Y s 457 538 m 7 Y s 504 538 m 7 Y s 550 538 m 7 Y s 597 531 m 14 Y s 643 538 m 7 Y s 690 538 m 7 Y s 736 538 m 7 Y s
 783 531 m 14 Y s 829 538 m 7 Y s 876 538 m 7 Y s 923 538 m 7 Y s 969 531 m 14 Y s 1016 538 m 7 Y s 1062 538 m 7 Y s 1109 538 m 7 Y s 1155 531 m 14 Y s 1202 538 m 7 Y s 1248 538 m 7 Y s 1295 538 m 7 Y s 1341 531 m 14 Y s 1388 538 m 7 Y s 1434 538 m 7
 Y s 1481 538 m 7 Y s 1527 531 m 14 Y s 1574 538 m 7 Y s 1620 538 m 7 Y s 1667 538 m 7 Y s 1713 531 m 14 Y s 1760 538 m 7 Y s 1806 538 m 7 Y s 1853 538 m 7 Y s 1899 531 m 14 Y s 1946 538 m 7 Y s 1992 538 m 7 Y s 2039 538 m 7 Y s 2085 531 m 14 Y s 411
 531 m 14 Y s 364 538 m 7 Y s 318 538 m 7 Y s 2085 531 m 14 Y s 2132 538 m 7 Y s 318 187 m 358 Y s
 gsave  2254 561 2 2 C 166.096 284.736 t 90 r /Helvetica findfont 67.9729 sf 0 0 m (Data/SM) show NC gr  361 203 m -43 X s 339 220 m -21 X s 339 236 m -21 X s 339 252 m -21 X s 339 268 m -21 X s 361 285 m -43 X s 339 301 m -21 X s 339 317 m -21 X s
 339 334 m -21 X s 339 350 m -21 X s 361 366 m -43 X s 339 382 m -21 X s 339 399 m -21 X s 339 415 m -21 X s 339 431 m -21 X s 361 447 m -43 X s 339 464 m -21 X s 339 480 m -21 X s 339 496 m -21 X s 339 512 m -21 X s 361 529 m -43 X s 361 203 m -43 X
 s 339 187 m -21 X s 361 529 m -43 X s
 gsave  2254 561 2 2 C 261.008 183.044 t 0 r /Helvetica findfont 57.777 sf 0 0 m (0) show NC gr 
 gsave  2254 561 2 2 C 213.552 261.008 t 0 r /Helvetica findfont 57.777 sf 0 0 m (0.5) show NC gr 
 gsave  2254 561 2 2 C 271.177 342.361 t 0 r /Helvetica findfont 57.777 sf 0 0 m (1) show NC gr 
 gsave  2254 561 2 2 C 213.552 423.714 t 0 r /Helvetica findfont 57.777 sf 0 0 m (1.5) show NC gr 
 gsave  2254 561 2 2 C 261.008 505.067 t 0 r /Helvetica findfont 57.777 sf 0 0 m (2) show NC gr  2178 187 m 358 Y s 2135 203 m 43 X s 2157 220 m 21 X s 2157 236 m 21 X s 2157 252 m 21 X s 2157 268 m 21 X s 2135 285 m 43 X s 2157 301 m 21 X s 2157 317
 m 21 X s 2157 334 m 21 X s 2157 350 m 21 X s 2135 366 m 43 X s 2157 382 m 21 X s 2157 399 m 21 X s 2157 415 m 21 X s 2157 431 m 21 X s 2135 447 m 43 X s 2157 464 m 21 X s 2157 480 m 21 X s 2157 496 m 21 X s 2157 512 m 21 X s 2135 529 m 43 X s 2135
 203 m 43 X s 2157 187 m 21 X s 2135 529 m 43 X s 9 lw 364 353 m 6 Y s 364 359 m cl s 364 326 m -5 Y s 364 321 m cl s 457 382 m 13 Y s 457 395 m cl s 457 355 m -12 Y s 457 343 m cl s 550 371 m 25 Y s 550 396 m cl s 550 344 m -23 Y s 550 321 m cl s
 643 510 m 35 Y s 643 545 m cl s 643 483 m -63 Y s 643 420 m cl s 736 457 m 88 Y s 736 545 m cl s 736 430 m -81 Y s 736 349 m cl s 829 325 m 125 Y s 829 450 m cl s 829 298 m -76 Y s 829 222 m cl s 923 467 m 78 Y s 923 545 m cl s 923 440 m -193 Y s
 923 247 m cl s 3 lw 364 340 457 369 550 358 643 497 736 444 829 311 923 453 7 { m20} R 9 lw 1 0 0 c 6 lw black 3 lw 1 0 0 c 2178 227 m -25 -25 d s 2178 255 m -53 -53 d s 2178 284 m -82 -82 d s 2178 312 m -93 -92 d s 2069 203 m cl s 2178 341 m -93
 -93 d s 2040 203 m cl s 2178 369 m -93 -92 d s 2012 203 m cl s 2178 398 m -93 -93 d s 1992 213 m s 2178 427 m -93 -93 d s 1992 241 m s 2178 455 m -93 -92 d s 1992 270 m -2 -3 d s 2178 484 m -93 -93 d s 1992 298 m -31 -31 d s 2178 512 m -93 -92 d s
 1992 327 m -60 -60 d s 2168 530 m -83 -82 d s 1992 356 m -88 -89 d s 2139 530 m -54 -53 d s 1992 384 m -103 -102 d s 1806 199 m -11 -12 d s 2110 530 m -25 -24 d s 1992 413 m -131 -131 d s 1806 227 m -40 -40 d s 1992 441 m -160 -159 d s 1806 256 m
 -69 -69 d s 1987 465 m -274 -273 d s 1958 465 m -245 -245 d s 1930 465 m -217 -216 d s 1901 465 m -2 -2 d s 1887 450 m -174 -172 d s 1858 450 m -159 -158 d s 1829 450 m -158 -158 d s 1806 456 m -164 -164 d s 1806 485 m -186 -186 d s 1806 513 m -200
 -199 d s 1806 542 m -93 -93 d s 1704 440 m -127 -126 d s 1781 545 m -68 -67 d s 1675 440 m -126 -126 d s 1752 545 m -39 -39 d s 1646 440 m -119 -119 d s 1723 545 m -10 -10 d s 1596 418 m -96 -96 d s 1568 418 m -97 -96 d s 1434 285 m -4 -4 d s 1539
 418 m -97 -96 d s 1434 314 m -33 -33 d s 1502 410 m -129 -129 d s 1473 410 m -129 -129 d s 1444 410 m -109 -109 d s 1434 428 m -127 -127 d s 1428 451 m -150 -150 d s 1399 451 m -150 -150 d s 1371 451 m -132 -132 d s 1342 451 m -1 -1 d s 1322 431 m
 -112 -112 d s 1293 431 m -112 -112 d s 1265 431 m -17 -16 d s 1246 413 m -91 -91 d s 1218 413 m -83 -83 d s 1189 413 m -83 -83 d s 1160 413 m -5 -5 d s 1149 402 m -72 -72 d s 1062 315 m -7 -8 d s 1121 402 m -95 -95 d s 1092 402 m -95 -95 d s 1063
 402 m -94 -94 d s 1057 425 m -102 -102 d s 1029 425 m -102 -102 d s 1000 425 m -102 -102 d s 971 425 m -2 -3 d s 956 409 m -92 -92 d s 927 409 m -92 -92 d s 898 409 m -92 -92 d s 875 415 m -92 -92 d s 847 415 m -72 -71 d s 818 415 m -71 -71 d s 789
 415 m -6 -7 d s 763 388 m -45 -44 d s 734 388 m -44 -44 d s 706 388 m -42 -41 d s 674 385 m -39 -38 d s 645 385 m -39 -38 d s 616 385 m -38 -38 d s 587 385 m -37 -38 d s 558 385 m -37 -38 d s 530 385 m -33 -33 d s 496 380 m -28 -28 d s 467 380 m -27
 -28 d s 318 231 m s 439 380 m -28 -28 d s 411 352 m -1 -1 d s 318 259 m s 411 381 m -30 -30 d s 318 288 m s 382 381 m -29 -30 d s 318 317 m s 353 381 m -29 -30 d s 318 345 m s 325 381 m -7 -7 d s 6 lw black[ 4 8] 0 sd 3 lw 318 447 m 1860 X s 318 285
 m 1860 X s 1 0 0 c[  12 12 ] 0 sd 6 lw 318 366 m 1860 X s
 gr  gr showpage
end
%%EOF
