%!PS-Adobe-2.0 EPSF-2.0
%%BoundingBox:  0 0 567 521
%%Title: Distributions/met_distrSR_MB-SSd_beforeFit_forThesis.eps: canvas
%%Creator: ROOT Version 6.04/16
%%CreationDate: Tue May 19 22:02:15 2020
%%DocumentNeededResources: ProcSet (FontSetInit)
%%EndComments
%%BeginProlog
80 dict begin
/s {stroke} def /l {lineto} def /m {moveto} def /t {translate} def
/r {rotate} def /rl {roll}  def /R {repeat} def
/d {rlineto} def /rm {rmoveto} def /gr {grestore} def /f {eofill} def
/c {setrgbcolor} def /black {0 setgray} def /sd {setdash} def
/cl {closepath} def /sf {scalefont setfont} def /lw {setlinewidth} def
/box {m dup 0 exch d exch 0 d 0 exch neg d cl} def
/NC{systemdict begin initclip end}def/C{NC box clip newpath}def
/bl {box s} def /bf {gsave box gsave f grestore 1 lw [] 0 sd s grestore} def /Y { 0 exch d} def /X { 0 d} def 
/K {{pop pop 0 moveto} exch kshow} bind def
/ita {/ang 15 def gsave [1 0 ang dup sin exch cos div 1 0 0] concat} def 
/mp {newpath /y exch def /x exch def} def
/side {[w .77 mul w .23 mul] .385 w mul sd w 0 l currentpoint t -144 r} def
/mr {mp x y w2 0 360 arc} def /m24 {mr s} def /m20 {mr f} def
/mb {mp x y w2 add m w2 neg 0 d 0 w neg d w 0 d 0 w d cl} def
/mt {mp x y w2 add m w2 neg w neg d w 0 d cl} def
/m21 {mb f} def /m25 {mb s} def /m22 {mt f} def /m26{mt s} def
/m23 {mp x y w2 sub m w2 w d w neg 0 d cl f} def
/m27 {mp x y w2 add m w3 neg w2 neg d w3 w2 neg d w3 w2 d cl s} def
/m28 {mp x w2 sub y w2 sub w3 add m w3 0 d  0 w3 neg d w3 0 d 0 w3 d w3 0 d  0 w3 d w3 neg 0 d 0 w3 d w3 neg 0 d 0 w3 neg d w3 neg 0 d cl s } def
/m29 {mp gsave x w2 sub y w2 add w3 sub m currentpoint t 4 {side} repeat cl fill gr} def
/m30 {mp gsave x w2 sub y w2 add w3 sub m currentpoint t 4 {side} repeat cl s gr} def
/m31 {mp x y w2 sub m 0 w d x w2 sub y m w 0 d x w2 sub y w2 add m w w neg d x w2 sub y w2 sub m w w d s} def
/m32 {mp x y w2 sub m w2 w d w neg 0 d cl s} def
/m33 {mp x y w2 add m w3 neg w2 neg d w3 w2 neg d w3 w2 d cl f} def
/m34 {mp x w2 sub y w2 sub w3 add m w3 0 d  0 w3 neg d w3 0 d 0 w3 d w3 0 d  0 w3 d w3 neg 0 d 0 w3 d w3 neg 0 d 0 w3 neg d w3 neg 0 d cl f } def
/m2 {mp x y w2 sub m 0 w d x w2 sub y m w 0 d s} def
/m5 {mp x w2 sub y w2 sub m w w d x w2 sub y w2 add m w w neg d s} def
%%IncludeResource: ProcSet (FontSetInit)
%%IncludeResource: font Times-Roman
%%IncludeResource: font Times-Italic
%%IncludeResource: font Times-Bold
%%IncludeResource: font Times-BoldItalic
%%IncludeResource: font Helvetica
%%IncludeResource: font Helvetica-Oblique
%%IncludeResource: font Helvetica-Bold
%%IncludeResource: font Helvetica-BoldOblique
%%IncludeResource: font Courier
%%IncludeResource: font Courier-Oblique
%%IncludeResource: font Courier-Bold
%%IncludeResource: font Courier-BoldOblique
%%IncludeResource: font Symbol
%%IncludeResource: font ZapfDingbats
/reEncode {exch findfont dup length dict begin {1 index /FID eq  {pop pop} {def} ifelse } forall /Encoding exch def currentdict end dup /FontName get exch definefont pop } def [/Times-Bold /Times-Italic /Times-BoldItalic /Helvetica /Helvetica-Oblique
 /Helvetica-Bold /Helvetica-BoldOblique /Courier /Courier-Oblique /Courier-Bold /Courier-BoldOblique /Times-Roman /AvantGarde-Book /AvantGarde-BookOblique /AvantGarde-Demi /AvantGarde-DemiOblique /Bookman-Demi /Bookman-DemiItalic /Bookman-Light
 /Bookman-LightItalic /Helvetica-Narrow /Helvetica-Narrow-Bold /Helvetica-Narrow-BoldOblique /Helvetica-Narrow-Oblique /NewCenturySchlbk-Roman /NewCenturySchlbk-Bold /NewCenturySchlbk-BoldItalic /NewCenturySchlbk-Italic /Palatino-Bold
 /Palatino-BoldItalic /Palatino-Italic /Palatino-Roman ] {ISOLatin1Encoding reEncode } forall
%%EndProlog
%%BeginSetup
%%EndSetup
newpath  gsave  .25 .25 scale  gsave  0 0 t black[  ] 0 sd 3 lw 1 1 1 c 2268 2085 0 0 bf black 1 1 1 c 2263 1770 2 313 bf black 1 1 1 c black 1860 1145 319 584 bl 1 1 1 c black 1860 1145 319 584 bl 6 lw 1 1 1 c black 3 lw /w 33 def /w2 {w 2 div} def
 /w3 {w 3 div} def 366 1262 m20 6 lw 3 lw 459 1242 m20 6 lw 3 lw 552 1204 m20 6 lw 3 lw 645 1164 m20 6 lw 3 lw 738 1122 m20 6 lw 3 lw 831 1080 m20 6 lw 3 lw 924 1041 m20 6 lw 3 lw 1017 1006 m20 6 lw 3 lw 1110 972 m20 6 lw 3 lw 1203 933 m20 6 lw 1296
 874 m 2 Y s 3 lw 1296 889 m20 6 lw 1389 804 m 14 Y s 1389 845 m 5 Y s 3 lw 1389 831 m20 6 lw 1482 732 m 37 Y s 1482 796 m 13 Y s 3 lw 1482 782 m20 6 lw 1575 777 m 21 Y s 1575 825 m 8 Y s 3 lw 1575 812 m20 6 lw 1668 732 m 37 Y s 1668 796 m 13 Y s 3
 lw 1668 782 m20 6 lw 1761 687 m 58 Y s 1761 772 m 18 Y s 3 lw 1761 759 m20 6 lw 2040 584 m 121 Y s 2040 732 m 27 Y s 3 lw 2040 718 m20 6 lw 2133 584 m 121 Y s 2133 732 m 27 Y s 3 lw 2133 718 m20 6 lw 3 lw 319 584 m 1860 X s
 gsave  2263 1770 2 313 C 1949.08 355.92 t 0 r /Helvetica findfont 81.3741 sf 0 0 m ( [GeV]) show NC gr 
 gsave  2263 1770 2 313 C 1837.22 396.596 t 0 r /Helvetica findfont 54.2494 sf 0 0 m (miss) show NC gr 
 gsave  2263 1770 2 313 C 1837.22 332.192 t 0 r /Helvetica findfont 54.2494 sf 0 0 m (T) show NC gr 
 gsave  2263 1770 2 313 C 1786.38 355.92 t 0 r /Helvetica findfont 81.3741 sf 0 0 m (E) show NC gr  412 584 m cl s 459 584 m cl s 505 584 m cl s 552 584 m cl s 598 584 m cl s 645 584 m cl s 691 584 m cl s 738 584 m cl s 784 584 m cl s 831 584 m cl s
 877 584 m cl s 924 584 m cl s 970 584 m cl s 1017 584 m cl s 1063 584 m cl s 1110 584 m cl s 1156 584 m cl s 1203 584 m cl s 1249 584 m cl s 1296 584 m cl s 1342 584 m cl s 1389 584 m cl s 1435 584 m cl s 1482 584 m cl s 1528 584 m cl s 1575 584 m
 cl s 1621 584 m cl s 1668 584 m cl s 1714 584 m cl s 1761 584 m cl s 1807 584 m cl s 1854 584 m cl s 1900 584 m cl s 1947 584 m cl s 1993 584 m cl s 2040 584 m cl s 2086 584 m cl s 412 584 m cl s 366 584 m cl s 319 584 m cl s 2086 584 m cl s 2133
 584 m cl s 2179 584 m cl s 319 1729 m 1860 X s 412 1729 m cl s 459 1729 m cl s 505 1729 m cl s 552 1729 m cl s 598 1729 m cl s 645 1729 m cl s 691 1729 m cl s 738 1729 m cl s 784 1729 m cl s 831 1729 m cl s 877 1729 m cl s 924 1729 m cl s 970 1729 m
 cl s 1017 1729 m cl s 1063 1729 m cl s 1110 1729 m cl s 1156 1729 m cl s 1203 1729 m cl s 1249 1729 m cl s 1296 1729 m cl s 1342 1729 m cl s 1389 1729 m cl s 1435 1729 m cl s 1482 1729 m cl s 1528 1729 m cl s 1575 1729 m cl s 1621 1729 m cl s 1668
 1729 m cl s 1714 1729 m cl s 1761 1729 m cl s 1807 1729 m cl s 1854 1729 m cl s 1900 1729 m cl s 1947 1729 m cl s 1993 1729 m cl s 2040 1729 m cl s 2086 1729 m cl s 412 1729 m cl s 366 1729 m cl s 319 1729 m cl s 2086 1729 m cl s 2133 1729 m cl s
 2179 1729 m cl s 319 584 m 1145 Y s
 gsave  2263 1770 2 313 C 166.096 1091.49 t 90 r /Helvetica findfont 81.3741 sf 0 0 m (Events / 100 GeV) show NC gr  341 625 m -22 X s 341 648 m -22 X s 341 665 m -22 X s 341 678 m -22 X s 341 688 m -22 X s 341 697 m -22 X s 341 705 m -22 X s 341 712
 m -22 X s 363 718 m -44 X s
 gsave  2263 1770 2 313 C 300.555 691.086 t 0 r  -36 0 t /Helvetica findfont 64.4212 sf 0 0 m (1) show NC gr  341 759 m -22 X s 341 782 m -22 X s 341 799 m -22 X s 341 812 m -22 X s 341 822 m -22 X s 341 831 m -22 X s 341 839 m -22 X s 341 846 m -22
 X s 363 852 m -44 X s
 gsave  2263 1770 2 313 C 300.555 824.979 t 0 r  -73 0 t /Helvetica findfont 64.4212 sf 0 0 m (10) show NC gr  341 892 m -22 X s 341 916 m -22 X s 341 933 m -22 X s 341 946 m -22 X s 341 956 m -22 X s 341 965 m -22 X s 341 973 m -22 X s 341 980 m -22
 X s 363 986 m -44 X s
 gsave  2263 1770 2 313 C 274.567 983.016 t 0 r /Helvetica findfont 44.0776 sf 0 0 m (2) show NC gr 
 gsave  2263 1770 2 313 C 203.383 955.898 t 0 r /Helvetica findfont 64.4212 sf 0 0 m (10) show NC gr  341 1026 m -22 X s 341 1050 m -22 X s 341 1067 m -22 X s 341 1080 m -22 X s 341 1090 m -22 X s 341 1099 m -22 X s 341 1107 m -22 X s 341 1114 m -22
 X s 363 1120 m -44 X s
 gsave  2263 1770 2 313 C 274.567 1121.99 t 0 r /Helvetica findfont 44.0776 sf 0 0 m (3) show NC gr 
 gsave  2263 1770 2 313 C 203.383 1091.49 t 0 r /Helvetica findfont 64.4212 sf 0 0 m (10) show NC gr  341 1160 m -22 X s 341 1184 m -22 X s 341 1200 m -22 X s 341 1213 m -22 X s 341 1224 m -22 X s 341 1233 m -22 X s 341 1241 m -22 X s 341 1248 m -22
 X s 363 1254 m -44 X s
 gsave  2263 1770 2 313 C 274.567 1250.8 t 0 r /Helvetica findfont 44.0776 sf 0 0 m (4) show NC gr 
 gsave  2263 1770 2 313 C 203.383 1223.69 t 0 r /Helvetica findfont 64.4212 sf 0 0 m (10) show NC gr  341 1294 m -22 X s 341 1318 m -22 X s 341 1334 m -22 X s 341 1347 m -22 X s 341 1358 m -22 X s 341 1367 m -22 X s 341 1375 m -22 X s 341 1382 m -22
 X s 363 1388 m -44 X s
 gsave  2263 1770 2 313 C 274.567 1389.78 t 0 r /Helvetica findfont 44.0776 sf 0 0 m (5) show NC gr 
 gsave  2263 1770 2 313 C 203.383 1359.27 t 0 r /Helvetica findfont 64.4212 sf 0 0 m (10) show NC gr  341 1428 m -22 X s 341 1452 m -22 X s 341 1468 m -22 X s 341 1481 m -22 X s 341 1492 m -22 X s 341 1501 m -22 X s 341 1509 m -22 X s 341 1515 m -22
 X s 363 1522 m -44 X s
 gsave  2263 1770 2 313 C 274.567 1521.98 t 0 r /Helvetica findfont 44.0776 sf 0 0 m (6) show NC gr 
 gsave  2263 1770 2 313 C 203.383 1491.47 t 0 r /Helvetica findfont 64.4212 sf 0 0 m (10) show NC gr  341 1562 m -22 X s 341 1585 m -22 X s 341 1602 m -22 X s 341 1615 m -22 X s 341 1626 m -22 X s 341 1635 m -22 X s 341 1642 m -22 X s 341 1649 m -22
 X s 363 1655 m -44 X s
 gsave  2263 1770 2 313 C 274.567 1654.18 t 0 r /Helvetica findfont 44.0776 sf 0 0 m (7) show NC gr 
 gsave  2263 1770 2 313 C 203.383 1627.06 t 0 r /Helvetica findfont 64.4212 sf 0 0 m (10) show NC gr  341 1696 m -22 X s 341 1719 m -22 X s 2179 584 m 1145 Y s 2157 625 m 22 X s 2157 648 m 22 X s 2157 665 m 22 X s 2157 678 m 22 X s 2157 688 m 22 X s
 2157 697 m 22 X s 2157 705 m 22 X s 2157 712 m 22 X s 2136 718 m 43 X s 2157 759 m 22 X s 2157 782 m 22 X s 2157 799 m 22 X s 2157 812 m 22 X s 2157 822 m 22 X s 2157 831 m 22 X s 2157 839 m 22 X s 2157 846 m 22 X s 2136 852 m 43 X s 2157 892 m 22 X
 s 2157 916 m 22 X s 2157 933 m 22 X s 2157 946 m 22 X s 2157 956 m 22 X s 2157 965 m 22 X s 2157 973 m 22 X s 2157 980 m 22 X s 2136 986 m 43 X s 2157 1026 m 22 X s 2157 1050 m 22 X s 2157 1067 m 22 X s 2157 1080 m 22 X s 2157 1090 m 22 X s 2157
 1099 m 22 X s 2157 1107 m 22 X s 2157 1114 m 22 X s 2136 1120 m 43 X s 2157 1160 m 22 X s 2157 1184 m 22 X s 2157 1200 m 22 X s 2157 1213 m 22 X s 2157 1224 m 22 X s 2157 1233 m 22 X s 2157 1241 m 22 X s 2157 1248 m 22 X s 2136 1254 m 43 X s 2157
 1294 m 22 X s 2157 1318 m 22 X s 2157 1334 m 22 X s 2157 1347 m 22 X s 2157 1358 m 22 X s 2157 1367 m 22 X s 2157 1375 m 22 X s 2157 1382 m 22 X s 2136 1388 m 43 X s 2157 1428 m 22 X s 2157 1452 m 22 X s 2157 1468 m 22 X s 2157 1481 m 22 X s 2157
 1492 m 22 X s 2157 1501 m 22 X s 2157 1509 m 22 X s 2157 1515 m 22 X s 2136 1522 m 43 X s 2157 1562 m 22 X s 2157 1585 m 22 X s 2157 1602 m 22 X s 2157 1615 m 22 X s 2157 1626 m 22 X s 2157 1635 m 22 X s 2157 1642 m 22 X s 2157 1649 m 22 X s 2136
 1655 m 43 X s 2157 1696 m 22 X s 2157 1719 m 22 X s 0.4 0.6 1 c black 0.4 0.6 1 c 319 584 m 679 Y 93 X -21 Y 93 X -36 Y 93 X -42 Y 93 X -42 Y 93 X -43 Y 93 X -37 Y 93 X -38 Y 93 X -34 Y 93 X -37 Y 93 X -33 Y 93 X -29 Y 93 X -27 Y 93 X -31 Y 93 X -49
 Y 93 X -39 Y 93 X -4 Y 93 X -30 Y 93 X -63 Y 93 X 61 Y 93 X -105 Y f black 0.4 0.6 1 c black 319 1263 m 93 X -21 Y 93 X -36 Y 93 X -42 Y 93 X -42 Y 93 X -43 Y 93 X -37 Y 93 X -38 Y 93 X -34 Y 93 X -37 Y 93 X -33 Y 93 X -29 Y 93 X -27 Y 93 X -31 Y 93
 X -49 Y 93 X -39 Y 93 X -4 Y 93 X -30 Y 93 X -63 Y 93 X 61 Y 93 X s 0.999 0.999 0.999 c black 0.999 0.999 0.999 c 319 584 m 657 Y 93 X -18 Y 93 X -34 Y 93 X -40 Y 93 X -41 Y 93 X -42 Y 93 X -37 Y 93 X -38 Y 93 X -34 Y 93 X -35 Y 93 X -32 Y 93 X -30
 Y 93 X -26 Y 93 X -29 Y 93 X -55 Y 93 X -36 Y 93 X -9 Y 93 X -68 Y 93 X -31 Y 93 X 73 Y 93 X -95 Y f black 0.999 0.999 0.999 c black 319 1241 m 93 X -18 Y 93 X -34 Y 93 X -40 Y 93 X -41 Y 93 X -42 Y 93 X -37 Y 93 X -38 Y 93 X -34 Y 93 X -35 Y 93 X
 -32 Y 93 X -30 Y 93 X -26 Y 93 X -29 Y 93 X -55 Y 93 X -36 Y 93 X -9 Y 93 X -68 Y 93 X -31 Y 93 X 73 Y 93 X s 1 1 1 c black 319 1241 m 93 X -18 Y 93 X -34 Y 93 X -40 Y 93 X -41 Y 93 X -42 Y 93 X -37 Y 93 X -38 Y 93 X -34 Y 93 X -35 Y 93 X -32 Y 93 X
 -30 Y 93 X -26 Y 93 X -29 Y 93 X -55 Y 93 X -36 Y 93 X -9 Y 93 X -68 Y 93 X -31 Y 93 X 73 Y 93 X s 0.6 1 0.6 c black 0.6 1 0.6 c 319 584 m 657 Y 93 X -18 Y 93 X -34 Y 93 X -40 Y 93 X -41 Y 93 X -42 Y 93 X -37 Y 93 X -38 Y 93 X -34 Y 93 X -35 Y 93 X
 -32 Y 93 X -30 Y 93 X -26 Y 93 X -29 Y 93 X -55 Y 93 X -36 Y 93 X -9 Y 93 X -68 Y 93 X -31 Y 93 X 73 Y 93 X -95 Y f black 0.6 1 0.6 c black 319 1241 m 93 X -18 Y 93 X -34 Y 93 X -40 Y 93 X -41 Y 93 X -42 Y 93 X -37 Y 93 X -38 Y 93 X -34 Y 93 X -35 Y
 93 X -32 Y 93 X -30 Y 93 X -26 Y 93 X -29 Y 93 X -55 Y 93 X -36 Y 93 X -9 Y 93 X -68 Y 93 X -31 Y 93 X 73 Y 93 X s 0.999 0.999 0.999 c black 0.999 0.999 0.999 c 319 584 m 646 Y 93 X -15 Y 93 X -32 Y 93 X -38 Y 93 X -40 Y 93 X -42 Y 93 X -36 Y 93 X
 -37 Y 93 X -35 Y 93 X -34 Y 93 X -34 Y 93 X -30 Y 93 X -23 Y 93 X -33 Y 93 X -51 Y 93 X -37 Y 93 X -8 Y 93 X -68 Y 93 X -31 Y 93 X 74 Y 93 X -96 Y f black 0.999 0.999 0.999 c black 319 1230 m 93 X -15 Y 93 X -32 Y 93 X -38 Y 93 X -40 Y 93 X -42 Y 93
 X -36 Y 93 X -37 Y 93 X -35 Y 93 X -34 Y 93 X -34 Y 93 X -30 Y 93 X -23 Y 93 X -33 Y 93 X -51 Y 93 X -37 Y 93 X -8 Y 93 X -68 Y 93 X -31 Y 93 X 74 Y 93 X s 1 1 1 c black 319 1230 m 93 X -15 Y 93 X -32 Y 93 X -38 Y 93 X -40 Y 93 X -42 Y 93 X -36 Y 93
 X -37 Y 93 X -35 Y 93 X -34 Y 93 X -34 Y 93 X -30 Y 93 X -23 Y 93 X -33 Y 93 X -51 Y 93 X -37 Y 93 X -8 Y 93 X -68 Y 93 X -31 Y 93 X 74 Y 93 X s 1 0.8 0.4 c black 1 0.8 0.4 c 319 584 m 646 Y 93 X -15 Y 93 X -32 Y 93 X -38 Y 93 X -40 Y 93 X -42 Y 93
 X -36 Y 93 X -37 Y 93 X -35 Y 93 X -34 Y 93 X -34 Y 93 X -30 Y 93 X -23 Y 93 X -33 Y 93 X -51 Y 93 X -37 Y 93 X -8 Y 93 X -68 Y 93 X -31 Y 93 X 74 Y 93 X -96 Y f black 1 0.8 0.4 c black 319 1230 m 93 X -15 Y 93 X -32 Y 93 X -38 Y 93 X -40 Y 93 X -42
 Y 93 X -36 Y 93 X -37 Y 93 X -35 Y 93 X -34 Y 93 X -34 Y 93 X -30 Y 93 X -23 Y 93 X -33 Y 93 X -51 Y 93 X -37 Y 93 X -8 Y 93 X -68 Y 93 X -31 Y 93 X 74 Y 93 X s 0.999 0.999 0.999 c black 0.999 0.999 0.999 c 319 584 m 497 Y 93 X -13 Y 93 X -32 Y 93 X
 -35 Y 93 X -39 Y 93 X -43 Y 93 X -31 Y 93 X -46 Y 93 X -21 Y 93 X -25 Y 93 X -27 Y 93 X -66 Y 93 X 6 Y 93 X -125 Y 93 X 6 Y 93 X -6 Y 372 X 18 Y 93 X -18 Y f black 0.999 0.999 0.999 c black 319 1081 m 93 X -13 Y 93 X -32 Y 93 X -35 Y 93 X -39 Y 93 X
 -43 Y 93 X -31 Y 93 X -46 Y 93 X -21 Y 93 X -25 Y 93 X -27 Y 93 X -66 Y 93 X 6 Y 93 X -125 Y 93 X 6 Y 93 X -6 Y 372 X 18 Y 93 X s 1 1 1 c black 319 1081 m 93 X -13 Y 93 X -32 Y 93 X -35 Y 93 X -39 Y 93 X -43 Y 93 X -31 Y 93 X -46 Y 93 X -21 Y 93 X
 -25 Y 93 X -27 Y 93 X -66 Y 93 X 6 Y 93 X -125 Y 93 X 6 Y 93 X -6 Y 372 X 18 Y 93 X s 1 0.4 0.6 c black 1 0.4 0.6 c 319 584 m 497 Y 93 X -13 Y 93 X -32 Y 93 X -35 Y 93 X -39 Y 93 X -43 Y 93 X -31 Y 93 X -46 Y 93 X -21 Y 93 X -25 Y 93 X -27 Y 93 X
 -66 Y 93 X 6 Y 93 X -125 Y 93 X 6 Y 93 X -6 Y 372 X 18 Y 93 X -18 Y f black 1 0.4 0.6 c black 319 1081 m 93 X -13 Y 93 X -32 Y 93 X -35 Y 93 X -39 Y 93 X -43 Y 93 X -31 Y 93 X -46 Y 93 X -21 Y 93 X -25 Y 93 X -27 Y 93 X -66 Y 93 X 6 Y 93 X -125 Y 93
 X 6 Y 93 X -6 Y 372 X 18 Y 93 X s 0.999 0.999 0.999 c black 0.999 0.999 0.999 c 319 584 m 337 Y 93 X -77 Y 93 X -104 Y 93 X -67 Y 93 X -69 Y 93 X -20 Y 1395 X f black 0.999 0.999 0.999 c black 319 921 m 93 X -77 Y 93 X -104 Y 93 X -67 Y 93 X -69 Y
 93 X -20 Y 1395 X s 1 1 1 c black 319 921 m 93 X -77 Y 93 X -104 Y 93 X -67 Y 93 X -69 Y 93 X -20 Y 1395 X s 0 0 0.4 c black 0 0 0.4 c 319 584 m 337 Y 93 X -77 Y 93 X -104 Y 93 X -67 Y 93 X -69 Y 93 X -20 Y 1395 X f black 0 0 0.4 c black 319 921 m
 93 X -77 Y 93 X -104 Y 93 X -67 Y 93 X -69 Y 93 X -20 Y 1395 X s 1 0 0 c 6 lw 1 1 1 c black 1 0 0 c 319 1263 m 93 X -21 Y 93 X -36 Y 93 X -42 Y 93 X -42 Y 93 X -43 Y 93 X -37 Y 93 X -38 Y 93 X -34 Y 93 X -37 Y 93 X -33 Y 93 X -29 Y 93 X -27 Y 93 X
 -31 Y 93 X -49 Y 93 X -39 Y 93 X -4 Y 93 X -30 Y 93 X -63 Y 93 X 61 Y 93 X s black 3 lw 1 0 0 c 1 lw << /PatternType 1 /PaintType 2 /TilingType 1 /BBox [ 0 0 100 100 ] /XStep 100 /YStep 100 /PaintProc { begin gsave 0 100 m 100 0 l s gr end } >> [
 0.24 0 0 0.24 0 0 ] makepattern /P05 exch def /cs {[/Pattern /DeviceRGB] setcolorspace} def /FA {f [/DeviceRGB] setcolorspace} def cs 1 0 0 P05 setcolor 319 584 m 682 Y 93 X -21 Y 93 X -36 Y 93 X -42 Y 93 X -42 Y 93 X -43 Y 93 X -37 Y 93 X -38 Y 93
 X -34 Y 93 X -36 Y 93 X -33 Y 93 X -26 Y 93 X -28 Y 93 X -25 Y 93 X -53 Y 93 X -37 Y 186 X -20 Y 93 X -72 Y 93 X 64 Y 93 X -123 Y 79 Y -93 X -53 Y -93 X 37 Y -93 X 55 Y -93 X 12 Y -93 X 40 Y -93 X 43 Y -93 X 40 Y -93 X 25 Y -93 X 33 Y -93 X 33 Y -93
 X 38 Y -93 X 35 Y -93 X 38 Y -93 X 37 Y -93 X 44 Y -93 X 41 Y -93 X 42 Y -93 X 36 Y -93 X 21 Y -93 X -676 Y FA 6 lw 1 1 1 c 15 lw 1389 811 m -6 Y s 1389 805 m cl s 1482 802 m 9 Y s 1482 811 m cl s 1482 762 m -25 Y s 1482 737 m cl s 1575 832 m 2 Y s
 1575 834 m cl s 1575 791 m -12 Y s 1575 779 m cl s 1668 802 m 9 Y s 1668 811 m cl s 1668 762 m -25 Y s 1668 737 m cl s 1761 779 m 14 Y s 1761 793 m cl s 1761 738 m -40 Y s 1761 698 m cl s 2040 739 m 27 Y s 2040 766 m cl s 2040 698 m -81 Y s 2040 617
 m cl s 2133 739 m 27 Y s 2133 766 m cl s 2133 698 m -81 Y s 2133 617 m cl s black 1 1 1 c 3 lw /w 43 def /w2 {w 2 div} def /w3 {w 3 div} def 366 1262 459 1242 552 1204 645 1164 738 1122 831 1080 924 1041 1017 1006 1110 972 1203 933 1296 889 1389 831
 1482 782 1575 812 1668 782 1761 759 16 { m20} R 15 lw 3 lw 2040 718 2133 718 2 { m20} R 15 lw black 6 lw 1 1 1 c black 3 lw /w 33 def /w2 {w 2 div} def /w3 {w 3 div} def 366 1262 m20 6 lw 3 lw 459 1242 m20 6 lw 3 lw 552 1204 m20 6 lw 3 lw 645 1164
 m20 6 lw 3 lw 738 1122 m20 6 lw 3 lw 831 1080 m20 6 lw 3 lw 924 1041 m20 6 lw 3 lw 1017 1006 m20 6 lw 3 lw 1110 972 m20 6 lw 3 lw 1203 933 m20 6 lw 1296 874 m 2 Y s 3 lw 1296 889 m20 6 lw 1389 804 m 14 Y s 1389 845 m 5 Y s 3 lw 1389 831 m20 6 lw
 1482 732 m 37 Y s 1482 796 m 13 Y s 3 lw 1482 782 m20 6 lw 1575 777 m 21 Y s 1575 825 m 8 Y s 3 lw 1575 812 m20 6 lw 1668 732 m 37 Y s 1668 796 m 13 Y s 3 lw 1668 782 m20 6 lw 1761 687 m 58 Y s 1761 772 m 18 Y s 3 lw 1761 759 m20 6 lw 2040 584 m 121
 Y s 2040 732 m 27 Y s 3 lw 2040 718 m20 6 lw 2133 584 m 121 Y s 2133 732 m 27 Y s 3 lw 2133 718 m20 6 lw 1296 876 m -2 Y s 1296 874 m cl s 1389 845 m 6 Y s 1389 851 m cl s 1389 818 m -13 Y s 1389 805 m cl s 1482 796 m 15 Y s 1482 811 m cl s 1482 769
 m -32 Y s 1482 737 m cl s 1575 825 m 9 Y s 1575 834 m cl s 1575 798 m -19 Y s 1575 779 m cl s 1668 796 m 15 Y s 1668 811 m cl s 1668 769 m -32 Y s 1668 737 m cl s 1761 772 m 21 Y s 1761 793 m cl s 1761 745 m -47 Y s 1761 698 m cl s 2040 732 m 34 Y s
 2040 766 m cl s 2040 705 m -88 Y s 2040 617 m cl s 2133 732 m 34 Y s 2133 766 m cl s 2133 705 m -88 Y s 2133 617 m cl s 3 lw 366 1262 459 1242 552 1204 645 1164 738 1122 831 1080 924 1041 1017 1006 1110 972 1203 933 1296 889 1389 831 1482 782 1575
 812 1668 782 1761 759 16 { m20} R 6 lw 3 lw 2040 718 2133 718 2 { m20} R 6 lw 3 lw 319 584 m 1860 X s 412 584 m cl s 459 584 m cl s 505 584 m cl s 552 584 m cl s 598 584 m cl s 645 584 m cl s 691 584 m cl s 738 584 m cl s 784 584 m cl s 831 584 m cl
 s 877 584 m cl s 924 584 m cl s 970 584 m cl s 1017 584 m cl s 1063 584 m cl s 1110 584 m cl s 1156 584 m cl s 1203 584 m cl s 1249 584 m cl s 1296 584 m cl s 1342 584 m cl s 1389 584 m cl s 1435 584 m cl s 1482 584 m cl s 1528 584 m cl s 1575 584 m
 cl s 1621 584 m cl s 1668 584 m cl s 1714 584 m cl s 1761 584 m cl s 1807 584 m cl s 1854 584 m cl s 1900 584 m cl s 1947 584 m cl s 1993 584 m cl s 2040 584 m cl s 2086 584 m cl s 412 584 m cl s 366 584 m cl s 319 584 m cl s 2086 584 m cl s 2133
 584 m cl s 2179 584 m cl s 319 1729 m 1860 X s 412 1729 m cl s 459 1729 m cl s 505 1729 m cl s 552 1729 m cl s 598 1729 m cl s 645 1729 m cl s 691 1729 m cl s 738 1729 m cl s 784 1729 m cl s 831 1729 m cl s 877 1729 m cl s 924 1729 m cl s 970 1729 m
 cl s 1017 1729 m cl s 1063 1729 m cl s 1110 1729 m cl s 1156 1729 m cl s 1203 1729 m cl s 1249 1729 m cl s 1296 1729 m cl s 1342 1729 m cl s 1389 1729 m cl s 1435 1729 m cl s 1482 1729 m cl s 1528 1729 m cl s 1575 1729 m cl s 1621 1729 m cl s 1668
 1729 m cl s 1714 1729 m cl s 1761 1729 m cl s 1807 1729 m cl s 1854 1729 m cl s 1900 1729 m cl s 1947 1729 m cl s 1993 1729 m cl s 2040 1729 m cl s 2086 1729 m cl s 412 1729 m cl s 366 1729 m cl s 319 1729 m cl s 2086 1729 m cl s 2133 1729 m cl s
 2179 1729 m cl s 319 584 m 1145 Y s 341 625 m -22 X s 341 648 m -22 X s 341 665 m -22 X s 341 678 m -22 X s 341 688 m -22 X s 341 697 m -22 X s 341 705 m -22 X s 341 712 m -22 X s 363 718 m -44 X s 341 759 m -22 X s 341 782 m -22 X s 341 799 m -22 X
 s 341 812 m -22 X s 341 822 m -22 X s 341 831 m -22 X s 341 839 m -22 X s 341 846 m -22 X s 363 852 m -44 X s 341 892 m -22 X s 341 916 m -22 X s 341 933 m -22 X s 341 946 m -22 X s 341 956 m -22 X s 341 965 m -22 X s 341 973 m -22 X s 341 980 m -22
 X s 363 986 m -44 X s 341 1026 m -22 X s 341 1050 m -22 X s 341 1067 m -22 X s 341 1080 m -22 X s 341 1090 m -22 X s 341 1099 m -22 X s 341 1107 m -22 X s 341 1114 m -22 X s 363 1120 m -44 X s 341 1160 m -22 X s 341 1184 m -22 X s 341 1200 m -22 X s
 341 1213 m -22 X s 341 1224 m -22 X s 341 1233 m -22 X s 341 1241 m -22 X s 341 1248 m -22 X s 363 1254 m -44 X s 341 1294 m -22 X s 341 1318 m -22 X s 341 1334 m -22 X s 341 1347 m -22 X s 341 1358 m -22 X s 341 1367 m -22 X s 341 1375 m -22 X s
 341 1382 m -22 X s 363 1388 m -44 X s 341 1428 m -22 X s 341 1452 m -22 X s 341 1468 m -22 X s 341 1481 m -22 X s 341 1492 m -22 X s 341 1501 m -22 X s 341 1509 m -22 X s 341 1515 m -22 X s 363 1522 m -44 X s 341 1562 m -22 X s 341 1585 m -22 X s
 341 1602 m -22 X s 341 1615 m -22 X s 341 1626 m -22 X s 341 1635 m -22 X s 341 1642 m -22 X s 341 1649 m -22 X s 363 1655 m -44 X s 341 1696 m -22 X s 341 1719 m -22 X s 2179 584 m 1145 Y s 2157 625 m 22 X s 2157 648 m 22 X s 2157 665 m 22 X s 2157
 678 m 22 X s 2157 688 m 22 X s 2157 697 m 22 X s 2157 705 m 22 X s 2157 712 m 22 X s 2136 718 m 43 X s 2157 759 m 22 X s 2157 782 m 22 X s 2157 799 m 22 X s 2157 812 m 22 X s 2157 822 m 22 X s 2157 831 m 22 X s 2157 839 m 22 X s 2157 846 m 22 X s
 2136 852 m 43 X s 2157 892 m 22 X s 2157 916 m 22 X s 2157 933 m 22 X s 2157 946 m 22 X s 2157 956 m 22 X s 2157 965 m 22 X s 2157 973 m 22 X s 2157 980 m 22 X s 2136 986 m 43 X s 2157 1026 m 22 X s 2157 1050 m 22 X s 2157 1067 m 22 X s 2157 1080 m
 22 X s 2157 1090 m 22 X s 2157 1099 m 22 X s 2157 1107 m 22 X s 2157 1114 m 22 X s 2136 1120 m 43 X s 2157 1160 m 22 X s 2157 1184 m 22 X s 2157 1200 m 22 X s 2157 1213 m 22 X s 2157 1224 m 22 X s 2157 1233 m 22 X s 2157 1241 m 22 X s 2157 1248 m 22
 X s 2136 1254 m 43 X s 2157 1294 m 22 X s 2157 1318 m 22 X s 2157 1334 m 22 X s 2157 1347 m 22 X s 2157 1358 m 22 X s 2157 1367 m 22 X s 2157 1375 m 22 X s 2157 1382 m 22 X s 2136 1388 m 43 X s 2157 1428 m 22 X s 2157 1452 m 22 X s 2157 1468 m 22 X
 s 2157 1481 m 22 X s 2157 1492 m 22 X s 2157 1501 m 22 X s 2157 1509 m 22 X s 2157 1515 m 22 X s 2136 1522 m 43 X s 2157 1562 m 22 X s 2157 1585 m 22 X s 2157 1602 m 22 X s 2157 1615 m 22 X s 2157 1626 m 22 X s 2157 1635 m 22 X s 2157 1642 m 22 X s
 2157 1649 m 22 X s 2136 1655 m 43 X s 2157 1696 m 22 X s 2157 1719 m 22 X s
 gsave  2263 1770 2 313 C 406.765 1447.41 t 0 r /Helvetica findfont 64.4212 sf 0 0 m (SR for MB\255SSd) show NC gr 
 gsave  2263 1770 2 313 C 1464.36 1630.45 t 0 r /Helvetica findfont 64.4212 sf 0 0 m (SM Total) show NC gr  1 1 1 c 1338 1616 m 107 X 64 Y -107 X f 1 0 0 c 6 lw 1338 1648 m 107 X s black
 gsave  2263 1770 2 313 C 1464.36 1538.93 t 0 r /Helvetica findfont 64.4212 sf 0 0 m (Data) show NC gr  1391 1529 m 55 Y s 3 lw 1391 1557 m20 6 lw
 gsave  2263 1770 2 313 C 1464.36 1447.41 t 0 r /Helvetica findfont 64.4212 sf 0 0 m (W+jets) show NC gr  0.4 0.6 1 c 3 lw 1338 1434 m 107 X 64 Y -107 X f 6 lw black 3 lw 1338 1498 m 107 X s 1338 1434 m 107 X s 1445 1434 m 64 Y s 1338 1434 m 64 Y s
 gsave  2263 1770 2 313 C 1498.25 1355.88 t 0 r /Helvetica findfont 64.4212 sf 0 0 m (\(+EW\) & single top) show NC gr 
 gsave  2263 1770 2 313 C 1481.3 1355.88 t 0 r /Helvetica findfont 64.4212 sf 0 0 m (t) show NC gr  1481 1407 m 17 X s
 gsave  2263 1770 2 313 C 1464.36 1355.88 t 0 r /Helvetica findfont 64.4212 sf 0 0 m (t) show NC gr  0.6 1 0.6 c 1338 1343 m 107 X 63 Y -107 X f black 1338 1406 m 107 X s 1338 1343 m 107 X s 1445 1343 m 63 Y s 1338 1343 m 63 Y s
 gsave  2263 1770 2 313 C 1464.36 1264.36 t 0 r /Helvetica findfont 64.4212 sf 0 0 m (Z+jets) show NC gr  1 0.8 0.4 c 1338 1252 m 107 X 63 Y -107 X f black 1338 1315 m 107 X s 1338 1252 m 107 X s 1445 1252 m 63 Y s 1338 1252 m 63 Y s
 gsave  2263 1770 2 313 C 1464.36 1172.84 t 0 r /Helvetica findfont 64.4212 sf 0 0 m (Diboson) show NC gr  1 0.4 0.6 c 1338 1161 m 107 X 63 Y -107 X f black 1338 1224 m 107 X s 1338 1161 m 107 X s 1445 1161 m 63 Y s 1338 1161 m 63 Y s
 gsave  2263 1770 2 313 C 1464.36 1081.32 t 0 r /Helvetica findfont 64.4212 sf 0 0 m (Multi\255jet) show NC gr  0 0 0.4 c 1338 1070 m 107 X 63 Y -107 X f black 1338 1133 m 107 X s 1338 1070 m 107 X s 1445 1070 m 63 Y s 1338 1070 m 63 Y s
 gsave  2263 1770 2 313 C 911.832 1566.05 t 0 r /Helvetica findfont 44.0776 sf 0 0 m (\2551) show NC gr 
 gsave  2263 1770 2 313 C 471.17 1535.54 t 0 r /Helvetica findfont 64.4212 sf 0 0 m (=13TeV, 139 fb) show NC gr 
 gsave  2263 1770 2 313 C 440.662 1535.54 t 0 r /Helvetica findfont 64.4212 sf 0 0 m (s) show NC gr  6 lw 420 1573 m 7 -41 d s 3 lw 427 1532 m 7 61 d s 434 1593 m 37 X s 1 1 1 c 2254 561 2 2 bf black 1 1 1 c black 1860 358 318 187 bl 1 1 1 c black
 1860 358 318 187 bl 6 lw 1 1 1 c black 3 lw 364 362 m20 6 lw 3 lw 457 364 m20 6 lw 3 lw 550 361 m20 6 lw 3 lw 643 365 m20 6 lw 3 lw 736 365 m20 6 lw 3 lw 829 368 m20 6 lw 3 lw 923 363 m20 6 lw 3 lw 1016 370 m20 6 lw 3 lw 1109 370 m20 6 lw 3 lw 1202
 366 m20 6 lw 3 lw 1295 340 m20 6 lw 3 lw 1388 286 m20 6 lw 3 lw 1481 260 m20 6 lw 3 lw 1574 364 m20 6 lw 3 lw 1667 427 m20 6 lw 3 lw 1760 492 m20 6 lw 3 lw 2132 471 m20 6 lw 3 lw 318 187 m 1860 X s
 gsave  2254 561 2 2 C 1959.25 27.1177 t 0 r /Helvetica findfont 78.1689 sf 0 0 m ( [GeV]) show NC gr 
 gsave  2254 561 2 2 C 1854.17 64.4045 t 0 r /Helvetica findfont 50.9797 sf 0 0 m (miss) show NC gr 
 gsave  2254 561 2 2 C 1854.17 3.38971 t 0 r /Helvetica findfont 50.9797 sf 0 0 m (T) show NC gr 
 gsave  2254 561 2 2 C 1803.33 27.1177 t 0 r /Helvetica findfont 78.1689 sf 0 0 m (E) show NC gr  411 201 m -14 Y s 457 194 m -7 Y s 504 194 m -7 Y s 550 194 m -7 Y s 597 201 m -14 Y s 643 194 m -7 Y s 690 194 m -7 Y s 736 194 m -7 Y s 783 201 m -14
 Y s 829 194 m -7 Y s 876 194 m -7 Y s 923 194 m -7 Y s 969 201 m -14 Y s 1016 194 m -7 Y s 1062 194 m -7 Y s 1109 194 m -7 Y s 1155 201 m -14 Y s 1202 194 m -7 Y s 1248 194 m -7 Y s 1295 194 m -7 Y s 1341 201 m -14 Y s 1388 194 m -7 Y s 1434 194 m
 -7 Y s 1481 194 m -7 Y s 1527 201 m -14 Y s 1574 194 m -7 Y s 1620 194 m -7 Y s 1667 194 m -7 Y s 1713 201 m -14 Y s 1760 194 m -7 Y s 1806 194 m -7 Y s 1853 194 m -7 Y s 1899 201 m -14 Y s 1946 194 m -7 Y s 1992 194 m -7 Y s 2039 194 m -7 Y s 2085
 201 m -14 Y s 411 201 m -14 Y s 364 194 m -7 Y s 318 194 m -7 Y s 2085 201 m -14 Y s 2132 194 m -7 Y s
 gsave  2254 561 2 2 C 345.75 118.64 t 0 r /Helvetica findfont 78.1689 sf 0 0 m (400) show NC gr 
 gsave  2254 561 2 2 C 532.185 118.64 t 0 r /Helvetica findfont 78.1689 sf 0 0 m (600) show NC gr 
 gsave  2254 561 2 2 C 715.229 118.64 t 0 r /Helvetica findfont 78.1689 sf 0 0 m (800) show NC gr 
 gsave  2254 561 2 2 C 877.935 118.64 t 0 r /Helvetica findfont 78.1689 sf 0 0 m (1000) show NC gr 
 gsave  2254 561 2 2 C 1064.37 118.64 t 0 r /Helvetica findfont 78.1689 sf 0 0 m (1200) show NC gr 
 gsave  2254 561 2 2 C 1250.8 118.64 t 0 r /Helvetica findfont 78.1689 sf 0 0 m (1400) show NC gr 
 gsave  2254 561 2 2 C 1437.24 118.64 t 0 r /Helvetica findfont 78.1689 sf 0 0 m (1600) show NC gr 
 gsave  2254 561 2 2 C 1623.67 118.64 t 0 r /Helvetica findfont 78.1689 sf 0 0 m (1800) show NC gr 
 gsave  2254 561 2 2 C 1810.11 118.64 t 0 r /Helvetica findfont 78.1689 sf 0 0 m (2000) show NC gr 
 gsave  2254 561 2 2 C 1996.54 118.64 t 0 r /Helvetica findfont 78.1689 sf 0 0 m (2200) show NC gr  318 545 m 1860 X s 411 531 m 14 Y s 457 538 m 7 Y s 504 538 m 7 Y s 550 538 m 7 Y s 597 531 m 14 Y s 643 538 m 7 Y s 690 538 m 7 Y s 736 538 m 7 Y s
 783 531 m 14 Y s 829 538 m 7 Y s 876 538 m 7 Y s 923 538 m 7 Y s 969 531 m 14 Y s 1016 538 m 7 Y s 1062 538 m 7 Y s 1109 538 m 7 Y s 1155 531 m 14 Y s 1202 538 m 7 Y s 1248 538 m 7 Y s 1295 538 m 7 Y s 1341 531 m 14 Y s 1388 538 m 7 Y s 1434 538 m 7
 Y s 1481 538 m 7 Y s 1527 531 m 14 Y s 1574 538 m 7 Y s 1620 538 m 7 Y s 1667 538 m 7 Y s 1713 531 m 14 Y s 1760 538 m 7 Y s 1806 538 m 7 Y s 1853 538 m 7 Y s 1899 531 m 14 Y s 1946 538 m 7 Y s 1992 538 m 7 Y s 2039 538 m 7 Y s 2085 531 m 14 Y s 411
 531 m 14 Y s 364 538 m 7 Y s 318 538 m 7 Y s 2085 531 m 14 Y s 2132 538 m 7 Y s 318 187 m 358 Y s
 gsave  2254 561 2 2 C 166.096 284.736 t 90 r /Helvetica findfont 67.9729 sf 0 0 m (Data/SM) show NC gr  361 203 m -43 X s 339 220 m -21 X s 339 236 m -21 X s 339 252 m -21 X s 339 268 m -21 X s 361 285 m -43 X s 339 301 m -21 X s 339 317 m -21 X s
 339 334 m -21 X s 339 350 m -21 X s 361 366 m -43 X s 339 382 m -21 X s 339 399 m -21 X s 339 415 m -21 X s 339 431 m -21 X s 361 447 m -43 X s 339 464 m -21 X s 339 480 m -21 X s 339 496 m -21 X s 339 512 m -21 X s 361 529 m -43 X s 361 203 m -43 X
 s 339 187 m -21 X s 361 529 m -43 X s
 gsave  2254 561 2 2 C 261.008 183.044 t 0 r /Helvetica findfont 57.777 sf 0 0 m (0) show NC gr 
 gsave  2254 561 2 2 C 213.552 261.008 t 0 r /Helvetica findfont 57.777 sf 0 0 m (0.5) show NC gr 
 gsave  2254 561 2 2 C 271.177 342.361 t 0 r /Helvetica findfont 57.777 sf 0 0 m (1) show NC gr 
 gsave  2254 561 2 2 C 213.552 423.714 t 0 r /Helvetica findfont 57.777 sf 0 0 m (1.5) show NC gr 
 gsave  2254 561 2 2 C 261.008 505.067 t 0 r /Helvetica findfont 57.777 sf 0 0 m (2) show NC gr  2178 187 m 358 Y s 2135 203 m 43 X s 2157 220 m 21 X s 2157 236 m 21 X s 2157 252 m 21 X s 2157 268 m 21 X s 2135 285 m 43 X s 2157 301 m 21 X s 2157 317
 m 21 X s 2157 334 m 21 X s 2157 350 m 21 X s 2135 366 m 43 X s 2157 382 m 21 X s 2157 399 m 21 X s 2157 415 m 21 X s 2157 431 m 21 X s 2135 447 m 43 X s 2157 464 m 21 X s 2157 480 m 21 X s 2157 496 m 21 X s 2157 512 m 21 X s 2135 529 m 43 X s 2135
 203 m 43 X s 2157 187 m 21 X s 2135 529 m 43 X s 9 lw 1016 383 m 1 Y s 1016 384 m cl s 1016 356 m s 1016 356 m cl s 1109 384 m 5 Y s 1109 389 m cl s 1109 357 m -5 Y s 1109 352 m cl s 1202 379 m 12 Y s 1202 391 m cl s 1202 352 m -12 Y s 1202 340 m cl
 s 1295 353 m 18 Y s 1295 371 m cl s 1295 326 m -17 Y s 1295 309 m cl s 1388 300 m 19 Y s 1388 319 m cl s 1388 273 m -17 Y s 1388 256 m cl s 1481 274 m 22 Y s 1481 296 m cl s 1481 246 m -17 Y s 1481 229 m cl s 1574 378 m 62 Y s 1574 440 m cl s 1574
 350 m -55 Y s 1574 295 m cl s 1667 441 m 104 Y s 1667 545 m cl s 1667 413 m -107 Y s 1667 306 m cl s 1760 505 m 40 Y s 1760 545 m cl s 1760 478 m -172 Y s 1760 306 m cl s 2039 545 m -209 Y s 2039 336 m cl s 2132 485 m 60 Y s 2132 545 m cl s 2132 458
 m -208 Y s 2132 250 m cl s 3 lw 364 362 457 364 550 361 643 365 736 365 829 368 923 363 1016 370 1109 370 1202 366 1295 340 1388 286 1481 260 1574 364 1667 427 1760 492 16 { m20} R 9 lw 3 lw 2132 471 m20 9 lw 1 0 0 c 6 lw black 3 lw 1 0 0 c 2178 227
 m s 2178 255 m s 2178 284 m s 2178 312 m -4 -4 d s 2178 341 m -33 -33 d s 2178 369 m -61 -61 d s 2178 398 m -90 -90 d s 2176 424 m -103 -102 d s 2147 424 m -103 -102 d s 2118 424 m -103 -102 d s 1992 298 m -18 -18 d s 2090 424 m -5 -4 d s 2076 411 m
 -131 -131 d s 2047 411 m -130 -131 d s 2019 411 m -120 -120 d s 1992 413 m -93 -93 d s 1992 441 m -120 -120 d s 1974 452 m -131 -131 d s 1946 452 m -131 -131 d s 1917 452 m -18 -18 d s 1875 411 m -73 -74 d s 1847 411 m -74 -74 d s 1818 411 m -12 -12
 d s 1802 395 m -58 -58 d s 1773 395 m -57 -58 d s 1745 395 m -55 -55 d s 1716 395 m -3 -3 d s 1713 392 m -52 -52 d s 1684 392 m -51 -52 d s 1620 328 m -1 Y s 1656 392 m -65 -65 d s 1627 392 m -65 -65 d s 1611 405 m -77 -78 d s 1582 405 m -57 -57 d s
 1554 405 m -57 -57 d s 1505 384 m -37 -36 d s 1476 384 m -37 -36 d s 1447 384 m -41 -41 d s 1423 389 m -46 -46 d s 1395 389 m -46 -46 d s 1366 389 m -37 -37 d s 1328 380 m -27 -28 d s 1299 380 m -27 -28 d s 1270 380 m -26 -27 d s 1241 379 m -25 -26
 d s 1212 379 m -25 -26 d s 1183 379 m -25 -26 d s 1152 376 m -20 -20 d s 1123 376 m -20 -20 d s 1095 376 m -20 -20 d s 1066 376 m -19 -19 d s 1036 375 m -18 -18 d s 1008 375 m -19 -18 d s 979 375 m -18 -18 d s 950 375 m -17 -18 d s 921 375 m -17 -18
 d s 893 375 m -18 -17 d s 864 374 m -17 -16 d s 835 374 m -17 -16 d s 806 374 m -17 -16 d s 777 374 m -16 -16 d s 748 374 m -15 -16 d s 720 374 m -16 -16 d s 691 374 m -16 -16 d s 662 374 m -16 -16 d s 634 374 m -16 -16 d s 605 374 m -17 -17 d s 577
 375 m -18 -18 d s 548 375 m -17 -18 d s 520 375 m -18 -18 d s 491 375 m -18 -18 d s 463 375 m -19 -18 d s 318 231 m s 434 375 m -18 -18 d s 318 259 m s 405 375 m -18 -18 d s 318 288 m s 376 375 m -17 -18 d s 318 317 m s 348 375 m -18 -18 d s 318 345
 m s 319 375 m -1 -1 d s 6 lw black[ 4 8] 0 sd 3 lw 318 447 m 1860 X s 318 285 m 1860 X s 1 0 0 c[  12 12 ] 0 sd 6 lw 318 366 m 1860 X s
 gr  gr showpage
end
%%EOF
