%!PS-Adobe-2.0 EPSF-2.0
%%BoundingBox:  0 0 567 521
%%Title: Distributions/met_distrCRT_MB-GGo_afterFit_forThesis.eps: canvas
%%Creator: ROOT Version 6.04/16
%%CreationDate: Tue May 19 22:01:11 2020
%%DocumentNeededResources: ProcSet (FontSetInit)
%%EndComments
%%BeginProlog
80 dict begin
/s {stroke} def /l {lineto} def /m {moveto} def /t {translate} def
/r {rotate} def /rl {roll}  def /R {repeat} def
/d {rlineto} def /rm {rmoveto} def /gr {grestore} def /f {eofill} def
/c {setrgbcolor} def /black {0 setgray} def /sd {setdash} def
/cl {closepath} def /sf {scalefont setfont} def /lw {setlinewidth} def
/box {m dup 0 exch d exch 0 d 0 exch neg d cl} def
/NC{systemdict begin initclip end}def/C{NC box clip newpath}def
/bl {box s} def /bf {gsave box gsave f grestore 1 lw [] 0 sd s grestore} def /Y { 0 exch d} def /X { 0 d} def 
/K {{pop pop 0 moveto} exch kshow} bind def
/ita {/ang 15 def gsave [1 0 ang dup sin exch cos div 1 0 0] concat} def 
/mp {newpath /y exch def /x exch def} def
/side {[w .77 mul w .23 mul] .385 w mul sd w 0 l currentpoint t -144 r} def
/mr {mp x y w2 0 360 arc} def /m24 {mr s} def /m20 {mr f} def
/mb {mp x y w2 add m w2 neg 0 d 0 w neg d w 0 d 0 w d cl} def
/mt {mp x y w2 add m w2 neg w neg d w 0 d cl} def
/m21 {mb f} def /m25 {mb s} def /m22 {mt f} def /m26{mt s} def
/m23 {mp x y w2 sub m w2 w d w neg 0 d cl f} def
/m27 {mp x y w2 add m w3 neg w2 neg d w3 w2 neg d w3 w2 d cl s} def
/m28 {mp x w2 sub y w2 sub w3 add m w3 0 d  0 w3 neg d w3 0 d 0 w3 d w3 0 d  0 w3 d w3 neg 0 d 0 w3 d w3 neg 0 d 0 w3 neg d w3 neg 0 d cl s } def
/m29 {mp gsave x w2 sub y w2 add w3 sub m currentpoint t 4 {side} repeat cl fill gr} def
/m30 {mp gsave x w2 sub y w2 add w3 sub m currentpoint t 4 {side} repeat cl s gr} def
/m31 {mp x y w2 sub m 0 w d x w2 sub y m w 0 d x w2 sub y w2 add m w w neg d x w2 sub y w2 sub m w w d s} def
/m32 {mp x y w2 sub m w2 w d w neg 0 d cl s} def
/m33 {mp x y w2 add m w3 neg w2 neg d w3 w2 neg d w3 w2 d cl f} def
/m34 {mp x w2 sub y w2 sub w3 add m w3 0 d  0 w3 neg d w3 0 d 0 w3 d w3 0 d  0 w3 d w3 neg 0 d 0 w3 d w3 neg 0 d 0 w3 neg d w3 neg 0 d cl f } def
/m2 {mp x y w2 sub m 0 w d x w2 sub y m w 0 d s} def
/m5 {mp x w2 sub y w2 sub m w w d x w2 sub y w2 add m w w neg d s} def
%%IncludeResource: ProcSet (FontSetInit)
%%IncludeResource: font Times-Roman
%%IncludeResource: font Times-Italic
%%IncludeResource: font Times-Bold
%%IncludeResource: font Times-BoldItalic
%%IncludeResource: font Helvetica
%%IncludeResource: font Helvetica-Oblique
%%IncludeResource: font Helvetica-Bold
%%IncludeResource: font Helvetica-BoldOblique
%%IncludeResource: font Courier
%%IncludeResource: font Courier-Oblique
%%IncludeResource: font Courier-Bold
%%IncludeResource: font Courier-BoldOblique
%%IncludeResource: font Symbol
%%IncludeResource: font ZapfDingbats
/reEncode {exch findfont dup length dict begin {1 index /FID eq  {pop pop} {def} ifelse } forall /Encoding exch def currentdict end dup /FontName get exch definefont pop } def [/Times-Bold /Times-Italic /Times-BoldItalic /Helvetica /Helvetica-Oblique
 /Helvetica-Bold /Helvetica-BoldOblique /Courier /Courier-Oblique /Courier-Bold /Courier-BoldOblique /Times-Roman /AvantGarde-Book /AvantGarde-BookOblique /AvantGarde-Demi /AvantGarde-DemiOblique /Bookman-Demi /Bookman-DemiItalic /Bookman-Light
 /Bookman-LightItalic /Helvetica-Narrow /Helvetica-Narrow-Bold /Helvetica-Narrow-BoldOblique /Helvetica-Narrow-Oblique /NewCenturySchlbk-Roman /NewCenturySchlbk-Bold /NewCenturySchlbk-BoldItalic /NewCenturySchlbk-Italic /Palatino-Bold
 /Palatino-BoldItalic /Palatino-Italic /Palatino-Roman ] {ISOLatin1Encoding reEncode } forall
%%EndProlog
%%BeginSetup
%%EndSetup
newpath  gsave  .25 .25 scale  gsave  0 0 t black[  ] 0 sd 3 lw 1 1 1 c 2268 2085 0 0 bf black 1 1 1 c 2263 1770 2 313 bf black 1 1 1 c black 1860 1145 319 584 bl 1 1 1 c black 1860 1145 319 584 bl 6 lw 1 1 1 c black 3 lw /w 33 def /w2 {w 2 div} def
 /w3 {w 3 div} def 366 1149 m20 6 lw 3 lw 459 1123 m20 6 lw 3 lw 552 1052 m20 6 lw 645 954 m 4 Y s 645 985 m 1 Y s 3 lw 645 972 m20 6 lw 738 890 m 14 Y s 738 931 m 7 Y s 3 lw 738 918 m20 6 lw 831 584 m 153 Y s 831 765 m 36 Y s 3 lw 831 751 m20 6 lw
 924 584 m 153 Y s 924 765 m 36 Y s 3 lw 924 751 m20 6 lw 1017 712 m 76 Y s 1017 815 m 25 Y s 3 lw 1017 801 m20 6 lw 1110 584 m 153 Y s 1110 765 m 36 Y s 3 lw 1110 751 m20 6 lw 1203 584 m 153 Y s 1203 765 m 36 Y s 3 lw 1203 751 m20 6 lw 1389 584 m
 153 Y s 1389 765 m 36 Y s 3 lw 1389 751 m20 6 lw 3 lw 319 584 m 1860 X s
 gsave  2263 1770 2 313 C 1949.08 355.92 t 0 r /Helvetica findfont 81.3741 sf 0 0 m ( [GeV]) show NC gr 
 gsave  2263 1770 2 313 C 1837.22 396.596 t 0 r /Helvetica findfont 54.2494 sf 0 0 m (miss) show NC gr 
 gsave  2263 1770 2 313 C 1837.22 332.192 t 0 r /Helvetica findfont 54.2494 sf 0 0 m (T) show NC gr 
 gsave  2263 1770 2 313 C 1786.38 355.92 t 0 r /Helvetica findfont 81.3741 sf 0 0 m (E) show NC gr  412 584 m cl s 459 584 m cl s 505 584 m cl s 552 584 m cl s 598 584 m cl s 645 584 m cl s 691 584 m cl s 738 584 m cl s 784 584 m cl s 831 584 m cl s
 877 584 m cl s 924 584 m cl s 970 584 m cl s 1017 584 m cl s 1063 584 m cl s 1110 584 m cl s 1156 584 m cl s 1203 584 m cl s 1249 584 m cl s 1296 584 m cl s 1342 584 m cl s 1389 584 m cl s 1435 584 m cl s 1482 584 m cl s 1528 584 m cl s 1575 584 m
 cl s 1621 584 m cl s 1668 584 m cl s 1714 584 m cl s 1761 584 m cl s 1807 584 m cl s 1854 584 m cl s 1900 584 m cl s 1947 584 m cl s 1993 584 m cl s 2040 584 m cl s 2086 584 m cl s 412 584 m cl s 366 584 m cl s 319 584 m cl s 2086 584 m cl s 2133
 584 m cl s 2179 584 m cl s 319 1729 m 1860 X s 412 1729 m cl s 459 1729 m cl s 505 1729 m cl s 552 1729 m cl s 598 1729 m cl s 645 1729 m cl s 691 1729 m cl s 738 1729 m cl s 784 1729 m cl s 831 1729 m cl s 877 1729 m cl s 924 1729 m cl s 970 1729 m
 cl s 1017 1729 m cl s 1063 1729 m cl s 1110 1729 m cl s 1156 1729 m cl s 1203 1729 m cl s 1249 1729 m cl s 1296 1729 m cl s 1342 1729 m cl s 1389 1729 m cl s 1435 1729 m cl s 1482 1729 m cl s 1528 1729 m cl s 1575 1729 m cl s 1621 1729 m cl s 1668
 1729 m cl s 1714 1729 m cl s 1761 1729 m cl s 1807 1729 m cl s 1854 1729 m cl s 1900 1729 m cl s 1947 1729 m cl s 1993 1729 m cl s 2040 1729 m cl s 2086 1729 m cl s 412 1729 m cl s 366 1729 m cl s 319 1729 m cl s 2086 1729 m cl s 2133 1729 m cl s
 2179 1729 m cl s 319 584 m 1145 Y s
 gsave  2263 1770 2 313 C 166.096 1091.49 t 90 r /Helvetica findfont 81.3741 sf 0 0 m (Events / 100 GeV) show NC gr  341 635 m -22 X s 341 664 m -22 X s 341 685 m -22 X s 341 701 m -22 X s 341 714 m -22 X s 341 725 m -22 X s 341 735 m -22 X s 341 743
 m -22 X s 363 751 m -44 X s
 gsave  2263 1770 2 313 C 300.555 723.933 t 0 r  -36 0 t /Helvetica findfont 64.4212 sf 0 0 m (1) show NC gr  341 801 m -22 X s 341 831 m -22 X s 341 851 m -22 X s 341 868 m -22 X s 341 881 m -22 X s 341 892 m -22 X s 341 902 m -22 X s 341 910 m -22
 X s 363 918 m -44 X s
 gsave  2263 1770 2 313 C 300.555 890.674 t 0 r  -73 0 t /Helvetica findfont 64.4212 sf 0 0 m (10) show NC gr  341 968 m -22 X s 341 997 m -22 X s 341 1018 m -22 X s 341 1034 m -22 X s 341 1048 m -22 X s 341 1059 m -22 X s 341 1068 m -22 X s 341 1077
 m -22 X s 363 1085 m -44 X s
 gsave  2263 1770 2 313 C 274.567 1081.32 t 0 r /Helvetica findfont 44.0776 sf 0 0 m (2) show NC gr 
 gsave  2263 1770 2 313 C 203.383 1054.2 t 0 r /Helvetica findfont 64.4212 sf 0 0 m (10) show NC gr  341 1135 m -22 X s 341 1164 m -22 X s 341 1185 m -22 X s 341 1201 m -22 X s 341 1214 m -22 X s 341 1225 m -22 X s 341 1235 m -22 X s 341 1244 m -22 X
 s 363 1251 m -44 X s
 gsave  2263 1770 2 313 C 274.567 1254.19 t 0 r /Helvetica findfont 44.0776 sf 0 0 m (3) show NC gr 
 gsave  2263 1770 2 313 C 203.383 1223.69 t 0 r /Helvetica findfont 64.4212 sf 0 0 m (10) show NC gr  341 1301 m -22 X s 341 1331 m -22 X s 341 1352 m -22 X s 341 1368 m -22 X s 341 1381 m -22 X s 341 1392 m -22 X s 341 1402 m -22 X s 341 1410 m -22
 X s 363 1418 m -44 X s
 gsave  2263 1770 2 313 C 274.567 1416.9 t 0 r /Helvetica findfont 44.0776 sf 0 0 m (4) show NC gr 
 gsave  2263 1770 2 313 C 203.383 1389.78 t 0 r /Helvetica findfont 64.4212 sf 0 0 m (10) show NC gr  341 1468 m -22 X s 341 1498 m -22 X s 341 1518 m -22 X s 341 1535 m -22 X s 341 1548 m -22 X s 341 1559 m -22 X s 341 1569 m -22 X s 341 1577 m -22
 X s 363 1585 m -44 X s
 gsave  2263 1770 2 313 C 274.567 1586.38 t 0 r /Helvetica findfont 44.0776 sf 0 0 m (5) show NC gr 
 gsave  2263 1770 2 313 C 203.383 1555.88 t 0 r /Helvetica findfont 64.4212 sf 0 0 m (10) show NC gr  341 1635 m -22 X s 341 1664 m -22 X s 341 1685 m -22 X s 341 1701 m -22 X s 341 1715 m -22 X s 341 1726 m -22 X s 2179 584 m 1145 Y s 2157 635 m 22
 X s 2157 664 m 22 X s 2157 685 m 22 X s 2157 701 m 22 X s 2157 714 m 22 X s 2157 725 m 22 X s 2157 735 m 22 X s 2157 743 m 22 X s 2136 751 m 43 X s 2157 801 m 22 X s 2157 831 m 22 X s 2157 851 m 22 X s 2157 868 m 22 X s 2157 881 m 22 X s 2157 892 m
 22 X s 2157 902 m 22 X s 2157 910 m 22 X s 2136 918 m 43 X s 2157 968 m 22 X s 2157 997 m 22 X s 2157 1018 m 22 X s 2157 1034 m 22 X s 2157 1048 m 22 X s 2157 1059 m 22 X s 2157 1068 m 22 X s 2157 1077 m 22 X s 2136 1085 m 43 X s 2157 1135 m 22 X s
 2157 1164 m 22 X s 2157 1185 m 22 X s 2157 1201 m 22 X s 2157 1214 m 22 X s 2157 1225 m 22 X s 2157 1235 m 22 X s 2157 1244 m 22 X s 2136 1251 m 43 X s 2157 1301 m 22 X s 2157 1331 m 22 X s 2157 1352 m 22 X s 2157 1368 m 22 X s 2157 1381 m 22 X s
 2157 1392 m 22 X s 2157 1402 m 22 X s 2157 1410 m 22 X s 2136 1418 m 43 X s 2157 1468 m 22 X s 2157 1498 m 22 X s 2157 1518 m 22 X s 2157 1535 m 22 X s 2157 1548 m 22 X s 2157 1559 m 22 X s 2157 1569 m 22 X s 2157 1577 m 22 X s 2136 1585 m 43 X s
 2157 1635 m 22 X s 2157 1664 m 22 X s 2157 1685 m 22 X s 2157 1701 m 22 X s 2157 1715 m 22 X s 2157 1726 m 22 X s 0.6 1 0.6 c black 0.6 1 0.6 c 319 584 m 563 Y 93 X -23 Y 93 X -68 Y 93 X -76 Y 93 X -66 Y 93 X -67 Y 93 X -30 Y 93 X -75 Y 93 X -73 Y
 93 X -19 Y 93 X -24 Y 93 X -42 Y 837 X f black 0.6 1 0.6 c black 319 1147 m 93 X -23 Y 93 X -68 Y 93 X -76 Y 93 X -66 Y 93 X -67 Y 93 X -30 Y 93 X -75 Y 93 X -73 Y 93 X -19 Y 93 X -24 Y 93 X -42 Y 837 X s 0.999 0.999 0.999 c black 0.999 0.999 0.999
 c 319 584 m 378 Y 93 X 5 Y 93 X -40 Y 93 X -46 Y 93 X -54 Y 93 X -46 Y 93 X -23 Y 93 X -61 Y 93 X -50 Y 93 X -18 Y 93 X -11 Y 93 X -34 Y 837 X f black 0.999 0.999 0.999 c black 319 962 m 93 X 5 Y 93 X -40 Y 93 X -46 Y 93 X -54 Y 93 X -46 Y 93 X -23
 Y 93 X -61 Y 93 X -50 Y 93 X -18 Y 93 X -11 Y 93 X -34 Y 837 X s 1 1 1 c black 319 962 m 93 X 5 Y 93 X -40 Y 93 X -46 Y 93 X -54 Y 93 X -46 Y 93 X -23 Y 93 X -61 Y 93 X -50 Y 93 X -18 Y 93 X -11 Y 93 X -34 Y 837 X s 0.4 0.6 1 c black 0.4 0.6 1 c 319
 584 m 378 Y 93 X 5 Y 93 X -40 Y 93 X -46 Y 93 X -54 Y 93 X -46 Y 93 X -23 Y 93 X -61 Y 93 X -50 Y 93 X -18 Y 93 X -11 Y 93 X -34 Y 837 X f black 0.4 0.6 1 c black 319 962 m 93 X 5 Y 93 X -40 Y 93 X -46 Y 93 X -54 Y 93 X -46 Y 93 X -23 Y 93 X -61 Y
 93 X -50 Y 93 X -18 Y 93 X -11 Y 93 X -34 Y 837 X s 0.999 0.999 0.999 c black 0.999 0.999 0.999 c 319 584 m 224 Y 93 X 22 Y 93 X -26 Y 93 X -71 Y 93 X -44 Y 93 X -20 Y 93 X -85 Y 1302 X f black 0.999 0.999 0.999 c black 319 808 m 93 X 22 Y 93 X -26
 Y 93 X -71 Y 93 X -44 Y 93 X -20 Y 93 X -85 Y 1302 X s 1 1 1 c black 319 808 m 93 X 22 Y 93 X -26 Y 93 X -71 Y 93 X -44 Y 93 X -20 Y 93 X -85 Y 1302 X s 1 0.8 0.4 c black 1 0.8 0.4 c 319 584 m 224 Y 93 X 22 Y 93 X -26 Y 93 X -71 Y 93 X -44 Y 93 X
 -20 Y 93 X -85 Y 1302 X f black 1 0.8 0.4 c black 319 808 m 93 X 22 Y 93 X -26 Y 93 X -71 Y 93 X -44 Y 93 X -20 Y 93 X -85 Y 1302 X s 0.999 0.999 0.999 c black 0.999 0.999 0.999 c 319 584 m 219 Y 93 X 24 Y 93 X -26 Y 93 X -74 Y 93 X -45 Y 93 X -14 Y
 93 X -84 Y 1302 X f black 0.999 0.999 0.999 c black 319 803 m 93 X 24 Y 93 X -26 Y 93 X -74 Y 93 X -45 Y 93 X -14 Y 93 X -84 Y 1302 X s 1 1 1 c black 319 803 m 93 X 24 Y 93 X -26 Y 93 X -74 Y 93 X -45 Y 93 X -14 Y 93 X -84 Y 1302 X s 1 0.4 0.6 c
 black 1 0.4 0.6 c 319 584 m 219 Y 93 X 24 Y 93 X -26 Y 93 X -74 Y 93 X -45 Y 93 X -14 Y 93 X -84 Y 1302 X f black 1 0.4 0.6 c black 319 803 m 93 X 24 Y 93 X -26 Y 93 X -74 Y 93 X -45 Y 93 X -14 Y 93 X -84 Y 1302 X s 1 0 0 c 6 lw 1 1 1 c black 1 0 0
 c 319 1147 m 93 X -23 Y 93 X -68 Y 93 X -76 Y 93 X -66 Y 93 X -67 Y 93 X -30 Y 93 X -75 Y 93 X -73 Y 93 X -19 Y 93 X -24 Y 93 X -42 Y 837 X s black 3 lw 1 0 0 c 1 lw << /PatternType 1 /PaintType 2 /TilingType 1 /BBox [ 0 0 100 100 ] /XStep 100
 /YStep 100 /PaintProc { begin gsave 0 100 m 100 0 l s gr end } >> [ 0.24 0 0 0.24 0 0 ] makepattern /P05 exch def /cs {[/Pattern /DeviceRGB] setcolorspace} def /FA {f [/DeviceRGB] setcolorspace} def cs 1 0 0 P05 setcolor 319 584 m 567 Y 93 X -23 Y
 93 X -68 Y 93 X -74 Y 93 X -64 Y 93 X -64 Y 93 X -27 Y 93 X -75 Y 93 X -70 Y 93 X -20 Y 93 X -12 Y 93 X -70 Y -93 X 45 Y -93 X 18 Y -93 X 78 Y -93 X 74 Y -93 X 35 Y -93 X 71 Y -93 X 68 Y -93 X 78 Y -93 X 69 Y -93 X 22 Y -93 X -558 Y FA 6 lw 1 1 1 c
 15 lw 738 938 m s 738 938 m cl s 738 897 m -6 Y s 738 891 m cl s 831 771 m 40 Y s 831 811 m cl s 831 731 m -106 Y s 831 625 m cl s 924 771 m 40 Y s 924 811 m cl s 924 731 m -106 Y s 924 625 m cl s 1017 822 m 22 Y s 1017 844 m cl s 1017 781 m -55 Y s
 1017 726 m cl s 1110 771 m 40 Y s 1110 811 m cl s 1110 731 m -106 Y s 1110 625 m cl s 1203 771 m 40 Y s 1203 811 m cl s 1203 731 m -106 Y s 1203 625 m cl s 1389 771 m 40 Y s 1389 811 m cl s 1389 731 m -106 Y s 1389 625 m cl s black 1 1 1 c 3 lw /w
 43 def /w2 {w 2 div} def /w3 {w 3 div} def 366 1149 459 1123 552 1052 645 972 738 918 831 751 924 751 1017 801 1110 751 1203 751 10 { m20} R 15 lw 3 lw 1389 751 m20 15 lw black 6 lw 1 1 1 c black 3 lw /w 33 def /w2 {w 2 div} def /w3 {w 3 div} def
 366 1149 m20 6 lw 3 lw 459 1123 m20 6 lw 3 lw 552 1052 m20 6 lw 645 954 m 4 Y s 645 985 m 1 Y s 3 lw 645 972 m20 6 lw 738 890 m 14 Y s 738 931 m 7 Y s 3 lw 738 918 m20 6 lw 831 584 m 153 Y s 831 765 m 36 Y s 3 lw 831 751 m20 6 lw 924 584 m 153 Y s
 924 765 m 36 Y s 3 lw 924 751 m20 6 lw 1017 712 m 76 Y s 1017 815 m 25 Y s 3 lw 1017 801 m20 6 lw 1110 584 m 153 Y s 1110 765 m 36 Y s 3 lw 1110 751 m20 6 lw 1203 584 m 153 Y s 1203 765 m 36 Y s 3 lw 1203 751 m20 6 lw 1389 584 m 153 Y s 1389 765 m
 36 Y s 3 lw 1389 751 m20 6 lw 645 985 m 1 Y s 645 986 m cl s 645 958 m -4 Y s 645 954 m cl s 738 931 m 7 Y s 738 938 m cl s 738 904 m -13 Y s 738 891 m cl s 831 765 m 46 Y s 831 811 m cl s 831 737 m -112 Y s 831 625 m cl s 924 765 m 46 Y s 924 811 m
 cl s 924 737 m -112 Y s 924 625 m cl s 1017 815 m 29 Y s 1017 844 m cl s 1017 788 m -62 Y s 1017 726 m cl s 1110 765 m 46 Y s 1110 811 m cl s 1110 737 m -112 Y s 1110 625 m cl s 1203 765 m 46 Y s 1203 811 m cl s 1203 737 m -112 Y s 1203 625 m cl s
 1389 765 m 46 Y s 1389 811 m cl s 1389 737 m -112 Y s 1389 625 m cl s 3 lw 366 1149 459 1123 552 1052 645 972 738 918 831 751 924 751 1017 801 1110 751 1203 751 10 { m20} R 6 lw 3 lw 1389 751 m20 6 lw 3 lw 319 584 m 1860 X s 412 584 m cl s 459 584 m
 cl s 505 584 m cl s 552 584 m cl s 598 584 m cl s 645 584 m cl s 691 584 m cl s 738 584 m cl s 784 584 m cl s 831 584 m cl s 877 584 m cl s 924 584 m cl s 970 584 m cl s 1017 584 m cl s 1063 584 m cl s 1110 584 m cl s 1156 584 m cl s 1203 584 m cl s
 1249 584 m cl s 1296 584 m cl s 1342 584 m cl s 1389 584 m cl s 1435 584 m cl s 1482 584 m cl s 1528 584 m cl s 1575 584 m cl s 1621 584 m cl s 1668 584 m cl s 1714 584 m cl s 1761 584 m cl s 1807 584 m cl s 1854 584 m cl s 1900 584 m cl s 1947 584
 m cl s 1993 584 m cl s 2040 584 m cl s 2086 584 m cl s 412 584 m cl s 366 584 m cl s 319 584 m cl s 2086 584 m cl s 2133 584 m cl s 2179 584 m cl s 319 1729 m 1860 X s 412 1729 m cl s 459 1729 m cl s 505 1729 m cl s 552 1729 m cl s 598 1729 m cl s
 645 1729 m cl s 691 1729 m cl s 738 1729 m cl s 784 1729 m cl s 831 1729 m cl s 877 1729 m cl s 924 1729 m cl s 970 1729 m cl s 1017 1729 m cl s 1063 1729 m cl s 1110 1729 m cl s 1156 1729 m cl s 1203 1729 m cl s 1249 1729 m cl s 1296 1729 m cl s
 1342 1729 m cl s 1389 1729 m cl s 1435 1729 m cl s 1482 1729 m cl s 1528 1729 m cl s 1575 1729 m cl s 1621 1729 m cl s 1668 1729 m cl s 1714 1729 m cl s 1761 1729 m cl s 1807 1729 m cl s 1854 1729 m cl s 1900 1729 m cl s 1947 1729 m cl s 1993 1729 m
 cl s 2040 1729 m cl s 2086 1729 m cl s 412 1729 m cl s 366 1729 m cl s 319 1729 m cl s 2086 1729 m cl s 2133 1729 m cl s 2179 1729 m cl s 319 584 m 1145 Y s 341 635 m -22 X s 341 664 m -22 X s 341 685 m -22 X s 341 701 m -22 X s 341 714 m -22 X s
 341 725 m -22 X s 341 735 m -22 X s 341 743 m -22 X s 363 751 m -44 X s 341 801 m -22 X s 341 831 m -22 X s 341 851 m -22 X s 341 868 m -22 X s 341 881 m -22 X s 341 892 m -22 X s 341 902 m -22 X s 341 910 m -22 X s 363 918 m -44 X s 341 968 m -22 X
 s 341 997 m -22 X s 341 1018 m -22 X s 341 1034 m -22 X s 341 1048 m -22 X s 341 1059 m -22 X s 341 1068 m -22 X s 341 1077 m -22 X s 363 1085 m -44 X s 341 1135 m -22 X s 341 1164 m -22 X s 341 1185 m -22 X s 341 1201 m -22 X s 341 1214 m -22 X s
 341 1225 m -22 X s 341 1235 m -22 X s 341 1244 m -22 X s 363 1251 m -44 X s 341 1301 m -22 X s 341 1331 m -22 X s 341 1352 m -22 X s 341 1368 m -22 X s 341 1381 m -22 X s 341 1392 m -22 X s 341 1402 m -22 X s 341 1410 m -22 X s 363 1418 m -44 X s
 341 1468 m -22 X s 341 1498 m -22 X s 341 1518 m -22 X s 341 1535 m -22 X s 341 1548 m -22 X s 341 1559 m -22 X s 341 1569 m -22 X s 341 1577 m -22 X s 363 1585 m -44 X s 341 1635 m -22 X s 341 1664 m -22 X s 341 1685 m -22 X s 341 1701 m -22 X s
 341 1715 m -22 X s 341 1726 m -22 X s 2179 584 m 1145 Y s 2157 635 m 22 X s 2157 664 m 22 X s 2157 685 m 22 X s 2157 701 m 22 X s 2157 714 m 22 X s 2157 725 m 22 X s 2157 735 m 22 X s 2157 743 m 22 X s 2136 751 m 43 X s 2157 801 m 22 X s 2157 831 m
 22 X s 2157 851 m 22 X s 2157 868 m 22 X s 2157 881 m 22 X s 2157 892 m 22 X s 2157 902 m 22 X s 2157 910 m 22 X s 2136 918 m 43 X s 2157 968 m 22 X s 2157 997 m 22 X s 2157 1018 m 22 X s 2157 1034 m 22 X s 2157 1048 m 22 X s 2157 1059 m 22 X s 2157
 1068 m 22 X s 2157 1077 m 22 X s 2136 1085 m 43 X s 2157 1135 m 22 X s 2157 1164 m 22 X s 2157 1185 m 22 X s 2157 1201 m 22 X s 2157 1214 m 22 X s 2157 1225 m 22 X s 2157 1235 m 22 X s 2157 1244 m 22 X s 2136 1251 m 43 X s 2157 1301 m 22 X s 2157
 1331 m 22 X s 2157 1352 m 22 X s 2157 1368 m 22 X s 2157 1381 m 22 X s 2157 1392 m 22 X s 2157 1402 m 22 X s 2157 1410 m 22 X s 2136 1418 m 43 X s 2157 1468 m 22 X s 2157 1498 m 22 X s 2157 1518 m 22 X s 2157 1535 m 22 X s 2157 1548 m 22 X s 2157
 1559 m 22 X s 2157 1569 m 22 X s 2157 1577 m 22 X s 2136 1585 m 43 X s 2157 1635 m 22 X s 2157 1664 m 22 X s 2157 1685 m 22 X s 2157 1701 m 22 X s 2157 1715 m 22 X s 2157 1726 m 22 X s
 gsave  2263 1770 2 313 C 406.765 1447.41 t 0 r /Helvetica findfont 64.4212 sf 0 0 m (CRT for MB\255GGo) show NC gr 
 gsave  2263 1770 2 313 C 1464.36 1616.89 t 0 r /Helvetica findfont 64.4212 sf 0 0 m (SM Total) show NC gr  1 1 1 c 1338 1603 m 107 X 74 Y -107 X f 1 0 0 c 6 lw 1338 1640 m 107 X s black
 gsave  2263 1770 2 313 C 1464.36 1511.81 t 0 r /Helvetica findfont 64.4212 sf 0 0 m (Data) show NC gr  1391 1502 m 64 Y s 3 lw 1391 1534 m20 6 lw
 gsave  2263 1770 2 313 C 1498.25 1406.73 t 0 r /Helvetica findfont 64.4212 sf 0 0 m (\(+EW\) & single top) show NC gr 
 gsave  2263 1770 2 313 C 1481.3 1406.73 t 0 r /Helvetica findfont 64.4212 sf 0 0 m (t) show NC gr  3 lw 1481 1458 m 17 X s
 gsave  2263 1770 2 313 C 1464.36 1406.73 t 0 r /Helvetica findfont 64.4212 sf 0 0 m (t) show NC gr  0.6 1 0.6 c 1338 1391 m 107 X 74 Y -107 X f black 1338 1465 m 107 X s 1338 1391 m 107 X s 1445 1391 m 74 Y s 1338 1391 m 74 Y s
 gsave  2263 1770 2 313 C 1464.36 1298.26 t 0 r /Helvetica findfont 64.4212 sf 0 0 m (W+jets) show NC gr  0.4 0.6 1 c 1338 1284 m 107 X 75 Y -107 X f black 1338 1359 m 107 X s 1338 1284 m 107 X s 1445 1284 m 75 Y s 1338 1284 m 75 Y s
 gsave  2263 1770 2 313 C 1464.36 1193.18 t 0 r /Helvetica findfont 64.4212 sf 0 0 m (Z+jets) show NC gr  1 0.8 0.4 c 1338 1178 m 107 X 75 Y -107 X f black 1338 1253 m 107 X s 1338 1178 m 107 X s 1445 1178 m 75 Y s 1338 1178 m 75 Y s
 gsave  2263 1770 2 313 C 1464.36 1088.1 t 0 r /Helvetica findfont 64.4212 sf 0 0 m (Diboson) show NC gr  1 0.4 0.6 c 1338 1072 m 107 X 74 Y -107 X f black 1338 1146 m 107 X s 1338 1072 m 107 X s 1445 1072 m 74 Y s 1338 1072 m 74 Y s
 gsave  2263 1770 2 313 C 911.832 1566.05 t 0 r /Helvetica findfont 44.0776 sf 0 0 m (\2551) show NC gr 
 gsave  2263 1770 2 313 C 471.17 1535.54 t 0 r /Helvetica findfont 64.4212 sf 0 0 m (=13TeV, 139 fb) show NC gr 
 gsave  2263 1770 2 313 C 440.662 1535.54 t 0 r /Helvetica findfont 64.4212 sf 0 0 m (s) show NC gr  6 lw 420 1573 m 7 -41 d s 3 lw 427 1532 m 7 61 d s 434 1593 m 37 X s 1 1 1 c 2254 561 2 2 bf black 1 1 1 c black 1860 358 318 187 bl 1 1 1 c black
 1860 358 318 187 bl 6 lw 1 1 1 c black 3 lw 364 371 m20 6 lw 3 lw 457 365 m20 6 lw 3 lw 550 358 m20 6 lw 3 lw 643 348 m20 6 lw 3 lw 736 374 m20 6 lw 3 lw 829 247 m20 6 lw 3 lw 923 269 m20 6 lw 3 lw 318 187 m 1860 X s
 gsave  2254 561 2 2 C 1959.25 27.1177 t 0 r /Helvetica findfont 78.1689 sf 0 0 m ( [GeV]) show NC gr 
 gsave  2254 561 2 2 C 1854.17 64.4045 t 0 r /Helvetica findfont 50.9797 sf 0 0 m (miss) show NC gr 
 gsave  2254 561 2 2 C 1854.17 3.38971 t 0 r /Helvetica findfont 50.9797 sf 0 0 m (T) show NC gr 
 gsave  2254 561 2 2 C 1803.33 27.1177 t 0 r /Helvetica findfont 78.1689 sf 0 0 m (E) show NC gr  411 201 m -14 Y s 457 194 m -7 Y s 504 194 m -7 Y s 550 194 m -7 Y s 597 201 m -14 Y s 643 194 m -7 Y s 690 194 m -7 Y s 736 194 m -7 Y s 783 201 m -14
 Y s 829 194 m -7 Y s 876 194 m -7 Y s 923 194 m -7 Y s 969 201 m -14 Y s 1016 194 m -7 Y s 1062 194 m -7 Y s 1109 194 m -7 Y s 1155 201 m -14 Y s 1202 194 m -7 Y s 1248 194 m -7 Y s 1295 194 m -7 Y s 1341 201 m -14 Y s 1388 194 m -7 Y s 1434 194 m
 -7 Y s 1481 194 m -7 Y s 1527 201 m -14 Y s 1574 194 m -7 Y s 1620 194 m -7 Y s 1667 194 m -7 Y s 1713 201 m -14 Y s 1760 194 m -7 Y s 1806 194 m -7 Y s 1853 194 m -7 Y s 1899 201 m -14 Y s 1946 194 m -7 Y s 1992 194 m -7 Y s 2039 194 m -7 Y s 2085
 201 m -14 Y s 411 201 m -14 Y s 364 194 m -7 Y s 318 194 m -7 Y s 2085 201 m -14 Y s 2132 194 m -7 Y s
 gsave  2254 561 2 2 C 345.75 118.64 t 0 r /Helvetica findfont 78.1689 sf 0 0 m (400) show NC gr 
 gsave  2254 561 2 2 C 532.185 118.64 t 0 r /Helvetica findfont 78.1689 sf 0 0 m (600) show NC gr 
 gsave  2254 561 2 2 C 715.229 118.64 t 0 r /Helvetica findfont 78.1689 sf 0 0 m (800) show NC gr 
 gsave  2254 561 2 2 C 877.935 118.64 t 0 r /Helvetica findfont 78.1689 sf 0 0 m (1000) show NC gr 
 gsave  2254 561 2 2 C 1064.37 118.64 t 0 r /Helvetica findfont 78.1689 sf 0 0 m (1200) show NC gr 
 gsave  2254 561 2 2 C 1250.8 118.64 t 0 r /Helvetica findfont 78.1689 sf 0 0 m (1400) show NC gr 
 gsave  2254 561 2 2 C 1437.24 118.64 t 0 r /Helvetica findfont 78.1689 sf 0 0 m (1600) show NC gr 
 gsave  2254 561 2 2 C 1623.67 118.64 t 0 r /Helvetica findfont 78.1689 sf 0 0 m (1800) show NC gr 
 gsave  2254 561 2 2 C 1810.11 118.64 t 0 r /Helvetica findfont 78.1689 sf 0 0 m (2000) show NC gr 
 gsave  2254 561 2 2 C 1996.54 118.64 t 0 r /Helvetica findfont 78.1689 sf 0 0 m (2200) show NC gr  318 545 m 1860 X s 411 531 m 14 Y s 457 538 m 7 Y s 504 538 m 7 Y s 550 538 m 7 Y s 597 531 m 14 Y s 643 538 m 7 Y s 690 538 m 7 Y s 736 538 m 7 Y s
 783 531 m 14 Y s 829 538 m 7 Y s 876 538 m 7 Y s 923 538 m 7 Y s 969 531 m 14 Y s 1016 538 m 7 Y s 1062 538 m 7 Y s 1109 538 m 7 Y s 1155 531 m 14 Y s 1202 538 m 7 Y s 1248 538 m 7 Y s 1295 538 m 7 Y s 1341 531 m 14 Y s 1388 538 m 7 Y s 1434 538 m 7
 Y s 1481 538 m 7 Y s 1527 531 m 14 Y s 1574 538 m 7 Y s 1620 538 m 7 Y s 1667 538 m 7 Y s 1713 531 m 14 Y s 1760 538 m 7 Y s 1806 538 m 7 Y s 1853 538 m 7 Y s 1899 531 m 14 Y s 1946 538 m 7 Y s 1992 538 m 7 Y s 2039 538 m 7 Y s 2085 531 m 14 Y s 411
 531 m 14 Y s 364 538 m 7 Y s 318 538 m 7 Y s 2085 531 m 14 Y s 2132 538 m 7 Y s 318 187 m 358 Y s
 gsave  2254 561 2 2 C 166.096 284.736 t 90 r /Helvetica findfont 67.9729 sf 0 0 m (Data/SM) show NC gr  361 203 m -43 X s 339 220 m -21 X s 339 236 m -21 X s 339 252 m -21 X s 339 268 m -21 X s 361 285 m -43 X s 339 301 m -21 X s 339 317 m -21 X s
 339 334 m -21 X s 339 350 m -21 X s 361 366 m -43 X s 339 382 m -21 X s 339 399 m -21 X s 339 415 m -21 X s 339 431 m -21 X s 361 447 m -43 X s 339 464 m -21 X s 339 480 m -21 X s 339 496 m -21 X s 339 512 m -21 X s 361 529 m -43 X s 361 203 m -43 X
 s 339 187 m -21 X s 361 529 m -43 X s
 gsave  2254 561 2 2 C 261.008 183.044 t 0 r /Helvetica findfont 57.777 sf 0 0 m (0) show NC gr 
 gsave  2254 561 2 2 C 213.552 261.008 t 0 r /Helvetica findfont 57.777 sf 0 0 m (0.5) show NC gr 
 gsave  2254 561 2 2 C 271.177 342.361 t 0 r /Helvetica findfont 57.777 sf 0 0 m (1) show NC gr 
 gsave  2254 561 2 2 C 213.552 423.714 t 0 r /Helvetica findfont 57.777 sf 0 0 m (1.5) show NC gr 
 gsave  2254 561 2 2 C 261.008 505.067 t 0 r /Helvetica findfont 57.777 sf 0 0 m (2) show NC gr  2178 187 m 358 Y s 2135 203 m 43 X s 2157 220 m 21 X s 2157 236 m 21 X s 2157 252 m 21 X s 2157 268 m 21 X s 2135 285 m 43 X s 2157 301 m 21 X s 2157 317
 m 21 X s 2157 334 m 21 X s 2157 350 m 21 X s 2135 366 m 43 X s 2157 382 m 21 X s 2157 399 m 21 X s 2157 415 m 21 X s 2157 431 m 21 X s 2135 447 m 43 X s 2157 464 m 21 X s 2157 480 m 21 X s 2157 496 m 21 X s 2157 512 m 21 X s 2135 529 m 43 X s 2135
 203 m 43 X s 2157 187 m 21 X s 2135 529 m 43 X s 9 lw 550 372 m 6 Y s 550 378 m cl s 550 345 m -6 Y s 550 339 m cl s 643 362 m 18 Y s 643 380 m cl s 643 334 m -17 Y s 643 317 m cl s 736 388 m 42 Y s 736 430 m cl s 736 361 m -40 Y s 736 321 m cl s
 829 260 m 42 Y s 829 302 m cl s 829 233 m -22 Y s 829 211 m cl s 923 283 m 71 Y s 923 354 m cl s 923 255 m -40 Y s 923 215 m cl s 1016 545 m -211 Y s 1016 334 m cl s 1109 545 m -253 Y s 1109 292 m cl s 1202 545 m -227 Y s 1202 318 m cl s 3 lw 364
 371 457 365 550 358 643 348 736 374 829 247 923 269 7 { m20} R 9 lw 1 0 0 c 6 lw black 3 lw 1 0 0 c 2155 203 m cl s 2127 203 m cl s 2098 203 m cl s 2069 203 m cl s 2040 203 m cl s 2012 203 m cl s 1983 203 m cl s 1954 203 m cl s 1926 203 m cl s 1897
 203 m cl s 1868 203 m cl s 1840 203 m cl s 1811 203 m cl s 1806 199 m s 1806 227 m -29 -28 d s 1806 256 m -57 -57 d s 1806 285 m -86 -86 d s 1806 313 m -93 -93 d s 1806 342 m -93 -93 d s 1806 370 m -97 -96 d s 1806 399 m -125 -125 d s 1620 214 m -26
 -27 d s 1806 428 m -154 -154 d s 1620 242 m -55 -55 d s 1806 456 m -183 -182 d s 1620 271 m -84 -84 d s 1806 485 m -279 -278 d s 1806 513 m -279 -278 d s 1798 533 m -289 -288 d s 1769 533 m -56 -55 d s 1694 458 m -214 -213 d s 1740 533 m -27 -27 d s
 1665 458 m -214 -213 d s 1636 458 m -202 -201 d s 1620 471 m -186 -186 d s 1620 499 m -210 -209 d s 1620 528 m -239 -238 d s 1608 545 m -255 -255 d s 1580 545 m -53 -52 d s 1522 487 m -198 -198 d s 1551 545 m -24 -24 d s 1493 487 m -198 -198 d s
 1464 487 m -30 -30 d s 1419 442 m -153 -153 d s 1435 487 m -1 -1 d s 1391 442 m -143 -142 d s 1362 442 m -118 -117 d s 1334 443 m -118 -118 d s 1305 443 m -118 -118 d s 1276 443 m -28 -28 d s 1241 407 m -83 -82 d s 1212 407 m -84 -84 d s 1183 407 m
 -84 -84 d s 1155 408 m -84 -85 d s 1127 409 m -76 -77 d s 1099 409 m -77 -77 d s 1070 409 m -8 -8 d s 1061 400 m -68 -68 d s 1033 400 m -70 -69 d s 1004 400 m -69 -69 d s 975 400 m -69 -69 d s 948 401 m -71 -70 d s 919 401 m -62 -61 d s 891 401 m
 -62 -61 d s 853 392 m -53 -52 d s 824 392 m -45 -45 d s 796 392 m -46 -45 d s 759 385 m -38 -38 d s 731 385 m -38 -38 d s 702 385 m -34 -34 d s 669 381 m -29 -30 d s 640 381 m -29 -30 d s 612 381 m -26 -26 d s 579 377 m -21 -22 d s 550 377 m -21 -22
 d s 522 377 m -20 -20 d s 491 375 m -18 -18 d s 462 375 m -17 -18 d s 318 231 m s 434 375 m -18 -18 d s 318 259 m s 406 376 m -20 -20 d s 318 288 m s 378 376 m -21 -20 d s 318 317 m s 349 376 m -21 -20 d s 318 345 m s 320 376 m -2 -2 d s 6 lw black[
 4 8] 0 sd 3 lw 318 447 m 1860 X s 318 285 m 1860 X s 1 0 0 c[  12 12 ] 0 sd 6 lw 318 366 m 1860 X s
 gr  gr showpage
end
%%EOF
