%!PS-Adobe-2.0 EPSF-2.0
%%BoundingBox:  0 0 567 521
%%Title: Distributions/met_distrVR0LmetSig_MB-C_beforeFit_forThesis.eps: canvas
%%Creator: ROOT Version 6.04/16
%%CreationDate: Tue May 19 22:02:07 2020
%%DocumentNeededResources: ProcSet (FontSetInit)
%%EndComments
%%BeginProlog
80 dict begin
/s {stroke} def /l {lineto} def /m {moveto} def /t {translate} def
/r {rotate} def /rl {roll}  def /R {repeat} def
/d {rlineto} def /rm {rmoveto} def /gr {grestore} def /f {eofill} def
/c {setrgbcolor} def /black {0 setgray} def /sd {setdash} def
/cl {closepath} def /sf {scalefont setfont} def /lw {setlinewidth} def
/box {m dup 0 exch d exch 0 d 0 exch neg d cl} def
/NC{systemdict begin initclip end}def/C{NC box clip newpath}def
/bl {box s} def /bf {gsave box gsave f grestore 1 lw [] 0 sd s grestore} def /Y { 0 exch d} def /X { 0 d} def 
/K {{pop pop 0 moveto} exch kshow} bind def
/ita {/ang 15 def gsave [1 0 ang dup sin exch cos div 1 0 0] concat} def 
/mp {newpath /y exch def /x exch def} def
/side {[w .77 mul w .23 mul] .385 w mul sd w 0 l currentpoint t -144 r} def
/mr {mp x y w2 0 360 arc} def /m24 {mr s} def /m20 {mr f} def
/mb {mp x y w2 add m w2 neg 0 d 0 w neg d w 0 d 0 w d cl} def
/mt {mp x y w2 add m w2 neg w neg d w 0 d cl} def
/m21 {mb f} def /m25 {mb s} def /m22 {mt f} def /m26{mt s} def
/m23 {mp x y w2 sub m w2 w d w neg 0 d cl f} def
/m27 {mp x y w2 add m w3 neg w2 neg d w3 w2 neg d w3 w2 d cl s} def
/m28 {mp x w2 sub y w2 sub w3 add m w3 0 d  0 w3 neg d w3 0 d 0 w3 d w3 0 d  0 w3 d w3 neg 0 d 0 w3 d w3 neg 0 d 0 w3 neg d w3 neg 0 d cl s } def
/m29 {mp gsave x w2 sub y w2 add w3 sub m currentpoint t 4 {side} repeat cl fill gr} def
/m30 {mp gsave x w2 sub y w2 add w3 sub m currentpoint t 4 {side} repeat cl s gr} def
/m31 {mp x y w2 sub m 0 w d x w2 sub y m w 0 d x w2 sub y w2 add m w w neg d x w2 sub y w2 sub m w w d s} def
/m32 {mp x y w2 sub m w2 w d w neg 0 d cl s} def
/m33 {mp x y w2 add m w3 neg w2 neg d w3 w2 neg d w3 w2 d cl f} def
/m34 {mp x w2 sub y w2 sub w3 add m w3 0 d  0 w3 neg d w3 0 d 0 w3 d w3 0 d  0 w3 d w3 neg 0 d 0 w3 d w3 neg 0 d 0 w3 neg d w3 neg 0 d cl f } def
/m2 {mp x y w2 sub m 0 w d x w2 sub y m w 0 d s} def
/m5 {mp x w2 sub y w2 sub m w w d x w2 sub y w2 add m w w neg d s} def
%%IncludeResource: ProcSet (FontSetInit)
%%IncludeResource: font Times-Roman
%%IncludeResource: font Times-Italic
%%IncludeResource: font Times-Bold
%%IncludeResource: font Times-BoldItalic
%%IncludeResource: font Helvetica
%%IncludeResource: font Helvetica-Oblique
%%IncludeResource: font Helvetica-Bold
%%IncludeResource: font Helvetica-BoldOblique
%%IncludeResource: font Courier
%%IncludeResource: font Courier-Oblique
%%IncludeResource: font Courier-Bold
%%IncludeResource: font Courier-BoldOblique
%%IncludeResource: font Symbol
%%IncludeResource: font ZapfDingbats
/reEncode {exch findfont dup length dict begin {1 index /FID eq  {pop pop} {def} ifelse } forall /Encoding exch def currentdict end dup /FontName get exch definefont pop } def [/Times-Bold /Times-Italic /Times-BoldItalic /Helvetica /Helvetica-Oblique
 /Helvetica-Bold /Helvetica-BoldOblique /Courier /Courier-Oblique /Courier-Bold /Courier-BoldOblique /Times-Roman /AvantGarde-Book /AvantGarde-BookOblique /AvantGarde-Demi /AvantGarde-DemiOblique /Bookman-Demi /Bookman-DemiItalic /Bookman-Light
 /Bookman-LightItalic /Helvetica-Narrow /Helvetica-Narrow-Bold /Helvetica-Narrow-BoldOblique /Helvetica-Narrow-Oblique /NewCenturySchlbk-Roman /NewCenturySchlbk-Bold /NewCenturySchlbk-BoldItalic /NewCenturySchlbk-Italic /Palatino-Bold
 /Palatino-BoldItalic /Palatino-Italic /Palatino-Roman ] {ISOLatin1Encoding reEncode } forall
%%EndProlog
%%BeginSetup
%%EndSetup
newpath  gsave  .25 .25 scale  gsave  0 0 t black[  ] 0 sd 3 lw 1 1 1 c 2268 2085 0 0 bf black 1 1 1 c 2263 1770 2 313 bf black 1 1 1 c black 1860 1145 319 584 bl 1 1 1 c black 1860 1145 319 584 bl 6 lw 1 1 1 c black 3 lw /w 33 def /w2 {w 2 div} def
 /w3 {w 3 div} def 552 1031 m20 6 lw 3 lw 645 1091 m20 6 lw 3 lw 738 1084 m20 6 lw 3 lw 831 1034 m20 6 lw 3 lw 924 991 m20 6 lw 1017 913 m s 3 lw 1017 926 m20 6 lw 1110 871 m 6 Y s 1110 904 m 1 Y s 3 lw 1110 891 m20 6 lw 1203 853 m 9 Y s 1203 889 m 3
 Y s 3 lw 1203 876 m20 6 lw 1296 818 m 16 Y s 1296 861 m 6 Y s 3 lw 1296 848 m20 6 lw 1389 770 m 29 Y s 1389 826 m 12 Y s 3 lw 1389 813 m20 6 lw 1482 694 m 62 Y s 1482 784 m 19 Y s 3 lw 1482 770 m20 6 lw 1761 694 m 62 Y s 1761 784 m 19 Y s 3 lw 1761
 770 m20 6 lw 3 lw 319 584 m 1860 X s
 gsave  2263 1770 2 313 C 1949.08 355.92 t 0 r /Helvetica findfont 81.3741 sf 0 0 m ( [GeV]) show NC gr 
 gsave  2263 1770 2 313 C 1837.22 396.596 t 0 r /Helvetica findfont 54.2494 sf 0 0 m (miss) show NC gr 
 gsave  2263 1770 2 313 C 1837.22 332.192 t 0 r /Helvetica findfont 54.2494 sf 0 0 m (T) show NC gr 
 gsave  2263 1770 2 313 C 1786.38 355.92 t 0 r /Helvetica findfont 81.3741 sf 0 0 m (E) show NC gr  412 584 m cl s 459 584 m cl s 505 584 m cl s 552 584 m cl s 598 584 m cl s 645 584 m cl s 691 584 m cl s 738 584 m cl s 784 584 m cl s 831 584 m cl s
 877 584 m cl s 924 584 m cl s 970 584 m cl s 1017 584 m cl s 1063 584 m cl s 1110 584 m cl s 1156 584 m cl s 1203 584 m cl s 1249 584 m cl s 1296 584 m cl s 1342 584 m cl s 1389 584 m cl s 1435 584 m cl s 1482 584 m cl s 1528 584 m cl s 1575 584 m
 cl s 1621 584 m cl s 1668 584 m cl s 1714 584 m cl s 1761 584 m cl s 1807 584 m cl s 1854 584 m cl s 1900 584 m cl s 1947 584 m cl s 1993 584 m cl s 2040 584 m cl s 2086 584 m cl s 412 584 m cl s 366 584 m cl s 319 584 m cl s 2086 584 m cl s 2133
 584 m cl s 2179 584 m cl s 319 1729 m 1860 X s 412 1729 m cl s 459 1729 m cl s 505 1729 m cl s 552 1729 m cl s 598 1729 m cl s 645 1729 m cl s 691 1729 m cl s 738 1729 m cl s 784 1729 m cl s 831 1729 m cl s 877 1729 m cl s 924 1729 m cl s 970 1729 m
 cl s 1017 1729 m cl s 1063 1729 m cl s 1110 1729 m cl s 1156 1729 m cl s 1203 1729 m cl s 1249 1729 m cl s 1296 1729 m cl s 1342 1729 m cl s 1389 1729 m cl s 1435 1729 m cl s 1482 1729 m cl s 1528 1729 m cl s 1575 1729 m cl s 1621 1729 m cl s 1668
 1729 m cl s 1714 1729 m cl s 1761 1729 m cl s 1807 1729 m cl s 1854 1729 m cl s 1900 1729 m cl s 1947 1729 m cl s 1993 1729 m cl s 2040 1729 m cl s 2086 1729 m cl s 412 1729 m cl s 366 1729 m cl s 319 1729 m cl s 2086 1729 m cl s 2133 1729 m cl s
 2179 1729 m cl s 319 584 m 1145 Y s
 gsave  2263 1770 2 313 C 166.096 1091.49 t 90 r /Helvetica findfont 81.3741 sf 0 0 m (Events / 100 GeV) show NC gr  341 627 m -22 X s 341 652 m -22 X s 341 670 m -22 X s 341 684 m -22 X s 341 695 m -22 X s 341 705 m -22 X s 341 713 m -22 X s 341 720
 m -22 X s 363 727 m -44 X s
 gsave  2263 1770 2 313 C 300.555 699.886 t 0 r  -36 0 t /Helvetica findfont 64.4212 sf 0 0 m (1) show NC gr  341 770 m -22 X s 341 795 m -22 X s 341 813 m -22 X s 341 827 m -22 X s 341 838 m -22 X s 341 848 m -22 X s 341 856 m -22 X s 341 863 m -22
 X s 363 870 m -44 X s
 gsave  2263 1770 2 313 C 300.555 842.58 t 0 r  -73 0 t /Helvetica findfont 64.4212 sf 0 0 m (10) show NC gr  341 913 m -22 X s 341 938 m -22 X s 341 956 m -22 X s 341 969 m -22 X s 341 981 m -22 X s 341 990 m -22 X s 341 999 m -22 X s 341 1006 m -22
 X s 363 1012 m -44 X s
 gsave  2263 1770 2 313 C 274.567 1010.13 t 0 r /Helvetica findfont 44.0776 sf 0 0 m (2) show NC gr 
 gsave  2263 1770 2 313 C 203.383 983.016 t 0 r /Helvetica findfont 64.4212 sf 0 0 m (10) show NC gr  341 1055 m -22 X s 341 1080 m -22 X s 341 1098 m -22 X s 341 1112 m -22 X s 341 1123 m -22 X s 341 1133 m -22 X s 341 1141 m -22 X s 341 1149 m -22
 X s 363 1155 m -44 X s
 gsave  2263 1770 2 313 C 274.567 1155.89 t 0 r /Helvetica findfont 44.0776 sf 0 0 m (3) show NC gr 
 gsave  2263 1770 2 313 C 203.383 1125.38 t 0 r /Helvetica findfont 64.4212 sf 0 0 m (10) show NC gr  341 1198 m -22 X s 341 1223 m -22 X s 341 1241 m -22 X s 341 1255 m -22 X s 341 1266 m -22 X s 341 1276 m -22 X s 341 1284 m -22 X s 341 1291 m -22
 X s 363 1298 m -44 X s
 gsave  2263 1770 2 313 C 274.567 1294.87 t 0 r /Helvetica findfont 44.0776 sf 0 0 m (4) show NC gr 
 gsave  2263 1770 2 313 C 203.383 1267.75 t 0 r /Helvetica findfont 64.4212 sf 0 0 m (10) show NC gr  341 1341 m -22 X s 341 1366 m -22 X s 341 1384 m -22 X s 341 1398 m -22 X s 341 1409 m -22 X s 341 1418 m -22 X s 341 1427 m -22 X s 341 1434 m -22
 X s 363 1440 m -44 X s
 gsave  2263 1770 2 313 C 274.567 1440.63 t 0 r /Helvetica findfont 44.0776 sf 0 0 m (5) show NC gr 
 gsave  2263 1770 2 313 C 203.383 1410.12 t 0 r /Helvetica findfont 64.4212 sf 0 0 m (10) show NC gr  341 1483 m -22 X s 341 1509 m -22 X s 341 1526 m -22 X s 341 1540 m -22 X s 341 1552 m -22 X s 341 1561 m -22 X s 341 1569 m -22 X s 341 1577 m -22
 X s 363 1583 m -44 X s
 gsave  2263 1770 2 313 C 274.567 1586.38 t 0 r /Helvetica findfont 44.0776 sf 0 0 m (6) show NC gr 
 gsave  2263 1770 2 313 C 203.383 1555.88 t 0 r /Helvetica findfont 64.4212 sf 0 0 m (10) show NC gr  341 1626 m -22 X s 341 1651 m -22 X s 341 1669 m -22 X s 341 1683 m -22 X s 341 1694 m -22 X s 341 1704 m -22 X s 341 1712 m -22 X s 341 1719 m -22
 X s 363 1726 m -44 X s
 gsave  2263 1770 2 313 C 274.567 1725.36 t 0 r /Helvetica findfont 44.0776 sf 0 0 m (7) show NC gr 
 gsave  2263 1770 2 313 C 203.383 1698.25 t 0 r /Helvetica findfont 64.4212 sf 0 0 m (10) show NC gr  2179 584 m 1145 Y s 2157 627 m 22 X s 2157 652 m 22 X s 2157 670 m 22 X s 2157 684 m 22 X s 2157 695 m 22 X s 2157 705 m 22 X s 2157 713 m 22 X s
 2157 720 m 22 X s 2136 727 m 43 X s 2157 770 m 22 X s 2157 795 m 22 X s 2157 813 m 22 X s 2157 827 m 22 X s 2157 838 m 22 X s 2157 848 m 22 X s 2157 856 m 22 X s 2157 863 m 22 X s 2136 870 m 43 X s 2157 913 m 22 X s 2157 938 m 22 X s 2157 956 m 22 X
 s 2157 969 m 22 X s 2157 981 m 22 X s 2157 990 m 22 X s 2157 999 m 22 X s 2157 1006 m 22 X s 2136 1012 m 43 X s 2157 1055 m 22 X s 2157 1080 m 22 X s 2157 1098 m 22 X s 2157 1112 m 22 X s 2157 1123 m 22 X s 2157 1133 m 22 X s 2157 1141 m 22 X s 2157
 1149 m 22 X s 2136 1155 m 43 X s 2157 1198 m 22 X s 2157 1223 m 22 X s 2157 1241 m 22 X s 2157 1255 m 22 X s 2157 1266 m 22 X s 2157 1276 m 22 X s 2157 1284 m 22 X s 2157 1291 m 22 X s 2136 1298 m 43 X s 2157 1341 m 22 X s 2157 1366 m 22 X s 2157
 1384 m 22 X s 2157 1398 m 22 X s 2157 1409 m 22 X s 2157 1418 m 22 X s 2157 1427 m 22 X s 2157 1434 m 22 X s 2136 1440 m 43 X s 2157 1483 m 22 X s 2157 1509 m 22 X s 2157 1526 m 22 X s 2157 1540 m 22 X s 2157 1552 m 22 X s 2157 1561 m 22 X s 2157
 1569 m 22 X s 2157 1577 m 22 X s 2136 1583 m 43 X s 2157 1626 m 22 X s 2157 1651 m 22 X s 2157 1669 m 22 X s 2157 1683 m 22 X s 2157 1694 m 22 X s 2157 1704 m 22 X s 2157 1712 m 22 X s 2157 1719 m 22 X s 2136 1726 m 43 X s 0.4 0.6 1 c black 0.4 0.6
 1 c 319 584 m 186 X 465 Y 93 X 52 Y 93 X -15 Y 93 X -39 Y 93 X -46 Y 93 X -51 Y 93 X -36 Y 93 X -47 Y 93 X -48 Y 93 X -47 Y 93 X -7 Y 93 X -41 Y 93 X 6 Y 93 X -105 Y 93 X -1 Y 93 X -35 Y 93 X 21 Y 93 X -26 Y 93 X f black 0.4 0.6 1 c black 319 584 m
 186 X 465 Y 93 X 52 Y 93 X -15 Y 93 X -39 Y 93 X -46 Y 93 X -51 Y 93 X -36 Y 93 X -47 Y 93 X -48 Y 93 X -47 Y 93 X -7 Y 93 X -41 Y 93 X 6 Y 93 X -105 Y 93 X -1 Y 93 X -35 Y 93 X 21 Y 93 X -26 Y 93 X s 0.999 0.999 0.999 c black 0.999 0.999 0.999 c
 319 584 m 186 X 442 Y 93 X 50 Y 93 X -17 Y 93 X -41 Y 93 X -44 Y 93 X -50 Y 93 X -31 Y 93 X -45 Y 93 X -50 Y 93 X -55 Y 93 X -6 Y 93 X -43 Y 93 X 30 Y 93 X -117 Y 93 X -19 Y 93 X -4 Y 93 X 26 Y 93 X -26 Y 93 X f black 0.999 0.999 0.999 c black 319
 584 m 186 X 442 Y 93 X 50 Y 93 X -17 Y 93 X -41 Y 93 X -44 Y 93 X -50 Y 93 X -31 Y 93 X -45 Y 93 X -50 Y 93 X -55 Y 93 X -6 Y 93 X -43 Y 93 X 30 Y 93 X -117 Y 93 X -19 Y 93 X -4 Y 93 X 26 Y 93 X -26 Y 93 X s 1 1 1 c black 319 584 m 186 X 442 Y 93 X
 50 Y 93 X -17 Y 93 X -41 Y 93 X -44 Y 93 X -50 Y 93 X -31 Y 93 X -45 Y 93 X -50 Y 93 X -55 Y 93 X -6 Y 93 X -43 Y 93 X 30 Y 93 X -117 Y 93 X -19 Y 93 X -4 Y 93 X 26 Y 93 X -26 Y 93 X s 0.6 1 0.6 c black 0.6 1 0.6 c 319 584 m 186 X 442 Y 93 X 50 Y 93
 X -17 Y 93 X -41 Y 93 X -44 Y 93 X -50 Y 93 X -31 Y 93 X -45 Y 93 X -50 Y 93 X -55 Y 93 X -6 Y 93 X -43 Y 93 X 30 Y 93 X -117 Y 93 X -19 Y 93 X -4 Y 93 X 26 Y 93 X -26 Y 93 X f black 0.6 1 0.6 c black 319 584 m 186 X 442 Y 93 X 50 Y 93 X -17 Y 93 X
 -41 Y 93 X -44 Y 93 X -50 Y 93 X -31 Y 93 X -45 Y 93 X -50 Y 93 X -55 Y 93 X -6 Y 93 X -43 Y 93 X 30 Y 93 X -117 Y 93 X -19 Y 93 X -4 Y 93 X 26 Y 93 X -26 Y 93 X s 0.999 0.999 0.999 c black 0.999 0.999 0.999 c 319 584 m 186 X 409 Y 93 X 54 Y 93 X
 -10 Y 93 X -38 Y 93 X -40 Y 93 X -49 Y 93 X -38 Y 93 X -39 Y 93 X -42 Y 93 X -59 Y 93 X -4 Y 93 X -40 Y 93 X 34 Y 93 X -116 Y 93 X -22 Y 186 X 25 Y 93 X -25 Y 93 X f black 0.999 0.999 0.999 c black 319 584 m 186 X 409 Y 93 X 54 Y 93 X -10 Y 93 X -38
 Y 93 X -40 Y 93 X -49 Y 93 X -38 Y 93 X -39 Y 93 X -42 Y 93 X -59 Y 93 X -4 Y 93 X -40 Y 93 X 34 Y 93 X -116 Y 93 X -22 Y 186 X 25 Y 93 X -25 Y 93 X s 1 1 1 c black 319 584 m 186 X 409 Y 93 X 54 Y 93 X -10 Y 93 X -38 Y 93 X -40 Y 93 X -49 Y 93 X -38
 Y 93 X -39 Y 93 X -42 Y 93 X -59 Y 93 X -4 Y 93 X -40 Y 93 X 34 Y 93 X -116 Y 93 X -22 Y 186 X 25 Y 93 X -25 Y 93 X s 1 0.8 0.4 c black 1 0.8 0.4 c 319 584 m 186 X 409 Y 93 X 54 Y 93 X -10 Y 93 X -38 Y 93 X -40 Y 93 X -49 Y 93 X -38 Y 93 X -39 Y 93
 X -42 Y 93 X -59 Y 93 X -4 Y 93 X -40 Y 93 X 34 Y 93 X -116 Y 93 X -22 Y 186 X 25 Y 93 X -25 Y 93 X f black 1 0.8 0.4 c black 319 584 m 186 X 409 Y 93 X 54 Y 93 X -10 Y 93 X -38 Y 93 X -40 Y 93 X -49 Y 93 X -38 Y 93 X -39 Y 93 X -42 Y 93 X -59 Y 93
 X -4 Y 93 X -40 Y 93 X 34 Y 93 X -116 Y 93 X -22 Y 186 X 25 Y 93 X -25 Y 93 X s 0.999 0.999 0.999 c black 0.999 0.999 0.999 c 319 584 m 186 X 277 Y 93 X 58 Y 93 X -11 Y 93 X -44 Y 93 X -28 Y 93 X -64 Y 93 X -16 Y 93 X -17 Y 93 X -81 Y 93 X -74 Y 186
 X 76 Y 93 X -76 Y 558 X f black 0.999 0.999 0.999 c black 319 584 m 186 X 277 Y 93 X 58 Y 93 X -11 Y 93 X -44 Y 93 X -28 Y 93 X -64 Y 93 X -16 Y 93 X -17 Y 93 X -81 Y 93 X -74 Y 186 X 76 Y 93 X -76 Y 558 X s 1 1 1 c black 319 584 m 186 X 277 Y 93 X
 58 Y 93 X -11 Y 93 X -44 Y 93 X -28 Y 93 X -64 Y 93 X -16 Y 93 X -17 Y 93 X -81 Y 93 X -74 Y 186 X 76 Y 93 X -76 Y 558 X s 1 0.4 0.6 c black 1 0.4 0.6 c 319 584 m 186 X 277 Y 93 X 58 Y 93 X -11 Y 93 X -44 Y 93 X -28 Y 93 X -64 Y 93 X -16 Y 93 X -17
 Y 93 X -81 Y 93 X -74 Y 186 X 76 Y 93 X -76 Y 558 X f black 1 0.4 0.6 c black 319 584 m 186 X 277 Y 93 X 58 Y 93 X -11 Y 93 X -44 Y 93 X -28 Y 93 X -64 Y 93 X -16 Y 93 X -17 Y 93 X -81 Y 93 X -74 Y 186 X 76 Y 93 X -76 Y 558 X s 0.999 0.999 0.999 c
 black 0.999 0.999 0.999 c 319 584 m 186 X 60 Y 93 X -1 Y 93 X -33 Y 186 X 18 Y 93 X -18 Y 93 X -26 Y 1116 X f black 0.999 0.999 0.999 c black 319 584 m 186 X 60 Y 93 X -1 Y 93 X -33 Y 186 X 18 Y 93 X -18 Y 93 X -26 Y 1116 X s 1 1 1 c black 319 584 m
 186 X 60 Y 93 X -1 Y 93 X -33 Y 186 X 18 Y 93 X -18 Y 93 X -26 Y 1116 X s 0 0 0.4 c black 0 0 0.4 c 319 584 m 186 X 60 Y 93 X -1 Y 93 X -33 Y 186 X 18 Y 93 X -18 Y 93 X -26 Y 1116 X f black 0 0 0.4 c black 319 584 m 186 X 60 Y 93 X -1 Y 93 X -33 Y
 186 X 18 Y 93 X -18 Y 93 X -26 Y 1116 X s 1 0 0 c 6 lw 1 1 1 c black 1 0 0 c 319 584 m 186 X 465 Y 93 X 52 Y 93 X -15 Y 93 X -39 Y 93 X -46 Y 93 X -51 Y 93 X -36 Y 93 X -47 Y 93 X -48 Y 93 X -47 Y 93 X -7 Y 93 X -41 Y 93 X 6 Y 93 X -105 Y 93 X -1 Y
 93 X -35 Y 93 X 21 Y 93 X -26 Y 93 X s black 3 lw 1 0 0 c 1 lw << /PatternType 1 /PaintType 2 /TilingType 1 /BBox [ 0 0 100 100 ] /XStep 100 /YStep 100 /PaintProc { begin gsave 0 100 m 100 0 l s gr end } >> [ 0.24 0 0 0.24 0 0 ] makepattern /P05
 exch def /cs {[/Pattern /DeviceRGB] setcolorspace} def /FA {f [/DeviceRGB] setcolorspace} def cs 1 0 0 P05 setcolor 505 584 m 468 Y 93 X 52 Y 93 X -15 Y 93 X -39 Y 93 X -46 Y 93 X -51 Y 93 X -34 Y 93 X -45 Y 93 X -46 Y 93 X -51 Y 93 X 2 Y 93 X -38 Y
 93 X 18 Y 93 X -122 Y 93 X 1 Y 93 X -30 Y 93 X 38 Y 93 X -42 Y 93 X -20 Y -279 X 23 Y -93 X 3 Y -93 X 63 Y -93 X 28 Y -93 X 46 Y -93 X 19 Y -93 X 44 Y -93 X 49 Y -93 X 50 Y -93 X 37 Y -93 X 51 Y -93 X 46 Y -93 X 40 Y -93 X 15 Y -93 X -52 Y -93 X
 -462 Y FA 6 lw 1 1 1 c 15 lw 1203 855 m -1 Y s 1203 854 m cl s 1296 868 m s 1296 868 m cl s 1296 827 m -8 Y s 1296 819 m cl s 1389 833 m 7 Y s 1389 840 m cl s 1389 793 m -20 Y s 1389 773 m cl s 1482 790 m 17 Y s 1482 807 m cl s 1482 750 m -44 Y s
 1482 706 m cl s 1761 790 m 17 Y s 1761 807 m cl s 1761 750 m -44 Y s 1761 706 m cl s black 1 1 1 c 3 lw /w 43 def /w2 {w 2 div} def /w3 {w 3 div} def 552 1031 645 1091 738 1084 831 1034 924 991 1017 926 1110 891 1203 876 1296 848 1389 813 1482 770
 11 { m20} R 15 lw 3 lw 1761 770 m20 15 lw black 6 lw 1 1 1 c black 3 lw /w 33 def /w2 {w 2 div} def /w3 {w 3 div} def 552 1031 m20 6 lw 3 lw 645 1091 m20 6 lw 3 lw 738 1084 m20 6 lw 3 lw 831 1034 m20 6 lw 3 lw 924 991 m20 6 lw 1017 913 m s 3 lw 1017
 926 m20 6 lw 1110 871 m 6 Y s 1110 904 m 1 Y s 3 lw 1110 891 m20 6 lw 1203 853 m 9 Y s 1203 889 m 3 Y s 3 lw 1203 876 m20 6 lw 1296 818 m 16 Y s 1296 861 m 6 Y s 3 lw 1296 848 m20 6 lw 1389 770 m 29 Y s 1389 826 m 12 Y s 3 lw 1389 813 m20 6 lw 1482
 694 m 62 Y s 1482 784 m 19 Y s 3 lw 1482 770 m20 6 lw 1761 694 m 62 Y s 1761 784 m 19 Y s 3 lw 1761 770 m20 6 lw 1017 913 m s 1017 913 m cl s 1110 904 m 1 Y s 1110 905 m cl s 1110 877 m -5 Y s 1110 872 m cl s 1203 889 m 3 Y s 1203 892 m cl s 1203
 862 m -8 Y s 1203 854 m cl s 1296 861 m 7 Y s 1296 868 m cl s 1296 834 m -15 Y s 1296 819 m cl s 1389 826 m 14 Y s 1389 840 m cl s 1389 799 m -26 Y s 1389 773 m cl s 1482 784 m 23 Y s 1482 807 m cl s 1482 756 m -50 Y s 1482 706 m cl s 1761 784 m 23
 Y s 1761 807 m cl s 1761 756 m -50 Y s 1761 706 m cl s 3 lw 552 1031 645 1091 738 1084 831 1034 924 991 1017 926 1110 891 1203 876 1296 848 1389 813 1482 770 11 { m20} R 6 lw 3 lw 1761 770 m20 6 lw 3 lw 319 584 m 1860 X s 412 584 m cl s 459 584 m cl
 s 505 584 m cl s 552 584 m cl s 598 584 m cl s 645 584 m cl s 691 584 m cl s 738 584 m cl s 784 584 m cl s 831 584 m cl s 877 584 m cl s 924 584 m cl s 970 584 m cl s 1017 584 m cl s 1063 584 m cl s 1110 584 m cl s 1156 584 m cl s 1203 584 m cl s
 1249 584 m cl s 1296 584 m cl s 1342 584 m cl s 1389 584 m cl s 1435 584 m cl s 1482 584 m cl s 1528 584 m cl s 1575 584 m cl s 1621 584 m cl s 1668 584 m cl s 1714 584 m cl s 1761 584 m cl s 1807 584 m cl s 1854 584 m cl s 1900 584 m cl s 1947 584
 m cl s 1993 584 m cl s 2040 584 m cl s 2086 584 m cl s 412 584 m cl s 366 584 m cl s 319 584 m cl s 2086 584 m cl s 2133 584 m cl s 2179 584 m cl s 319 1729 m 1860 X s 412 1729 m cl s 459 1729 m cl s 505 1729 m cl s 552 1729 m cl s 598 1729 m cl s
 645 1729 m cl s 691 1729 m cl s 738 1729 m cl s 784 1729 m cl s 831 1729 m cl s 877 1729 m cl s 924 1729 m cl s 970 1729 m cl s 1017 1729 m cl s 1063 1729 m cl s 1110 1729 m cl s 1156 1729 m cl s 1203 1729 m cl s 1249 1729 m cl s 1296 1729 m cl s
 1342 1729 m cl s 1389 1729 m cl s 1435 1729 m cl s 1482 1729 m cl s 1528 1729 m cl s 1575 1729 m cl s 1621 1729 m cl s 1668 1729 m cl s 1714 1729 m cl s 1761 1729 m cl s 1807 1729 m cl s 1854 1729 m cl s 1900 1729 m cl s 1947 1729 m cl s 1993 1729 m
 cl s 2040 1729 m cl s 2086 1729 m cl s 412 1729 m cl s 366 1729 m cl s 319 1729 m cl s 2086 1729 m cl s 2133 1729 m cl s 2179 1729 m cl s 319 584 m 1145 Y s 341 627 m -22 X s 341 652 m -22 X s 341 670 m -22 X s 341 684 m -22 X s 341 695 m -22 X s
 341 705 m -22 X s 341 713 m -22 X s 341 720 m -22 X s 363 727 m -44 X s 341 770 m -22 X s 341 795 m -22 X s 341 813 m -22 X s 341 827 m -22 X s 341 838 m -22 X s 341 848 m -22 X s 341 856 m -22 X s 341 863 m -22 X s 363 870 m -44 X s 341 913 m -22 X
 s 341 938 m -22 X s 341 956 m -22 X s 341 969 m -22 X s 341 981 m -22 X s 341 990 m -22 X s 341 999 m -22 X s 341 1006 m -22 X s 363 1012 m -44 X s 341 1055 m -22 X s 341 1080 m -22 X s 341 1098 m -22 X s 341 1112 m -22 X s 341 1123 m -22 X s 341
 1133 m -22 X s 341 1141 m -22 X s 341 1149 m -22 X s 363 1155 m -44 X s 341 1198 m -22 X s 341 1223 m -22 X s 341 1241 m -22 X s 341 1255 m -22 X s 341 1266 m -22 X s 341 1276 m -22 X s 341 1284 m -22 X s 341 1291 m -22 X s 363 1298 m -44 X s 341
 1341 m -22 X s 341 1366 m -22 X s 341 1384 m -22 X s 341 1398 m -22 X s 341 1409 m -22 X s 341 1418 m -22 X s 341 1427 m -22 X s 341 1434 m -22 X s 363 1440 m -44 X s 341 1483 m -22 X s 341 1509 m -22 X s 341 1526 m -22 X s 341 1540 m -22 X s 341
 1552 m -22 X s 341 1561 m -22 X s 341 1569 m -22 X s 341 1577 m -22 X s 363 1583 m -44 X s 341 1626 m -22 X s 341 1651 m -22 X s 341 1669 m -22 X s 341 1683 m -22 X s 341 1694 m -22 X s 341 1704 m -22 X s 341 1712 m -22 X s 341 1719 m -22 X s 363
 1726 m -44 X s 2179 584 m 1145 Y s 2157 627 m 22 X s 2157 652 m 22 X s 2157 670 m 22 X s 2157 684 m 22 X s 2157 695 m 22 X s 2157 705 m 22 X s 2157 713 m 22 X s 2157 720 m 22 X s 2136 727 m 43 X s 2157 770 m 22 X s 2157 795 m 22 X s 2157 813 m 22 X
 s 2157 827 m 22 X s 2157 838 m 22 X s 2157 848 m 22 X s 2157 856 m 22 X s 2157 863 m 22 X s 2136 870 m 43 X s 2157 913 m 22 X s 2157 938 m 22 X s 2157 956 m 22 X s 2157 969 m 22 X s 2157 981 m 22 X s 2157 990 m 22 X s 2157 999 m 22 X s 2157 1006 m
 22 X s 2136 1012 m 43 X s 2157 1055 m 22 X s 2157 1080 m 22 X s 2157 1098 m 22 X s 2157 1112 m 22 X s 2157 1123 m 22 X s 2157 1133 m 22 X s 2157 1141 m 22 X s 2157 1149 m 22 X s 2136 1155 m 43 X s 2157 1198 m 22 X s 2157 1223 m 22 X s 2157 1241 m 22
 X s 2157 1255 m 22 X s 2157 1266 m 22 X s 2157 1276 m 22 X s 2157 1284 m 22 X s 2157 1291 m 22 X s 2136 1298 m 43 X s 2157 1341 m 22 X s 2157 1366 m 22 X s 2157 1384 m 22 X s 2157 1398 m 22 X s 2157 1409 m 22 X s 2157 1418 m 22 X s 2157 1427 m 22 X
 s 2157 1434 m 22 X s 2136 1440 m 43 X s 2157 1483 m 22 X s 2157 1509 m 22 X s 2157 1526 m 22 X s 2157 1540 m 22 X s 2157 1552 m 22 X s 2157 1561 m 22 X s 2157 1569 m 22 X s 2157 1577 m 22 X s 2136 1583 m 43 X s 2157 1626 m 22 X s 2157 1651 m 22 X s
 2157 1669 m 22 X s 2157 1683 m 22 X s 2157 1694 m 22 X s 2157 1704 m 22 X s 2157 1712 m 22 X s 2157 1719 m 22 X s 2136 1726 m 43 X s
 gsave  2263 1770 2 313 C 406.765 1447.41 t 0 r /Helvetica findfont 64.4212 sf 0 0 m (VR0LmetSig for MB\255C) show NC gr 
 gsave  2263 1770 2 313 C 1464.36 1630.45 t 0 r /Helvetica findfont 64.4212 sf 0 0 m (SM Total) show NC gr  1 1 1 c 1338 1616 m 107 X 64 Y -107 X f 1 0 0 c 6 lw 1338 1648 m 107 X s black
 gsave  2263 1770 2 313 C 1464.36 1538.93 t 0 r /Helvetica findfont 64.4212 sf 0 0 m (Data) show NC gr  1391 1529 m 55 Y s 3 lw 1391 1557 m20 6 lw
 gsave  2263 1770 2 313 C 1464.36 1447.41 t 0 r /Helvetica findfont 64.4212 sf 0 0 m (W+jets) show NC gr  0.4 0.6 1 c 3 lw 1338 1434 m 107 X 64 Y -107 X f 6 lw black 3 lw 1338 1498 m 107 X s 1338 1434 m 107 X s 1445 1434 m 64 Y s 1338 1434 m 64 Y s
 gsave  2263 1770 2 313 C 1498.25 1355.88 t 0 r /Helvetica findfont 64.4212 sf 0 0 m (\(+EW\) & single top) show NC gr 
 gsave  2263 1770 2 313 C 1481.3 1355.88 t 0 r /Helvetica findfont 64.4212 sf 0 0 m (t) show NC gr  1481 1407 m 17 X s
 gsave  2263 1770 2 313 C 1464.36 1355.88 t 0 r /Helvetica findfont 64.4212 sf 0 0 m (t) show NC gr  0.6 1 0.6 c 1338 1343 m 107 X 63 Y -107 X f black 1338 1406 m 107 X s 1338 1343 m 107 X s 1445 1343 m 63 Y s 1338 1343 m 63 Y s
 gsave  2263 1770 2 313 C 1464.36 1264.36 t 0 r /Helvetica findfont 64.4212 sf 0 0 m (Z+jets) show NC gr  1 0.8 0.4 c 1338 1252 m 107 X 63 Y -107 X f black 1338 1315 m 107 X s 1338 1252 m 107 X s 1445 1252 m 63 Y s 1338 1252 m 63 Y s
 gsave  2263 1770 2 313 C 1464.36 1172.84 t 0 r /Helvetica findfont 64.4212 sf 0 0 m (Diboson) show NC gr  1 0.4 0.6 c 1338 1161 m 107 X 63 Y -107 X f black 1338 1224 m 107 X s 1338 1161 m 107 X s 1445 1161 m 63 Y s 1338 1161 m 63 Y s
 gsave  2263 1770 2 313 C 1464.36 1081.32 t 0 r /Helvetica findfont 64.4212 sf 0 0 m (Multi\255jet) show NC gr  0 0 0.4 c 1338 1070 m 107 X 63 Y -107 X f black 1338 1133 m 107 X s 1338 1070 m 107 X s 1445 1070 m 63 Y s 1338 1070 m 63 Y s
 gsave  2263 1770 2 313 C 911.832 1566.05 t 0 r /Helvetica findfont 44.0776 sf 0 0 m (\2551) show NC gr 
 gsave  2263 1770 2 313 C 471.17 1535.54 t 0 r /Helvetica findfont 64.4212 sf 0 0 m (=13TeV, 139 fb) show NC gr 
 gsave  2263 1770 2 313 C 440.662 1535.54 t 0 r /Helvetica findfont 64.4212 sf 0 0 m (s) show NC gr  6 lw 420 1573 m 7 -41 d s 3 lw 427 1532 m 7 61 d s 434 1593 m 37 X s 1 1 1 c 2254 561 2 2 bf black 1 1 1 c black 1860 358 318 187 bl 1 1 1 c black
 1860 358 318 187 bl 6 lw 1 1 1 c black 3 lw 550 325 m20 6 lw 3 lw 643 341 m20 6 lw 3 lw 736 362 m20 6 lw 3 lw 829 335 m20 6 lw 3 lw 923 343 m20 6 lw 3 lw 1016 315 m20 6 lw 3 lw 1109 314 m20 6 lw 3 lw 1202 391 m20 6 lw 3 lw 1295 460 m20 6 lw 3 lw
 1388 519 m20 6 lw 3 lw 1481 378 m20 6 lw 3 lw 318 187 m 1860 X s
 gsave  2254 561 2 2 C 1959.25 27.1177 t 0 r /Helvetica findfont 78.1689 sf 0 0 m ( [GeV]) show NC gr 
 gsave  2254 561 2 2 C 1854.17 64.4045 t 0 r /Helvetica findfont 50.9797 sf 0 0 m (miss) show NC gr 
 gsave  2254 561 2 2 C 1854.17 3.38971 t 0 r /Helvetica findfont 50.9797 sf 0 0 m (T) show NC gr 
 gsave  2254 561 2 2 C 1803.33 27.1177 t 0 r /Helvetica findfont 78.1689 sf 0 0 m (E) show NC gr  411 201 m -14 Y s 457 194 m -7 Y s 504 194 m -7 Y s 550 194 m -7 Y s 597 201 m -14 Y s 643 194 m -7 Y s 690 194 m -7 Y s 736 194 m -7 Y s 783 201 m -14
 Y s 829 194 m -7 Y s 876 194 m -7 Y s 923 194 m -7 Y s 969 201 m -14 Y s 1016 194 m -7 Y s 1062 194 m -7 Y s 1109 194 m -7 Y s 1155 201 m -14 Y s 1202 194 m -7 Y s 1248 194 m -7 Y s 1295 194 m -7 Y s 1341 201 m -14 Y s 1388 194 m -7 Y s 1434 194 m
 -7 Y s 1481 194 m -7 Y s 1527 201 m -14 Y s 1574 194 m -7 Y s 1620 194 m -7 Y s 1667 194 m -7 Y s 1713 201 m -14 Y s 1760 194 m -7 Y s 1806 194 m -7 Y s 1853 194 m -7 Y s 1899 201 m -14 Y s 1946 194 m -7 Y s 1992 194 m -7 Y s 2039 194 m -7 Y s 2085
 201 m -14 Y s 411 201 m -14 Y s 364 194 m -7 Y s 318 194 m -7 Y s 2085 201 m -14 Y s 2132 194 m -7 Y s
 gsave  2254 561 2 2 C 345.75 118.64 t 0 r /Helvetica findfont 78.1689 sf 0 0 m (400) show NC gr 
 gsave  2254 561 2 2 C 532.185 118.64 t 0 r /Helvetica findfont 78.1689 sf 0 0 m (600) show NC gr 
 gsave  2254 561 2 2 C 715.229 118.64 t 0 r /Helvetica findfont 78.1689 sf 0 0 m (800) show NC gr 
 gsave  2254 561 2 2 C 877.935 118.64 t 0 r /Helvetica findfont 78.1689 sf 0 0 m (1000) show NC gr 
 gsave  2254 561 2 2 C 1064.37 118.64 t 0 r /Helvetica findfont 78.1689 sf 0 0 m (1200) show NC gr 
 gsave  2254 561 2 2 C 1250.8 118.64 t 0 r /Helvetica findfont 78.1689 sf 0 0 m (1400) show NC gr 
 gsave  2254 561 2 2 C 1437.24 118.64 t 0 r /Helvetica findfont 78.1689 sf 0 0 m (1600) show NC gr 
 gsave  2254 561 2 2 C 1623.67 118.64 t 0 r /Helvetica findfont 78.1689 sf 0 0 m (1800) show NC gr 
 gsave  2254 561 2 2 C 1810.11 118.64 t 0 r /Helvetica findfont 78.1689 sf 0 0 m (2000) show NC gr 
 gsave  2254 561 2 2 C 1996.54 118.64 t 0 r /Helvetica findfont 78.1689 sf 0 0 m (2200) show NC gr  318 545 m 1860 X s 411 531 m 14 Y s 457 538 m 7 Y s 504 538 m 7 Y s 550 538 m 7 Y s 597 531 m 14 Y s 643 538 m 7 Y s 690 538 m 7 Y s 736 538 m 7 Y s
 783 531 m 14 Y s 829 538 m 7 Y s 876 538 m 7 Y s 923 538 m 7 Y s 969 531 m 14 Y s 1016 538 m 7 Y s 1062 538 m 7 Y s 1109 538 m 7 Y s 1155 531 m 14 Y s 1202 538 m 7 Y s 1248 538 m 7 Y s 1295 538 m 7 Y s 1341 531 m 14 Y s 1388 538 m 7 Y s 1434 538 m 7
 Y s 1481 538 m 7 Y s 1527 531 m 14 Y s 1574 538 m 7 Y s 1620 538 m 7 Y s 1667 538 m 7 Y s 1713 531 m 14 Y s 1760 538 m 7 Y s 1806 538 m 7 Y s 1853 538 m 7 Y s 1899 531 m 14 Y s 1946 538 m 7 Y s 1992 538 m 7 Y s 2039 538 m 7 Y s 2085 531 m 14 Y s 411
 531 m 14 Y s 364 538 m 7 Y s 318 538 m 7 Y s 2085 531 m 14 Y s 2132 538 m 7 Y s 318 187 m 358 Y s
 gsave  2254 561 2 2 C 166.096 284.736 t 90 r /Helvetica findfont 67.9729 sf 0 0 m (Data/SM) show NC gr  361 203 m -43 X s 339 220 m -21 X s 339 236 m -21 X s 339 252 m -21 X s 339 268 m -21 X s 361 285 m -43 X s 339 301 m -21 X s 339 317 m -21 X s
 339 334 m -21 X s 339 350 m -21 X s 361 366 m -43 X s 339 382 m -21 X s 339 399 m -21 X s 339 415 m -21 X s 339 431 m -21 X s 361 447 m -43 X s 339 464 m -21 X s 339 480 m -21 X s 339 496 m -21 X s 339 512 m -21 X s 361 529 m -43 X s 361 203 m -43 X
 s 339 187 m -21 X s 361 529 m -43 X s
 gsave  2254 561 2 2 C 261.008 183.044 t 0 r /Helvetica findfont 57.777 sf 0 0 m (0) show NC gr 
 gsave  2254 561 2 2 C 213.552 261.008 t 0 r /Helvetica findfont 57.777 sf 0 0 m (0.5) show NC gr 
 gsave  2254 561 2 2 C 271.177 342.361 t 0 r /Helvetica findfont 57.777 sf 0 0 m (1) show NC gr 
 gsave  2254 561 2 2 C 213.552 423.714 t 0 r /Helvetica findfont 57.777 sf 0 0 m (1.5) show NC gr 
 gsave  2254 561 2 2 C 261.008 505.067 t 0 r /Helvetica findfont 57.777 sf 0 0 m (2) show NC gr  2178 187 m 358 Y s 2135 203 m 43 X s 2157 220 m 21 X s 2157 236 m 21 X s 2157 252 m 21 X s 2157 268 m 21 X s 2135 285 m 43 X s 2157 301 m 21 X s 2157 317
 m 21 X s 2157 334 m 21 X s 2157 350 m 21 X s 2135 366 m 43 X s 2157 382 m 21 X s 2157 399 m 21 X s 2157 415 m 21 X s 2157 431 m 21 X s 2135 447 m 43 X s 2157 464 m 21 X s 2157 480 m 21 X s 2157 496 m 21 X s 2157 512 m 21 X s 2135 529 m 43 X s 2135
 203 m 43 X s 2157 187 m 21 X s 2135 529 m 43 X s 9 lw 923 357 m 3 Y s 923 360 m cl s 923 329 m -2 Y s 923 327 m cl s 1016 329 m 9 Y s 1016 338 m cl s 1016 302 m -9 Y s 1016 293 m cl s 1109 328 m 16 Y s 1109 344 m cl s 1109 301 m -16 Y s 1109 285 m
 cl s 1202 405 m 44 Y s 1202 449 m cl s 1202 377 m -41 Y s 1202 336 m cl s 1295 474 m 71 Y s 1295 545 m cl s 1295 447 m -81 Y s 1295 366 m cl s 1388 533 m 12 Y s 1388 545 m cl s 1388 506 m -137 Y s 1388 369 m cl s 1481 392 m 129 Y s 1481 521 m cl s
 1481 365 m -99 Y s 1481 266 m cl s 3 lw 550 325 643 341 736 362 829 335 923 343 1016 315 1109 314 1202 391 1295 460 1388 519 1481 378 11 { m20} R 9 lw 1 0 0 c 6 lw black 3 lw 1 0 0 c 2178 227 m s 2178 255 m s 2178 284 m s 2178 312 m -15 -15 d s 2178
 341 m -44 -44 d s 2085 248 m -11 -12 d s 2178 369 m -73 -72 d s 2085 277 m -40 -41 d s 2178 398 m -162 -162 d s 2178 427 m -186 -186 d s 2159 435 m -167 -165 d s 2130 435 m -138 -137 d s 2101 435 m -126 -126 d s 2085 448 m -139 -139 d s 2085 477 m
 -168 -168 d s 2076 496 m -177 -176 d s 2047 496 m -55 -55 d s 1974 423 m -97 -97 d s 2018 496 m -26 -26 d s 1945 423 m -97 -97 d s 1916 423 m -17 -17 d s 1899 406 m -80 -80 d s 1871 406 m -75 -75 d s 1842 406 m -75 -75 d s 1713 278 m -9 -10 d s 1813
 406 m -74 -75 d s 1713 306 m -38 -38 d s 1779 401 m -133 -133 d s 1751 401 m -131 -130 d s 1722 401 m -102 -102 d s 1713 421 m -105 -105 d s 1713 449 m -134 -133 d s 1699 464 m -148 -148 d s 1671 464 m -144 -143 d s 1642 464 m -22 -22 d s 1594 416 m
 -91 -91 d s 1566 416 m -92 -91 d s 1537 416 m -92 -91 d s 1499 407 m -65 -64 d s 1470 407 m -56 -56 d s 1441 407 m -7 -7 d s 1416 381 m -31 -30 d s 1387 381 m -31 -30 d s 1358 381 m -39 -38 d s 1338 390 m -47 -47 d s 1309 390 m -47 -47 d s 1280 390
 m -42 -43 d s 1252 390 m -4 -4 d s 1247 385 m -38 -38 d s 1218 385 m -37 -38 d s 1190 385 m -35 -35 d s 1161 385 m -32 -32 d s 1127 379 m -27 -26 d s 1098 379 m -27 -26 d s 1069 379 m -23 -23 d s 1037 376 m -19 -20 d s 1008 376 m -19 -20 d s 980 376
 m -19 -19 d s 951 375 m -19 -18 d s 922 375 m -19 -18 d s 893 375 m -18 -18 d s 864 375 m -18 -18 d s 836 375 m -19 -18 d s 807 375 m -18 -18 d s 777 374 m -16 -16 d s 749 374 m -17 -16 d s 720 374 m -17 -16 d s 691 374 m -16 -16 d s 662 374 m -15
 -16 d s 504 216 m s 491 203 m cl s 633 374 m -15 -16 d s 504 245 m s 462 203 m cl s 605 374 m -16 -16 d s 504 273 m s 434 203 m cl s 576 374 m -16 -16 d s 504 302 m s 405 203 m cl s 548 374 m -16 -16 d s 504 330 m s 376 203 m cl s 519 374 m -15 -15
 d s 348 203 m cl s 319 203 m cl s 6 lw 0 0 1 c 9 lw 1760 496 m 30 Y s 3 lw 1749 526 m 11 19 d 11 -19 d f 9 lw 1749 526 m 11 19 d 11 -19 d -22 X cl s black[ 4 8] 0 sd 3 lw 318 447 m 1860 X s 318 285 m 1860 X s 1 0 0 c[  12 12 ] 0 sd 6 lw 318 366 m
 1860 X s
 gr  gr showpage
end
%%EOF
