%!PS-Adobe-2.0 EPSF-2.0
%%BoundingBox:  0 0 567 521
%%Title: Distributions/met_distrCRY_MB-GGd_afterFit_forThesis.eps: canvas
%%Creator: ROOT Version 6.04/16
%%CreationDate: Tue May 19 22:01:34 2020
%%DocumentNeededResources: ProcSet (FontSetInit)
%%EndComments
%%BeginProlog
80 dict begin
/s {stroke} def /l {lineto} def /m {moveto} def /t {translate} def
/r {rotate} def /rl {roll}  def /R {repeat} def
/d {rlineto} def /rm {rmoveto} def /gr {grestore} def /f {eofill} def
/c {setrgbcolor} def /black {0 setgray} def /sd {setdash} def
/cl {closepath} def /sf {scalefont setfont} def /lw {setlinewidth} def
/box {m dup 0 exch d exch 0 d 0 exch neg d cl} def
/NC{systemdict begin initclip end}def/C{NC box clip newpath}def
/bl {box s} def /bf {gsave box gsave f grestore 1 lw [] 0 sd s grestore} def /Y { 0 exch d} def /X { 0 d} def 
/K {{pop pop 0 moveto} exch kshow} bind def
/ita {/ang 15 def gsave [1 0 ang dup sin exch cos div 1 0 0] concat} def 
/mp {newpath /y exch def /x exch def} def
/side {[w .77 mul w .23 mul] .385 w mul sd w 0 l currentpoint t -144 r} def
/mr {mp x y w2 0 360 arc} def /m24 {mr s} def /m20 {mr f} def
/mb {mp x y w2 add m w2 neg 0 d 0 w neg d w 0 d 0 w d cl} def
/mt {mp x y w2 add m w2 neg w neg d w 0 d cl} def
/m21 {mb f} def /m25 {mb s} def /m22 {mt f} def /m26{mt s} def
/m23 {mp x y w2 sub m w2 w d w neg 0 d cl f} def
/m27 {mp x y w2 add m w3 neg w2 neg d w3 w2 neg d w3 w2 d cl s} def
/m28 {mp x w2 sub y w2 sub w3 add m w3 0 d  0 w3 neg d w3 0 d 0 w3 d w3 0 d  0 w3 d w3 neg 0 d 0 w3 d w3 neg 0 d 0 w3 neg d w3 neg 0 d cl s } def
/m29 {mp gsave x w2 sub y w2 add w3 sub m currentpoint t 4 {side} repeat cl fill gr} def
/m30 {mp gsave x w2 sub y w2 add w3 sub m currentpoint t 4 {side} repeat cl s gr} def
/m31 {mp x y w2 sub m 0 w d x w2 sub y m w 0 d x w2 sub y w2 add m w w neg d x w2 sub y w2 sub m w w d s} def
/m32 {mp x y w2 sub m w2 w d w neg 0 d cl s} def
/m33 {mp x y w2 add m w3 neg w2 neg d w3 w2 neg d w3 w2 d cl f} def
/m34 {mp x w2 sub y w2 sub w3 add m w3 0 d  0 w3 neg d w3 0 d 0 w3 d w3 0 d  0 w3 d w3 neg 0 d 0 w3 d w3 neg 0 d 0 w3 neg d w3 neg 0 d cl f } def
/m2 {mp x y w2 sub m 0 w d x w2 sub y m w 0 d s} def
/m5 {mp x w2 sub y w2 sub m w w d x w2 sub y w2 add m w w neg d s} def
%%IncludeResource: ProcSet (FontSetInit)
%%IncludeResource: font Times-Roman
%%IncludeResource: font Times-Italic
%%IncludeResource: font Times-Bold
%%IncludeResource: font Times-BoldItalic
%%IncludeResource: font Helvetica
%%IncludeResource: font Helvetica-Oblique
%%IncludeResource: font Helvetica-Bold
%%IncludeResource: font Helvetica-BoldOblique
%%IncludeResource: font Courier
%%IncludeResource: font Courier-Oblique
%%IncludeResource: font Courier-Bold
%%IncludeResource: font Courier-BoldOblique
%%IncludeResource: font Symbol
%%IncludeResource: font ZapfDingbats
/reEncode {exch findfont dup length dict begin {1 index /FID eq  {pop pop} {def} ifelse } forall /Encoding exch def currentdict end dup /FontName get exch definefont pop } def [/Times-Bold /Times-Italic /Times-BoldItalic /Helvetica /Helvetica-Oblique
 /Helvetica-Bold /Helvetica-BoldOblique /Courier /Courier-Oblique /Courier-Bold /Courier-BoldOblique /Times-Roman /AvantGarde-Book /AvantGarde-BookOblique /AvantGarde-Demi /AvantGarde-DemiOblique /Bookman-Demi /Bookman-DemiItalic /Bookman-Light
 /Bookman-LightItalic /Helvetica-Narrow /Helvetica-Narrow-Bold /Helvetica-Narrow-BoldOblique /Helvetica-Narrow-Oblique /NewCenturySchlbk-Roman /NewCenturySchlbk-Bold /NewCenturySchlbk-BoldItalic /NewCenturySchlbk-Italic /Palatino-Bold
 /Palatino-BoldItalic /Palatino-Italic /Palatino-Roman ] {ISOLatin1Encoding reEncode } forall
%%EndProlog
%%BeginSetup
%%EndSetup
newpath  gsave  .25 .25 scale  gsave  0 0 t black[  ] 0 sd 3 lw 1 1 1 c 2268 2085 0 0 bf black 1 1 1 c 2263 1770 2 313 bf black 1 1 1 c black 1860 1145 319 584 bl 1 1 1 c black 1860 1145 319 584 bl 6 lw 1 1 1 c black 3 lw /w 33 def /w2 {w 2 div} def
 /w3 {w 3 div} def 366 1222 m20 6 lw 3 lw 459 1199 m20 6 lw 3 lw 552 1156 m20 6 lw 3 lw 645 1116 m20 6 lw 3 lw 738 1085 m20 6 lw 3 lw 831 1032 m20 6 lw 3 lw 924 1007 m20 6 lw 3 lw 1017 971 m20 6 lw 1110 917 m 1 Y s 3 lw 1110 931 m20 6 lw 1203 892 m 4
 Y s 1203 923 m s 3 lw 1203 909 m20 6 lw 1296 866 m 8 Y s 1296 901 m 2 Y s 3 lw 1296 887 m20 6 lw 1389 696 m 64 Y s 1389 787 m 21 Y s 3 lw 1389 774 m20 6 lw 1482 696 m 64 Y s 1482 787 m 21 Y s 3 lw 1482 774 m20 6 lw 1575 745 m 41 Y s 1575 813 m 15 Y
 s 3 lw 1575 800 m20 6 lw 1668 584 m 132 Y s 1668 744 m 30 Y s 3 lw 1668 730 m20 6 lw 2133 584 m 132 Y s 2133 744 m 30 Y s 3 lw 2133 730 m20 6 lw 3 lw 319 584 m 1860 X s
 gsave  2263 1770 2 313 C 1949.08 355.92 t 0 r /Helvetica findfont 81.3741 sf 0 0 m ( [GeV]) show NC gr 
 gsave  2263 1770 2 313 C 1837.22 396.596 t 0 r /Helvetica findfont 54.2494 sf 0 0 m (miss) show NC gr 
 gsave  2263 1770 2 313 C 1837.22 332.192 t 0 r /Helvetica findfont 54.2494 sf 0 0 m (T) show NC gr 
 gsave  2263 1770 2 313 C 1786.38 355.92 t 0 r /Helvetica findfont 81.3741 sf 0 0 m (E) show NC gr  412 584 m cl s 459 584 m cl s 505 584 m cl s 552 584 m cl s 598 584 m cl s 645 584 m cl s 691 584 m cl s 738 584 m cl s 784 584 m cl s 831 584 m cl s
 877 584 m cl s 924 584 m cl s 970 584 m cl s 1017 584 m cl s 1063 584 m cl s 1110 584 m cl s 1156 584 m cl s 1203 584 m cl s 1249 584 m cl s 1296 584 m cl s 1342 584 m cl s 1389 584 m cl s 1435 584 m cl s 1482 584 m cl s 1528 584 m cl s 1575 584 m
 cl s 1621 584 m cl s 1668 584 m cl s 1714 584 m cl s 1761 584 m cl s 1807 584 m cl s 1854 584 m cl s 1900 584 m cl s 1947 584 m cl s 1993 584 m cl s 2040 584 m cl s 2086 584 m cl s 412 584 m cl s 366 584 m cl s 319 584 m cl s 2086 584 m cl s 2133
 584 m cl s 2179 584 m cl s 319 1729 m 1860 X s 412 1729 m cl s 459 1729 m cl s 505 1729 m cl s 552 1729 m cl s 598 1729 m cl s 645 1729 m cl s 691 1729 m cl s 738 1729 m cl s 784 1729 m cl s 831 1729 m cl s 877 1729 m cl s 924 1729 m cl s 970 1729 m
 cl s 1017 1729 m cl s 1063 1729 m cl s 1110 1729 m cl s 1156 1729 m cl s 1203 1729 m cl s 1249 1729 m cl s 1296 1729 m cl s 1342 1729 m cl s 1389 1729 m cl s 1435 1729 m cl s 1482 1729 m cl s 1528 1729 m cl s 1575 1729 m cl s 1621 1729 m cl s 1668
 1729 m cl s 1714 1729 m cl s 1761 1729 m cl s 1807 1729 m cl s 1854 1729 m cl s 1900 1729 m cl s 1947 1729 m cl s 1993 1729 m cl s 2040 1729 m cl s 2086 1729 m cl s 412 1729 m cl s 366 1729 m cl s 319 1729 m cl s 2086 1729 m cl s 2133 1729 m cl s
 2179 1729 m cl s 319 584 m 1145 Y s
 gsave  2263 1770 2 313 C 166.096 1091.49 t 90 r /Helvetica findfont 81.3741 sf 0 0 m (Events / 100 GeV) show NC gr  341 628 m -22 X s 341 654 m -22 X s 341 672 m -22 X s 341 686 m -22 X s 341 698 m -22 X s 341 707 m -22 X s 341 716 m -22 X s 341 723
 m -22 X s 363 730 m -44 X s
 gsave  2263 1770 2 313 C 300.555 702.911 t 0 r  -36 0 t /Helvetica findfont 64.4212 sf 0 0 m (1) show NC gr  341 774 m -22 X s 341 800 m -22 X s 341 818 m -22 X s 341 832 m -22 X s 341 843 m -22 X s 341 853 m -22 X s 341 862 m -22 X s 341 869 m -22
 X s 363 876 m -44 X s
 gsave  2263 1770 2 313 C 300.555 848.63 t 0 r  -73 0 t /Helvetica findfont 64.4212 sf 0 0 m (10) show NC gr  341 920 m -22 X s 341 945 m -22 X s 341 963 m -22 X s 341 978 m -22 X s 341 989 m -22 X s 341 999 m -22 X s 341 1007 m -22 X s 341 1015 m
 -22 X s 363 1021 m -44 X s
 gsave  2263 1770 2 313 C 274.567 1020.3 t 0 r /Helvetica findfont 44.0776 sf 0 0 m (2) show NC gr 
 gsave  2263 1770 2 313 C 203.383 993.185 t 0 r /Helvetica findfont 64.4212 sf 0 0 m (10) show NC gr  341 1065 m -22 X s 341 1091 m -22 X s 341 1109 m -22 X s 341 1123 m -22 X s 341 1135 m -22 X s 341 1145 m -22 X s 341 1153 m -22 X s 341 1161 m -22
 X s 363 1167 m -44 X s
 gsave  2263 1770 2 313 C 274.567 1169.45 t 0 r /Helvetica findfont 44.0776 sf 0 0 m (3) show NC gr 
 gsave  2263 1770 2 313 C 203.383 1138.94 t 0 r /Helvetica findfont 64.4212 sf 0 0 m (10) show NC gr  341 1211 m -22 X s 341 1237 m -22 X s 341 1255 m -22 X s 341 1269 m -22 X s 341 1281 m -22 X s 341 1290 m -22 X s 341 1299 m -22 X s 341 1306 m -22
 X s 363 1313 m -44 X s
 gsave  2263 1770 2 313 C 274.567 1311.82 t 0 r /Helvetica findfont 44.0776 sf 0 0 m (4) show NC gr 
 gsave  2263 1770 2 313 C 203.383 1284.7 t 0 r /Helvetica findfont 64.4212 sf 0 0 m (10) show NC gr  341 1357 m -22 X s 341 1382 m -22 X s 341 1401 m -22 X s 341 1415 m -22 X s 341 1426 m -22 X s 341 1436 m -22 X s 341 1445 m -22 X s 341 1452 m -22 X
 s 363 1459 m -44 X s
 gsave  2263 1770 2 313 C 274.567 1460.97 t 0 r /Helvetica findfont 44.0776 sf 0 0 m (5) show NC gr 
 gsave  2263 1770 2 313 C 203.383 1430.46 t 0 r /Helvetica findfont 64.4212 sf 0 0 m (10) show NC gr  341 1502 m -22 X s 341 1528 m -22 X s 341 1546 m -22 X s 341 1560 m -22 X s 341 1572 m -22 X s 341 1582 m -22 X s 341 1590 m -22 X s 341 1598 m -22
 X s 363 1604 m -44 X s
 gsave  2263 1770 2 313 C 274.567 1606.72 t 0 r /Helvetica findfont 44.0776 sf 0 0 m (6) show NC gr 
 gsave  2263 1770 2 313 C 203.383 1576.22 t 0 r /Helvetica findfont 64.4212 sf 0 0 m (10) show NC gr  341 1648 m -22 X s 341 1674 m -22 X s 341 1692 m -22 X s 341 1706 m -22 X s 341 1718 m -22 X s 341 1727 m -22 X s 2179 584 m 1145 Y s 2157 628 m 22
 X s 2157 654 m 22 X s 2157 672 m 22 X s 2157 686 m 22 X s 2157 698 m 22 X s 2157 707 m 22 X s 2157 716 m 22 X s 2157 723 m 22 X s 2136 730 m 43 X s 2157 774 m 22 X s 2157 800 m 22 X s 2157 818 m 22 X s 2157 832 m 22 X s 2157 843 m 22 X s 2157 853 m
 22 X s 2157 862 m 22 X s 2157 869 m 22 X s 2136 876 m 43 X s 2157 920 m 22 X s 2157 945 m 22 X s 2157 963 m 22 X s 2157 978 m 22 X s 2157 989 m 22 X s 2157 999 m 22 X s 2157 1007 m 22 X s 2157 1015 m 22 X s 2136 1021 m 43 X s 2157 1065 m 22 X s 2157
 1091 m 22 X s 2157 1109 m 22 X s 2157 1123 m 22 X s 2157 1135 m 22 X s 2157 1145 m 22 X s 2157 1153 m 22 X s 2157 1161 m 22 X s 2136 1167 m 43 X s 2157 1211 m 22 X s 2157 1237 m 22 X s 2157 1255 m 22 X s 2157 1269 m 22 X s 2157 1281 m 22 X s 2157
 1290 m 22 X s 2157 1299 m 22 X s 2157 1306 m 22 X s 2136 1313 m 43 X s 2157 1357 m 22 X s 2157 1382 m 22 X s 2157 1401 m 22 X s 2157 1415 m 22 X s 2157 1426 m 22 X s 2157 1436 m 22 X s 2157 1445 m 22 X s 2157 1452 m 22 X s 2136 1459 m 43 X s 2157
 1502 m 22 X s 2157 1528 m 22 X s 2157 1546 m 22 X s 2157 1560 m 22 X s 2157 1572 m 22 X s 2157 1582 m 22 X s 2157 1590 m 22 X s 2157 1598 m 22 X s 2136 1604 m 43 X s 2157 1648 m 22 X s 2157 1674 m 22 X s 2157 1692 m 22 X s 2157 1706 m 22 X s 2157
 1718 m 22 X s 2157 1727 m 22 X s 1 1 0 c black 1 1 0 c 319 584 m 637 Y 93 X -21 Y 93 X -41 Y 93 X -41 Y 93 X -43 Y 93 X -39 Y 93 X -40 Y 93 X -36 Y 93 X -36 Y 93 X -37 Y 93 X -38 Y 93 X -26 Y 93 X -38 Y 93 X -25 Y 93 X -47 Y 93 X -17 Y 93 X -29 Y 93
 X -39 Y 93 X -16 Y 93 X 25 Y 93 X -53 Y f black 1 1 0 c black 319 1221 m 93 X -21 Y 93 X -41 Y 93 X -41 Y 93 X -43 Y 93 X -39 Y 93 X -40 Y 93 X -36 Y 93 X -36 Y 93 X -37 Y 93 X -38 Y 93 X -26 Y 93 X -38 Y 93 X -25 Y 93 X -47 Y 93 X -17 Y 93 X -29 Y
 93 X -39 Y 93 X -16 Y 93 X 25 Y 93 X s 0.999 0.999 0.999 c black 0.999 0.999 0.999 c 319 584 m 370 Y 93 X -23 Y 93 X -50 Y 93 X -35 Y 93 X -47 Y 93 X -56 Y 93 X -7 Y 93 X -14 Y 93 X -138 Y 93 X 16 Y 93 X -16 Y 930 X f black 0.999 0.999 0.999 c black
 319 954 m 93 X -23 Y 93 X -50 Y 93 X -35 Y 93 X -47 Y 93 X -56 Y 93 X -7 Y 93 X -14 Y 93 X -138 Y 93 X 16 Y 93 X -16 Y 930 X s 1 1 1 c black 319 954 m 93 X -23 Y 93 X -50 Y 93 X -35 Y 93 X -47 Y 93 X -56 Y 93 X -7 Y 93 X -14 Y 93 X -138 Y 93 X 16 Y
 93 X -16 Y 930 X s 0.4 0.6 1 c black 0.4 0.6 1 c 319 584 m 370 Y 93 X -23 Y 93 X -50 Y 93 X -35 Y 93 X -47 Y 93 X -56 Y 93 X -7 Y 93 X -14 Y 93 X -138 Y 93 X 16 Y 93 X -16 Y 930 X f black 0.4 0.6 1 c black 319 954 m 93 X -23 Y 93 X -50 Y 93 X -35 Y
 93 X -47 Y 93 X -56 Y 93 X -7 Y 93 X -14 Y 93 X -138 Y 93 X 16 Y 93 X -16 Y 930 X s 0.999 0.999 0.999 c black 0.999 0.999 0.999 c 319 584 m 359 Y 93 X -31 Y 93 X -52 Y 93 X -31 Y 93 X -55 Y 93 X -79 Y 93 X 11 Y 93 X -14 Y 93 X -108 Y 1116 X f black
 0.999 0.999 0.999 c black 319 943 m 93 X -31 Y 93 X -52 Y 93 X -31 Y 93 X -55 Y 93 X -79 Y 93 X 11 Y 93 X -14 Y 93 X -108 Y 1116 X s 1 1 1 c black 319 943 m 93 X -31 Y 93 X -52 Y 93 X -31 Y 93 X -55 Y 93 X -79 Y 93 X 11 Y 93 X -14 Y 93 X -108 Y 1116
 X s 0.6 1 0.6 c black 0.6 1 0.6 c 319 584 m 359 Y 93 X -31 Y 93 X -52 Y 93 X -31 Y 93 X -55 Y 93 X -79 Y 93 X 11 Y 93 X -14 Y 93 X -108 Y 1116 X f black 0.6 1 0.6 c black 319 943 m 93 X -31 Y 93 X -52 Y 93 X -31 Y 93 X -55 Y 93 X -79 Y 93 X 11 Y 93
 X -14 Y 93 X -108 Y 1116 X s 0.999 0.999 0.999 c black 0.999 0.999 0.999 c 319 584 m 153 Y 93 X -49 Y 93 X -15 Y 93 X 26 Y 93 X -21 Y 93 X -94 Y 186 X 44 Y 93 X -44 Y 1116 X f black 0.999 0.999 0.999 c black 319 737 m 93 X -49 Y 93 X -15 Y 93 X 26 Y
 93 X -21 Y 93 X -94 Y 186 X 44 Y 93 X -44 Y 1116 X s 1 1 1 c black 319 737 m 93 X -49 Y 93 X -15 Y 93 X 26 Y 93 X -21 Y 93 X -94 Y 186 X 44 Y 93 X -44 Y 1116 X s 1 0.4 0.6 c black 1 0.4 0.6 c 319 584 m 153 Y 93 X -49 Y 93 X -15 Y 93 X 26 Y 93 X -21
 Y 93 X -94 Y 186 X 44 Y 93 X -44 Y 1116 X f black 1 0.4 0.6 c black 319 737 m 93 X -49 Y 93 X -15 Y 93 X 26 Y 93 X -21 Y 93 X -94 Y 186 X 44 Y 93 X -44 Y 1116 X s 1 0 0 c 6 lw 1 1 1 c black 1 0 0 c 319 1221 m 93 X -21 Y 93 X -41 Y 93 X -41 Y 93 X
 -43 Y 93 X -38 Y 93 X -41 Y 93 X -36 Y 93 X -36 Y 93 X -37 Y 93 X -38 Y 93 X -26 Y 93 X -38 Y 93 X -25 Y 93 X -47 Y 93 X -17 Y 93 X -29 Y 93 X -39 Y 93 X -16 Y 93 X 25 Y 93 X s black 3 lw 1 0 0 c 1 lw << /PatternType 1 /PaintType 2 /TilingType 1
 /BBox [ 0 0 100 100 ] /XStep 100 /YStep 100 /PaintProc { begin gsave 0 100 m 100 0 l s gr end } >> [ 0.24 0 0 0.24 0 0 ] makepattern /P05 exch def /cs {[/Pattern /DeviceRGB] setcolorspace} def /FA {f [/DeviceRGB] setcolorspace} def cs 1 0 0 P05
 setcolor 319 584 m 639 Y 93 X -21 Y 93 X -42 Y 93 X -41 Y 93 X -42 Y 93 X -38 Y 93 X -40 Y 93 X -36 Y 93 X -36 Y 93 X -37 Y 93 X -38 Y 93 X -25 Y 93 X -37 Y 93 X -20 Y 93 X -50 Y 93 X -16 Y 93 X -27 Y 93 X -38 Y 93 X -14 Y 93 X 24 Y 93 X -65 Y 39 Y
 -93 X -27 Y -93 X 18 Y -93 X 42 Y -93 X 31 Y -93 X 18 Y -93 X 45 Y -93 X 30 Y -93 X 39 Y -93 X 26 Y -93 X 39 Y -93 X 36 Y -93 X 37 Y -93 X 36 Y -93 X 41 Y -93 X 39 Y -93 X 43 Y -93 X 41 Y -93 X 42 Y -93 X 20 Y -93 X -635 Y FA 6 lw 1 1 1 c 15 lw 1296
 867 m -1 Y s 1296 866 m cl s 1389 794 m 18 Y s 1389 812 m cl s 1389 754 m -45 Y s 1389 709 m cl s 1482 794 m 18 Y s 1482 812 m cl s 1482 754 m -45 Y s 1482 709 m cl s 1575 820 m 11 Y s 1575 831 m cl s 1575 779 m -29 Y s 1575 750 m cl s 1668 750 m 32
 Y s 1668 782 m cl s 1668 710 m -91 Y s 1668 619 m cl s 2133 750 m 32 Y s 2133 782 m cl s 2133 710 m -91 Y s 2133 619 m cl s black 1 1 1 c 3 lw /w 43 def /w2 {w 2 div} def /w3 {w 3 div} def 366 1222 459 1199 552 1156 645 1116 738 1085 831 1032 924
 1007 1017 971 1110 931 1203 909 1296 887 1389 774 1482 774 1575 800 1668 730 15 { m20} R 15 lw 3 lw 2133 730 m20 15 lw black 6 lw 1 1 1 c black 3 lw /w 33 def /w2 {w 2 div} def /w3 {w 3 div} def 366 1222 m20 6 lw 3 lw 459 1199 m20 6 lw 3 lw 552 1156
 m20 6 lw 3 lw 645 1116 m20 6 lw 3 lw 738 1085 m20 6 lw 3 lw 831 1032 m20 6 lw 3 lw 924 1007 m20 6 lw 3 lw 1017 971 m20 6 lw 1110 917 m 1 Y s 3 lw 1110 931 m20 6 lw 1203 892 m 4 Y s 1203 923 m s 3 lw 1203 909 m20 6 lw 1296 866 m 8 Y s 1296 901 m 2 Y
 s 3 lw 1296 887 m20 6 lw 1389 696 m 64 Y s 1389 787 m 21 Y s 3 lw 1389 774 m20 6 lw 1482 696 m 64 Y s 1482 787 m 21 Y s 3 lw 1482 774 m20 6 lw 1575 745 m 41 Y s 1575 813 m 15 Y s 3 lw 1575 800 m20 6 lw 1668 584 m 132 Y s 1668 744 m 30 Y s 3 lw 1668
 730 m20 6 lw 2133 584 m 132 Y s 2133 744 m 30 Y s 3 lw 2133 730 m20 6 lw 1110 918 m -1 Y s 1110 917 m cl s 1203 923 m s 1203 923 m cl s 1203 896 m -4 Y s 1203 892 m cl s 1296 901 m 3 Y s 1296 904 m cl s 1296 874 m -8 Y s 1296 866 m cl s 1389 787 m
 25 Y s 1389 812 m cl s 1389 760 m -51 Y s 1389 709 m cl s 1482 787 m 25 Y s 1482 812 m cl s 1482 760 m -51 Y s 1482 709 m cl s 1575 813 m 18 Y s 1575 831 m cl s 1575 786 m -36 Y s 1575 750 m cl s 1668 744 m 38 Y s 1668 782 m cl s 1668 716 m -97 Y s
 1668 619 m cl s 2133 744 m 38 Y s 2133 782 m cl s 2133 716 m -97 Y s 2133 619 m cl s 3 lw 366 1222 459 1199 552 1156 645 1116 738 1085 831 1032 924 1007 1017 971 1110 931 1203 909 1296 887 1389 774 1482 774 1575 800 1668 730 15 { m20} R 6 lw 3 lw
 2133 730 m20 6 lw 3 lw 319 584 m 1860 X s 412 584 m cl s 459 584 m cl s 505 584 m cl s 552 584 m cl s 598 584 m cl s 645 584 m cl s 691 584 m cl s 738 584 m cl s 784 584 m cl s 831 584 m cl s 877 584 m cl s 924 584 m cl s 970 584 m cl s 1017 584 m
 cl s 1063 584 m cl s 1110 584 m cl s 1156 584 m cl s 1203 584 m cl s 1249 584 m cl s 1296 584 m cl s 1342 584 m cl s 1389 584 m cl s 1435 584 m cl s 1482 584 m cl s 1528 584 m cl s 1575 584 m cl s 1621 584 m cl s 1668 584 m cl s 1714 584 m cl s 1761
 584 m cl s 1807 584 m cl s 1854 584 m cl s 1900 584 m cl s 1947 584 m cl s 1993 584 m cl s 2040 584 m cl s 2086 584 m cl s 412 584 m cl s 366 584 m cl s 319 584 m cl s 2086 584 m cl s 2133 584 m cl s 2179 584 m cl s 319 1729 m 1860 X s 412 1729 m cl
 s 459 1729 m cl s 505 1729 m cl s 552 1729 m cl s 598 1729 m cl s 645 1729 m cl s 691 1729 m cl s 738 1729 m cl s 784 1729 m cl s 831 1729 m cl s 877 1729 m cl s 924 1729 m cl s 970 1729 m cl s 1017 1729 m cl s 1063 1729 m cl s 1110 1729 m cl s 1156
 1729 m cl s 1203 1729 m cl s 1249 1729 m cl s 1296 1729 m cl s 1342 1729 m cl s 1389 1729 m cl s 1435 1729 m cl s 1482 1729 m cl s 1528 1729 m cl s 1575 1729 m cl s 1621 1729 m cl s 1668 1729 m cl s 1714 1729 m cl s 1761 1729 m cl s 1807 1729 m cl s
 1854 1729 m cl s 1900 1729 m cl s 1947 1729 m cl s 1993 1729 m cl s 2040 1729 m cl s 2086 1729 m cl s 412 1729 m cl s 366 1729 m cl s 319 1729 m cl s 2086 1729 m cl s 2133 1729 m cl s 2179 1729 m cl s 319 584 m 1145 Y s 341 628 m -22 X s 341 654 m
 -22 X s 341 672 m -22 X s 341 686 m -22 X s 341 698 m -22 X s 341 707 m -22 X s 341 716 m -22 X s 341 723 m -22 X s 363 730 m -44 X s 341 774 m -22 X s 341 800 m -22 X s 341 818 m -22 X s 341 832 m -22 X s 341 843 m -22 X s 341 853 m -22 X s 341 862
 m -22 X s 341 869 m -22 X s 363 876 m -44 X s 341 920 m -22 X s 341 945 m -22 X s 341 963 m -22 X s 341 978 m -22 X s 341 989 m -22 X s 341 999 m -22 X s 341 1007 m -22 X s 341 1015 m -22 X s 363 1021 m -44 X s 341 1065 m -22 X s 341 1091 m -22 X s
 341 1109 m -22 X s 341 1123 m -22 X s 341 1135 m -22 X s 341 1145 m -22 X s 341 1153 m -22 X s 341 1161 m -22 X s 363 1167 m -44 X s 341 1211 m -22 X s 341 1237 m -22 X s 341 1255 m -22 X s 341 1269 m -22 X s 341 1281 m -22 X s 341 1290 m -22 X s
 341 1299 m -22 X s 341 1306 m -22 X s 363 1313 m -44 X s 341 1357 m -22 X s 341 1382 m -22 X s 341 1401 m -22 X s 341 1415 m -22 X s 341 1426 m -22 X s 341 1436 m -22 X s 341 1445 m -22 X s 341 1452 m -22 X s 363 1459 m -44 X s 341 1502 m -22 X s
 341 1528 m -22 X s 341 1546 m -22 X s 341 1560 m -22 X s 341 1572 m -22 X s 341 1582 m -22 X s 341 1590 m -22 X s 341 1598 m -22 X s 363 1604 m -44 X s 341 1648 m -22 X s 341 1674 m -22 X s 341 1692 m -22 X s 341 1706 m -22 X s 341 1718 m -22 X s
 341 1727 m -22 X s 2179 584 m 1145 Y s 2157 628 m 22 X s 2157 654 m 22 X s 2157 672 m 22 X s 2157 686 m 22 X s 2157 698 m 22 X s 2157 707 m 22 X s 2157 716 m 22 X s 2157 723 m 22 X s 2136 730 m 43 X s 2157 774 m 22 X s 2157 800 m 22 X s 2157 818 m
 22 X s 2157 832 m 22 X s 2157 843 m 22 X s 2157 853 m 22 X s 2157 862 m 22 X s 2157 869 m 22 X s 2136 876 m 43 X s 2157 920 m 22 X s 2157 945 m 22 X s 2157 963 m 22 X s 2157 978 m 22 X s 2157 989 m 22 X s 2157 999 m 22 X s 2157 1007 m 22 X s 2157
 1015 m 22 X s 2136 1021 m 43 X s 2157 1065 m 22 X s 2157 1091 m 22 X s 2157 1109 m 22 X s 2157 1123 m 22 X s 2157 1135 m 22 X s 2157 1145 m 22 X s 2157 1153 m 22 X s 2157 1161 m 22 X s 2136 1167 m 43 X s 2157 1211 m 22 X s 2157 1237 m 22 X s 2157
 1255 m 22 X s 2157 1269 m 22 X s 2157 1281 m 22 X s 2157 1290 m 22 X s 2157 1299 m 22 X s 2157 1306 m 22 X s 2136 1313 m 43 X s 2157 1357 m 22 X s 2157 1382 m 22 X s 2157 1401 m 22 X s 2157 1415 m 22 X s 2157 1426 m 22 X s 2157 1436 m 22 X s 2157
 1445 m 22 X s 2157 1452 m 22 X s 2136 1459 m 43 X s 2157 1502 m 22 X s 2157 1528 m 22 X s 2157 1546 m 22 X s 2157 1560 m 22 X s 2157 1572 m 22 X s 2157 1582 m 22 X s 2157 1590 m 22 X s 2157 1598 m 22 X s 2136 1604 m 43 X s 2157 1648 m 22 X s 2157
 1674 m 22 X s 2157 1692 m 22 X s 2157 1706 m 22 X s 2157 1718 m 22 X s 2157 1727 m 22 X s
 gsave  2263 1770 2 313 C 406.765 1447.41 t 0 r /Helvetica findfont 64.4212 sf 0 0 m (CRY for MB\255GGd) show NC gr 
 gsave  2263 1770 2 313 C 1464.36 1616.89 t 0 r /Helvetica findfont 64.4212 sf 0 0 m (SM Total) show NC gr  1 1 1 c 1338 1603 m 107 X 74 Y -107 X f 1 0 0 c 6 lw 1338 1640 m 107 X s black
 gsave  2263 1770 2 313 C 1464.36 1511.81 t 0 r /Helvetica findfont 64.4212 sf 0 0 m (Data) show NC gr  1391 1502 m 64 Y s 3 lw 1391 1534 m20 6 lw
 gsave  2263 1770 2 313 C 1464.36 1406.73 t 0 r /Helvetica findfont 64.4212 sf 0 0 m (GAMMAjets) show NC gr  1 1 0 c 3 lw 1338 1391 m 107 X 74 Y -107 X f 6 lw black 3 lw 1338 1465 m 107 X s 1338 1391 m 107 X s 1445 1391 m 74 Y s 1338 1391 m 74 Y s
 gsave  2263 1770 2 313 C 1464.36 1298.26 t 0 r /Helvetica findfont 64.4212 sf 0 0 m (W+jets) show NC gr  0.4 0.6 1 c 1338 1284 m 107 X 75 Y -107 X f black 1338 1359 m 107 X s 1338 1284 m 107 X s 1445 1284 m 75 Y s 1338 1284 m 75 Y s
 gsave  2263 1770 2 313 C 1498.25 1193.18 t 0 r /Helvetica findfont 64.4212 sf 0 0 m (\(+EW\) & single top) show NC gr 
 gsave  2263 1770 2 313 C 1481.3 1193.18 t 0 r /Helvetica findfont 64.4212 sf 0 0 m (t) show NC gr  1481 1244 m 17 X s
 gsave  2263 1770 2 313 C 1464.36 1193.18 t 0 r /Helvetica findfont 64.4212 sf 0 0 m (t) show NC gr  0.6 1 0.6 c 1338 1178 m 107 X 75 Y -107 X f black 1338 1253 m 107 X s 1338 1178 m 107 X s 1445 1178 m 75 Y s 1338 1178 m 75 Y s
 gsave  2263 1770 2 313 C 1464.36 1088.1 t 0 r /Helvetica findfont 64.4212 sf 0 0 m (Diboson) show NC gr  1 0.4 0.6 c 1338 1072 m 107 X 74 Y -107 X f black 1338 1146 m 107 X s 1338 1072 m 107 X s 1445 1072 m 74 Y s 1338 1072 m 74 Y s
 gsave  2263 1770 2 313 C 911.832 1566.05 t 0 r /Helvetica findfont 44.0776 sf 0 0 m (\2551) show NC gr 
 gsave  2263 1770 2 313 C 471.17 1535.54 t 0 r /Helvetica findfont 64.4212 sf 0 0 m (=13TeV, 139 fb) show NC gr 
 gsave  2263 1770 2 313 C 440.662 1535.54 t 0 r /Helvetica findfont 64.4212 sf 0 0 m (s) show NC gr  6 lw 420 1573 m 7 -41 d s 3 lw 427 1532 m 7 61 d s 434 1593 m 37 X s 1 1 1 c 2254 561 2 2 bf black 1 1 1 c black 1860 358 318 187 bl 1 1 1 c black
 1860 358 318 187 bl 6 lw 1 1 1 c black 3 lw 364 369 m20 6 lw 3 lw 457 362 m20 6 lw 3 lw 550 359 m20 6 lw 3 lw 643 363 m20 6 lw 3 lw 736 392 m20 6 lw 3 lw 829 355 m20 6 lw 3 lw 923 397 m20 6 lw 3 lw 1016 396 m20 6 lw 3 lw 1109 386 m20 6 lw 3 lw 1202
 436 m20 6 lw 3 lw 1295 503 m20 6 lw 3 lw 1388 279 m20 6 lw 3 lw 1481 340 m20 6 lw 3 lw 1574 505 m20 6 lw 3 lw 1667 416 m20 6 lw 3 lw 318 187 m 1860 X s
 gsave  2254 561 2 2 C 1959.25 27.1177 t 0 r /Helvetica findfont 78.1689 sf 0 0 m ( [GeV]) show NC gr 
 gsave  2254 561 2 2 C 1854.17 64.4045 t 0 r /Helvetica findfont 50.9797 sf 0 0 m (miss) show NC gr 
 gsave  2254 561 2 2 C 1854.17 3.38971 t 0 r /Helvetica findfont 50.9797 sf 0 0 m (T) show NC gr 
 gsave  2254 561 2 2 C 1803.33 27.1177 t 0 r /Helvetica findfont 78.1689 sf 0 0 m (E) show NC gr  411 201 m -14 Y s 457 194 m -7 Y s 504 194 m -7 Y s 550 194 m -7 Y s 597 201 m -14 Y s 643 194 m -7 Y s 690 194 m -7 Y s 736 194 m -7 Y s 783 201 m -14
 Y s 829 194 m -7 Y s 876 194 m -7 Y s 923 194 m -7 Y s 969 201 m -14 Y s 1016 194 m -7 Y s 1062 194 m -7 Y s 1109 194 m -7 Y s 1155 201 m -14 Y s 1202 194 m -7 Y s 1248 194 m -7 Y s 1295 194 m -7 Y s 1341 201 m -14 Y s 1388 194 m -7 Y s 1434 194 m
 -7 Y s 1481 194 m -7 Y s 1527 201 m -14 Y s 1574 194 m -7 Y s 1620 194 m -7 Y s 1667 194 m -7 Y s 1713 201 m -14 Y s 1760 194 m -7 Y s 1806 194 m -7 Y s 1853 194 m -7 Y s 1899 201 m -14 Y s 1946 194 m -7 Y s 1992 194 m -7 Y s 2039 194 m -7 Y s 2085
 201 m -14 Y s 411 201 m -14 Y s 364 194 m -7 Y s 318 194 m -7 Y s 2085 201 m -14 Y s 2132 194 m -7 Y s
 gsave  2254 561 2 2 C 345.75 118.64 t 0 r /Helvetica findfont 78.1689 sf 0 0 m (400) show NC gr 
 gsave  2254 561 2 2 C 532.185 118.64 t 0 r /Helvetica findfont 78.1689 sf 0 0 m (600) show NC gr 
 gsave  2254 561 2 2 C 715.229 118.64 t 0 r /Helvetica findfont 78.1689 sf 0 0 m (800) show NC gr 
 gsave  2254 561 2 2 C 877.935 118.64 t 0 r /Helvetica findfont 78.1689 sf 0 0 m (1000) show NC gr 
 gsave  2254 561 2 2 C 1064.37 118.64 t 0 r /Helvetica findfont 78.1689 sf 0 0 m (1200) show NC gr 
 gsave  2254 561 2 2 C 1250.8 118.64 t 0 r /Helvetica findfont 78.1689 sf 0 0 m (1400) show NC gr 
 gsave  2254 561 2 2 C 1437.24 118.64 t 0 r /Helvetica findfont 78.1689 sf 0 0 m (1600) show NC gr 
 gsave  2254 561 2 2 C 1623.67 118.64 t 0 r /Helvetica findfont 78.1689 sf 0 0 m (1800) show NC gr 
 gsave  2254 561 2 2 C 1810.11 118.64 t 0 r /Helvetica findfont 78.1689 sf 0 0 m (2000) show NC gr 
 gsave  2254 561 2 2 C 1996.54 118.64 t 0 r /Helvetica findfont 78.1689 sf 0 0 m (2200) show NC gr  318 545 m 1860 X s 411 531 m 14 Y s 457 538 m 7 Y s 504 538 m 7 Y s 550 538 m 7 Y s 597 531 m 14 Y s 643 538 m 7 Y s 690 538 m 7 Y s 736 538 m 7 Y s
 783 531 m 14 Y s 829 538 m 7 Y s 876 538 m 7 Y s 923 538 m 7 Y s 969 531 m 14 Y s 1016 538 m 7 Y s 1062 538 m 7 Y s 1109 538 m 7 Y s 1155 531 m 14 Y s 1202 538 m 7 Y s 1248 538 m 7 Y s 1295 538 m 7 Y s 1341 531 m 14 Y s 1388 538 m 7 Y s 1434 538 m 7
 Y s 1481 538 m 7 Y s 1527 531 m 14 Y s 1574 538 m 7 Y s 1620 538 m 7 Y s 1667 538 m 7 Y s 1713 531 m 14 Y s 1760 538 m 7 Y s 1806 538 m 7 Y s 1853 538 m 7 Y s 1899 531 m 14 Y s 1946 538 m 7 Y s 1992 538 m 7 Y s 2039 538 m 7 Y s 2085 531 m 14 Y s 411
 531 m 14 Y s 364 538 m 7 Y s 318 538 m 7 Y s 2085 531 m 14 Y s 2132 538 m 7 Y s 318 187 m 358 Y s
 gsave  2254 561 2 2 C 166.096 284.736 t 90 r /Helvetica findfont 67.9729 sf 0 0 m (Data/SM) show NC gr  361 203 m -43 X s 339 220 m -21 X s 339 236 m -21 X s 339 252 m -21 X s 339 268 m -21 X s 361 285 m -43 X s 339 301 m -21 X s 339 317 m -21 X s
 339 334 m -21 X s 339 350 m -21 X s 361 366 m -43 X s 339 382 m -21 X s 339 399 m -21 X s 339 415 m -21 X s 339 431 m -21 X s 361 447 m -43 X s 339 464 m -21 X s 339 480 m -21 X s 339 496 m -21 X s 339 512 m -21 X s 361 529 m -43 X s 361 203 m -43 X
 s 339 187 m -21 X s 361 529 m -43 X s
 gsave  2254 561 2 2 C 261.008 183.044 t 0 r /Helvetica findfont 57.777 sf 0 0 m (0) show NC gr 
 gsave  2254 561 2 2 C 213.552 261.008 t 0 r /Helvetica findfont 57.777 sf 0 0 m (0.5) show NC gr 
 gsave  2254 561 2 2 C 271.177 342.361 t 0 r /Helvetica findfont 57.777 sf 0 0 m (1) show NC gr 
 gsave  2254 561 2 2 C 213.552 423.714 t 0 r /Helvetica findfont 57.777 sf 0 0 m (1.5) show NC gr 
 gsave  2254 561 2 2 C 261.008 505.067 t 0 r /Helvetica findfont 57.777 sf 0 0 m (2) show NC gr  2178 187 m 358 Y s 2135 203 m 43 X s 2157 220 m 21 X s 2157 236 m 21 X s 2157 252 m 21 X s 2157 268 m 21 X s 2135 285 m 43 X s 2157 301 m 21 X s 2157 317
 m 21 X s 2157 334 m 21 X s 2157 350 m 21 X s 2135 366 m 43 X s 2157 382 m 21 X s 2157 399 m 21 X s 2157 415 m 21 X s 2157 431 m 21 X s 2135 447 m 43 X s 2157 464 m 21 X s 2157 480 m 21 X s 2157 496 m 21 X s 2157 512 m 21 X s 2135 529 m 43 X s 2135
 203 m 43 X s 2157 187 m 21 X s 2135 529 m 43 X s 9 lw 829 368 m 1 Y s 829 369 m cl s 829 341 m s 829 341 m cl s 923 411 m 8 Y s 923 419 m cl s 923 384 m -8 Y s 923 376 m cl s 1016 409 m 15 Y s 1016 424 m cl s 1016 382 m -15 Y s 1016 367 m cl s 1109
 400 m 24 Y s 1109 424 m cl s 1109 373 m -24 Y s 1109 349 m cl s 1202 449 m 44 Y s 1202 493 m cl s 1202 422 m -42 Y s 1202 380 m cl s 1295 516 m 29 Y s 1295 545 m cl s 1295 489 m -71 Y s 1295 418 m cl s 1388 292 m 48 Y s 1388 340 m cl s 1388 265 m
 -35 Y s 1388 230 m cl s 1481 353 m 97 Y s 1481 450 m cl s 1481 326 m -74 Y s 1481 252 m cl s 1574 518 m 27 Y s 1574 545 m cl s 1574 491 m -150 Y s 1574 341 m cl s 1667 430 m 115 Y s 1667 545 m cl s 1667 403 m -162 Y s 1667 241 m cl s 2132 545 m -219
 Y s 2132 326 m cl s 3 lw 364 369 457 362 550 359 643 363 736 392 829 355 923 397 1016 396 1109 386 1202 436 1295 503 1388 279 1481 340 1574 505 1667 416 15 { m20} R 9 lw 1 0 0 c 6 lw black 3 lw 1 0 0 c 2178 227 m s 2178 255 m s 2178 284 m s 2178 312
 m s 2178 341 m -8 -8 d s 2178 369 m -37 -36 d s 2178 398 m -65 -65 d s 2151 399 m -71 -70 d s 2122 399 m -71 -70 d s 2094 399 m -71 -70 d s 2069 403 m -75 -74 d s 2040 403 m -70 -70 d s 2011 403 m -70 -70 d s 1978 399 m -65 -66 d s 1949 399 m -59
 -60 d s 1921 399 m -60 -60 d s 1886 393 m -54 -54 d s 1858 393 m -52 -51 d s 1829 393 m -49 -49 d s 1795 388 m -44 -44 d s 1767 388 m -44 -44 d s 1738 388 m -41 -41 d s 1706 385 m -38 -38 d s 1677 385 m -37 -38 d s 1649 385 m -44 -44 d s 1620 385 m
 -44 -44 d s 1597 391 m -50 -50 d s 1569 391 m -42 -41 d s 1540 391 m -37 -37 d s 1499 378 m -25 -24 d s 1470 378 m -25 -24 d s 1441 378 m -22 -22 d s 1410 376 m -20 -20 d s 1382 376 m -20 -20 d s 1353 376 m -19 -19 d s 1323 375 m -17 -18 d s 1294
 375 m -17 -18 d s 1266 375 m -18 -18 d s 1236 374 m -16 -16 d s 1207 374 m -16 -16 d s 1179 374 m -16 -16 d s 1151 375 m -18 -18 d s 1122 375 m -18 -18 d s 1094 375 m -18 -18 d s 1065 375 m -16 -16 d s 1035 373 m -15 -14 d s 1006 373 m -15 -14 d s
 977 373 m -15 -15 d s 949 374 m -16 -16 d s 921 374 m -16 -16 d s 892 374 m -16 -16 d s 863 373 m -15 -14 d s 834 373 m -15 -14 d s 805 373 m -15 -14 d s 774 371 m -10 -10 d s 746 371 m -11 -10 d s 717 371 m -11 -10 d s 687 370 m -8 -8 d s 659 370 m
 -9 -8 d s 630 370 m -9 -8 d s 601 370 m -8 -8 d s 572 370 m -8 -8 d s 544 370 m -8 -8 d s 515 370 m -8 -8 d s 486 370 m -8 -8 d s 458 370 m -9 -8 d s 318 231 m s 429 370 m -8 -8 d s 318 259 m s 400 370 m -8 -8 d s 318 288 m s 372 370 m -9 -8 d s 318
 317 m s 343 370 m -8 -8 d s 318 345 m s 6 lw black[ 4 8] 0 sd 3 lw 318 447 m 1860 X s 318 285 m 1860 X s 1 0 0 c[  12 12 ] 0 sd 6 lw 318 366 m 1860 X s
 gr  gr showpage
end
%%EOF
