%!PS-Adobe-2.0 EPSF-2.0
%%BoundingBox:  0 0 567 521
%%Title: Distributions/met_distrCRT_MB-GGd_afterFit_forThesis.eps: canvas
%%Creator: ROOT Version 6.04/16
%%CreationDate: Tue May 19 22:01:04 2020
%%DocumentNeededResources: ProcSet (FontSetInit)
%%EndComments
%%BeginProlog
80 dict begin
/s {stroke} def /l {lineto} def /m {moveto} def /t {translate} def
/r {rotate} def /rl {roll}  def /R {repeat} def
/d {rlineto} def /rm {rmoveto} def /gr {grestore} def /f {eofill} def
/c {setrgbcolor} def /black {0 setgray} def /sd {setdash} def
/cl {closepath} def /sf {scalefont setfont} def /lw {setlinewidth} def
/box {m dup 0 exch d exch 0 d 0 exch neg d cl} def
/NC{systemdict begin initclip end}def/C{NC box clip newpath}def
/bl {box s} def /bf {gsave box gsave f grestore 1 lw [] 0 sd s grestore} def /Y { 0 exch d} def /X { 0 d} def 
/K {{pop pop 0 moveto} exch kshow} bind def
/ita {/ang 15 def gsave [1 0 ang dup sin exch cos div 1 0 0] concat} def 
/mp {newpath /y exch def /x exch def} def
/side {[w .77 mul w .23 mul] .385 w mul sd w 0 l currentpoint t -144 r} def
/mr {mp x y w2 0 360 arc} def /m24 {mr s} def /m20 {mr f} def
/mb {mp x y w2 add m w2 neg 0 d 0 w neg d w 0 d 0 w d cl} def
/mt {mp x y w2 add m w2 neg w neg d w 0 d cl} def
/m21 {mb f} def /m25 {mb s} def /m22 {mt f} def /m26{mt s} def
/m23 {mp x y w2 sub m w2 w d w neg 0 d cl f} def
/m27 {mp x y w2 add m w3 neg w2 neg d w3 w2 neg d w3 w2 d cl s} def
/m28 {mp x w2 sub y w2 sub w3 add m w3 0 d  0 w3 neg d w3 0 d 0 w3 d w3 0 d  0 w3 d w3 neg 0 d 0 w3 d w3 neg 0 d 0 w3 neg d w3 neg 0 d cl s } def
/m29 {mp gsave x w2 sub y w2 add w3 sub m currentpoint t 4 {side} repeat cl fill gr} def
/m30 {mp gsave x w2 sub y w2 add w3 sub m currentpoint t 4 {side} repeat cl s gr} def
/m31 {mp x y w2 sub m 0 w d x w2 sub y m w 0 d x w2 sub y w2 add m w w neg d x w2 sub y w2 sub m w w d s} def
/m32 {mp x y w2 sub m w2 w d w neg 0 d cl s} def
/m33 {mp x y w2 add m w3 neg w2 neg d w3 w2 neg d w3 w2 d cl f} def
/m34 {mp x w2 sub y w2 sub w3 add m w3 0 d  0 w3 neg d w3 0 d 0 w3 d w3 0 d  0 w3 d w3 neg 0 d 0 w3 d w3 neg 0 d 0 w3 neg d w3 neg 0 d cl f } def
/m2 {mp x y w2 sub m 0 w d x w2 sub y m w 0 d s} def
/m5 {mp x w2 sub y w2 sub m w w d x w2 sub y w2 add m w w neg d s} def
%%IncludeResource: ProcSet (FontSetInit)
%%IncludeResource: font Times-Roman
%%IncludeResource: font Times-Italic
%%IncludeResource: font Times-Bold
%%IncludeResource: font Times-BoldItalic
%%IncludeResource: font Helvetica
%%IncludeResource: font Helvetica-Oblique
%%IncludeResource: font Helvetica-Bold
%%IncludeResource: font Helvetica-BoldOblique
%%IncludeResource: font Courier
%%IncludeResource: font Courier-Oblique
%%IncludeResource: font Courier-Bold
%%IncludeResource: font Courier-BoldOblique
%%IncludeResource: font Symbol
%%IncludeResource: font ZapfDingbats
/reEncode {exch findfont dup length dict begin {1 index /FID eq  {pop pop} {def} ifelse } forall /Encoding exch def currentdict end dup /FontName get exch definefont pop } def [/Times-Bold /Times-Italic /Times-BoldItalic /Helvetica /Helvetica-Oblique
 /Helvetica-Bold /Helvetica-BoldOblique /Courier /Courier-Oblique /Courier-Bold /Courier-BoldOblique /Times-Roman /AvantGarde-Book /AvantGarde-BookOblique /AvantGarde-Demi /AvantGarde-DemiOblique /Bookman-Demi /Bookman-DemiItalic /Bookman-Light
 /Bookman-LightItalic /Helvetica-Narrow /Helvetica-Narrow-Bold /Helvetica-Narrow-BoldOblique /Helvetica-Narrow-Oblique /NewCenturySchlbk-Roman /NewCenturySchlbk-Bold /NewCenturySchlbk-BoldItalic /NewCenturySchlbk-Italic /Palatino-Bold
 /Palatino-BoldItalic /Palatino-Italic /Palatino-Roman ] {ISOLatin1Encoding reEncode } forall
%%EndProlog
%%BeginSetup
%%EndSetup
newpath  gsave  .25 .25 scale  gsave  0 0 t black[  ] 0 sd 3 lw 1 1 1 c 2268 2085 0 0 bf black 1 1 1 c 2263 1770 2 313 bf black 1 1 1 c black 1860 1145 319 584 bl 1 1 1 c black 1860 1145 319 584 bl 6 lw 1 1 1 c black 3 lw /w 33 def /w2 {w 2 div} def
 /w3 {w 3 div} def 366 1217 m20 6 lw 3 lw 459 1172 m20 6 lw 3 lw 552 1107 m20 6 lw 3 lw 645 1043 m20 6 lw 3 lw 738 983 m20 6 lw 831 907 m 2 Y s 3 lw 831 923 m20 6 lw 924 846 m 12 Y s 924 885 m 5 Y s 3 lw 924 872 m20 6 lw 1017 825 m 17 Y s 1017 869 m
 7 Y s 3 lw 1017 856 m20 6 lw 1110 747 m 41 Y s 1110 815 m 16 Y s 3 lw 1110 802 m20 6 lw 1203 697 m 65 Y s 1203 789 m 21 Y s 3 lw 1203 776 m20 6 lw 1389 584 m 134 Y s 1389 745 m 31 Y s 3 lw 1389 731 m20 6 lw 3 lw 319 584 m 1860 X s
 gsave  2263 1770 2 313 C 1949.08 355.92 t 0 r /Helvetica findfont 81.3741 sf 0 0 m ( [GeV]) show NC gr 
 gsave  2263 1770 2 313 C 1837.22 396.596 t 0 r /Helvetica findfont 54.2494 sf 0 0 m (miss) show NC gr 
 gsave  2263 1770 2 313 C 1837.22 332.192 t 0 r /Helvetica findfont 54.2494 sf 0 0 m (T) show NC gr 
 gsave  2263 1770 2 313 C 1786.38 355.92 t 0 r /Helvetica findfont 81.3741 sf 0 0 m (E) show NC gr  412 584 m cl s 459 584 m cl s 505 584 m cl s 552 584 m cl s 598 584 m cl s 645 584 m cl s 691 584 m cl s 738 584 m cl s 784 584 m cl s 831 584 m cl s
 877 584 m cl s 924 584 m cl s 970 584 m cl s 1017 584 m cl s 1063 584 m cl s 1110 584 m cl s 1156 584 m cl s 1203 584 m cl s 1249 584 m cl s 1296 584 m cl s 1342 584 m cl s 1389 584 m cl s 1435 584 m cl s 1482 584 m cl s 1528 584 m cl s 1575 584 m
 cl s 1621 584 m cl s 1668 584 m cl s 1714 584 m cl s 1761 584 m cl s 1807 584 m cl s 1854 584 m cl s 1900 584 m cl s 1947 584 m cl s 1993 584 m cl s 2040 584 m cl s 2086 584 m cl s 412 584 m cl s 366 584 m cl s 319 584 m cl s 2086 584 m cl s 2133
 584 m cl s 2179 584 m cl s 319 1729 m 1860 X s 412 1729 m cl s 459 1729 m cl s 505 1729 m cl s 552 1729 m cl s 598 1729 m cl s 645 1729 m cl s 691 1729 m cl s 738 1729 m cl s 784 1729 m cl s 831 1729 m cl s 877 1729 m cl s 924 1729 m cl s 970 1729 m
 cl s 1017 1729 m cl s 1063 1729 m cl s 1110 1729 m cl s 1156 1729 m cl s 1203 1729 m cl s 1249 1729 m cl s 1296 1729 m cl s 1342 1729 m cl s 1389 1729 m cl s 1435 1729 m cl s 1482 1729 m cl s 1528 1729 m cl s 1575 1729 m cl s 1621 1729 m cl s 1668
 1729 m cl s 1714 1729 m cl s 1761 1729 m cl s 1807 1729 m cl s 1854 1729 m cl s 1900 1729 m cl s 1947 1729 m cl s 1993 1729 m cl s 2040 1729 m cl s 2086 1729 m cl s 412 1729 m cl s 366 1729 m cl s 319 1729 m cl s 2086 1729 m cl s 2133 1729 m cl s
 2179 1729 m cl s 319 584 m 1145 Y s
 gsave  2263 1770 2 313 C 166.096 1091.49 t 90 r /Helvetica findfont 81.3741 sf 0 0 m (Events / 100 GeV) show NC gr  341 629 m -22 X s 341 655 m -22 X s 341 673 m -22 X s 341 687 m -22 X s 341 699 m -22 X s 341 709 m -22 X s 341 717 m -22 X s 341 725
 m -22 X s 363 731 m -44 X s
 gsave  2263 1770 2 313 C 300.555 704.338 t 0 r  -36 0 t /Helvetica findfont 64.4212 sf 0 0 m (1) show NC gr  341 776 m -22 X s 341 802 m -22 X s 341 820 m -22 X s 341 834 m -22 X s 341 846 m -22 X s 341 856 m -22 X s 341 864 m -22 X s 341 872 m -22
 X s 363 879 m -44 X s
 gsave  2263 1770 2 313 C 300.555 851.484 t 0 r  -73 0 t /Helvetica findfont 64.4212 sf 0 0 m (10) show NC gr  341 923 m -22 X s 341 949 m -22 X s 341 967 m -22 X s 341 981 m -22 X s 341 993 m -22 X s 341 1003 m -22 X s 341 1011 m -22 X s 341 1019 m
 -22 X s 363 1026 m -44 X s
 gsave  2263 1770 2 313 C 274.567 1023.69 t 0 r /Helvetica findfont 44.0776 sf 0 0 m (2) show NC gr 
 gsave  2263 1770 2 313 C 203.383 996.575 t 0 r /Helvetica findfont 64.4212 sf 0 0 m (10) show NC gr  341 1070 m -22 X s 341 1096 m -22 X s 341 1114 m -22 X s 341 1129 m -22 X s 341 1140 m -22 X s 341 1150 m -22 X s 341 1159 m -22 X s 341 1166 m -22
 X s 363 1173 m -44 X s
 gsave  2263 1770 2 313 C 274.567 1176.23 t 0 r /Helvetica findfont 44.0776 sf 0 0 m (3) show NC gr 
 gsave  2263 1770 2 313 C 203.383 1145.72 t 0 r /Helvetica findfont 64.4212 sf 0 0 m (10) show NC gr  341 1217 m -22 X s 341 1243 m -22 X s 341 1261 m -22 X s 341 1276 m -22 X s 341 1287 m -22 X s 341 1297 m -22 X s 341 1306 m -22 X s 341 1313 m -22
 X s 363 1320 m -44 X s
 gsave  2263 1770 2 313 C 274.567 1318.6 t 0 r /Helvetica findfont 44.0776 sf 0 0 m (4) show NC gr 
 gsave  2263 1770 2 313 C 203.383 1291.48 t 0 r /Helvetica findfont 64.4212 sf 0 0 m (10) show NC gr  341 1364 m -22 X s 341 1390 m -22 X s 341 1409 m -22 X s 341 1423 m -22 X s 341 1435 m -22 X s 341 1444 m -22 X s 341 1453 m -22 X s 341 1460 m -22
 X s 363 1467 m -44 X s
 gsave  2263 1770 2 313 C 274.567 1467.74 t 0 r /Helvetica findfont 44.0776 sf 0 0 m (5) show NC gr 
 gsave  2263 1770 2 313 C 203.383 1437.24 t 0 r /Helvetica findfont 64.4212 sf 0 0 m (10) show NC gr  341 1511 m -22 X s 341 1537 m -22 X s 341 1556 m -22 X s 341 1570 m -22 X s 341 1582 m -22 X s 341 1592 m -22 X s 341 1600 m -22 X s 341 1608 m -22
 X s 363 1614 m -44 X s
 gsave  2263 1770 2 313 C 274.567 1616.89 t 0 r /Helvetica findfont 44.0776 sf 0 0 m (6) show NC gr 
 gsave  2263 1770 2 313 C 203.383 1586.38 t 0 r /Helvetica findfont 64.4212 sf 0 0 m (10) show NC gr  341 1659 m -22 X s 341 1685 m -22 X s 341 1703 m -22 X s 341 1717 m -22 X s 2179 584 m 1145 Y s 2157 629 m 22 X s 2157 655 m 22 X s 2157 673 m 22 X
 s 2157 687 m 22 X s 2157 699 m 22 X s 2157 709 m 22 X s 2157 717 m 22 X s 2157 725 m 22 X s 2136 731 m 43 X s 2157 776 m 22 X s 2157 802 m 22 X s 2157 820 m 22 X s 2157 834 m 22 X s 2157 846 m 22 X s 2157 856 m 22 X s 2157 864 m 22 X s 2157 872 m 22
 X s 2136 879 m 43 X s 2157 923 m 22 X s 2157 949 m 22 X s 2157 967 m 22 X s 2157 981 m 22 X s 2157 993 m 22 X s 2157 1003 m 22 X s 2157 1011 m 22 X s 2157 1019 m 22 X s 2136 1026 m 43 X s 2157 1070 m 22 X s 2157 1096 m 22 X s 2157 1114 m 22 X s 2157
 1129 m 22 X s 2157 1140 m 22 X s 2157 1150 m 22 X s 2157 1159 m 22 X s 2157 1166 m 22 X s 2136 1173 m 43 X s 2157 1217 m 22 X s 2157 1243 m 22 X s 2157 1261 m 22 X s 2157 1276 m 22 X s 2157 1287 m 22 X s 2157 1297 m 22 X s 2157 1306 m 22 X s 2157
 1313 m 22 X s 2136 1320 m 43 X s 2157 1364 m 22 X s 2157 1390 m 22 X s 2157 1409 m 22 X s 2157 1423 m 22 X s 2157 1435 m 22 X s 2157 1444 m 22 X s 2157 1453 m 22 X s 2157 1460 m 22 X s 2136 1467 m 43 X s 2157 1511 m 22 X s 2157 1537 m 22 X s 2157
 1556 m 22 X s 2157 1570 m 22 X s 2157 1582 m 22 X s 2157 1592 m 22 X s 2157 1600 m 22 X s 2157 1608 m 22 X s 2136 1614 m 43 X s 2157 1659 m 22 X s 2157 1685 m 22 X s 2157 1703 m 22 X s 2157 1717 m 22 X s 0.6 1 0.6 c black 0.6 1 0.6 c 319 584 m 632 Y
 93 X -41 Y 93 X -69 Y 93 X -65 Y 93 X -58 Y 93 X -53 Y 93 X -53 Y 93 X -50 Y 93 X -51 Y 93 X -34 Y 93 X -49 Y 93 X -19 Y 93 X -90 Y 93 X 17 Y 93 X -17 Y 558 X f black 0.6 1 0.6 c black 319 1216 m 93 X -41 Y 93 X -69 Y 93 X -65 Y 93 X -58 Y 93 X -53
 Y 93 X -53 Y 93 X -50 Y 93 X -51 Y 93 X -34 Y 93 X -49 Y 93 X -19 Y 93 X -90 Y 93 X 17 Y 93 X -17 Y 558 X s 0.999 0.999 0.999 c black 0.999 0.999 0.999 c 319 584 m 498 Y 93 X -16 Y 93 X -50 Y 93 X -43 Y 93 X -49 Y 93 X -45 Y 93 X -41 Y 93 X -34 Y 93
 X -49 Y 93 X -34 Y 93 X -39 Y 93 X -35 Y 93 X -63 Y 93 X 15 Y 93 X -15 Y 558 X f black 0.999 0.999 0.999 c black 319 1082 m 93 X -16 Y 93 X -50 Y 93 X -43 Y 93 X -49 Y 93 X -45 Y 93 X -41 Y 93 X -34 Y 93 X -49 Y 93 X -34 Y 93 X -39 Y 93 X -35 Y 93 X
 -63 Y 93 X 15 Y 93 X -15 Y 558 X s 1 1 1 c black 319 1082 m 93 X -16 Y 93 X -50 Y 93 X -43 Y 93 X -49 Y 93 X -45 Y 93 X -41 Y 93 X -34 Y 93 X -49 Y 93 X -34 Y 93 X -39 Y 93 X -35 Y 93 X -63 Y 93 X 15 Y 93 X -15 Y 558 X s 0.4 0.6 1 c black 0.4 0.6 1
 c 319 584 m 498 Y 93 X -16 Y 93 X -50 Y 93 X -43 Y 93 X -49 Y 93 X -45 Y 93 X -41 Y 93 X -34 Y 93 X -49 Y 93 X -34 Y 93 X -39 Y 93 X -35 Y 93 X -63 Y 93 X 15 Y 93 X -15 Y 558 X f black 0.4 0.6 1 c black 319 1082 m 93 X -16 Y 93 X -50 Y 93 X -43 Y 93
 X -49 Y 93 X -45 Y 93 X -41 Y 93 X -34 Y 93 X -49 Y 93 X -34 Y 93 X -39 Y 93 X -35 Y 93 X -63 Y 93 X 15 Y 93 X -15 Y 558 X s 0.999 0.999 0.999 c black 0.999 0.999 0.999 c 319 584 m 352 Y 93 X -3 Y 93 X -52 Y 93 X -42 Y 93 X -82 Y 93 X -34 Y 93 X -49
 Y 93 X -86 Y 93 X 38 Y 93 X -1 Y 93 X -41 Y 930 X f black 0.999 0.999 0.999 c black 319 936 m 93 X -3 Y 93 X -52 Y 93 X -42 Y 93 X -82 Y 93 X -34 Y 93 X -49 Y 93 X -86 Y 93 X 38 Y 93 X -1 Y 93 X -41 Y 930 X s 1 1 1 c black 319 936 m 93 X -3 Y 93 X
 -52 Y 93 X -42 Y 93 X -82 Y 93 X -34 Y 93 X -49 Y 93 X -86 Y 93 X 38 Y 93 X -1 Y 93 X -41 Y 930 X s 1 0.8 0.4 c black 1 0.8 0.4 c 319 584 m 352 Y 93 X -3 Y 93 X -52 Y 93 X -42 Y 93 X -82 Y 93 X -34 Y 93 X -49 Y 93 X -86 Y 93 X 38 Y 93 X -1 Y 93 X
 -41 Y 930 X f black 1 0.8 0.4 c black 319 936 m 93 X -3 Y 93 X -52 Y 93 X -42 Y 93 X -82 Y 93 X -34 Y 93 X -49 Y 93 X -86 Y 93 X 38 Y 93 X -1 Y 93 X -41 Y 930 X s 0.999 0.999 0.999 c black 0.999 0.999 0.999 c 319 584 m 345 Y 93 X -1 Y 93 X -57 Y 93
 X -36 Y 93 X -83 Y 93 X -35 Y 93 X -47 Y 93 X -86 Y 93 X 41 Y 93 X -4 Y 93 X -37 Y 930 X f black 0.999 0.999 0.999 c black 319 929 m 93 X -1 Y 93 X -57 Y 93 X -36 Y 93 X -83 Y 93 X -35 Y 93 X -47 Y 93 X -86 Y 93 X 41 Y 93 X -4 Y 93 X -37 Y 930 X s 1
 1 1 c black 319 929 m 93 X -1 Y 93 X -57 Y 93 X -36 Y 93 X -83 Y 93 X -35 Y 93 X -47 Y 93 X -86 Y 93 X 41 Y 93 X -4 Y 93 X -37 Y 930 X s 1 0.4 0.6 c black 1 0.4 0.6 c 319 584 m 345 Y 93 X -1 Y 93 X -57 Y 93 X -36 Y 93 X -83 Y 93 X -35 Y 93 X -47 Y
 93 X -86 Y 93 X 41 Y 93 X -4 Y 93 X -37 Y 930 X f black 1 0.4 0.6 c black 319 929 m 93 X -1 Y 93 X -57 Y 93 X -36 Y 93 X -83 Y 93 X -35 Y 93 X -47 Y 93 X -86 Y 93 X 41 Y 93 X -4 Y 93 X -37 Y 930 X s 1 0 0 c 6 lw 1 1 1 c black 1 0 0 c 319 1216 m 93 X
 -41 Y 93 X -69 Y 93 X -65 Y 93 X -58 Y 93 X -53 Y 93 X -53 Y 93 X -50 Y 93 X -51 Y 93 X -34 Y 93 X -49 Y 93 X -19 Y 93 X -90 Y 93 X 17 Y 93 X -17 Y 558 X s black 3 lw 1 0 0 c 1 lw << /PatternType 1 /PaintType 2 /TilingType 1 /BBox [ 0 0 100 100 ]
 /XStep 100 /YStep 100 /PaintProc { begin gsave 0 100 m 100 0 l s gr end } >> [ 0.24 0 0 0.24 0 0 ] makepattern /P05 exch def /cs {[/Pattern /DeviceRGB] setcolorspace} def /FA {f [/DeviceRGB] setcolorspace} def cs 1 0 0 P05 setcolor 319 584 m 633 Y
 93 X -41 Y 93 X -69 Y 93 X -64 Y 93 X -57 Y 93 X -51 Y 93 X -52 Y 93 X -48 Y 93 X -47 Y 93 X -34 Y 93 X -49 Y 93 X -6 Y 93 X -100 Y 93 X 21 Y 93 X -36 Y -186 X 46 Y -93 X 47 Y -93 X 50 Y -93 X 34 Y -93 X 57 Y -93 X 52 Y -93 X 55 Y -93 X 54 Y -93 X
 60 Y -93 X 65 Y -93 X 70 Y -93 X 41 Y -93 X -631 Y FA 6 lw 1 1 1 c 15 lw 924 852 m -5 Y s 924 847 m cl s 1017 876 m 1 Y s 1017 877 m cl s 1017 835 m -8 Y s 1017 827 m cl s 1110 822 m 11 Y s 1110 833 m cl s 1110 781 m -29 Y s 1110 752 m cl s 1203 796
 m 18 Y s 1203 814 m cl s 1203 755 m -45 Y s 1203 710 m cl s 1389 752 m 32 Y s 1389 784 m cl s 1389 711 m -91 Y s 1389 620 m cl s black 1 1 1 c 3 lw /w 43 def /w2 {w 2 div} def /w3 {w 3 div} def 366 1217 459 1172 552 1107 645 1043 738 983 831 923 924
 872 1017 856 1110 802 1203 776 10 { m20} R 15 lw 3 lw 1389 731 m20 15 lw black 6 lw 1 1 1 c black 3 lw /w 33 def /w2 {w 2 div} def /w3 {w 3 div} def 366 1217 m20 6 lw 3 lw 459 1172 m20 6 lw 3 lw 552 1107 m20 6 lw 3 lw 645 1043 m20 6 lw 3 lw 738 983
 m20 6 lw 831 907 m 2 Y s 3 lw 831 923 m20 6 lw 924 846 m 12 Y s 924 885 m 5 Y s 3 lw 924 872 m20 6 lw 1017 825 m 17 Y s 1017 869 m 7 Y s 3 lw 1017 856 m20 6 lw 1110 747 m 41 Y s 1110 815 m 16 Y s 3 lw 1110 802 m20 6 lw 1203 697 m 65 Y s 1203 789 m
 21 Y s 3 lw 1203 776 m20 6 lw 1389 584 m 134 Y s 1389 745 m 31 Y s 3 lw 1389 731 m20 6 lw 831 909 m -2 Y s 831 907 m cl s 924 885 m 6 Y s 924 891 m cl s 924 858 m -11 Y s 924 847 m cl s 1017 869 m 8 Y s 1017 877 m cl s 1017 842 m -15 Y s 1017 827 m
 cl s 1110 815 m 18 Y s 1110 833 m cl s 1110 788 m -36 Y s 1110 752 m cl s 1203 789 m 25 Y s 1203 814 m cl s 1203 762 m -52 Y s 1203 710 m cl s 1389 745 m 39 Y s 1389 784 m cl s 1389 718 m -98 Y s 1389 620 m cl s 3 lw 366 1217 459 1172 552 1107 645
 1043 738 983 831 923 924 872 1017 856 1110 802 1203 776 10 { m20} R 6 lw 3 lw 1389 731 m20 6 lw 3 lw 319 584 m 1860 X s 412 584 m cl s 459 584 m cl s 505 584 m cl s 552 584 m cl s 598 584 m cl s 645 584 m cl s 691 584 m cl s 738 584 m cl s 784 584 m
 cl s 831 584 m cl s 877 584 m cl s 924 584 m cl s 970 584 m cl s 1017 584 m cl s 1063 584 m cl s 1110 584 m cl s 1156 584 m cl s 1203 584 m cl s 1249 584 m cl s 1296 584 m cl s 1342 584 m cl s 1389 584 m cl s 1435 584 m cl s 1482 584 m cl s 1528 584
 m cl s 1575 584 m cl s 1621 584 m cl s 1668 584 m cl s 1714 584 m cl s 1761 584 m cl s 1807 584 m cl s 1854 584 m cl s 1900 584 m cl s 1947 584 m cl s 1993 584 m cl s 2040 584 m cl s 2086 584 m cl s 412 584 m cl s 366 584 m cl s 319 584 m cl s 2086
 584 m cl s 2133 584 m cl s 2179 584 m cl s 319 1729 m 1860 X s 412 1729 m cl s 459 1729 m cl s 505 1729 m cl s 552 1729 m cl s 598 1729 m cl s 645 1729 m cl s 691 1729 m cl s 738 1729 m cl s 784 1729 m cl s 831 1729 m cl s 877 1729 m cl s 924 1729 m
 cl s 970 1729 m cl s 1017 1729 m cl s 1063 1729 m cl s 1110 1729 m cl s 1156 1729 m cl s 1203 1729 m cl s 1249 1729 m cl s 1296 1729 m cl s 1342 1729 m cl s 1389 1729 m cl s 1435 1729 m cl s 1482 1729 m cl s 1528 1729 m cl s 1575 1729 m cl s 1621
 1729 m cl s 1668 1729 m cl s 1714 1729 m cl s 1761 1729 m cl s 1807 1729 m cl s 1854 1729 m cl s 1900 1729 m cl s 1947 1729 m cl s 1993 1729 m cl s 2040 1729 m cl s 2086 1729 m cl s 412 1729 m cl s 366 1729 m cl s 319 1729 m cl s 2086 1729 m cl s
 2133 1729 m cl s 2179 1729 m cl s 319 584 m 1145 Y s 341 629 m -22 X s 341 655 m -22 X s 341 673 m -22 X s 341 687 m -22 X s 341 699 m -22 X s 341 709 m -22 X s 341 717 m -22 X s 341 725 m -22 X s 363 731 m -44 X s 341 776 m -22 X s 341 802 m -22 X
 s 341 820 m -22 X s 341 834 m -22 X s 341 846 m -22 X s 341 856 m -22 X s 341 864 m -22 X s 341 872 m -22 X s 363 879 m -44 X s 341 923 m -22 X s 341 949 m -22 X s 341 967 m -22 X s 341 981 m -22 X s 341 993 m -22 X s 341 1003 m -22 X s 341 1011 m
 -22 X s 341 1019 m -22 X s 363 1026 m -44 X s 341 1070 m -22 X s 341 1096 m -22 X s 341 1114 m -22 X s 341 1129 m -22 X s 341 1140 m -22 X s 341 1150 m -22 X s 341 1159 m -22 X s 341 1166 m -22 X s 363 1173 m -44 X s 341 1217 m -22 X s 341 1243 m
 -22 X s 341 1261 m -22 X s 341 1276 m -22 X s 341 1287 m -22 X s 341 1297 m -22 X s 341 1306 m -22 X s 341 1313 m -22 X s 363 1320 m -44 X s 341 1364 m -22 X s 341 1390 m -22 X s 341 1409 m -22 X s 341 1423 m -22 X s 341 1435 m -22 X s 341 1444 m
 -22 X s 341 1453 m -22 X s 341 1460 m -22 X s 363 1467 m -44 X s 341 1511 m -22 X s 341 1537 m -22 X s 341 1556 m -22 X s 341 1570 m -22 X s 341 1582 m -22 X s 341 1592 m -22 X s 341 1600 m -22 X s 341 1608 m -22 X s 363 1614 m -44 X s 341 1659 m
 -22 X s 341 1685 m -22 X s 341 1703 m -22 X s 341 1717 m -22 X s 2179 584 m 1145 Y s 2157 629 m 22 X s 2157 655 m 22 X s 2157 673 m 22 X s 2157 687 m 22 X s 2157 699 m 22 X s 2157 709 m 22 X s 2157 717 m 22 X s 2157 725 m 22 X s 2136 731 m 43 X s
 2157 776 m 22 X s 2157 802 m 22 X s 2157 820 m 22 X s 2157 834 m 22 X s 2157 846 m 22 X s 2157 856 m 22 X s 2157 864 m 22 X s 2157 872 m 22 X s 2136 879 m 43 X s 2157 923 m 22 X s 2157 949 m 22 X s 2157 967 m 22 X s 2157 981 m 22 X s 2157 993 m 22 X
 s 2157 1003 m 22 X s 2157 1011 m 22 X s 2157 1019 m 22 X s 2136 1026 m 43 X s 2157 1070 m 22 X s 2157 1096 m 22 X s 2157 1114 m 22 X s 2157 1129 m 22 X s 2157 1140 m 22 X s 2157 1150 m 22 X s 2157 1159 m 22 X s 2157 1166 m 22 X s 2136 1173 m 43 X s
 2157 1217 m 22 X s 2157 1243 m 22 X s 2157 1261 m 22 X s 2157 1276 m 22 X s 2157 1287 m 22 X s 2157 1297 m 22 X s 2157 1306 m 22 X s 2157 1313 m 22 X s 2136 1320 m 43 X s 2157 1364 m 22 X s 2157 1390 m 22 X s 2157 1409 m 22 X s 2157 1423 m 22 X s
 2157 1435 m 22 X s 2157 1444 m 22 X s 2157 1453 m 22 X s 2157 1460 m 22 X s 2136 1467 m 43 X s 2157 1511 m 22 X s 2157 1537 m 22 X s 2157 1556 m 22 X s 2157 1570 m 22 X s 2157 1582 m 22 X s 2157 1592 m 22 X s 2157 1600 m 22 X s 2157 1608 m 22 X s
 2136 1614 m 43 X s 2157 1659 m 22 X s 2157 1685 m 22 X s 2157 1703 m 22 X s 2157 1717 m 22 X s
 gsave  2263 1770 2 313 C 406.765 1447.41 t 0 r /Helvetica findfont 64.4212 sf 0 0 m (CRT for MB\255GGd) show NC gr 
 gsave  2263 1770 2 313 C 1464.36 1616.89 t 0 r /Helvetica findfont 64.4212 sf 0 0 m (SM Total) show NC gr  1 1 1 c 1338 1603 m 107 X 74 Y -107 X f 1 0 0 c 6 lw 1338 1640 m 107 X s black
 gsave  2263 1770 2 313 C 1464.36 1511.81 t 0 r /Helvetica findfont 64.4212 sf 0 0 m (Data) show NC gr  1391 1502 m 64 Y s 3 lw 1391 1534 m20 6 lw
 gsave  2263 1770 2 313 C 1498.25 1406.73 t 0 r /Helvetica findfont 64.4212 sf 0 0 m (\(+EW\) & single top) show NC gr 
 gsave  2263 1770 2 313 C 1481.3 1406.73 t 0 r /Helvetica findfont 64.4212 sf 0 0 m (t) show NC gr  3 lw 1481 1458 m 17 X s
 gsave  2263 1770 2 313 C 1464.36 1406.73 t 0 r /Helvetica findfont 64.4212 sf 0 0 m (t) show NC gr  0.6 1 0.6 c 1338 1391 m 107 X 74 Y -107 X f black 1338 1465 m 107 X s 1338 1391 m 107 X s 1445 1391 m 74 Y s 1338 1391 m 74 Y s
 gsave  2263 1770 2 313 C 1464.36 1298.26 t 0 r /Helvetica findfont 64.4212 sf 0 0 m (W+jets) show NC gr  0.4 0.6 1 c 1338 1284 m 107 X 75 Y -107 X f black 1338 1359 m 107 X s 1338 1284 m 107 X s 1445 1284 m 75 Y s 1338 1284 m 75 Y s
 gsave  2263 1770 2 313 C 1464.36 1193.18 t 0 r /Helvetica findfont 64.4212 sf 0 0 m (Z+jets) show NC gr  1 0.8 0.4 c 1338 1178 m 107 X 75 Y -107 X f black 1338 1253 m 107 X s 1338 1178 m 107 X s 1445 1178 m 75 Y s 1338 1178 m 75 Y s
 gsave  2263 1770 2 313 C 1464.36 1088.1 t 0 r /Helvetica findfont 64.4212 sf 0 0 m (Diboson) show NC gr  1 0.4 0.6 c 1338 1072 m 107 X 74 Y -107 X f black 1338 1146 m 107 X s 1338 1072 m 107 X s 1445 1072 m 74 Y s 1338 1072 m 74 Y s
 gsave  2263 1770 2 313 C 911.832 1566.05 t 0 r /Helvetica findfont 44.0776 sf 0 0 m (\2551) show NC gr 
 gsave  2263 1770 2 313 C 471.17 1535.54 t 0 r /Helvetica findfont 64.4212 sf 0 0 m (=13TeV, 139 fb) show NC gr 
 gsave  2263 1770 2 313 C 440.662 1535.54 t 0 r /Helvetica findfont 64.4212 sf 0 0 m (s) show NC gr  6 lw 420 1573 m 7 -41 d s 3 lw 427 1532 m 7 61 d s 434 1593 m 37 X s 1 1 1 c 2254 561 2 2 bf black 1 1 1 c black 1860 358 318 187 bl 1 1 1 c black
 1860 358 318 187 bl 6 lw 1 1 1 c black 3 lw 364 369 m20 6 lw 3 lw 457 360 m20 6 lw 3 lw 550 369 m20 6 lw 3 lw 643 370 m20 6 lw 3 lw 736 366 m20 6 lw 3 lw 829 349 m20 6 lw 3 lw 923 354 m20 6 lw 3 lw 1016 460 m20 6 lw 3 lw 1109 448 m20 6 lw 3 lw 1202
 480 m20 6 lw 3 lw 318 187 m 1860 X s
 gsave  2254 561 2 2 C 1959.25 27.1177 t 0 r /Helvetica findfont 78.1689 sf 0 0 m ( [GeV]) show NC gr 
 gsave  2254 561 2 2 C 1854.17 64.4045 t 0 r /Helvetica findfont 50.9797 sf 0 0 m (miss) show NC gr 
 gsave  2254 561 2 2 C 1854.17 3.38971 t 0 r /Helvetica findfont 50.9797 sf 0 0 m (T) show NC gr 
 gsave  2254 561 2 2 C 1803.33 27.1177 t 0 r /Helvetica findfont 78.1689 sf 0 0 m (E) show NC gr  411 201 m -14 Y s 457 194 m -7 Y s 504 194 m -7 Y s 550 194 m -7 Y s 597 201 m -14 Y s 643 194 m -7 Y s 690 194 m -7 Y s 736 194 m -7 Y s 783 201 m -14
 Y s 829 194 m -7 Y s 876 194 m -7 Y s 923 194 m -7 Y s 969 201 m -14 Y s 1016 194 m -7 Y s 1062 194 m -7 Y s 1109 194 m -7 Y s 1155 201 m -14 Y s 1202 194 m -7 Y s 1248 194 m -7 Y s 1295 194 m -7 Y s 1341 201 m -14 Y s 1388 194 m -7 Y s 1434 194 m
 -7 Y s 1481 194 m -7 Y s 1527 201 m -14 Y s 1574 194 m -7 Y s 1620 194 m -7 Y s 1667 194 m -7 Y s 1713 201 m -14 Y s 1760 194 m -7 Y s 1806 194 m -7 Y s 1853 194 m -7 Y s 1899 201 m -14 Y s 1946 194 m -7 Y s 1992 194 m -7 Y s 2039 194 m -7 Y s 2085
 201 m -14 Y s 411 201 m -14 Y s 364 194 m -7 Y s 318 194 m -7 Y s 2085 201 m -14 Y s 2132 194 m -7 Y s
 gsave  2254 561 2 2 C 345.75 118.64 t 0 r /Helvetica findfont 78.1689 sf 0 0 m (400) show NC gr 
 gsave  2254 561 2 2 C 532.185 118.64 t 0 r /Helvetica findfont 78.1689 sf 0 0 m (600) show NC gr 
 gsave  2254 561 2 2 C 715.229 118.64 t 0 r /Helvetica findfont 78.1689 sf 0 0 m (800) show NC gr 
 gsave  2254 561 2 2 C 877.935 118.64 t 0 r /Helvetica findfont 78.1689 sf 0 0 m (1000) show NC gr 
 gsave  2254 561 2 2 C 1064.37 118.64 t 0 r /Helvetica findfont 78.1689 sf 0 0 m (1200) show NC gr 
 gsave  2254 561 2 2 C 1250.8 118.64 t 0 r /Helvetica findfont 78.1689 sf 0 0 m (1400) show NC gr 
 gsave  2254 561 2 2 C 1437.24 118.64 t 0 r /Helvetica findfont 78.1689 sf 0 0 m (1600) show NC gr 
 gsave  2254 561 2 2 C 1623.67 118.64 t 0 r /Helvetica findfont 78.1689 sf 0 0 m (1800) show NC gr 
 gsave  2254 561 2 2 C 1810.11 118.64 t 0 r /Helvetica findfont 78.1689 sf 0 0 m (2000) show NC gr 
 gsave  2254 561 2 2 C 1996.54 118.64 t 0 r /Helvetica findfont 78.1689 sf 0 0 m (2200) show NC gr  318 545 m 1860 X s 411 531 m 14 Y s 457 538 m 7 Y s 504 538 m 7 Y s 550 538 m 7 Y s 597 531 m 14 Y s 643 538 m 7 Y s 690 538 m 7 Y s 736 538 m 7 Y s
 783 531 m 14 Y s 829 538 m 7 Y s 876 538 m 7 Y s 923 538 m 7 Y s 969 531 m 14 Y s 1016 538 m 7 Y s 1062 538 m 7 Y s 1109 538 m 7 Y s 1155 531 m 14 Y s 1202 538 m 7 Y s 1248 538 m 7 Y s 1295 538 m 7 Y s 1341 531 m 14 Y s 1388 538 m 7 Y s 1434 538 m 7
 Y s 1481 538 m 7 Y s 1527 531 m 14 Y s 1574 538 m 7 Y s 1620 538 m 7 Y s 1667 538 m 7 Y s 1713 531 m 14 Y s 1760 538 m 7 Y s 1806 538 m 7 Y s 1853 538 m 7 Y s 1899 531 m 14 Y s 1946 538 m 7 Y s 1992 538 m 7 Y s 2039 538 m 7 Y s 2085 531 m 14 Y s 411
 531 m 14 Y s 364 538 m 7 Y s 318 538 m 7 Y s 2085 531 m 14 Y s 2132 538 m 7 Y s 318 187 m 358 Y s
 gsave  2254 561 2 2 C 166.096 284.736 t 90 r /Helvetica findfont 67.9729 sf 0 0 m (Data/SM) show NC gr  361 203 m -43 X s 339 220 m -21 X s 339 236 m -21 X s 339 252 m -21 X s 339 268 m -21 X s 361 285 m -43 X s 339 301 m -21 X s 339 317 m -21 X s
 339 334 m -21 X s 339 350 m -21 X s 361 366 m -43 X s 339 382 m -21 X s 339 399 m -21 X s 339 415 m -21 X s 339 431 m -21 X s 361 447 m -43 X s 339 464 m -21 X s 339 480 m -21 X s 339 496 m -21 X s 339 512 m -21 X s 361 529 m -43 X s 361 203 m -43 X
 s 339 187 m -21 X s 361 529 m -43 X s
 gsave  2254 561 2 2 C 261.008 183.044 t 0 r /Helvetica findfont 57.777 sf 0 0 m (0) show NC gr 
 gsave  2254 561 2 2 C 213.552 261.008 t 0 r /Helvetica findfont 57.777 sf 0 0 m (0.5) show NC gr 
 gsave  2254 561 2 2 C 271.177 342.361 t 0 r /Helvetica findfont 57.777 sf 0 0 m (1) show NC gr 
 gsave  2254 561 2 2 C 213.552 423.714 t 0 r /Helvetica findfont 57.777 sf 0 0 m (1.5) show NC gr 
 gsave  2254 561 2 2 C 261.008 505.067 t 0 r /Helvetica findfont 57.777 sf 0 0 m (2) show NC gr  2178 187 m 358 Y s 2135 203 m 43 X s 2157 220 m 21 X s 2157 236 m 21 X s 2157 252 m 21 X s 2157 268 m 21 X s 2135 285 m 43 X s 2157 301 m 21 X s 2157 317
 m 21 X s 2157 334 m 21 X s 2157 350 m 21 X s 2135 366 m 43 X s 2157 382 m 21 X s 2157 399 m 21 X s 2157 415 m 21 X s 2157 431 m 21 X s 2135 447 m 43 X s 2157 464 m 21 X s 2157 480 m 21 X s 2157 496 m 21 X s 2157 512 m 21 X s 2135 529 m 43 X s 2135
 203 m 43 X s 2157 187 m 21 X s 2135 529 m 43 X s 9 lw 643 383 m 1 Y s 643 384 m cl s 643 356 m -1 Y s 643 355 m cl s 736 380 m 9 Y s 736 389 m cl s 736 353 m -9 Y s 736 344 m cl s 829 363 m 19 Y s 829 382 m cl s 829 336 m -19 Y s 829 317 m cl s 923
 367 m 39 Y s 923 406 m cl s 923 340 m -35 Y s 923 305 m cl s 1016 473 m 72 Y s 1016 545 m cl s 1016 446 m -80 Y s 1016 366 m cl s 1109 461 m 84 Y s 1109 545 m cl s 1109 434 m -119 Y s 1109 315 m cl s 1202 494 m 51 Y s 1202 545 m cl s 1202 467 m -165
 Y s 1202 302 m cl s 1388 545 m -272 Y s 1388 273 m cl s 3 lw 364 369 457 360 550 369 643 370 736 366 829 349 923 354 1016 460 1109 448 1202 480 10 { m20} R 9 lw 1 0 0 c 6 lw black 3 lw 1 0 0 c 2178 227 m -26 -27 d s 2178 255 m -55 -55 d s 2178 284 m
 -84 -84 d s 2178 312 m -93 -92 d s 2178 341 m -102 -102 d s 2178 369 m -131 -130 d s 2178 398 m -159 -159 d s 1992 213 m s 1983 203 m cl s 2178 427 m -186 -186 d s 1954 203 m cl s 2178 455 m -186 -185 d s 1926 203 m cl s 2178 484 m -186 -186 d s
 1897 203 m cl s 2178 512 m -186 -185 d s 1868 203 m cl s 2169 532 m -177 -176 d s 1840 203 m cl s 2141 532 m -149 -148 d s 1811 203 m cl s 2112 532 m -27 -26 d s 2073 493 m -81 -80 d s 1806 227 m s 2044 493 m -52 -52 d s 1806 256 m -10 -10 d s 2016
 493 m -24 -23 d s 1806 285 m -39 -39 d s 1806 313 m -68 -67 d s 1806 342 m -93 -93 d s 1806 370 m -93 -92 d s 1806 399 m -107 -107 d s 1806 428 m -136 -136 d s 1806 456 m -165 -164 d s 1806 485 m -186 -186 d s 1779 486 m -176 -175 d s 1751 486 m -38
 -37 d s 1704 440 m -130 -129 d s 1722 486 m -9 -8 d s 1676 440 m -130 -129 d s 1647 440 m -144 -143 d s 1599 421 m -124 -124 d s 1571 421 m -125 -124 d s 1434 285 m s 1542 421 m -137 -136 d s 1527 435 m -150 -150 d s 1498 435 m -150 -150 d s 1469
 435 m -128 -128 d s 1441 435 m -105 -105 d s 1424 447 m -117 -117 d s 1395 447 m -116 -117 d s 1367 447 m -26 -26 d s 1321 402 m -71 -72 d s 1293 402 m -70 -70 d s 1264 402 m -70 -70 d s 1233 400 m -67 -68 d s 1204 400 m -67 -67 d s 1176 400 m -67
 -67 d s 1147 399 m -67 -66 d s 1118 399 m -56 -56 d s 1090 399 m -56 -55 d s 1049 388 m -43 -44 d s 1020 388 m -43 -44 d s 992 388 m -39 -39 d s 958 383 m -34 -34 d s 930 383 m -34 -34 d s 901 383 m -29 -29 d s 867 378 m -24 -24 d s 839 378 m -25
 -24 d s 810 378 m -24 -24 d s 778 375 m -17 -17 d s 749 375 m -17 -17 d s 720 375 m -17 -17 d s 692 375 m -2 -2 d s 689 372 m -12 -12 d s 661 372 m -13 -12 d s 632 372 m -13 -12 d s 603 372 m -11 -11 d s 573 371 m -9 -10 d s 544 371 m -9 -10 d s 515
 371 m -9 -10 d s 486 369 m -7 -6 d s 457 369 m -7 -6 d s 318 231 m s 428 369 m -7 -6 d s 318 259 m s 400 370 m -7 -8 d s 318 288 m s 371 370 m -7 -8 d s 318 317 m s 342 370 m -7 -8 d s 318 345 m s 6 lw black[ 4 8] 0 sd 3 lw 318 447 m 1860 X s 318
 285 m 1860 X s 1 0 0 c[  12 12 ] 0 sd 6 lw 318 366 m 1860 X s
 gr  gr showpage
end
%%EOF
