%!PS-Adobe-2.0 EPSF-2.0
%%BoundingBox:  0 0 567 521
%%Title: Distributions/met_distrSR_MB-SSd_afterFit_forThesis.eps: canvas
%%Creator: ROOT Version 6.04/16
%%CreationDate: Tue May 19 22:02:15 2020
%%DocumentNeededResources: ProcSet (FontSetInit)
%%EndComments
%%BeginProlog
80 dict begin
/s {stroke} def /l {lineto} def /m {moveto} def /t {translate} def
/r {rotate} def /rl {roll}  def /R {repeat} def
/d {rlineto} def /rm {rmoveto} def /gr {grestore} def /f {eofill} def
/c {setrgbcolor} def /black {0 setgray} def /sd {setdash} def
/cl {closepath} def /sf {scalefont setfont} def /lw {setlinewidth} def
/box {m dup 0 exch d exch 0 d 0 exch neg d cl} def
/NC{systemdict begin initclip end}def/C{NC box clip newpath}def
/bl {box s} def /bf {gsave box gsave f grestore 1 lw [] 0 sd s grestore} def /Y { 0 exch d} def /X { 0 d} def 
/K {{pop pop 0 moveto} exch kshow} bind def
/ita {/ang 15 def gsave [1 0 ang dup sin exch cos div 1 0 0] concat} def 
/mp {newpath /y exch def /x exch def} def
/side {[w .77 mul w .23 mul] .385 w mul sd w 0 l currentpoint t -144 r} def
/mr {mp x y w2 0 360 arc} def /m24 {mr s} def /m20 {mr f} def
/mb {mp x y w2 add m w2 neg 0 d 0 w neg d w 0 d 0 w d cl} def
/mt {mp x y w2 add m w2 neg w neg d w 0 d cl} def
/m21 {mb f} def /m25 {mb s} def /m22 {mt f} def /m26{mt s} def
/m23 {mp x y w2 sub m w2 w d w neg 0 d cl f} def
/m27 {mp x y w2 add m w3 neg w2 neg d w3 w2 neg d w3 w2 d cl s} def
/m28 {mp x w2 sub y w2 sub w3 add m w3 0 d  0 w3 neg d w3 0 d 0 w3 d w3 0 d  0 w3 d w3 neg 0 d 0 w3 d w3 neg 0 d 0 w3 neg d w3 neg 0 d cl s } def
/m29 {mp gsave x w2 sub y w2 add w3 sub m currentpoint t 4 {side} repeat cl fill gr} def
/m30 {mp gsave x w2 sub y w2 add w3 sub m currentpoint t 4 {side} repeat cl s gr} def
/m31 {mp x y w2 sub m 0 w d x w2 sub y m w 0 d x w2 sub y w2 add m w w neg d x w2 sub y w2 sub m w w d s} def
/m32 {mp x y w2 sub m w2 w d w neg 0 d cl s} def
/m33 {mp x y w2 add m w3 neg w2 neg d w3 w2 neg d w3 w2 d cl f} def
/m34 {mp x w2 sub y w2 sub w3 add m w3 0 d  0 w3 neg d w3 0 d 0 w3 d w3 0 d  0 w3 d w3 neg 0 d 0 w3 d w3 neg 0 d 0 w3 neg d w3 neg 0 d cl f } def
/m2 {mp x y w2 sub m 0 w d x w2 sub y m w 0 d s} def
/m5 {mp x w2 sub y w2 sub m w w d x w2 sub y w2 add m w w neg d s} def
%%IncludeResource: ProcSet (FontSetInit)
%%IncludeResource: font Times-Roman
%%IncludeResource: font Times-Italic
%%IncludeResource: font Times-Bold
%%IncludeResource: font Times-BoldItalic
%%IncludeResource: font Helvetica
%%IncludeResource: font Helvetica-Oblique
%%IncludeResource: font Helvetica-Bold
%%IncludeResource: font Helvetica-BoldOblique
%%IncludeResource: font Courier
%%IncludeResource: font Courier-Oblique
%%IncludeResource: font Courier-Bold
%%IncludeResource: font Courier-BoldOblique
%%IncludeResource: font Symbol
%%IncludeResource: font ZapfDingbats
/reEncode {exch findfont dup length dict begin {1 index /FID eq  {pop pop} {def} ifelse } forall /Encoding exch def currentdict end dup /FontName get exch definefont pop } def [/Times-Bold /Times-Italic /Times-BoldItalic /Helvetica /Helvetica-Oblique
 /Helvetica-Bold /Helvetica-BoldOblique /Courier /Courier-Oblique /Courier-Bold /Courier-BoldOblique /Times-Roman /AvantGarde-Book /AvantGarde-BookOblique /AvantGarde-Demi /AvantGarde-DemiOblique /Bookman-Demi /Bookman-DemiItalic /Bookman-Light
 /Bookman-LightItalic /Helvetica-Narrow /Helvetica-Narrow-Bold /Helvetica-Narrow-BoldOblique /Helvetica-Narrow-Oblique /NewCenturySchlbk-Roman /NewCenturySchlbk-Bold /NewCenturySchlbk-BoldItalic /NewCenturySchlbk-Italic /Palatino-Bold
 /Palatino-BoldItalic /Palatino-Italic /Palatino-Roman ] {ISOLatin1Encoding reEncode } forall
%%EndProlog
%%BeginSetup
%%EndSetup
newpath  gsave  .25 .25 scale  gsave  0 0 t black[  ] 0 sd 3 lw 1 1 1 c 2268 2085 0 0 bf black 1 1 1 c 2263 1770 2 313 bf black 1 1 1 c black 1860 1145 319 584 bl 1 1 1 c black 1860 1145 319 584 bl 6 lw 1 1 1 c black 3 lw /w 33 def /w2 {w 2 div} def
 /w3 {w 3 div} def 366 1263 m20 6 lw 3 lw 459 1242 m20 6 lw 3 lw 552 1205 m20 6 lw 3 lw 645 1164 m20 6 lw 3 lw 738 1123 m20 6 lw 3 lw 831 1081 m20 6 lw 3 lw 924 1041 m20 6 lw 3 lw 1017 1006 m20 6 lw 3 lw 1110 972 m20 6 lw 3 lw 1203 933 m20 6 lw 1296
 875 m 1 Y s 3 lw 1296 890 m20 6 lw 1389 804 m 14 Y s 1389 845 m 5 Y s 3 lw 1389 832 m20 6 lw 1482 732 m 37 Y s 1482 796 m 13 Y s 3 lw 1482 782 m20 6 lw 1575 778 m 20 Y s 1575 826 m 8 Y s 3 lw 1575 812 m20 6 lw 1668 732 m 37 Y s 1668 796 m 13 Y s 3
 lw 1668 782 m20 6 lw 1761 687 m 58 Y s 1761 772 m 18 Y s 3 lw 1761 759 m20 6 lw 2040 584 m 121 Y s 2040 732 m 27 Y s 3 lw 2040 718 m20 6 lw 2133 584 m 121 Y s 2133 732 m 27 Y s 3 lw 2133 718 m20 6 lw 3 lw 319 584 m 1860 X s
 gsave  2263 1770 2 313 C 1949.08 355.92 t 0 r /Helvetica findfont 81.3741 sf 0 0 m ( [GeV]) show NC gr 
 gsave  2263 1770 2 313 C 1837.22 396.596 t 0 r /Helvetica findfont 54.2494 sf 0 0 m (miss) show NC gr 
 gsave  2263 1770 2 313 C 1837.22 332.192 t 0 r /Helvetica findfont 54.2494 sf 0 0 m (T) show NC gr 
 gsave  2263 1770 2 313 C 1786.38 355.92 t 0 r /Helvetica findfont 81.3741 sf 0 0 m (E) show NC gr  412 584 m cl s 459 584 m cl s 505 584 m cl s 552 584 m cl s 598 584 m cl s 645 584 m cl s 691 584 m cl s 738 584 m cl s 784 584 m cl s 831 584 m cl s
 877 584 m cl s 924 584 m cl s 970 584 m cl s 1017 584 m cl s 1063 584 m cl s 1110 584 m cl s 1156 584 m cl s 1203 584 m cl s 1249 584 m cl s 1296 584 m cl s 1342 584 m cl s 1389 584 m cl s 1435 584 m cl s 1482 584 m cl s 1528 584 m cl s 1575 584 m
 cl s 1621 584 m cl s 1668 584 m cl s 1714 584 m cl s 1761 584 m cl s 1807 584 m cl s 1854 584 m cl s 1900 584 m cl s 1947 584 m cl s 1993 584 m cl s 2040 584 m cl s 2086 584 m cl s 412 584 m cl s 366 584 m cl s 319 584 m cl s 2086 584 m cl s 2133
 584 m cl s 2179 584 m cl s 319 1729 m 1860 X s 412 1729 m cl s 459 1729 m cl s 505 1729 m cl s 552 1729 m cl s 598 1729 m cl s 645 1729 m cl s 691 1729 m cl s 738 1729 m cl s 784 1729 m cl s 831 1729 m cl s 877 1729 m cl s 924 1729 m cl s 970 1729 m
 cl s 1017 1729 m cl s 1063 1729 m cl s 1110 1729 m cl s 1156 1729 m cl s 1203 1729 m cl s 1249 1729 m cl s 1296 1729 m cl s 1342 1729 m cl s 1389 1729 m cl s 1435 1729 m cl s 1482 1729 m cl s 1528 1729 m cl s 1575 1729 m cl s 1621 1729 m cl s 1668
 1729 m cl s 1714 1729 m cl s 1761 1729 m cl s 1807 1729 m cl s 1854 1729 m cl s 1900 1729 m cl s 1947 1729 m cl s 1993 1729 m cl s 2040 1729 m cl s 2086 1729 m cl s 412 1729 m cl s 366 1729 m cl s 319 1729 m cl s 2086 1729 m cl s 2133 1729 m cl s
 2179 1729 m cl s 319 584 m 1145 Y s
 gsave  2263 1770 2 313 C 166.096 1091.49 t 90 r /Helvetica findfont 81.3741 sf 0 0 m (Events / 100 GeV) show NC gr  341 625 m -22 X s 341 648 m -22 X s 341 665 m -22 X s 341 678 m -22 X s 341 689 m -22 X s 341 698 m -22 X s 341 705 m -22 X s 341 712
 m -22 X s 363 718 m -44 X s
 gsave  2263 1770 2 313 C 300.555 691.237 t 0 r  -36 0 t /Helvetica findfont 64.4212 sf 0 0 m (1) show NC gr  341 759 m -22 X s 341 782 m -22 X s 341 799 m -22 X s 341 812 m -22 X s 341 823 m -22 X s 341 832 m -22 X s 341 839 m -22 X s 341 846 m -22
 X s 363 852 m -44 X s
 gsave  2263 1770 2 313 C 300.555 825.282 t 0 r  -73 0 t /Helvetica findfont 64.4212 sf 0 0 m (10) show NC gr  341 893 m -22 X s 341 916 m -22 X s 341 933 m -22 X s 341 946 m -22 X s 341 957 m -22 X s 341 966 m -22 X s 341 973 m -22 X s 341 980 m -22
 X s 363 986 m -44 X s
 gsave  2263 1770 2 313 C 274.567 986.406 t 0 r /Helvetica findfont 44.0776 sf 0 0 m (2) show NC gr 
 gsave  2263 1770 2 313 C 203.383 959.288 t 0 r /Helvetica findfont 64.4212 sf 0 0 m (10) show NC gr  341 1027 m -22 X s 341 1050 m -22 X s 341 1067 m -22 X s 341 1080 m -22 X s 341 1091 m -22 X s 341 1100 m -22 X s 341 1107 m -22 X s 341 1114 m -22
 X s 363 1120 m -44 X s
 gsave  2263 1770 2 313 C 274.567 1121.99 t 0 r /Helvetica findfont 44.0776 sf 0 0 m (3) show NC gr 
 gsave  2263 1770 2 313 C 203.383 1091.49 t 0 r /Helvetica findfont 64.4212 sf 0 0 m (10) show NC gr  341 1161 m -22 X s 341 1184 m -22 X s 341 1201 m -22 X s 341 1214 m -22 X s 341 1225 m -22 X s 341 1234 m -22 X s 341 1242 m -22 X s 341 1248 m -22
 X s 363 1255 m -44 X s
 gsave  2263 1770 2 313 C 274.567 1254.19 t 0 r /Helvetica findfont 44.0776 sf 0 0 m (4) show NC gr 
 gsave  2263 1770 2 313 C 203.383 1227.08 t 0 r /Helvetica findfont 64.4212 sf 0 0 m (10) show NC gr  341 1295 m -22 X s 341 1318 m -22 X s 341 1335 m -22 X s 341 1348 m -22 X s 341 1359 m -22 X s 341 1368 m -22 X s 341 1376 m -22 X s 341 1382 m -22
 X s 363 1389 m -44 X s
 gsave  2263 1770 2 313 C 274.567 1389.78 t 0 r /Helvetica findfont 44.0776 sf 0 0 m (5) show NC gr 
 gsave  2263 1770 2 313 C 203.383 1359.27 t 0 r /Helvetica findfont 64.4212 sf 0 0 m (10) show NC gr  341 1429 m -22 X s 341 1453 m -22 X s 341 1469 m -22 X s 341 1482 m -22 X s 341 1493 m -22 X s 341 1502 m -22 X s 341 1510 m -22 X s 341 1516 m -22
 X s 363 1523 m -44 X s
 gsave  2263 1770 2 313 C 274.567 1525.37 t 0 r /Helvetica findfont 44.0776 sf 0 0 m (6) show NC gr 
 gsave  2263 1770 2 313 C 203.383 1494.86 t 0 r /Helvetica findfont 64.4212 sf 0 0 m (10) show NC gr  341 1563 m -22 X s 341 1587 m -22 X s 341 1603 m -22 X s 341 1616 m -22 X s 341 1627 m -22 X s 341 1636 m -22 X s 341 1644 m -22 X s 341 1651 m -22
 X s 363 1657 m -44 X s
 gsave  2263 1770 2 313 C 274.567 1654.18 t 0 r /Helvetica findfont 44.0776 sf 0 0 m (7) show NC gr 
 gsave  2263 1770 2 313 C 203.383 1627.06 t 0 r /Helvetica findfont 64.4212 sf 0 0 m (10) show NC gr  341 1697 m -22 X s 341 1721 m -22 X s 2179 584 m 1145 Y s 2157 625 m 22 X s 2157 648 m 22 X s 2157 665 m 22 X s 2157 678 m 22 X s 2157 689 m 22 X s
 2157 698 m 22 X s 2157 705 m 22 X s 2157 712 m 22 X s 2136 718 m 43 X s 2157 759 m 22 X s 2157 782 m 22 X s 2157 799 m 22 X s 2157 812 m 22 X s 2157 823 m 22 X s 2157 832 m 22 X s 2157 839 m 22 X s 2157 846 m 22 X s 2136 852 m 43 X s 2157 893 m 22 X
 s 2157 916 m 22 X s 2157 933 m 22 X s 2157 946 m 22 X s 2157 957 m 22 X s 2157 966 m 22 X s 2157 973 m 22 X s 2157 980 m 22 X s 2136 986 m 43 X s 2157 1027 m 22 X s 2157 1050 m 22 X s 2157 1067 m 22 X s 2157 1080 m 22 X s 2157 1091 m 22 X s 2157
 1100 m 22 X s 2157 1107 m 22 X s 2157 1114 m 22 X s 2136 1120 m 43 X s 2157 1161 m 22 X s 2157 1184 m 22 X s 2157 1201 m 22 X s 2157 1214 m 22 X s 2157 1225 m 22 X s 2157 1234 m 22 X s 2157 1242 m 22 X s 2157 1248 m 22 X s 2136 1255 m 43 X s 2157
 1295 m 22 X s 2157 1318 m 22 X s 2157 1335 m 22 X s 2157 1348 m 22 X s 2157 1359 m 22 X s 2157 1368 m 22 X s 2157 1376 m 22 X s 2157 1382 m 22 X s 2136 1389 m 43 X s 2157 1429 m 22 X s 2157 1453 m 22 X s 2157 1469 m 22 X s 2157 1482 m 22 X s 2157
 1493 m 22 X s 2157 1502 m 22 X s 2157 1510 m 22 X s 2157 1516 m 22 X s 2136 1523 m 43 X s 2157 1563 m 22 X s 2157 1587 m 22 X s 2157 1603 m 22 X s 2157 1616 m 22 X s 2157 1627 m 22 X s 2157 1636 m 22 X s 2157 1644 m 22 X s 2157 1651 m 22 X s 2136
 1657 m 43 X s 2157 1697 m 22 X s 2157 1721 m 22 X s 0.4 0.6 1 c black 0.4 0.6 1 c 319 584 m 677 Y 93 X -21 Y 93 X -35 Y 93 X -42 Y 93 X -41 Y 93 X -43 Y 93 X -38 Y 93 X -38 Y 93 X -34 Y 93 X -37 Y 93 X -34 Y 93 X -29 Y 93 X -25 Y 93 X -32 Y 93 X -45
 Y 93 X -40 Y 93 X -5 Y 93 X -32 Y 93 X -61 Y 93 X 62 Y 93 X -107 Y f black 0.4 0.6 1 c black 319 1261 m 93 X -21 Y 93 X -35 Y 93 X -42 Y 93 X -41 Y 93 X -43 Y 93 X -38 Y 93 X -38 Y 93 X -34 Y 93 X -37 Y 93 X -34 Y 93 X -29 Y 93 X -25 Y 93 X -32 Y 93
 X -45 Y 93 X -40 Y 93 X -5 Y 93 X -32 Y 93 X -61 Y 93 X 62 Y 93 X s 0.999 0.999 0.999 c black 0.999 0.999 0.999 c 319 584 m 656 Y 93 X -18 Y 93 X -34 Y 93 X -40 Y 93 X -40 Y 93 X -43 Y 93 X -36 Y 93 X -38 Y 93 X -35 Y 93 X -35 Y 93 X -32 Y 93 X -30
 Y 93 X -24 Y 93 X -31 Y 93 X -48 Y 93 X -40 Y 93 X -8 Y 93 X -68 Y 93 X -31 Y 93 X 73 Y 93 X -98 Y f black 0.999 0.999 0.999 c black 319 1240 m 93 X -18 Y 93 X -34 Y 93 X -40 Y 93 X -40 Y 93 X -43 Y 93 X -36 Y 93 X -38 Y 93 X -35 Y 93 X -35 Y 93 X
 -32 Y 93 X -30 Y 93 X -24 Y 93 X -31 Y 93 X -48 Y 93 X -40 Y 93 X -8 Y 93 X -68 Y 93 X -31 Y 93 X 73 Y 93 X s 1 1 1 c black 319 1240 m 93 X -18 Y 93 X -34 Y 93 X -40 Y 93 X -40 Y 93 X -43 Y 93 X -36 Y 93 X -38 Y 93 X -35 Y 93 X -35 Y 93 X -32 Y 93 X
 -30 Y 93 X -24 Y 93 X -31 Y 93 X -48 Y 93 X -40 Y 93 X -8 Y 93 X -68 Y 93 X -31 Y 93 X 73 Y 93 X s 0.6 1 0.6 c black 0.6 1 0.6 c 319 584 m 656 Y 93 X -18 Y 93 X -34 Y 93 X -40 Y 93 X -40 Y 93 X -43 Y 93 X -36 Y 93 X -38 Y 93 X -35 Y 93 X -35 Y 93 X
 -32 Y 93 X -30 Y 93 X -24 Y 93 X -31 Y 93 X -48 Y 93 X -40 Y 93 X -8 Y 93 X -68 Y 93 X -31 Y 93 X 73 Y 93 X -98 Y f black 0.6 1 0.6 c black 319 1240 m 93 X -18 Y 93 X -34 Y 93 X -40 Y 93 X -40 Y 93 X -43 Y 93 X -36 Y 93 X -38 Y 93 X -35 Y 93 X -35 Y
 93 X -32 Y 93 X -30 Y 93 X -24 Y 93 X -31 Y 93 X -48 Y 93 X -40 Y 93 X -8 Y 93 X -68 Y 93 X -31 Y 93 X 73 Y 93 X s 0.999 0.999 0.999 c black 0.999 0.999 0.999 c 319 584 m 646 Y 93 X -16 Y 93 X -31 Y 93 X -38 Y 93 X -39 Y 93 X -42 Y 93 X -37 Y 93 X
 -37 Y 93 X -35 Y 93 X -34 Y 93 X -34 Y 93 X -29 Y 93 X -23 Y 93 X -32 Y 93 X -47 Y 93 X -40 Y 93 X -8 Y 93 X -68 Y 93 X -31 Y 93 X 73 Y 93 X -98 Y f black 0.999 0.999 0.999 c black 319 1230 m 93 X -16 Y 93 X -31 Y 93 X -38 Y 93 X -39 Y 93 X -42 Y 93
 X -37 Y 93 X -37 Y 93 X -35 Y 93 X -34 Y 93 X -34 Y 93 X -29 Y 93 X -23 Y 93 X -32 Y 93 X -47 Y 93 X -40 Y 93 X -8 Y 93 X -68 Y 93 X -31 Y 93 X 73 Y 93 X s 1 1 1 c black 319 1230 m 93 X -16 Y 93 X -31 Y 93 X -38 Y 93 X -39 Y 93 X -42 Y 93 X -37 Y 93
 X -37 Y 93 X -35 Y 93 X -34 Y 93 X -34 Y 93 X -29 Y 93 X -23 Y 93 X -32 Y 93 X -47 Y 93 X -40 Y 93 X -8 Y 93 X -68 Y 93 X -31 Y 93 X 73 Y 93 X s 1 0.8 0.4 c black 1 0.8 0.4 c 319 584 m 646 Y 93 X -16 Y 93 X -31 Y 93 X -38 Y 93 X -39 Y 93 X -42 Y 93
 X -37 Y 93 X -37 Y 93 X -35 Y 93 X -34 Y 93 X -34 Y 93 X -29 Y 93 X -23 Y 93 X -32 Y 93 X -47 Y 93 X -40 Y 93 X -8 Y 93 X -68 Y 93 X -31 Y 93 X 73 Y 93 X -98 Y f black 1 0.8 0.4 c black 319 1230 m 93 X -16 Y 93 X -31 Y 93 X -38 Y 93 X -39 Y 93 X -42
 Y 93 X -37 Y 93 X -37 Y 93 X -35 Y 93 X -34 Y 93 X -34 Y 93 X -29 Y 93 X -23 Y 93 X -32 Y 93 X -47 Y 93 X -40 Y 93 X -8 Y 93 X -68 Y 93 X -31 Y 93 X 73 Y 93 X s 0.999 0.999 0.999 c black 0.999 0.999 0.999 c 319 584 m 498 Y 93 X -13 Y 93 X -32 Y 93 X
 -37 Y 93 X -39 Y 93 X -42 Y 93 X -32 Y 93 X -47 Y 93 X -21 Y 93 X -26 Y 93 X -26 Y 93 X -57 Y 186 X -126 Y 93 X 44 Y 93 X -44 Y 372 X 15 Y 93 X -15 Y f black 0.999 0.999 0.999 c black 319 1082 m 93 X -13 Y 93 X -32 Y 93 X -37 Y 93 X -39 Y 93 X -42 Y
 93 X -32 Y 93 X -47 Y 93 X -21 Y 93 X -26 Y 93 X -26 Y 93 X -57 Y 186 X -126 Y 93 X 44 Y 93 X -44 Y 372 X 15 Y 93 X s 1 1 1 c black 319 1082 m 93 X -13 Y 93 X -32 Y 93 X -37 Y 93 X -39 Y 93 X -42 Y 93 X -32 Y 93 X -47 Y 93 X -21 Y 93 X -26 Y 93 X
 -26 Y 93 X -57 Y 186 X -126 Y 93 X 44 Y 93 X -44 Y 372 X 15 Y 93 X s 1 0.4 0.6 c black 1 0.4 0.6 c 319 584 m 498 Y 93 X -13 Y 93 X -32 Y 93 X -37 Y 93 X -39 Y 93 X -42 Y 93 X -32 Y 93 X -47 Y 93 X -21 Y 93 X -26 Y 93 X -26 Y 93 X -57 Y 186 X -126 Y
 93 X 44 Y 93 X -44 Y 372 X 15 Y 93 X -15 Y f black 1 0.4 0.6 c black 319 1082 m 93 X -13 Y 93 X -32 Y 93 X -37 Y 93 X -39 Y 93 X -42 Y 93 X -32 Y 93 X -47 Y 93 X -21 Y 93 X -26 Y 93 X -26 Y 93 X -57 Y 186 X -126 Y 93 X 44 Y 93 X -44 Y 372 X 15 Y 93
 X s 0.999 0.999 0.999 c black 0.999 0.999 0.999 c 319 584 m 345 Y 93 X -76 Y 93 X -104 Y 93 X -68 Y 93 X -65 Y 93 X -32 Y 1395 X f black 0.999 0.999 0.999 c black 319 929 m 93 X -76 Y 93 X -104 Y 93 X -68 Y 93 X -65 Y 93 X -32 Y 1395 X s 1 1 1 c
 black 319 929 m 93 X -76 Y 93 X -104 Y 93 X -68 Y 93 X -65 Y 93 X -32 Y 1395 X s 0 0 0.4 c black 0 0 0.4 c 319 584 m 345 Y 93 X -76 Y 93 X -104 Y 93 X -68 Y 93 X -65 Y 93 X -32 Y 1395 X f black 0 0 0.4 c black 319 929 m 93 X -76 Y 93 X -104 Y 93 X
 -68 Y 93 X -65 Y 93 X -32 Y 1395 X s 1 0 0 c 6 lw 1 1 1 c black 1 0 0 c 319 1261 m 93 X -21 Y 93 X -35 Y 93 X -42 Y 93 X -41 Y 93 X -43 Y 93 X -38 Y 93 X -38 Y 93 X -34 Y 93 X -37 Y 93 X -34 Y 93 X -29 Y 93 X -25 Y 93 X -32 Y 93 X -45 Y 93 X -40 Y
 93 X -5 Y 93 X -32 Y 93 X -61 Y 93 X 62 Y 93 X s black 3 lw 1 0 0 c 1 lw << /PatternType 1 /PaintType 2 /TilingType 1 /BBox [ 0 0 100 100 ] /XStep 100 /YStep 100 /PaintProc { begin gsave 0 100 m 100 0 l s gr end } >> [ 0.24 0 0 0.24 0 0 ]
 makepattern /P05 exch def /cs {[/Pattern /DeviceRGB] setcolorspace} def /FA {f [/DeviceRGB] setcolorspace} def cs 1 0 0 P05 setcolor 319 584 m 679 Y 93 X -21 Y 93 X -35 Y 93 X -42 Y 93 X -41 Y 93 X -43 Y 93 X -37 Y 93 X -38 Y 93 X -34 Y 93 X -36 Y
 93 X -34 Y 93 X -28 Y 93 X -24 Y 93 X -28 Y 93 X -46 Y 93 X -41 Y 93 X 1 Y 93 X -22 Y 93 X -71 Y 93 X 64 Y 93 X -123 Y 84 Y -93 X -57 Y -93 X 36 Y -93 X 57 Y -93 X 13 Y -93 X 40 Y -93 X 42 Y -93 X 38 Y -93 X 26 Y -93 X 30 Y -93 X 35 Y -93 X 38 Y -93
 X 35 Y -93 X 38 Y -93 X 37 Y -93 X 44 Y -93 X 41 Y -93 X 42 Y -93 X 35 Y -93 X 21 Y -93 X -675 Y FA 6 lw 1 1 1 c 15 lw 1389 811 m -6 Y s 1389 805 m cl s 1482 803 m 8 Y s 1482 811 m cl s 1482 762 m -25 Y s 1482 737 m cl s 1575 832 m 3 Y s 1575 835 m
 cl s 1575 792 m -13 Y s 1575 779 m cl s 1668 803 m 8 Y s 1668 811 m cl s 1668 762 m -25 Y s 1668 737 m cl s 1761 779 m 14 Y s 1761 793 m cl s 1761 738 m -39 Y s 1761 699 m cl s 2040 739 m 28 Y s 2040 767 m cl s 2040 698 m -81 Y s 2040 617 m cl s
 2133 739 m 28 Y s 2133 767 m cl s 2133 698 m -81 Y s 2133 617 m cl s black 1 1 1 c 3 lw /w 43 def /w2 {w 2 div} def /w3 {w 3 div} def 366 1263 459 1242 552 1205 645 1164 738 1123 831 1081 924 1041 1017 1006 1110 972 1203 933 1296 890 1389 832 1482
 782 1575 812 1668 782 1761 759 16 { m20} R 15 lw 3 lw 2040 718 2133 718 2 { m20} R 15 lw black 6 lw 1 1 1 c black 3 lw /w 33 def /w2 {w 2 div} def /w3 {w 3 div} def 366 1263 m20 6 lw 3 lw 459 1242 m20 6 lw 3 lw 552 1205 m20 6 lw 3 lw 645 1164 m20 6
 lw 3 lw 738 1123 m20 6 lw 3 lw 831 1081 m20 6 lw 3 lw 924 1041 m20 6 lw 3 lw 1017 1006 m20 6 lw 3 lw 1110 972 m20 6 lw 3 lw 1203 933 m20 6 lw 1296 875 m 1 Y s 3 lw 1296 890 m20 6 lw 1389 804 m 14 Y s 1389 845 m 5 Y s 3 lw 1389 832 m20 6 lw 1482 732
 m 37 Y s 1482 796 m 13 Y s 3 lw 1482 782 m20 6 lw 1575 778 m 20 Y s 1575 826 m 8 Y s 3 lw 1575 812 m20 6 lw 1668 732 m 37 Y s 1668 796 m 13 Y s 3 lw 1668 782 m20 6 lw 1761 687 m 58 Y s 1761 772 m 18 Y s 3 lw 1761 759 m20 6 lw 2040 584 m 121 Y s 2040
 732 m 27 Y s 3 lw 2040 718 m20 6 lw 2133 584 m 121 Y s 2133 732 m 27 Y s 3 lw 2133 718 m20 6 lw 1296 876 m -1 Y s 1296 875 m cl s 1389 845 m 6 Y s 1389 851 m cl s 1389 818 m -13 Y s 1389 805 m cl s 1482 796 m 15 Y s 1482 811 m cl s 1482 769 m -32 Y
 s 1482 737 m cl s 1575 826 m 9 Y s 1575 835 m cl s 1575 798 m -19 Y s 1575 779 m cl s 1668 796 m 15 Y s 1668 811 m cl s 1668 769 m -32 Y s 1668 737 m cl s 1761 772 m 21 Y s 1761 793 m cl s 1761 745 m -46 Y s 1761 699 m cl s 2040 732 m 35 Y s 2040
 767 m cl s 2040 705 m -88 Y s 2040 617 m cl s 2133 732 m 35 Y s 2133 767 m cl s 2133 705 m -88 Y s 2133 617 m cl s 3 lw 366 1263 459 1242 552 1205 645 1164 738 1123 831 1081 924 1041 1017 1006 1110 972 1203 933 1296 890 1389 832 1482 782 1575 812
 1668 782 1761 759 16 { m20} R 6 lw 3 lw 2040 718 2133 718 2 { m20} R 6 lw 3 lw 319 584 m 1860 X s 412 584 m cl s 459 584 m cl s 505 584 m cl s 552 584 m cl s 598 584 m cl s 645 584 m cl s 691 584 m cl s 738 584 m cl s 784 584 m cl s 831 584 m cl s
 877 584 m cl s 924 584 m cl s 970 584 m cl s 1017 584 m cl s 1063 584 m cl s 1110 584 m cl s 1156 584 m cl s 1203 584 m cl s 1249 584 m cl s 1296 584 m cl s 1342 584 m cl s 1389 584 m cl s 1435 584 m cl s 1482 584 m cl s 1528 584 m cl s 1575 584 m
 cl s 1621 584 m cl s 1668 584 m cl s 1714 584 m cl s 1761 584 m cl s 1807 584 m cl s 1854 584 m cl s 1900 584 m cl s 1947 584 m cl s 1993 584 m cl s 2040 584 m cl s 2086 584 m cl s 412 584 m cl s 366 584 m cl s 319 584 m cl s 2086 584 m cl s 2133
 584 m cl s 2179 584 m cl s 319 1729 m 1860 X s 412 1729 m cl s 459 1729 m cl s 505 1729 m cl s 552 1729 m cl s 598 1729 m cl s 645 1729 m cl s 691 1729 m cl s 738 1729 m cl s 784 1729 m cl s 831 1729 m cl s 877 1729 m cl s 924 1729 m cl s 970 1729 m
 cl s 1017 1729 m cl s 1063 1729 m cl s 1110 1729 m cl s 1156 1729 m cl s 1203 1729 m cl s 1249 1729 m cl s 1296 1729 m cl s 1342 1729 m cl s 1389 1729 m cl s 1435 1729 m cl s 1482 1729 m cl s 1528 1729 m cl s 1575 1729 m cl s 1621 1729 m cl s 1668
 1729 m cl s 1714 1729 m cl s 1761 1729 m cl s 1807 1729 m cl s 1854 1729 m cl s 1900 1729 m cl s 1947 1729 m cl s 1993 1729 m cl s 2040 1729 m cl s 2086 1729 m cl s 412 1729 m cl s 366 1729 m cl s 319 1729 m cl s 2086 1729 m cl s 2133 1729 m cl s
 2179 1729 m cl s 319 584 m 1145 Y s 341 625 m -22 X s 341 648 m -22 X s 341 665 m -22 X s 341 678 m -22 X s 341 689 m -22 X s 341 698 m -22 X s 341 705 m -22 X s 341 712 m -22 X s 363 718 m -44 X s 341 759 m -22 X s 341 782 m -22 X s 341 799 m -22 X
 s 341 812 m -22 X s 341 823 m -22 X s 341 832 m -22 X s 341 839 m -22 X s 341 846 m -22 X s 363 852 m -44 X s 341 893 m -22 X s 341 916 m -22 X s 341 933 m -22 X s 341 946 m -22 X s 341 957 m -22 X s 341 966 m -22 X s 341 973 m -22 X s 341 980 m -22
 X s 363 986 m -44 X s 341 1027 m -22 X s 341 1050 m -22 X s 341 1067 m -22 X s 341 1080 m -22 X s 341 1091 m -22 X s 341 1100 m -22 X s 341 1107 m -22 X s 341 1114 m -22 X s 363 1120 m -44 X s 341 1161 m -22 X s 341 1184 m -22 X s 341 1201 m -22 X s
 341 1214 m -22 X s 341 1225 m -22 X s 341 1234 m -22 X s 341 1242 m -22 X s 341 1248 m -22 X s 363 1255 m -44 X s 341 1295 m -22 X s 341 1318 m -22 X s 341 1335 m -22 X s 341 1348 m -22 X s 341 1359 m -22 X s 341 1368 m -22 X s 341 1376 m -22 X s
 341 1382 m -22 X s 363 1389 m -44 X s 341 1429 m -22 X s 341 1453 m -22 X s 341 1469 m -22 X s 341 1482 m -22 X s 341 1493 m -22 X s 341 1502 m -22 X s 341 1510 m -22 X s 341 1516 m -22 X s 363 1523 m -44 X s 341 1563 m -22 X s 341 1587 m -22 X s
 341 1603 m -22 X s 341 1616 m -22 X s 341 1627 m -22 X s 341 1636 m -22 X s 341 1644 m -22 X s 341 1651 m -22 X s 363 1657 m -44 X s 341 1697 m -22 X s 341 1721 m -22 X s 2179 584 m 1145 Y s 2157 625 m 22 X s 2157 648 m 22 X s 2157 665 m 22 X s 2157
 678 m 22 X s 2157 689 m 22 X s 2157 698 m 22 X s 2157 705 m 22 X s 2157 712 m 22 X s 2136 718 m 43 X s 2157 759 m 22 X s 2157 782 m 22 X s 2157 799 m 22 X s 2157 812 m 22 X s 2157 823 m 22 X s 2157 832 m 22 X s 2157 839 m 22 X s 2157 846 m 22 X s
 2136 852 m 43 X s 2157 893 m 22 X s 2157 916 m 22 X s 2157 933 m 22 X s 2157 946 m 22 X s 2157 957 m 22 X s 2157 966 m 22 X s 2157 973 m 22 X s 2157 980 m 22 X s 2136 986 m 43 X s 2157 1027 m 22 X s 2157 1050 m 22 X s 2157 1067 m 22 X s 2157 1080 m
 22 X s 2157 1091 m 22 X s 2157 1100 m 22 X s 2157 1107 m 22 X s 2157 1114 m 22 X s 2136 1120 m 43 X s 2157 1161 m 22 X s 2157 1184 m 22 X s 2157 1201 m 22 X s 2157 1214 m 22 X s 2157 1225 m 22 X s 2157 1234 m 22 X s 2157 1242 m 22 X s 2157 1248 m 22
 X s 2136 1255 m 43 X s 2157 1295 m 22 X s 2157 1318 m 22 X s 2157 1335 m 22 X s 2157 1348 m 22 X s 2157 1359 m 22 X s 2157 1368 m 22 X s 2157 1376 m 22 X s 2157 1382 m 22 X s 2136 1389 m 43 X s 2157 1429 m 22 X s 2157 1453 m 22 X s 2157 1469 m 22 X
 s 2157 1482 m 22 X s 2157 1493 m 22 X s 2157 1502 m 22 X s 2157 1510 m 22 X s 2157 1516 m 22 X s 2136 1523 m 43 X s 2157 1563 m 22 X s 2157 1587 m 22 X s 2157 1603 m 22 X s 2157 1616 m 22 X s 2157 1627 m 22 X s 2157 1636 m 22 X s 2157 1644 m 22 X s
 2157 1651 m 22 X s 2136 1657 m 43 X s 2157 1697 m 22 X s 2157 1721 m 22 X s
 gsave  2263 1770 2 313 C 406.765 1447.41 t 0 r /Helvetica findfont 64.4212 sf 0 0 m (SR for MB\255SSd) show NC gr 
 gsave  2263 1770 2 313 C 1464.36 1630.45 t 0 r /Helvetica findfont 64.4212 sf 0 0 m (SM Total) show NC gr  1 1 1 c 1338 1616 m 107 X 64 Y -107 X f 1 0 0 c 6 lw 1338 1648 m 107 X s black
 gsave  2263 1770 2 313 C 1464.36 1538.93 t 0 r /Helvetica findfont 64.4212 sf 0 0 m (Data) show NC gr  1391 1529 m 55 Y s 3 lw 1391 1557 m20 6 lw
 gsave  2263 1770 2 313 C 1464.36 1447.41 t 0 r /Helvetica findfont 64.4212 sf 0 0 m (W+jets) show NC gr  0.4 0.6 1 c 3 lw 1338 1434 m 107 X 64 Y -107 X f 6 lw black 3 lw 1338 1498 m 107 X s 1338 1434 m 107 X s 1445 1434 m 64 Y s 1338 1434 m 64 Y s
 gsave  2263 1770 2 313 C 1498.25 1355.88 t 0 r /Helvetica findfont 64.4212 sf 0 0 m (\(+EW\) & single top) show NC gr 
 gsave  2263 1770 2 313 C 1481.3 1355.88 t 0 r /Helvetica findfont 64.4212 sf 0 0 m (t) show NC gr  1481 1407 m 17 X s
 gsave  2263 1770 2 313 C 1464.36 1355.88 t 0 r /Helvetica findfont 64.4212 sf 0 0 m (t) show NC gr  0.6 1 0.6 c 1338 1343 m 107 X 63 Y -107 X f black 1338 1406 m 107 X s 1338 1343 m 107 X s 1445 1343 m 63 Y s 1338 1343 m 63 Y s
 gsave  2263 1770 2 313 C 1464.36 1264.36 t 0 r /Helvetica findfont 64.4212 sf 0 0 m (Z+jets) show NC gr  1 0.8 0.4 c 1338 1252 m 107 X 63 Y -107 X f black 1338 1315 m 107 X s 1338 1252 m 107 X s 1445 1252 m 63 Y s 1338 1252 m 63 Y s
 gsave  2263 1770 2 313 C 1464.36 1172.84 t 0 r /Helvetica findfont 64.4212 sf 0 0 m (Diboson) show NC gr  1 0.4 0.6 c 1338 1161 m 107 X 63 Y -107 X f black 1338 1224 m 107 X s 1338 1161 m 107 X s 1445 1161 m 63 Y s 1338 1161 m 63 Y s
 gsave  2263 1770 2 313 C 1464.36 1081.32 t 0 r /Helvetica findfont 64.4212 sf 0 0 m (Multi\255jet) show NC gr  0 0 0.4 c 1338 1070 m 107 X 63 Y -107 X f black 1338 1133 m 107 X s 1338 1070 m 107 X s 1445 1070 m 63 Y s 1338 1070 m 63 Y s
 gsave  2263 1770 2 313 C 911.832 1566.05 t 0 r /Helvetica findfont 44.0776 sf 0 0 m (\2551) show NC gr 
 gsave  2263 1770 2 313 C 471.17 1535.54 t 0 r /Helvetica findfont 64.4212 sf 0 0 m (=13TeV, 139 fb) show NC gr 
 gsave  2263 1770 2 313 C 440.662 1535.54 t 0 r /Helvetica findfont 64.4212 sf 0 0 m (s) show NC gr  6 lw 420 1573 m 7 -41 d s 3 lw 427 1532 m 7 61 d s 434 1593 m 37 X s 1 1 1 c 2254 561 2 2 bf black 1 1 1 c black 1860 358 318 187 bl 1 1 1 c black
 1860 358 318 187 bl 6 lw 1 1 1 c black 3 lw 364 369 m20 6 lw 3 lw 457 372 m20 6 lw 3 lw 550 367 m20 6 lw 3 lw 643 368 m20 6 lw 3 lw 736 369 m20 6 lw 3 lw 829 372 m20 6 lw 3 lw 923 366 m20 6 lw 3 lw 1016 373 m20 6 lw 3 lw 1109 375 m20 6 lw 3 lw 1202
 370 m20 6 lw 3 lw 1295 345 m20 6 lw 3 lw 1388 289 m20 6 lw 3 lw 1481 260 m20 6 lw 3 lw 1574 367 m20 6 lw 3 lw 1667 414 m20 6 lw 3 lw 1760 485 m20 6 lw 3 lw 2132 465 m20 6 lw 3 lw 318 187 m 1860 X s
 gsave  2254 561 2 2 C 1959.25 27.1177 t 0 r /Helvetica findfont 78.1689 sf 0 0 m ( [GeV]) show NC gr 
 gsave  2254 561 2 2 C 1854.17 64.4045 t 0 r /Helvetica findfont 50.9797 sf 0 0 m (miss) show NC gr 
 gsave  2254 561 2 2 C 1854.17 3.38971 t 0 r /Helvetica findfont 50.9797 sf 0 0 m (T) show NC gr 
 gsave  2254 561 2 2 C 1803.33 27.1177 t 0 r /Helvetica findfont 78.1689 sf 0 0 m (E) show NC gr  411 201 m -14 Y s 457 194 m -7 Y s 504 194 m -7 Y s 550 194 m -7 Y s 597 201 m -14 Y s 643 194 m -7 Y s 690 194 m -7 Y s 736 194 m -7 Y s 783 201 m -14
 Y s 829 194 m -7 Y s 876 194 m -7 Y s 923 194 m -7 Y s 969 201 m -14 Y s 1016 194 m -7 Y s 1062 194 m -7 Y s 1109 194 m -7 Y s 1155 201 m -14 Y s 1202 194 m -7 Y s 1248 194 m -7 Y s 1295 194 m -7 Y s 1341 201 m -14 Y s 1388 194 m -7 Y s 1434 194 m
 -7 Y s 1481 194 m -7 Y s 1527 201 m -14 Y s 1574 194 m -7 Y s 1620 194 m -7 Y s 1667 194 m -7 Y s 1713 201 m -14 Y s 1760 194 m -7 Y s 1806 194 m -7 Y s 1853 194 m -7 Y s 1899 201 m -14 Y s 1946 194 m -7 Y s 1992 194 m -7 Y s 2039 194 m -7 Y s 2085
 201 m -14 Y s 411 201 m -14 Y s 364 194 m -7 Y s 318 194 m -7 Y s 2085 201 m -14 Y s 2132 194 m -7 Y s
 gsave  2254 561 2 2 C 345.75 118.64 t 0 r /Helvetica findfont 78.1689 sf 0 0 m (400) show NC gr 
 gsave  2254 561 2 2 C 532.185 118.64 t 0 r /Helvetica findfont 78.1689 sf 0 0 m (600) show NC gr 
 gsave  2254 561 2 2 C 715.229 118.64 t 0 r /Helvetica findfont 78.1689 sf 0 0 m (800) show NC gr 
 gsave  2254 561 2 2 C 877.935 118.64 t 0 r /Helvetica findfont 78.1689 sf 0 0 m (1000) show NC gr 
 gsave  2254 561 2 2 C 1064.37 118.64 t 0 r /Helvetica findfont 78.1689 sf 0 0 m (1200) show NC gr 
 gsave  2254 561 2 2 C 1250.8 118.64 t 0 r /Helvetica findfont 78.1689 sf 0 0 m (1400) show NC gr 
 gsave  2254 561 2 2 C 1437.24 118.64 t 0 r /Helvetica findfont 78.1689 sf 0 0 m (1600) show NC gr 
 gsave  2254 561 2 2 C 1623.67 118.64 t 0 r /Helvetica findfont 78.1689 sf 0 0 m (1800) show NC gr 
 gsave  2254 561 2 2 C 1810.11 118.64 t 0 r /Helvetica findfont 78.1689 sf 0 0 m (2000) show NC gr 
 gsave  2254 561 2 2 C 1996.54 118.64 t 0 r /Helvetica findfont 78.1689 sf 0 0 m (2200) show NC gr  318 545 m 1860 X s 411 531 m 14 Y s 457 538 m 7 Y s 504 538 m 7 Y s 550 538 m 7 Y s 597 531 m 14 Y s 643 538 m 7 Y s 690 538 m 7 Y s 736 538 m 7 Y s
 783 531 m 14 Y s 829 538 m 7 Y s 876 538 m 7 Y s 923 538 m 7 Y s 969 531 m 14 Y s 1016 538 m 7 Y s 1062 538 m 7 Y s 1109 538 m 7 Y s 1155 531 m 14 Y s 1202 538 m 7 Y s 1248 538 m 7 Y s 1295 538 m 7 Y s 1341 531 m 14 Y s 1388 538 m 7 Y s 1434 538 m 7
 Y s 1481 538 m 7 Y s 1527 531 m 14 Y s 1574 538 m 7 Y s 1620 538 m 7 Y s 1667 538 m 7 Y s 1713 531 m 14 Y s 1760 538 m 7 Y s 1806 538 m 7 Y s 1853 538 m 7 Y s 1899 531 m 14 Y s 1946 538 m 7 Y s 1992 538 m 7 Y s 2039 538 m 7 Y s 2085 531 m 14 Y s 411
 531 m 14 Y s 364 538 m 7 Y s 318 538 m 7 Y s 2085 531 m 14 Y s 2132 538 m 7 Y s 318 187 m 358 Y s
 gsave  2254 561 2 2 C 166.096 284.736 t 90 r /Helvetica findfont 67.9729 sf 0 0 m (Data/SM) show NC gr  361 203 m -43 X s 339 220 m -21 X s 339 236 m -21 X s 339 252 m -21 X s 339 268 m -21 X s 361 285 m -43 X s 339 301 m -21 X s 339 317 m -21 X s
 339 334 m -21 X s 339 350 m -21 X s 361 366 m -43 X s 339 382 m -21 X s 339 399 m -21 X s 339 415 m -21 X s 339 431 m -21 X s 361 447 m -43 X s 339 464 m -21 X s 339 480 m -21 X s 339 496 m -21 X s 339 512 m -21 X s 361 529 m -43 X s 361 203 m -43 X
 s 339 187 m -21 X s 361 529 m -43 X s
 gsave  2254 561 2 2 C 261.008 183.044 t 0 r /Helvetica findfont 57.777 sf 0 0 m (0) show NC gr 
 gsave  2254 561 2 2 C 213.552 261.008 t 0 r /Helvetica findfont 57.777 sf 0 0 m (0.5) show NC gr 
 gsave  2254 561 2 2 C 271.177 342.361 t 0 r /Helvetica findfont 57.777 sf 0 0 m (1) show NC gr 
 gsave  2254 561 2 2 C 213.552 423.714 t 0 r /Helvetica findfont 57.777 sf 0 0 m (1.5) show NC gr 
 gsave  2254 561 2 2 C 261.008 505.067 t 0 r /Helvetica findfont 57.777 sf 0 0 m (2) show NC gr  2178 187 m 358 Y s 2135 203 m 43 X s 2157 220 m 21 X s 2157 236 m 21 X s 2157 252 m 21 X s 2157 268 m 21 X s 2135 285 m 43 X s 2157 301 m 21 X s 2157 317
 m 21 X s 2157 334 m 21 X s 2157 350 m 21 X s 2135 366 m 43 X s 2157 382 m 21 X s 2157 399 m 21 X s 2157 415 m 21 X s 2157 431 m 21 X s 2135 447 m 43 X s 2157 464 m 21 X s 2157 480 m 21 X s 2157 496 m 21 X s 2157 512 m 21 X s 2135 529 m 43 X s 2135
 203 m 43 X s 2157 187 m 21 X s 2135 529 m 43 X s 9 lw 1016 387 m 1 Y s 1016 388 m cl s 1016 360 m -1 Y s 1016 359 m cl s 1109 389 m 5 Y s 1109 394 m cl s 1109 362 m -6 Y s 1109 356 m cl s 1202 383 m 13 Y s 1202 396 m cl s 1202 356 m -12 Y s 1202 344
 m cl s 1295 358 m 20 Y s 1295 378 m cl s 1295 331 m -18 Y s 1295 313 m cl s 1388 303 m 20 Y s 1388 323 m cl s 1388 276 m -18 Y s 1388 258 m cl s 1481 274 m 22 Y s 1481 296 m cl s 1481 246 m -17 Y s 1481 229 m cl s 1574 381 m 64 Y s 1574 445 m cl s
 1574 354 m -57 Y s 1574 297 m cl s 1667 428 m 117 Y s 1667 545 m cl s 1667 401 m -101 Y s 1667 300 m cl s 1760 499 m 46 Y s 1760 545 m cl s 1760 472 m -168 Y s 1760 304 m cl s 2039 545 m -211 Y s 2039 334 m cl s 2132 478 m 67 Y s 2132 545 m cl s
 2132 451 m -202 Y s 2132 249 m cl s 3 lw 364 369 457 372 550 367 643 368 736 369 829 372 923 366 1016 373 1109 375 1202 370 1295 345 1388 289 1481 260 1574 367 1667 414 1760 485 16 { m20} R 9 lw 3 lw 2132 465 m20 9 lw 1 0 0 c 6 lw black 3 lw 1 0 0 c
 2178 227 m s 2178 255 m s 2178 284 m s 2178 312 m s 2178 341 m -27 -27 d s 2178 369 m -55 -55 d s 2178 398 m -84 -84 d s 2170 418 m -96 -95 d s 2141 418 m -95 -95 d s 2112 418 m -95 -95 d s 1992 298 m -17 -17 d s 2075 409 m -129 -128 d s 2046 409 m
 -128 -128 d s 2017 409 m -118 -118 d s 1992 413 m -93 -93 d s 1992 441 m -119 -119 d s 1973 451 m -129 -129 d s 1944 451 m -129 -129 d s 1916 451 m -17 -17 d s 1875 410 m -69 -69 d s 1846 410 m -69 -69 d s 1817 410 m -11 -11 d s 1798 391 m -50 -50 d
 s 1770 391 m -50 -50 d s 1741 391 m -52 -52 d s 1713 392 m -53 -53 d s 1685 393 m -53 -54 d s 1657 393 m -59 -59 d s 1628 393 m -59 -59 d s 1604 398 m -63 -64 d s 1575 398 m -49 -49 d s 1547 398 m -49 -49 d s 1504 383 m -35 -34 d s 1475 383 m -35
 -34 d s 1446 383 m -33 -33 d s 1417 382 m -33 -32 d s 1388 382 m -33 -32 d s 1359 382 m -28 -28 d s 1327 378 m -25 -24 d s 1298 378 m -25 -24 d s 1269 378 m -24 -24 d s 1240 378 m -23 -24 d s 1211 378 m -23 -24 d s 1182 378 m -23 -24 d s 1151 375 m
 -18 -18 d s 1122 375 m -17 -18 d s 1093 375 m -17 -18 d s 1065 375 m -17 -17 d s 1035 374 m -15 -16 d s 1006 374 m -15 -16 d s 978 374 m -15 -15 d s 948 373 m -14 -14 d s 920 373 m -15 -14 d s 891 373 m -14 -14 d s 862 373 m -14 -14 d s 833 373 m
 -13 -14 d s 805 373 m -14 -14 d s 775 372 m -12 -12 d s 746 372 m -11 -12 d s 718 372 m -12 -12 d s 688 371 m -10 -10 d s 660 371 m -11 -10 d s 631 371 m -11 -10 d s 602 371 m -10 -10 d s 573 371 m -10 -10 d s 545 371 m -11 -10 d s 516 371 m -10 -10
 d s 488 371 m -11 -10 d s 459 371 m -11 -10 d s 318 231 m s 430 371 m -10 -10 d s 318 259 m s 402 371 m -11 -10 d s 318 288 m s 373 371 m -11 -10 d s 318 317 m s 344 371 m -11 -10 d s 318 345 m s 6 lw black[ 4 8] 0 sd 3 lw 318 447 m 1860 X s 318 285
 m 1860 X s 1 0 0 c[  12 12 ] 0 sd 6 lw 318 366 m 1860 X s
 gr  gr showpage
end
%%EOF
