%!PS-Adobe-2.0 EPSF-2.0
%%BoundingBox:  0 0 567 521
%%Title: Distributions/met_distrSR_MB-GGd_beforeFit_forThesis.eps: canvas
%%Creator: ROOT Version 6.04/16
%%CreationDate: Tue May 19 22:02:18 2020
%%DocumentNeededResources: ProcSet (FontSetInit)
%%EndComments
%%BeginProlog
80 dict begin
/s {stroke} def /l {lineto} def /m {moveto} def /t {translate} def
/r {rotate} def /rl {roll}  def /R {repeat} def
/d {rlineto} def /rm {rmoveto} def /gr {grestore} def /f {eofill} def
/c {setrgbcolor} def /black {0 setgray} def /sd {setdash} def
/cl {closepath} def /sf {scalefont setfont} def /lw {setlinewidth} def
/box {m dup 0 exch d exch 0 d 0 exch neg d cl} def
/NC{systemdict begin initclip end}def/C{NC box clip newpath}def
/bl {box s} def /bf {gsave box gsave f grestore 1 lw [] 0 sd s grestore} def /Y { 0 exch d} def /X { 0 d} def 
/K {{pop pop 0 moveto} exch kshow} bind def
/ita {/ang 15 def gsave [1 0 ang dup sin exch cos div 1 0 0] concat} def 
/mp {newpath /y exch def /x exch def} def
/side {[w .77 mul w .23 mul] .385 w mul sd w 0 l currentpoint t -144 r} def
/mr {mp x y w2 0 360 arc} def /m24 {mr s} def /m20 {mr f} def
/mb {mp x y w2 add m w2 neg 0 d 0 w neg d w 0 d 0 w d cl} def
/mt {mp x y w2 add m w2 neg w neg d w 0 d cl} def
/m21 {mb f} def /m25 {mb s} def /m22 {mt f} def /m26{mt s} def
/m23 {mp x y w2 sub m w2 w d w neg 0 d cl f} def
/m27 {mp x y w2 add m w3 neg w2 neg d w3 w2 neg d w3 w2 d cl s} def
/m28 {mp x w2 sub y w2 sub w3 add m w3 0 d  0 w3 neg d w3 0 d 0 w3 d w3 0 d  0 w3 d w3 neg 0 d 0 w3 d w3 neg 0 d 0 w3 neg d w3 neg 0 d cl s } def
/m29 {mp gsave x w2 sub y w2 add w3 sub m currentpoint t 4 {side} repeat cl fill gr} def
/m30 {mp gsave x w2 sub y w2 add w3 sub m currentpoint t 4 {side} repeat cl s gr} def
/m31 {mp x y w2 sub m 0 w d x w2 sub y m w 0 d x w2 sub y w2 add m w w neg d x w2 sub y w2 sub m w w d s} def
/m32 {mp x y w2 sub m w2 w d w neg 0 d cl s} def
/m33 {mp x y w2 add m w3 neg w2 neg d w3 w2 neg d w3 w2 d cl f} def
/m34 {mp x w2 sub y w2 sub w3 add m w3 0 d  0 w3 neg d w3 0 d 0 w3 d w3 0 d  0 w3 d w3 neg 0 d 0 w3 d w3 neg 0 d 0 w3 neg d w3 neg 0 d cl f } def
/m2 {mp x y w2 sub m 0 w d x w2 sub y m w 0 d s} def
/m5 {mp x w2 sub y w2 sub m w w d x w2 sub y w2 add m w w neg d s} def
%%IncludeResource: ProcSet (FontSetInit)
%%IncludeResource: font Times-Roman
%%IncludeResource: font Times-Italic
%%IncludeResource: font Times-Bold
%%IncludeResource: font Times-BoldItalic
%%IncludeResource: font Helvetica
%%IncludeResource: font Helvetica-Oblique
%%IncludeResource: font Helvetica-Bold
%%IncludeResource: font Helvetica-BoldOblique
%%IncludeResource: font Courier
%%IncludeResource: font Courier-Oblique
%%IncludeResource: font Courier-Bold
%%IncludeResource: font Courier-BoldOblique
%%IncludeResource: font Symbol
%%IncludeResource: font ZapfDingbats
/reEncode {exch findfont dup length dict begin {1 index /FID eq  {pop pop} {def} ifelse } forall /Encoding exch def currentdict end dup /FontName get exch definefont pop } def [/Times-Bold /Times-Italic /Times-BoldItalic /Helvetica /Helvetica-Oblique
 /Helvetica-Bold /Helvetica-BoldOblique /Courier /Courier-Oblique /Courier-Bold /Courier-BoldOblique /Times-Roman /AvantGarde-Book /AvantGarde-BookOblique /AvantGarde-Demi /AvantGarde-DemiOblique /Bookman-Demi /Bookman-DemiItalic /Bookman-Light
 /Bookman-LightItalic /Helvetica-Narrow /Helvetica-Narrow-Bold /Helvetica-Narrow-BoldOblique /Helvetica-Narrow-Oblique /NewCenturySchlbk-Roman /NewCenturySchlbk-Bold /NewCenturySchlbk-BoldItalic /NewCenturySchlbk-Italic /Palatino-Bold
 /Palatino-BoldItalic /Palatino-Italic /Palatino-Roman ] {ISOLatin1Encoding reEncode } forall
%%EndProlog
%%BeginSetup
%%EndSetup
newpath  gsave  .25 .25 scale  gsave  0 0 t black[  ] 0 sd 3 lw 1 1 1 c 2268 2085 0 0 bf black 1 1 1 c 2263 1770 2 313 bf black 1 1 1 c black 1860 1145 319 584 bl 1 1 1 c black 1860 1145 319 584 bl 6 lw 1 1 1 c black 3 lw /w 33 def /w2 {w 2 div} def
 /w3 {w 3 div} def 366 1193 m20 6 lw 3 lw 459 1158 m20 6 lw 3 lw 552 1098 m20 6 lw 3 lw 645 1047 m20 6 lw 3 lw 738 1011 m20 6 lw 831 938 m 1 Y s 3 lw 831 952 m20 6 lw 924 872 m 10 Y s 924 909 m 4 Y s 3 lw 924 895 m20 6 lw 1017 804 m 26 Y s 1017 857 m
 11 Y s 3 lw 1017 843 m20 6 lw 1110 783 m 32 Y s 1110 842 m 13 Y s 3 lw 1110 828 m20 6 lw 1203 783 m 32 Y s 1203 842 m 13 Y s 3 lw 1203 828 m20 6 lw 1296 584 m 139 Y s 1296 750 m 33 Y s 3 lw 1296 737 m20 6 lw 1761 584 m 139 Y s 1761 750 m 33 Y s 3 lw
 1761 737 m20 6 lw 3 lw 319 584 m 1860 X s
 gsave  2263 1770 2 313 C 1949.08 355.92 t 0 r /Helvetica findfont 81.3741 sf 0 0 m ( [GeV]) show NC gr 
 gsave  2263 1770 2 313 C 1837.22 396.596 t 0 r /Helvetica findfont 54.2494 sf 0 0 m (miss) show NC gr 
 gsave  2263 1770 2 313 C 1837.22 332.192 t 0 r /Helvetica findfont 54.2494 sf 0 0 m (T) show NC gr 
 gsave  2263 1770 2 313 C 1786.38 355.92 t 0 r /Helvetica findfont 81.3741 sf 0 0 m (E) show NC gr  412 584 m cl s 459 584 m cl s 505 584 m cl s 552 584 m cl s 598 584 m cl s 645 584 m cl s 691 584 m cl s 738 584 m cl s 784 584 m cl s 831 584 m cl s
 877 584 m cl s 924 584 m cl s 970 584 m cl s 1017 584 m cl s 1063 584 m cl s 1110 584 m cl s 1156 584 m cl s 1203 584 m cl s 1249 584 m cl s 1296 584 m cl s 1342 584 m cl s 1389 584 m cl s 1435 584 m cl s 1482 584 m cl s 1528 584 m cl s 1575 584 m
 cl s 1621 584 m cl s 1668 584 m cl s 1714 584 m cl s 1761 584 m cl s 1807 584 m cl s 1854 584 m cl s 1900 584 m cl s 1947 584 m cl s 1993 584 m cl s 2040 584 m cl s 2086 584 m cl s 412 584 m cl s 366 584 m cl s 319 584 m cl s 2086 584 m cl s 2133
 584 m cl s 2179 584 m cl s 319 1729 m 1860 X s 412 1729 m cl s 459 1729 m cl s 505 1729 m cl s 552 1729 m cl s 598 1729 m cl s 645 1729 m cl s 691 1729 m cl s 738 1729 m cl s 784 1729 m cl s 831 1729 m cl s 877 1729 m cl s 924 1729 m cl s 970 1729 m
 cl s 1017 1729 m cl s 1063 1729 m cl s 1110 1729 m cl s 1156 1729 m cl s 1203 1729 m cl s 1249 1729 m cl s 1296 1729 m cl s 1342 1729 m cl s 1389 1729 m cl s 1435 1729 m cl s 1482 1729 m cl s 1528 1729 m cl s 1575 1729 m cl s 1621 1729 m cl s 1668
 1729 m cl s 1714 1729 m cl s 1761 1729 m cl s 1807 1729 m cl s 1854 1729 m cl s 1900 1729 m cl s 1947 1729 m cl s 1993 1729 m cl s 2040 1729 m cl s 2086 1729 m cl s 412 1729 m cl s 366 1729 m cl s 319 1729 m cl s 2086 1729 m cl s 2133 1729 m cl s
 2179 1729 m cl s 319 584 m 1145 Y s
 gsave  2263 1770 2 313 C 166.096 1091.49 t 90 r /Helvetica findfont 81.3741 sf 0 0 m (Events / 100 GeV) show NC gr  341 630 m -22 X s 341 657 m -22 X s 341 676 m -22 X s 341 691 m -22 X s 341 703 m -22 X s 341 713 m -22 X s 341 722 m -22 X s 341 730
 m -22 X s 363 737 m -44 X s
 gsave  2263 1770 2 313 C 300.555 709.545 t 0 r  -36 0 t /Helvetica findfont 64.4212 sf 0 0 m (1) show NC gr  341 783 m -22 X s 341 809 m -22 X s 341 828 m -22 X s 341 843 m -22 X s 341 855 m -22 X s 341 865 m -22 X s 341 874 m -22 X s 341 882 m -22
 X s 363 889 m -44 X s
 gsave  2263 1770 2 313 C 300.555 861.898 t 0 r  -73 0 t /Helvetica findfont 64.4212 sf 0 0 m (10) show NC gr  341 935 m -22 X s 341 962 m -22 X s 341 981 m -22 X s 341 996 m -22 X s 341 1008 m -22 X s 341 1018 m -22 X s 341 1027 m -22 X s 341 1034 m
 -22 X s 363 1041 m -44 X s
 gsave  2263 1770 2 313 C 274.567 1040.64 t 0 r /Helvetica findfont 44.0776 sf 0 0 m (2) show NC gr 
 gsave  2263 1770 2 313 C 203.383 1013.52 t 0 r /Helvetica findfont 64.4212 sf 0 0 m (10) show NC gr  341 1087 m -22 X s 341 1114 m -22 X s 341 1133 m -22 X s 341 1148 m -22 X s 341 1160 m -22 X s 341 1170 m -22 X s 341 1179 m -22 X s 341 1187 m -22
 X s 363 1194 m -44 X s
 gsave  2263 1770 2 313 C 274.567 1196.57 t 0 r /Helvetica findfont 44.0776 sf 0 0 m (3) show NC gr 
 gsave  2263 1770 2 313 C 203.383 1166.06 t 0 r /Helvetica findfont 64.4212 sf 0 0 m (10) show NC gr  341 1240 m -22 X s 341 1266 m -22 X s 341 1285 m -22 X s 341 1300 m -22 X s 341 1312 m -22 X s 341 1322 m -22 X s 341 1331 m -22 X s 341 1339 m -22
 X s 363 1346 m -44 X s
 gsave  2263 1770 2 313 C 274.567 1345.72 t 0 r /Helvetica findfont 44.0776 sf 0 0 m (4) show NC gr 
 gsave  2263 1770 2 313 C 203.383 1318.6 t 0 r /Helvetica findfont 64.4212 sf 0 0 m (10) show NC gr  341 1392 m -22 X s 341 1419 m -22 X s 341 1438 m -22 X s 341 1453 m -22 X s 341 1465 m -22 X s 341 1475 m -22 X s 341 1484 m -22 X s 341 1491 m -22 X
 s 363 1498 m -44 X s
 gsave  2263 1770 2 313 C 274.567 1501.64 t 0 r /Helvetica findfont 44.0776 sf 0 0 m (5) show NC gr 
 gsave  2263 1770 2 313 C 203.383 1471.13 t 0 r /Helvetica findfont 64.4212 sf 0 0 m (10) show NC gr  341 1544 m -22 X s 341 1571 m -22 X s 341 1590 m -22 X s 341 1605 m -22 X s 341 1617 m -22 X s 341 1627 m -22 X s 341 1636 m -22 X s 341 1644 m -22
 X s 363 1651 m -44 X s
 gsave  2263 1770 2 313 C 274.567 1650.79 t 0 r /Helvetica findfont 44.0776 sf 0 0 m (6) show NC gr 
 gsave  2263 1770 2 313 C 203.383 1620.28 t 0 r /Helvetica findfont 64.4212 sf 0 0 m (10) show NC gr  341 1697 m -22 X s 341 1723 m -22 X s 2179 584 m 1145 Y s 2157 630 m 22 X s 2157 657 m 22 X s 2157 676 m 22 X s 2157 691 m 22 X s 2157 703 m 22 X s
 2157 713 m 22 X s 2157 722 m 22 X s 2157 730 m 22 X s 2136 737 m 43 X s 2157 783 m 22 X s 2157 809 m 22 X s 2157 828 m 22 X s 2157 843 m 22 X s 2157 855 m 22 X s 2157 865 m 22 X s 2157 874 m 22 X s 2157 882 m 22 X s 2136 889 m 43 X s 2157 935 m 22 X
 s 2157 962 m 22 X s 2157 981 m 22 X s 2157 996 m 22 X s 2157 1008 m 22 X s 2157 1018 m 22 X s 2157 1027 m 22 X s 2157 1034 m 22 X s 2136 1041 m 43 X s 2157 1087 m 22 X s 2157 1114 m 22 X s 2157 1133 m 22 X s 2157 1148 m 22 X s 2157 1160 m 22 X s
 2157 1170 m 22 X s 2157 1179 m 22 X s 2157 1187 m 22 X s 2136 1194 m 43 X s 2157 1240 m 22 X s 2157 1266 m 22 X s 2157 1285 m 22 X s 2157 1300 m 22 X s 2157 1312 m 22 X s 2157 1322 m 22 X s 2157 1331 m 22 X s 2157 1339 m 22 X s 2136 1346 m 43 X s
 2157 1392 m 22 X s 2157 1419 m 22 X s 2157 1438 m 22 X s 2157 1453 m 22 X s 2157 1465 m 22 X s 2157 1475 m 22 X s 2157 1484 m 22 X s 2157 1491 m 22 X s 2136 1498 m 43 X s 2157 1544 m 22 X s 2157 1571 m 22 X s 2157 1590 m 22 X s 2157 1605 m 22 X s
 2157 1617 m 22 X s 2157 1627 m 22 X s 2157 1636 m 22 X s 2157 1644 m 22 X s 2136 1651 m 43 X s 2157 1697 m 22 X s 2157 1723 m 22 X s 0.4 0.6 1 c black 0.4 0.6 1 c 319 584 m 615 Y 93 X -38 Y 93 X -54 Y 93 X -49 Y 93 X -47 Y 93 X -51 Y 93 X -45 Y 93 X
 -45 Y 93 X -29 Y 93 X -54 Y 93 X -65 Y 93 X -5 Y 93 X -25 Y 93 X -82 Y 93 X -26 Y 558 X f black 0.4 0.6 1 c black 319 1199 m 93 X -38 Y 93 X -54 Y 93 X -49 Y 93 X -47 Y 93 X -51 Y 93 X -45 Y 93 X -45 Y 93 X -29 Y 93 X -54 Y 93 X -65 Y 93 X -5 Y 93 X
 -25 Y 93 X -82 Y 93 X -26 Y 558 X s 0.999 0.999 0.999 c black 0.999 0.999 0.999 c 319 584 m 597 Y 93 X -39 Y 93 X -54 Y 93 X -47 Y 93 X -45 Y 93 X -50 Y 93 X -44 Y 93 X -49 Y 93 X -23 Y 93 X -61 Y 93 X -60 Y 93 X -10 Y 93 X -14 Y 93 X -79 Y 93 X -22
 Y 558 X f black 0.999 0.999 0.999 c black 319 1181 m 93 X -39 Y 93 X -54 Y 93 X -47 Y 93 X -45 Y 93 X -50 Y 93 X -44 Y 93 X -49 Y 93 X -23 Y 93 X -61 Y 93 X -60 Y 93 X -10 Y 93 X -14 Y 93 X -79 Y 93 X -22 Y 558 X s 1 1 1 c black 319 1181 m 93 X -39
 Y 93 X -54 Y 93 X -47 Y 93 X -45 Y 93 X -50 Y 93 X -44 Y 93 X -49 Y 93 X -23 Y 93 X -61 Y 93 X -60 Y 93 X -10 Y 93 X -14 Y 93 X -79 Y 93 X -22 Y 558 X s 0.6 1 0.6 c black 0.6 1 0.6 c 319 584 m 597 Y 93 X -39 Y 93 X -54 Y 93 X -47 Y 93 X -45 Y 93 X
 -50 Y 93 X -44 Y 93 X -49 Y 93 X -23 Y 93 X -61 Y 93 X -60 Y 93 X -10 Y 93 X -14 Y 93 X -79 Y 93 X -22 Y 558 X f black 0.6 1 0.6 c black 319 1181 m 93 X -39 Y 93 X -54 Y 93 X -47 Y 93 X -45 Y 93 X -50 Y 93 X -44 Y 93 X -49 Y 93 X -23 Y 93 X -61 Y 93
 X -60 Y 93 X -10 Y 93 X -14 Y 93 X -79 Y 93 X -22 Y 558 X s 0.999 0.999 0.999 c black 0.999 0.999 0.999 c 319 584 m 559 Y 93 X -24 Y 93 X -47 Y 93 X -42 Y 93 X -41 Y 93 X -47 Y 93 X -43 Y 93 X -49 Y 93 X -28 Y 93 X -55 Y 93 X -61 Y 93 X -8 Y 93 X
 -13 Y 93 X -79 Y 93 X -22 Y 558 X f black 0.999 0.999 0.999 c black 319 1143 m 93 X -24 Y 93 X -47 Y 93 X -42 Y 93 X -41 Y 93 X -47 Y 93 X -43 Y 93 X -49 Y 93 X -28 Y 93 X -55 Y 93 X -61 Y 93 X -8 Y 93 X -13 Y 93 X -79 Y 93 X -22 Y 558 X s 1 1 1 c
 black 319 1143 m 93 X -24 Y 93 X -47 Y 93 X -42 Y 93 X -41 Y 93 X -47 Y 93 X -43 Y 93 X -49 Y 93 X -28 Y 93 X -55 Y 93 X -61 Y 93 X -8 Y 93 X -13 Y 93 X -79 Y 93 X -22 Y 558 X s 1 0.8 0.4 c black 1 0.8 0.4 c 319 584 m 559 Y 93 X -24 Y 93 X -47 Y 93
 X -42 Y 93 X -41 Y 93 X -47 Y 93 X -43 Y 93 X -49 Y 93 X -28 Y 93 X -55 Y 93 X -61 Y 93 X -8 Y 93 X -13 Y 93 X -79 Y 93 X -22 Y 558 X f black 1 0.8 0.4 c black 319 1143 m 93 X -24 Y 93 X -47 Y 93 X -42 Y 93 X -41 Y 93 X -47 Y 93 X -43 Y 93 X -49 Y
 93 X -28 Y 93 X -55 Y 93 X -61 Y 93 X -8 Y 93 X -13 Y 93 X -79 Y 93 X -22 Y 558 X s 0.999 0.999 0.999 c black 0.999 0.999 0.999 c 319 584 m 414 Y 93 X -19 Y 93 X -52 Y 93 X -32 Y 93 X -39 Y 93 X -49 Y 93 X -58 Y 93 X -50 Y 93 X -63 Y 93 X -20 Y 93 X
 -13 Y 93 X -19 Y 93 X 42 Y 93 X -42 Y 651 X f black 0.999 0.999 0.999 c black 319 998 m 93 X -19 Y 93 X -52 Y 93 X -32 Y 93 X -39 Y 93 X -49 Y 93 X -58 Y 93 X -50 Y 93 X -63 Y 93 X -20 Y 93 X -13 Y 93 X -19 Y 93 X 42 Y 93 X -42 Y 651 X s 1 1 1 c
 black 319 998 m 93 X -19 Y 93 X -52 Y 93 X -32 Y 93 X -39 Y 93 X -49 Y 93 X -58 Y 93 X -50 Y 93 X -63 Y 93 X -20 Y 93 X -13 Y 93 X -19 Y 93 X 42 Y 93 X -42 Y 651 X s 1 0.4 0.6 c black 1 0.4 0.6 c 319 584 m 414 Y 93 X -19 Y 93 X -52 Y 93 X -32 Y 93 X
 -39 Y 93 X -49 Y 93 X -58 Y 93 X -50 Y 93 X -63 Y 93 X -20 Y 93 X -13 Y 93 X -19 Y 93 X 42 Y 93 X -42 Y 651 X f black 1 0.4 0.6 c black 319 998 m 93 X -19 Y 93 X -52 Y 93 X -32 Y 93 X -39 Y 93 X -49 Y 93 X -58 Y 93 X -50 Y 93 X -63 Y 93 X -20 Y 93 X
 -13 Y 93 X -19 Y 93 X 42 Y 93 X -42 Y 651 X s 0.999 0.999 0.999 c black 0.999 0.999 0.999 c 319 584 m 198 Y 93 X -33 Y 93 X -105 Y 93 X -60 Y 1581 X f black 0.999 0.999 0.999 c black 319 782 m 93 X -33 Y 93 X -105 Y 93 X -60 Y 1581 X s 1 1 1 c black
 319 782 m 93 X -33 Y 93 X -105 Y 93 X -60 Y 1581 X s 0 0 0.4 c black 0 0 0.4 c 319 584 m 198 Y 93 X -33 Y 93 X -105 Y 93 X -60 Y 1581 X f black 0 0 0.4 c black 319 782 m 93 X -33 Y 93 X -105 Y 93 X -60 Y 1581 X s 1 0 0 c 6 lw 1 1 1 c black 1 0 0 c
 319 1199 m 93 X -38 Y 93 X -54 Y 93 X -49 Y 93 X -47 Y 93 X -51 Y 93 X -45 Y 93 X -45 Y 93 X -29 Y 93 X -54 Y 93 X -65 Y 93 X -5 Y 93 X -25 Y 93 X -82 Y 93 X -26 Y 558 X s black 3 lw 1 0 0 c 1 lw << /PatternType 1 /PaintType 2 /TilingType 1 /BBox [
 0 0 100 100 ] /XStep 100 /YStep 100 /PaintProc { begin gsave 0 100 m 100 0 l s gr end } >> [ 0.24 0 0 0.24 0 0 ] makepattern /P05 exch def /cs {[/Pattern /DeviceRGB] setcolorspace} def /FA {f [/DeviceRGB] setcolorspace} def cs 1 0 0 P05 setcolor 319
 584 m 618 Y 93 X -38 Y 93 X -54 Y 93 X -48 Y 93 X -46 Y 93 X -50 Y 93 X -44 Y 93 X -46 Y 93 X -25 Y 93 X -54 Y 93 X -62 Y 93 X 5 Y 93 X -28 Y 93 X -88 Y 93 X -40 Y 8 Y -93 X 71 Y -93 X 19 Y -93 X 23 Y -93 X 70 Y -93 X 55 Y -93 X 33 Y -93 X 45 Y -93
 X 46 Y -93 X 52 Y -93 X 48 Y -93 X 49 Y -93 X 55 Y -93 X 38 Y -93 X -612 Y FA 6 lw 1 1 1 c 15 lw 924 875 m -3 Y s 924 872 m cl s 1017 863 m 6 Y s 1017 869 m cl s 1017 823 m -17 Y s 1017 806 m cl s 1110 849 m 8 Y s 1110 857 m cl s 1110 808 m -22 Y s
 1110 786 m cl s 1203 849 m 8 Y s 1203 857 m cl s 1203 808 m -22 Y s 1203 786 m cl s 1296 757 m 34 Y s 1296 791 m cl s 1296 716 m -95 Y s 1296 621 m cl s 1761 757 m 34 Y s 1761 791 m cl s 1761 716 m -95 Y s 1761 621 m cl s black 1 1 1 c 3 lw /w 43
 def /w2 {w 2 div} def /w3 {w 3 div} def 366 1193 459 1158 552 1098 645 1047 738 1011 831 952 924 895 1017 843 1110 828 1203 828 1296 737 11 { m20} R 15 lw 3 lw 1761 737 m20 15 lw black 6 lw 1 1 1 c black 3 lw /w 33 def /w2 {w 2 div} def /w3 {w 3
 div} def 366 1193 m20 6 lw 3 lw 459 1158 m20 6 lw 3 lw 552 1098 m20 6 lw 3 lw 645 1047 m20 6 lw 3 lw 738 1011 m20 6 lw 831 938 m 1 Y s 3 lw 831 952 m20 6 lw 924 872 m 10 Y s 924 909 m 4 Y s 3 lw 924 895 m20 6 lw 1017 804 m 26 Y s 1017 857 m 11 Y s 3
 lw 1017 843 m20 6 lw 1110 783 m 32 Y s 1110 842 m 13 Y s 3 lw 1110 828 m20 6 lw 1203 783 m 32 Y s 1203 842 m 13 Y s 3 lw 1203 828 m20 6 lw 1296 584 m 139 Y s 1296 750 m 33 Y s 3 lw 1296 737 m20 6 lw 1761 584 m 139 Y s 1761 750 m 33 Y s 3 lw 1761 737
 m20 6 lw 831 939 m -1 Y s 831 938 m cl s 924 909 m 4 Y s 924 913 m cl s 924 882 m -10 Y s 924 872 m cl s 1017 857 m 12 Y s 1017 869 m cl s 1017 830 m -24 Y s 1017 806 m cl s 1110 842 m 15 Y s 1110 857 m cl s 1110 815 m -29 Y s 1110 786 m cl s 1203
 842 m 15 Y s 1203 857 m cl s 1203 815 m -29 Y s 1203 786 m cl s 1296 750 m 41 Y s 1296 791 m cl s 1296 723 m -102 Y s 1296 621 m cl s 1761 750 m 41 Y s 1761 791 m cl s 1761 723 m -102 Y s 1761 621 m cl s 3 lw 366 1193 459 1158 552 1098 645 1047 738
 1011 831 952 924 895 1017 843 1110 828 1203 828 1296 737 11 { m20} R 6 lw 3 lw 1761 737 m20 6 lw 3 lw 319 584 m 1860 X s 412 584 m cl s 459 584 m cl s 505 584 m cl s 552 584 m cl s 598 584 m cl s 645 584 m cl s 691 584 m cl s 738 584 m cl s 784 584
 m cl s 831 584 m cl s 877 584 m cl s 924 584 m cl s 970 584 m cl s 1017 584 m cl s 1063 584 m cl s 1110 584 m cl s 1156 584 m cl s 1203 584 m cl s 1249 584 m cl s 1296 584 m cl s 1342 584 m cl s 1389 584 m cl s 1435 584 m cl s 1482 584 m cl s 1528
 584 m cl s 1575 584 m cl s 1621 584 m cl s 1668 584 m cl s 1714 584 m cl s 1761 584 m cl s 1807 584 m cl s 1854 584 m cl s 1900 584 m cl s 1947 584 m cl s 1993 584 m cl s 2040 584 m cl s 2086 584 m cl s 412 584 m cl s 366 584 m cl s 319 584 m cl s
 2086 584 m cl s 2133 584 m cl s 2179 584 m cl s 319 1729 m 1860 X s 412 1729 m cl s 459 1729 m cl s 505 1729 m cl s 552 1729 m cl s 598 1729 m cl s 645 1729 m cl s 691 1729 m cl s 738 1729 m cl s 784 1729 m cl s 831 1729 m cl s 877 1729 m cl s 924
 1729 m cl s 970 1729 m cl s 1017 1729 m cl s 1063 1729 m cl s 1110 1729 m cl s 1156 1729 m cl s 1203 1729 m cl s 1249 1729 m cl s 1296 1729 m cl s 1342 1729 m cl s 1389 1729 m cl s 1435 1729 m cl s 1482 1729 m cl s 1528 1729 m cl s 1575 1729 m cl s
 1621 1729 m cl s 1668 1729 m cl s 1714 1729 m cl s 1761 1729 m cl s 1807 1729 m cl s 1854 1729 m cl s 1900 1729 m cl s 1947 1729 m cl s 1993 1729 m cl s 2040 1729 m cl s 2086 1729 m cl s 412 1729 m cl s 366 1729 m cl s 319 1729 m cl s 2086 1729 m cl
 s 2133 1729 m cl s 2179 1729 m cl s 319 584 m 1145 Y s 341 630 m -22 X s 341 657 m -22 X s 341 676 m -22 X s 341 691 m -22 X s 341 703 m -22 X s 341 713 m -22 X s 341 722 m -22 X s 341 730 m -22 X s 363 737 m -44 X s 341 783 m -22 X s 341 809 m -22
 X s 341 828 m -22 X s 341 843 m -22 X s 341 855 m -22 X s 341 865 m -22 X s 341 874 m -22 X s 341 882 m -22 X s 363 889 m -44 X s 341 935 m -22 X s 341 962 m -22 X s 341 981 m -22 X s 341 996 m -22 X s 341 1008 m -22 X s 341 1018 m -22 X s 341 1027
 m -22 X s 341 1034 m -22 X s 363 1041 m -44 X s 341 1087 m -22 X s 341 1114 m -22 X s 341 1133 m -22 X s 341 1148 m -22 X s 341 1160 m -22 X s 341 1170 m -22 X s 341 1179 m -22 X s 341 1187 m -22 X s 363 1194 m -44 X s 341 1240 m -22 X s 341 1266 m
 -22 X s 341 1285 m -22 X s 341 1300 m -22 X s 341 1312 m -22 X s 341 1322 m -22 X s 341 1331 m -22 X s 341 1339 m -22 X s 363 1346 m -44 X s 341 1392 m -22 X s 341 1419 m -22 X s 341 1438 m -22 X s 341 1453 m -22 X s 341 1465 m -22 X s 341 1475 m
 -22 X s 341 1484 m -22 X s 341 1491 m -22 X s 363 1498 m -44 X s 341 1544 m -22 X s 341 1571 m -22 X s 341 1590 m -22 X s 341 1605 m -22 X s 341 1617 m -22 X s 341 1627 m -22 X s 341 1636 m -22 X s 341 1644 m -22 X s 363 1651 m -44 X s 341 1697 m
 -22 X s 341 1723 m -22 X s 2179 584 m 1145 Y s 2157 630 m 22 X s 2157 657 m 22 X s 2157 676 m 22 X s 2157 691 m 22 X s 2157 703 m 22 X s 2157 713 m 22 X s 2157 722 m 22 X s 2157 730 m 22 X s 2136 737 m 43 X s 2157 783 m 22 X s 2157 809 m 22 X s 2157
 828 m 22 X s 2157 843 m 22 X s 2157 855 m 22 X s 2157 865 m 22 X s 2157 874 m 22 X s 2157 882 m 22 X s 2136 889 m 43 X s 2157 935 m 22 X s 2157 962 m 22 X s 2157 981 m 22 X s 2157 996 m 22 X s 2157 1008 m 22 X s 2157 1018 m 22 X s 2157 1027 m 22 X s
 2157 1034 m 22 X s 2136 1041 m 43 X s 2157 1087 m 22 X s 2157 1114 m 22 X s 2157 1133 m 22 X s 2157 1148 m 22 X s 2157 1160 m 22 X s 2157 1170 m 22 X s 2157 1179 m 22 X s 2157 1187 m 22 X s 2136 1194 m 43 X s 2157 1240 m 22 X s 2157 1266 m 22 X s
 2157 1285 m 22 X s 2157 1300 m 22 X s 2157 1312 m 22 X s 2157 1322 m 22 X s 2157 1331 m 22 X s 2157 1339 m 22 X s 2136 1346 m 43 X s 2157 1392 m 22 X s 2157 1419 m 22 X s 2157 1438 m 22 X s 2157 1453 m 22 X s 2157 1465 m 22 X s 2157 1475 m 22 X s
 2157 1484 m 22 X s 2157 1491 m 22 X s 2136 1498 m 43 X s 2157 1544 m 22 X s 2157 1571 m 22 X s 2157 1590 m 22 X s 2157 1605 m 22 X s 2157 1617 m 22 X s 2157 1627 m 22 X s 2157 1636 m 22 X s 2157 1644 m 22 X s 2136 1651 m 43 X s 2157 1697 m 22 X s
 2157 1723 m 22 X s
 gsave  2263 1770 2 313 C 406.765 1447.41 t 0 r /Helvetica findfont 64.4212 sf 0 0 m (SR for MB\255GGd) show NC gr 
 gsave  2263 1770 2 313 C 1464.36 1630.45 t 0 r /Helvetica findfont 64.4212 sf 0 0 m (SM Total) show NC gr  1 1 1 c 1338 1616 m 107 X 64 Y -107 X f 1 0 0 c 6 lw 1338 1648 m 107 X s black
 gsave  2263 1770 2 313 C 1464.36 1538.93 t 0 r /Helvetica findfont 64.4212 sf 0 0 m (Data) show NC gr  1391 1529 m 55 Y s 3 lw 1391 1557 m20 6 lw
 gsave  2263 1770 2 313 C 1464.36 1447.41 t 0 r /Helvetica findfont 64.4212 sf 0 0 m (W+jets) show NC gr  0.4 0.6 1 c 3 lw 1338 1434 m 107 X 64 Y -107 X f 6 lw black 3 lw 1338 1498 m 107 X s 1338 1434 m 107 X s 1445 1434 m 64 Y s 1338 1434 m 64 Y s
 gsave  2263 1770 2 313 C 1498.25 1355.88 t 0 r /Helvetica findfont 64.4212 sf 0 0 m (\(+EW\) & single top) show NC gr 
 gsave  2263 1770 2 313 C 1481.3 1355.88 t 0 r /Helvetica findfont 64.4212 sf 0 0 m (t) show NC gr  1481 1407 m 17 X s
 gsave  2263 1770 2 313 C 1464.36 1355.88 t 0 r /Helvetica findfont 64.4212 sf 0 0 m (t) show NC gr  0.6 1 0.6 c 1338 1343 m 107 X 63 Y -107 X f black 1338 1406 m 107 X s 1338 1343 m 107 X s 1445 1343 m 63 Y s 1338 1343 m 63 Y s
 gsave  2263 1770 2 313 C 1464.36 1264.36 t 0 r /Helvetica findfont 64.4212 sf 0 0 m (Z+jets) show NC gr  1 0.8 0.4 c 1338 1252 m 107 X 63 Y -107 X f black 1338 1315 m 107 X s 1338 1252 m 107 X s 1445 1252 m 63 Y s 1338 1252 m 63 Y s
 gsave  2263 1770 2 313 C 1464.36 1172.84 t 0 r /Helvetica findfont 64.4212 sf 0 0 m (Diboson) show NC gr  1 0.4 0.6 c 1338 1161 m 107 X 63 Y -107 X f black 1338 1224 m 107 X s 1338 1161 m 107 X s 1445 1161 m 63 Y s 1338 1161 m 63 Y s
 gsave  2263 1770 2 313 C 1464.36 1081.32 t 0 r /Helvetica findfont 64.4212 sf 0 0 m (Multi\255jet) show NC gr  0 0 0.4 c 1338 1070 m 107 X 63 Y -107 X f black 1338 1133 m 107 X s 1338 1070 m 107 X s 1445 1070 m 63 Y s 1338 1070 m 63 Y s
 gsave  2263 1770 2 313 C 911.832 1566.05 t 0 r /Helvetica findfont 44.0776 sf 0 0 m (\2551) show NC gr 
 gsave  2263 1770 2 313 C 471.17 1535.54 t 0 r /Helvetica findfont 64.4212 sf 0 0 m (=13TeV, 139 fb) show NC gr 
 gsave  2263 1770 2 313 C 440.662 1535.54 t 0 r /Helvetica findfont 64.4212 sf 0 0 m (s) show NC gr  6 lw 420 1573 m 7 -41 d s 3 lw 427 1532 m 7 61 d s 434 1593 m 37 X s 1 1 1 c 2254 561 2 2 bf black 1 1 1 c black 1860 358 318 187 bl 1 1 1 c black
 1860 358 318 187 bl 6 lw 1 1 1 c black 3 lw 364 353 m20 6 lw 3 lw 457 360 m20 6 lw 3 lw 550 347 m20 6 lw 3 lw 643 341 m20 6 lw 3 lw 736 364 m20 6 lw 3 lw 829 347 m20 6 lw 3 lw 923 324 m20 6 lw 3 lw 1016 312 m20 6 lw 3 lw 1109 337 m20 6 lw 3 lw 1202
 507 m20 6 lw 3 lw 1295 407 m20 6 lw 3 lw 318 187 m 1860 X s
 gsave  2254 561 2 2 C 1959.25 27.1177 t 0 r /Helvetica findfont 78.1689 sf 0 0 m ( [GeV]) show NC gr 
 gsave  2254 561 2 2 C 1854.17 64.4045 t 0 r /Helvetica findfont 50.9797 sf 0 0 m (miss) show NC gr 
 gsave  2254 561 2 2 C 1854.17 3.38971 t 0 r /Helvetica findfont 50.9797 sf 0 0 m (T) show NC gr 
 gsave  2254 561 2 2 C 1803.33 27.1177 t 0 r /Helvetica findfont 78.1689 sf 0 0 m (E) show NC gr  411 201 m -14 Y s 457 194 m -7 Y s 504 194 m -7 Y s 550 194 m -7 Y s 597 201 m -14 Y s 643 194 m -7 Y s 690 194 m -7 Y s 736 194 m -7 Y s 783 201 m -14
 Y s 829 194 m -7 Y s 876 194 m -7 Y s 923 194 m -7 Y s 969 201 m -14 Y s 1016 194 m -7 Y s 1062 194 m -7 Y s 1109 194 m -7 Y s 1155 201 m -14 Y s 1202 194 m -7 Y s 1248 194 m -7 Y s 1295 194 m -7 Y s 1341 201 m -14 Y s 1388 194 m -7 Y s 1434 194 m
 -7 Y s 1481 194 m -7 Y s 1527 201 m -14 Y s 1574 194 m -7 Y s 1620 194 m -7 Y s 1667 194 m -7 Y s 1713 201 m -14 Y s 1760 194 m -7 Y s 1806 194 m -7 Y s 1853 194 m -7 Y s 1899 201 m -14 Y s 1946 194 m -7 Y s 1992 194 m -7 Y s 2039 194 m -7 Y s 2085
 201 m -14 Y s 411 201 m -14 Y s 364 194 m -7 Y s 318 194 m -7 Y s 2085 201 m -14 Y s 2132 194 m -7 Y s
 gsave  2254 561 2 2 C 345.75 118.64 t 0 r /Helvetica findfont 78.1689 sf 0 0 m (400) show NC gr 
 gsave  2254 561 2 2 C 532.185 118.64 t 0 r /Helvetica findfont 78.1689 sf 0 0 m (600) show NC gr 
 gsave  2254 561 2 2 C 715.229 118.64 t 0 r /Helvetica findfont 78.1689 sf 0 0 m (800) show NC gr 
 gsave  2254 561 2 2 C 877.935 118.64 t 0 r /Helvetica findfont 78.1689 sf 0 0 m (1000) show NC gr 
 gsave  2254 561 2 2 C 1064.37 118.64 t 0 r /Helvetica findfont 78.1689 sf 0 0 m (1200) show NC gr 
 gsave  2254 561 2 2 C 1250.8 118.64 t 0 r /Helvetica findfont 78.1689 sf 0 0 m (1400) show NC gr 
 gsave  2254 561 2 2 C 1437.24 118.64 t 0 r /Helvetica findfont 78.1689 sf 0 0 m (1600) show NC gr 
 gsave  2254 561 2 2 C 1623.67 118.64 t 0 r /Helvetica findfont 78.1689 sf 0 0 m (1800) show NC gr 
 gsave  2254 561 2 2 C 1810.11 118.64 t 0 r /Helvetica findfont 78.1689 sf 0 0 m (2000) show NC gr 
 gsave  2254 561 2 2 C 1996.54 118.64 t 0 r /Helvetica findfont 78.1689 sf 0 0 m (2200) show NC gr  318 545 m 1860 X s 411 531 m 14 Y s 457 538 m 7 Y s 504 538 m 7 Y s 550 538 m 7 Y s 597 531 m 14 Y s 643 538 m 7 Y s 690 538 m 7 Y s 736 538 m 7 Y s
 783 531 m 14 Y s 829 538 m 7 Y s 876 538 m 7 Y s 923 538 m 7 Y s 969 531 m 14 Y s 1016 538 m 7 Y s 1062 538 m 7 Y s 1109 538 m 7 Y s 1155 531 m 14 Y s 1202 538 m 7 Y s 1248 538 m 7 Y s 1295 538 m 7 Y s 1341 531 m 14 Y s 1388 538 m 7 Y s 1434 538 m 7
 Y s 1481 538 m 7 Y s 1527 531 m 14 Y s 1574 538 m 7 Y s 1620 538 m 7 Y s 1667 538 m 7 Y s 1713 531 m 14 Y s 1760 538 m 7 Y s 1806 538 m 7 Y s 1853 538 m 7 Y s 1899 531 m 14 Y s 1946 538 m 7 Y s 1992 538 m 7 Y s 2039 538 m 7 Y s 2085 531 m 14 Y s 411
 531 m 14 Y s 364 538 m 7 Y s 318 538 m 7 Y s 2085 531 m 14 Y s 2132 538 m 7 Y s 318 187 m 358 Y s
 gsave  2254 561 2 2 C 166.096 284.736 t 90 r /Helvetica findfont 67.9729 sf 0 0 m (Data/SM) show NC gr  361 203 m -43 X s 339 220 m -21 X s 339 236 m -21 X s 339 252 m -21 X s 339 268 m -21 X s 361 285 m -43 X s 339 301 m -21 X s 339 317 m -21 X s
 339 334 m -21 X s 339 350 m -21 X s 361 366 m -43 X s 339 382 m -21 X s 339 399 m -21 X s 339 415 m -21 X s 339 431 m -21 X s 361 447 m -43 X s 339 464 m -21 X s 339 480 m -21 X s 339 496 m -21 X s 339 512 m -21 X s 361 529 m -43 X s 361 203 m -43 X
 s 339 187 m -21 X s 361 529 m -43 X s
 gsave  2254 561 2 2 C 261.008 183.044 t 0 r /Helvetica findfont 57.777 sf 0 0 m (0) show NC gr 
 gsave  2254 561 2 2 C 213.552 261.008 t 0 r /Helvetica findfont 57.777 sf 0 0 m (0.5) show NC gr 
 gsave  2254 561 2 2 C 271.177 342.361 t 0 r /Helvetica findfont 57.777 sf 0 0 m (1) show NC gr 
 gsave  2254 561 2 2 C 213.552 423.714 t 0 r /Helvetica findfont 57.777 sf 0 0 m (1.5) show NC gr 
 gsave  2254 561 2 2 C 261.008 505.067 t 0 r /Helvetica findfont 57.777 sf 0 0 m (2) show NC gr  2178 187 m 358 Y s 2135 203 m 43 X s 2157 220 m 21 X s 2157 236 m 21 X s 2157 252 m 21 X s 2157 268 m 21 X s 2135 285 m 43 X s 2157 301 m 21 X s 2157 317
 m 21 X s 2157 334 m 21 X s 2157 350 m 21 X s 2135 366 m 43 X s 2157 382 m 21 X s 2157 399 m 21 X s 2157 415 m 21 X s 2157 431 m 21 X s 2135 447 m 43 X s 2157 464 m 21 X s 2157 480 m 21 X s 2157 496 m 21 X s 2157 512 m 21 X s 2135 529 m 43 X s 2135
 203 m 43 X s 2157 187 m 21 X s 2135 529 m 43 X s 9 lw 736 378 m 7 Y s 736 385 m cl s 736 351 m -7 Y s 736 344 m cl s 829 361 m 15 Y s 829 376 m cl s 829 334 m -14 Y s 829 320 m cl s 923 337 m 24 Y s 923 361 m cl s 923 310 m -22 Y s 923 288 m cl s
 1016 326 m 38 Y s 1016 364 m cl s 1016 299 m -33 Y s 1016 266 m cl s 1109 351 m 58 Y s 1109 409 m cl s 1109 324 m -51 Y s 1109 273 m cl s 1202 521 m 24 Y s 1202 545 m cl s 1202 494 m -132 Y s 1202 362 m cl s 1295 421 m 124 Y s 1295 545 m cl s 1295
 394 m -155 Y s 1295 239 m cl s 3 lw 364 353 457 360 550 347 643 341 736 364 829 347 923 324 1016 312 1109 337 1202 507 1295 407 11 { m20} R 9 lw 1 0 0 c 6 lw black 3 lw 1 0 0 c 2178 227 m s 2178 255 m s 2178 284 m -20 -21 d s 2178 312 m -49 -49 d s
 2178 341 m -77 -78 d s 2178 369 m -93 -92 d s 2178 398 m -93 -93 d s 2178 427 m -118 -118 d s 2178 455 m -147 -146 d s 1992 270 m -12 -13 d s 2163 469 m -160 -160 d s 1992 298 m -41 -41 d s 2134 469 m -212 -212 d s 2106 469 m -21 -21 d s 2060 423 m
 -161 -160 d s 2031 423 m -138 -138 d s 2003 423 m -139 -138 d s 1992 441 m -156 -156 d s 1992 470 m -185 -185 d s 1968 475 m -162 -162 d s 1940 475 m -151 -150 d s 1911 475 m -12 -12 d s 1883 447 m -123 -122 d s 1854 447 m -122 -122 d s 1826 447 m
 -20 -19 d s 1786 407 m -93 -92 d s 1757 407 m -92 -92 d s 1729 407 m -93 -92 d s 1710 417 m -90 -89 d s 1681 417 m -90 -89 d s 1652 417 m -90 -89 d s 1624 417 m -4 -3 d s 1611 405 m -77 -77 d s 1527 321 m -12 -12 d s 1582 405 m -96 -96 d s 1554 405
 m -97 -96 d s 1527 407 m -109 -109 d s 1515 423 m -125 -125 d s 1487 423 m -126 -125 d s 1458 423 m -117 -116 d s 1434 428 m -98 -98 d s 1411 434 m -104 -104 d s 1382 434 m -104 -104 d s 1353 434 m -12 -13 d s 1321 402 m -71 -72 d s 1293 402 m -63
 -63 d s 1264 402 m -63 -63 d s 1226 393 m -53 -54 d s 1198 393 m -54 -54 d s 1169 393 m -54 -54 d s 1140 393 m -53 -54 d s 1111 393 m -49 -50 d s 1083 393 m -44 -44 d s 1044 383 m -33 -34 d s 1015 383 m -33 -34 d s 987 383 m -35 -35 d s 960 384 m
 -37 -36 d s 931 384 m -37 -36 d s 902 384 m -32 -32 d s 870 380 m -29 -28 d s 841 380 m -29 -28 d s 812 380 m -29 -28 d s 783 380 m s 781 378 m -24 -24 d s 753 378 m -25 -24 d s 724 378 m -25 -24 d s 695 378 m -23 -23 d s 665 377 m -21 -22 d s 636
 377 m -21 -22 d s 608 377 m -20 -20 d s 577 375 m -17 -18 d s 548 375 m -17 -18 d s 520 375 m -17 -17 d s 490 374 m -16 -16 d s 462 374 m -17 -16 d s 318 231 m s 433 374 m -16 -16 d s 318 259 m s 404 374 m -16 -16 d s 318 288 m s 375 374 m -15 -16 d
 s 318 317 m s 347 374 m -16 -16 d s 318 345 m s 318 374 m s 6 lw black[ 4 8] 0 sd 3 lw 318 447 m 1860 X s 318 285 m 1860 X s 1 0 0 c[  12 12 ] 0 sd 6 lw 318 366 m 1860 X s
 gr  gr showpage
end
%%EOF
