%!PS-Adobe-2.0 EPSF-2.0
%%BoundingBox:  0 0 567 521
%%Title: Distributions/met_distrVR0LmetSig_MB-GGd_beforeFit_forThesis.eps: canvas
%%Creator: ROOT Version 6.04/16
%%CreationDate: Tue May 19 22:02:04 2020
%%DocumentNeededResources: ProcSet (FontSetInit)
%%EndComments
%%BeginProlog
80 dict begin
/s {stroke} def /l {lineto} def /m {moveto} def /t {translate} def
/r {rotate} def /rl {roll}  def /R {repeat} def
/d {rlineto} def /rm {rmoveto} def /gr {grestore} def /f {eofill} def
/c {setrgbcolor} def /black {0 setgray} def /sd {setdash} def
/cl {closepath} def /sf {scalefont setfont} def /lw {setlinewidth} def
/box {m dup 0 exch d exch 0 d 0 exch neg d cl} def
/NC{systemdict begin initclip end}def/C{NC box clip newpath}def
/bl {box s} def /bf {gsave box gsave f grestore 1 lw [] 0 sd s grestore} def /Y { 0 exch d} def /X { 0 d} def 
/K {{pop pop 0 moveto} exch kshow} bind def
/ita {/ang 15 def gsave [1 0 ang dup sin exch cos div 1 0 0] concat} def 
/mp {newpath /y exch def /x exch def} def
/side {[w .77 mul w .23 mul] .385 w mul sd w 0 l currentpoint t -144 r} def
/mr {mp x y w2 0 360 arc} def /m24 {mr s} def /m20 {mr f} def
/mb {mp x y w2 add m w2 neg 0 d 0 w neg d w 0 d 0 w d cl} def
/mt {mp x y w2 add m w2 neg w neg d w 0 d cl} def
/m21 {mb f} def /m25 {mb s} def /m22 {mt f} def /m26{mt s} def
/m23 {mp x y w2 sub m w2 w d w neg 0 d cl f} def
/m27 {mp x y w2 add m w3 neg w2 neg d w3 w2 neg d w3 w2 d cl s} def
/m28 {mp x w2 sub y w2 sub w3 add m w3 0 d  0 w3 neg d w3 0 d 0 w3 d w3 0 d  0 w3 d w3 neg 0 d 0 w3 d w3 neg 0 d 0 w3 neg d w3 neg 0 d cl s } def
/m29 {mp gsave x w2 sub y w2 add w3 sub m currentpoint t 4 {side} repeat cl fill gr} def
/m30 {mp gsave x w2 sub y w2 add w3 sub m currentpoint t 4 {side} repeat cl s gr} def
/m31 {mp x y w2 sub m 0 w d x w2 sub y m w 0 d x w2 sub y w2 add m w w neg d x w2 sub y w2 sub m w w d s} def
/m32 {mp x y w2 sub m w2 w d w neg 0 d cl s} def
/m33 {mp x y w2 add m w3 neg w2 neg d w3 w2 neg d w3 w2 d cl f} def
/m34 {mp x w2 sub y w2 sub w3 add m w3 0 d  0 w3 neg d w3 0 d 0 w3 d w3 0 d  0 w3 d w3 neg 0 d 0 w3 d w3 neg 0 d 0 w3 neg d w3 neg 0 d cl f } def
/m2 {mp x y w2 sub m 0 w d x w2 sub y m w 0 d s} def
/m5 {mp x w2 sub y w2 sub m w w d x w2 sub y w2 add m w w neg d s} def
%%IncludeResource: ProcSet (FontSetInit)
%%IncludeResource: font Times-Roman
%%IncludeResource: font Times-Italic
%%IncludeResource: font Times-Bold
%%IncludeResource: font Times-BoldItalic
%%IncludeResource: font Helvetica
%%IncludeResource: font Helvetica-Oblique
%%IncludeResource: font Helvetica-Bold
%%IncludeResource: font Helvetica-BoldOblique
%%IncludeResource: font Courier
%%IncludeResource: font Courier-Oblique
%%IncludeResource: font Courier-Bold
%%IncludeResource: font Courier-BoldOblique
%%IncludeResource: font Symbol
%%IncludeResource: font ZapfDingbats
/reEncode {exch findfont dup length dict begin {1 index /FID eq  {pop pop} {def} ifelse } forall /Encoding exch def currentdict end dup /FontName get exch definefont pop } def [/Times-Bold /Times-Italic /Times-BoldItalic /Helvetica /Helvetica-Oblique
 /Helvetica-Bold /Helvetica-BoldOblique /Courier /Courier-Oblique /Courier-Bold /Courier-BoldOblique /Times-Roman /AvantGarde-Book /AvantGarde-BookOblique /AvantGarde-Demi /AvantGarde-DemiOblique /Bookman-Demi /Bookman-DemiItalic /Bookman-Light
 /Bookman-LightItalic /Helvetica-Narrow /Helvetica-Narrow-Bold /Helvetica-Narrow-BoldOblique /Helvetica-Narrow-Oblique /NewCenturySchlbk-Roman /NewCenturySchlbk-Bold /NewCenturySchlbk-BoldItalic /NewCenturySchlbk-Italic /Palatino-Bold
 /Palatino-BoldItalic /Palatino-Italic /Palatino-Roman ] {ISOLatin1Encoding reEncode } forall
%%EndProlog
%%BeginSetup
%%EndSetup
newpath  gsave  .25 .25 scale  gsave  0 0 t black[  ] 0 sd 3 lw 1 1 1 c 2268 2085 0 0 bf black 1 1 1 c 2263 1770 2 313 bf black 1 1 1 c black 1860 1145 319 584 bl 1 1 1 c black 1860 1145 319 584 bl 6 lw 1 1 1 c black 3 lw /w 33 def /w2 {w 2 div} def
 /w3 {w 3 div} def 366 1183 m20 6 lw 3 lw 459 1142 m20 6 lw 3 lw 552 1073 m20 6 lw 3 lw 645 1008 m20 6 lw 738 919 m 4 Y s 738 950 m 1 Y s 3 lw 738 937 m20 6 lw 831 807 m 27 Y s 831 861 m 11 Y s 3 lw 831 847 m20 6 lw 924 755 m 44 Y s 924 826 m 17 Y s
 3 lw 924 813 m20 6 lw 1017 703 m 69 Y s 1017 799 m 22 Y s 3 lw 1017 786 m20 6 lw 1110 584 m 141 Y s 1110 753 m 33 Y s 3 lw 1110 739 m20 6 lw 1203 584 m 141 Y s 1203 753 m 33 Y s 3 lw 1203 739 m20 6 lw 3 lw 319 584 m 1860 X s
 gsave  2263 1770 2 313 C 1949.08 355.92 t 0 r /Helvetica findfont 81.3741 sf 0 0 m ( [GeV]) show NC gr 
 gsave  2263 1770 2 313 C 1837.22 396.596 t 0 r /Helvetica findfont 54.2494 sf 0 0 m (miss) show NC gr 
 gsave  2263 1770 2 313 C 1837.22 332.192 t 0 r /Helvetica findfont 54.2494 sf 0 0 m (T) show NC gr 
 gsave  2263 1770 2 313 C 1786.38 355.92 t 0 r /Helvetica findfont 81.3741 sf 0 0 m (E) show NC gr  412 584 m cl s 459 584 m cl s 505 584 m cl s 552 584 m cl s 598 584 m cl s 645 584 m cl s 691 584 m cl s 738 584 m cl s 784 584 m cl s 831 584 m cl s
 877 584 m cl s 924 584 m cl s 970 584 m cl s 1017 584 m cl s 1063 584 m cl s 1110 584 m cl s 1156 584 m cl s 1203 584 m cl s 1249 584 m cl s 1296 584 m cl s 1342 584 m cl s 1389 584 m cl s 1435 584 m cl s 1482 584 m cl s 1528 584 m cl s 1575 584 m
 cl s 1621 584 m cl s 1668 584 m cl s 1714 584 m cl s 1761 584 m cl s 1807 584 m cl s 1854 584 m cl s 1900 584 m cl s 1947 584 m cl s 1993 584 m cl s 2040 584 m cl s 2086 584 m cl s 412 584 m cl s 366 584 m cl s 319 584 m cl s 2086 584 m cl s 2133
 584 m cl s 2179 584 m cl s 319 1729 m 1860 X s 412 1729 m cl s 459 1729 m cl s 505 1729 m cl s 552 1729 m cl s 598 1729 m cl s 645 1729 m cl s 691 1729 m cl s 738 1729 m cl s 784 1729 m cl s 831 1729 m cl s 877 1729 m cl s 924 1729 m cl s 970 1729 m
 cl s 1017 1729 m cl s 1063 1729 m cl s 1110 1729 m cl s 1156 1729 m cl s 1203 1729 m cl s 1249 1729 m cl s 1296 1729 m cl s 1342 1729 m cl s 1389 1729 m cl s 1435 1729 m cl s 1482 1729 m cl s 1528 1729 m cl s 1575 1729 m cl s 1621 1729 m cl s 1668
 1729 m cl s 1714 1729 m cl s 1761 1729 m cl s 1807 1729 m cl s 1854 1729 m cl s 1900 1729 m cl s 1947 1729 m cl s 1993 1729 m cl s 2040 1729 m cl s 2086 1729 m cl s 412 1729 m cl s 366 1729 m cl s 319 1729 m cl s 2086 1729 m cl s 2133 1729 m cl s
 2179 1729 m cl s 319 584 m 1145 Y s
 gsave  2263 1770 2 313 C 166.096 1091.49 t 90 r /Helvetica findfont 81.3741 sf 0 0 m (Events / 100 GeV) show NC gr  341 631 m -22 X s 341 658 m -22 X s 341 677 m -22 X s 341 692 m -22 X s 341 705 m -22 X s 341 715 m -22 X s 341 724 m -22 X s 341 732
 m -22 X s 363 739 m -44 X s
 gsave  2263 1770 2 313 C 300.555 711.88 t 0 r  -36 0 t /Helvetica findfont 64.4212 sf 0 0 m (1) show NC gr  341 786 m -22 X s 341 813 m -22 X s 341 832 m -22 X s 341 847 m -22 X s 341 859 m -22 X s 341 870 m -22 X s 341 879 m -22 X s 341 887 m -22 X
 s 363 894 m -44 X s
 gsave  2263 1770 2 313 C 300.555 866.569 t 0 r  -73 0 t /Helvetica findfont 64.4212 sf 0 0 m (10) show NC gr  341 940 m -22 X s 341 967 m -22 X s 341 987 m -22 X s 341 1002 m -22 X s 341 1014 m -22 X s 341 1024 m -22 X s 341 1033 m -22 X s 341 1041
 m -22 X s 363 1048 m -44 X s
 gsave  2263 1770 2 313 C 274.567 1047.42 t 0 r /Helvetica findfont 44.0776 sf 0 0 m (2) show NC gr 
 gsave  2263 1770 2 313 C 203.383 1020.3 t 0 r /Helvetica findfont 64.4212 sf 0 0 m (10) show NC gr  341 1095 m -22 X s 341 1122 m -22 X s 341 1142 m -22 X s 341 1156 m -22 X s 341 1169 m -22 X s 341 1179 m -22 X s 341 1188 m -22 X s 341 1196 m -22 X
 s 363 1203 m -44 X s
 gsave  2263 1770 2 313 C 274.567 1203.35 t 0 r /Helvetica findfont 44.0776 sf 0 0 m (3) show NC gr 
 gsave  2263 1770 2 313 C 203.383 1172.84 t 0 r /Helvetica findfont 64.4212 sf 0 0 m (10) show NC gr  341 1250 m -22 X s 341 1277 m -22 X s 341 1296 m -22 X s 341 1311 m -22 X s 341 1323 m -22 X s 341 1334 m -22 X s 341 1343 m -22 X s 341 1351 m -22
 X s 363 1358 m -44 X s
 gsave  2263 1770 2 313 C 274.567 1355.88 t 0 r /Helvetica findfont 44.0776 sf 0 0 m (4) show NC gr 
 gsave  2263 1770 2 313 C 203.383 1328.77 t 0 r /Helvetica findfont 64.4212 sf 0 0 m (10) show NC gr  341 1404 m -22 X s 341 1432 m -22 X s 341 1451 m -22 X s 341 1466 m -22 X s 341 1478 m -22 X s 341 1488 m -22 X s 341 1497 m -22 X s 341 1505 m -22
 X s 363 1512 m -44 X s
 gsave  2263 1770 2 313 C 274.567 1515.2 t 0 r /Helvetica findfont 44.0776 sf 0 0 m (5) show NC gr 
 gsave  2263 1770 2 313 C 203.383 1484.69 t 0 r /Helvetica findfont 64.4212 sf 0 0 m (10) show NC gr  341 1559 m -22 X s 341 1586 m -22 X s 341 1606 m -22 X s 341 1621 m -22 X s 341 1633 m -22 X s 341 1643 m -22 X s 341 1652 m -22 X s 341 1660 m -22
 X s 363 1667 m -44 X s
 gsave  2263 1770 2 313 C 274.567 1667.74 t 0 r /Helvetica findfont 44.0776 sf 0 0 m (6) show NC gr 
 gsave  2263 1770 2 313 C 203.383 1637.23 t 0 r /Helvetica findfont 64.4212 sf 0 0 m (10) show NC gr  341 1714 m -22 X s 2179 584 m 1145 Y s 2157 631 m 22 X s 2157 658 m 22 X s 2157 677 m 22 X s 2157 692 m 22 X s 2157 705 m 22 X s 2157 715 m 22 X s
 2157 724 m 22 X s 2157 732 m 22 X s 2136 739 m 43 X s 2157 786 m 22 X s 2157 813 m 22 X s 2157 832 m 22 X s 2157 847 m 22 X s 2157 859 m 22 X s 2157 870 m 22 X s 2157 879 m 22 X s 2157 887 m 22 X s 2136 894 m 43 X s 2157 940 m 22 X s 2157 967 m 22 X
 s 2157 987 m 22 X s 2157 1002 m 22 X s 2157 1014 m 22 X s 2157 1024 m 22 X s 2157 1033 m 22 X s 2157 1041 m 22 X s 2136 1048 m 43 X s 2157 1095 m 22 X s 2157 1122 m 22 X s 2157 1142 m 22 X s 2157 1156 m 22 X s 2157 1169 m 22 X s 2157 1179 m 22 X s
 2157 1188 m 22 X s 2157 1196 m 22 X s 2136 1203 m 43 X s 2157 1250 m 22 X s 2157 1277 m 22 X s 2157 1296 m 22 X s 2157 1311 m 22 X s 2157 1323 m 22 X s 2157 1334 m 22 X s 2157 1343 m 22 X s 2157 1351 m 22 X s 2136 1358 m 43 X s 2157 1404 m 22 X s
 2157 1432 m 22 X s 2157 1451 m 22 X s 2157 1466 m 22 X s 2157 1478 m 22 X s 2157 1488 m 22 X s 2157 1497 m 22 X s 2157 1505 m 22 X s 2136 1512 m 43 X s 2157 1559 m 22 X s 2157 1586 m 22 X s 2157 1606 m 22 X s 2157 1621 m 22 X s 2157 1633 m 22 X s
 2157 1643 m 22 X s 2157 1652 m 22 X s 2157 1660 m 22 X s 2136 1667 m 43 X s 2157 1714 m 22 X s 0.4 0.6 1 c black 0.4 0.6 1 c 319 584 m 607 Y 93 X -39 Y 93 X -65 Y 93 X -58 Y 93 X -65 Y 93 X -53 Y 93 X -49 Y 93 X -69 Y 93 X -4 Y 93 X -84 Y 93 X -58 Y
 93 X -62 Y 93 X 37 Y 93 X -38 Y 651 X f black 0.4 0.6 1 c black 319 1191 m 93 X -39 Y 93 X -65 Y 93 X -58 Y 93 X -65 Y 93 X -53 Y 93 X -49 Y 93 X -69 Y 93 X -4 Y 93 X -84 Y 93 X -58 Y 93 X -62 Y 93 X 37 Y 93 X -38 Y 651 X s 0.999 0.999 0.999 c black
 0.999 0.999 0.999 c 319 584 m 589 Y 93 X -39 Y 93 X -66 Y 93 X -58 Y 93 X -64 Y 93 X -49 Y 93 X -49 Y 93 X -86 Y 93 X 11 Y 93 X -84 Y 93 X -65 Y 93 X -40 Y 837 X f black 0.999 0.999 0.999 c black 319 1173 m 93 X -39 Y 93 X -66 Y 93 X -58 Y 93 X -64
 Y 93 X -49 Y 93 X -49 Y 93 X -86 Y 93 X 11 Y 93 X -84 Y 93 X -65 Y 93 X -40 Y 837 X s 1 1 1 c black 319 1173 m 93 X -39 Y 93 X -66 Y 93 X -58 Y 93 X -64 Y 93 X -49 Y 93 X -49 Y 93 X -86 Y 93 X 11 Y 93 X -84 Y 93 X -65 Y 93 X -40 Y 837 X s 0.6 1 0.6
 c black 0.6 1 0.6 c 319 584 m 589 Y 93 X -39 Y 93 X -66 Y 93 X -58 Y 93 X -64 Y 93 X -49 Y 93 X -49 Y 93 X -86 Y 93 X 11 Y 93 X -84 Y 93 X -65 Y 93 X -40 Y 837 X f black 0.6 1 0.6 c black 319 1173 m 93 X -39 Y 93 X -66 Y 93 X -58 Y 93 X -64 Y 93 X
 -49 Y 93 X -49 Y 93 X -86 Y 93 X 11 Y 93 X -84 Y 93 X -65 Y 93 X -40 Y 837 X s 0.999 0.999 0.999 c black 0.999 0.999 0.999 c 319 584 m 503 Y 93 X -24 Y 93 X -55 Y 93 X -53 Y 93 X -55 Y 93 X -40 Y 93 X -38 Y 93 X -96 Y 93 X 11 Y 93 X -71 Y 93 X -55 Y
 93 X -27 Y 837 X f black 0.999 0.999 0.999 c black 319 1087 m 93 X -24 Y 93 X -55 Y 93 X -53 Y 93 X -55 Y 93 X -40 Y 93 X -38 Y 93 X -96 Y 93 X 11 Y 93 X -71 Y 93 X -55 Y 93 X -27 Y 837 X s 1 1 1 c black 319 1087 m 93 X -24 Y 93 X -55 Y 93 X -53 Y
 93 X -55 Y 93 X -40 Y 93 X -38 Y 93 X -96 Y 93 X 11 Y 93 X -71 Y 93 X -55 Y 93 X -27 Y 837 X s 1 0.8 0.4 c black 1 0.8 0.4 c 319 584 m 503 Y 93 X -24 Y 93 X -55 Y 93 X -53 Y 93 X -55 Y 93 X -40 Y 93 X -38 Y 93 X -96 Y 93 X 11 Y 93 X -71 Y 93 X -55 Y
 93 X -27 Y 837 X f black 1 0.8 0.4 c black 319 1087 m 93 X -24 Y 93 X -55 Y 93 X -53 Y 93 X -55 Y 93 X -40 Y 93 X -38 Y 93 X -96 Y 93 X 11 Y 93 X -71 Y 93 X -55 Y 93 X -27 Y 837 X s 0.999 0.999 0.999 c black 0.999 0.999 0.999 c 319 584 m 408 Y 93 X
 -46 Y 93 X -70 Y 93 X -50 Y 93 X -47 Y 93 X -12 Y 93 X -71 Y 93 X -112 Y 93 X 41 Y 93 X -41 Y 1023 X f black 0.999 0.999 0.999 c black 319 992 m 93 X -46 Y 93 X -70 Y 93 X -50 Y 93 X -47 Y 93 X -12 Y 93 X -71 Y 93 X -112 Y 93 X 41 Y 93 X -41 Y 1023
 X s 1 1 1 c black 319 992 m 93 X -46 Y 93 X -70 Y 93 X -50 Y 93 X -47 Y 93 X -12 Y 93 X -71 Y 93 X -112 Y 93 X 41 Y 93 X -41 Y 1023 X s 1 0.4 0.6 c black 1 0.4 0.6 c 319 584 m 408 Y 93 X -46 Y 93 X -70 Y 93 X -50 Y 93 X -47 Y 93 X -12 Y 93 X -71 Y
 93 X -112 Y 93 X 41 Y 93 X -41 Y 1023 X f black 1 0.4 0.6 c black 319 992 m 93 X -46 Y 93 X -70 Y 93 X -50 Y 93 X -47 Y 93 X -12 Y 93 X -71 Y 93 X -112 Y 93 X 41 Y 93 X -41 Y 1023 X s 0.999 0.999 0.999 c black 0.999 0.999 0.999 c 319 584 m 352 Y 93
 X -78 Y 93 X -84 Y 93 X -90 Y 93 X -100 Y 1488 X f black 0.999 0.999 0.999 c black 319 936 m 93 X -78 Y 93 X -84 Y 93 X -90 Y 93 X -100 Y 1488 X s 1 1 1 c black 319 936 m 93 X -78 Y 93 X -84 Y 93 X -90 Y 93 X -100 Y 1488 X s 0 0 0.4 c black 0 0 0.4
 c 319 584 m 352 Y 93 X -78 Y 93 X -84 Y 93 X -90 Y 93 X -100 Y 1488 X f black 0 0 0.4 c black 319 936 m 93 X -78 Y 93 X -84 Y 93 X -90 Y 93 X -100 Y 1488 X s 1 0 0 c 6 lw 1 1 1 c black 1 0 0 c 319 1191 m 93 X -39 Y 93 X -65 Y 93 X -58 Y 93 X -65 Y
 93 X -53 Y 93 X -49 Y 93 X -69 Y 93 X -4 Y 93 X -84 Y 93 X -58 Y 93 X -62 Y 93 X 37 Y 93 X -38 Y 651 X s black 3 lw 1 0 0 c 1 lw << /PatternType 1 /PaintType 2 /TilingType 1 /BBox [ 0 0 100 100 ] /XStep 100 /YStep 100 /PaintProc { begin gsave 0 100
 m 100 0 l s gr end } >> [ 0.24 0 0 0.24 0 0 ] makepattern /P05 exch def /cs {[/Pattern /DeviceRGB] setcolorspace} def /FA {f [/DeviceRGB] setcolorspace} def cs 1 0 0 P05 setcolor 319 584 m 610 Y 93 X -39 Y 93 X -64 Y 93 X -56 Y 93 X -64 Y 93 X -47 Y
 93 X -48 Y 93 X -68 Y 93 X 2 Y 93 X -82 Y 93 X -65 Y 93 X -46 Y 93 X 72 Y 93 X -105 Y -186 X 41 Y -93 X 46 Y -93 X 89 Y -93 X 15 Y -93 X 71 Y -93 X 50 Y -93 X 60 Y -93 X 66 Y -93 X 60 Y -93 X 67 Y -93 X 39 Y -93 X -604 Y FA 6 lw 1 1 1 c 15 lw 831
 867 m 6 Y s 831 873 m cl s 831 827 m -18 Y s 831 809 m cl s 924 833 m 13 Y s 924 846 m cl s 924 792 m -32 Y s 924 760 m cl s 1017 806 m 20 Y s 1017 826 m cl s 1017 765 m -49 Y s 1017 716 m cl s 1110 759 m 36 Y s 1110 795 m cl s 1110 719 m -97 Y s
 1110 622 m cl s 1203 759 m 36 Y s 1203 795 m cl s 1203 719 m -97 Y s 1203 622 m cl s black 1 1 1 c 3 lw /w 43 def /w2 {w 2 div} def /w3 {w 3 div} def 366 1183 459 1142 552 1073 645 1008 738 937 831 847 924 813 1017 786 1110 739 1203 739 10 { m20} R
 15 lw black 6 lw 1 1 1 c black 3 lw /w 33 def /w2 {w 2 div} def /w3 {w 3 div} def 366 1183 m20 6 lw 3 lw 459 1142 m20 6 lw 3 lw 552 1073 m20 6 lw 3 lw 645 1008 m20 6 lw 738 919 m 4 Y s 738 950 m 1 Y s 3 lw 738 937 m20 6 lw 831 807 m 27 Y s 831 861 m
 11 Y s 3 lw 831 847 m20 6 lw 924 755 m 44 Y s 924 826 m 17 Y s 3 lw 924 813 m20 6 lw 1017 703 m 69 Y s 1017 799 m 22 Y s 3 lw 1017 786 m20 6 lw 1110 584 m 141 Y s 1110 753 m 33 Y s 3 lw 1110 739 m20 6 lw 1203 584 m 141 Y s 1203 753 m 33 Y s 3 lw
 1203 739 m20 6 lw 738 950 m 1 Y s 738 951 m cl s 738 923 m -3 Y s 738 920 m cl s 831 861 m 12 Y s 831 873 m cl s 831 834 m -25 Y s 831 809 m cl s 924 826 m 20 Y s 924 846 m cl s 924 799 m -39 Y s 924 760 m cl s 1017 799 m 27 Y s 1017 826 m cl s 1017
 772 m -56 Y s 1017 716 m cl s 1110 753 m 42 Y s 1110 795 m cl s 1110 725 m -103 Y s 1110 622 m cl s 1203 753 m 42 Y s 1203 795 m cl s 1203 725 m -103 Y s 1203 622 m cl s 3 lw 366 1183 459 1142 552 1073 645 1008 738 937 831 847 924 813 1017 786 1110
 739 1203 739 10 { m20} R 6 lw 3 lw 319 584 m 1860 X s 412 584 m cl s 459 584 m cl s 505 584 m cl s 552 584 m cl s 598 584 m cl s 645 584 m cl s 691 584 m cl s 738 584 m cl s 784 584 m cl s 831 584 m cl s 877 584 m cl s 924 584 m cl s 970 584 m cl s
 1017 584 m cl s 1063 584 m cl s 1110 584 m cl s 1156 584 m cl s 1203 584 m cl s 1249 584 m cl s 1296 584 m cl s 1342 584 m cl s 1389 584 m cl s 1435 584 m cl s 1482 584 m cl s 1528 584 m cl s 1575 584 m cl s 1621 584 m cl s 1668 584 m cl s 1714 584
 m cl s 1761 584 m cl s 1807 584 m cl s 1854 584 m cl s 1900 584 m cl s 1947 584 m cl s 1993 584 m cl s 2040 584 m cl s 2086 584 m cl s 412 584 m cl s 366 584 m cl s 319 584 m cl s 2086 584 m cl s 2133 584 m cl s 2179 584 m cl s 319 1729 m 1860 X s
 412 1729 m cl s 459 1729 m cl s 505 1729 m cl s 552 1729 m cl s 598 1729 m cl s 645 1729 m cl s 691 1729 m cl s 738 1729 m cl s 784 1729 m cl s 831 1729 m cl s 877 1729 m cl s 924 1729 m cl s 970 1729 m cl s 1017 1729 m cl s 1063 1729 m cl s 1110
 1729 m cl s 1156 1729 m cl s 1203 1729 m cl s 1249 1729 m cl s 1296 1729 m cl s 1342 1729 m cl s 1389 1729 m cl s 1435 1729 m cl s 1482 1729 m cl s 1528 1729 m cl s 1575 1729 m cl s 1621 1729 m cl s 1668 1729 m cl s 1714 1729 m cl s 1761 1729 m cl s
 1807 1729 m cl s 1854 1729 m cl s 1900 1729 m cl s 1947 1729 m cl s 1993 1729 m cl s 2040 1729 m cl s 2086 1729 m cl s 412 1729 m cl s 366 1729 m cl s 319 1729 m cl s 2086 1729 m cl s 2133 1729 m cl s 2179 1729 m cl s 319 584 m 1145 Y s 341 631 m
 -22 X s 341 658 m -22 X s 341 677 m -22 X s 341 692 m -22 X s 341 705 m -22 X s 341 715 m -22 X s 341 724 m -22 X s 341 732 m -22 X s 363 739 m -44 X s 341 786 m -22 X s 341 813 m -22 X s 341 832 m -22 X s 341 847 m -22 X s 341 859 m -22 X s 341 870
 m -22 X s 341 879 m -22 X s 341 887 m -22 X s 363 894 m -44 X s 341 940 m -22 X s 341 967 m -22 X s 341 987 m -22 X s 341 1002 m -22 X s 341 1014 m -22 X s 341 1024 m -22 X s 341 1033 m -22 X s 341 1041 m -22 X s 363 1048 m -44 X s 341 1095 m -22 X
 s 341 1122 m -22 X s 341 1142 m -22 X s 341 1156 m -22 X s 341 1169 m -22 X s 341 1179 m -22 X s 341 1188 m -22 X s 341 1196 m -22 X s 363 1203 m -44 X s 341 1250 m -22 X s 341 1277 m -22 X s 341 1296 m -22 X s 341 1311 m -22 X s 341 1323 m -22 X s
 341 1334 m -22 X s 341 1343 m -22 X s 341 1351 m -22 X s 363 1358 m -44 X s 341 1404 m -22 X s 341 1432 m -22 X s 341 1451 m -22 X s 341 1466 m -22 X s 341 1478 m -22 X s 341 1488 m -22 X s 341 1497 m -22 X s 341 1505 m -22 X s 363 1512 m -44 X s
 341 1559 m -22 X s 341 1586 m -22 X s 341 1606 m -22 X s 341 1621 m -22 X s 341 1633 m -22 X s 341 1643 m -22 X s 341 1652 m -22 X s 341 1660 m -22 X s 363 1667 m -44 X s 341 1714 m -22 X s 2179 584 m 1145 Y s 2157 631 m 22 X s 2157 658 m 22 X s
 2157 677 m 22 X s 2157 692 m 22 X s 2157 705 m 22 X s 2157 715 m 22 X s 2157 724 m 22 X s 2157 732 m 22 X s 2136 739 m 43 X s 2157 786 m 22 X s 2157 813 m 22 X s 2157 832 m 22 X s 2157 847 m 22 X s 2157 859 m 22 X s 2157 870 m 22 X s 2157 879 m 22 X
 s 2157 887 m 22 X s 2136 894 m 43 X s 2157 940 m 22 X s 2157 967 m 22 X s 2157 987 m 22 X s 2157 1002 m 22 X s 2157 1014 m 22 X s 2157 1024 m 22 X s 2157 1033 m 22 X s 2157 1041 m 22 X s 2136 1048 m 43 X s 2157 1095 m 22 X s 2157 1122 m 22 X s 2157
 1142 m 22 X s 2157 1156 m 22 X s 2157 1169 m 22 X s 2157 1179 m 22 X s 2157 1188 m 22 X s 2157 1196 m 22 X s 2136 1203 m 43 X s 2157 1250 m 22 X s 2157 1277 m 22 X s 2157 1296 m 22 X s 2157 1311 m 22 X s 2157 1323 m 22 X s 2157 1334 m 22 X s 2157
 1343 m 22 X s 2157 1351 m 22 X s 2136 1358 m 43 X s 2157 1404 m 22 X s 2157 1432 m 22 X s 2157 1451 m 22 X s 2157 1466 m 22 X s 2157 1478 m 22 X s 2157 1488 m 22 X s 2157 1497 m 22 X s 2157 1505 m 22 X s 2136 1512 m 43 X s 2157 1559 m 22 X s 2157
 1586 m 22 X s 2157 1606 m 22 X s 2157 1621 m 22 X s 2157 1633 m 22 X s 2157 1643 m 22 X s 2157 1652 m 22 X s 2157 1660 m 22 X s 2136 1667 m 43 X s 2157 1714 m 22 X s
 gsave  2263 1770 2 313 C 406.765 1447.41 t 0 r /Helvetica findfont 64.4212 sf 0 0 m (VR0LmetSig for MB\255GGd) show NC gr 
 gsave  2263 1770 2 313 C 1464.36 1630.45 t 0 r /Helvetica findfont 64.4212 sf 0 0 m (SM Total) show NC gr  1 1 1 c 1338 1616 m 107 X 64 Y -107 X f 1 0 0 c 6 lw 1338 1648 m 107 X s black
 gsave  2263 1770 2 313 C 1464.36 1538.93 t 0 r /Helvetica findfont 64.4212 sf 0 0 m (Data) show NC gr  1391 1529 m 55 Y s 3 lw 1391 1557 m20 6 lw
 gsave  2263 1770 2 313 C 1464.36 1447.41 t 0 r /Helvetica findfont 64.4212 sf 0 0 m (W+jets) show NC gr  0.4 0.6 1 c 3 lw 1338 1434 m 107 X 64 Y -107 X f 6 lw black 3 lw 1338 1498 m 107 X s 1338 1434 m 107 X s 1445 1434 m 64 Y s 1338 1434 m 64 Y s
 gsave  2263 1770 2 313 C 1498.25 1355.88 t 0 r /Helvetica findfont 64.4212 sf 0 0 m (\(+EW\) & single top) show NC gr 
 gsave  2263 1770 2 313 C 1481.3 1355.88 t 0 r /Helvetica findfont 64.4212 sf 0 0 m (t) show NC gr  1481 1407 m 17 X s
 gsave  2263 1770 2 313 C 1464.36 1355.88 t 0 r /Helvetica findfont 64.4212 sf 0 0 m (t) show NC gr  0.6 1 0.6 c 1338 1343 m 107 X 63 Y -107 X f black 1338 1406 m 107 X s 1338 1343 m 107 X s 1445 1343 m 63 Y s 1338 1343 m 63 Y s
 gsave  2263 1770 2 313 C 1464.36 1264.36 t 0 r /Helvetica findfont 64.4212 sf 0 0 m (Z+jets) show NC gr  1 0.8 0.4 c 1338 1252 m 107 X 63 Y -107 X f black 1338 1315 m 107 X s 1338 1252 m 107 X s 1445 1252 m 63 Y s 1338 1252 m 63 Y s
 gsave  2263 1770 2 313 C 1464.36 1172.84 t 0 r /Helvetica findfont 64.4212 sf 0 0 m (Diboson) show NC gr  1 0.4 0.6 c 1338 1161 m 107 X 63 Y -107 X f black 1338 1224 m 107 X s 1338 1161 m 107 X s 1445 1161 m 63 Y s 1338 1161 m 63 Y s
 gsave  2263 1770 2 313 C 1464.36 1081.32 t 0 r /Helvetica findfont 64.4212 sf 0 0 m (Multi\255jet) show NC gr  0 0 0.4 c 1338 1070 m 107 X 63 Y -107 X f black 1338 1133 m 107 X s 1338 1070 m 107 X s 1445 1070 m 63 Y s 1338 1070 m 63 Y s
 gsave  2263 1770 2 313 C 911.832 1566.05 t 0 r /Helvetica findfont 44.0776 sf 0 0 m (\2551) show NC gr 
 gsave  2263 1770 2 313 C 471.17 1535.54 t 0 r /Helvetica findfont 64.4212 sf 0 0 m (=13TeV, 139 fb) show NC gr 
 gsave  2263 1770 2 313 C 440.662 1535.54 t 0 r /Helvetica findfont 64.4212 sf 0 0 m (s) show NC gr  6 lw 420 1573 m 7 -41 d s 3 lw 427 1532 m 7 61 d s 434 1593 m 37 X s 1 1 1 c 2254 561 2 2 bf black 1 1 1 c black 1860 358 318 187 bl 1 1 1 c black
 1860 358 318 187 bl 6 lw 1 1 1 c black 3 lw 364 349 m20 6 lw 3 lw 457 343 m20 6 lw 3 lw 550 336 m20 6 lw 3 lw 643 323 m20 6 lw 3 lw 736 312 m20 6 lw 3 lw 829 266 m20 6 lw 3 lw 923 281 m20 6 lw 3 lw 1016 348 m20 6 lw 3 lw 1109 280 m20 6 lw 3 lw 1202
 472 m20 6 lw 3 lw 318 187 m 1860 X s
 gsave  2254 561 2 2 C 1959.25 27.1177 t 0 r /Helvetica findfont 78.1689 sf 0 0 m ( [GeV]) show NC gr 
 gsave  2254 561 2 2 C 1854.17 64.4045 t 0 r /Helvetica findfont 50.9797 sf 0 0 m (miss) show NC gr 
 gsave  2254 561 2 2 C 1854.17 3.38971 t 0 r /Helvetica findfont 50.9797 sf 0 0 m (T) show NC gr 
 gsave  2254 561 2 2 C 1803.33 27.1177 t 0 r /Helvetica findfont 78.1689 sf 0 0 m (E) show NC gr  411 201 m -14 Y s 457 194 m -7 Y s 504 194 m -7 Y s 550 194 m -7 Y s 597 201 m -14 Y s 643 194 m -7 Y s 690 194 m -7 Y s 736 194 m -7 Y s 783 201 m -14
 Y s 829 194 m -7 Y s 876 194 m -7 Y s 923 194 m -7 Y s 969 201 m -14 Y s 1016 194 m -7 Y s 1062 194 m -7 Y s 1109 194 m -7 Y s 1155 201 m -14 Y s 1202 194 m -7 Y s 1248 194 m -7 Y s 1295 194 m -7 Y s 1341 201 m -14 Y s 1388 194 m -7 Y s 1434 194 m
 -7 Y s 1481 194 m -7 Y s 1527 201 m -14 Y s 1574 194 m -7 Y s 1620 194 m -7 Y s 1667 194 m -7 Y s 1713 201 m -14 Y s 1760 194 m -7 Y s 1806 194 m -7 Y s 1853 194 m -7 Y s 1899 201 m -14 Y s 1946 194 m -7 Y s 1992 194 m -7 Y s 2039 194 m -7 Y s 2085
 201 m -14 Y s 411 201 m -14 Y s 364 194 m -7 Y s 318 194 m -7 Y s 2085 201 m -14 Y s 2132 194 m -7 Y s
 gsave  2254 561 2 2 C 345.75 118.64 t 0 r /Helvetica findfont 78.1689 sf 0 0 m (400) show NC gr 
 gsave  2254 561 2 2 C 532.185 118.64 t 0 r /Helvetica findfont 78.1689 sf 0 0 m (600) show NC gr 
 gsave  2254 561 2 2 C 715.229 118.64 t 0 r /Helvetica findfont 78.1689 sf 0 0 m (800) show NC gr 
 gsave  2254 561 2 2 C 877.935 118.64 t 0 r /Helvetica findfont 78.1689 sf 0 0 m (1000) show NC gr 
 gsave  2254 561 2 2 C 1064.37 118.64 t 0 r /Helvetica findfont 78.1689 sf 0 0 m (1200) show NC gr 
 gsave  2254 561 2 2 C 1250.8 118.64 t 0 r /Helvetica findfont 78.1689 sf 0 0 m (1400) show NC gr 
 gsave  2254 561 2 2 C 1437.24 118.64 t 0 r /Helvetica findfont 78.1689 sf 0 0 m (1600) show NC gr 
 gsave  2254 561 2 2 C 1623.67 118.64 t 0 r /Helvetica findfont 78.1689 sf 0 0 m (1800) show NC gr 
 gsave  2254 561 2 2 C 1810.11 118.64 t 0 r /Helvetica findfont 78.1689 sf 0 0 m (2000) show NC gr 
 gsave  2254 561 2 2 C 1996.54 118.64 t 0 r /Helvetica findfont 78.1689 sf 0 0 m (2200) show NC gr  318 545 m 1860 X s 411 531 m 14 Y s 457 538 m 7 Y s 504 538 m 7 Y s 550 538 m 7 Y s 597 531 m 14 Y s 643 538 m 7 Y s 690 538 m 7 Y s 736 538 m 7 Y s
 783 531 m 14 Y s 829 538 m 7 Y s 876 538 m 7 Y s 923 538 m 7 Y s 969 531 m 14 Y s 1016 538 m 7 Y s 1062 538 m 7 Y s 1109 538 m 7 Y s 1155 531 m 14 Y s 1202 538 m 7 Y s 1248 538 m 7 Y s 1295 538 m 7 Y s 1341 531 m 14 Y s 1388 538 m 7 Y s 1434 538 m 7
 Y s 1481 538 m 7 Y s 1527 531 m 14 Y s 1574 538 m 7 Y s 1620 538 m 7 Y s 1667 538 m 7 Y s 1713 531 m 14 Y s 1760 538 m 7 Y s 1806 538 m 7 Y s 1853 538 m 7 Y s 1899 531 m 14 Y s 1946 538 m 7 Y s 1992 538 m 7 Y s 2039 538 m 7 Y s 2085 531 m 14 Y s 411
 531 m 14 Y s 364 538 m 7 Y s 318 538 m 7 Y s 2085 531 m 14 Y s 2132 538 m 7 Y s 318 187 m 358 Y s
 gsave  2254 561 2 2 C 166.096 284.736 t 90 r /Helvetica findfont 67.9729 sf 0 0 m (Data/SM) show NC gr  361 203 m -43 X s 339 220 m -21 X s 339 236 m -21 X s 339 252 m -21 X s 339 268 m -21 X s 361 285 m -43 X s 339 301 m -21 X s 339 317 m -21 X s
 339 334 m -21 X s 339 350 m -21 X s 361 366 m -43 X s 339 382 m -21 X s 339 399 m -21 X s 339 415 m -21 X s 339 431 m -21 X s 361 447 m -43 X s 339 464 m -21 X s 339 480 m -21 X s 339 496 m -21 X s 339 512 m -21 X s 361 529 m -43 X s 361 203 m -43 X
 s 339 187 m -21 X s 361 529 m -43 X s
 gsave  2254 561 2 2 C 261.008 183.044 t 0 r /Helvetica findfont 57.777 sf 0 0 m (0) show NC gr 
 gsave  2254 561 2 2 C 213.552 261.008 t 0 r /Helvetica findfont 57.777 sf 0 0 m (0.5) show NC gr 
 gsave  2254 561 2 2 C 271.177 342.361 t 0 r /Helvetica findfont 57.777 sf 0 0 m (1) show NC gr 
 gsave  2254 561 2 2 C 213.552 423.714 t 0 r /Helvetica findfont 57.777 sf 0 0 m (1.5) show NC gr 
 gsave  2254 561 2 2 C 261.008 505.067 t 0 r /Helvetica findfont 57.777 sf 0 0 m (2) show NC gr  2178 187 m 358 Y s 2135 203 m 43 X s 2157 220 m 21 X s 2157 236 m 21 X s 2157 252 m 21 X s 2157 268 m 21 X s 2135 285 m 43 X s 2157 301 m 21 X s 2157 317
 m 21 X s 2157 334 m 21 X s 2157 350 m 21 X s 2135 366 m 43 X s 2157 382 m 21 X s 2157 399 m 21 X s 2157 415 m 21 X s 2157 431 m 21 X s 2135 447 m 43 X s 2157 464 m 21 X s 2157 480 m 21 X s 2157 496 m 21 X s 2157 512 m 21 X s 2135 529 m 43 X s 2135
 203 m 43 X s 2157 187 m 21 X s 2135 529 m 43 X s 9 lw 643 337 m 2 Y s 643 339 m cl s 643 310 m -3 Y s 643 307 m cl s 736 325 m 12 Y s 736 337 m cl s 736 298 m -11 Y s 736 287 m cl s 829 280 m 16 Y s 829 296 m cl s 829 253 m -14 Y s 829 239 m cl s
 923 295 m 36 Y s 923 331 m cl s 923 268 m -29 Y s 923 239 m cl s 1016 362 m 104 Y s 1016 466 m cl s 1016 335 m -80 Y s 1016 255 m cl s 1109 294 m 85 Y s 1109 379 m cl s 1109 267 m -50 Y s 1109 217 m cl s 1202 485 m 60 Y s 1202 545 m cl s 1202 458 m
 -208 Y s 1202 250 m cl s 3 lw 364 349 457 343 550 336 643 323 736 312 829 266 923 281 1016 348 1109 280 1202 472 10 { m20} R 9 lw 1 0 0 c 6 lw black 3 lw 1 0 0 c 2178 227 m s 2178 255 m s 2178 284 m -18 -18 d s 2178 312 m -46 -46 d s 2178 341 m -75
 -75 d s 2178 369 m -93 -92 d s 2178 398 m -107 -107 d s 2178 427 m -135 -136 d s 1992 241 m -15 -15 d s 2178 455 m -164 -164 d s 1992 270 m -44 -44 d s 2161 466 m -242 -240 d s 2132 466 m -233 -232 d s 2104 466 m -19 -18 d s 2078 441 m -192 -191 d s
 2049 441 m -192 -191 d s 2020 441 m -191 -191 d s 1992 441 m -186 -185 d s 1992 470 m -205 -205 d s 1992 499 m -234 -234 d s 1971 506 m -241 -241 d s 1943 506 m -230 -228 d s 1914 506 m -15 -14 d s 1890 482 m -200 -199 d s 1861 482 m -199 -199 d s
 1833 482 m -200 -199 d s 1788 467 m -174 -174 d s 1527 207 m -19 -20 d s 1759 467 m -174 -174 d s 1527 235 m -48 -48 d s 1731 467 m -18 -18 d s 1713 449 m -157 -156 d s 1527 264 m -77 -77 d s 1684 449 m -156 -156 d s 1527 292 m -93 -92 d s 1655 449
 m -221 -221 d s 1627 449 m -7 -7 d s 1617 439 m -183 -182 d s 1588 439 m -172 -172 d s 1560 439 m -173 -172 d s 1531 439 m -172 -172 d s 1527 464 m -186 -186 d s 1527 493 m -186 -186 d s 1527 521 m -201 -200 d s 1522 545 m -224 -224 d s 1494 545 m
 -60 -59 d s 1413 465 m -144 -144 d s 1465 545 m -31 -31 d s 1385 465 m -44 -44 d s 1331 411 m -110 -109 d s 1436 545 m -2 -2 d s 1356 465 m -15 -15 d s 1302 411 m -110 -109 d s 1273 411 m -109 -109 d s 1248 415 m -107 -107 d s 1235 430 m -123 -122 d
 s 1207 430 m -123 -122 d s 1178 430 m -116 -115 d s 1143 424 m -98 -97 d s 1114 424 m -98 -97 d s 1086 424 m -98 -97 d s 1038 405 m -75 -75 d s 1010 405 m -76 -75 d s 981 405 m -76 -75 d s 948 402 m -71 -72 d s 920 402 m -69 -69 d s 891 402 m -69
 -69 d s 860 399 m -67 -66 d s 831 399 m -52 -52 d s 802 399 m -52 -52 d s 759 385 m -37 -38 d s 731 385 m -38 -38 d s 702 385 m -34 -34 d s 669 381 m -30 -30 d s 641 381 m -30 -30 d s 612 381 m -25 -25 d s 579 376 m -21 -20 d s 550 376 m -21 -20 d s
 521 376 m -18 -18 d s 490 374 m -15 -16 d s 461 374 m -15 -16 d s 318 231 m s 432 374 m -15 -16 d s 318 259 m s 404 374 m -15 -15 d s 318 288 m s 375 374 m -15 -15 d s 318 317 m s 346 374 m -15 -15 d s 318 345 m s 6 lw black[ 4 8] 0 sd 3 lw 318 447
 m 1860 X s 318 285 m 1860 X s 1 0 0 c[  12 12 ] 0 sd 6 lw 318 366 m 1860 X s
 gr  gr showpage
end
%%EOF
