%!PS-Adobe-2.0 EPSF-2.0
%%BoundingBox:  0 0 567 521
%%Title: Distributions/met_distrVR0LmetSig_MB-C_afterFit_forThesis.eps: canvas
%%Creator: ROOT Version 6.04/16
%%CreationDate: Tue May 19 22:02:07 2020
%%DocumentNeededResources: ProcSet (FontSetInit)
%%EndComments
%%BeginProlog
80 dict begin
/s {stroke} def /l {lineto} def /m {moveto} def /t {translate} def
/r {rotate} def /rl {roll}  def /R {repeat} def
/d {rlineto} def /rm {rmoveto} def /gr {grestore} def /f {eofill} def
/c {setrgbcolor} def /black {0 setgray} def /sd {setdash} def
/cl {closepath} def /sf {scalefont setfont} def /lw {setlinewidth} def
/box {m dup 0 exch d exch 0 d 0 exch neg d cl} def
/NC{systemdict begin initclip end}def/C{NC box clip newpath}def
/bl {box s} def /bf {gsave box gsave f grestore 1 lw [] 0 sd s grestore} def /Y { 0 exch d} def /X { 0 d} def 
/K {{pop pop 0 moveto} exch kshow} bind def
/ita {/ang 15 def gsave [1 0 ang dup sin exch cos div 1 0 0] concat} def 
/mp {newpath /y exch def /x exch def} def
/side {[w .77 mul w .23 mul] .385 w mul sd w 0 l currentpoint t -144 r} def
/mr {mp x y w2 0 360 arc} def /m24 {mr s} def /m20 {mr f} def
/mb {mp x y w2 add m w2 neg 0 d 0 w neg d w 0 d 0 w d cl} def
/mt {mp x y w2 add m w2 neg w neg d w 0 d cl} def
/m21 {mb f} def /m25 {mb s} def /m22 {mt f} def /m26{mt s} def
/m23 {mp x y w2 sub m w2 w d w neg 0 d cl f} def
/m27 {mp x y w2 add m w3 neg w2 neg d w3 w2 neg d w3 w2 d cl s} def
/m28 {mp x w2 sub y w2 sub w3 add m w3 0 d  0 w3 neg d w3 0 d 0 w3 d w3 0 d  0 w3 d w3 neg 0 d 0 w3 d w3 neg 0 d 0 w3 neg d w3 neg 0 d cl s } def
/m29 {mp gsave x w2 sub y w2 add w3 sub m currentpoint t 4 {side} repeat cl fill gr} def
/m30 {mp gsave x w2 sub y w2 add w3 sub m currentpoint t 4 {side} repeat cl s gr} def
/m31 {mp x y w2 sub m 0 w d x w2 sub y m w 0 d x w2 sub y w2 add m w w neg d x w2 sub y w2 sub m w w d s} def
/m32 {mp x y w2 sub m w2 w d w neg 0 d cl s} def
/m33 {mp x y w2 add m w3 neg w2 neg d w3 w2 neg d w3 w2 d cl f} def
/m34 {mp x w2 sub y w2 sub w3 add m w3 0 d  0 w3 neg d w3 0 d 0 w3 d w3 0 d  0 w3 d w3 neg 0 d 0 w3 d w3 neg 0 d 0 w3 neg d w3 neg 0 d cl f } def
/m2 {mp x y w2 sub m 0 w d x w2 sub y m w 0 d s} def
/m5 {mp x w2 sub y w2 sub m w w d x w2 sub y w2 add m w w neg d s} def
%%IncludeResource: ProcSet (FontSetInit)
%%IncludeResource: font Times-Roman
%%IncludeResource: font Times-Italic
%%IncludeResource: font Times-Bold
%%IncludeResource: font Times-BoldItalic
%%IncludeResource: font Helvetica
%%IncludeResource: font Helvetica-Oblique
%%IncludeResource: font Helvetica-Bold
%%IncludeResource: font Helvetica-BoldOblique
%%IncludeResource: font Courier
%%IncludeResource: font Courier-Oblique
%%IncludeResource: font Courier-Bold
%%IncludeResource: font Courier-BoldOblique
%%IncludeResource: font Symbol
%%IncludeResource: font ZapfDingbats
/reEncode {exch findfont dup length dict begin {1 index /FID eq  {pop pop} {def} ifelse } forall /Encoding exch def currentdict end dup /FontName get exch definefont pop } def [/Times-Bold /Times-Italic /Times-BoldItalic /Helvetica /Helvetica-Oblique
 /Helvetica-Bold /Helvetica-BoldOblique /Courier /Courier-Oblique /Courier-Bold /Courier-BoldOblique /Times-Roman /AvantGarde-Book /AvantGarde-BookOblique /AvantGarde-Demi /AvantGarde-DemiOblique /Bookman-Demi /Bookman-DemiItalic /Bookman-Light
 /Bookman-LightItalic /Helvetica-Narrow /Helvetica-Narrow-Bold /Helvetica-Narrow-BoldOblique /Helvetica-Narrow-Oblique /NewCenturySchlbk-Roman /NewCenturySchlbk-Bold /NewCenturySchlbk-BoldItalic /NewCenturySchlbk-Italic /Palatino-Bold
 /Palatino-BoldItalic /Palatino-Italic /Palatino-Roman ] {ISOLatin1Encoding reEncode } forall
%%EndProlog
%%BeginSetup
%%EndSetup
newpath  gsave  .25 .25 scale  gsave  0 0 t black[  ] 0 sd 3 lw 1 1 1 c 2268 2085 0 0 bf black 1 1 1 c 2263 1770 2 313 bf black 1 1 1 c black 1860 1145 319 584 bl 1 1 1 c black 1860 1145 319 584 bl 6 lw 1 1 1 c black 3 lw /w 33 def /w2 {w 2 div} def
 /w3 {w 3 div} def 552 1034 m20 6 lw 3 lw 645 1094 m20 6 lw 3 lw 738 1087 m20 6 lw 3 lw 831 1036 m20 6 lw 3 lw 924 993 m20 6 lw 1017 915 m s 3 lw 1017 928 m20 6 lw 1110 873 m 6 Y s 1110 906 m 1 Y s 3 lw 1110 892 m20 6 lw 1203 855 m 9 Y s 1203 891 m 3
 Y s 3 lw 1203 877 m20 6 lw 1296 820 m 16 Y s 1296 863 m 6 Y s 3 lw 1296 849 m20 6 lw 1389 771 m 30 Y s 1389 828 m 11 Y s 3 lw 1389 814 m20 6 lw 1482 694 m 63 Y s 1482 785 m 19 Y s 3 lw 1482 771 m20 6 lw 1761 694 m 63 Y s 1761 785 m 19 Y s 3 lw 1761
 771 m20 6 lw 3 lw 319 584 m 1860 X s
 gsave  2263 1770 2 313 C 1949.08 355.92 t 0 r /Helvetica findfont 81.3741 sf 0 0 m ( [GeV]) show NC gr 
 gsave  2263 1770 2 313 C 1837.22 396.596 t 0 r /Helvetica findfont 54.2494 sf 0 0 m (miss) show NC gr 
 gsave  2263 1770 2 313 C 1837.22 332.192 t 0 r /Helvetica findfont 54.2494 sf 0 0 m (T) show NC gr 
 gsave  2263 1770 2 313 C 1786.38 355.92 t 0 r /Helvetica findfont 81.3741 sf 0 0 m (E) show NC gr  412 584 m cl s 459 584 m cl s 505 584 m cl s 552 584 m cl s 598 584 m cl s 645 584 m cl s 691 584 m cl s 738 584 m cl s 784 584 m cl s 831 584 m cl s
 877 584 m cl s 924 584 m cl s 970 584 m cl s 1017 584 m cl s 1063 584 m cl s 1110 584 m cl s 1156 584 m cl s 1203 584 m cl s 1249 584 m cl s 1296 584 m cl s 1342 584 m cl s 1389 584 m cl s 1435 584 m cl s 1482 584 m cl s 1528 584 m cl s 1575 584 m
 cl s 1621 584 m cl s 1668 584 m cl s 1714 584 m cl s 1761 584 m cl s 1807 584 m cl s 1854 584 m cl s 1900 584 m cl s 1947 584 m cl s 1993 584 m cl s 2040 584 m cl s 2086 584 m cl s 412 584 m cl s 366 584 m cl s 319 584 m cl s 2086 584 m cl s 2133
 584 m cl s 2179 584 m cl s 319 1729 m 1860 X s 412 1729 m cl s 459 1729 m cl s 505 1729 m cl s 552 1729 m cl s 598 1729 m cl s 645 1729 m cl s 691 1729 m cl s 738 1729 m cl s 784 1729 m cl s 831 1729 m cl s 877 1729 m cl s 924 1729 m cl s 970 1729 m
 cl s 1017 1729 m cl s 1063 1729 m cl s 1110 1729 m cl s 1156 1729 m cl s 1203 1729 m cl s 1249 1729 m cl s 1296 1729 m cl s 1342 1729 m cl s 1389 1729 m cl s 1435 1729 m cl s 1482 1729 m cl s 1528 1729 m cl s 1575 1729 m cl s 1621 1729 m cl s 1668
 1729 m cl s 1714 1729 m cl s 1761 1729 m cl s 1807 1729 m cl s 1854 1729 m cl s 1900 1729 m cl s 1947 1729 m cl s 1993 1729 m cl s 2040 1729 m cl s 2086 1729 m cl s 412 1729 m cl s 366 1729 m cl s 319 1729 m cl s 2086 1729 m cl s 2133 1729 m cl s
 2179 1729 m cl s 319 584 m 1145 Y s
 gsave  2263 1770 2 313 C 166.096 1091.49 t 90 r /Helvetica findfont 81.3741 sf 0 0 m (Events / 100 GeV) show NC gr  341 628 m -22 X s 341 653 m -22 X s 341 671 m -22 X s 341 685 m -22 X s 341 696 m -22 X s 341 706 m -22 X s 341 714 m -22 X s 341 721
 m -22 X s 363 728 m -44 X s
 gsave  2263 1770 2 313 C 300.555 700.697 t 0 r  -36 0 t /Helvetica findfont 64.4212 sf 0 0 m (1) show NC gr  341 771 m -22 X s 341 796 m -22 X s 341 814 m -22 X s 341 828 m -22 X s 341 839 m -22 X s 341 849 m -22 X s 341 857 m -22 X s 341 865 m -22
 X s 363 871 m -44 X s
 gsave  2263 1770 2 313 C 300.555 844.202 t 0 r  -73 0 t /Helvetica findfont 64.4212 sf 0 0 m (10) show NC gr  341 915 m -22 X s 341 940 m -22 X s 341 958 m -22 X s 341 972 m -22 X s 341 983 m -22 X s 341 993 m -22 X s 341 1001 m -22 X s 341 1008 m
 -22 X s 363 1015 m -44 X s
 gsave  2263 1770 2 313 C 274.567 1013.52 t 0 r /Helvetica findfont 44.0776 sf 0 0 m (2) show NC gr 
 gsave  2263 1770 2 313 C 203.383 986.406 t 0 r /Helvetica findfont 64.4212 sf 0 0 m (10) show NC gr  341 1058 m -22 X s 341 1083 m -22 X s 341 1101 m -22 X s 341 1115 m -22 X s 341 1126 m -22 X s 341 1136 m -22 X s 341 1144 m -22 X s 341 1152 m -22
 X s 363 1158 m -44 X s
 gsave  2263 1770 2 313 C 274.567 1159.28 t 0 r /Helvetica findfont 44.0776 sf 0 0 m (3) show NC gr 
 gsave  2263 1770 2 313 C 203.383 1128.77 t 0 r /Helvetica findfont 64.4212 sf 0 0 m (10) show NC gr  341 1202 m -22 X s 341 1227 m -22 X s 341 1245 m -22 X s 341 1259 m -22 X s 341 1270 m -22 X s 341 1280 m -22 X s 341 1288 m -22 X s 341 1295 m -22
 X s 363 1302 m -44 X s
 gsave  2263 1770 2 313 C 274.567 1301.65 t 0 r /Helvetica findfont 44.0776 sf 0 0 m (4) show NC gr 
 gsave  2263 1770 2 313 C 203.383 1274.53 t 0 r /Helvetica findfont 64.4212 sf 0 0 m (10) show NC gr  341 1345 m -22 X s 341 1370 m -22 X s 341 1388 m -22 X s 341 1402 m -22 X s 341 1414 m -22 X s 341 1423 m -22 X s 341 1431 m -22 X s 341 1439 m -22
 X s 363 1445 m -44 X s
 gsave  2263 1770 2 313 C 274.567 1447.41 t 0 r /Helvetica findfont 44.0776 sf 0 0 m (5) show NC gr 
 gsave  2263 1770 2 313 C 203.383 1416.9 t 0 r /Helvetica findfont 64.4212 sf 0 0 m (10) show NC gr  341 1489 m -22 X s 341 1514 m -22 X s 341 1532 m -22 X s 341 1546 m -22 X s 341 1557 m -22 X s 341 1567 m -22 X s 341 1575 m -22 X s 341 1582 m -22 X
 s 363 1589 m -44 X s
 gsave  2263 1770 2 313 C 274.567 1589.77 t 0 r /Helvetica findfont 44.0776 sf 0 0 m (6) show NC gr 
 gsave  2263 1770 2 313 C 203.383 1559.27 t 0 r /Helvetica findfont 64.4212 sf 0 0 m (10) show NC gr  341 1632 m -22 X s 341 1657 m -22 X s 341 1675 m -22 X s 341 1689 m -22 X s 341 1701 m -22 X s 341 1710 m -22 X s 341 1718 m -22 X s 341 1726 m -22
 X s 2179 584 m 1145 Y s 2157 628 m 22 X s 2157 653 m 22 X s 2157 671 m 22 X s 2157 685 m 22 X s 2157 696 m 22 X s 2157 706 m 22 X s 2157 714 m 22 X s 2157 721 m 22 X s 2136 728 m 43 X s 2157 771 m 22 X s 2157 796 m 22 X s 2157 814 m 22 X s 2157 828
 m 22 X s 2157 839 m 22 X s 2157 849 m 22 X s 2157 857 m 22 X s 2157 865 m 22 X s 2136 871 m 43 X s 2157 915 m 22 X s 2157 940 m 22 X s 2157 958 m 22 X s 2157 972 m 22 X s 2157 983 m 22 X s 2157 993 m 22 X s 2157 1001 m 22 X s 2157 1008 m 22 X s 2136
 1015 m 43 X s 2157 1058 m 22 X s 2157 1083 m 22 X s 2157 1101 m 22 X s 2157 1115 m 22 X s 2157 1126 m 22 X s 2157 1136 m 22 X s 2157 1144 m 22 X s 2157 1152 m 22 X s 2136 1158 m 43 X s 2157 1202 m 22 X s 2157 1227 m 22 X s 2157 1245 m 22 X s 2157
 1259 m 22 X s 2157 1270 m 22 X s 2157 1280 m 22 X s 2157 1288 m 22 X s 2157 1295 m 22 X s 2136 1302 m 43 X s 2157 1345 m 22 X s 2157 1370 m 22 X s 2157 1388 m 22 X s 2157 1402 m 22 X s 2157 1414 m 22 X s 2157 1423 m 22 X s 2157 1431 m 22 X s 2157
 1439 m 22 X s 2136 1445 m 43 X s 2157 1489 m 22 X s 2157 1514 m 22 X s 2157 1532 m 22 X s 2157 1546 m 22 X s 2157 1557 m 22 X s 2157 1567 m 22 X s 2157 1575 m 22 X s 2157 1582 m 22 X s 2136 1589 m 43 X s 2157 1632 m 22 X s 2157 1657 m 22 X s 2157
 1675 m 22 X s 2157 1689 m 22 X s 2157 1701 m 22 X s 2157 1710 m 22 X s 2157 1718 m 22 X s 2157 1726 m 22 X s 0.4 0.6 1 c black 0.4 0.6 1 c 319 584 m 186 X 461 Y 93 X 52 Y 93 X -15 Y 93 X -39 Y 93 X -46 Y 93 X -50 Y 93 X -37 Y 93 X -45 Y 93 X -44 Y
 93 X -54 Y 93 X -4 Y 93 X -37 Y 93 X 6 Y 93 X -109 Y 93 X 2 Y 93 X -39 Y 93 X 25 Y 93 X -23 Y 93 X -4 Y f black 0.4 0.6 1 c black 319 584 m 186 X 461 Y 93 X 52 Y 93 X -15 Y 93 X -39 Y 93 X -46 Y 93 X -50 Y 93 X -37 Y 93 X -45 Y 93 X -44 Y 93 X -54 Y
 93 X -4 Y 93 X -37 Y 93 X 6 Y 93 X -109 Y 93 X 2 Y 93 X -39 Y 93 X 25 Y 93 X -23 Y 93 X s 0.999 0.999 0.999 c black 0.999 0.999 0.999 c 319 584 m 186 X 435 Y 93 X 51 Y 93 X -17 Y 93 X -42 Y 93 X -44 Y 93 X -48 Y 93 X -33 Y 93 X -41 Y 93 X -44 Y 93 X
 -65 Y 93 X -2 Y 93 X -37 Y 93 X 29 Y 93 X -119 Y 93 X -17 Y 93 X -6 Y 93 X 27 Y 93 X -27 Y 93 X f black 0.999 0.999 0.999 c black 319 584 m 186 X 435 Y 93 X 51 Y 93 X -17 Y 93 X -42 Y 93 X -44 Y 93 X -48 Y 93 X -33 Y 93 X -41 Y 93 X -44 Y 93 X -65 Y
 93 X -2 Y 93 X -37 Y 93 X 29 Y 93 X -119 Y 93 X -17 Y 93 X -6 Y 93 X 27 Y 93 X -27 Y 93 X s 1 1 1 c black 319 584 m 186 X 435 Y 93 X 51 Y 93 X -17 Y 93 X -42 Y 93 X -44 Y 93 X -48 Y 93 X -33 Y 93 X -41 Y 93 X -44 Y 93 X -65 Y 93 X -2 Y 93 X -37 Y 93
 X 29 Y 93 X -119 Y 93 X -17 Y 93 X -6 Y 93 X 27 Y 93 X -27 Y 93 X s 0.6 1 0.6 c black 0.6 1 0.6 c 319 584 m 186 X 435 Y 93 X 51 Y 93 X -17 Y 93 X -42 Y 93 X -44 Y 93 X -48 Y 93 X -33 Y 93 X -41 Y 93 X -44 Y 93 X -65 Y 93 X -2 Y 93 X -37 Y 93 X 29 Y
 93 X -119 Y 93 X -17 Y 93 X -6 Y 93 X 27 Y 93 X -27 Y 93 X f black 0.6 1 0.6 c black 319 584 m 186 X 435 Y 93 X 51 Y 93 X -17 Y 93 X -42 Y 93 X -44 Y 93 X -48 Y 93 X -33 Y 93 X -41 Y 93 X -44 Y 93 X -65 Y 93 X -2 Y 93 X -37 Y 93 X 29 Y 93 X -119 Y
 93 X -17 Y 93 X -6 Y 93 X 27 Y 93 X -27 Y 93 X s 0.999 0.999 0.999 c black 0.999 0.999 0.999 c 319 584 m 186 X 410 Y 93 X 54 Y 93 X -10 Y 93 X -39 Y 93 X -41 Y 93 X -46 Y 93 X -38 Y 93 X -35 Y 93 X -40 Y 93 X -67 Y 186 X -36 Y 93 X 29 Y 93 X -118 Y
 93 X -17 Y 93 X -6 Y 93 X 27 Y 93 X -27 Y 93 X f black 0.999 0.999 0.999 c black 319 584 m 186 X 410 Y 93 X 54 Y 93 X -10 Y 93 X -39 Y 93 X -41 Y 93 X -46 Y 93 X -38 Y 93 X -35 Y 93 X -40 Y 93 X -67 Y 186 X -36 Y 93 X 29 Y 93 X -118 Y 93 X -17 Y 93
 X -6 Y 93 X 27 Y 93 X -27 Y 93 X s 1 1 1 c black 319 584 m 186 X 410 Y 93 X 54 Y 93 X -10 Y 93 X -39 Y 93 X -41 Y 93 X -46 Y 93 X -38 Y 93 X -35 Y 93 X -40 Y 93 X -67 Y 186 X -36 Y 93 X 29 Y 93 X -118 Y 93 X -17 Y 93 X -6 Y 93 X 27 Y 93 X -27 Y 93 X
 s 1 0.8 0.4 c black 1 0.8 0.4 c 319 584 m 186 X 410 Y 93 X 54 Y 93 X -10 Y 93 X -39 Y 93 X -41 Y 93 X -46 Y 93 X -38 Y 93 X -35 Y 93 X -40 Y 93 X -67 Y 186 X -36 Y 93 X 29 Y 93 X -118 Y 93 X -17 Y 93 X -6 Y 93 X 27 Y 93 X -27 Y 93 X f black 1 0.8
 0.4 c black 319 584 m 186 X 410 Y 93 X 54 Y 93 X -10 Y 93 X -39 Y 93 X -41 Y 93 X -46 Y 93 X -38 Y 93 X -35 Y 93 X -40 Y 93 X -67 Y 186 X -36 Y 93 X 29 Y 93 X -118 Y 93 X -17 Y 93 X -6 Y 93 X 27 Y 93 X -27 Y 93 X s 0.999 0.999 0.999 c black 0.999
 0.999 0.999 c 319 584 m 186 X 280 Y 93 X 58 Y 93 X -13 Y 93 X -45 Y 93 X -28 Y 93 X -58 Y 93 X -5 Y 93 X -11 Y 93 X -57 Y 93 X -121 Y 93 X 32 Y 93 X 58 Y 93 X -90 Y 558 X f black 0.999 0.999 0.999 c black 319 584 m 186 X 280 Y 93 X 58 Y 93 X -13 Y
 93 X -45 Y 93 X -28 Y 93 X -58 Y 93 X -5 Y 93 X -11 Y 93 X -57 Y 93 X -121 Y 93 X 32 Y 93 X 58 Y 93 X -90 Y 558 X s 1 1 1 c black 319 584 m 186 X 280 Y 93 X 58 Y 93 X -13 Y 93 X -45 Y 93 X -28 Y 93 X -58 Y 93 X -5 Y 93 X -11 Y 93 X -57 Y 93 X -121 Y
 93 X 32 Y 93 X 58 Y 93 X -90 Y 558 X s 1 0.4 0.6 c black 1 0.4 0.6 c 319 584 m 186 X 280 Y 93 X 58 Y 93 X -13 Y 93 X -45 Y 93 X -28 Y 93 X -58 Y 93 X -5 Y 93 X -11 Y 93 X -57 Y 93 X -121 Y 93 X 32 Y 93 X 58 Y 93 X -90 Y 558 X f black 1 0.4 0.6 c
 black 319 584 m 186 X 280 Y 93 X 58 Y 93 X -13 Y 93 X -45 Y 93 X -28 Y 93 X -58 Y 93 X -5 Y 93 X -11 Y 93 X -57 Y 93 X -121 Y 93 X 32 Y 93 X 58 Y 93 X -90 Y 558 X s 0.999 0.999 0.999 c black 0.999 0.999 0.999 c 319 584 m 186 X 61 Y 93 X 4 Y 93 X -28
 Y 93 X 15 Y 93 X 15 Y 93 X -21 Y 93 X -46 Y 1116 X f black 0.999 0.999 0.999 c black 319 584 m 186 X 61 Y 93 X 4 Y 93 X -28 Y 93 X 15 Y 93 X 15 Y 93 X -21 Y 93 X -46 Y 1116 X s 1 1 1 c black 319 584 m 186 X 61 Y 93 X 4 Y 93 X -28 Y 93 X 15 Y 93 X 15
 Y 93 X -21 Y 93 X -46 Y 1116 X s 0 0 0.4 c black 0 0 0.4 c 319 584 m 186 X 61 Y 93 X 4 Y 93 X -28 Y 93 X 15 Y 93 X 15 Y 93 X -21 Y 93 X -46 Y 1116 X f black 0 0 0.4 c black 319 584 m 186 X 61 Y 93 X 4 Y 93 X -28 Y 93 X 15 Y 93 X 15 Y 93 X -21 Y 93 X
 -46 Y 1116 X s 1 0 0 c 6 lw 1 1 1 c black 1 0 0 c 319 584 m 186 X 461 Y 93 X 52 Y 93 X -15 Y 93 X -39 Y 93 X -46 Y 93 X -50 Y 93 X -37 Y 93 X -45 Y 93 X -44 Y 93 X -54 Y 93 X -4 Y 93 X -37 Y 93 X 6 Y 93 X -109 Y 93 X 2 Y 93 X -39 Y 93 X 25 Y 93 X
 -23 Y 93 X s black 3 lw 1 0 0 c 1 lw << /PatternType 1 /PaintType 2 /TilingType 1 /BBox [ 0 0 100 100 ] /XStep 100 /YStep 100 /PaintProc { begin gsave 0 100 m 100 0 l s gr end } >> [ 0.24 0 0 0.24 0 0 ] makepattern /P05 exch def /cs {[/Pattern
 /DeviceRGB] setcolorspace} def /FA {f [/DeviceRGB] setcolorspace} def cs 1 0 0 P05 setcolor 505 584 m 464 Y 93 X 52 Y 93 X -15 Y 93 X -39 Y 93 X -46 Y 93 X -50 Y 93 X -34 Y 93 X -40 Y 93 X -40 Y 93 X -64 Y 93 X 7 Y 93 X -34 Y 93 X 16 Y 93 X -125 Y
 93 X 6 Y 93 X -38 Y 93 X 43 Y 93 X -34 Y 93 X -29 Y -279 X 18 Y -93 X 5 Y -93 X 67 Y -93 X 24 Y -93 X 44 Y -93 X 19 Y -93 X 41 Y -93 X 50 Y -93 X 51 Y -93 X 40 Y -93 X 51 Y -93 X 46 Y -93 X 40 Y -93 X 15 Y -93 X -53 Y -93 X -458 Y FA 6 lw 1 1 1 c 15
 lw 1203 857 m -2 Y s 1203 855 m cl s 1296 869 m 1 Y s 1296 870 m cl s 1296 829 m -8 Y s 1296 821 m cl s 1389 835 m 6 Y s 1389 841 m cl s 1389 794 m -20 Y s 1389 774 m cl s 1482 791 m 17 Y s 1482 808 m cl s 1482 751 m -44 Y s 1482 707 m cl s 1761 791
 m 17 Y s 1761 808 m cl s 1761 751 m -44 Y s 1761 707 m cl s black 1 1 1 c 3 lw /w 43 def /w2 {w 2 div} def /w3 {w 3 div} def 552 1034 645 1094 738 1087 831 1036 924 993 1017 928 1110 892 1203 877 1296 849 1389 814 1482 771 11 { m20} R 15 lw 3 lw
 1761 771 m20 15 lw black 6 lw 1 1 1 c black 3 lw /w 33 def /w2 {w 2 div} def /w3 {w 3 div} def 552 1034 m20 6 lw 3 lw 645 1094 m20 6 lw 3 lw 738 1087 m20 6 lw 3 lw 831 1036 m20 6 lw 3 lw 924 993 m20 6 lw 1017 915 m s 3 lw 1017 928 m20 6 lw 1110 873
 m 6 Y s 1110 906 m 1 Y s 3 lw 1110 892 m20 6 lw 1203 855 m 9 Y s 1203 891 m 3 Y s 3 lw 1203 877 m20 6 lw 1296 820 m 16 Y s 1296 863 m 6 Y s 3 lw 1296 849 m20 6 lw 1389 771 m 30 Y s 1389 828 m 11 Y s 3 lw 1389 814 m20 6 lw 1482 694 m 63 Y s 1482 785
 m 19 Y s 3 lw 1482 771 m20 6 lw 1761 694 m 63 Y s 1761 785 m 19 Y s 3 lw 1761 771 m20 6 lw 1017 915 m s 1017 915 m cl s 1110 906 m 1 Y s 1110 907 m cl s 1110 879 m -6 Y s 1110 873 m cl s 1203 891 m 3 Y s 1203 894 m cl s 1203 864 m -9 Y s 1203 855 m
 cl s 1296 863 m 7 Y s 1296 870 m cl s 1296 836 m -15 Y s 1296 821 m cl s 1389 828 m 13 Y s 1389 841 m cl s 1389 801 m -27 Y s 1389 774 m cl s 1482 785 m 23 Y s 1482 808 m cl s 1482 757 m -50 Y s 1482 707 m cl s 1761 785 m 23 Y s 1761 808 m cl s 1761
 757 m -50 Y s 1761 707 m cl s 3 lw 552 1034 645 1094 738 1087 831 1036 924 993 1017 928 1110 892 1203 877 1296 849 1389 814 1482 771 11 { m20} R 6 lw 3 lw 1761 771 m20 6 lw 3 lw 319 584 m 1860 X s 412 584 m cl s 459 584 m cl s 505 584 m cl s 552 584
 m cl s 598 584 m cl s 645 584 m cl s 691 584 m cl s 738 584 m cl s 784 584 m cl s 831 584 m cl s 877 584 m cl s 924 584 m cl s 970 584 m cl s 1017 584 m cl s 1063 584 m cl s 1110 584 m cl s 1156 584 m cl s 1203 584 m cl s 1249 584 m cl s 1296 584 m
 cl s 1342 584 m cl s 1389 584 m cl s 1435 584 m cl s 1482 584 m cl s 1528 584 m cl s 1575 584 m cl s 1621 584 m cl s 1668 584 m cl s 1714 584 m cl s 1761 584 m cl s 1807 584 m cl s 1854 584 m cl s 1900 584 m cl s 1947 584 m cl s 1993 584 m cl s 2040
 584 m cl s 2086 584 m cl s 412 584 m cl s 366 584 m cl s 319 584 m cl s 2086 584 m cl s 2133 584 m cl s 2179 584 m cl s 319 1729 m 1860 X s 412 1729 m cl s 459 1729 m cl s 505 1729 m cl s 552 1729 m cl s 598 1729 m cl s 645 1729 m cl s 691 1729 m cl
 s 738 1729 m cl s 784 1729 m cl s 831 1729 m cl s 877 1729 m cl s 924 1729 m cl s 970 1729 m cl s 1017 1729 m cl s 1063 1729 m cl s 1110 1729 m cl s 1156 1729 m cl s 1203 1729 m cl s 1249 1729 m cl s 1296 1729 m cl s 1342 1729 m cl s 1389 1729 m cl
 s 1435 1729 m cl s 1482 1729 m cl s 1528 1729 m cl s 1575 1729 m cl s 1621 1729 m cl s 1668 1729 m cl s 1714 1729 m cl s 1761 1729 m cl s 1807 1729 m cl s 1854 1729 m cl s 1900 1729 m cl s 1947 1729 m cl s 1993 1729 m cl s 2040 1729 m cl s 2086 1729
 m cl s 412 1729 m cl s 366 1729 m cl s 319 1729 m cl s 2086 1729 m cl s 2133 1729 m cl s 2179 1729 m cl s 319 584 m 1145 Y s 341 628 m -22 X s 341 653 m -22 X s 341 671 m -22 X s 341 685 m -22 X s 341 696 m -22 X s 341 706 m -22 X s 341 714 m -22 X
 s 341 721 m -22 X s 363 728 m -44 X s 341 771 m -22 X s 341 796 m -22 X s 341 814 m -22 X s 341 828 m -22 X s 341 839 m -22 X s 341 849 m -22 X s 341 857 m -22 X s 341 865 m -22 X s 363 871 m -44 X s 341 915 m -22 X s 341 940 m -22 X s 341 958 m -22
 X s 341 972 m -22 X s 341 983 m -22 X s 341 993 m -22 X s 341 1001 m -22 X s 341 1008 m -22 X s 363 1015 m -44 X s 341 1058 m -22 X s 341 1083 m -22 X s 341 1101 m -22 X s 341 1115 m -22 X s 341 1126 m -22 X s 341 1136 m -22 X s 341 1144 m -22 X s
 341 1152 m -22 X s 363 1158 m -44 X s 341 1202 m -22 X s 341 1227 m -22 X s 341 1245 m -22 X s 341 1259 m -22 X s 341 1270 m -22 X s 341 1280 m -22 X s 341 1288 m -22 X s 341 1295 m -22 X s 363 1302 m -44 X s 341 1345 m -22 X s 341 1370 m -22 X s
 341 1388 m -22 X s 341 1402 m -22 X s 341 1414 m -22 X s 341 1423 m -22 X s 341 1431 m -22 X s 341 1439 m -22 X s 363 1445 m -44 X s 341 1489 m -22 X s 341 1514 m -22 X s 341 1532 m -22 X s 341 1546 m -22 X s 341 1557 m -22 X s 341 1567 m -22 X s
 341 1575 m -22 X s 341 1582 m -22 X s 363 1589 m -44 X s 341 1632 m -22 X s 341 1657 m -22 X s 341 1675 m -22 X s 341 1689 m -22 X s 341 1701 m -22 X s 341 1710 m -22 X s 341 1718 m -22 X s 341 1726 m -22 X s 2179 584 m 1145 Y s 2157 628 m 22 X s
 2157 653 m 22 X s 2157 671 m 22 X s 2157 685 m 22 X s 2157 696 m 22 X s 2157 706 m 22 X s 2157 714 m 22 X s 2157 721 m 22 X s 2136 728 m 43 X s 2157 771 m 22 X s 2157 796 m 22 X s 2157 814 m 22 X s 2157 828 m 22 X s 2157 839 m 22 X s 2157 849 m 22 X
 s 2157 857 m 22 X s 2157 865 m 22 X s 2136 871 m 43 X s 2157 915 m 22 X s 2157 940 m 22 X s 2157 958 m 22 X s 2157 972 m 22 X s 2157 983 m 22 X s 2157 993 m 22 X s 2157 1001 m 22 X s 2157 1008 m 22 X s 2136 1015 m 43 X s 2157 1058 m 22 X s 2157 1083
 m 22 X s 2157 1101 m 22 X s 2157 1115 m 22 X s 2157 1126 m 22 X s 2157 1136 m 22 X s 2157 1144 m 22 X s 2157 1152 m 22 X s 2136 1158 m 43 X s 2157 1202 m 22 X s 2157 1227 m 22 X s 2157 1245 m 22 X s 2157 1259 m 22 X s 2157 1270 m 22 X s 2157 1280 m
 22 X s 2157 1288 m 22 X s 2157 1295 m 22 X s 2136 1302 m 43 X s 2157 1345 m 22 X s 2157 1370 m 22 X s 2157 1388 m 22 X s 2157 1402 m 22 X s 2157 1414 m 22 X s 2157 1423 m 22 X s 2157 1431 m 22 X s 2157 1439 m 22 X s 2136 1445 m 43 X s 2157 1489 m 22
 X s 2157 1514 m 22 X s 2157 1532 m 22 X s 2157 1546 m 22 X s 2157 1557 m 22 X s 2157 1567 m 22 X s 2157 1575 m 22 X s 2157 1582 m 22 X s 2136 1589 m 43 X s 2157 1632 m 22 X s 2157 1657 m 22 X s 2157 1675 m 22 X s 2157 1689 m 22 X s 2157 1701 m 22 X
 s 2157 1710 m 22 X s 2157 1718 m 22 X s 2157 1726 m 22 X s
 gsave  2263 1770 2 313 C 406.765 1447.41 t 0 r /Helvetica findfont 64.4212 sf 0 0 m (VR0LmetSig for MB\255C) show NC gr 
 gsave  2263 1770 2 313 C 1464.36 1630.45 t 0 r /Helvetica findfont 64.4212 sf 0 0 m (SM Total) show NC gr  1 1 1 c 1338 1616 m 107 X 64 Y -107 X f 1 0 0 c 6 lw 1338 1648 m 107 X s black
 gsave  2263 1770 2 313 C 1464.36 1538.93 t 0 r /Helvetica findfont 64.4212 sf 0 0 m (Data) show NC gr  1391 1529 m 55 Y s 3 lw 1391 1557 m20 6 lw
 gsave  2263 1770 2 313 C 1464.36 1447.41 t 0 r /Helvetica findfont 64.4212 sf 0 0 m (W+jets) show NC gr  0.4 0.6 1 c 3 lw 1338 1434 m 107 X 64 Y -107 X f 6 lw black 3 lw 1338 1498 m 107 X s 1338 1434 m 107 X s 1445 1434 m 64 Y s 1338 1434 m 64 Y s
 gsave  2263 1770 2 313 C 1498.25 1355.88 t 0 r /Helvetica findfont 64.4212 sf 0 0 m (\(+EW\) & single top) show NC gr 
 gsave  2263 1770 2 313 C 1481.3 1355.88 t 0 r /Helvetica findfont 64.4212 sf 0 0 m (t) show NC gr  1481 1407 m 17 X s
 gsave  2263 1770 2 313 C 1464.36 1355.88 t 0 r /Helvetica findfont 64.4212 sf 0 0 m (t) show NC gr  0.6 1 0.6 c 1338 1343 m 107 X 63 Y -107 X f black 1338 1406 m 107 X s 1338 1343 m 107 X s 1445 1343 m 63 Y s 1338 1343 m 63 Y s
 gsave  2263 1770 2 313 C 1464.36 1264.36 t 0 r /Helvetica findfont 64.4212 sf 0 0 m (Z+jets) show NC gr  1 0.8 0.4 c 1338 1252 m 107 X 63 Y -107 X f black 1338 1315 m 107 X s 1338 1252 m 107 X s 1445 1252 m 63 Y s 1338 1252 m 63 Y s
 gsave  2263 1770 2 313 C 1464.36 1172.84 t 0 r /Helvetica findfont 64.4212 sf 0 0 m (Diboson) show NC gr  1 0.4 0.6 c 1338 1161 m 107 X 63 Y -107 X f black 1338 1224 m 107 X s 1338 1161 m 107 X s 1445 1161 m 63 Y s 1338 1161 m 63 Y s
 gsave  2263 1770 2 313 C 1464.36 1081.32 t 0 r /Helvetica findfont 64.4212 sf 0 0 m (Multi\255jet) show NC gr  0 0 0.4 c 1338 1070 m 107 X 63 Y -107 X f black 1338 1133 m 107 X s 1338 1070 m 107 X s 1445 1070 m 63 Y s 1338 1070 m 63 Y s
 gsave  2263 1770 2 313 C 911.832 1566.05 t 0 r /Helvetica findfont 44.0776 sf 0 0 m (\2551) show NC gr 
 gsave  2263 1770 2 313 C 471.17 1535.54 t 0 r /Helvetica findfont 64.4212 sf 0 0 m (=13TeV, 139 fb) show NC gr 
 gsave  2263 1770 2 313 C 440.662 1535.54 t 0 r /Helvetica findfont 64.4212 sf 0 0 m (s) show NC gr  6 lw 420 1573 m 7 -41 d s 3 lw 427 1532 m 7 61 d s 434 1593 m 37 X s 1 1 1 c 2254 561 2 2 bf black 1 1 1 c black 1860 358 318 187 bl 1 1 1 c black
 1860 358 318 187 bl 6 lw 1 1 1 c black 3 lw 550 339 m20 6 lw 3 lw 643 356 m20 6 lw 3 lw 736 378 m20 6 lw 3 lw 829 350 m20 6 lw 3 lw 923 357 m20 6 lw 3 lw 1016 325 m20 6 lw 3 lw 1109 327 m20 6 lw 3 lw 1202 402 m20 6 lw 3 lw 1295 458 m20 6 lw 3 lw
 1481 388 m20 6 lw 3 lw 318 187 m 1860 X s
 gsave  2254 561 2 2 C 1959.25 27.1177 t 0 r /Helvetica findfont 78.1689 sf 0 0 m ( [GeV]) show NC gr 
 gsave  2254 561 2 2 C 1854.17 64.4045 t 0 r /Helvetica findfont 50.9797 sf 0 0 m (miss) show NC gr 
 gsave  2254 561 2 2 C 1854.17 3.38971 t 0 r /Helvetica findfont 50.9797 sf 0 0 m (T) show NC gr 
 gsave  2254 561 2 2 C 1803.33 27.1177 t 0 r /Helvetica findfont 78.1689 sf 0 0 m (E) show NC gr  411 201 m -14 Y s 457 194 m -7 Y s 504 194 m -7 Y s 550 194 m -7 Y s 597 201 m -14 Y s 643 194 m -7 Y s 690 194 m -7 Y s 736 194 m -7 Y s 783 201 m -14
 Y s 829 194 m -7 Y s 876 194 m -7 Y s 923 194 m -7 Y s 969 201 m -14 Y s 1016 194 m -7 Y s 1062 194 m -7 Y s 1109 194 m -7 Y s 1155 201 m -14 Y s 1202 194 m -7 Y s 1248 194 m -7 Y s 1295 194 m -7 Y s 1341 201 m -14 Y s 1388 194 m -7 Y s 1434 194 m
 -7 Y s 1481 194 m -7 Y s 1527 201 m -14 Y s 1574 194 m -7 Y s 1620 194 m -7 Y s 1667 194 m -7 Y s 1713 201 m -14 Y s 1760 194 m -7 Y s 1806 194 m -7 Y s 1853 194 m -7 Y s 1899 201 m -14 Y s 1946 194 m -7 Y s 1992 194 m -7 Y s 2039 194 m -7 Y s 2085
 201 m -14 Y s 411 201 m -14 Y s 364 194 m -7 Y s 318 194 m -7 Y s 2085 201 m -14 Y s 2132 194 m -7 Y s
 gsave  2254 561 2 2 C 345.75 118.64 t 0 r /Helvetica findfont 78.1689 sf 0 0 m (400) show NC gr 
 gsave  2254 561 2 2 C 532.185 118.64 t 0 r /Helvetica findfont 78.1689 sf 0 0 m (600) show NC gr 
 gsave  2254 561 2 2 C 715.229 118.64 t 0 r /Helvetica findfont 78.1689 sf 0 0 m (800) show NC gr 
 gsave  2254 561 2 2 C 877.935 118.64 t 0 r /Helvetica findfont 78.1689 sf 0 0 m (1000) show NC gr 
 gsave  2254 561 2 2 C 1064.37 118.64 t 0 r /Helvetica findfont 78.1689 sf 0 0 m (1200) show NC gr 
 gsave  2254 561 2 2 C 1250.8 118.64 t 0 r /Helvetica findfont 78.1689 sf 0 0 m (1400) show NC gr 
 gsave  2254 561 2 2 C 1437.24 118.64 t 0 r /Helvetica findfont 78.1689 sf 0 0 m (1600) show NC gr 
 gsave  2254 561 2 2 C 1623.67 118.64 t 0 r /Helvetica findfont 78.1689 sf 0 0 m (1800) show NC gr 
 gsave  2254 561 2 2 C 1810.11 118.64 t 0 r /Helvetica findfont 78.1689 sf 0 0 m (2000) show NC gr 
 gsave  2254 561 2 2 C 1996.54 118.64 t 0 r /Helvetica findfont 78.1689 sf 0 0 m (2200) show NC gr  318 545 m 1860 X s 411 531 m 14 Y s 457 538 m 7 Y s 504 538 m 7 Y s 550 538 m 7 Y s 597 531 m 14 Y s 643 538 m 7 Y s 690 538 m 7 Y s 736 538 m 7 Y s
 783 531 m 14 Y s 829 538 m 7 Y s 876 538 m 7 Y s 923 538 m 7 Y s 969 531 m 14 Y s 1016 538 m 7 Y s 1062 538 m 7 Y s 1109 538 m 7 Y s 1155 531 m 14 Y s 1202 538 m 7 Y s 1248 538 m 7 Y s 1295 538 m 7 Y s 1341 531 m 14 Y s 1388 538 m 7 Y s 1434 538 m 7
 Y s 1481 538 m 7 Y s 1527 531 m 14 Y s 1574 538 m 7 Y s 1620 538 m 7 Y s 1667 538 m 7 Y s 1713 531 m 14 Y s 1760 538 m 7 Y s 1806 538 m 7 Y s 1853 538 m 7 Y s 1899 531 m 14 Y s 1946 538 m 7 Y s 1992 538 m 7 Y s 2039 538 m 7 Y s 2085 531 m 14 Y s 411
 531 m 14 Y s 364 538 m 7 Y s 318 538 m 7 Y s 2085 531 m 14 Y s 2132 538 m 7 Y s 318 187 m 358 Y s
 gsave  2254 561 2 2 C 166.096 284.736 t 90 r /Helvetica findfont 67.9729 sf 0 0 m (Data/SM) show NC gr  361 203 m -43 X s 339 220 m -21 X s 339 236 m -21 X s 339 252 m -21 X s 339 268 m -21 X s 361 285 m -43 X s 339 301 m -21 X s 339 317 m -21 X s
 339 334 m -21 X s 339 350 m -21 X s 361 366 m -43 X s 339 382 m -21 X s 339 399 m -21 X s 339 415 m -21 X s 339 431 m -21 X s 361 447 m -43 X s 339 464 m -21 X s 339 480 m -21 X s 339 496 m -21 X s 339 512 m -21 X s 361 529 m -43 X s 361 203 m -43 X
 s 339 187 m -21 X s 361 529 m -43 X s
 gsave  2254 561 2 2 C 261.008 183.044 t 0 r /Helvetica findfont 57.777 sf 0 0 m (0) show NC gr 
 gsave  2254 561 2 2 C 213.552 261.008 t 0 r /Helvetica findfont 57.777 sf 0 0 m (0.5) show NC gr 
 gsave  2254 561 2 2 C 271.177 342.361 t 0 r /Helvetica findfont 57.777 sf 0 0 m (1) show NC gr 
 gsave  2254 561 2 2 C 213.552 423.714 t 0 r /Helvetica findfont 57.777 sf 0 0 m (1.5) show NC gr 
 gsave  2254 561 2 2 C 261.008 505.067 t 0 r /Helvetica findfont 57.777 sf 0 0 m (2) show NC gr  2178 187 m 358 Y s 2135 203 m 43 X s 2157 220 m 21 X s 2157 236 m 21 X s 2157 252 m 21 X s 2157 268 m 21 X s 2135 285 m 43 X s 2157 301 m 21 X s 2157 317
 m 21 X s 2157 334 m 21 X s 2157 350 m 21 X s 2135 366 m 43 X s 2157 382 m 21 X s 2157 399 m 21 X s 2157 415 m 21 X s 2157 431 m 21 X s 2135 447 m 43 X s 2157 464 m 21 X s 2157 480 m 21 X s 2157 496 m 21 X s 2157 512 m 21 X s 2135 529 m 43 X s 2135
 203 m 43 X s 2157 187 m 21 X s 2135 529 m 43 X s 9 lw 923 370 m 5 Y s 923 375 m cl s 923 343 m -4 Y s 923 339 m cl s 1016 339 m 11 Y s 1016 350 m cl s 1016 311 m -10 Y s 1016 301 m cl s 1109 340 m 20 Y s 1109 360 m cl s 1109 313 m -19 Y s 1109 294 m
 cl s 1202 415 m 48 Y s 1202 463 m cl s 1202 388 m -45 Y s 1202 343 m cl s 1295 471 m 74 Y s 1295 545 m cl s 1295 444 m -80 Y s 1295 364 m cl s 1388 539 m -153 Y s 1388 386 m cl s 1481 401 m 136 Y s 1481 537 m cl s 1481 374 m -105 Y s 1481 269 m cl s
 3 lw 550 339 643 356 736 378 829 350 923 357 1016 325 1109 327 1202 402 1295 458 9 { m20} R 9 lw 3 lw 1481 388 m20 9 lw 1 0 0 c 6 lw black 3 lw 1 0 0 c 2178 227 m s 2178 255 m s 2178 284 m s 2178 312 m -27 -27 d s 2178 341 m -55 -56 d s 2085 248 m
 -11 -12 d s 2178 369 m -84 -84 d s 2085 277 m -40 -41 d s 2178 398 m -162 -162 d s 2178 427 m -186 -186 d s 2170 447 m -178 -177 d s 2141 447 m -149 -149 d s 2113 447 m -138 -137 d s 2085 448 m -139 -138 d s 2085 477 m -168 -167 d s 2075 496 m -180
 -180 d s 2047 496 m -55 -55 d s 1973 422 m -107 -106 d s 2018 496 m -26 -26 d s 1945 422 m -107 -106 d s 1916 422 m -107 -106 d s 1881 416 m -88 -87 d s 1852 416 m -88 -87 d s 1713 278 m -9 -10 d s 1824 416 m -88 -87 d s 1713 306 m -38 -38 d s 1782
 403 m -136 -135 d s 1753 403 m -133 -132 d s 1725 403 m -105 -104 d s 1713 421 m -114 -114 d s 1713 449 m -142 -142 d s 1700 464 m -158 -157 d s 1671 464 m -146 -145 d s 1642 464 m -22 -22 d s 1603 425 m -107 -106 d s 1574 425 m -106 -106 d s 1545
 425 m -106 -106 d s 1505 413 m -71 -70 d s 1476 413 m -62 -62 d s 1448 413 m -14 -13 d s 1415 381 m -30 -30 d s 1387 381 m -31 -30 d s 1341 336 m -12 -12 d s 1358 381 m -58 -57 d s 1341 393 m -69 -69 d s 1328 408 m -80 -79 d s 1299 408 m -73 -73 d s
 1271 408 m -74 -73 d s 1231 397 m -63 -62 d s 1202 397 m -48 -48 d s 1173 397 m -48 -48 d s 1131 383 m -35 -34 d s 1102 383 m -34 -34 d s 1073 383 m -27 -27 d s 1037 376 m -19 -20 d s 1008 376 m -19 -20 d s 980 376 m -18 -18 d s 950 374 m -17 -16 d
 s 921 374 m -17 -16 d s 892 374 m -16 -16 d s 863 374 m -16 -16 d s 834 374 m -15 -16 d s 806 374 m -16 -16 d s 776 373 m -14 -14 d s 747 373 m -14 -14 d s 719 373 m -14 -14 d s 690 373 m s 690 373 m -14 -14 d s 661 373 m -13 -14 d s 504 216 m s 491
 203 m cl s 632 373 m -13 -14 d s 504 245 m s 462 203 m cl s 604 373 m -14 -14 d s 504 273 m s 434 203 m cl s 575 373 m -14 -14 d s 504 302 m s 405 203 m cl s 547 373 m -15 -14 d s 504 330 m s 376 203 m cl s 518 373 m -14 -14 d s 348 203 m cl s 319
 203 m cl s 6 lw 0 0 1 c 9 lw 1760 496 m 30 Y s 3 lw 1749 526 m 11 19 d 11 -19 d f 9 lw 1749 526 m 11 19 d 11 -19 d -22 X cl s black[ 4 8] 0 sd 3 lw 318 447 m 1860 X s 318 285 m 1860 X s 1 0 0 c[  12 12 ] 0 sd 6 lw 318 366 m 1860 X s
 gr  gr showpage
end
%%EOF
