%!PS-Adobe-2.0 EPSF-2.0
%%BoundingBox:  0 0 567 521
%%Title: Distributions/met_distrVR0LdPhi_MB-GGo_beforeFit_forThesis.eps: canvas
%%Creator: ROOT Version 6.04/16
%%CreationDate: Tue May 19 22:01:56 2020
%%DocumentNeededResources: ProcSet (FontSetInit)
%%EndComments
%%BeginProlog
80 dict begin
/s {stroke} def /l {lineto} def /m {moveto} def /t {translate} def
/r {rotate} def /rl {roll}  def /R {repeat} def
/d {rlineto} def /rm {rmoveto} def /gr {grestore} def /f {eofill} def
/c {setrgbcolor} def /black {0 setgray} def /sd {setdash} def
/cl {closepath} def /sf {scalefont setfont} def /lw {setlinewidth} def
/box {m dup 0 exch d exch 0 d 0 exch neg d cl} def
/NC{systemdict begin initclip end}def/C{NC box clip newpath}def
/bl {box s} def /bf {gsave box gsave f grestore 1 lw [] 0 sd s grestore} def /Y { 0 exch d} def /X { 0 d} def 
/K {{pop pop 0 moveto} exch kshow} bind def
/ita {/ang 15 def gsave [1 0 ang dup sin exch cos div 1 0 0] concat} def 
/mp {newpath /y exch def /x exch def} def
/side {[w .77 mul w .23 mul] .385 w mul sd w 0 l currentpoint t -144 r} def
/mr {mp x y w2 0 360 arc} def /m24 {mr s} def /m20 {mr f} def
/mb {mp x y w2 add m w2 neg 0 d 0 w neg d w 0 d 0 w d cl} def
/mt {mp x y w2 add m w2 neg w neg d w 0 d cl} def
/m21 {mb f} def /m25 {mb s} def /m22 {mt f} def /m26{mt s} def
/m23 {mp x y w2 sub m w2 w d w neg 0 d cl f} def
/m27 {mp x y w2 add m w3 neg w2 neg d w3 w2 neg d w3 w2 d cl s} def
/m28 {mp x w2 sub y w2 sub w3 add m w3 0 d  0 w3 neg d w3 0 d 0 w3 d w3 0 d  0 w3 d w3 neg 0 d 0 w3 d w3 neg 0 d 0 w3 neg d w3 neg 0 d cl s } def
/m29 {mp gsave x w2 sub y w2 add w3 sub m currentpoint t 4 {side} repeat cl fill gr} def
/m30 {mp gsave x w2 sub y w2 add w3 sub m currentpoint t 4 {side} repeat cl s gr} def
/m31 {mp x y w2 sub m 0 w d x w2 sub y m w 0 d x w2 sub y w2 add m w w neg d x w2 sub y w2 sub m w w d s} def
/m32 {mp x y w2 sub m w2 w d w neg 0 d cl s} def
/m33 {mp x y w2 add m w3 neg w2 neg d w3 w2 neg d w3 w2 d cl f} def
/m34 {mp x w2 sub y w2 sub w3 add m w3 0 d  0 w3 neg d w3 0 d 0 w3 d w3 0 d  0 w3 d w3 neg 0 d 0 w3 d w3 neg 0 d 0 w3 neg d w3 neg 0 d cl f } def
/m2 {mp x y w2 sub m 0 w d x w2 sub y m w 0 d s} def
/m5 {mp x w2 sub y w2 sub m w w d x w2 sub y w2 add m w w neg d s} def
%%IncludeResource: ProcSet (FontSetInit)
%%IncludeResource: font Times-Roman
%%IncludeResource: font Times-Italic
%%IncludeResource: font Times-Bold
%%IncludeResource: font Times-BoldItalic
%%IncludeResource: font Helvetica
%%IncludeResource: font Helvetica-Oblique
%%IncludeResource: font Helvetica-Bold
%%IncludeResource: font Helvetica-BoldOblique
%%IncludeResource: font Courier
%%IncludeResource: font Courier-Oblique
%%IncludeResource: font Courier-Bold
%%IncludeResource: font Courier-BoldOblique
%%IncludeResource: font Symbol
%%IncludeResource: font ZapfDingbats
/reEncode {exch findfont dup length dict begin {1 index /FID eq  {pop pop} {def} ifelse } forall /Encoding exch def currentdict end dup /FontName get exch definefont pop } def [/Times-Bold /Times-Italic /Times-BoldItalic /Helvetica /Helvetica-Oblique
 /Helvetica-Bold /Helvetica-BoldOblique /Courier /Courier-Oblique /Courier-Bold /Courier-BoldOblique /Times-Roman /AvantGarde-Book /AvantGarde-BookOblique /AvantGarde-Demi /AvantGarde-DemiOblique /Bookman-Demi /Bookman-DemiItalic /Bookman-Light
 /Bookman-LightItalic /Helvetica-Narrow /Helvetica-Narrow-Bold /Helvetica-Narrow-BoldOblique /Helvetica-Narrow-Oblique /NewCenturySchlbk-Roman /NewCenturySchlbk-Bold /NewCenturySchlbk-BoldItalic /NewCenturySchlbk-Italic /Palatino-Bold
 /Palatino-BoldItalic /Palatino-Italic /Palatino-Roman ] {ISOLatin1Encoding reEncode } forall
%%EndProlog
%%BeginSetup
%%EndSetup
newpath  gsave  .25 .25 scale  gsave  0 0 t black[  ] 0 sd 3 lw 1 1 1 c 2268 2085 0 0 bf black 1 1 1 c 2263 1770 2 313 bf black 1 1 1 c black 1860 1145 319 584 bl 1 1 1 c black 1860 1145 319 584 bl 6 lw 1 1 1 c black 3 lw /w 33 def /w2 {w 2 div} def
 /w3 {w 3 div} def 366 1082 m20 6 lw 459 725 m 84 Y s 459 836 m 29 Y s 3 lw 459 823 m20 6 lw 3 lw 319 584 m 1860 X s
 gsave  2263 1770 2 313 C 1949.08 355.92 t 0 r /Helvetica findfont 81.3741 sf 0 0 m ( [GeV]) show NC gr 
 gsave  2263 1770 2 313 C 1837.22 396.596 t 0 r /Helvetica findfont 54.2494 sf 0 0 m (miss) show NC gr 
 gsave  2263 1770 2 313 C 1837.22 332.192 t 0 r /Helvetica findfont 54.2494 sf 0 0 m (T) show NC gr 
 gsave  2263 1770 2 313 C 1786.38 355.92 t 0 r /Helvetica findfont 81.3741 sf 0 0 m (E) show NC gr  412 584 m cl s 459 584 m cl s 505 584 m cl s 552 584 m cl s 598 584 m cl s 645 584 m cl s 691 584 m cl s 738 584 m cl s 784 584 m cl s 831 584 m cl s
 877 584 m cl s 924 584 m cl s 970 584 m cl s 1017 584 m cl s 1063 584 m cl s 1110 584 m cl s 1156 584 m cl s 1203 584 m cl s 1249 584 m cl s 1296 584 m cl s 1342 584 m cl s 1389 584 m cl s 1435 584 m cl s 1482 584 m cl s 1528 584 m cl s 1575 584 m
 cl s 1621 584 m cl s 1668 584 m cl s 1714 584 m cl s 1761 584 m cl s 1807 584 m cl s 1854 584 m cl s 1900 584 m cl s 1947 584 m cl s 1993 584 m cl s 2040 584 m cl s 2086 584 m cl s 412 584 m cl s 366 584 m cl s 319 584 m cl s 2086 584 m cl s 2133
 584 m cl s 2179 584 m cl s 319 1729 m 1860 X s 412 1729 m cl s 459 1729 m cl s 505 1729 m cl s 552 1729 m cl s 598 1729 m cl s 645 1729 m cl s 691 1729 m cl s 738 1729 m cl s 784 1729 m cl s 831 1729 m cl s 877 1729 m cl s 924 1729 m cl s 970 1729 m
 cl s 1017 1729 m cl s 1063 1729 m cl s 1110 1729 m cl s 1156 1729 m cl s 1203 1729 m cl s 1249 1729 m cl s 1296 1729 m cl s 1342 1729 m cl s 1389 1729 m cl s 1435 1729 m cl s 1482 1729 m cl s 1528 1729 m cl s 1575 1729 m cl s 1621 1729 m cl s 1668
 1729 m cl s 1714 1729 m cl s 1761 1729 m cl s 1807 1729 m cl s 1854 1729 m cl s 1900 1729 m cl s 1947 1729 m cl s 1993 1729 m cl s 2040 1729 m cl s 2086 1729 m cl s 412 1729 m cl s 366 1729 m cl s 319 1729 m cl s 2086 1729 m cl s 2133 1729 m cl s
 2179 1729 m cl s 319 584 m 1145 Y s
 gsave  2263 1770 2 313 C 166.096 1091.49 t 90 r /Helvetica findfont 81.3741 sf 0 0 m (Events / 100 GeV) show NC gr  341 639 m -22 X s 341 672 m -22 X s 341 695 m -22 X s 341 712 m -22 X s 341 727 m -22 X s 341 739 m -22 X s 341 750 m -22 X s 341 759
 m -22 X s 363 767 m -44 X s
 gsave  2263 1770 2 313 C 300.555 740.35 t 0 r  -36 0 t /Helvetica findfont 64.4212 sf 0 0 m (1) show NC gr  341 823 m -22 X s 341 855 m -22 X s 341 878 m -22 X s 341 895 m -22 X s 341 910 m -22 X s 341 922 m -22 X s 341 933 m -22 X s 341 942 m -22 X
 s 363 951 m -44 X s
 gsave  2263 1770 2 313 C 300.555 923.507 t 0 r  -73 0 t /Helvetica findfont 64.4212 sf 0 0 m (10) show NC gr  341 1006 m -22 X s 341 1038 m -22 X s 341 1061 m -22 X s 341 1079 m -22 X s 341 1093 m -22 X s 341 1105 m -22 X s 341 1116 m -22 X s 341
 1125 m -22 X s 363 1134 m -44 X s
 gsave  2263 1770 2 313 C 274.567 1132.16 t 0 r /Helvetica findfont 44.0776 sf 0 0 m (2) show NC gr 
 gsave  2263 1770 2 313 C 203.383 1105.05 t 0 r /Helvetica findfont 64.4212 sf 0 0 m (10) show NC gr  341 1189 m -22 X s 341 1221 m -22 X s 341 1244 m -22 X s 341 1262 m -22 X s 341 1276 m -22 X s 341 1289 m -22 X s 341 1299 m -22 X s 341 1309 m -22
 X s 363 1317 m -44 X s
 gsave  2263 1770 2 313 C 274.567 1318.6 t 0 r /Helvetica findfont 44.0776 sf 0 0 m (3) show NC gr 
 gsave  2263 1770 2 313 C 203.383 1288.09 t 0 r /Helvetica findfont 64.4212 sf 0 0 m (10) show NC gr  341 1372 m -22 X s 341 1404 m -22 X s 341 1427 m -22 X s 341 1445 m -22 X s 341 1459 m -22 X s 341 1472 m -22 X s 341 1482 m -22 X s 341 1492 m -22
 X s 363 1500 m -44 X s
 gsave  2263 1770 2 313 C 274.567 1498.25 t 0 r /Helvetica findfont 44.0776 sf 0 0 m (4) show NC gr 
 gsave  2263 1770 2 313 C 203.383 1471.13 t 0 r /Helvetica findfont 64.4212 sf 0 0 m (10) show NC gr  341 1555 m -22 X s 341 1587 m -22 X s 341 1610 m -22 X s 341 1628 m -22 X s 341 1643 m -22 X s 341 1655 m -22 X s 341 1666 m -22 X s 341 1675 m -22
 X s 363 1683 m -44 X s
 gsave  2263 1770 2 313 C 274.567 1684.69 t 0 r /Helvetica findfont 44.0776 sf 0 0 m (5) show NC gr 
 gsave  2263 1770 2 313 C 203.383 1654.18 t 0 r /Helvetica findfont 64.4212 sf 0 0 m (10) show NC gr  2179 584 m 1145 Y s 2157 639 m 22 X s 2157 672 m 22 X s 2157 695 m 22 X s 2157 712 m 22 X s 2157 727 m 22 X s 2157 739 m 22 X s 2157 750 m 22 X s
 2157 759 m 22 X s 2136 767 m 43 X s 2157 823 m 22 X s 2157 855 m 22 X s 2157 878 m 22 X s 2157 895 m 22 X s 2157 910 m 22 X s 2157 922 m 22 X s 2157 933 m 22 X s 2157 942 m 22 X s 2136 951 m 43 X s 2157 1006 m 22 X s 2157 1038 m 22 X s 2157 1061 m
 22 X s 2157 1079 m 22 X s 2157 1093 m 22 X s 2157 1105 m 22 X s 2157 1116 m 22 X s 2157 1125 m 22 X s 2136 1134 m 43 X s 2157 1189 m 22 X s 2157 1221 m 22 X s 2157 1244 m 22 X s 2157 1262 m 22 X s 2157 1276 m 22 X s 2157 1289 m 22 X s 2157 1299 m 22
 X s 2157 1309 m 22 X s 2136 1317 m 43 X s 2157 1372 m 22 X s 2157 1404 m 22 X s 2157 1427 m 22 X s 2157 1445 m 22 X s 2157 1459 m 22 X s 2157 1472 m 22 X s 2157 1482 m 22 X s 2157 1492 m 22 X s 2136 1500 m 43 X s 2157 1555 m 22 X s 2157 1587 m 22 X
 s 2157 1610 m 22 X s 2157 1628 m 22 X s 2157 1643 m 22 X s 2157 1655 m 22 X s 2157 1666 m 22 X s 2157 1675 m 22 X s 2136 1683 m 43 X s 0.4 0.6 1 c black 0.4 0.6 1 c 319 584 m 508 Y 93 X -215 Y 93 X -231 Y 93 X -62 Y 1581 X f black 0.4 0.6 1 c black
 319 1092 m 93 X -215 Y 93 X -231 Y 93 X -62 Y 1581 X s 0.999 0.999 0.999 c black 0.999 0.999 0.999 c 319 584 m 492 Y 93 X -229 Y 93 X -213 Y 93 X -50 Y 1581 X f black 0.999 0.999 0.999 c black 319 1076 m 93 X -229 Y 93 X -213 Y 93 X -50 Y 1581 X s 1
 1 1 c black 319 1076 m 93 X -229 Y 93 X -213 Y 93 X -50 Y 1581 X s 0.6 1 0.6 c black 0.6 1 0.6 c 319 584 m 492 Y 93 X -229 Y 93 X -213 Y 93 X -50 Y 1581 X f black 0.6 1 0.6 c black 319 1076 m 93 X -229 Y 93 X -213 Y 93 X -50 Y 1581 X s 0.999 0.999
 0.999 c black 0.999 0.999 0.999 c 319 584 m 399 Y 93 X -231 Y 93 X -137 Y 93 X -31 Y 1581 X f black 0.999 0.999 0.999 c black 319 983 m 93 X -231 Y 93 X -137 Y 93 X -31 Y 1581 X s 1 1 1 c black 319 983 m 93 X -231 Y 93 X -137 Y 93 X -31 Y 1581 X s 1
 0.8 0.4 c black 1 0.8 0.4 c 319 584 m 399 Y 93 X -231 Y 93 X -137 Y 93 X -31 Y 1581 X f black 1 0.8 0.4 c black 319 983 m 93 X -231 Y 93 X -137 Y 93 X -31 Y 1581 X s 0.999 0.999 0.999 c black 0.999 0.999 0.999 c 319 584 m 277 Y 93 X -244 Y 93 X -33
 Y 1674 X f black 0.999 0.999 0.999 c black 319 861 m 93 X -244 Y 93 X -33 Y 1674 X s 1 1 1 c black 319 861 m 93 X -244 Y 93 X -33 Y 1674 X s 1 0.4 0.6 c black 1 0.4 0.6 c 319 584 m 277 Y 93 X -244 Y 93 X -33 Y 1674 X f black 1 0.4 0.6 c black 319
 861 m 93 X -244 Y 93 X -33 Y 1674 X s 0.999 0.999 0.999 c black 0.999 0.999 0.999 c 319 584 m 133 Y 93 X -133 Y 1767 X f black 0.999 0.999 0.999 c black 319 717 m 93 X -133 Y 1767 X s 1 1 1 c black 319 717 m 93 X -133 Y 1767 X s 0 0 0.4 c black 0 0
 0.4 c 319 584 m 133 Y 93 X -133 Y 1767 X f black 0 0 0.4 c black 319 717 m 93 X -133 Y 1767 X s 1 0 0 c 6 lw 1 1 1 c black 1 0 0 c 319 1092 m 93 X -215 Y 93 X -231 Y 93 X -62 Y 1581 X s black 3 lw 1 0 0 c 1 lw << /PatternType 1 /PaintType 2
 /TilingType 1 /BBox [ 0 0 100 100 ] /XStep 100 /YStep 100 /PaintProc { begin gsave 0 100 m 100 0 l s gr end } >> [ 0.24 0 0 0.24 0 0 ] makepattern /P05 exch def /cs {[/Pattern /DeviceRGB] setcolorspace} def /FA {f [/DeviceRGB] setcolorspace} def cs
 1 0 0 P05 setcolor 319 584 m 515 Y 93 X -210 Y 93 X -215 Y 93 X -90 Y 18 Y -93 X 259 Y -93 X 223 Y -93 X -500 Y FA 6 lw 1 1 1 c 15 lw 459 843 m 27 Y s 459 870 m cl s 459 802 m -62 Y s 459 740 m cl s black 1 1 1 c 3 lw /w 43 def /w2 {w 2 div} def /w3
 {w 3 div} def 366 1082 459 823 2 { m20} R 15 lw black 6 lw 1 1 1 c black 3 lw /w 33 def /w2 {w 2 div} def /w3 {w 3 div} def 366 1082 m20 6 lw 459 725 m 84 Y s 459 836 m 29 Y s 3 lw 459 823 m20 6 lw 459 836 m 34 Y s 459 870 m cl s 459 809 m -69 Y s
 459 740 m cl s 3 lw 366 1082 459 823 2 { m20} R 6 lw 3 lw 319 584 m 1860 X s 412 584 m cl s 459 584 m cl s 505 584 m cl s 552 584 m cl s 598 584 m cl s 645 584 m cl s 691 584 m cl s 738 584 m cl s 784 584 m cl s 831 584 m cl s 877 584 m cl s 924 584
 m cl s 970 584 m cl s 1017 584 m cl s 1063 584 m cl s 1110 584 m cl s 1156 584 m cl s 1203 584 m cl s 1249 584 m cl s 1296 584 m cl s 1342 584 m cl s 1389 584 m cl s 1435 584 m cl s 1482 584 m cl s 1528 584 m cl s 1575 584 m cl s 1621 584 m cl s
 1668 584 m cl s 1714 584 m cl s 1761 584 m cl s 1807 584 m cl s 1854 584 m cl s 1900 584 m cl s 1947 584 m cl s 1993 584 m cl s 2040 584 m cl s 2086 584 m cl s 412 584 m cl s 366 584 m cl s 319 584 m cl s 2086 584 m cl s 2133 584 m cl s 2179 584 m
 cl s 319 1729 m 1860 X s 412 1729 m cl s 459 1729 m cl s 505 1729 m cl s 552 1729 m cl s 598 1729 m cl s 645 1729 m cl s 691 1729 m cl s 738 1729 m cl s 784 1729 m cl s 831 1729 m cl s 877 1729 m cl s 924 1729 m cl s 970 1729 m cl s 1017 1729 m cl s
 1063 1729 m cl s 1110 1729 m cl s 1156 1729 m cl s 1203 1729 m cl s 1249 1729 m cl s 1296 1729 m cl s 1342 1729 m cl s 1389 1729 m cl s 1435 1729 m cl s 1482 1729 m cl s 1528 1729 m cl s 1575 1729 m cl s 1621 1729 m cl s 1668 1729 m cl s 1714 1729 m
 cl s 1761 1729 m cl s 1807 1729 m cl s 1854 1729 m cl s 1900 1729 m cl s 1947 1729 m cl s 1993 1729 m cl s 2040 1729 m cl s 2086 1729 m cl s 412 1729 m cl s 366 1729 m cl s 319 1729 m cl s 2086 1729 m cl s 2133 1729 m cl s 2179 1729 m cl s 319 584 m
 1145 Y s 341 639 m -22 X s 341 672 m -22 X s 341 695 m -22 X s 341 712 m -22 X s 341 727 m -22 X s 341 739 m -22 X s 341 750 m -22 X s 341 759 m -22 X s 363 767 m -44 X s 341 823 m -22 X s 341 855 m -22 X s 341 878 m -22 X s 341 895 m -22 X s 341
 910 m -22 X s 341 922 m -22 X s 341 933 m -22 X s 341 942 m -22 X s 363 951 m -44 X s 341 1006 m -22 X s 341 1038 m -22 X s 341 1061 m -22 X s 341 1079 m -22 X s 341 1093 m -22 X s 341 1105 m -22 X s 341 1116 m -22 X s 341 1125 m -22 X s 363 1134 m
 -44 X s 341 1189 m -22 X s 341 1221 m -22 X s 341 1244 m -22 X s 341 1262 m -22 X s 341 1276 m -22 X s 341 1289 m -22 X s 341 1299 m -22 X s 341 1309 m -22 X s 363 1317 m -44 X s 341 1372 m -22 X s 341 1404 m -22 X s 341 1427 m -22 X s 341 1445 m
 -22 X s 341 1459 m -22 X s 341 1472 m -22 X s 341 1482 m -22 X s 341 1492 m -22 X s 363 1500 m -44 X s 341 1555 m -22 X s 341 1587 m -22 X s 341 1610 m -22 X s 341 1628 m -22 X s 341 1643 m -22 X s 341 1655 m -22 X s 341 1666 m -22 X s 341 1675 m
 -22 X s 363 1683 m -44 X s 2179 584 m 1145 Y s 2157 639 m 22 X s 2157 672 m 22 X s 2157 695 m 22 X s 2157 712 m 22 X s 2157 727 m 22 X s 2157 739 m 22 X s 2157 750 m 22 X s 2157 759 m 22 X s 2136 767 m 43 X s 2157 823 m 22 X s 2157 855 m 22 X s 2157
 878 m 22 X s 2157 895 m 22 X s 2157 910 m 22 X s 2157 922 m 22 X s 2157 933 m 22 X s 2157 942 m 22 X s 2136 951 m 43 X s 2157 1006 m 22 X s 2157 1038 m 22 X s 2157 1061 m 22 X s 2157 1079 m 22 X s 2157 1093 m 22 X s 2157 1105 m 22 X s 2157 1116 m 22
 X s 2157 1125 m 22 X s 2136 1134 m 43 X s 2157 1189 m 22 X s 2157 1221 m 22 X s 2157 1244 m 22 X s 2157 1262 m 22 X s 2157 1276 m 22 X s 2157 1289 m 22 X s 2157 1299 m 22 X s 2157 1309 m 22 X s 2136 1317 m 43 X s 2157 1372 m 22 X s 2157 1404 m 22 X
 s 2157 1427 m 22 X s 2157 1445 m 22 X s 2157 1459 m 22 X s 2157 1472 m 22 X s 2157 1482 m 22 X s 2157 1492 m 22 X s 2136 1500 m 43 X s 2157 1555 m 22 X s 2157 1587 m 22 X s 2157 1610 m 22 X s 2157 1628 m 22 X s 2157 1643 m 22 X s 2157 1655 m 22 X s
 2157 1666 m 22 X s 2157 1675 m 22 X s 2136 1683 m 43 X s
 gsave  2263 1770 2 313 C 406.765 1447.41 t 0 r /Helvetica findfont 64.4212 sf 0 0 m (VR0LdPhi for MB\255GGo) show NC gr 
 gsave  2263 1770 2 313 C 1464.36 1630.45 t 0 r /Helvetica findfont 64.4212 sf 0 0 m (SM Total) show NC gr  1 1 1 c 1338 1616 m 107 X 64 Y -107 X f 1 0 0 c 6 lw 1338 1648 m 107 X s black
 gsave  2263 1770 2 313 C 1464.36 1538.93 t 0 r /Helvetica findfont 64.4212 sf 0 0 m (Data) show NC gr  1391 1529 m 55 Y s 3 lw 1391 1557 m20 6 lw
 gsave  2263 1770 2 313 C 1464.36 1447.41 t 0 r /Helvetica findfont 64.4212 sf 0 0 m (W+jets) show NC gr  0.4 0.6 1 c 3 lw 1338 1434 m 107 X 64 Y -107 X f 6 lw black 3 lw 1338 1498 m 107 X s 1338 1434 m 107 X s 1445 1434 m 64 Y s 1338 1434 m 64 Y s
 gsave  2263 1770 2 313 C 1498.25 1355.88 t 0 r /Helvetica findfont 64.4212 sf 0 0 m (\(+EW\) & single top) show NC gr 
 gsave  2263 1770 2 313 C 1481.3 1355.88 t 0 r /Helvetica findfont 64.4212 sf 0 0 m (t) show NC gr  1481 1407 m 17 X s
 gsave  2263 1770 2 313 C 1464.36 1355.88 t 0 r /Helvetica findfont 64.4212 sf 0 0 m (t) show NC gr  0.6 1 0.6 c 1338 1343 m 107 X 63 Y -107 X f black 1338 1406 m 107 X s 1338 1343 m 107 X s 1445 1343 m 63 Y s 1338 1343 m 63 Y s
 gsave  2263 1770 2 313 C 1464.36 1264.36 t 0 r /Helvetica findfont 64.4212 sf 0 0 m (Z+jets) show NC gr  1 0.8 0.4 c 1338 1252 m 107 X 63 Y -107 X f black 1338 1315 m 107 X s 1338 1252 m 107 X s 1445 1252 m 63 Y s 1338 1252 m 63 Y s
 gsave  2263 1770 2 313 C 1464.36 1172.84 t 0 r /Helvetica findfont 64.4212 sf 0 0 m (Diboson) show NC gr  1 0.4 0.6 c 1338 1161 m 107 X 63 Y -107 X f black 1338 1224 m 107 X s 1338 1161 m 107 X s 1445 1161 m 63 Y s 1338 1161 m 63 Y s
 gsave  2263 1770 2 313 C 1464.36 1081.32 t 0 r /Helvetica findfont 64.4212 sf 0 0 m (Multi\255jet) show NC gr  0 0 0.4 c 1338 1070 m 107 X 63 Y -107 X f black 1338 1133 m 107 X s 1338 1070 m 107 X s 1445 1070 m 63 Y s 1338 1070 m 63 Y s
 gsave  2263 1770 2 313 C 911.832 1566.05 t 0 r /Helvetica findfont 44.0776 sf 0 0 m (\2551) show NC gr 
 gsave  2263 1770 2 313 C 471.17 1535.54 t 0 r /Helvetica findfont 64.4212 sf 0 0 m (=13TeV, 139 fb) show NC gr 
 gsave  2263 1770 2 313 C 440.662 1535.54 t 0 r /Helvetica findfont 64.4212 sf 0 0 m (s) show NC gr  6 lw 420 1573 m 7 -41 d s 3 lw 427 1532 m 7 61 d s 434 1593 m 37 X s 1 1 1 c 2254 561 2 2 bf black 1 1 1 c black 1860 358 318 187 bl 1 1 1 c black
 1860 358 318 187 bl 6 lw 1 1 1 c black 3 lw 364 347 m20 6 lw 3 lw 457 286 m20 6 lw 3 lw 318 187 m 1860 X s
 gsave  2254 561 2 2 C 1959.25 27.1177 t 0 r /Helvetica findfont 78.1689 sf 0 0 m ( [GeV]) show NC gr 
 gsave  2254 561 2 2 C 1854.17 64.4045 t 0 r /Helvetica findfont 50.9797 sf 0 0 m (miss) show NC gr 
 gsave  2254 561 2 2 C 1854.17 3.38971 t 0 r /Helvetica findfont 50.9797 sf 0 0 m (T) show NC gr 
 gsave  2254 561 2 2 C 1803.33 27.1177 t 0 r /Helvetica findfont 78.1689 sf 0 0 m (E) show NC gr  411 201 m -14 Y s 457 194 m -7 Y s 504 194 m -7 Y s 550 194 m -7 Y s 597 201 m -14 Y s 643 194 m -7 Y s 690 194 m -7 Y s 736 194 m -7 Y s 783 201 m -14
 Y s 829 194 m -7 Y s 876 194 m -7 Y s 923 194 m -7 Y s 969 201 m -14 Y s 1016 194 m -7 Y s 1062 194 m -7 Y s 1109 194 m -7 Y s 1155 201 m -14 Y s 1202 194 m -7 Y s 1248 194 m -7 Y s 1295 194 m -7 Y s 1341 201 m -14 Y s 1388 194 m -7 Y s 1434 194 m
 -7 Y s 1481 194 m -7 Y s 1527 201 m -14 Y s 1574 194 m -7 Y s 1620 194 m -7 Y s 1667 194 m -7 Y s 1713 201 m -14 Y s 1760 194 m -7 Y s 1806 194 m -7 Y s 1853 194 m -7 Y s 1899 201 m -14 Y s 1946 194 m -7 Y s 1992 194 m -7 Y s 2039 194 m -7 Y s 2085
 201 m -14 Y s 411 201 m -14 Y s 364 194 m -7 Y s 318 194 m -7 Y s 2085 201 m -14 Y s 2132 194 m -7 Y s
 gsave  2254 561 2 2 C 345.75 118.64 t 0 r /Helvetica findfont 78.1689 sf 0 0 m (400) show NC gr 
 gsave  2254 561 2 2 C 532.185 118.64 t 0 r /Helvetica findfont 78.1689 sf 0 0 m (600) show NC gr 
 gsave  2254 561 2 2 C 715.229 118.64 t 0 r /Helvetica findfont 78.1689 sf 0 0 m (800) show NC gr 
 gsave  2254 561 2 2 C 877.935 118.64 t 0 r /Helvetica findfont 78.1689 sf 0 0 m (1000) show NC gr 
 gsave  2254 561 2 2 C 1064.37 118.64 t 0 r /Helvetica findfont 78.1689 sf 0 0 m (1200) show NC gr 
 gsave  2254 561 2 2 C 1250.8 118.64 t 0 r /Helvetica findfont 78.1689 sf 0 0 m (1400) show NC gr 
 gsave  2254 561 2 2 C 1437.24 118.64 t 0 r /Helvetica findfont 78.1689 sf 0 0 m (1600) show NC gr 
 gsave  2254 561 2 2 C 1623.67 118.64 t 0 r /Helvetica findfont 78.1689 sf 0 0 m (1800) show NC gr 
 gsave  2254 561 2 2 C 1810.11 118.64 t 0 r /Helvetica findfont 78.1689 sf 0 0 m (2000) show NC gr 
 gsave  2254 561 2 2 C 1996.54 118.64 t 0 r /Helvetica findfont 78.1689 sf 0 0 m (2200) show NC gr  318 545 m 1860 X s 411 531 m 14 Y s 457 538 m 7 Y s 504 538 m 7 Y s 550 538 m 7 Y s 597 531 m 14 Y s 643 538 m 7 Y s 690 538 m 7 Y s 736 538 m 7 Y s
 783 531 m 14 Y s 829 538 m 7 Y s 876 538 m 7 Y s 923 538 m 7 Y s 969 531 m 14 Y s 1016 538 m 7 Y s 1062 538 m 7 Y s 1109 538 m 7 Y s 1155 531 m 14 Y s 1202 538 m 7 Y s 1248 538 m 7 Y s 1295 538 m 7 Y s 1341 531 m 14 Y s 1388 538 m 7 Y s 1434 538 m 7
 Y s 1481 538 m 7 Y s 1527 531 m 14 Y s 1574 538 m 7 Y s 1620 538 m 7 Y s 1667 538 m 7 Y s 1713 531 m 14 Y s 1760 538 m 7 Y s 1806 538 m 7 Y s 1853 538 m 7 Y s 1899 531 m 14 Y s 1946 538 m 7 Y s 1992 538 m 7 Y s 2039 538 m 7 Y s 2085 531 m 14 Y s 411
 531 m 14 Y s 364 538 m 7 Y s 318 538 m 7 Y s 2085 531 m 14 Y s 2132 538 m 7 Y s 318 187 m 358 Y s
 gsave  2254 561 2 2 C 166.096 284.736 t 90 r /Helvetica findfont 67.9729 sf 0 0 m (Data/SM) show NC gr  361 203 m -43 X s 339 220 m -21 X s 339 236 m -21 X s 339 252 m -21 X s 339 268 m -21 X s 361 285 m -43 X s 339 301 m -21 X s 339 317 m -21 X s
 339 334 m -21 X s 339 350 m -21 X s 361 366 m -43 X s 339 382 m -21 X s 339 399 m -21 X s 339 415 m -21 X s 339 431 m -21 X s 361 447 m -43 X s 339 464 m -21 X s 339 480 m -21 X s 339 496 m -21 X s 339 512 m -21 X s 361 529 m -43 X s 361 203 m -43 X
 s 339 187 m -21 X s 361 529 m -43 X s
 gsave  2254 561 2 2 C 261.008 183.044 t 0 r /Helvetica findfont 57.777 sf 0 0 m (0) show NC gr 
 gsave  2254 561 2 2 C 213.552 261.008 t 0 r /Helvetica findfont 57.777 sf 0 0 m (0.5) show NC gr 
 gsave  2254 561 2 2 C 271.177 342.361 t 0 r /Helvetica findfont 57.777 sf 0 0 m (1) show NC gr 
 gsave  2254 561 2 2 C 213.552 423.714 t 0 r /Helvetica findfont 57.777 sf 0 0 m (1.5) show NC gr 
 gsave  2254 561 2 2 C 261.008 505.067 t 0 r /Helvetica findfont 57.777 sf 0 0 m (2) show NC gr  2178 187 m 358 Y s 2135 203 m 43 X s 2157 220 m 21 X s 2157 236 m 21 X s 2157 252 m 21 X s 2157 268 m 21 X s 2135 285 m 43 X s 2157 301 m 21 X s 2157 317
 m 21 X s 2157 334 m 21 X s 2157 350 m 21 X s 2135 366 m 43 X s 2157 382 m 21 X s 2157 399 m 21 X s 2157 415 m 21 X s 2157 431 m 21 X s 2135 447 m 43 X s 2157 464 m 21 X s 2157 480 m 21 X s 2157 496 m 21 X s 2157 512 m 21 X s 2135 529 m 43 X s 2135
 203 m 43 X s 2157 187 m 21 X s 2135 529 m 43 X s 9 lw 364 360 m 7 Y s 364 367 m cl s 364 333 m -6 Y s 364 327 m cl s 457 299 m 54 Y s 457 353 m cl s 457 272 m -39 Y s 457 233 m cl s 3 lw 364 347 457 286 2 { m20} R 9 lw 1 0 0 c 6 lw black 3 lw 1 0 0
 c 2155 203 m cl s 2127 203 m cl s 2098 203 m cl s 2069 203 m cl s 2040 203 m cl s 2012 203 m cl s 1983 203 m cl s 1954 203 m cl s 1926 203 m cl s 1897 203 m cl s 1868 203 m cl s 1840 203 m cl s 1811 203 m cl s 1782 203 m cl s 1754 203 m cl s 1725
 203 m cl s 1696 203 m cl s 1667 203 m cl s 1639 203 m cl s 1610 203 m cl s 1581 203 m cl s 1553 203 m cl s 1524 203 m cl s 1495 203 m cl s 1467 203 m cl s 1438 203 m cl s 1409 203 m cl s 1381 203 m cl s 1352 203 m cl s 1323 203 m cl s 1294 203 m cl
 s 1266 203 m cl s 1237 203 m cl s 1208 203 m cl s 1180 203 m cl s 1151 203 m cl s 1122 203 m cl s 1094 203 m cl s 1065 203 m cl s 1036 203 m cl s 1008 203 m cl s 979 203 m cl s 950 203 m cl s 922 203 m cl s 893 203 m cl s 864 203 m cl s 835 203 m cl
 s 807 203 m cl s 778 203 m cl s 749 203 m cl s 721 203 m cl s 692 203 m cl s 690 230 m s 690 259 m -5 -6 d s 690 287 m -34 -34 d s 690 316 m -63 -63 d s 690 344 m -91 -91 d s 690 373 m -93 -93 d s 690 402 m -105 -105 d s 690 430 m -134 -133 d s 690
 459 m -162 -162 d s 681 479 m -177 -177 d s 653 479 m -149 -149 d s 624 479 m -27 -27 d s 580 435 m -98 -97 d s 552 435 m -98 -97 d s 523 435 m -19 -19 d s 482 394 m -57 -56 d s 318 231 m s 453 394 m -44 -43 d s 318 259 m s 425 394 m -44 -43 d s 318
 288 m s 383 381 m -31 -30 d s 318 317 m s 354 381 m -31 -30 d s 318 345 m s 326 381 m -8 -7 d s 6 lw black[ 4 8] 0 sd 3 lw 318 447 m 1860 X s 318 285 m 1860 X s 1 0 0 c[  12 12 ] 0 sd 6 lw 318 366 m 1860 X s
 gr  gr showpage
end
%%EOF
