%!PS-Adobe-2.0 EPSF-2.0
%%BoundingBox:  0 0 567 521
%%Title: Distributions/met_distrVR0LmetSig_MB-SSd_beforeFit_forThesis.eps: canvas
%%Creator: ROOT Version 6.04/16
%%CreationDate: Tue May 19 22:02:00 2020
%%DocumentNeededResources: ProcSet (FontSetInit)
%%EndComments
%%BeginProlog
80 dict begin
/s {stroke} def /l {lineto} def /m {moveto} def /t {translate} def
/r {rotate} def /rl {roll}  def /R {repeat} def
/d {rlineto} def /rm {rmoveto} def /gr {grestore} def /f {eofill} def
/c {setrgbcolor} def /black {0 setgray} def /sd {setdash} def
/cl {closepath} def /sf {scalefont setfont} def /lw {setlinewidth} def
/box {m dup 0 exch d exch 0 d 0 exch neg d cl} def
/NC{systemdict begin initclip end}def/C{NC box clip newpath}def
/bl {box s} def /bf {gsave box gsave f grestore 1 lw [] 0 sd s grestore} def /Y { 0 exch d} def /X { 0 d} def 
/K {{pop pop 0 moveto} exch kshow} bind def
/ita {/ang 15 def gsave [1 0 ang dup sin exch cos div 1 0 0] concat} def 
/mp {newpath /y exch def /x exch def} def
/side {[w .77 mul w .23 mul] .385 w mul sd w 0 l currentpoint t -144 r} def
/mr {mp x y w2 0 360 arc} def /m24 {mr s} def /m20 {mr f} def
/mb {mp x y w2 add m w2 neg 0 d 0 w neg d w 0 d 0 w d cl} def
/mt {mp x y w2 add m w2 neg w neg d w 0 d cl} def
/m21 {mb f} def /m25 {mb s} def /m22 {mt f} def /m26{mt s} def
/m23 {mp x y w2 sub m w2 w d w neg 0 d cl f} def
/m27 {mp x y w2 add m w3 neg w2 neg d w3 w2 neg d w3 w2 d cl s} def
/m28 {mp x w2 sub y w2 sub w3 add m w3 0 d  0 w3 neg d w3 0 d 0 w3 d w3 0 d  0 w3 d w3 neg 0 d 0 w3 d w3 neg 0 d 0 w3 neg d w3 neg 0 d cl s } def
/m29 {mp gsave x w2 sub y w2 add w3 sub m currentpoint t 4 {side} repeat cl fill gr} def
/m30 {mp gsave x w2 sub y w2 add w3 sub m currentpoint t 4 {side} repeat cl s gr} def
/m31 {mp x y w2 sub m 0 w d x w2 sub y m w 0 d x w2 sub y w2 add m w w neg d x w2 sub y w2 sub m w w d s} def
/m32 {mp x y w2 sub m w2 w d w neg 0 d cl s} def
/m33 {mp x y w2 add m w3 neg w2 neg d w3 w2 neg d w3 w2 d cl f} def
/m34 {mp x w2 sub y w2 sub w3 add m w3 0 d  0 w3 neg d w3 0 d 0 w3 d w3 0 d  0 w3 d w3 neg 0 d 0 w3 d w3 neg 0 d 0 w3 neg d w3 neg 0 d cl f } def
/m2 {mp x y w2 sub m 0 w d x w2 sub y m w 0 d s} def
/m5 {mp x w2 sub y w2 sub m w w d x w2 sub y w2 add m w w neg d s} def
%%IncludeResource: ProcSet (FontSetInit)
%%IncludeResource: font Times-Roman
%%IncludeResource: font Times-Italic
%%IncludeResource: font Times-Bold
%%IncludeResource: font Times-BoldItalic
%%IncludeResource: font Helvetica
%%IncludeResource: font Helvetica-Oblique
%%IncludeResource: font Helvetica-Bold
%%IncludeResource: font Helvetica-BoldOblique
%%IncludeResource: font Courier
%%IncludeResource: font Courier-Oblique
%%IncludeResource: font Courier-Bold
%%IncludeResource: font Courier-BoldOblique
%%IncludeResource: font Symbol
%%IncludeResource: font ZapfDingbats
/reEncode {exch findfont dup length dict begin {1 index /FID eq  {pop pop} {def} ifelse } forall /Encoding exch def currentdict end dup /FontName get exch definefont pop } def [/Times-Bold /Times-Italic /Times-BoldItalic /Helvetica /Helvetica-Oblique
 /Helvetica-Bold /Helvetica-BoldOblique /Courier /Courier-Oblique /Courier-Bold /Courier-BoldOblique /Times-Roman /AvantGarde-Book /AvantGarde-BookOblique /AvantGarde-Demi /AvantGarde-DemiOblique /Bookman-Demi /Bookman-DemiItalic /Bookman-Light
 /Bookman-LightItalic /Helvetica-Narrow /Helvetica-Narrow-Bold /Helvetica-Narrow-BoldOblique /Helvetica-Narrow-Oblique /NewCenturySchlbk-Roman /NewCenturySchlbk-Bold /NewCenturySchlbk-BoldItalic /NewCenturySchlbk-Italic /Palatino-Bold
 /Palatino-BoldItalic /Palatino-Italic /Palatino-Roman ] {ISOLatin1Encoding reEncode } forall
%%EndProlog
%%BeginSetup
%%EndSetup
newpath  gsave  .25 .25 scale  gsave  0 0 t black[  ] 0 sd 3 lw 1 1 1 c 2268 2085 0 0 bf black 1 1 1 c 2263 1770 2 313 bf black 1 1 1 c black 1860 1145 319 584 bl 1 1 1 c black 1860 1145 319 584 bl 6 lw 1 1 1 c black 3 lw /w 33 def /w2 {w 2 div} def
 /w3 {w 3 div} def 366 1242 m20 6 lw 3 lw 459 1194 m20 6 lw 3 lw 552 1129 m20 6 lw 3 lw 645 1075 m20 6 lw 3 lw 738 1022 m20 6 lw 3 lw 831 981 m20 6 lw 3 lw 924 944 m20 6 lw 1017 894 m 1 Y s 3 lw 1017 908 m20 6 lw 1110 811 m 15 Y s 1110 853 m 6 Y s 3
 lw 1110 840 m20 6 lw 1203 784 m 22 Y s 1203 833 m 9 Y s 3 lw 1203 819 m20 6 lw 1296 737 m 38 Y s 1296 802 m 14 Y s 3 lw 1296 789 m20 6 lw 1389 691 m 60 Y s 1389 778 m 18 Y s 3 lw 1389 764 m20 6 lw 1575 584 m 125 Y s 1575 736 m 28 Y s 3 lw 1575 723
 m20 6 lw 3 lw 319 584 m 1860 X s
 gsave  2263 1770 2 313 C 1949.08 355.92 t 0 r /Helvetica findfont 81.3741 sf 0 0 m ( [GeV]) show NC gr 
 gsave  2263 1770 2 313 C 1837.22 396.596 t 0 r /Helvetica findfont 54.2494 sf 0 0 m (miss) show NC gr 
 gsave  2263 1770 2 313 C 1837.22 332.192 t 0 r /Helvetica findfont 54.2494 sf 0 0 m (T) show NC gr 
 gsave  2263 1770 2 313 C 1786.38 355.92 t 0 r /Helvetica findfont 81.3741 sf 0 0 m (E) show NC gr  412 584 m cl s 459 584 m cl s 505 584 m cl s 552 584 m cl s 598 584 m cl s 645 584 m cl s 691 584 m cl s 738 584 m cl s 784 584 m cl s 831 584 m cl s
 877 584 m cl s 924 584 m cl s 970 584 m cl s 1017 584 m cl s 1063 584 m cl s 1110 584 m cl s 1156 584 m cl s 1203 584 m cl s 1249 584 m cl s 1296 584 m cl s 1342 584 m cl s 1389 584 m cl s 1435 584 m cl s 1482 584 m cl s 1528 584 m cl s 1575 584 m
 cl s 1621 584 m cl s 1668 584 m cl s 1714 584 m cl s 1761 584 m cl s 1807 584 m cl s 1854 584 m cl s 1900 584 m cl s 1947 584 m cl s 1993 584 m cl s 2040 584 m cl s 2086 584 m cl s 412 584 m cl s 366 584 m cl s 319 584 m cl s 2086 584 m cl s 2133
 584 m cl s 2179 584 m cl s 319 1729 m 1860 X s 412 1729 m cl s 459 1729 m cl s 505 1729 m cl s 552 1729 m cl s 598 1729 m cl s 645 1729 m cl s 691 1729 m cl s 738 1729 m cl s 784 1729 m cl s 831 1729 m cl s 877 1729 m cl s 924 1729 m cl s 970 1729 m
 cl s 1017 1729 m cl s 1063 1729 m cl s 1110 1729 m cl s 1156 1729 m cl s 1203 1729 m cl s 1249 1729 m cl s 1296 1729 m cl s 1342 1729 m cl s 1389 1729 m cl s 1435 1729 m cl s 1482 1729 m cl s 1528 1729 m cl s 1575 1729 m cl s 1621 1729 m cl s 1668
 1729 m cl s 1714 1729 m cl s 1761 1729 m cl s 1807 1729 m cl s 1854 1729 m cl s 1900 1729 m cl s 1947 1729 m cl s 1993 1729 m cl s 2040 1729 m cl s 2086 1729 m cl s 412 1729 m cl s 366 1729 m cl s 319 1729 m cl s 2086 1729 m cl s 2133 1729 m cl s
 2179 1729 m cl s 319 584 m 1145 Y s
 gsave  2263 1770 2 313 C 166.096 1091.49 t 90 r /Helvetica findfont 81.3741 sf 0 0 m (Events / 100 GeV) show NC gr  341 626 m -22 X s 341 650 m -22 X s 341 668 m -22 X s 341 681 m -22 X s 341 692 m -22 X s 341 701 m -22 X s 341 709 m -22 X s 341 716
 m -22 X s 363 723 m -44 X s
 gsave  2263 1770 2 313 C 300.555 695.569 t 0 r  -36 0 t /Helvetica findfont 64.4212 sf 0 0 m (1) show NC gr  341 764 m -22 X s 341 789 m -22 X s 341 806 m -22 X s 341 819 m -22 X s 341 830 m -22 X s 341 840 m -22 X s 341 848 m -22 X s 341 855 m -22
 X s 363 861 m -44 X s
 gsave  2263 1770 2 313 C 300.555 833.947 t 0 r  -73 0 t /Helvetica findfont 64.4212 sf 0 0 m (10) show NC gr  341 903 m -22 X s 341 927 m -22 X s 341 944 m -22 X s 341 958 m -22 X s 341 969 m -22 X s 341 978 m -22 X s 341 986 m -22 X s 341 993 m -22
 X s 363 999 m -44 X s
 gsave  2263 1770 2 313 C 274.567 996.575 t 0 r /Helvetica findfont 44.0776 sf 0 0 m (2) show NC gr 
 gsave  2263 1770 2 313 C 203.383 969.457 t 0 r /Helvetica findfont 64.4212 sf 0 0 m (10) show NC gr  341 1041 m -22 X s 341 1065 m -22 X s 341 1083 m -22 X s 341 1096 m -22 X s 341 1107 m -22 X s 341 1116 m -22 X s 341 1124 m -22 X s 341 1131 m -22
 X s 363 1138 m -44 X s
 gsave  2263 1770 2 313 C 274.567 1138.94 t 0 r /Helvetica findfont 44.0776 sf 0 0 m (3) show NC gr 
 gsave  2263 1770 2 313 C 203.383 1108.44 t 0 r /Helvetica findfont 64.4212 sf 0 0 m (10) show NC gr  341 1179 m -22 X s 341 1204 m -22 X s 341 1221 m -22 X s 341 1235 m -22 X s 341 1245 m -22 X s 341 1255 m -22 X s 341 1263 m -22 X s 341 1270 m -22
 X s 363 1276 m -44 X s
 gsave  2263 1770 2 313 C 274.567 1274.53 t 0 r /Helvetica findfont 44.0776 sf 0 0 m (4) show NC gr 
 gsave  2263 1770 2 313 C 203.383 1247.41 t 0 r /Helvetica findfont 64.4212 sf 0 0 m (10) show NC gr  341 1318 m -22 X s 341 1342 m -22 X s 341 1360 m -22 X s 341 1373 m -22 X s 341 1384 m -22 X s 341 1393 m -22 X s 341 1401 m -22 X s 341 1408 m -22
 X s 363 1415 m -44 X s
 gsave  2263 1770 2 313 C 274.567 1416.9 t 0 r /Helvetica findfont 44.0776 sf 0 0 m (5) show NC gr 
 gsave  2263 1770 2 313 C 203.383 1386.39 t 0 r /Helvetica findfont 64.4212 sf 0 0 m (10) show NC gr  341 1456 m -22 X s 341 1481 m -22 X s 341 1498 m -22 X s 341 1511 m -22 X s 341 1522 m -22 X s 341 1532 m -22 X s 341 1540 m -22 X s 341 1547 m -22
 X s 363 1553 m -44 X s
 gsave  2263 1770 2 313 C 274.567 1555.88 t 0 r /Helvetica findfont 44.0776 sf 0 0 m (6) show NC gr 
 gsave  2263 1770 2 313 C 203.383 1525.37 t 0 r /Helvetica findfont 64.4212 sf 0 0 m (10) show NC gr  341 1595 m -22 X s 341 1619 m -22 X s 341 1636 m -22 X s 341 1650 m -22 X s 341 1661 m -22 X s 341 1670 m -22 X s 341 1678 m -22 X s 341 1685 m -22
 X s 363 1691 m -44 X s
 gsave  2263 1770 2 313 C 274.567 1688.08 t 0 r /Helvetica findfont 44.0776 sf 0 0 m (7) show NC gr 
 gsave  2263 1770 2 313 C 203.383 1660.96 t 0 r /Helvetica findfont 64.4212 sf 0 0 m (10) show NC gr  2179 584 m 1145 Y s 2157 626 m 22 X s 2157 650 m 22 X s 2157 668 m 22 X s 2157 681 m 22 X s 2157 692 m 22 X s 2157 701 m 22 X s 2157 709 m 22 X s
 2157 716 m 22 X s 2136 723 m 43 X s 2157 764 m 22 X s 2157 789 m 22 X s 2157 806 m 22 X s 2157 819 m 22 X s 2157 830 m 22 X s 2157 840 m 22 X s 2157 848 m 22 X s 2157 855 m 22 X s 2136 861 m 43 X s 2157 903 m 22 X s 2157 927 m 22 X s 2157 944 m 22 X
 s 2157 958 m 22 X s 2157 969 m 22 X s 2157 978 m 22 X s 2157 986 m 22 X s 2157 993 m 22 X s 2136 999 m 43 X s 2157 1041 m 22 X s 2157 1065 m 22 X s 2157 1083 m 22 X s 2157 1096 m 22 X s 2157 1107 m 22 X s 2157 1116 m 22 X s 2157 1124 m 22 X s 2157
 1131 m 22 X s 2136 1138 m 43 X s 2157 1179 m 22 X s 2157 1204 m 22 X s 2157 1221 m 22 X s 2157 1235 m 22 X s 2157 1245 m 22 X s 2157 1255 m 22 X s 2157 1263 m 22 X s 2157 1270 m 22 X s 2136 1276 m 43 X s 2157 1318 m 22 X s 2157 1342 m 22 X s 2157
 1360 m 22 X s 2157 1373 m 22 X s 2157 1384 m 22 X s 2157 1393 m 22 X s 2157 1401 m 22 X s 2157 1408 m 22 X s 2136 1415 m 43 X s 2157 1456 m 22 X s 2157 1481 m 22 X s 2157 1498 m 22 X s 2157 1511 m 22 X s 2157 1522 m 22 X s 2157 1532 m 22 X s 2157
 1540 m 22 X s 2157 1547 m 22 X s 2136 1553 m 43 X s 2157 1595 m 22 X s 2157 1619 m 22 X s 2157 1636 m 22 X s 2157 1650 m 22 X s 2157 1661 m 22 X s 2157 1670 m 22 X s 2157 1678 m 22 X s 2157 1685 m 22 X s 2136 1691 m 43 X s 0.4 0.6 1 c black 0.4 0.6
 1 c 319 584 m 663 Y 93 X -46 Y 93 X -64 Y 93 X -58 Y 93 X -51 Y 93 X -55 Y 93 X -37 Y 93 X -43 Y 93 X -38 Y 93 X -35 Y 93 X -34 Y 93 X -40 Y 93 X -50 Y 93 X -44 Y 93 X -24 Y 93 X -37 Y 93 X -7 Y 93 X 28 Y 93 X -28 Y 186 X f black 0.4 0.6 1 c black
 319 1247 m 93 X -46 Y 93 X -64 Y 93 X -58 Y 93 X -51 Y 93 X -55 Y 93 X -37 Y 93 X -43 Y 93 X -38 Y 93 X -35 Y 93 X -34 Y 93 X -40 Y 93 X -50 Y 93 X -44 Y 93 X -24 Y 93 X -37 Y 93 X -7 Y 93 X 28 Y 93 X -28 Y 186 X s 0.999 0.999 0.999 c black 0.999
 0.999 0.999 c 319 584 m 646 Y 93 X -47 Y 93 X -63 Y 93 X -58 Y 93 X -50 Y 93 X -55 Y 93 X -35 Y 93 X -44 Y 93 X -35 Y 93 X -39 Y 93 X -28 Y 93 X -41 Y 93 X -57 Y 93 X -35 Y 93 X -33 Y 93 X -26 Y 186 X 21 Y 93 X -21 Y 186 X f black 0.999 0.999 0.999
 c black 319 1230 m 93 X -47 Y 93 X -63 Y 93 X -58 Y 93 X -50 Y 93 X -55 Y 93 X -35 Y 93 X -44 Y 93 X -35 Y 93 X -39 Y 93 X -28 Y 93 X -41 Y 93 X -57 Y 93 X -35 Y 93 X -33 Y 93 X -26 Y 186 X 21 Y 93 X -21 Y 186 X s 1 1 1 c black 319 1230 m 93 X -47 Y
 93 X -63 Y 93 X -58 Y 93 X -50 Y 93 X -55 Y 93 X -35 Y 93 X -44 Y 93 X -35 Y 93 X -39 Y 93 X -28 Y 93 X -41 Y 93 X -57 Y 93 X -35 Y 93 X -33 Y 93 X -26 Y 186 X 21 Y 93 X -21 Y 186 X s 0.6 1 0.6 c black 0.6 1 0.6 c 319 584 m 646 Y 93 X -47 Y 93 X -63
 Y 93 X -58 Y 93 X -50 Y 93 X -55 Y 93 X -35 Y 93 X -44 Y 93 X -35 Y 93 X -39 Y 93 X -28 Y 93 X -41 Y 93 X -57 Y 93 X -35 Y 93 X -33 Y 93 X -26 Y 186 X 21 Y 93 X -21 Y 186 X f black 0.6 1 0.6 c black 319 1230 m 93 X -47 Y 93 X -63 Y 93 X -58 Y 93 X
 -50 Y 93 X -55 Y 93 X -35 Y 93 X -44 Y 93 X -35 Y 93 X -39 Y 93 X -28 Y 93 X -41 Y 93 X -57 Y 93 X -35 Y 93 X -33 Y 93 X -26 Y 186 X 21 Y 93 X -21 Y 186 X s 0.999 0.999 0.999 c black 0.999 0.999 0.999 c 319 584 m 611 Y 93 X -37 Y 93 X -53 Y 93 X -53
 Y 93 X -48 Y 93 X -54 Y 93 X -32 Y 93 X -42 Y 93 X -35 Y 93 X -39 Y 93 X -27 Y 93 X -41 Y 93 X -57 Y 93 X -34 Y 93 X -33 Y 93 X -26 Y 186 X 21 Y 93 X -21 Y 186 X f black 0.999 0.999 0.999 c black 319 1195 m 93 X -37 Y 93 X -53 Y 93 X -53 Y 93 X -48
 Y 93 X -54 Y 93 X -32 Y 93 X -42 Y 93 X -35 Y 93 X -39 Y 93 X -27 Y 93 X -41 Y 93 X -57 Y 93 X -34 Y 93 X -33 Y 93 X -26 Y 186 X 21 Y 93 X -21 Y 186 X s 1 1 1 c black 319 1195 m 93 X -37 Y 93 X -53 Y 93 X -53 Y 93 X -48 Y 93 X -54 Y 93 X -32 Y 93 X
 -42 Y 93 X -35 Y 93 X -39 Y 93 X -27 Y 93 X -41 Y 93 X -57 Y 93 X -34 Y 93 X -33 Y 93 X -26 Y 186 X 21 Y 93 X -21 Y 186 X s 1 0.8 0.4 c black 1 0.8 0.4 c 319 584 m 611 Y 93 X -37 Y 93 X -53 Y 93 X -53 Y 93 X -48 Y 93 X -54 Y 93 X -32 Y 93 X -42 Y 93
 X -35 Y 93 X -39 Y 93 X -27 Y 93 X -41 Y 93 X -57 Y 93 X -34 Y 93 X -33 Y 93 X -26 Y 186 X 21 Y 93 X -21 Y 186 X f black 1 0.8 0.4 c black 319 1195 m 93 X -37 Y 93 X -53 Y 93 X -53 Y 93 X -48 Y 93 X -54 Y 93 X -32 Y 93 X -42 Y 93 X -35 Y 93 X -39 Y
 93 X -27 Y 93 X -41 Y 93 X -57 Y 93 X -34 Y 93 X -33 Y 93 X -26 Y 186 X 21 Y 93 X -21 Y 186 X s 0.999 0.999 0.999 c black 0.999 0.999 0.999 c 319 584 m 474 Y 93 X -36 Y 93 X -57 Y 93 X -49 Y 93 X -48 Y 93 X -41 Y 93 X -34 Y 93 X -30 Y 93 X -58 Y 93
 X -43 Y 93 X -19 Y 93 X -59 Y 837 X f black 0.999 0.999 0.999 c black 319 1058 m 93 X -36 Y 93 X -57 Y 93 X -49 Y 93 X -48 Y 93 X -41 Y 93 X -34 Y 93 X -30 Y 93 X -58 Y 93 X -43 Y 93 X -19 Y 93 X -59 Y 837 X s 1 1 1 c black 319 1058 m 93 X -36 Y 93
 X -57 Y 93 X -49 Y 93 X -48 Y 93 X -41 Y 93 X -34 Y 93 X -30 Y 93 X -58 Y 93 X -43 Y 93 X -19 Y 93 X -59 Y 837 X s 1 0.4 0.6 c black 1 0.4 0.6 c 319 584 m 474 Y 93 X -36 Y 93 X -57 Y 93 X -49 Y 93 X -48 Y 93 X -41 Y 93 X -34 Y 93 X -30 Y 93 X -58 Y
 93 X -43 Y 93 X -19 Y 93 X -59 Y 837 X f black 1 0.4 0.6 c black 319 1058 m 93 X -36 Y 93 X -57 Y 93 X -49 Y 93 X -48 Y 93 X -41 Y 93 X -34 Y 93 X -30 Y 93 X -58 Y 93 X -43 Y 93 X -19 Y 93 X -59 Y 837 X s 0.999 0.999 0.999 c black 0.999 0.999 0.999
 c 319 584 m 382 Y 93 X -76 Y 93 X -110 Y 93 X -64 Y 93 X -127 Y 93 X -5 Y 1395 X f black 0.999 0.999 0.999 c black 319 966 m 93 X -76 Y 93 X -110 Y 93 X -64 Y 93 X -127 Y 93 X -5 Y 1395 X s 1 1 1 c black 319 966 m 93 X -76 Y 93 X -110 Y 93 X -64 Y
 93 X -127 Y 93 X -5 Y 1395 X s 0 0 0.4 c black 0 0 0.4 c 319 584 m 382 Y 93 X -76 Y 93 X -110 Y 93 X -64 Y 93 X -127 Y 93 X -5 Y 1395 X f black 0 0 0.4 c black 319 966 m 93 X -76 Y 93 X -110 Y 93 X -64 Y 93 X -127 Y 93 X -5 Y 1395 X s 1 0 0 c 6 lw 1
 1 1 c black 1 0 0 c 319 1247 m 93 X -46 Y 93 X -64 Y 93 X -58 Y 93 X -51 Y 93 X -55 Y 93 X -37 Y 93 X -43 Y 93 X -38 Y 93 X -35 Y 93 X -34 Y 93 X -40 Y 93 X -50 Y 93 X -44 Y 93 X -24 Y 93 X -37 Y 93 X -7 Y 93 X 28 Y 93 X -28 Y 186 X s black 3 lw 1 0
 0 c 1 lw << /PatternType 1 /PaintType 2 /TilingType 1 /BBox [ 0 0 100 100 ] /XStep 100 /YStep 100 /PaintProc { begin gsave 0 100 m 100 0 l s gr end } >> [ 0.24 0 0 0.24 0 0 ] makepattern /P05 exch def /cs {[/Pattern /DeviceRGB] setcolorspace} def
 /FA {f [/DeviceRGB] setcolorspace} def cs 1 0 0 P05 setcolor 319 584 m 667 Y 93 X -47 Y 93 X -63 Y 93 X -58 Y 93 X -51 Y 93 X -52 Y 93 X -40 Y 93 X -42 Y 93 X -36 Y 93 X -35 Y 93 X -31 Y 93 X -28 Y 93 X -54 Y 93 X -44 Y 93 X -22 Y 93 X -41 Y 93 X
 -23 Y 93 X 65 Y 93 X -65 Y -279 X 15 Y -93 X 27 Y -93 X 44 Y -93 X 42 Y -93 X 62 Y -93 X 39 Y -93 X 34 Y -93 X 42 Y -93 X 43 Y -93 X 33 Y -93 X 60 Y -93 X 51 Y -93 X 58 Y -93 X 63 Y -93 X 46 Y -93 X -659 Y FA 6 lw 1 1 1 c 15 lw 1110 819 m -7 Y s
 1110 812 m cl s 1203 840 m 3 Y s 1203 843 m cl s 1203 799 m -13 Y s 1203 786 m cl s 1296 809 m 9 Y s 1296 818 m cl s 1296 768 m -26 Y s 1296 742 m cl s 1389 785 m 15 Y s 1389 800 m cl s 1389 744 m -42 Y s 1389 702 m cl s 1575 743 m 29 Y s 1575 772 m
 cl s 1575 702 m -84 Y s 1575 618 m cl s black 1 1 1 c 3 lw /w 43 def /w2 {w 2 div} def /w3 {w 3 div} def 366 1242 459 1194 552 1129 645 1075 738 1022 831 981 924 944 1017 908 1110 840 1203 819 1296 789 1389 764 12 { m20} R 15 lw 3 lw 1575 723 m20 15
 lw black 6 lw 1 1 1 c black 3 lw /w 33 def /w2 {w 2 div} def /w3 {w 3 div} def 366 1242 m20 6 lw 3 lw 459 1194 m20 6 lw 3 lw 552 1129 m20 6 lw 3 lw 645 1075 m20 6 lw 3 lw 738 1022 m20 6 lw 3 lw 831 981 m20 6 lw 3 lw 924 944 m20 6 lw 1017 894 m 1 Y s
 3 lw 1017 908 m20 6 lw 1110 811 m 15 Y s 1110 853 m 6 Y s 3 lw 1110 840 m20 6 lw 1203 784 m 22 Y s 1203 833 m 9 Y s 3 lw 1203 819 m20 6 lw 1296 737 m 38 Y s 1296 802 m 14 Y s 3 lw 1296 789 m20 6 lw 1389 691 m 60 Y s 1389 778 m 18 Y s 3 lw 1389 764
 m20 6 lw 1575 584 m 125 Y s 1575 736 m 28 Y s 3 lw 1575 723 m20 6 lw 1017 895 m -1 Y s 1017 894 m cl s 1110 853 m 7 Y s 1110 860 m cl s 1110 826 m -14 Y s 1110 812 m cl s 1203 833 m 10 Y s 1203 843 m cl s 1203 806 m -20 Y s 1203 786 m cl s 1296 802
 m 16 Y s 1296 818 m cl s 1296 775 m -33 Y s 1296 742 m cl s 1389 778 m 22 Y s 1389 800 m cl s 1389 751 m -49 Y s 1389 702 m cl s 1575 736 m 36 Y s 1575 772 m cl s 1575 709 m -91 Y s 1575 618 m cl s 3 lw 366 1242 459 1194 552 1129 645 1075 738 1022
 831 981 924 944 1017 908 1110 840 1203 819 1296 789 1389 764 12 { m20} R 6 lw 3 lw 1575 723 m20 6 lw 3 lw 319 584 m 1860 X s 412 584 m cl s 459 584 m cl s 505 584 m cl s 552 584 m cl s 598 584 m cl s 645 584 m cl s 691 584 m cl s 738 584 m cl s 784
 584 m cl s 831 584 m cl s 877 584 m cl s 924 584 m cl s 970 584 m cl s 1017 584 m cl s 1063 584 m cl s 1110 584 m cl s 1156 584 m cl s 1203 584 m cl s 1249 584 m cl s 1296 584 m cl s 1342 584 m cl s 1389 584 m cl s 1435 584 m cl s 1482 584 m cl s
 1528 584 m cl s 1575 584 m cl s 1621 584 m cl s 1668 584 m cl s 1714 584 m cl s 1761 584 m cl s 1807 584 m cl s 1854 584 m cl s 1900 584 m cl s 1947 584 m cl s 1993 584 m cl s 2040 584 m cl s 2086 584 m cl s 412 584 m cl s 366 584 m cl s 319 584 m
 cl s 2086 584 m cl s 2133 584 m cl s 2179 584 m cl s 319 1729 m 1860 X s 412 1729 m cl s 459 1729 m cl s 505 1729 m cl s 552 1729 m cl s 598 1729 m cl s 645 1729 m cl s 691 1729 m cl s 738 1729 m cl s 784 1729 m cl s 831 1729 m cl s 877 1729 m cl s
 924 1729 m cl s 970 1729 m cl s 1017 1729 m cl s 1063 1729 m cl s 1110 1729 m cl s 1156 1729 m cl s 1203 1729 m cl s 1249 1729 m cl s 1296 1729 m cl s 1342 1729 m cl s 1389 1729 m cl s 1435 1729 m cl s 1482 1729 m cl s 1528 1729 m cl s 1575 1729 m
 cl s 1621 1729 m cl s 1668 1729 m cl s 1714 1729 m cl s 1761 1729 m cl s 1807 1729 m cl s 1854 1729 m cl s 1900 1729 m cl s 1947 1729 m cl s 1993 1729 m cl s 2040 1729 m cl s 2086 1729 m cl s 412 1729 m cl s 366 1729 m cl s 319 1729 m cl s 2086 1729
 m cl s 2133 1729 m cl s 2179 1729 m cl s 319 584 m 1145 Y s 341 626 m -22 X s 341 650 m -22 X s 341 668 m -22 X s 341 681 m -22 X s 341 692 m -22 X s 341 701 m -22 X s 341 709 m -22 X s 341 716 m -22 X s 363 723 m -44 X s 341 764 m -22 X s 341 789 m
 -22 X s 341 806 m -22 X s 341 819 m -22 X s 341 830 m -22 X s 341 840 m -22 X s 341 848 m -22 X s 341 855 m -22 X s 363 861 m -44 X s 341 903 m -22 X s 341 927 m -22 X s 341 944 m -22 X s 341 958 m -22 X s 341 969 m -22 X s 341 978 m -22 X s 341 986
 m -22 X s 341 993 m -22 X s 363 999 m -44 X s 341 1041 m -22 X s 341 1065 m -22 X s 341 1083 m -22 X s 341 1096 m -22 X s 341 1107 m -22 X s 341 1116 m -22 X s 341 1124 m -22 X s 341 1131 m -22 X s 363 1138 m -44 X s 341 1179 m -22 X s 341 1204 m
 -22 X s 341 1221 m -22 X s 341 1235 m -22 X s 341 1245 m -22 X s 341 1255 m -22 X s 341 1263 m -22 X s 341 1270 m -22 X s 363 1276 m -44 X s 341 1318 m -22 X s 341 1342 m -22 X s 341 1360 m -22 X s 341 1373 m -22 X s 341 1384 m -22 X s 341 1393 m
 -22 X s 341 1401 m -22 X s 341 1408 m -22 X s 363 1415 m -44 X s 341 1456 m -22 X s 341 1481 m -22 X s 341 1498 m -22 X s 341 1511 m -22 X s 341 1522 m -22 X s 341 1532 m -22 X s 341 1540 m -22 X s 341 1547 m -22 X s 363 1553 m -44 X s 341 1595 m
 -22 X s 341 1619 m -22 X s 341 1636 m -22 X s 341 1650 m -22 X s 341 1661 m -22 X s 341 1670 m -22 X s 341 1678 m -22 X s 341 1685 m -22 X s 363 1691 m -44 X s 2179 584 m 1145 Y s 2157 626 m 22 X s 2157 650 m 22 X s 2157 668 m 22 X s 2157 681 m 22 X
 s 2157 692 m 22 X s 2157 701 m 22 X s 2157 709 m 22 X s 2157 716 m 22 X s 2136 723 m 43 X s 2157 764 m 22 X s 2157 789 m 22 X s 2157 806 m 22 X s 2157 819 m 22 X s 2157 830 m 22 X s 2157 840 m 22 X s 2157 848 m 22 X s 2157 855 m 22 X s 2136 861 m 43
 X s 2157 903 m 22 X s 2157 927 m 22 X s 2157 944 m 22 X s 2157 958 m 22 X s 2157 969 m 22 X s 2157 978 m 22 X s 2157 986 m 22 X s 2157 993 m 22 X s 2136 999 m 43 X s 2157 1041 m 22 X s 2157 1065 m 22 X s 2157 1083 m 22 X s 2157 1096 m 22 X s 2157
 1107 m 22 X s 2157 1116 m 22 X s 2157 1124 m 22 X s 2157 1131 m 22 X s 2136 1138 m 43 X s 2157 1179 m 22 X s 2157 1204 m 22 X s 2157 1221 m 22 X s 2157 1235 m 22 X s 2157 1245 m 22 X s 2157 1255 m 22 X s 2157 1263 m 22 X s 2157 1270 m 22 X s 2136
 1276 m 43 X s 2157 1318 m 22 X s 2157 1342 m 22 X s 2157 1360 m 22 X s 2157 1373 m 22 X s 2157 1384 m 22 X s 2157 1393 m 22 X s 2157 1401 m 22 X s 2157 1408 m 22 X s 2136 1415 m 43 X s 2157 1456 m 22 X s 2157 1481 m 22 X s 2157 1498 m 22 X s 2157
 1511 m 22 X s 2157 1522 m 22 X s 2157 1532 m 22 X s 2157 1540 m 22 X s 2157 1547 m 22 X s 2136 1553 m 43 X s 2157 1595 m 22 X s 2157 1619 m 22 X s 2157 1636 m 22 X s 2157 1650 m 22 X s 2157 1661 m 22 X s 2157 1670 m 22 X s 2157 1678 m 22 X s 2157
 1685 m 22 X s 2136 1691 m 43 X s
 gsave  2263 1770 2 313 C 406.765 1447.41 t 0 r /Helvetica findfont 64.4212 sf 0 0 m (VR0LmetSig for MB\255SSd) show NC gr 
 gsave  2263 1770 2 313 C 1464.36 1630.45 t 0 r /Helvetica findfont 64.4212 sf 0 0 m (SM Total) show NC gr  1 1 1 c 1338 1616 m 107 X 64 Y -107 X f 1 0 0 c 6 lw 1338 1648 m 107 X s black
 gsave  2263 1770 2 313 C 1464.36 1538.93 t 0 r /Helvetica findfont 64.4212 sf 0 0 m (Data) show NC gr  1391 1529 m 55 Y s 3 lw 1391 1557 m20 6 lw
 gsave  2263 1770 2 313 C 1464.36 1447.41 t 0 r /Helvetica findfont 64.4212 sf 0 0 m (W+jets) show NC gr  0.4 0.6 1 c 3 lw 1338 1434 m 107 X 64 Y -107 X f 6 lw black 3 lw 1338 1498 m 107 X s 1338 1434 m 107 X s 1445 1434 m 64 Y s 1338 1434 m 64 Y s
 gsave  2263 1770 2 313 C 1498.25 1355.88 t 0 r /Helvetica findfont 64.4212 sf 0 0 m (\(+EW\) & single top) show NC gr 
 gsave  2263 1770 2 313 C 1481.3 1355.88 t 0 r /Helvetica findfont 64.4212 sf 0 0 m (t) show NC gr  1481 1407 m 17 X s
 gsave  2263 1770 2 313 C 1464.36 1355.88 t 0 r /Helvetica findfont 64.4212 sf 0 0 m (t) show NC gr  0.6 1 0.6 c 1338 1343 m 107 X 63 Y -107 X f black 1338 1406 m 107 X s 1338 1343 m 107 X s 1445 1343 m 63 Y s 1338 1343 m 63 Y s
 gsave  2263 1770 2 313 C 1464.36 1264.36 t 0 r /Helvetica findfont 64.4212 sf 0 0 m (Z+jets) show NC gr  1 0.8 0.4 c 1338 1252 m 107 X 63 Y -107 X f black 1338 1315 m 107 X s 1338 1252 m 107 X s 1445 1252 m 63 Y s 1338 1252 m 63 Y s
 gsave  2263 1770 2 313 C 1464.36 1172.84 t 0 r /Helvetica findfont 64.4212 sf 0 0 m (Diboson) show NC gr  1 0.4 0.6 c 1338 1161 m 107 X 63 Y -107 X f black 1338 1224 m 107 X s 1338 1161 m 107 X s 1445 1161 m 63 Y s 1338 1161 m 63 Y s
 gsave  2263 1770 2 313 C 1464.36 1081.32 t 0 r /Helvetica findfont 64.4212 sf 0 0 m (Multi\255jet) show NC gr  0 0 0.4 c 1338 1070 m 107 X 63 Y -107 X f black 1338 1133 m 107 X s 1338 1070 m 107 X s 1445 1070 m 63 Y s 1338 1070 m 63 Y s
 gsave  2263 1770 2 313 C 911.832 1566.05 t 0 r /Helvetica findfont 44.0776 sf 0 0 m (\2551) show NC gr 
 gsave  2263 1770 2 313 C 471.17 1535.54 t 0 r /Helvetica findfont 64.4212 sf 0 0 m (=13TeV, 139 fb) show NC gr 
 gsave  2263 1770 2 313 C 440.662 1535.54 t 0 r /Helvetica findfont 64.4212 sf 0 0 m (s) show NC gr  6 lw 420 1573 m 7 -41 d s 3 lw 427 1532 m 7 61 d s 434 1593 m 37 X s 1 1 1 c 2254 561 2 2 bf black 1 1 1 c black 1860 358 318 187 bl 1 1 1 c black
 1860 358 318 187 bl 6 lw 1 1 1 c black 3 lw 364 353 m20 6 lw 3 lw 457 349 m20 6 lw 3 lw 550 344 m20 6 lw 3 lw 643 356 m20 6 lw 3 lw 736 350 m20 6 lw 3 lw 829 390 m20 6 lw 3 lw 923 390 m20 6 lw 3 lw 1016 412 m20 6 lw 3 lw 1109 329 m20 6 lw 3 lw 1202
 364 m20 6 lw 3 lw 1295 375 m20 6 lw 3 lw 1388 422 m20 6 lw 3 lw 318 187 m 1860 X s
 gsave  2254 561 2 2 C 1959.25 27.1177 t 0 r /Helvetica findfont 78.1689 sf 0 0 m ( [GeV]) show NC gr 
 gsave  2254 561 2 2 C 1854.17 64.4045 t 0 r /Helvetica findfont 50.9797 sf 0 0 m (miss) show NC gr 
 gsave  2254 561 2 2 C 1854.17 3.38971 t 0 r /Helvetica findfont 50.9797 sf 0 0 m (T) show NC gr 
 gsave  2254 561 2 2 C 1803.33 27.1177 t 0 r /Helvetica findfont 78.1689 sf 0 0 m (E) show NC gr  411 201 m -14 Y s 457 194 m -7 Y s 504 194 m -7 Y s 550 194 m -7 Y s 597 201 m -14 Y s 643 194 m -7 Y s 690 194 m -7 Y s 736 194 m -7 Y s 783 201 m -14
 Y s 829 194 m -7 Y s 876 194 m -7 Y s 923 194 m -7 Y s 969 201 m -14 Y s 1016 194 m -7 Y s 1062 194 m -7 Y s 1109 194 m -7 Y s 1155 201 m -14 Y s 1202 194 m -7 Y s 1248 194 m -7 Y s 1295 194 m -7 Y s 1341 201 m -14 Y s 1388 194 m -7 Y s 1434 194 m
 -7 Y s 1481 194 m -7 Y s 1527 201 m -14 Y s 1574 194 m -7 Y s 1620 194 m -7 Y s 1667 194 m -7 Y s 1713 201 m -14 Y s 1760 194 m -7 Y s 1806 194 m -7 Y s 1853 194 m -7 Y s 1899 201 m -14 Y s 1946 194 m -7 Y s 1992 194 m -7 Y s 2039 194 m -7 Y s 2085
 201 m -14 Y s 411 201 m -14 Y s 364 194 m -7 Y s 318 194 m -7 Y s 2085 201 m -14 Y s 2132 194 m -7 Y s
 gsave  2254 561 2 2 C 345.75 118.64 t 0 r /Helvetica findfont 78.1689 sf 0 0 m (400) show NC gr 
 gsave  2254 561 2 2 C 532.185 118.64 t 0 r /Helvetica findfont 78.1689 sf 0 0 m (600) show NC gr 
 gsave  2254 561 2 2 C 715.229 118.64 t 0 r /Helvetica findfont 78.1689 sf 0 0 m (800) show NC gr 
 gsave  2254 561 2 2 C 877.935 118.64 t 0 r /Helvetica findfont 78.1689 sf 0 0 m (1000) show NC gr 
 gsave  2254 561 2 2 C 1064.37 118.64 t 0 r /Helvetica findfont 78.1689 sf 0 0 m (1200) show NC gr 
 gsave  2254 561 2 2 C 1250.8 118.64 t 0 r /Helvetica findfont 78.1689 sf 0 0 m (1400) show NC gr 
 gsave  2254 561 2 2 C 1437.24 118.64 t 0 r /Helvetica findfont 78.1689 sf 0 0 m (1600) show NC gr 
 gsave  2254 561 2 2 C 1623.67 118.64 t 0 r /Helvetica findfont 78.1689 sf 0 0 m (1800) show NC gr 
 gsave  2254 561 2 2 C 1810.11 118.64 t 0 r /Helvetica findfont 78.1689 sf 0 0 m (2000) show NC gr 
 gsave  2254 561 2 2 C 1996.54 118.64 t 0 r /Helvetica findfont 78.1689 sf 0 0 m (2200) show NC gr  318 545 m 1860 X s 411 531 m 14 Y s 457 538 m 7 Y s 504 538 m 7 Y s 550 538 m 7 Y s 597 531 m 14 Y s 643 538 m 7 Y s 690 538 m 7 Y s 736 538 m 7 Y s
 783 531 m 14 Y s 829 538 m 7 Y s 876 538 m 7 Y s 923 538 m 7 Y s 969 531 m 14 Y s 1016 538 m 7 Y s 1062 538 m 7 Y s 1109 538 m 7 Y s 1155 531 m 14 Y s 1202 538 m 7 Y s 1248 538 m 7 Y s 1295 538 m 7 Y s 1341 531 m 14 Y s 1388 538 m 7 Y s 1434 538 m 7
 Y s 1481 538 m 7 Y s 1527 531 m 14 Y s 1574 538 m 7 Y s 1620 538 m 7 Y s 1667 538 m 7 Y s 1713 531 m 14 Y s 1760 538 m 7 Y s 1806 538 m 7 Y s 1853 538 m 7 Y s 1899 531 m 14 Y s 1946 538 m 7 Y s 1992 538 m 7 Y s 2039 538 m 7 Y s 2085 531 m 14 Y s 411
 531 m 14 Y s 364 538 m 7 Y s 318 538 m 7 Y s 2085 531 m 14 Y s 2132 538 m 7 Y s 318 187 m 358 Y s
 gsave  2254 561 2 2 C 166.096 284.736 t 90 r /Helvetica findfont 67.9729 sf 0 0 m (Data/SM) show NC gr  361 203 m -43 X s 339 220 m -21 X s 339 236 m -21 X s 339 252 m -21 X s 339 268 m -21 X s 361 285 m -43 X s 339 301 m -21 X s 339 317 m -21 X s
 339 334 m -21 X s 339 350 m -21 X s 361 366 m -43 X s 339 382 m -21 X s 339 399 m -21 X s 339 415 m -21 X s 339 431 m -21 X s 361 447 m -43 X s 339 464 m -21 X s 339 480 m -21 X s 339 496 m -21 X s 339 512 m -21 X s 361 529 m -43 X s 361 203 m -43 X
 s 339 187 m -21 X s 361 529 m -43 X s
 gsave  2254 561 2 2 C 261.008 183.044 t 0 r /Helvetica findfont 57.777 sf 0 0 m (0) show NC gr 
 gsave  2254 561 2 2 C 213.552 261.008 t 0 r /Helvetica findfont 57.777 sf 0 0 m (0.5) show NC gr 
 gsave  2254 561 2 2 C 271.177 342.361 t 0 r /Helvetica findfont 57.777 sf 0 0 m (1) show NC gr 
 gsave  2254 561 2 2 C 213.552 423.714 t 0 r /Helvetica findfont 57.777 sf 0 0 m (1.5) show NC gr 
 gsave  2254 561 2 2 C 261.008 505.067 t 0 r /Helvetica findfont 57.777 sf 0 0 m (2) show NC gr  2178 187 m 358 Y s 2135 203 m 43 X s 2157 220 m 21 X s 2157 236 m 21 X s 2157 252 m 21 X s 2157 268 m 21 X s 2135 285 m 43 X s 2157 301 m 21 X s 2157 317
 m 21 X s 2157 334 m 21 X s 2157 350 m 21 X s 2135 366 m 43 X s 2157 382 m 21 X s 2157 399 m 21 X s 2157 415 m 21 X s 2157 431 m 21 X s 2135 447 m 43 X s 2157 464 m 21 X s 2157 480 m 21 X s 2157 496 m 21 X s 2157 512 m 21 X s 2135 529 m 43 X s 2135
 203 m 43 X s 2157 187 m 21 X s 2135 529 m 43 X s 9 lw 829 404 m 8 Y s 829 412 m cl s 829 377 m -8 Y s 829 369 m cl s 923 404 m 16 Y s 923 420 m cl s 923 377 m -16 Y s 923 361 m cl s 1016 426 m 31 Y s 1016 457 m cl s 1016 399 m -31 Y s 1016 368 m cl
 s 1109 343 m 35 Y s 1109 378 m cl s 1109 315 m -32 Y s 1109 283 m cl s 1202 378 m 63 Y s 1202 441 m cl s 1202 351 m -56 Y s 1202 295 m cl s 1295 388 m 95 Y s 1295 483 m cl s 1295 361 m -79 Y s 1295 282 m cl s 1388 436 m 109 Y s 1388 545 m cl s 1388
 409 m -128 Y s 1388 281 m cl s 1574 545 m -250 Y s 1574 295 m cl s 3 lw 364 353 457 349 550 344 643 356 736 350 829 390 923 390 1016 412 1109 329 1202 364 1295 375 1388 422 12 { m20} R 9 lw 1 0 0 c 6 lw black 3 lw 1 0 0 c 2178 227 m cl s 2178 255 m
 s 2178 284 m s 2178 312 m s 2178 341 m -24 -24 d s 2178 369 m -52 -52 d s 2178 398 m -81 -81 d s 2085 305 m -2 -2 d s 2167 415 m -112 -112 d s 1992 241 m -13 -13 d s 2138 415 m -112 -112 d s 1992 270 m -42 -42 d s 2109 415 m -112 -112 d s 1992 298 m
 -71 -70 d s 2085 420 m -186 -186 d s 2066 429 m -167 -166 d s 2037 429 m -138 -138 d s 2008 429 m -114 -114 d s 1992 441 m -126 -126 d s 1992 470 m -155 -155 d s 1992 499 m -184 -184 d s 1969 504 m -70 -70 d s 1882 417 m -101 -101 d s 1941 504 m -42
 -41 d s 1853 417 m -101 -101 d s 1912 504 m -13 -12 d s 1824 417 m -101 -101 d s 1713 306 m -3 -3 d s 1794 416 m -113 -113 d s 1766 416 m -113 -113 d s 1737 416 m -113 -113 d s 1713 421 m -112 -112 d s 1693 429 m -121 -120 d s 1664 429 m -120 -120 d
 s 1636 429 m -122 -121 d s 1601 423 m -115 -115 d s 1573 423 m -116 -115 d s 1544 423 m -128 -128 d s 1516 424 m -129 -129 d s 1487 424 m -129 -129 d s 1458 424 m -117 -117 d s 1434 428 m -93 -92 d s 1414 437 m -101 -101 d s 1385 437 m -101 -101 d s
 1356 437 m -15 -16 d s 1315 396 m -59 -60 d s 1287 396 m -49 -49 d s 1258 396 m -10 -10 d s 1247 385 m -38 -38 d s 1219 385 m -39 -38 d s 1190 385 m -40 -40 d s 1161 385 m -40 -40 d s 1134 387 m -42 -42 d s 1106 387 m -42 -42 d s 1077 387 m -33 -33
 d s 1040 378 m -25 -24 d s 1011 378 m -25 -24 d s 982 378 m -24 -24 d s 953 378 m -23 -24 d s 924 378 m -23 -24 d s 895 378 m -31 -32 d s 875 386 m -40 -40 d s 847 386 m -41 -40 d s 818 386 m -35 -35 d s 789 386 m -6 -6 d s 779 376 m -20 -20 d s 750
 376 m -19 -20 d s 722 376 m -20 -20 d s 693 376 m -19 -19 d s 664 375 m -19 -18 d s 635 375 m -19 -18 d s 606 375 m -19 -18 d s 578 375 m -19 -18 d s 549 375 m -19 -18 d s 520 375 m -19 -19 d s 492 376 m -20 -20 d s 463 376 m -19 -20 d s 318 231 m s
 435 376 m -20 -20 d s 318 259 m s 407 377 m -22 -22 d s 318 288 m s 378 377 m -21 -22 d s 318 317 m s 349 377 m -21 -22 d s 318 345 m s 321 377 m -3 -3 d s 6 lw black[ 4 8] 0 sd 3 lw 318 447 m 1860 X s 318 285 m 1860 X s 1 0 0 c[  12 12 ] 0 sd 6 lw
 318 366 m 1860 X s
 gr  gr showpage
end
%%EOF
