%!PS-Adobe-2.0 EPSF-2.0
%%BoundingBox:  0 0 567 521
%%Title: Distributions/met_distrCRY_MB-SSd_beforeFit_forThesis.eps: canvas
%%Creator: ROOT Version 6.04/16
%%CreationDate: Tue May 19 22:01:30 2020
%%DocumentNeededResources: ProcSet (FontSetInit)
%%EndComments
%%BeginProlog
80 dict begin
/s {stroke} def /l {lineto} def /m {moveto} def /t {translate} def
/r {rotate} def /rl {roll}  def /R {repeat} def
/d {rlineto} def /rm {rmoveto} def /gr {grestore} def /f {eofill} def
/c {setrgbcolor} def /black {0 setgray} def /sd {setdash} def
/cl {closepath} def /sf {scalefont setfont} def /lw {setlinewidth} def
/box {m dup 0 exch d exch 0 d 0 exch neg d cl} def
/NC{systemdict begin initclip end}def/C{NC box clip newpath}def
/bl {box s} def /bf {gsave box gsave f grestore 1 lw [] 0 sd s grestore} def /Y { 0 exch d} def /X { 0 d} def 
/K {{pop pop 0 moveto} exch kshow} bind def
/ita {/ang 15 def gsave [1 0 ang dup sin exch cos div 1 0 0] concat} def 
/mp {newpath /y exch def /x exch def} def
/side {[w .77 mul w .23 mul] .385 w mul sd w 0 l currentpoint t -144 r} def
/mr {mp x y w2 0 360 arc} def /m24 {mr s} def /m20 {mr f} def
/mb {mp x y w2 add m w2 neg 0 d 0 w neg d w 0 d 0 w d cl} def
/mt {mp x y w2 add m w2 neg w neg d w 0 d cl} def
/m21 {mb f} def /m25 {mb s} def /m22 {mt f} def /m26{mt s} def
/m23 {mp x y w2 sub m w2 w d w neg 0 d cl f} def
/m27 {mp x y w2 add m w3 neg w2 neg d w3 w2 neg d w3 w2 d cl s} def
/m28 {mp x w2 sub y w2 sub w3 add m w3 0 d  0 w3 neg d w3 0 d 0 w3 d w3 0 d  0 w3 d w3 neg 0 d 0 w3 d w3 neg 0 d 0 w3 neg d w3 neg 0 d cl s } def
/m29 {mp gsave x w2 sub y w2 add w3 sub m currentpoint t 4 {side} repeat cl fill gr} def
/m30 {mp gsave x w2 sub y w2 add w3 sub m currentpoint t 4 {side} repeat cl s gr} def
/m31 {mp x y w2 sub m 0 w d x w2 sub y m w 0 d x w2 sub y w2 add m w w neg d x w2 sub y w2 sub m w w d s} def
/m32 {mp x y w2 sub m w2 w d w neg 0 d cl s} def
/m33 {mp x y w2 add m w3 neg w2 neg d w3 w2 neg d w3 w2 d cl f} def
/m34 {mp x w2 sub y w2 sub w3 add m w3 0 d  0 w3 neg d w3 0 d 0 w3 d w3 0 d  0 w3 d w3 neg 0 d 0 w3 d w3 neg 0 d 0 w3 neg d w3 neg 0 d cl f } def
/m2 {mp x y w2 sub m 0 w d x w2 sub y m w 0 d s} def
/m5 {mp x w2 sub y w2 sub m w w d x w2 sub y w2 add m w w neg d s} def
%%IncludeResource: ProcSet (FontSetInit)
%%IncludeResource: font Times-Roman
%%IncludeResource: font Times-Italic
%%IncludeResource: font Times-Bold
%%IncludeResource: font Times-BoldItalic
%%IncludeResource: font Helvetica
%%IncludeResource: font Helvetica-Oblique
%%IncludeResource: font Helvetica-Bold
%%IncludeResource: font Helvetica-BoldOblique
%%IncludeResource: font Courier
%%IncludeResource: font Courier-Oblique
%%IncludeResource: font Courier-Bold
%%IncludeResource: font Courier-BoldOblique
%%IncludeResource: font Symbol
%%IncludeResource: font ZapfDingbats
/reEncode {exch findfont dup length dict begin {1 index /FID eq  {pop pop} {def} ifelse } forall /Encoding exch def currentdict end dup /FontName get exch definefont pop } def [/Times-Bold /Times-Italic /Times-BoldItalic /Helvetica /Helvetica-Oblique
 /Helvetica-Bold /Helvetica-BoldOblique /Courier /Courier-Oblique /Courier-Bold /Courier-BoldOblique /Times-Roman /AvantGarde-Book /AvantGarde-BookOblique /AvantGarde-Demi /AvantGarde-DemiOblique /Bookman-Demi /Bookman-DemiItalic /Bookman-Light
 /Bookman-LightItalic /Helvetica-Narrow /Helvetica-Narrow-Bold /Helvetica-Narrow-BoldOblique /Helvetica-Narrow-Oblique /NewCenturySchlbk-Roman /NewCenturySchlbk-Bold /NewCenturySchlbk-BoldItalic /NewCenturySchlbk-Italic /Palatino-Bold
 /Palatino-BoldItalic /Palatino-Italic /Palatino-Roman ] {ISOLatin1Encoding reEncode } forall
%%EndProlog
%%BeginSetup
%%EndSetup
newpath  gsave  .25 .25 scale  gsave  0 0 t black[  ] 0 sd 3 lw 1 1 1 c 2268 2085 0 0 bf black 1 1 1 c 2263 1770 2 313 bf black 1 1 1 c black 1860 1145 319 584 bl 1 1 1 c black 1860 1145 319 584 bl 6 lw 1 1 1 c black 3 lw /w 33 def /w2 {w 2 div} def
 /w3 {w 3 div} def 366 1274 m20 6 lw 3 lw 459 1259 m20 6 lw 3 lw 552 1229 m20 6 lw 3 lw 645 1194 m20 6 lw 3 lw 738 1155 m20 6 lw 3 lw 831 1113 m20 6 lw 3 lw 924 1078 m20 6 lw 3 lw 1017 1047 m20 6 lw 3 lw 1110 1011 m20 6 lw 3 lw 1203 971 m20 6 lw 3 lw
 1296 945 m20 6 lw 3 lw 1389 904 m20 6 lw 1482 842 m 5 Y s 1482 874 m 1 Y s 3 lw 1482 861 m20 6 lw 1575 842 m 5 Y s 1575 874 m 1 Y s 3 lw 1575 861 m20 6 lw 1668 773 m 20 Y s 1668 820 m 8 Y s 3 lw 1668 807 m20 6 lw 1761 685 m 56 Y s 1761 768 m 17 Y s
 3 lw 1761 754 m20 6 lw 1854 584 m 118 Y s 1854 729 m 25 Y s 3 lw 1854 715 m20 6 lw 1947 584 m 118 Y s 1947 729 m 25 Y s 3 lw 1947 715 m20 6 lw 2133 729 m 35 Y s 2133 791 m 12 Y s 3 lw 2133 778 m20 6 lw 3 lw 319 584 m 1860 X s
 gsave  2263 1770 2 313 C 1949.08 355.92 t 0 r /Helvetica findfont 81.3741 sf 0 0 m ( [GeV]) show NC gr 
 gsave  2263 1770 2 313 C 1837.22 396.596 t 0 r /Helvetica findfont 54.2494 sf 0 0 m (miss) show NC gr 
 gsave  2263 1770 2 313 C 1837.22 332.192 t 0 r /Helvetica findfont 54.2494 sf 0 0 m (T) show NC gr 
 gsave  2263 1770 2 313 C 1786.38 355.92 t 0 r /Helvetica findfont 81.3741 sf 0 0 m (E) show NC gr  412 584 m cl s 459 584 m cl s 505 584 m cl s 552 584 m cl s 598 584 m cl s 645 584 m cl s 691 584 m cl s 738 584 m cl s 784 584 m cl s 831 584 m cl s
 877 584 m cl s 924 584 m cl s 970 584 m cl s 1017 584 m cl s 1063 584 m cl s 1110 584 m cl s 1156 584 m cl s 1203 584 m cl s 1249 584 m cl s 1296 584 m cl s 1342 584 m cl s 1389 584 m cl s 1435 584 m cl s 1482 584 m cl s 1528 584 m cl s 1575 584 m
 cl s 1621 584 m cl s 1668 584 m cl s 1714 584 m cl s 1761 584 m cl s 1807 584 m cl s 1854 584 m cl s 1900 584 m cl s 1947 584 m cl s 1993 584 m cl s 2040 584 m cl s 2086 584 m cl s 412 584 m cl s 366 584 m cl s 319 584 m cl s 2086 584 m cl s 2133
 584 m cl s 2179 584 m cl s 319 1729 m 1860 X s 412 1729 m cl s 459 1729 m cl s 505 1729 m cl s 552 1729 m cl s 598 1729 m cl s 645 1729 m cl s 691 1729 m cl s 738 1729 m cl s 784 1729 m cl s 831 1729 m cl s 877 1729 m cl s 924 1729 m cl s 970 1729 m
 cl s 1017 1729 m cl s 1063 1729 m cl s 1110 1729 m cl s 1156 1729 m cl s 1203 1729 m cl s 1249 1729 m cl s 1296 1729 m cl s 1342 1729 m cl s 1389 1729 m cl s 1435 1729 m cl s 1482 1729 m cl s 1528 1729 m cl s 1575 1729 m cl s 1621 1729 m cl s 1668
 1729 m cl s 1714 1729 m cl s 1761 1729 m cl s 1807 1729 m cl s 1854 1729 m cl s 1900 1729 m cl s 1947 1729 m cl s 1993 1729 m cl s 2040 1729 m cl s 2086 1729 m cl s 412 1729 m cl s 366 1729 m cl s 319 1729 m cl s 2086 1729 m cl s 2133 1729 m cl s
 2179 1729 m cl s 319 584 m 1145 Y s
 gsave  2263 1770 2 313 C 166.096 1091.49 t 90 r /Helvetica findfont 81.3741 sf 0 0 m (Events / 100 GeV) show NC gr  341 624 m -22 X s 341 647 m -22 X s 341 663 m -22 X s 341 676 m -22 X s 341 686 m -22 X s 341 695 m -22 X s 341 702 m -22 X s 341 709
 m -22 X s 363 715 m -44 X s
 gsave  2263 1770 2 313 C 300.555 687.984 t 0 r  -36 0 t /Helvetica findfont 64.4212 sf 0 0 m (1) show NC gr  341 754 m -22 X s 341 778 m -22 X s 341 794 m -22 X s 341 807 m -22 X s 341 817 m -22 X s 341 826 m -22 X s 341 833 m -22 X s 341 840 m -22
 X s 363 846 m -44 X s
 gsave  2263 1770 2 313 C 300.555 818.776 t 0 r  -73 0 t /Helvetica findfont 64.4212 sf 0 0 m (10) show NC gr  341 885 m -22 X s 341 908 m -22 X s 341 925 m -22 X s 341 937 m -22 X s 341 948 m -22 X s 341 956 m -22 X s 341 964 m -22 X s 341 971 m -22
 X s 363 977 m -44 X s
 gsave  2263 1770 2 313 C 274.567 976.237 t 0 r /Helvetica findfont 44.0776 sf 0 0 m (2) show NC gr 
 gsave  2263 1770 2 313 C 203.383 949.119 t 0 r /Helvetica findfont 64.4212 sf 0 0 m (10) show NC gr  341 1016 m -22 X s 341 1039 m -22 X s 341 1055 m -22 X s 341 1068 m -22 X s 341 1078 m -22 X s 341 1087 m -22 X s 341 1095 m -22 X s 341 1101 m -22
 X s 363 1107 m -44 X s
 gsave  2263 1770 2 313 C 274.567 1108.44 t 0 r /Helvetica findfont 44.0776 sf 0 0 m (3) show NC gr 
 gsave  2263 1770 2 313 C 203.383 1077.93 t 0 r /Helvetica findfont 64.4212 sf 0 0 m (10) show NC gr  341 1147 m -22 X s 341 1170 m -22 X s 341 1186 m -22 X s 341 1199 m -22 X s 341 1209 m -22 X s 341 1218 m -22 X s 341 1226 m -22 X s 341 1232 m -22
 X s 363 1238 m -44 X s
 gsave  2263 1770 2 313 C 274.567 1237.24 t 0 r /Helvetica findfont 44.0776 sf 0 0 m (4) show NC gr 
 gsave  2263 1770 2 313 C 203.383 1210.13 t 0 r /Helvetica findfont 64.4212 sf 0 0 m (10) show NC gr  341 1278 m -22 X s 341 1301 m -22 X s 341 1317 m -22 X s 341 1330 m -22 X s 341 1340 m -22 X s 341 1349 m -22 X s 341 1356 m -22 X s 341 1363 m -22
 X s 363 1369 m -44 X s
 gsave  2263 1770 2 313 C 274.567 1369.44 t 0 r /Helvetica findfont 44.0776 sf 0 0 m (5) show NC gr 
 gsave  2263 1770 2 313 C 203.383 1338.94 t 0 r /Helvetica findfont 64.4212 sf 0 0 m (10) show NC gr  341 1408 m -22 X s 341 1431 m -22 X s 341 1448 m -22 X s 341 1460 m -22 X s 341 1471 m -22 X s 341 1480 m -22 X s 341 1487 m -22 X s 341 1494 m -22
 X s 363 1500 m -44 X s
 gsave  2263 1770 2 313 C 274.567 1501.64 t 0 r /Helvetica findfont 44.0776 sf 0 0 m (6) show NC gr 
 gsave  2263 1770 2 313 C 203.383 1471.13 t 0 r /Helvetica findfont 64.4212 sf 0 0 m (10) show NC gr  341 1539 m -22 X s 341 1562 m -22 X s 341 1579 m -22 X s 341 1591 m -22 X s 341 1602 m -22 X s 341 1610 m -22 X s 341 1618 m -22 X s 341 1625 m -22
 X s 363 1631 m -44 X s
 gsave  2263 1770 2 313 C 274.567 1630.45 t 0 r /Helvetica findfont 44.0776 sf 0 0 m (7) show NC gr 
 gsave  2263 1770 2 313 C 203.383 1603.33 t 0 r /Helvetica findfont 64.4212 sf 0 0 m (10) show NC gr  341 1670 m -22 X s 341 1693 m -22 X s 341 1709 m -22 X s 341 1722 m -22 X s 2179 584 m 1145 Y s 2157 624 m 22 X s 2157 647 m 22 X s 2157 663 m 22 X
 s 2157 676 m 22 X s 2157 686 m 22 X s 2157 695 m 22 X s 2157 702 m 22 X s 2157 709 m 22 X s 2136 715 m 43 X s 2157 754 m 22 X s 2157 778 m 22 X s 2157 794 m 22 X s 2157 807 m 22 X s 2157 817 m 22 X s 2157 826 m 22 X s 2157 833 m 22 X s 2157 840 m 22
 X s 2136 846 m 43 X s 2157 885 m 22 X s 2157 908 m 22 X s 2157 925 m 22 X s 2157 937 m 22 X s 2157 948 m 22 X s 2157 956 m 22 X s 2157 964 m 22 X s 2157 971 m 22 X s 2136 977 m 43 X s 2157 1016 m 22 X s 2157 1039 m 22 X s 2157 1055 m 22 X s 2157
 1068 m 22 X s 2157 1078 m 22 X s 2157 1087 m 22 X s 2157 1095 m 22 X s 2157 1101 m 22 X s 2136 1107 m 43 X s 2157 1147 m 22 X s 2157 1170 m 22 X s 2157 1186 m 22 X s 2157 1199 m 22 X s 2157 1209 m 22 X s 2157 1218 m 22 X s 2157 1226 m 22 X s 2157
 1232 m 22 X s 2136 1238 m 43 X s 2157 1278 m 22 X s 2157 1301 m 22 X s 2157 1317 m 22 X s 2157 1330 m 22 X s 2157 1340 m 22 X s 2157 1349 m 22 X s 2157 1356 m 22 X s 2157 1363 m 22 X s 2136 1369 m 43 X s 2157 1408 m 22 X s 2157 1431 m 22 X s 2157
 1448 m 22 X s 2157 1460 m 22 X s 2157 1471 m 22 X s 2157 1480 m 22 X s 2157 1487 m 22 X s 2157 1494 m 22 X s 2136 1500 m 43 X s 2157 1539 m 22 X s 2157 1562 m 22 X s 2157 1579 m 22 X s 2157 1591 m 22 X s 2157 1602 m 22 X s 2157 1610 m 22 X s 2157
 1618 m 22 X s 2157 1625 m 22 X s 2136 1631 m 43 X s 2157 1670 m 22 X s 2157 1693 m 22 X s 2157 1709 m 22 X s 2157 1722 m 22 X s 1 1 0 c black 1 1 0 c 319 584 m 690 Y 93 X -14 Y 93 X -32 Y 93 X -37 Y 93 X -37 Y 93 X -40 Y 93 X -37 Y 93 X -32 Y 93 X
 -37 Y 93 X -32 Y 93 X -34 Y 93 X -31 Y 93 X -30 Y 93 X -36 Y 93 X -29 Y 93 X -29 Y 93 X -31 Y 93 X -17 Y 93 X -34 Y 93 X 20 Y 93 X -141 Y f black 1 1 0 c black 319 1274 m 93 X -14 Y 93 X -32 Y 93 X -37 Y 93 X -37 Y 93 X -40 Y 93 X -37 Y 93 X -32 Y
 93 X -37 Y 93 X -32 Y 93 X -34 Y 93 X -31 Y 93 X -30 Y 93 X -36 Y 93 X -29 Y 93 X -29 Y 93 X -31 Y 93 X -17 Y 93 X -34 Y 93 X 20 Y 93 X s 0.999 0.999 0.999 c black 0.999 0.999 0.999 c 319 584 m 405 Y 93 X 4 Y 93 X -34 Y 93 X -34 Y 93 X -43 Y 93 X
 -48 Y 93 X -20 Y 93 X -36 Y 93 X -46 Y 93 X -15 Y 93 X -50 Y 93 X -83 Y 93 X 73 Y 93 X -73 Y 93 X 67 Y 93 X -67 Y 186 X 13 Y 93 X -13 Y 186 X f black 0.999 0.999 0.999 c black 319 989 m 93 X 4 Y 93 X -34 Y 93 X -34 Y 93 X -43 Y 93 X -48 Y 93 X -20 Y
 93 X -36 Y 93 X -46 Y 93 X -15 Y 93 X -50 Y 93 X -83 Y 93 X 73 Y 93 X -73 Y 93 X 67 Y 93 X -67 Y 186 X 13 Y 93 X -13 Y 186 X s 1 1 1 c black 319 989 m 93 X 4 Y 93 X -34 Y 93 X -34 Y 93 X -43 Y 93 X -48 Y 93 X -20 Y 93 X -36 Y 93 X -46 Y 93 X -15 Y
 93 X -50 Y 93 X -83 Y 93 X 73 Y 93 X -73 Y 93 X 67 Y 93 X -67 Y 186 X 13 Y 93 X -13 Y 186 X s 0.4 0.6 1 c black 0.4 0.6 1 c 319 584 m 405 Y 93 X 4 Y 93 X -34 Y 93 X -34 Y 93 X -43 Y 93 X -48 Y 93 X -20 Y 93 X -36 Y 93 X -46 Y 93 X -15 Y 93 X -50 Y
 93 X -83 Y 93 X 73 Y 93 X -73 Y 93 X 67 Y 93 X -67 Y 186 X 13 Y 93 X -13 Y 186 X f black 0.4 0.6 1 c black 319 989 m 93 X 4 Y 93 X -34 Y 93 X -34 Y 93 X -43 Y 93 X -48 Y 93 X -20 Y 93 X -36 Y 93 X -46 Y 93 X -15 Y 93 X -50 Y 93 X -83 Y 93 X 73 Y 93
 X -73 Y 93 X 67 Y 93 X -67 Y 186 X 13 Y 93 X -13 Y 186 X s 0.999 0.999 0.999 c black 0.999 0.999 0.999 c 319 584 m 381 Y 93 X 6 Y 93 X -39 Y 93 X -38 Y 93 X -42 Y 93 X -65 Y 93 X -8 Y 93 X -46 Y 93 X -34 Y 186 X -45 Y 93 X -70 Y 279 X 67 Y 93 X -67
 Y 186 X 13 Y 93 X -13 Y 186 X f black 0.999 0.999 0.999 c black 319 965 m 93 X 6 Y 93 X -39 Y 93 X -38 Y 93 X -42 Y 93 X -65 Y 93 X -8 Y 93 X -46 Y 93 X -34 Y 186 X -45 Y 93 X -70 Y 279 X 67 Y 93 X -67 Y 186 X 13 Y 93 X -13 Y 186 X s 1 1 1 c black
 319 965 m 93 X 6 Y 93 X -39 Y 93 X -38 Y 93 X -42 Y 93 X -65 Y 93 X -8 Y 93 X -46 Y 93 X -34 Y 186 X -45 Y 93 X -70 Y 279 X 67 Y 93 X -67 Y 186 X 13 Y 93 X -13 Y 186 X s 0.6 1 0.6 c black 0.6 1 0.6 c 319 584 m 381 Y 93 X 6 Y 93 X -39 Y 93 X -38 Y 93
 X -42 Y 93 X -65 Y 93 X -8 Y 93 X -46 Y 93 X -34 Y 186 X -45 Y 93 X -70 Y 279 X 67 Y 93 X -67 Y 186 X 13 Y 93 X -13 Y 186 X f black 0.6 1 0.6 c black 319 965 m 93 X 6 Y 93 X -39 Y 93 X -38 Y 93 X -42 Y 93 X -65 Y 93 X -8 Y 93 X -46 Y 93 X -34 Y 186
 X -45 Y 93 X -70 Y 279 X 67 Y 93 X -67 Y 186 X 13 Y 93 X -13 Y 186 X s 0.999 0.999 0.999 c black 0.999 0.999 0.999 c 319 584 m 234 Y 93 X 4 Y 93 X -20 Y 93 X -24 Y 93 X -30 Y 93 X -57 Y 93 X 16 Y 93 X -82 Y 93 X -41 Y 837 X 13 Y 93 X -13 Y 186 X f
 black 0.999 0.999 0.999 c black 319 818 m 93 X 4 Y 93 X -20 Y 93 X -24 Y 93 X -30 Y 93 X -57 Y 93 X 16 Y 93 X -82 Y 93 X -41 Y 837 X 13 Y 93 X -13 Y 186 X s 1 1 1 c black 319 818 m 93 X 4 Y 93 X -20 Y 93 X -24 Y 93 X -30 Y 93 X -57 Y 93 X 16 Y 93 X
 -82 Y 93 X -41 Y 837 X 13 Y 93 X -13 Y 186 X s 1 0.4 0.6 c black 1 0.4 0.6 c 319 584 m 234 Y 93 X 4 Y 93 X -20 Y 93 X -24 Y 93 X -30 Y 93 X -57 Y 93 X 16 Y 93 X -82 Y 93 X -41 Y 837 X 13 Y 93 X -13 Y 186 X f black 1 0.4 0.6 c black 319 818 m 93 X 4
 Y 93 X -20 Y 93 X -24 Y 93 X -30 Y 93 X -57 Y 93 X 16 Y 93 X -82 Y 93 X -41 Y 837 X 13 Y 93 X -13 Y 186 X s 1 0 0 c 6 lw 1 1 1 c black 1 0 0 c 319 1274 m 93 X -14 Y 93 X -32 Y 93 X -37 Y 93 X -37 Y 93 X -40 Y 93 X -37 Y 93 X -32 Y 93 X -37 Y 93 X
 -32 Y 93 X -34 Y 93 X -31 Y 93 X -30 Y 93 X -36 Y 93 X -29 Y 93 X -29 Y 93 X -31 Y 93 X -17 Y 93 X -34 Y 93 X 20 Y 93 X s black 3 lw 1 0 0 c 1 lw << /PatternType 1 /PaintType 2 /TilingType 1 /BBox [ 0 0 100 100 ] /XStep 100 /YStep 100 /PaintProc {
 begin gsave 0 100 m 100 0 l s gr end } >> [ 0.24 0 0 0.24 0 0 ] makepattern /P05 exch def /cs {[/Pattern /DeviceRGB] setcolorspace} def /FA {f [/DeviceRGB] setcolorspace} def cs 1 0 0 P05 setcolor 319 584 m 692 Y 93 X -14 Y 93 X -32 Y 93 X -37 Y 93
 X -37 Y 93 X -40 Y 93 X -37 Y 93 X -30 Y 93 X -38 Y 93 X -32 Y 93 X -34 Y 93 X -31 Y 93 X -30 Y 93 X -35 Y 93 X -28 Y 93 X -29 Y 93 X -30 Y 93 X -16 Y 93 X -33 Y 93 X 20 Y 93 X -149 Y 132 Y -93 X -19 Y -93 X 33 Y -93 X 20 Y -93 X 30 Y -93 X 31 Y -93
 X 31 Y -93 X 36 Y -93 X 30 Y -93 X 31 Y -93 X 34 Y -93 X 33 Y -93 X 35 Y -93 X 34 Y -93 X 38 Y -93 X 39 Y -93 X 38 Y -93 X 36 Y -93 X 31 Y -93 X 15 Y -93 X -688 Y FA 6 lw 1 1 1 c 15 lw 1668 827 m 2 Y s 1668 829 m cl s 1668 786 m -11 Y s 1668 775 m
 cl s 1761 775 m 13 Y s 1761 788 m cl s 1761 734 m -38 Y s 1761 696 m cl s 1854 735 m 27 Y s 1854 762 m cl s 1854 695 m -79 Y s 1854 616 m cl s 1947 735 m 27 Y s 1947 762 m cl s 1947 695 m -79 Y s 1947 616 m cl s 2133 798 m 7 Y s 2133 805 m cl s 2133
 757 m -24 Y s 2133 733 m cl s black 1 1 1 c 3 lw /w 43 def /w2 {w 2 div} def /w3 {w 3 div} def 366 1274 459 1259 552 1229 645 1194 738 1155 831 1113 924 1078 1017 1047 1110 1011 1203 971 1296 945 1389 904 1482 861 1575 861 1668 807 1761 754 1854 715
 1947 715 18 { m20} R 15 lw 3 lw 2133 778 m20 15 lw black 6 lw 1 1 1 c black 3 lw /w 33 def /w2 {w 2 div} def /w3 {w 3 div} def 366 1274 m20 6 lw 3 lw 459 1259 m20 6 lw 3 lw 552 1229 m20 6 lw 3 lw 645 1194 m20 6 lw 3 lw 738 1155 m20 6 lw 3 lw 831
 1113 m20 6 lw 3 lw 924 1078 m20 6 lw 3 lw 1017 1047 m20 6 lw 3 lw 1110 1011 m20 6 lw 3 lw 1203 971 m20 6 lw 3 lw 1296 945 m20 6 lw 3 lw 1389 904 m20 6 lw 1482 842 m 5 Y s 1482 874 m 1 Y s 3 lw 1482 861 m20 6 lw 1575 842 m 5 Y s 1575 874 m 1 Y s 3 lw
 1575 861 m20 6 lw 1668 773 m 20 Y s 1668 820 m 8 Y s 3 lw 1668 807 m20 6 lw 1761 685 m 56 Y s 1761 768 m 17 Y s 3 lw 1761 754 m20 6 lw 1854 584 m 118 Y s 1854 729 m 25 Y s 3 lw 1854 715 m20 6 lw 1947 584 m 118 Y s 1947 729 m 25 Y s 3 lw 1947 715 m20
 6 lw 2133 729 m 35 Y s 2133 791 m 12 Y s 3 lw 2133 778 m20 6 lw 1482 874 m 1 Y s 1482 875 m cl s 1482 847 m -4 Y s 1482 843 m cl s 1575 874 m 1 Y s 1575 875 m cl s 1575 847 m -4 Y s 1575 843 m cl s 1668 820 m 9 Y s 1668 829 m cl s 1668 793 m -18 Y s
 1668 775 m cl s 1761 768 m 20 Y s 1761 788 m cl s 1761 741 m -45 Y s 1761 696 m cl s 1854 729 m 33 Y s 1854 762 m cl s 1854 702 m -86 Y s 1854 616 m cl s 1947 729 m 33 Y s 1947 762 m cl s 1947 702 m -86 Y s 1947 616 m cl s 2133 791 m 14 Y s 2133 805
 m cl s 2133 764 m -31 Y s 2133 733 m cl s 3 lw 366 1274 459 1259 552 1229 645 1194 738 1155 831 1113 924 1078 1017 1047 1110 1011 1203 971 1296 945 1389 904 1482 861 1575 861 1668 807 1761 754 1854 715 1947 715 18 { m20} R 6 lw 3 lw 2133 778 m20 6
 lw 3 lw 319 584 m 1860 X s 412 584 m cl s 459 584 m cl s 505 584 m cl s 552 584 m cl s 598 584 m cl s 645 584 m cl s 691 584 m cl s 738 584 m cl s 784 584 m cl s 831 584 m cl s 877 584 m cl s 924 584 m cl s 970 584 m cl s 1017 584 m cl s 1063 584 m
 cl s 1110 584 m cl s 1156 584 m cl s 1203 584 m cl s 1249 584 m cl s 1296 584 m cl s 1342 584 m cl s 1389 584 m cl s 1435 584 m cl s 1482 584 m cl s 1528 584 m cl s 1575 584 m cl s 1621 584 m cl s 1668 584 m cl s 1714 584 m cl s 1761 584 m cl s 1807
 584 m cl s 1854 584 m cl s 1900 584 m cl s 1947 584 m cl s 1993 584 m cl s 2040 584 m cl s 2086 584 m cl s 412 584 m cl s 366 584 m cl s 319 584 m cl s 2086 584 m cl s 2133 584 m cl s 2179 584 m cl s 319 1729 m 1860 X s 412 1729 m cl s 459 1729 m cl
 s 505 1729 m cl s 552 1729 m cl s 598 1729 m cl s 645 1729 m cl s 691 1729 m cl s 738 1729 m cl s 784 1729 m cl s 831 1729 m cl s 877 1729 m cl s 924 1729 m cl s 970 1729 m cl s 1017 1729 m cl s 1063 1729 m cl s 1110 1729 m cl s 1156 1729 m cl s
 1203 1729 m cl s 1249 1729 m cl s 1296 1729 m cl s 1342 1729 m cl s 1389 1729 m cl s 1435 1729 m cl s 1482 1729 m cl s 1528 1729 m cl s 1575 1729 m cl s 1621 1729 m cl s 1668 1729 m cl s 1714 1729 m cl s 1761 1729 m cl s 1807 1729 m cl s 1854 1729 m
 cl s 1900 1729 m cl s 1947 1729 m cl s 1993 1729 m cl s 2040 1729 m cl s 2086 1729 m cl s 412 1729 m cl s 366 1729 m cl s 319 1729 m cl s 2086 1729 m cl s 2133 1729 m cl s 2179 1729 m cl s 319 584 m 1145 Y s 341 624 m -22 X s 341 647 m -22 X s 341
 663 m -22 X s 341 676 m -22 X s 341 686 m -22 X s 341 695 m -22 X s 341 702 m -22 X s 341 709 m -22 X s 363 715 m -44 X s 341 754 m -22 X s 341 778 m -22 X s 341 794 m -22 X s 341 807 m -22 X s 341 817 m -22 X s 341 826 m -22 X s 341 833 m -22 X s
 341 840 m -22 X s 363 846 m -44 X s 341 885 m -22 X s 341 908 m -22 X s 341 925 m -22 X s 341 937 m -22 X s 341 948 m -22 X s 341 956 m -22 X s 341 964 m -22 X s 341 971 m -22 X s 363 977 m -44 X s 341 1016 m -22 X s 341 1039 m -22 X s 341 1055 m
 -22 X s 341 1068 m -22 X s 341 1078 m -22 X s 341 1087 m -22 X s 341 1095 m -22 X s 341 1101 m -22 X s 363 1107 m -44 X s 341 1147 m -22 X s 341 1170 m -22 X s 341 1186 m -22 X s 341 1199 m -22 X s 341 1209 m -22 X s 341 1218 m -22 X s 341 1226 m
 -22 X s 341 1232 m -22 X s 363 1238 m -44 X s 341 1278 m -22 X s 341 1301 m -22 X s 341 1317 m -22 X s 341 1330 m -22 X s 341 1340 m -22 X s 341 1349 m -22 X s 341 1356 m -22 X s 341 1363 m -22 X s 363 1369 m -44 X s 341 1408 m -22 X s 341 1431 m
 -22 X s 341 1448 m -22 X s 341 1460 m -22 X s 341 1471 m -22 X s 341 1480 m -22 X s 341 1487 m -22 X s 341 1494 m -22 X s 363 1500 m -44 X s 341 1539 m -22 X s 341 1562 m -22 X s 341 1579 m -22 X s 341 1591 m -22 X s 341 1602 m -22 X s 341 1610 m
 -22 X s 341 1618 m -22 X s 341 1625 m -22 X s 363 1631 m -44 X s 341 1670 m -22 X s 341 1693 m -22 X s 341 1709 m -22 X s 341 1722 m -22 X s 2179 584 m 1145 Y s 2157 624 m 22 X s 2157 647 m 22 X s 2157 663 m 22 X s 2157 676 m 22 X s 2157 686 m 22 X
 s 2157 695 m 22 X s 2157 702 m 22 X s 2157 709 m 22 X s 2136 715 m 43 X s 2157 754 m 22 X s 2157 778 m 22 X s 2157 794 m 22 X s 2157 807 m 22 X s 2157 817 m 22 X s 2157 826 m 22 X s 2157 833 m 22 X s 2157 840 m 22 X s 2136 846 m 43 X s 2157 885 m 22
 X s 2157 908 m 22 X s 2157 925 m 22 X s 2157 937 m 22 X s 2157 948 m 22 X s 2157 956 m 22 X s 2157 964 m 22 X s 2157 971 m 22 X s 2136 977 m 43 X s 2157 1016 m 22 X s 2157 1039 m 22 X s 2157 1055 m 22 X s 2157 1068 m 22 X s 2157 1078 m 22 X s 2157
 1087 m 22 X s 2157 1095 m 22 X s 2157 1101 m 22 X s 2136 1107 m 43 X s 2157 1147 m 22 X s 2157 1170 m 22 X s 2157 1186 m 22 X s 2157 1199 m 22 X s 2157 1209 m 22 X s 2157 1218 m 22 X s 2157 1226 m 22 X s 2157 1232 m 22 X s 2136 1238 m 43 X s 2157
 1278 m 22 X s 2157 1301 m 22 X s 2157 1317 m 22 X s 2157 1330 m 22 X s 2157 1340 m 22 X s 2157 1349 m 22 X s 2157 1356 m 22 X s 2157 1363 m 22 X s 2136 1369 m 43 X s 2157 1408 m 22 X s 2157 1431 m 22 X s 2157 1448 m 22 X s 2157 1460 m 22 X s 2157
 1471 m 22 X s 2157 1480 m 22 X s 2157 1487 m 22 X s 2157 1494 m 22 X s 2136 1500 m 43 X s 2157 1539 m 22 X s 2157 1562 m 22 X s 2157 1579 m 22 X s 2157 1591 m 22 X s 2157 1602 m 22 X s 2157 1610 m 22 X s 2157 1618 m 22 X s 2157 1625 m 22 X s 2136
 1631 m 43 X s 2157 1670 m 22 X s 2157 1693 m 22 X s 2157 1709 m 22 X s 2157 1722 m 22 X s
 gsave  2263 1770 2 313 C 406.765 1447.41 t 0 r /Helvetica findfont 64.4212 sf 0 0 m (CRY for MB\255SSd) show NC gr 
 gsave  2263 1770 2 313 C 1464.36 1616.89 t 0 r /Helvetica findfont 64.4212 sf 0 0 m (SM Total) show NC gr  1 1 1 c 1338 1603 m 107 X 74 Y -107 X f 1 0 0 c 6 lw 1338 1640 m 107 X s black
 gsave  2263 1770 2 313 C 1464.36 1511.81 t 0 r /Helvetica findfont 64.4212 sf 0 0 m (Data) show NC gr  1391 1502 m 64 Y s 3 lw 1391 1534 m20 6 lw
 gsave  2263 1770 2 313 C 1464.36 1406.73 t 0 r /Helvetica findfont 64.4212 sf 0 0 m (GAMMAjets) show NC gr  1 1 0 c 3 lw 1338 1391 m 107 X 74 Y -107 X f 6 lw black 3 lw 1338 1465 m 107 X s 1338 1391 m 107 X s 1445 1391 m 74 Y s 1338 1391 m 74 Y s
 gsave  2263 1770 2 313 C 1464.36 1298.26 t 0 r /Helvetica findfont 64.4212 sf 0 0 m (W+jets) show NC gr  0.4 0.6 1 c 1338 1284 m 107 X 75 Y -107 X f black 1338 1359 m 107 X s 1338 1284 m 107 X s 1445 1284 m 75 Y s 1338 1284 m 75 Y s
 gsave  2263 1770 2 313 C 1498.25 1193.18 t 0 r /Helvetica findfont 64.4212 sf 0 0 m (\(+EW\) & single top) show NC gr 
 gsave  2263 1770 2 313 C 1481.3 1193.18 t 0 r /Helvetica findfont 64.4212 sf 0 0 m (t) show NC gr  1481 1244 m 17 X s
 gsave  2263 1770 2 313 C 1464.36 1193.18 t 0 r /Helvetica findfont 64.4212 sf 0 0 m (t) show NC gr  0.6 1 0.6 c 1338 1178 m 107 X 75 Y -107 X f black 1338 1253 m 107 X s 1338 1178 m 107 X s 1445 1178 m 75 Y s 1338 1178 m 75 Y s
 gsave  2263 1770 2 313 C 1464.36 1088.1 t 0 r /Helvetica findfont 64.4212 sf 0 0 m (Diboson) show NC gr  1 0.4 0.6 c 1338 1072 m 107 X 74 Y -107 X f black 1338 1146 m 107 X s 1338 1072 m 107 X s 1445 1072 m 74 Y s 1338 1072 m 74 Y s
 gsave  2263 1770 2 313 C 911.832 1566.05 t 0 r /Helvetica findfont 44.0776 sf 0 0 m (\2551) show NC gr 
 gsave  2263 1770 2 313 C 471.17 1535.54 t 0 r /Helvetica findfont 64.4212 sf 0 0 m (=13TeV, 139 fb) show NC gr 
 gsave  2263 1770 2 313 C 440.662 1535.54 t 0 r /Helvetica findfont 64.4212 sf 0 0 m (s) show NC gr  6 lw 420 1573 m 7 -41 d s 3 lw 427 1532 m 7 61 d s 434 1593 m 37 X s 1 1 1 c 2254 561 2 2 bf black 1 1 1 c black 1860 358 318 187 bl 1 1 1 c black
 1860 358 318 187 bl 6 lw 1 1 1 c black 3 lw 364 366 m20 6 lw 3 lw 457 365 m20 6 lw 3 lw 550 369 m20 6 lw 3 lw 643 372 m20 6 lw 3 lw 736 369 m20 6 lw 3 lw 829 363 m20 6 lw 3 lw 923 369 m20 6 lw 3 lw 1016 371 m20 6 lw 3 lw 1109 373 m20 6 lw 3 lw 1202
 352 m20 6 lw 3 lw 1295 373 m20 6 lw 3 lw 1388 349 m20 6 lw 3 lw 1481 317 m20 6 lw 3 lw 1574 417 m20 6 lw 3 lw 1667 341 m20 6 lw 3 lw 1760 296 m20 6 lw 3 lw 1853 282 m20 6 lw 3 lw 1946 311 m20 6 lw 3 lw 318 187 m 1860 X s
 gsave  2254 561 2 2 C 1959.25 27.1177 t 0 r /Helvetica findfont 78.1689 sf 0 0 m ( [GeV]) show NC gr 
 gsave  2254 561 2 2 C 1854.17 64.4045 t 0 r /Helvetica findfont 50.9797 sf 0 0 m (miss) show NC gr 
 gsave  2254 561 2 2 C 1854.17 3.38971 t 0 r /Helvetica findfont 50.9797 sf 0 0 m (T) show NC gr 
 gsave  2254 561 2 2 C 1803.33 27.1177 t 0 r /Helvetica findfont 78.1689 sf 0 0 m (E) show NC gr  411 201 m -14 Y s 457 194 m -7 Y s 504 194 m -7 Y s 550 194 m -7 Y s 597 201 m -14 Y s 643 194 m -7 Y s 690 194 m -7 Y s 736 194 m -7 Y s 783 201 m -14
 Y s 829 194 m -7 Y s 876 194 m -7 Y s 923 194 m -7 Y s 969 201 m -14 Y s 1016 194 m -7 Y s 1062 194 m -7 Y s 1109 194 m -7 Y s 1155 201 m -14 Y s 1202 194 m -7 Y s 1248 194 m -7 Y s 1295 194 m -7 Y s 1341 201 m -14 Y s 1388 194 m -7 Y s 1434 194 m
 -7 Y s 1481 194 m -7 Y s 1527 201 m -14 Y s 1574 194 m -7 Y s 1620 194 m -7 Y s 1667 194 m -7 Y s 1713 201 m -14 Y s 1760 194 m -7 Y s 1806 194 m -7 Y s 1853 194 m -7 Y s 1899 201 m -14 Y s 1946 194 m -7 Y s 1992 194 m -7 Y s 2039 194 m -7 Y s 2085
 201 m -14 Y s 411 201 m -14 Y s 364 194 m -7 Y s 318 194 m -7 Y s 2085 201 m -14 Y s 2132 194 m -7 Y s
 gsave  2254 561 2 2 C 345.75 118.64 t 0 r /Helvetica findfont 78.1689 sf 0 0 m (400) show NC gr 
 gsave  2254 561 2 2 C 532.185 118.64 t 0 r /Helvetica findfont 78.1689 sf 0 0 m (600) show NC gr 
 gsave  2254 561 2 2 C 715.229 118.64 t 0 r /Helvetica findfont 78.1689 sf 0 0 m (800) show NC gr 
 gsave  2254 561 2 2 C 877.935 118.64 t 0 r /Helvetica findfont 78.1689 sf 0 0 m (1000) show NC gr 
 gsave  2254 561 2 2 C 1064.37 118.64 t 0 r /Helvetica findfont 78.1689 sf 0 0 m (1200) show NC gr 
 gsave  2254 561 2 2 C 1250.8 118.64 t 0 r /Helvetica findfont 78.1689 sf 0 0 m (1400) show NC gr 
 gsave  2254 561 2 2 C 1437.24 118.64 t 0 r /Helvetica findfont 78.1689 sf 0 0 m (1600) show NC gr 
 gsave  2254 561 2 2 C 1623.67 118.64 t 0 r /Helvetica findfont 78.1689 sf 0 0 m (1800) show NC gr 
 gsave  2254 561 2 2 C 1810.11 118.64 t 0 r /Helvetica findfont 78.1689 sf 0 0 m (2000) show NC gr 
 gsave  2254 561 2 2 C 1996.54 118.64 t 0 r /Helvetica findfont 78.1689 sf 0 0 m (2200) show NC gr  318 545 m 1860 X s 411 531 m 14 Y s 457 538 m 7 Y s 504 538 m 7 Y s 550 538 m 7 Y s 597 531 m 14 Y s 643 538 m 7 Y s 690 538 m 7 Y s 736 538 m 7 Y s
 783 531 m 14 Y s 829 538 m 7 Y s 876 538 m 7 Y s 923 538 m 7 Y s 969 531 m 14 Y s 1016 538 m 7 Y s 1062 538 m 7 Y s 1109 538 m 7 Y s 1155 531 m 14 Y s 1202 538 m 7 Y s 1248 538 m 7 Y s 1295 538 m 7 Y s 1341 531 m 14 Y s 1388 538 m 7 Y s 1434 538 m 7
 Y s 1481 538 m 7 Y s 1527 531 m 14 Y s 1574 538 m 7 Y s 1620 538 m 7 Y s 1667 538 m 7 Y s 1713 531 m 14 Y s 1760 538 m 7 Y s 1806 538 m 7 Y s 1853 538 m 7 Y s 1899 531 m 14 Y s 1946 538 m 7 Y s 1992 538 m 7 Y s 2039 538 m 7 Y s 2085 531 m 14 Y s 411
 531 m 14 Y s 364 538 m 7 Y s 318 538 m 7 Y s 2085 531 m 14 Y s 2132 538 m 7 Y s 318 187 m 358 Y s
 gsave  2254 561 2 2 C 166.096 284.736 t 90 r /Helvetica findfont 67.9729 sf 0 0 m (Data/SM) show NC gr  361 203 m -43 X s 339 220 m -21 X s 339 236 m -21 X s 339 252 m -21 X s 339 268 m -21 X s 361 285 m -43 X s 339 301 m -21 X s 339 317 m -21 X s
 339 334 m -21 X s 339 350 m -21 X s 361 366 m -43 X s 339 382 m -21 X s 339 399 m -21 X s 339 415 m -21 X s 339 431 m -21 X s 361 447 m -43 X s 339 464 m -21 X s 339 480 m -21 X s 339 496 m -21 X s 339 512 m -21 X s 361 529 m -43 X s 361 203 m -43 X
 s 339 187 m -21 X s 361 529 m -43 X s
 gsave  2254 561 2 2 C 261.008 183.044 t 0 r /Helvetica findfont 57.777 sf 0 0 m (0) show NC gr 
 gsave  2254 561 2 2 C 213.552 261.008 t 0 r /Helvetica findfont 57.777 sf 0 0 m (0.5) show NC gr 
 gsave  2254 561 2 2 C 271.177 342.361 t 0 r /Helvetica findfont 57.777 sf 0 0 m (1) show NC gr 
 gsave  2254 561 2 2 C 213.552 423.714 t 0 r /Helvetica findfont 57.777 sf 0 0 m (1.5) show NC gr 
 gsave  2254 561 2 2 C 261.008 505.067 t 0 r /Helvetica findfont 57.777 sf 0 0 m (2) show NC gr  2178 187 m 358 Y s 2135 203 m 43 X s 2157 220 m 21 X s 2157 236 m 21 X s 2157 252 m 21 X s 2157 268 m 21 X s 2135 285 m 43 X s 2157 301 m 21 X s 2157 317
 m 21 X s 2157 334 m 21 X s 2157 350 m 21 X s 2135 366 m 43 X s 2157 382 m 21 X s 2157 399 m 21 X s 2157 415 m 21 X s 2157 431 m 21 X s 2135 447 m 43 X s 2157 464 m 21 X s 2157 480 m 21 X s 2157 496 m 21 X s 2157 512 m 21 X s 2135 529 m 43 X s 2135
 203 m 43 X s 2157 187 m 21 X s 2135 529 m 43 X s 9 lw 1202 365 m 2 Y s 1202 367 m cl s 1202 338 m -2 Y s 1202 336 m cl s 1295 387 m 9 Y s 1295 396 m cl s 1295 360 m -9 Y s 1295 351 m cl s 1388 362 m 14 Y s 1388 376 m cl s 1388 335 m -14 Y s 1388 321
 m cl s 1481 331 m 18 Y s 1481 349 m cl s 1481 304 m -18 Y s 1481 286 m cl s 1574 430 m 47 Y s 1574 477 m cl s 1574 403 m -45 Y s 1574 358 m cl s 1667 355 m 51 Y s 1667 406 m cl s 1667 327 m -45 Y s 1667 282 m cl s 1760 309 m 62 Y s 1760 371 m cl s
 1760 282 m -46 Y s 1760 236 m cl s 1853 296 m 88 Y s 1853 384 m cl s 1853 269 m -52 Y s 1853 217 m cl s 1946 324 m 125 Y s 1946 449 m cl s 1946 297 m -75 Y s 1946 222 m cl s 2132 545 m -154 Y s 2132 391 m cl s 3 lw 364 366 457 365 550 369 643 372
 736 369 829 363 923 369 1016 371 1109 373 1202 352 1295 373 1388 349 1481 317 1574 417 1667 341 1760 296 1853 282 1946 311 18 { m20} R 9 lw 1 0 0 c 6 lw black 3 lw 1 0 0 c 2178 227 m s 2178 255 m s 2178 284 m s 2178 312 m s 2178 341 m s 2178 369 m
 -26 -26 d s 2169 389 m -46 -46 d s 2141 389 m -47 -46 d s 2112 389 m -46 -46 d s 2083 389 m -45 -46 d s 2054 389 m -45 -46 d s 2025 389 m -46 -46 d s 1997 389 m -46 -46 d s 1969 389 m -47 -46 d s 1940 389 m -41 -40 d s 1911 389 m -40 -39 d s 1876
 383 m -33 -33 d s 1847 383 m -33 -33 d s 1818 383 m -33 -34 d s 1791 383 m -35 -34 d s 1762 383 m -35 -34 d s 1733 383 m -32 -31 d s 1702 381 m -29 -29 d s 1673 381 m -29 -29 d s 1644 381 m -24 -25 d s 1611 376 m -20 -20 d s 1582 376 m -19 -20 d s
 1553 376 m -19 -20 d s 1524 375 m -18 -18 d s 1495 375 m -18 -18 d s 1467 375 m -18 -18 d s 1438 375 m -18 -18 d s 1409 375 m -17 -18 d s 1380 375 m -17 -18 d s 1352 375 m -17 -17 d s 1322 374 m -16 -16 d s 1294 374 m -17 -16 d s 1265 374 m -16 -16
 d s 1236 374 m -16 -16 d s 1207 374 m -15 -16 d s 1179 374 m -16 -16 d s 1149 373 m -14 -14 d s 1121 373 m -15 -14 d s 1092 373 m -15 -14 d s 1063 373 m -19 -19 d s 1040 378 m -25 -24 d s 1011 378 m -25 -24 d s 982 378 m -17 -17 d s 947 371 m -11
 -10 d s 918 371 m -11 -10 d s 889 371 m -10 -10 d s 860 371 m -10 -10 d s 831 371 m -9 -10 d s 803 371 m -10 -10 d s 775 371 m -11 -10 d s 746 371 m -11 -10 d s 717 371 m -11 -10 d s 688 371 m -10 -10 d s 659 371 m -10 -10 d s 631 371 m -10 -10 d s
 602 371 m -11 -11 d s 574 372 m -12 -12 d s 546 372 m -12 -12 d s 517 372 m -12 -12 d s 489 373 m -13 -14 d s 460 373 m -13 -14 d s 318 231 m s 432 373 m -14 -14 d s 318 259 m s 402 372 m -12 -12 d s 318 288 m s 374 372 m -13 -12 d s 318 317 m s 345
 372 m -12 -12 d s 318 345 m s 6 lw black[ 4 8] 0 sd 3 lw 318 447 m 1860 X s 318 285 m 1860 X s 1 0 0 c[  12 12 ] 0 sd 6 lw 318 366 m 1860 X s
 gr  gr showpage
end
%%EOF
