%!PS-Adobe-2.0 EPSF-2.0
%%BoundingBox:  0 0 567 521
%%Title: Distributions/met_distrCRW_MB-GGo_afterFit_forThesis.eps: canvas
%%Creator: ROOT Version 6.04/16
%%CreationDate: Tue May 19 22:01:26 2020
%%DocumentNeededResources: ProcSet (FontSetInit)
%%EndComments
%%BeginProlog
80 dict begin
/s {stroke} def /l {lineto} def /m {moveto} def /t {translate} def
/r {rotate} def /rl {roll}  def /R {repeat} def
/d {rlineto} def /rm {rmoveto} def /gr {grestore} def /f {eofill} def
/c {setrgbcolor} def /black {0 setgray} def /sd {setdash} def
/cl {closepath} def /sf {scalefont setfont} def /lw {setlinewidth} def
/box {m dup 0 exch d exch 0 d 0 exch neg d cl} def
/NC{systemdict begin initclip end}def/C{NC box clip newpath}def
/bl {box s} def /bf {gsave box gsave f grestore 1 lw [] 0 sd s grestore} def /Y { 0 exch d} def /X { 0 d} def 
/K {{pop pop 0 moveto} exch kshow} bind def
/ita {/ang 15 def gsave [1 0 ang dup sin exch cos div 1 0 0] concat} def 
/mp {newpath /y exch def /x exch def} def
/side {[w .77 mul w .23 mul] .385 w mul sd w 0 l currentpoint t -144 r} def
/mr {mp x y w2 0 360 arc} def /m24 {mr s} def /m20 {mr f} def
/mb {mp x y w2 add m w2 neg 0 d 0 w neg d w 0 d 0 w d cl} def
/mt {mp x y w2 add m w2 neg w neg d w 0 d cl} def
/m21 {mb f} def /m25 {mb s} def /m22 {mt f} def /m26{mt s} def
/m23 {mp x y w2 sub m w2 w d w neg 0 d cl f} def
/m27 {mp x y w2 add m w3 neg w2 neg d w3 w2 neg d w3 w2 d cl s} def
/m28 {mp x w2 sub y w2 sub w3 add m w3 0 d  0 w3 neg d w3 0 d 0 w3 d w3 0 d  0 w3 d w3 neg 0 d 0 w3 d w3 neg 0 d 0 w3 neg d w3 neg 0 d cl s } def
/m29 {mp gsave x w2 sub y w2 add w3 sub m currentpoint t 4 {side} repeat cl fill gr} def
/m30 {mp gsave x w2 sub y w2 add w3 sub m currentpoint t 4 {side} repeat cl s gr} def
/m31 {mp x y w2 sub m 0 w d x w2 sub y m w 0 d x w2 sub y w2 add m w w neg d x w2 sub y w2 sub m w w d s} def
/m32 {mp x y w2 sub m w2 w d w neg 0 d cl s} def
/m33 {mp x y w2 add m w3 neg w2 neg d w3 w2 neg d w3 w2 d cl f} def
/m34 {mp x w2 sub y w2 sub w3 add m w3 0 d  0 w3 neg d w3 0 d 0 w3 d w3 0 d  0 w3 d w3 neg 0 d 0 w3 d w3 neg 0 d 0 w3 neg d w3 neg 0 d cl f } def
/m2 {mp x y w2 sub m 0 w d x w2 sub y m w 0 d s} def
/m5 {mp x w2 sub y w2 sub m w w d x w2 sub y w2 add m w w neg d s} def
%%IncludeResource: ProcSet (FontSetInit)
%%IncludeResource: font Times-Roman
%%IncludeResource: font Times-Italic
%%IncludeResource: font Times-Bold
%%IncludeResource: font Times-BoldItalic
%%IncludeResource: font Helvetica
%%IncludeResource: font Helvetica-Oblique
%%IncludeResource: font Helvetica-Bold
%%IncludeResource: font Helvetica-BoldOblique
%%IncludeResource: font Courier
%%IncludeResource: font Courier-Oblique
%%IncludeResource: font Courier-Bold
%%IncludeResource: font Courier-BoldOblique
%%IncludeResource: font Symbol
%%IncludeResource: font ZapfDingbats
/reEncode {exch findfont dup length dict begin {1 index /FID eq  {pop pop} {def} ifelse } forall /Encoding exch def currentdict end dup /FontName get exch definefont pop } def [/Times-Bold /Times-Italic /Times-BoldItalic /Helvetica /Helvetica-Oblique
 /Helvetica-Bold /Helvetica-BoldOblique /Courier /Courier-Oblique /Courier-Bold /Courier-BoldOblique /Times-Roman /AvantGarde-Book /AvantGarde-BookOblique /AvantGarde-Demi /AvantGarde-DemiOblique /Bookman-Demi /Bookman-DemiItalic /Bookman-Light
 /Bookman-LightItalic /Helvetica-Narrow /Helvetica-Narrow-Bold /Helvetica-Narrow-BoldOblique /Helvetica-Narrow-Oblique /NewCenturySchlbk-Roman /NewCenturySchlbk-Bold /NewCenturySchlbk-BoldItalic /NewCenturySchlbk-Italic /Palatino-Bold
 /Palatino-BoldItalic /Palatino-Italic /Palatino-Roman ] {ISOLatin1Encoding reEncode } forall
%%EndProlog
%%BeginSetup
%%EndSetup
newpath  gsave  .25 .25 scale  gsave  0 0 t black[  ] 0 sd 3 lw 1 1 1 c 2268 2085 0 0 bf black 1 1 1 c 2263 1770 2 313 bf black 1 1 1 c black 1860 1145 319 584 bl 1 1 1 c black 1860 1145 319 584 bl 6 lw 1 1 1 c black 3 lw /w 33 def /w2 {w 2 div} def
 /w3 {w 3 div} def 366 1107 m20 6 lw 3 lw 459 1090 m20 6 lw 552 1025 m 1 Y s 3 lw 552 1039 m20 6 lw 645 989 m 4 Y s 645 1020 m 2 Y s 3 lw 645 1007 m20 6 lw 738 944 m 11 Y s 738 982 m 5 Y s 3 lw 738 968 m20 6 lw 831 817 m 40 Y s 831 884 m 18 Y s 3 lw
 831 871 m20 6 lw 924 722 m 82 Y s 924 831 m 28 Y s 3 lw 924 817 m20 6 lw 1017 722 m 82 Y s 1017 831 m 28 Y s 3 lw 1017 817 m20 6 lw 1110 782 m 53 Y s 1110 862 m 22 Y s 3 lw 1110 849 m20 6 lw 3 lw 319 584 m 1860 X s
 gsave  2263 1770 2 313 C 1949.08 355.92 t 0 r /Helvetica findfont 81.3741 sf 0 0 m ( [GeV]) show NC gr 
 gsave  2263 1770 2 313 C 1837.22 396.596 t 0 r /Helvetica findfont 54.2494 sf 0 0 m (miss) show NC gr 
 gsave  2263 1770 2 313 C 1837.22 332.192 t 0 r /Helvetica findfont 54.2494 sf 0 0 m (T) show NC gr 
 gsave  2263 1770 2 313 C 1786.38 355.92 t 0 r /Helvetica findfont 81.3741 sf 0 0 m (E) show NC gr  412 584 m cl s 459 584 m cl s 505 584 m cl s 552 584 m cl s 598 584 m cl s 645 584 m cl s 691 584 m cl s 738 584 m cl s 784 584 m cl s 831 584 m cl s
 877 584 m cl s 924 584 m cl s 970 584 m cl s 1017 584 m cl s 1063 584 m cl s 1110 584 m cl s 1156 584 m cl s 1203 584 m cl s 1249 584 m cl s 1296 584 m cl s 1342 584 m cl s 1389 584 m cl s 1435 584 m cl s 1482 584 m cl s 1528 584 m cl s 1575 584 m
 cl s 1621 584 m cl s 1668 584 m cl s 1714 584 m cl s 1761 584 m cl s 1807 584 m cl s 1854 584 m cl s 1900 584 m cl s 1947 584 m cl s 1993 584 m cl s 2040 584 m cl s 2086 584 m cl s 412 584 m cl s 366 584 m cl s 319 584 m cl s 2086 584 m cl s 2133
 584 m cl s 2179 584 m cl s 319 1729 m 1860 X s 412 1729 m cl s 459 1729 m cl s 505 1729 m cl s 552 1729 m cl s 598 1729 m cl s 645 1729 m cl s 691 1729 m cl s 738 1729 m cl s 784 1729 m cl s 831 1729 m cl s 877 1729 m cl s 924 1729 m cl s 970 1729 m
 cl s 1017 1729 m cl s 1063 1729 m cl s 1110 1729 m cl s 1156 1729 m cl s 1203 1729 m cl s 1249 1729 m cl s 1296 1729 m cl s 1342 1729 m cl s 1389 1729 m cl s 1435 1729 m cl s 1482 1729 m cl s 1528 1729 m cl s 1575 1729 m cl s 1621 1729 m cl s 1668
 1729 m cl s 1714 1729 m cl s 1761 1729 m cl s 1807 1729 m cl s 1854 1729 m cl s 1900 1729 m cl s 1947 1729 m cl s 1993 1729 m cl s 2040 1729 m cl s 2086 1729 m cl s 412 1729 m cl s 366 1729 m cl s 319 1729 m cl s 2086 1729 m cl s 2133 1729 m cl s
 2179 1729 m cl s 319 584 m 1145 Y s
 gsave  2263 1770 2 313 C 166.096 1091.49 t 90 r /Helvetica findfont 81.3741 sf 0 0 m (Events / 100 GeV) show NC gr  341 638 m -22 X s 341 670 m -22 X s 341 692 m -22 X s 341 709 m -22 X s 341 724 m -22 X s 341 736 m -22 X s 341 746 m -22 X s 341 755
 m -22 X s 363 763 m -44 X s
 gsave  2263 1770 2 313 C 300.555 736.095 t 0 r  -36 0 t /Helvetica findfont 64.4212 sf 0 0 m (1) show NC gr  341 817 m -22 X s 341 849 m -22 X s 341 871 m -22 X s 341 888 m -22 X s 341 902 m -22 X s 341 914 m -22 X s 341 925 m -22 X s 341 934 m -22
 X s 363 942 m -44 X s
 gsave  2263 1770 2 313 C 300.555 914.998 t 0 r  -73 0 t /Helvetica findfont 64.4212 sf 0 0 m (10) show NC gr  341 996 m -22 X s 341 1027 m -22 X s 341 1050 m -22 X s 341 1067 m -22 X s 341 1081 m -22 X s 341 1093 m -22 X s 341 1104 m -22 X s 341
 1113 m -22 X s 363 1121 m -44 X s
 gsave  2263 1770 2 313 C 274.567 1118.6 t 0 r /Helvetica findfont 44.0776 sf 0 0 m (2) show NC gr 
 gsave  2263 1770 2 313 C 203.383 1091.49 t 0 r /Helvetica findfont 64.4212 sf 0 0 m (10) show NC gr  341 1175 m -22 X s 341 1206 m -22 X s 341 1229 m -22 X s 341 1246 m -22 X s 341 1260 m -22 X s 341 1272 m -22 X s 341 1283 m -22 X s 341 1292 m -22
 X s 363 1300 m -44 X s
 gsave  2263 1770 2 313 C 274.567 1301.65 t 0 r /Helvetica findfont 44.0776 sf 0 0 m (3) show NC gr 
 gsave  2263 1770 2 313 C 203.383 1271.14 t 0 r /Helvetica findfont 64.4212 sf 0 0 m (10) show NC gr  341 1354 m -22 X s 341 1385 m -22 X s 341 1408 m -22 X s 341 1425 m -22 X s 341 1439 m -22 X s 341 1451 m -22 X s 341 1461 m -22 X s 341 1471 m -22
 X s 363 1479 m -44 X s
 gsave  2263 1770 2 313 C 274.567 1477.91 t 0 r /Helvetica findfont 44.0776 sf 0 0 m (4) show NC gr 
 gsave  2263 1770 2 313 C 203.383 1450.8 t 0 r /Helvetica findfont 64.4212 sf 0 0 m (10) show NC gr  341 1533 m -22 X s 341 1564 m -22 X s 341 1587 m -22 X s 341 1604 m -22 X s 341 1618 m -22 X s 341 1630 m -22 X s 341 1640 m -22 X s 341 1650 m -22 X
 s 363 1658 m -44 X s
 gsave  2263 1770 2 313 C 274.567 1660.96 t 0 r /Helvetica findfont 44.0776 sf 0 0 m (5) show NC gr 
 gsave  2263 1770 2 313 C 203.383 1630.45 t 0 r /Helvetica findfont 64.4212 sf 0 0 m (10) show NC gr  341 1712 m -22 X s 2179 584 m 1145 Y s 2157 638 m 22 X s 2157 670 m 22 X s 2157 692 m 22 X s 2157 709 m 22 X s 2157 724 m 22 X s 2157 736 m 22 X s
 2157 746 m 22 X s 2157 755 m 22 X s 2136 763 m 43 X s 2157 817 m 22 X s 2157 849 m 22 X s 2157 871 m 22 X s 2157 888 m 22 X s 2157 902 m 22 X s 2157 914 m 22 X s 2157 925 m 22 X s 2157 934 m 22 X s 2136 942 m 43 X s 2157 996 m 22 X s 2157 1027 m 22
 X s 2157 1050 m 22 X s 2157 1067 m 22 X s 2157 1081 m 22 X s 2157 1093 m 22 X s 2157 1104 m 22 X s 2157 1113 m 22 X s 2136 1121 m 43 X s 2157 1175 m 22 X s 2157 1206 m 22 X s 2157 1229 m 22 X s 2157 1246 m 22 X s 2157 1260 m 22 X s 2157 1272 m 22 X
 s 2157 1283 m 22 X s 2157 1292 m 22 X s 2136 1300 m 43 X s 2157 1354 m 22 X s 2157 1385 m 22 X s 2157 1408 m 22 X s 2157 1425 m 22 X s 2157 1439 m 22 X s 2157 1451 m 22 X s 2157 1461 m 22 X s 2157 1471 m 22 X s 2136 1479 m 43 X s 2157 1533 m 22 X s
 2157 1564 m 22 X s 2157 1587 m 22 X s 2157 1604 m 22 X s 2157 1618 m 22 X s 2157 1630 m 22 X s 2157 1640 m 22 X s 2157 1650 m 22 X s 2136 1658 m 43 X s 2157 1712 m 22 X s 0.4 0.6 1 c black 0.4 0.6 1 c 319 584 m 518 Y 93 X -2 Y 93 X -50 Y 93 X -55 Y
 93 X -54 Y 93 X -63 Y 93 X -36 Y 93 X -62 Y 93 X -25 Y 93 X -57 Y 93 X -33 Y 93 X -34 Y 93 X -47 Y 744 X f black 0.4 0.6 1 c black 319 1102 m 93 X -2 Y 93 X -50 Y 93 X -55 Y 93 X -54 Y 93 X -63 Y 93 X -36 Y 93 X -62 Y 93 X -25 Y 93 X -57 Y 93 X -33
 Y 93 X -34 Y 93 X -47 Y 744 X s 0.999 0.999 0.999 c black 0.999 0.999 0.999 c 319 584 m 446 Y 93 X -23 Y 93 X -59 Y 93 X -74 Y 93 X -74 Y 93 X -66 Y 93 X -53 Y 93 X -97 Y 93 X 83 Y 93 X -41 Y 93 X -6 Y 93 X -36 Y 837 X f black 0.999 0.999 0.999 c
 black 319 1030 m 93 X -23 Y 93 X -59 Y 93 X -74 Y 93 X -74 Y 93 X -66 Y 93 X -53 Y 93 X -97 Y 93 X 83 Y 93 X -41 Y 93 X -6 Y 93 X -36 Y 837 X s 1 1 1 c black 319 1030 m 93 X -23 Y 93 X -59 Y 93 X -74 Y 93 X -74 Y 93 X -66 Y 93 X -53 Y 93 X -97 Y 93
 X 83 Y 93 X -41 Y 93 X -6 Y 93 X -36 Y 837 X s 0.6 1 0.6 c black 0.6 1 0.6 c 319 584 m 446 Y 93 X -23 Y 93 X -59 Y 93 X -74 Y 93 X -74 Y 93 X -66 Y 93 X -53 Y 93 X -97 Y 93 X 83 Y 93 X -41 Y 93 X -6 Y 93 X -36 Y 837 X f black 0.6 1 0.6 c black 319
 1030 m 93 X -23 Y 93 X -59 Y 93 X -74 Y 93 X -74 Y 93 X -66 Y 93 X -53 Y 93 X -97 Y 93 X 83 Y 93 X -41 Y 93 X -6 Y 93 X -36 Y 837 X s 0.999 0.999 0.999 c black 0.999 0.999 0.999 c 319 584 m 320 Y 93 X 11 Y 93 X -29 Y 93 X -66 Y 93 X -71 Y 93 X -58 Y
 93 X -29 Y 93 X -78 Y 93 X 80 Y 93 X -80 Y 1023 X f black 0.999 0.999 0.999 c black 319 904 m 93 X 11 Y 93 X -29 Y 93 X -66 Y 93 X -71 Y 93 X -58 Y 93 X -29 Y 93 X -78 Y 93 X 80 Y 93 X -80 Y 1023 X s 1 1 1 c black 319 904 m 93 X 11 Y 93 X -29 Y 93 X
 -66 Y 93 X -71 Y 93 X -58 Y 93 X -29 Y 93 X -78 Y 93 X 80 Y 93 X -80 Y 1023 X s 1 0.8 0.4 c black 1 0.8 0.4 c 319 584 m 320 Y 93 X 11 Y 93 X -29 Y 93 X -66 Y 93 X -71 Y 93 X -58 Y 93 X -29 Y 93 X -78 Y 93 X 80 Y 93 X -80 Y 1023 X f black 1 0.8 0.4 c
 black 319 904 m 93 X 11 Y 93 X -29 Y 93 X -66 Y 93 X -71 Y 93 X -58 Y 93 X -29 Y 93 X -78 Y 93 X 80 Y 93 X -80 Y 1023 X s 0.999 0.999 0.999 c black 0.999 0.999 0.999 c 319 584 m 314 Y 93 X 12 Y 93 X -27 Y 93 X -68 Y 93 X -71 Y 93 X -55 Y 93 X -28 Y
 93 X -77 Y 93 X 80 Y 93 X -80 Y 1023 X f black 0.999 0.999 0.999 c black 319 898 m 93 X 12 Y 93 X -27 Y 93 X -68 Y 93 X -71 Y 93 X -55 Y 93 X -28 Y 93 X -77 Y 93 X 80 Y 93 X -80 Y 1023 X s 1 1 1 c black 319 898 m 93 X 12 Y 93 X -27 Y 93 X -68 Y 93 X
 -71 Y 93 X -55 Y 93 X -28 Y 93 X -77 Y 93 X 80 Y 93 X -80 Y 1023 X s 1 0.4 0.6 c black 1 0.4 0.6 c 319 584 m 314 Y 93 X 12 Y 93 X -27 Y 93 X -68 Y 93 X -71 Y 93 X -55 Y 93 X -28 Y 93 X -77 Y 93 X 80 Y 93 X -80 Y 1023 X f black 1 0.4 0.6 c black 319
 898 m 93 X 12 Y 93 X -27 Y 93 X -68 Y 93 X -71 Y 93 X -55 Y 93 X -28 Y 93 X -77 Y 93 X 80 Y 93 X -80 Y 1023 X s 1 0 0 c 6 lw 1 1 1 c black 1 0 0 c 319 1102 m 93 X -2 Y 93 X -50 Y 93 X -55 Y 93 X -54 Y 93 X -63 Y 93 X -36 Y 93 X -62 Y 93 X -25 Y 93 X
 -57 Y 93 X -33 Y 93 X -34 Y 93 X -47 Y 744 X s black 3 lw 1 0 0 c 1 lw << /PatternType 1 /PaintType 2 /TilingType 1 /BBox [ 0 0 100 100 ] /XStep 100 /YStep 100 /PaintProc { begin gsave 0 100 m 100 0 l s gr end } >> [ 0.24 0 0 0.24 0 0 ] makepattern
 /P05 exch def /cs {[/Pattern /DeviceRGB] setcolorspace} def /FA {f [/DeviceRGB] setcolorspace} def cs 1 0 0 P05 setcolor 319 584 m 524 Y 93 X -3 Y 93 X -49 Y 93 X -54 Y 93 X -53 Y 93 X -63 Y 93 X -34 Y 93 X -60 Y 93 X -21 Y 93 X -44 Y 93 X -24 Y 93
 X -53 Y 93 X -66 Y 93 X 25 Y 93 X -25 Y -186 X 22 Y -93 X -22 Y -93 X 66 Y -93 X 85 Y -93 X 32 Y -93 X 64 Y -93 X 37 Y -93 X 65 Y -93 X 55 Y -93 X 56 Y -93 X 50 Y -93 X 2 Y -93 X -512 Y FA 6 lw 1 1 1 c 15 lw 738 948 m -3 Y s 738 945 m cl s 831 891 m
 13 Y s 831 904 m cl s 831 851 m -30 Y s 831 821 m cl s 924 837 m 26 Y s 924 863 m cl s 924 797 m -60 Y s 924 737 m cl s 1017 837 m 26 Y s 1017 863 m cl s 1017 797 m -60 Y s 1017 737 m cl s 1110 869 m 18 Y s 1110 887 m cl s 1110 828 m -40 Y s 1110
 788 m cl s black 1 1 1 c 3 lw /w 43 def /w2 {w 2 div} def /w3 {w 3 div} def 366 1107 459 1090 552 1039 645 1007 738 968 831 871 924 817 1017 817 1110 849 9 { m20} R 15 lw black 6 lw 1 1 1 c black 3 lw /w 33 def /w2 {w 2 div} def /w3 {w 3 div} def
 366 1107 m20 6 lw 3 lw 459 1090 m20 6 lw 552 1025 m 1 Y s 3 lw 552 1039 m20 6 lw 645 989 m 4 Y s 645 1020 m 2 Y s 3 lw 645 1007 m20 6 lw 738 944 m 11 Y s 738 982 m 5 Y s 3 lw 738 968 m20 6 lw 831 817 m 40 Y s 831 884 m 18 Y s 3 lw 831 871 m20 6 lw
 924 722 m 82 Y s 924 831 m 28 Y s 3 lw 924 817 m20 6 lw 1017 722 m 82 Y s 1017 831 m 28 Y s 3 lw 1017 817 m20 6 lw 1110 782 m 53 Y s 1110 862 m 22 Y s 3 lw 1110 849 m20 6 lw 552 1026 m -1 Y s 552 1025 m cl s 645 1020 m 2 Y s 645 1022 m cl s 645 993
 m -4 Y s 645 989 m cl s 738 982 m 5 Y s 738 987 m cl s 738 955 m -10 Y s 738 945 m cl s 831 884 m 20 Y s 831 904 m cl s 831 857 m -36 Y s 831 821 m cl s 924 831 m 32 Y s 924 863 m cl s 924 804 m -67 Y s 924 737 m cl s 1017 831 m 32 Y s 1017 863 m cl
 s 1017 804 m -67 Y s 1017 737 m cl s 1110 862 m 25 Y s 1110 887 m cl s 1110 835 m -47 Y s 1110 788 m cl s 3 lw 366 1107 459 1090 552 1039 645 1007 738 968 831 871 924 817 1017 817 1110 849 9 { m20} R 6 lw 3 lw 319 584 m 1860 X s 412 584 m cl s 459
 584 m cl s 505 584 m cl s 552 584 m cl s 598 584 m cl s 645 584 m cl s 691 584 m cl s 738 584 m cl s 784 584 m cl s 831 584 m cl s 877 584 m cl s 924 584 m cl s 970 584 m cl s 1017 584 m cl s 1063 584 m cl s 1110 584 m cl s 1156 584 m cl s 1203 584
 m cl s 1249 584 m cl s 1296 584 m cl s 1342 584 m cl s 1389 584 m cl s 1435 584 m cl s 1482 584 m cl s 1528 584 m cl s 1575 584 m cl s 1621 584 m cl s 1668 584 m cl s 1714 584 m cl s 1761 584 m cl s 1807 584 m cl s 1854 584 m cl s 1900 584 m cl s
 1947 584 m cl s 1993 584 m cl s 2040 584 m cl s 2086 584 m cl s 412 584 m cl s 366 584 m cl s 319 584 m cl s 2086 584 m cl s 2133 584 m cl s 2179 584 m cl s 319 1729 m 1860 X s 412 1729 m cl s 459 1729 m cl s 505 1729 m cl s 552 1729 m cl s 598 1729
 m cl s 645 1729 m cl s 691 1729 m cl s 738 1729 m cl s 784 1729 m cl s 831 1729 m cl s 877 1729 m cl s 924 1729 m cl s 970 1729 m cl s 1017 1729 m cl s 1063 1729 m cl s 1110 1729 m cl s 1156 1729 m cl s 1203 1729 m cl s 1249 1729 m cl s 1296 1729 m
 cl s 1342 1729 m cl s 1389 1729 m cl s 1435 1729 m cl s 1482 1729 m cl s 1528 1729 m cl s 1575 1729 m cl s 1621 1729 m cl s 1668 1729 m cl s 1714 1729 m cl s 1761 1729 m cl s 1807 1729 m cl s 1854 1729 m cl s 1900 1729 m cl s 1947 1729 m cl s 1993
 1729 m cl s 2040 1729 m cl s 2086 1729 m cl s 412 1729 m cl s 366 1729 m cl s 319 1729 m cl s 2086 1729 m cl s 2133 1729 m cl s 2179 1729 m cl s 319 584 m 1145 Y s 341 638 m -22 X s 341 670 m -22 X s 341 692 m -22 X s 341 709 m -22 X s 341 724 m -22
 X s 341 736 m -22 X s 341 746 m -22 X s 341 755 m -22 X s 363 763 m -44 X s 341 817 m -22 X s 341 849 m -22 X s 341 871 m -22 X s 341 888 m -22 X s 341 902 m -22 X s 341 914 m -22 X s 341 925 m -22 X s 341 934 m -22 X s 363 942 m -44 X s 341 996 m
 -22 X s 341 1027 m -22 X s 341 1050 m -22 X s 341 1067 m -22 X s 341 1081 m -22 X s 341 1093 m -22 X s 341 1104 m -22 X s 341 1113 m -22 X s 363 1121 m -44 X s 341 1175 m -22 X s 341 1206 m -22 X s 341 1229 m -22 X s 341 1246 m -22 X s 341 1260 m
 -22 X s 341 1272 m -22 X s 341 1283 m -22 X s 341 1292 m -22 X s 363 1300 m -44 X s 341 1354 m -22 X s 341 1385 m -22 X s 341 1408 m -22 X s 341 1425 m -22 X s 341 1439 m -22 X s 341 1451 m -22 X s 341 1461 m -22 X s 341 1471 m -22 X s 363 1479 m
 -44 X s 341 1533 m -22 X s 341 1564 m -22 X s 341 1587 m -22 X s 341 1604 m -22 X s 341 1618 m -22 X s 341 1630 m -22 X s 341 1640 m -22 X s 341 1650 m -22 X s 363 1658 m -44 X s 341 1712 m -22 X s 2179 584 m 1145 Y s 2157 638 m 22 X s 2157 670 m 22
 X s 2157 692 m 22 X s 2157 709 m 22 X s 2157 724 m 22 X s 2157 736 m 22 X s 2157 746 m 22 X s 2157 755 m 22 X s 2136 763 m 43 X s 2157 817 m 22 X s 2157 849 m 22 X s 2157 871 m 22 X s 2157 888 m 22 X s 2157 902 m 22 X s 2157 914 m 22 X s 2157 925 m
 22 X s 2157 934 m 22 X s 2136 942 m 43 X s 2157 996 m 22 X s 2157 1027 m 22 X s 2157 1050 m 22 X s 2157 1067 m 22 X s 2157 1081 m 22 X s 2157 1093 m 22 X s 2157 1104 m 22 X s 2157 1113 m 22 X s 2136 1121 m 43 X s 2157 1175 m 22 X s 2157 1206 m 22 X
 s 2157 1229 m 22 X s 2157 1246 m 22 X s 2157 1260 m 22 X s 2157 1272 m 22 X s 2157 1283 m 22 X s 2157 1292 m 22 X s 2136 1300 m 43 X s 2157 1354 m 22 X s 2157 1385 m 22 X s 2157 1408 m 22 X s 2157 1425 m 22 X s 2157 1439 m 22 X s 2157 1451 m 22 X s
 2157 1461 m 22 X s 2157 1471 m 22 X s 2136 1479 m 43 X s 2157 1533 m 22 X s 2157 1564 m 22 X s 2157 1587 m 22 X s 2157 1604 m 22 X s 2157 1618 m 22 X s 2157 1630 m 22 X s 2157 1640 m 22 X s 2157 1650 m 22 X s 2136 1658 m 43 X s 2157 1712 m 22 X s
 gsave  2263 1770 2 313 C 406.765 1447.41 t 0 r /Helvetica findfont 64.4212 sf 0 0 m (CRW for MB\255GGo) show NC gr 
 gsave  2263 1770 2 313 C 1464.36 1616.89 t 0 r /Helvetica findfont 64.4212 sf 0 0 m (SM Total) show NC gr  1 1 1 c 1338 1603 m 107 X 74 Y -107 X f 1 0 0 c 6 lw 1338 1640 m 107 X s black
 gsave  2263 1770 2 313 C 1464.36 1511.81 t 0 r /Helvetica findfont 64.4212 sf 0 0 m (Data) show NC gr  1391 1502 m 64 Y s 3 lw 1391 1534 m20 6 lw
 gsave  2263 1770 2 313 C 1464.36 1406.73 t 0 r /Helvetica findfont 64.4212 sf 0 0 m (W+jets) show NC gr  0.4 0.6 1 c 3 lw 1338 1391 m 107 X 74 Y -107 X f 6 lw black 3 lw 1338 1465 m 107 X s 1338 1391 m 107 X s 1445 1391 m 74 Y s 1338 1391 m 74 Y s
 gsave  2263 1770 2 313 C 1498.25 1298.26 t 0 r /Helvetica findfont 64.4212 sf 0 0 m (\(+EW\) & single top) show NC gr 
 gsave  2263 1770 2 313 C 1481.3 1298.26 t 0 r /Helvetica findfont 64.4212 sf 0 0 m (t) show NC gr  1481 1349 m 17 X s
 gsave  2263 1770 2 313 C 1464.36 1298.26 t 0 r /Helvetica findfont 64.4212 sf 0 0 m (t) show NC gr  0.6 1 0.6 c 1338 1284 m 107 X 75 Y -107 X f black 1338 1359 m 107 X s 1338 1284 m 107 X s 1445 1284 m 75 Y s 1338 1284 m 75 Y s
 gsave  2263 1770 2 313 C 1464.36 1193.18 t 0 r /Helvetica findfont 64.4212 sf 0 0 m (Z+jets) show NC gr  1 0.8 0.4 c 1338 1178 m 107 X 75 Y -107 X f black 1338 1253 m 107 X s 1338 1178 m 107 X s 1445 1178 m 75 Y s 1338 1178 m 75 Y s
 gsave  2263 1770 2 313 C 1464.36 1088.1 t 0 r /Helvetica findfont 64.4212 sf 0 0 m (Diboson) show NC gr  1 0.4 0.6 c 1338 1072 m 107 X 74 Y -107 X f black 1338 1146 m 107 X s 1338 1072 m 107 X s 1445 1072 m 74 Y s 1338 1072 m 74 Y s
 gsave  2263 1770 2 313 C 911.832 1566.05 t 0 r /Helvetica findfont 44.0776 sf 0 0 m (\2551) show NC gr 
 gsave  2263 1770 2 313 C 471.17 1535.54 t 0 r /Helvetica findfont 64.4212 sf 0 0 m (=13TeV, 139 fb) show NC gr 
 gsave  2263 1770 2 313 C 440.662 1535.54 t 0 r /Helvetica findfont 64.4212 sf 0 0 m (s) show NC gr  6 lw 420 1573 m 7 -41 d s 3 lw 427 1532 m 7 61 d s 434 1593 m 37 X s 1 1 1 c 2254 561 2 2 bf black 1 1 1 c black 1860 358 318 187 bl 1 1 1 c black
 1860 358 318 187 bl 6 lw 1 1 1 c black 3 lw 364 375 m20 6 lw 3 lw 457 346 m20 6 lw 3 lw 550 345 m20 6 lw 3 lw 643 392 m20 6 lw 3 lw 736 433 m20 6 lw 3 lw 829 352 m20 6 lw 3 lw 923 321 m20 6 lw 3 lw 1016 464 m20 6 lw 3 lw 318 187 m 1860 X s
 gsave  2254 561 2 2 C 1959.25 27.1177 t 0 r /Helvetica findfont 78.1689 sf 0 0 m ( [GeV]) show NC gr 
 gsave  2254 561 2 2 C 1854.17 64.4045 t 0 r /Helvetica findfont 50.9797 sf 0 0 m (miss) show NC gr 
 gsave  2254 561 2 2 C 1854.17 3.38971 t 0 r /Helvetica findfont 50.9797 sf 0 0 m (T) show NC gr 
 gsave  2254 561 2 2 C 1803.33 27.1177 t 0 r /Helvetica findfont 78.1689 sf 0 0 m (E) show NC gr  411 201 m -14 Y s 457 194 m -7 Y s 504 194 m -7 Y s 550 194 m -7 Y s 597 201 m -14 Y s 643 194 m -7 Y s 690 194 m -7 Y s 736 194 m -7 Y s 783 201 m -14
 Y s 829 194 m -7 Y s 876 194 m -7 Y s 923 194 m -7 Y s 969 201 m -14 Y s 1016 194 m -7 Y s 1062 194 m -7 Y s 1109 194 m -7 Y s 1155 201 m -14 Y s 1202 194 m -7 Y s 1248 194 m -7 Y s 1295 194 m -7 Y s 1341 201 m -14 Y s 1388 194 m -7 Y s 1434 194 m
 -7 Y s 1481 194 m -7 Y s 1527 201 m -14 Y s 1574 194 m -7 Y s 1620 194 m -7 Y s 1667 194 m -7 Y s 1713 201 m -14 Y s 1760 194 m -7 Y s 1806 194 m -7 Y s 1853 194 m -7 Y s 1899 201 m -14 Y s 1946 194 m -7 Y s 1992 194 m -7 Y s 2039 194 m -7 Y s 2085
 201 m -14 Y s 411 201 m -14 Y s 364 194 m -7 Y s 318 194 m -7 Y s 2085 201 m -14 Y s 2132 194 m -7 Y s
 gsave  2254 561 2 2 C 345.75 118.64 t 0 r /Helvetica findfont 78.1689 sf 0 0 m (400) show NC gr 
 gsave  2254 561 2 2 C 532.185 118.64 t 0 r /Helvetica findfont 78.1689 sf 0 0 m (600) show NC gr 
 gsave  2254 561 2 2 C 715.229 118.64 t 0 r /Helvetica findfont 78.1689 sf 0 0 m (800) show NC gr 
 gsave  2254 561 2 2 C 877.935 118.64 t 0 r /Helvetica findfont 78.1689 sf 0 0 m (1000) show NC gr 
 gsave  2254 561 2 2 C 1064.37 118.64 t 0 r /Helvetica findfont 78.1689 sf 0 0 m (1200) show NC gr 
 gsave  2254 561 2 2 C 1250.8 118.64 t 0 r /Helvetica findfont 78.1689 sf 0 0 m (1400) show NC gr 
 gsave  2254 561 2 2 C 1437.24 118.64 t 0 r /Helvetica findfont 78.1689 sf 0 0 m (1600) show NC gr 
 gsave  2254 561 2 2 C 1623.67 118.64 t 0 r /Helvetica findfont 78.1689 sf 0 0 m (1800) show NC gr 
 gsave  2254 561 2 2 C 1810.11 118.64 t 0 r /Helvetica findfont 78.1689 sf 0 0 m (2000) show NC gr 
 gsave  2254 561 2 2 C 1996.54 118.64 t 0 r /Helvetica findfont 78.1689 sf 0 0 m (2200) show NC gr  318 545 m 1860 X s 411 531 m 14 Y s 457 538 m 7 Y s 504 538 m 7 Y s 550 538 m 7 Y s 597 531 m 14 Y s 643 538 m 7 Y s 690 538 m 7 Y s 736 538 m 7 Y s
 783 531 m 14 Y s 829 538 m 7 Y s 876 538 m 7 Y s 923 538 m 7 Y s 969 531 m 14 Y s 1016 538 m 7 Y s 1062 538 m 7 Y s 1109 538 m 7 Y s 1155 531 m 14 Y s 1202 538 m 7 Y s 1248 538 m 7 Y s 1295 538 m 7 Y s 1341 531 m 14 Y s 1388 538 m 7 Y s 1434 538 m 7
 Y s 1481 538 m 7 Y s 1527 531 m 14 Y s 1574 538 m 7 Y s 1620 538 m 7 Y s 1667 538 m 7 Y s 1713 531 m 14 Y s 1760 538 m 7 Y s 1806 538 m 7 Y s 1853 538 m 7 Y s 1899 531 m 14 Y s 1946 538 m 7 Y s 1992 538 m 7 Y s 2039 538 m 7 Y s 2085 531 m 14 Y s 411
 531 m 14 Y s 364 538 m 7 Y s 318 538 m 7 Y s 2085 531 m 14 Y s 2132 538 m 7 Y s 318 187 m 358 Y s
 gsave  2254 561 2 2 C 166.096 284.736 t 90 r /Helvetica findfont 67.9729 sf 0 0 m (Data/SM) show NC gr  361 203 m -43 X s 339 220 m -21 X s 339 236 m -21 X s 339 252 m -21 X s 339 268 m -21 X s 361 285 m -43 X s 339 301 m -21 X s 339 317 m -21 X s
 339 334 m -21 X s 339 350 m -21 X s 361 366 m -43 X s 339 382 m -21 X s 339 399 m -21 X s 339 415 m -21 X s 339 431 m -21 X s 361 447 m -43 X s 339 464 m -21 X s 339 480 m -21 X s 339 496 m -21 X s 339 512 m -21 X s 361 529 m -43 X s 361 203 m -43 X
 s 339 187 m -21 X s 361 529 m -43 X s
 gsave  2254 561 2 2 C 261.008 183.044 t 0 r /Helvetica findfont 57.777 sf 0 0 m (0) show NC gr 
 gsave  2254 561 2 2 C 213.552 261.008 t 0 r /Helvetica findfont 57.777 sf 0 0 m (0.5) show NC gr 
 gsave  2254 561 2 2 C 271.177 342.361 t 0 r /Helvetica findfont 57.777 sf 0 0 m (1) show NC gr 
 gsave  2254 561 2 2 C 213.552 423.714 t 0 r /Helvetica findfont 57.777 sf 0 0 m (1.5) show NC gr 
 gsave  2254 561 2 2 C 261.008 505.067 t 0 r /Helvetica findfont 57.777 sf 0 0 m (2) show NC gr  2178 187 m 358 Y s 2135 203 m 43 X s 2157 220 m 21 X s 2157 236 m 21 X s 2157 252 m 21 X s 2157 268 m 21 X s 2135 285 m 43 X s 2157 301 m 21 X s 2157 317
 m 21 X s 2157 334 m 21 X s 2157 350 m 21 X s 2135 366 m 43 X s 2157 382 m 21 X s 2157 399 m 21 X s 2157 415 m 21 X s 2157 431 m 21 X s 2135 447 m 43 X s 2157 464 m 21 X s 2157 480 m 21 X s 2157 496 m 21 X s 2157 512 m 21 X s 2135 529 m 43 X s 2135
 203 m 43 X s 2157 187 m 21 X s 2135 529 m 43 X s 9 lw 364 388 m 6 Y s 364 394 m cl s 364 361 m -5 Y s 364 356 m cl s 457 360 m 4 Y s 457 364 m cl s 457 333 m -4 Y s 457 329 m cl s 550 359 m 10 Y s 550 369 m cl s 550 332 m -10 Y s 550 322 m cl s 643
 406 m 26 Y s 643 432 m cl s 643 379 m -26 Y s 643 353 m cl s 736 447 m 49 Y s 736 496 m cl s 736 420 m -47 Y s 736 373 m cl s 829 366 m 66 Y s 829 432 m cl s 829 339 m -58 Y s 829 281 m cl s 923 335 m 82 Y s 923 417 m cl s 923 308 m -63 Y s 923 245
 m cl s 1016 478 m 67 Y s 1016 545 m cl s 1016 451 m -155 Y s 1016 296 m cl s 1109 545 m -94 Y s 1109 451 m cl s 3 lw 364 375 457 346 550 345 643 392 736 433 829 352 923 321 1016 464 8 { m20} R 9 lw 1 0 0 c 6 lw black 3 lw 1 0 0 c 2155 203 m cl s
 2127 203 m cl s 2098 203 m cl s 2085 191 m -3 -4 d s 2085 220 m -32 -33 d s 2085 248 m -61 -61 d s 2085 277 m -90 -90 d s 2085 305 m -93 -92 d s 1983 203 m cl s 2085 334 m -93 -93 d s 1954 203 m cl s 2085 363 m -93 -93 d s 1926 203 m cl s 2085 391 m
 -93 -93 d s 1897 203 m cl s 2085 420 m -93 -93 d s 1868 203 m cl s 2085 448 m -93 -92 d s 1840 203 m cl s 2085 477 m -93 -93 d s 1811 203 m cl s 2085 506 m -93 -93 d s 1806 227 m s 2085 534 m -93 -93 d s 1806 256 m s 2068 545 m -76 -75 d s 1806 285
 m -15 -16 d s 2039 545 m -47 -46 d s 1806 313 m -44 -44 d s 2010 545 m -18 -18 d s 1806 342 m -72 -73 d s 1806 370 m -106 -106 d s 1806 399 m -135 -135 d s 1806 428 m -163 -164 d s 1806 456 m -205 -205 d s 1784 463 m -212 -212 d s 1756 463 m -213
 -212 d s 1727 463 m -200 -199 d s 1703 468 m -183 -183 d s 1674 468 m -183 -183 d s 1646 468 m -184 -183 d s 1620 471 m -186 -186 d s 1601 481 m -167 -167 d s 1573 481 m -161 -160 d s 1544 481 m -17 -17 d s 1510 447 m -126 -126 d s 1341 278 m -18
 -17 d s 1482 447 m -127 -126 d s 1341 307 m -46 -46 d s 1453 447 m -19 -19 d s 1417 411 m -151 -150 d s 1388 411 m -140 -139 d s 1360 411 m -121 -120 d s 1341 421 m -130 -130 d s 1341 450 m -159 -159 d s 1334 471 m -179 -178 d s 1305 471 m -150 -149
 d s 1276 471 m -28 -28 d s 1246 441 m -113 -113 d s 1217 441 m -113 -113 d s 1188 441 m -33 -33 d s 1151 404 m -75 -76 d s 1160 441 m -5 -5 d s 1122 404 m -63 -64 d s 1094 404 m -64 -64 d s 1065 404 m -3 -3 d s 1053 392 m -51 -52 d s 1024 392 m -51
 -52 d s 996 392 m -47 -47 d s 962 387 m -42 -42 d s 934 387 m -43 -42 d s 905 387 m -40 -40 d s 876 387 m s 874 385 m -38 -38 d s 846 385 m -39 -38 d s 817 385 m -36 -36 d s 788 385 m -35 -36 d s 757 383 m -33 -34 d s 728 383 m -33 -34 d s 700 383 m
 -32 -32 d s 669 381 m -30 -30 d s 641 381 m -30 -30 d s 612 381 m -28 -28 d s 581 379 m -26 -26 d s 553 379 m -26 -26 d s 524 379 m -25 -25 d s 494 378 m -24 -24 d s 465 378 m -23 -24 d s 318 231 m s 437 378 m -24 -24 d s 318 259 m s 409 379 m -25
 -26 d s 318 288 m s 380 379 m -25 -26 d s 318 317 m s 351 379 m -25 -26 d s 318 345 m s 323 379 m -5 -5 d s 6 lw black[ 4 8] 0 sd 3 lw 318 447 m 1860 X s 318 285 m 1860 X s 1 0 0 c[  12 12 ] 0 sd 6 lw 318 366 m 1860 X s
 gr  gr showpage
end
%%EOF
