%!PS-Adobe-2.0 EPSF-2.0
%%BoundingBox:  0 0 567 521
%%Title: Distributions/met_distrVR0LmetSig_MB-GGo_afterFit_forThesis.eps: canvas
%%Creator: ROOT Version 6.04/16
%%CreationDate: Tue May 19 22:02:11 2020
%%DocumentNeededResources: ProcSet (FontSetInit)
%%EndComments
%%BeginProlog
80 dict begin
/s {stroke} def /l {lineto} def /m {moveto} def /t {translate} def
/r {rotate} def /rl {roll}  def /R {repeat} def
/d {rlineto} def /rm {rmoveto} def /gr {grestore} def /f {eofill} def
/c {setrgbcolor} def /black {0 setgray} def /sd {setdash} def
/cl {closepath} def /sf {scalefont setfont} def /lw {setlinewidth} def
/box {m dup 0 exch d exch 0 d 0 exch neg d cl} def
/NC{systemdict begin initclip end}def/C{NC box clip newpath}def
/bl {box s} def /bf {gsave box gsave f grestore 1 lw [] 0 sd s grestore} def /Y { 0 exch d} def /X { 0 d} def 
/K {{pop pop 0 moveto} exch kshow} bind def
/ita {/ang 15 def gsave [1 0 ang dup sin exch cos div 1 0 0] concat} def 
/mp {newpath /y exch def /x exch def} def
/side {[w .77 mul w .23 mul] .385 w mul sd w 0 l currentpoint t -144 r} def
/mr {mp x y w2 0 360 arc} def /m24 {mr s} def /m20 {mr f} def
/mb {mp x y w2 add m w2 neg 0 d 0 w neg d w 0 d 0 w d cl} def
/mt {mp x y w2 add m w2 neg w neg d w 0 d cl} def
/m21 {mb f} def /m25 {mb s} def /m22 {mt f} def /m26{mt s} def
/m23 {mp x y w2 sub m w2 w d w neg 0 d cl f} def
/m27 {mp x y w2 add m w3 neg w2 neg d w3 w2 neg d w3 w2 d cl s} def
/m28 {mp x w2 sub y w2 sub w3 add m w3 0 d  0 w3 neg d w3 0 d 0 w3 d w3 0 d  0 w3 d w3 neg 0 d 0 w3 d w3 neg 0 d 0 w3 neg d w3 neg 0 d cl s } def
/m29 {mp gsave x w2 sub y w2 add w3 sub m currentpoint t 4 {side} repeat cl fill gr} def
/m30 {mp gsave x w2 sub y w2 add w3 sub m currentpoint t 4 {side} repeat cl s gr} def
/m31 {mp x y w2 sub m 0 w d x w2 sub y m w 0 d x w2 sub y w2 add m w w neg d x w2 sub y w2 sub m w w d s} def
/m32 {mp x y w2 sub m w2 w d w neg 0 d cl s} def
/m33 {mp x y w2 add m w3 neg w2 neg d w3 w2 neg d w3 w2 d cl f} def
/m34 {mp x w2 sub y w2 sub w3 add m w3 0 d  0 w3 neg d w3 0 d 0 w3 d w3 0 d  0 w3 d w3 neg 0 d 0 w3 d w3 neg 0 d 0 w3 neg d w3 neg 0 d cl f } def
/m2 {mp x y w2 sub m 0 w d x w2 sub y m w 0 d s} def
/m5 {mp x w2 sub y w2 sub m w w d x w2 sub y w2 add m w w neg d s} def
%%IncludeResource: ProcSet (FontSetInit)
%%IncludeResource: font Times-Roman
%%IncludeResource: font Times-Italic
%%IncludeResource: font Times-Bold
%%IncludeResource: font Times-BoldItalic
%%IncludeResource: font Helvetica
%%IncludeResource: font Helvetica-Oblique
%%IncludeResource: font Helvetica-Bold
%%IncludeResource: font Helvetica-BoldOblique
%%IncludeResource: font Courier
%%IncludeResource: font Courier-Oblique
%%IncludeResource: font Courier-Bold
%%IncludeResource: font Courier-BoldOblique
%%IncludeResource: font Symbol
%%IncludeResource: font ZapfDingbats
/reEncode {exch findfont dup length dict begin {1 index /FID eq  {pop pop} {def} ifelse } forall /Encoding exch def currentdict end dup /FontName get exch definefont pop } def [/Times-Bold /Times-Italic /Times-BoldItalic /Helvetica /Helvetica-Oblique
 /Helvetica-Bold /Helvetica-BoldOblique /Courier /Courier-Oblique /Courier-Bold /Courier-BoldOblique /Times-Roman /AvantGarde-Book /AvantGarde-BookOblique /AvantGarde-Demi /AvantGarde-DemiOblique /Bookman-Demi /Bookman-DemiItalic /Bookman-Light
 /Bookman-LightItalic /Helvetica-Narrow /Helvetica-Narrow-Bold /Helvetica-Narrow-BoldOblique /Helvetica-Narrow-Oblique /NewCenturySchlbk-Roman /NewCenturySchlbk-Bold /NewCenturySchlbk-BoldItalic /NewCenturySchlbk-Italic /Palatino-Bold
 /Palatino-BoldItalic /Palatino-Italic /Palatino-Roman ] {ISOLatin1Encoding reEncode } forall
%%EndProlog
%%BeginSetup
%%EndSetup
newpath  gsave  .25 .25 scale  gsave  0 0 t black[  ] 0 sd 3 lw 1 1 1 c 2268 2085 0 0 bf black 1 1 1 c 2263 1770 2 313 bf black 1 1 1 c black 1860 1145 319 584 bl 1 1 1 c black 1860 1145 319 584 bl 6 lw 1 1 1 c black 3 lw /w 33 def /w2 {w 2 div} def
 /w3 {w 3 div} def 366 1094 m20 6 lw 3 lw 459 1061 m20 6 lw 552 975 m 7 Y s 552 1009 m 4 Y s 3 lw 552 996 m20 6 lw 645 822 m 41 Y s 645 890 m 19 Y s 3 lw 645 877 m20 6 lw 738 724 m 84 Y s 738 835 m 29 Y s 3 lw 738 822 m20 6 lw 1017 584 m 169 Y s 1017
 780 m 42 Y s 3 lw 1017 767 m20 6 lw 1110 584 m 169 Y s 1110 780 m 42 Y s 3 lw 1110 767 m20 6 lw 3 lw 319 584 m 1860 X s
 gsave  2263 1770 2 313 C 1949.08 355.92 t 0 r /Helvetica findfont 81.3741 sf 0 0 m ( [GeV]) show NC gr 
 gsave  2263 1770 2 313 C 1837.22 396.596 t 0 r /Helvetica findfont 54.2494 sf 0 0 m (miss) show NC gr 
 gsave  2263 1770 2 313 C 1837.22 332.192 t 0 r /Helvetica findfont 54.2494 sf 0 0 m (T) show NC gr 
 gsave  2263 1770 2 313 C 1786.38 355.92 t 0 r /Helvetica findfont 81.3741 sf 0 0 m (E) show NC gr  412 584 m cl s 459 584 m cl s 505 584 m cl s 552 584 m cl s 598 584 m cl s 645 584 m cl s 691 584 m cl s 738 584 m cl s 784 584 m cl s 831 584 m cl s
 877 584 m cl s 924 584 m cl s 970 584 m cl s 1017 584 m cl s 1063 584 m cl s 1110 584 m cl s 1156 584 m cl s 1203 584 m cl s 1249 584 m cl s 1296 584 m cl s 1342 584 m cl s 1389 584 m cl s 1435 584 m cl s 1482 584 m cl s 1528 584 m cl s 1575 584 m
 cl s 1621 584 m cl s 1668 584 m cl s 1714 584 m cl s 1761 584 m cl s 1807 584 m cl s 1854 584 m cl s 1900 584 m cl s 1947 584 m cl s 1993 584 m cl s 2040 584 m cl s 2086 584 m cl s 412 584 m cl s 366 584 m cl s 319 584 m cl s 2086 584 m cl s 2133
 584 m cl s 2179 584 m cl s 319 1729 m 1860 X s 412 1729 m cl s 459 1729 m cl s 505 1729 m cl s 552 1729 m cl s 598 1729 m cl s 645 1729 m cl s 691 1729 m cl s 738 1729 m cl s 784 1729 m cl s 831 1729 m cl s 877 1729 m cl s 924 1729 m cl s 970 1729 m
 cl s 1017 1729 m cl s 1063 1729 m cl s 1110 1729 m cl s 1156 1729 m cl s 1203 1729 m cl s 1249 1729 m cl s 1296 1729 m cl s 1342 1729 m cl s 1389 1729 m cl s 1435 1729 m cl s 1482 1729 m cl s 1528 1729 m cl s 1575 1729 m cl s 1621 1729 m cl s 1668
 1729 m cl s 1714 1729 m cl s 1761 1729 m cl s 1807 1729 m cl s 1854 1729 m cl s 1900 1729 m cl s 1947 1729 m cl s 1993 1729 m cl s 2040 1729 m cl s 2086 1729 m cl s 412 1729 m cl s 366 1729 m cl s 319 1729 m cl s 2086 1729 m cl s 2133 1729 m cl s
 2179 1729 m cl s 319 584 m 1145 Y s
 gsave  2263 1770 2 313 C 166.096 1091.49 t 90 r /Helvetica findfont 81.3741 sf 0 0 m (Events / 100 GeV) show NC gr  341 639 m -22 X s 341 671 m -22 X s 341 694 m -22 X s 341 712 m -22 X s 341 726 m -22 X s 341 739 m -22 X s 341 749 m -22 X s 341 758
 m -22 X s 363 767 m -44 X s
 gsave  2263 1770 2 313 C 300.555 739.71 t 0 r  -36 0 t /Helvetica findfont 64.4212 sf 0 0 m (1) show NC gr  341 822 m -22 X s 341 854 m -22 X s 341 877 m -22 X s 341 894 m -22 X s 341 909 m -22 X s 341 921 m -22 X s 341 932 m -22 X s 341 941 m -22 X
 s 363 949 m -44 X s
 gsave  2263 1770 2 313 C 300.555 922.228 t 0 r  -73 0 t /Helvetica findfont 64.4212 sf 0 0 m (10) show NC gr  341 1004 m -22 X s 341 1036 m -22 X s 341 1059 m -22 X s 341 1077 m -22 X s 341 1091 m -22 X s 341 1104 m -22 X s 341 1114 m -22 X s 341
 1124 m -22 X s 363 1132 m -44 X s
 gsave  2263 1770 2 313 C 274.567 1128.77 t 0 r /Helvetica findfont 44.0776 sf 0 0 m (2) show NC gr 
 gsave  2263 1770 2 313 C 203.383 1101.66 t 0 r /Helvetica findfont 64.4212 sf 0 0 m (10) show NC gr  341 1187 m -22 X s 341 1219 m -22 X s 341 1242 m -22 X s 341 1259 m -22 X s 341 1274 m -22 X s 341 1286 m -22 X s 341 1297 m -22 X s 341 1306 m -22
 X s 363 1314 m -44 X s
 gsave  2263 1770 2 313 C 274.567 1315.21 t 0 r /Helvetica findfont 44.0776 sf 0 0 m (3) show NC gr 
 gsave  2263 1770 2 313 C 203.383 1284.7 t 0 r /Helvetica findfont 64.4212 sf 0 0 m (10) show NC gr  341 1369 m -22 X s 341 1401 m -22 X s 341 1424 m -22 X s 341 1442 m -22 X s 341 1456 m -22 X s 341 1469 m -22 X s 341 1479 m -22 X s 341 1489 m -22 X
 s 363 1497 m -44 X s
 gsave  2263 1770 2 313 C 274.567 1494.86 t 0 r /Helvetica findfont 44.0776 sf 0 0 m (4) show NC gr 
 gsave  2263 1770 2 313 C 203.383 1467.74 t 0 r /Helvetica findfont 64.4212 sf 0 0 m (10) show NC gr  341 1552 m -22 X s 341 1584 m -22 X s 341 1607 m -22 X s 341 1624 m -22 X s 341 1639 m -22 X s 341 1651 m -22 X s 341 1662 m -22 X s 341 1671 m -22
 X s 363 1679 m -44 X s
 gsave  2263 1770 2 313 C 274.567 1681.3 t 0 r /Helvetica findfont 44.0776 sf 0 0 m (5) show NC gr 
 gsave  2263 1770 2 313 C 203.383 1650.79 t 0 r /Helvetica findfont 64.4212 sf 0 0 m (10) show NC gr  2179 584 m 1145 Y s 2157 639 m 22 X s 2157 671 m 22 X s 2157 694 m 22 X s 2157 712 m 22 X s 2157 726 m 22 X s 2157 739 m 22 X s 2157 749 m 22 X s
 2157 758 m 22 X s 2136 767 m 43 X s 2157 822 m 22 X s 2157 854 m 22 X s 2157 877 m 22 X s 2157 894 m 22 X s 2157 909 m 22 X s 2157 921 m 22 X s 2157 932 m 22 X s 2157 941 m 22 X s 2136 949 m 43 X s 2157 1004 m 22 X s 2157 1036 m 22 X s 2157 1059 m
 22 X s 2157 1077 m 22 X s 2157 1091 m 22 X s 2157 1104 m 22 X s 2157 1114 m 22 X s 2157 1124 m 22 X s 2136 1132 m 43 X s 2157 1187 m 22 X s 2157 1219 m 22 X s 2157 1242 m 22 X s 2157 1259 m 22 X s 2157 1274 m 22 X s 2157 1286 m 22 X s 2157 1297 m 22
 X s 2157 1306 m 22 X s 2136 1314 m 43 X s 2157 1369 m 22 X s 2157 1401 m 22 X s 2157 1424 m 22 X s 2157 1442 m 22 X s 2157 1456 m 22 X s 2157 1469 m 22 X s 2157 1479 m 22 X s 2157 1489 m 22 X s 2136 1497 m 43 X s 2157 1552 m 22 X s 2157 1584 m 22 X
 s 2157 1607 m 22 X s 2157 1624 m 22 X s 2157 1639 m 22 X s 2157 1651 m 22 X s 2157 1662 m 22 X s 2157 1671 m 22 X s 2136 1679 m 43 X s 0.4 0.6 1 c black 0.4 0.6 1 c 319 584 m 493 Y 93 X -15 Y 93 X -67 Y 93 X -78 Y 93 X -58 Y 93 X -111 Y 93 X -51 Y
 93 X -56 Y 93 X -57 Y 1116 X f black 0.4 0.6 1 c black 319 1077 m 93 X -15 Y 93 X -67 Y 93 X -78 Y 93 X -58 Y 93 X -111 Y 93 X -51 Y 93 X -56 Y 93 X -57 Y 1116 X s 0.999 0.999 0.999 c black 0.999 0.999 0.999 c 319 584 m 482 Y 93 X -14 Y 93 X -72 Y
 93 X -84 Y 93 X -62 Y 93 X -110 Y 93 X -52 Y 93 X -72 Y 93 X -16 Y 1116 X f black 0.999 0.999 0.999 c black 319 1066 m 93 X -14 Y 93 X -72 Y 93 X -84 Y 93 X -62 Y 93 X -110 Y 93 X -52 Y 93 X -72 Y 93 X -16 Y 1116 X s 1 1 1 c black 319 1066 m 93 X
 -14 Y 93 X -72 Y 93 X -84 Y 93 X -62 Y 93 X -110 Y 93 X -52 Y 93 X -72 Y 93 X -16 Y 1116 X s 0.6 1 0.6 c black 0.6 1 0.6 c 319 584 m 482 Y 93 X -14 Y 93 X -72 Y 93 X -84 Y 93 X -62 Y 93 X -110 Y 93 X -52 Y 93 X -72 Y 93 X -16 Y 1116 X f black 0.6 1
 0.6 c black 319 1066 m 93 X -14 Y 93 X -72 Y 93 X -84 Y 93 X -62 Y 93 X -110 Y 93 X -52 Y 93 X -72 Y 93 X -16 Y 1116 X s 0.999 0.999 0.999 c black 0.999 0.999 0.999 c 319 584 m 326 Y 93 X 18 Y 93 X -55 Y 93 X -61 Y 93 X -45 Y 93 X -112 Y 93 X -10 Y
 93 X -61 Y 1209 X f black 0.999 0.999 0.999 c black 319 910 m 93 X 18 Y 93 X -55 Y 93 X -61 Y 93 X -45 Y 93 X -112 Y 93 X -10 Y 93 X -61 Y 1209 X s 1 1 1 c black 319 910 m 93 X 18 Y 93 X -55 Y 93 X -61 Y 93 X -45 Y 93 X -112 Y 93 X -10 Y 93 X -61 Y
 1209 X s 1 0.8 0.4 c black 1 0.8 0.4 c 319 584 m 326 Y 93 X 18 Y 93 X -55 Y 93 X -61 Y 93 X -45 Y 93 X -112 Y 93 X -10 Y 93 X -61 Y 1209 X f black 1 0.8 0.4 c black 319 910 m 93 X 18 Y 93 X -55 Y 93 X -61 Y 93 X -45 Y 93 X -112 Y 93 X -10 Y 93 X -61
 Y 1209 X s 0.999 0.999 0.999 c black 0.999 0.999 0.999 c 319 584 m 255 Y 93 X 16 Y 93 X -60 Y 93 X -88 Y 93 X -21 Y 93 X -102 Y 93 X 21 Y 93 X -21 Y 1209 X f black 0.999 0.999 0.999 c black 319 839 m 93 X 16 Y 93 X -60 Y 93 X -88 Y 93 X -21 Y 93 X
 -102 Y 93 X 21 Y 93 X -21 Y 1209 X s 1 1 1 c black 319 839 m 93 X 16 Y 93 X -60 Y 93 X -88 Y 93 X -21 Y 93 X -102 Y 93 X 21 Y 93 X -21 Y 1209 X s 1 0.4 0.6 c black 1 0.4 0.6 c 319 584 m 255 Y 93 X 16 Y 93 X -60 Y 93 X -88 Y 93 X -21 Y 93 X -102 Y 93
 X 21 Y 93 X -21 Y 1209 X f black 1 0.4 0.6 c black 319 839 m 93 X 16 Y 93 X -60 Y 93 X -88 Y 93 X -21 Y 93 X -102 Y 93 X 21 Y 93 X -21 Y 1209 X s 0.999 0.999 0.999 c black 0.999 0.999 0.999 c 319 584 m 163 Y 93 X 16 Y 93 X -68 Y 93 X -111 Y 1581 X f
 black 0.999 0.999 0.999 c black 319 747 m 93 X 16 Y 93 X -68 Y 93 X -111 Y 1581 X s 1 1 1 c black 319 747 m 93 X 16 Y 93 X -68 Y 93 X -111 Y 1581 X s 0 0 0.4 c black 0 0 0.4 c 319 584 m 163 Y 93 X 16 Y 93 X -68 Y 93 X -111 Y 1581 X f black 0 0 0.4 c
 black 319 747 m 93 X 16 Y 93 X -68 Y 93 X -111 Y 1581 X s 1 0 0 c 6 lw 1 1 1 c black 1 0 0 c 319 1077 m 93 X -15 Y 93 X -67 Y 93 X -78 Y 93 X -58 Y 93 X -111 Y 93 X -51 Y 93 X -56 Y 93 X -57 Y 1116 X s black 3 lw 1 0 0 c 1 lw << /PatternType 1
 /PaintType 2 /TilingType 1 /BBox [ 0 0 100 100 ] /XStep 100 /YStep 100 /PaintProc { begin gsave 0 100 m 100 0 l s gr end } >> [ 0.24 0 0 0.24 0 0 ] makepattern /P05 exch def /cs {[/Pattern /DeviceRGB] setcolorspace} def /FA {f [/DeviceRGB]
 setcolorspace} def cs 1 0 0 P05 setcolor 319 584 m 501 Y 93 X -14 Y 93 X -65 Y 93 X -76 Y 93 X -55 Y 93 X -105 Y 93 X -55 Y 93 X -51 Y 93 X -80 Y 186 X 14 Y 93 X -14 Y 93 X 35 Y 93 X -35 Y -465 X 23 Y -93 X 66 Y -93 X 43 Y -93 X 123 Y -93 X 62 Y -93
 X 82 Y -93 X 70 Y -93 X 16 Y -93 X -485 Y FA 6 lw 1 1 1 c 15 lw 552 976 m -1 Y s 552 975 m cl s 645 897 m 14 Y s 645 911 m cl s 645 856 m -31 Y s 645 825 m cl s 738 842 m 27 Y s 738 869 m cl s 738 801 m -61 Y s 738 740 m cl s 1017 787 m 45 Y s 1017
 832 m cl s 1017 746 m -118 Y s 1017 628 m cl s 1110 787 m 45 Y s 1110 832 m cl s 1110 746 m -118 Y s 1110 628 m cl s black 1 1 1 c 3 lw /w 43 def /w2 {w 2 div} def /w3 {w 3 div} def 366 1094 459 1061 552 996 645 877 738 822 5 { m20} R 15 lw 3 lw
 1017 767 1110 767 2 { m20} R 15 lw black 6 lw 1 1 1 c black 3 lw /w 33 def /w2 {w 2 div} def /w3 {w 3 div} def 366 1094 m20 6 lw 3 lw 459 1061 m20 6 lw 552 975 m 7 Y s 552 1009 m 4 Y s 3 lw 552 996 m20 6 lw 645 822 m 41 Y s 645 890 m 19 Y s 3 lw 645
 877 m20 6 lw 738 724 m 84 Y s 738 835 m 29 Y s 3 lw 738 822 m20 6 lw 1017 584 m 169 Y s 1017 780 m 42 Y s 3 lw 1017 767 m20 6 lw 1110 584 m 169 Y s 1110 780 m 42 Y s 3 lw 1110 767 m20 6 lw 552 1009 m 4 Y s 552 1013 m cl s 552 982 m -7 Y s 552 975 m
 cl s 645 890 m 21 Y s 645 911 m cl s 645 863 m -38 Y s 645 825 m cl s 738 835 m 34 Y s 738 869 m cl s 738 808 m -68 Y s 738 740 m cl s 1017 780 m 52 Y s 1017 832 m cl s 1017 753 m -125 Y s 1017 628 m cl s 1110 780 m 52 Y s 1110 832 m cl s 1110 753 m
 -125 Y s 1110 628 m cl s 3 lw 366 1094 459 1061 552 996 645 877 738 822 5 { m20} R 6 lw 3 lw 1017 767 1110 767 2 { m20} R 6 lw 3 lw 319 584 m 1860 X s 412 584 m cl s 459 584 m cl s 505 584 m cl s 552 584 m cl s 598 584 m cl s 645 584 m cl s 691 584
 m cl s 738 584 m cl s 784 584 m cl s 831 584 m cl s 877 584 m cl s 924 584 m cl s 970 584 m cl s 1017 584 m cl s 1063 584 m cl s 1110 584 m cl s 1156 584 m cl s 1203 584 m cl s 1249 584 m cl s 1296 584 m cl s 1342 584 m cl s 1389 584 m cl s 1435 584
 m cl s 1482 584 m cl s 1528 584 m cl s 1575 584 m cl s 1621 584 m cl s 1668 584 m cl s 1714 584 m cl s 1761 584 m cl s 1807 584 m cl s 1854 584 m cl s 1900 584 m cl s 1947 584 m cl s 1993 584 m cl s 2040 584 m cl s 2086 584 m cl s 412 584 m cl s 366
 584 m cl s 319 584 m cl s 2086 584 m cl s 2133 584 m cl s 2179 584 m cl s 319 1729 m 1860 X s 412 1729 m cl s 459 1729 m cl s 505 1729 m cl s 552 1729 m cl s 598 1729 m cl s 645 1729 m cl s 691 1729 m cl s 738 1729 m cl s 784 1729 m cl s 831 1729 m
 cl s 877 1729 m cl s 924 1729 m cl s 970 1729 m cl s 1017 1729 m cl s 1063 1729 m cl s 1110 1729 m cl s 1156 1729 m cl s 1203 1729 m cl s 1249 1729 m cl s 1296 1729 m cl s 1342 1729 m cl s 1389 1729 m cl s 1435 1729 m cl s 1482 1729 m cl s 1528 1729
 m cl s 1575 1729 m cl s 1621 1729 m cl s 1668 1729 m cl s 1714 1729 m cl s 1761 1729 m cl s 1807 1729 m cl s 1854 1729 m cl s 1900 1729 m cl s 1947 1729 m cl s 1993 1729 m cl s 2040 1729 m cl s 2086 1729 m cl s 412 1729 m cl s 366 1729 m cl s 319
 1729 m cl s 2086 1729 m cl s 2133 1729 m cl s 2179 1729 m cl s 319 584 m 1145 Y s 341 639 m -22 X s 341 671 m -22 X s 341 694 m -22 X s 341 712 m -22 X s 341 726 m -22 X s 341 739 m -22 X s 341 749 m -22 X s 341 758 m -22 X s 363 767 m -44 X s 341
 822 m -22 X s 341 854 m -22 X s 341 877 m -22 X s 341 894 m -22 X s 341 909 m -22 X s 341 921 m -22 X s 341 932 m -22 X s 341 941 m -22 X s 363 949 m -44 X s 341 1004 m -22 X s 341 1036 m -22 X s 341 1059 m -22 X s 341 1077 m -22 X s 341 1091 m -22
 X s 341 1104 m -22 X s 341 1114 m -22 X s 341 1124 m -22 X s 363 1132 m -44 X s 341 1187 m -22 X s 341 1219 m -22 X s 341 1242 m -22 X s 341 1259 m -22 X s 341 1274 m -22 X s 341 1286 m -22 X s 341 1297 m -22 X s 341 1306 m -22 X s 363 1314 m -44 X
 s 341 1369 m -22 X s 341 1401 m -22 X s 341 1424 m -22 X s 341 1442 m -22 X s 341 1456 m -22 X s 341 1469 m -22 X s 341 1479 m -22 X s 341 1489 m -22 X s 363 1497 m -44 X s 341 1552 m -22 X s 341 1584 m -22 X s 341 1607 m -22 X s 341 1624 m -22 X s
 341 1639 m -22 X s 341 1651 m -22 X s 341 1662 m -22 X s 341 1671 m -22 X s 363 1679 m -44 X s 2179 584 m 1145 Y s 2157 639 m 22 X s 2157 671 m 22 X s 2157 694 m 22 X s 2157 712 m 22 X s 2157 726 m 22 X s 2157 739 m 22 X s 2157 749 m 22 X s 2157 758
 m 22 X s 2136 767 m 43 X s 2157 822 m 22 X s 2157 854 m 22 X s 2157 877 m 22 X s 2157 894 m 22 X s 2157 909 m 22 X s 2157 921 m 22 X s 2157 932 m 22 X s 2157 941 m 22 X s 2136 949 m 43 X s 2157 1004 m 22 X s 2157 1036 m 22 X s 2157 1059 m 22 X s
 2157 1077 m 22 X s 2157 1091 m 22 X s 2157 1104 m 22 X s 2157 1114 m 22 X s 2157 1124 m 22 X s 2136 1132 m 43 X s 2157 1187 m 22 X s 2157 1219 m 22 X s 2157 1242 m 22 X s 2157 1259 m 22 X s 2157 1274 m 22 X s 2157 1286 m 22 X s 2157 1297 m 22 X s
 2157 1306 m 22 X s 2136 1314 m 43 X s 2157 1369 m 22 X s 2157 1401 m 22 X s 2157 1424 m 22 X s 2157 1442 m 22 X s 2157 1456 m 22 X s 2157 1469 m 22 X s 2157 1479 m 22 X s 2157 1489 m 22 X s 2136 1497 m 43 X s 2157 1552 m 22 X s 2157 1584 m 22 X s
 2157 1607 m 22 X s 2157 1624 m 22 X s 2157 1639 m 22 X s 2157 1651 m 22 X s 2157 1662 m 22 X s 2157 1671 m 22 X s 2136 1679 m 43 X s
 gsave  2263 1770 2 313 C 406.765 1447.41 t 0 r /Helvetica findfont 64.4212 sf 0 0 m (VR0LmetSig for MB\255GGo) show NC gr 
 gsave  2263 1770 2 313 C 1464.36 1630.45 t 0 r /Helvetica findfont 64.4212 sf 0 0 m (SM Total) show NC gr  1 1 1 c 1338 1616 m 107 X 64 Y -107 X f 1 0 0 c 6 lw 1338 1648 m 107 X s black
 gsave  2263 1770 2 313 C 1464.36 1538.93 t 0 r /Helvetica findfont 64.4212 sf 0 0 m (Data) show NC gr  1391 1529 m 55 Y s 3 lw 1391 1557 m20 6 lw
 gsave  2263 1770 2 313 C 1464.36 1447.41 t 0 r /Helvetica findfont 64.4212 sf 0 0 m (W+jets) show NC gr  0.4 0.6 1 c 3 lw 1338 1434 m 107 X 64 Y -107 X f 6 lw black 3 lw 1338 1498 m 107 X s 1338 1434 m 107 X s 1445 1434 m 64 Y s 1338 1434 m 64 Y s
 gsave  2263 1770 2 313 C 1498.25 1355.88 t 0 r /Helvetica findfont 64.4212 sf 0 0 m (\(+EW\) & single top) show NC gr 
 gsave  2263 1770 2 313 C 1481.3 1355.88 t 0 r /Helvetica findfont 64.4212 sf 0 0 m (t) show NC gr  1481 1407 m 17 X s
 gsave  2263 1770 2 313 C 1464.36 1355.88 t 0 r /Helvetica findfont 64.4212 sf 0 0 m (t) show NC gr  0.6 1 0.6 c 1338 1343 m 107 X 63 Y -107 X f black 1338 1406 m 107 X s 1338 1343 m 107 X s 1445 1343 m 63 Y s 1338 1343 m 63 Y s
 gsave  2263 1770 2 313 C 1464.36 1264.36 t 0 r /Helvetica findfont 64.4212 sf 0 0 m (Z+jets) show NC gr  1 0.8 0.4 c 1338 1252 m 107 X 63 Y -107 X f black 1338 1315 m 107 X s 1338 1252 m 107 X s 1445 1252 m 63 Y s 1338 1252 m 63 Y s
 gsave  2263 1770 2 313 C 1464.36 1172.84 t 0 r /Helvetica findfont 64.4212 sf 0 0 m (Diboson) show NC gr  1 0.4 0.6 c 1338 1161 m 107 X 63 Y -107 X f black 1338 1224 m 107 X s 1338 1161 m 107 X s 1445 1161 m 63 Y s 1338 1161 m 63 Y s
 gsave  2263 1770 2 313 C 1464.36 1081.32 t 0 r /Helvetica findfont 64.4212 sf 0 0 m (Multi\255jet) show NC gr  0 0 0.4 c 1338 1070 m 107 X 63 Y -107 X f black 1338 1133 m 107 X s 1338 1070 m 107 X s 1445 1070 m 63 Y s 1338 1070 m 63 Y s
 gsave  2263 1770 2 313 C 911.832 1566.05 t 0 r /Helvetica findfont 44.0776 sf 0 0 m (\2551) show NC gr 
 gsave  2263 1770 2 313 C 471.17 1535.54 t 0 r /Helvetica findfont 64.4212 sf 0 0 m (=13TeV, 139 fb) show NC gr 
 gsave  2263 1770 2 313 C 440.662 1535.54 t 0 r /Helvetica findfont 64.4212 sf 0 0 m (s) show NC gr  6 lw 420 1573 m 7 -41 d s 3 lw 427 1532 m 7 61 d s 434 1593 m 37 X s 1 1 1 c 2254 561 2 2 bf black 1 1 1 c black 1860 358 318 187 bl 1 1 1 c black
 1860 358 318 187 bl 6 lw 1 1 1 c black 3 lw 364 404 m20 6 lw 3 lw 457 364 m20 6 lw 3 lw 550 367 m20 6 lw 3 lw 643 301 m20 6 lw 3 lw 736 304 m20 6 lw 3 lw 318 187 m 1860 X s
 gsave  2254 561 2 2 C 1959.25 27.1177 t 0 r /Helvetica findfont 78.1689 sf 0 0 m ( [GeV]) show NC gr 
 gsave  2254 561 2 2 C 1854.17 64.4045 t 0 r /Helvetica findfont 50.9797 sf 0 0 m (miss) show NC gr 
 gsave  2254 561 2 2 C 1854.17 3.38971 t 0 r /Helvetica findfont 50.9797 sf 0 0 m (T) show NC gr 
 gsave  2254 561 2 2 C 1803.33 27.1177 t 0 r /Helvetica findfont 78.1689 sf 0 0 m (E) show NC gr  411 201 m -14 Y s 457 194 m -7 Y s 504 194 m -7 Y s 550 194 m -7 Y s 597 201 m -14 Y s 643 194 m -7 Y s 690 194 m -7 Y s 736 194 m -7 Y s 783 201 m -14
 Y s 829 194 m -7 Y s 876 194 m -7 Y s 923 194 m -7 Y s 969 201 m -14 Y s 1016 194 m -7 Y s 1062 194 m -7 Y s 1109 194 m -7 Y s 1155 201 m -14 Y s 1202 194 m -7 Y s 1248 194 m -7 Y s 1295 194 m -7 Y s 1341 201 m -14 Y s 1388 194 m -7 Y s 1434 194 m
 -7 Y s 1481 194 m -7 Y s 1527 201 m -14 Y s 1574 194 m -7 Y s 1620 194 m -7 Y s 1667 194 m -7 Y s 1713 201 m -14 Y s 1760 194 m -7 Y s 1806 194 m -7 Y s 1853 194 m -7 Y s 1899 201 m -14 Y s 1946 194 m -7 Y s 1992 194 m -7 Y s 2039 194 m -7 Y s 2085
 201 m -14 Y s 411 201 m -14 Y s 364 194 m -7 Y s 318 194 m -7 Y s 2085 201 m -14 Y s 2132 194 m -7 Y s
 gsave  2254 561 2 2 C 345.75 118.64 t 0 r /Helvetica findfont 78.1689 sf 0 0 m (400) show NC gr 
 gsave  2254 561 2 2 C 532.185 118.64 t 0 r /Helvetica findfont 78.1689 sf 0 0 m (600) show NC gr 
 gsave  2254 561 2 2 C 715.229 118.64 t 0 r /Helvetica findfont 78.1689 sf 0 0 m (800) show NC gr 
 gsave  2254 561 2 2 C 877.935 118.64 t 0 r /Helvetica findfont 78.1689 sf 0 0 m (1000) show NC gr 
 gsave  2254 561 2 2 C 1064.37 118.64 t 0 r /Helvetica findfont 78.1689 sf 0 0 m (1200) show NC gr 
 gsave  2254 561 2 2 C 1250.8 118.64 t 0 r /Helvetica findfont 78.1689 sf 0 0 m (1400) show NC gr 
 gsave  2254 561 2 2 C 1437.24 118.64 t 0 r /Helvetica findfont 78.1689 sf 0 0 m (1600) show NC gr 
 gsave  2254 561 2 2 C 1623.67 118.64 t 0 r /Helvetica findfont 78.1689 sf 0 0 m (1800) show NC gr 
 gsave  2254 561 2 2 C 1810.11 118.64 t 0 r /Helvetica findfont 78.1689 sf 0 0 m (2000) show NC gr 
 gsave  2254 561 2 2 C 1996.54 118.64 t 0 r /Helvetica findfont 78.1689 sf 0 0 m (2200) show NC gr  318 545 m 1860 X s 411 531 m 14 Y s 457 538 m 7 Y s 504 538 m 7 Y s 550 538 m 7 Y s 597 531 m 14 Y s 643 538 m 7 Y s 690 538 m 7 Y s 736 538 m 7 Y s
 783 531 m 14 Y s 829 538 m 7 Y s 876 538 m 7 Y s 923 538 m 7 Y s 969 531 m 14 Y s 1016 538 m 7 Y s 1062 538 m 7 Y s 1109 538 m 7 Y s 1155 531 m 14 Y s 1202 538 m 7 Y s 1248 538 m 7 Y s 1295 538 m 7 Y s 1341 531 m 14 Y s 1388 538 m 7 Y s 1434 538 m 7
 Y s 1481 538 m 7 Y s 1527 531 m 14 Y s 1574 538 m 7 Y s 1620 538 m 7 Y s 1667 538 m 7 Y s 1713 531 m 14 Y s 1760 538 m 7 Y s 1806 538 m 7 Y s 1853 538 m 7 Y s 1899 531 m 14 Y s 1946 538 m 7 Y s 1992 538 m 7 Y s 2039 538 m 7 Y s 2085 531 m 14 Y s 411
 531 m 14 Y s 364 538 m 7 Y s 318 538 m 7 Y s 2085 531 m 14 Y s 2132 538 m 7 Y s 318 187 m 358 Y s
 gsave  2254 561 2 2 C 166.096 284.736 t 90 r /Helvetica findfont 67.9729 sf 0 0 m (Data/SM) show NC gr  361 203 m -43 X s 339 220 m -21 X s 339 236 m -21 X s 339 252 m -21 X s 339 268 m -21 X s 361 285 m -43 X s 339 301 m -21 X s 339 317 m -21 X s
 339 334 m -21 X s 339 350 m -21 X s 361 366 m -43 X s 339 382 m -21 X s 339 399 m -21 X s 339 415 m -21 X s 339 431 m -21 X s 361 447 m -43 X s 339 464 m -21 X s 339 480 m -21 X s 339 496 m -21 X s 339 512 m -21 X s 361 529 m -43 X s 361 203 m -43 X
 s 339 187 m -21 X s 361 529 m -43 X s
 gsave  2254 561 2 2 C 261.008 183.044 t 0 r /Helvetica findfont 57.777 sf 0 0 m (0) show NC gr 
 gsave  2254 561 2 2 C 213.552 261.008 t 0 r /Helvetica findfont 57.777 sf 0 0 m (0.5) show NC gr 
 gsave  2254 561 2 2 C 271.177 342.361 t 0 r /Helvetica findfont 57.777 sf 0 0 m (1) show NC gr 
 gsave  2254 561 2 2 C 213.552 423.714 t 0 r /Helvetica findfont 57.777 sf 0 0 m (1.5) show NC gr 
 gsave  2254 561 2 2 C 261.008 505.067 t 0 r /Helvetica findfont 57.777 sf 0 0 m (2) show NC gr  2178 187 m 358 Y s 2135 203 m 43 X s 2157 220 m 21 X s 2157 236 m 21 X s 2157 252 m 21 X s 2157 268 m 21 X s 2135 285 m 43 X s 2157 301 m 21 X s 2157 317
 m 21 X s 2157 334 m 21 X s 2157 350 m 21 X s 2135 366 m 43 X s 2157 382 m 21 X s 2157 399 m 21 X s 2157 415 m 21 X s 2157 431 m 21 X s 2135 447 m 43 X s 2157 464 m 21 X s 2157 480 m 21 X s 2157 496 m 21 X s 2157 512 m 21 X s 2135 529 m 43 X s 2135
 203 m 43 X s 2157 187 m 21 X s 2135 529 m 43 X s 9 lw 364 418 m 12 Y s 364 430 m cl s 364 391 m -12 Y s 364 379 m cl s 457 377 m 12 Y s 457 389 m cl s 457 350 m -11 Y s 457 339 m cl s 550 381 m 25 Y s 550 406 m cl s 550 353 m -24 Y s 550 329 m cl s
 643 315 m 39 Y s 643 354 m cl s 643 288 m -33 Y s 643 255 m cl s 736 318 m 69 Y s 736 387 m cl s 736 291 m -52 Y s 736 239 m cl s 1016 545 m -202 Y s 1016 343 m cl s 3 lw 364 404 457 364 550 367 643 301 736 304 5 { m20} R 9 lw 1 0 0 c 6 lw black 3
 lw 1 0 0 c 2178 198 m -2 -2 d s 2178 227 m -30 -31 d s 2178 255 m -59 -59 d s 2178 284 m -88 -88 d s 2178 312 m -113 -112 d s 2178 341 m -141 -141 d s 2178 369 m -170 -169 d s 2178 398 m -202 -202 d s 2178 427 m -231 -231 d s 2178 455 m -259 -259 d
 s 2178 484 m -288 -288 d s 2178 512 m -317 -316 d s 2173 536 m -341 -340 d s 2145 536 m -339 -337 d s 2116 536 m -310 -309 d s 1782 203 m cl s 2087 536 m -2 -2 d s 2084 533 m -278 -277 d s 1754 203 m cl s 2055 533 m -249 -248 d s 1725 203 m cl s
 2026 533 m -220 -220 d s 1713 220 m s 1998 533 m -192 -191 d s 1713 249 m s 1972 536 m -166 -166 d s 1713 278 m s 1944 536 m -138 -137 d s 1713 306 m -25 -25 d s 1915 536 m -109 -108 d s 1713 335 m -54 -54 d s 1620 242 m -24 -24 d s 1886 536 m -80
 -80 d s 1713 363 m -82 -82 d s 1620 271 m -53 -53 d s 1857 536 m -51 -51 d s 1713 392 m -175 -174 d s 1829 536 m -23 -23 d s 1713 421 m -202 -202 d s 1713 449 m -230 -230 d s 1686 451 m -232 -232 d s 1658 451 m -224 -223 d s 1629 451 m -195 -194 d s
 1620 471 m -201 -201 d s 1341 193 m -5 -6 d s 1620 499 m -230 -229 d s 1341 221 m -34 -34 d s 1607 514 m -246 -244 d s 1341 250 m -63 -63 d s 1578 514 m -329 -327 d s 1549 514 m -301 -300 d s 1519 513 m -271 -270 d s 1490 513 m -242 -241 d s 1461
 513 m -27 -27 d s 1411 462 m -164 -163 d s 1382 462 m -163 -163 d s 1353 462 m -163 -163 d s 1341 479 m -180 -180 d s 1341 507 m -197 -197 d s 1341 536 m -93 -93 d s 1238 433 m -123 -123 d s 1322 545 m -74 -73 d s 1209 433 m -123 -123 d s 1293 545 m
 -45 -45 d s 1180 433 m -123 -123 d s 1264 545 m -16 -16 d s 1141 422 m -113 -112 d s 1112 422 m -112 -112 d s 1083 422 m -112 -112 d s 1055 422 m -98 -98 d s 1026 422 m -98 -98 d s 998 422 m -99 -98 d s 955 408 m -96 -96 d s 926 408 m -96 -96 d s
 897 408 m -96 -96 d s 876 415 m -93 -92 d s 852 420 m -91 -90 d s 823 420 m -90 -90 d s 794 420 m -11 -12 d s 777 402 m -73 -72 d s 748 402 m -66 -65 d s 720 402 m -66 -65 d s 691 402 m -1 X s 684 395 m -59 -58 d s 655 395 m -58 -58 d s 626 395 m
 -53 -53 d s 598 395 m -1 X s 592 390 m -47 -48 d s 563 390 m -47 -48 d s 535 390 m -42 -42 d s 506 390 m -2 -2 d s 501 384 m -37 -36 d s 472 384 m -37 -36 d s 318 231 m s 443 384 m -35 -35 d s 318 259 m s 414 384 m -35 -35 d s 318 288 m s 384 383 m
 -33 -34 d s 318 317 m s 356 383 m -34 -34 d s 318 345 m s 327 383 m -9 -9 d s 6 lw black[ 4 8] 0 sd 3 lw 318 447 m 1860 X s 318 285 m 1860 X s 1 0 0 c[  12 12 ] 0 sd 6 lw 318 366 m 1860 X s
 gr  gr showpage
end
%%EOF
