%!PS-Adobe-2.0 EPSF-2.0
%%BoundingBox:  0 0 567 521
%%Title: Distributions/met_distrCRW_MB-GGo_beforeFit_forThesis.eps: canvas
%%Creator: ROOT Version 6.04/16
%%CreationDate: Tue May 19 22:01:26 2020
%%DocumentNeededResources: ProcSet (FontSetInit)
%%EndComments
%%BeginProlog
80 dict begin
/s {stroke} def /l {lineto} def /m {moveto} def /t {translate} def
/r {rotate} def /rl {roll}  def /R {repeat} def
/d {rlineto} def /rm {rmoveto} def /gr {grestore} def /f {eofill} def
/c {setrgbcolor} def /black {0 setgray} def /sd {setdash} def
/cl {closepath} def /sf {scalefont setfont} def /lw {setlinewidth} def
/box {m dup 0 exch d exch 0 d 0 exch neg d cl} def
/NC{systemdict begin initclip end}def/C{NC box clip newpath}def
/bl {box s} def /bf {gsave box gsave f grestore 1 lw [] 0 sd s grestore} def /Y { 0 exch d} def /X { 0 d} def 
/K {{pop pop 0 moveto} exch kshow} bind def
/ita {/ang 15 def gsave [1 0 ang dup sin exch cos div 1 0 0] concat} def 
/mp {newpath /y exch def /x exch def} def
/side {[w .77 mul w .23 mul] .385 w mul sd w 0 l currentpoint t -144 r} def
/mr {mp x y w2 0 360 arc} def /m24 {mr s} def /m20 {mr f} def
/mb {mp x y w2 add m w2 neg 0 d 0 w neg d w 0 d 0 w d cl} def
/mt {mp x y w2 add m w2 neg w neg d w 0 d cl} def
/m21 {mb f} def /m25 {mb s} def /m22 {mt f} def /m26{mt s} def
/m23 {mp x y w2 sub m w2 w d w neg 0 d cl f} def
/m27 {mp x y w2 add m w3 neg w2 neg d w3 w2 neg d w3 w2 d cl s} def
/m28 {mp x w2 sub y w2 sub w3 add m w3 0 d  0 w3 neg d w3 0 d 0 w3 d w3 0 d  0 w3 d w3 neg 0 d 0 w3 d w3 neg 0 d 0 w3 neg d w3 neg 0 d cl s } def
/m29 {mp gsave x w2 sub y w2 add w3 sub m currentpoint t 4 {side} repeat cl fill gr} def
/m30 {mp gsave x w2 sub y w2 add w3 sub m currentpoint t 4 {side} repeat cl s gr} def
/m31 {mp x y w2 sub m 0 w d x w2 sub y m w 0 d x w2 sub y w2 add m w w neg d x w2 sub y w2 sub m w w d s} def
/m32 {mp x y w2 sub m w2 w d w neg 0 d cl s} def
/m33 {mp x y w2 add m w3 neg w2 neg d w3 w2 neg d w3 w2 d cl f} def
/m34 {mp x w2 sub y w2 sub w3 add m w3 0 d  0 w3 neg d w3 0 d 0 w3 d w3 0 d  0 w3 d w3 neg 0 d 0 w3 d w3 neg 0 d 0 w3 neg d w3 neg 0 d cl f } def
/m2 {mp x y w2 sub m 0 w d x w2 sub y m w 0 d s} def
/m5 {mp x w2 sub y w2 sub m w w d x w2 sub y w2 add m w w neg d s} def
%%IncludeResource: ProcSet (FontSetInit)
%%IncludeResource: font Times-Roman
%%IncludeResource: font Times-Italic
%%IncludeResource: font Times-Bold
%%IncludeResource: font Times-BoldItalic
%%IncludeResource: font Helvetica
%%IncludeResource: font Helvetica-Oblique
%%IncludeResource: font Helvetica-Bold
%%IncludeResource: font Helvetica-BoldOblique
%%IncludeResource: font Courier
%%IncludeResource: font Courier-Oblique
%%IncludeResource: font Courier-Bold
%%IncludeResource: font Courier-BoldOblique
%%IncludeResource: font Symbol
%%IncludeResource: font ZapfDingbats
/reEncode {exch findfont dup length dict begin {1 index /FID eq  {pop pop} {def} ifelse } forall /Encoding exch def currentdict end dup /FontName get exch definefont pop } def [/Times-Bold /Times-Italic /Times-BoldItalic /Helvetica /Helvetica-Oblique
 /Helvetica-Bold /Helvetica-BoldOblique /Courier /Courier-Oblique /Courier-Bold /Courier-BoldOblique /Times-Roman /AvantGarde-Book /AvantGarde-BookOblique /AvantGarde-Demi /AvantGarde-DemiOblique /Bookman-Demi /Bookman-DemiItalic /Bookman-Light
 /Bookman-LightItalic /Helvetica-Narrow /Helvetica-Narrow-Bold /Helvetica-Narrow-BoldOblique /Helvetica-Narrow-Oblique /NewCenturySchlbk-Roman /NewCenturySchlbk-Bold /NewCenturySchlbk-BoldItalic /NewCenturySchlbk-Italic /Palatino-Bold
 /Palatino-BoldItalic /Palatino-Italic /Palatino-Roman ] {ISOLatin1Encoding reEncode } forall
%%EndProlog
%%BeginSetup
%%EndSetup
newpath  gsave  .25 .25 scale  gsave  0 0 t black[  ] 0 sd 3 lw 1 1 1 c 2268 2085 0 0 bf black 1 1 1 c 2263 1770 2 313 bf black 1 1 1 c black 1860 1145 319 584 bl 1 1 1 c black 1860 1145 319 584 bl 6 lw 1 1 1 c black 3 lw /w 33 def /w2 {w 2 div} def
 /w3 {w 3 div} def 366 1100 m20 6 lw 3 lw 459 1083 m20 6 lw 552 1019 m 1 Y s 3 lw 552 1033 m20 6 lw 645 983 m 5 Y s 645 1015 m 1 Y s 3 lw 645 1001 m20 6 lw 738 939 m 11 Y s 738 977 m 4 Y s 3 lw 738 963 m20 6 lw 831 814 m 40 Y s 831 881 m 17 Y s 3 lw
 831 867 m20 6 lw 924 720 m 80 Y s 924 828 m 27 Y s 3 lw 924 814 m20 6 lw 1017 720 m 80 Y s 1017 828 m 27 Y s 3 lw 1017 814 m20 6 lw 1110 779 m 53 Y s 1110 859 m 21 Y s 3 lw 1110 845 m20 6 lw 3 lw 319 584 m 1860 X s
 gsave  2263 1770 2 313 C 1949.08 355.92 t 0 r /Helvetica findfont 81.3741 sf 0 0 m ( [GeV]) show NC gr 
 gsave  2263 1770 2 313 C 1837.22 396.596 t 0 r /Helvetica findfont 54.2494 sf 0 0 m (miss) show NC gr 
 gsave  2263 1770 2 313 C 1837.22 332.192 t 0 r /Helvetica findfont 54.2494 sf 0 0 m (T) show NC gr 
 gsave  2263 1770 2 313 C 1786.38 355.92 t 0 r /Helvetica findfont 81.3741 sf 0 0 m (E) show NC gr  412 584 m cl s 459 584 m cl s 505 584 m cl s 552 584 m cl s 598 584 m cl s 645 584 m cl s 691 584 m cl s 738 584 m cl s 784 584 m cl s 831 584 m cl s
 877 584 m cl s 924 584 m cl s 970 584 m cl s 1017 584 m cl s 1063 584 m cl s 1110 584 m cl s 1156 584 m cl s 1203 584 m cl s 1249 584 m cl s 1296 584 m cl s 1342 584 m cl s 1389 584 m cl s 1435 584 m cl s 1482 584 m cl s 1528 584 m cl s 1575 584 m
 cl s 1621 584 m cl s 1668 584 m cl s 1714 584 m cl s 1761 584 m cl s 1807 584 m cl s 1854 584 m cl s 1900 584 m cl s 1947 584 m cl s 1993 584 m cl s 2040 584 m cl s 2086 584 m cl s 412 584 m cl s 366 584 m cl s 319 584 m cl s 2086 584 m cl s 2133
 584 m cl s 2179 584 m cl s 319 1729 m 1860 X s 412 1729 m cl s 459 1729 m cl s 505 1729 m cl s 552 1729 m cl s 598 1729 m cl s 645 1729 m cl s 691 1729 m cl s 738 1729 m cl s 784 1729 m cl s 831 1729 m cl s 877 1729 m cl s 924 1729 m cl s 970 1729 m
 cl s 1017 1729 m cl s 1063 1729 m cl s 1110 1729 m cl s 1156 1729 m cl s 1203 1729 m cl s 1249 1729 m cl s 1296 1729 m cl s 1342 1729 m cl s 1389 1729 m cl s 1435 1729 m cl s 1482 1729 m cl s 1528 1729 m cl s 1575 1729 m cl s 1621 1729 m cl s 1668
 1729 m cl s 1714 1729 m cl s 1761 1729 m cl s 1807 1729 m cl s 1854 1729 m cl s 1900 1729 m cl s 1947 1729 m cl s 1993 1729 m cl s 2040 1729 m cl s 2086 1729 m cl s 412 1729 m cl s 366 1729 m cl s 319 1729 m cl s 2086 1729 m cl s 2133 1729 m cl s
 2179 1729 m cl s 319 584 m 1145 Y s
 gsave  2263 1770 2 313 C 166.096 1091.49 t 90 r /Helvetica findfont 81.3741 sf 0 0 m (Events / 100 GeV) show NC gr  341 637 m -22 X s 341 669 m -22 X s 341 691 m -22 X s 341 708 m -22 X s 341 722 m -22 X s 341 734 m -22 X s 341 744 m -22 X s 341 753
 m -22 X s 363 761 m -44 X s
 gsave  2263 1770 2 313 C 300.555 733.733 t 0 r  -36 0 t /Helvetica findfont 64.4212 sf 0 0 m (1) show NC gr  341 814 m -22 X s 341 845 m -22 X s 341 867 m -22 X s 341 884 m -22 X s 341 898 m -22 X s 341 910 m -22 X s 341 920 m -22 X s 341 929 m -22
 X s 363 937 m -44 X s
 gsave  2263 1770 2 313 C 300.555 910.273 t 0 r  -73 0 t /Helvetica findfont 64.4212 sf 0 0 m (10) show NC gr  341 991 m -22 X s 341 1022 m -22 X s 341 1044 m -22 X s 341 1061 m -22 X s 341 1075 m -22 X s 341 1087 m -22 X s 341 1097 m -22 X s 341
 1106 m -22 X s 363 1114 m -44 X s
 gsave  2263 1770 2 313 C 274.567 1111.83 t 0 r /Helvetica findfont 44.0776 sf 0 0 m (2) show NC gr 
 gsave  2263 1770 2 313 C 203.383 1084.71 t 0 r /Helvetica findfont 64.4212 sf 0 0 m (10) show NC gr  341 1167 m -22 X s 341 1198 m -22 X s 341 1220 m -22 X s 341 1237 m -22 X s 341 1251 m -22 X s 341 1263 m -22 X s 341 1273 m -22 X s 341 1282 m -22
 X s 363 1290 m -44 X s
 gsave  2263 1770 2 313 C 274.567 1291.48 t 0 r /Helvetica findfont 44.0776 sf 0 0 m (3) show NC gr 
 gsave  2263 1770 2 313 C 203.383 1260.97 t 0 r /Helvetica findfont 64.4212 sf 0 0 m (10) show NC gr  341 1344 m -22 X s 341 1375 m -22 X s 341 1397 m -22 X s 341 1414 m -22 X s 341 1428 m -22 X s 341 1440 m -22 X s 341 1450 m -22 X s 341 1459 m -22
 X s 363 1467 m -44 X s
 gsave  2263 1770 2 313 C 274.567 1464.36 t 0 r /Helvetica findfont 44.0776 sf 0 0 m (4) show NC gr 
 gsave  2263 1770 2 313 C 203.383 1437.24 t 0 r /Helvetica findfont 64.4212 sf 0 0 m (10) show NC gr  341 1520 m -22 X s 341 1551 m -22 X s 341 1573 m -22 X s 341 1590 m -22 X s 341 1604 m -22 X s 341 1616 m -22 X s 341 1626 m -22 X s 341 1635 m -22
 X s 363 1644 m -44 X s
 gsave  2263 1770 2 313 C 274.567 1644.01 t 0 r /Helvetica findfont 44.0776 sf 0 0 m (5) show NC gr 
 gsave  2263 1770 2 313 C 203.383 1613.5 t 0 r /Helvetica findfont 64.4212 sf 0 0 m (10) show NC gr  341 1697 m -22 X s 341 1728 m -22 X s 2179 584 m 1145 Y s 2157 637 m 22 X s 2157 669 m 22 X s 2157 691 m 22 X s 2157 708 m 22 X s 2157 722 m 22 X s
 2157 734 m 22 X s 2157 744 m 22 X s 2157 753 m 22 X s 2136 761 m 43 X s 2157 814 m 22 X s 2157 845 m 22 X s 2157 867 m 22 X s 2157 884 m 22 X s 2157 898 m 22 X s 2157 910 m 22 X s 2157 920 m 22 X s 2157 929 m 22 X s 2136 937 m 43 X s 2157 991 m 22 X
 s 2157 1022 m 22 X s 2157 1044 m 22 X s 2157 1061 m 22 X s 2157 1075 m 22 X s 2157 1087 m 22 X s 2157 1097 m 22 X s 2157 1106 m 22 X s 2136 1114 m 43 X s 2157 1167 m 22 X s 2157 1198 m 22 X s 2157 1220 m 22 X s 2157 1237 m 22 X s 2157 1251 m 22 X s
 2157 1263 m 22 X s 2157 1273 m 22 X s 2157 1282 m 22 X s 2136 1290 m 43 X s 2157 1344 m 22 X s 2157 1375 m 22 X s 2157 1397 m 22 X s 2157 1414 m 22 X s 2157 1428 m 22 X s 2157 1440 m 22 X s 2157 1450 m 22 X s 2157 1459 m 22 X s 2136 1467 m 43 X s
 2157 1520 m 22 X s 2157 1551 m 22 X s 2157 1573 m 22 X s 2157 1590 m 22 X s 2157 1604 m 22 X s 2157 1616 m 22 X s 2157 1626 m 22 X s 2157 1635 m 22 X s 2136 1644 m 43 X s 2157 1697 m 22 X s 2157 1728 m 22 X s 0.4 0.6 1 c black 0.4 0.6 1 c 319 584 m
 530 Y 93 X 1 Y 93 X -48 Y 93 X -52 Y 93 X -53 Y 93 X -62 Y 93 X -37 Y 93 X -59 Y 93 X -32 Y 93 X -35 Y 186 X -80 Y 93 X -73 Y 93 X 9 Y 93 X -9 Y 558 X f black 0.4 0.6 1 c black 319 1114 m 93 X 1 Y 93 X -48 Y 93 X -52 Y 93 X -53 Y 93 X -62 Y 93 X -37
 Y 93 X -59 Y 93 X -32 Y 93 X -35 Y 186 X -80 Y 93 X -73 Y 93 X 9 Y 93 X -9 Y 558 X s 0.999 0.999 0.999 c black 0.999 0.999 0.999 c 319 584 m 448 Y 93 X -15 Y 93 X -51 Y 93 X -67 Y 93 X -68 Y 93 X -63 Y 93 X -63 Y 93 X -82 Y 93 X 47 Y 93 X 15 Y 93 X
 32 Y 93 X -133 Y 837 X f black 0.999 0.999 0.999 c black 319 1032 m 93 X -15 Y 93 X -51 Y 93 X -67 Y 93 X -68 Y 93 X -63 Y 93 X -63 Y 93 X -82 Y 93 X 47 Y 93 X 15 Y 93 X 32 Y 93 X -133 Y 837 X s 1 1 1 c black 319 1032 m 93 X -15 Y 93 X -51 Y 93 X
 -67 Y 93 X -68 Y 93 X -63 Y 93 X -63 Y 93 X -82 Y 93 X 47 Y 93 X 15 Y 93 X 32 Y 93 X -133 Y 837 X s 0.6 1 0.6 c black 0.6 1 0.6 c 319 584 m 448 Y 93 X -15 Y 93 X -51 Y 93 X -67 Y 93 X -68 Y 93 X -63 Y 93 X -63 Y 93 X -82 Y 93 X 47 Y 93 X 15 Y 93 X
 32 Y 93 X -133 Y 837 X f black 0.6 1 0.6 c black 319 1032 m 93 X -15 Y 93 X -51 Y 93 X -67 Y 93 X -68 Y 93 X -63 Y 93 X -63 Y 93 X -82 Y 93 X 47 Y 93 X 15 Y 93 X 32 Y 93 X -133 Y 837 X s 0.999 0.999 0.999 c black 0.999 0.999 0.999 c 319 584 m 316 Y
 93 X 12 Y 93 X -30 Y 93 X -64 Y 93 X -71 Y 93 X -59 Y 93 X -28 Y 93 X -76 Y 93 X 79 Y 93 X -79 Y 1023 X f black 0.999 0.999 0.999 c black 319 900 m 93 X 12 Y 93 X -30 Y 93 X -64 Y 93 X -71 Y 93 X -59 Y 93 X -28 Y 93 X -76 Y 93 X 79 Y 93 X -79 Y 1023
 X s 1 1 1 c black 319 900 m 93 X 12 Y 93 X -30 Y 93 X -64 Y 93 X -71 Y 93 X -59 Y 93 X -28 Y 93 X -76 Y 93 X 79 Y 93 X -79 Y 1023 X s 1 0.8 0.4 c black 1 0.8 0.4 c 319 584 m 316 Y 93 X 12 Y 93 X -30 Y 93 X -64 Y 93 X -71 Y 93 X -59 Y 93 X -28 Y 93 X
 -76 Y 93 X 79 Y 93 X -79 Y 1023 X f black 1 0.8 0.4 c black 319 900 m 93 X 12 Y 93 X -30 Y 93 X -64 Y 93 X -71 Y 93 X -59 Y 93 X -28 Y 93 X -76 Y 93 X 79 Y 93 X -79 Y 1023 X s 0.999 0.999 0.999 c black 0.999 0.999 0.999 c 319 584 m 308 Y 93 X 12 Y
 93 X -26 Y 93 X -66 Y 93 X -72 Y 93 X -56 Y 93 X -27 Y 93 X -73 Y 93 X 79 Y 93 X -79 Y 1023 X f black 0.999 0.999 0.999 c black 319 892 m 93 X 12 Y 93 X -26 Y 93 X -66 Y 93 X -72 Y 93 X -56 Y 93 X -27 Y 93 X -73 Y 93 X 79 Y 93 X -79 Y 1023 X s 1 1 1
 c black 319 892 m 93 X 12 Y 93 X -26 Y 93 X -66 Y 93 X -72 Y 93 X -56 Y 93 X -27 Y 93 X -73 Y 93 X 79 Y 93 X -79 Y 1023 X s 1 0.4 0.6 c black 1 0.4 0.6 c 319 584 m 308 Y 93 X 12 Y 93 X -26 Y 93 X -66 Y 93 X -72 Y 93 X -56 Y 93 X -27 Y 93 X -73 Y 93
 X 79 Y 93 X -79 Y 1023 X f black 1 0.4 0.6 c black 319 892 m 93 X 12 Y 93 X -26 Y 93 X -66 Y 93 X -72 Y 93 X -56 Y 93 X -27 Y 93 X -73 Y 93 X 79 Y 93 X -79 Y 1023 X s 1 0 0 c 6 lw 1 1 1 c black 1 0 0 c 319 1114 m 93 X 1 Y 93 X -48 Y 93 X -52 Y 93 X
 -53 Y 93 X -62 Y 93 X -37 Y 93 X -59 Y 93 X -32 Y 93 X -35 Y 186 X -80 Y 93 X -73 Y 93 X 9 Y 93 X -9 Y 558 X s black 3 lw 1 0 0 c 1 lw << /PatternType 1 /PaintType 2 /TilingType 1 /BBox [ 0 0 100 100 ] /XStep 100 /YStep 100 /PaintProc { begin gsave
 0 100 m 100 0 l s gr end } >> [ 0.24 0 0 0.24 0 0 ] makepattern /P05 exch def /cs {[/Pattern /DeviceRGB] setcolorspace} def /FA {f [/DeviceRGB] setcolorspace} def cs 1 0 0 P05 setcolor 319 584 m 533 Y 93 X 2 Y 93 X -46 Y 93 X -51 Y 93 X -52 Y 93 X
 -61 Y 93 X -37 Y 93 X -57 Y 93 X -27 Y 93 X -22 Y 93 X 2 Y 93 X -92 Y 93 X -88 Y 93 X 47 Y 93 X -51 Y -186 X 48 Y -93 X 52 Y -93 X 4 Y -93 X 63 Y -93 X 40 Y -93 X 62 Y -93 X 38 Y -93 X 63 Y -93 X 54 Y -93 X 53 Y -93 X 49 Y -186 X -526 Y FA 6 lw 1 1
 1 c 15 lw 738 943 m -3 Y s 738 940 m cl s 831 887 m 13 Y s 831 900 m cl s 831 847 m -30 Y s 831 817 m cl s 924 834 m 26 Y s 924 860 m cl s 924 794 m -59 Y s 924 735 m cl s 1017 834 m 26 Y s 1017 860 m cl s 1017 794 m -59 Y s 1017 735 m cl s 1110 865
 m 18 Y s 1110 883 m cl s 1110 825 m -40 Y s 1110 785 m cl s black 1 1 1 c 3 lw /w 43 def /w2 {w 2 div} def /w3 {w 3 div} def 366 1100 459 1083 552 1033 645 1001 738 963 831 867 924 814 1017 814 1110 845 9 { m20} R 15 lw black 6 lw 1 1 1 c black 3 lw
 /w 33 def /w2 {w 2 div} def /w3 {w 3 div} def 366 1100 m20 6 lw 3 lw 459 1083 m20 6 lw 552 1019 m 1 Y s 3 lw 552 1033 m20 6 lw 645 983 m 5 Y s 645 1015 m 1 Y s 3 lw 645 1001 m20 6 lw 738 939 m 11 Y s 738 977 m 4 Y s 3 lw 738 963 m20 6 lw 831 814 m
 40 Y s 831 881 m 17 Y s 3 lw 831 867 m20 6 lw 924 720 m 80 Y s 924 828 m 27 Y s 3 lw 924 814 m20 6 lw 1017 720 m 80 Y s 1017 828 m 27 Y s 3 lw 1017 814 m20 6 lw 1110 779 m 53 Y s 1110 859 m 21 Y s 3 lw 1110 845 m20 6 lw 552 1020 m -1 Y s 552 1019 m
 cl s 645 1015 m 1 Y s 645 1016 m cl s 645 988 m -4 Y s 645 984 m cl s 738 977 m 5 Y s 738 982 m cl s 738 950 m -10 Y s 738 940 m cl s 831 881 m 19 Y s 831 900 m cl s 831 854 m -37 Y s 831 817 m cl s 924 828 m 32 Y s 924 860 m cl s 924 800 m -65 Y s
 924 735 m cl s 1017 828 m 32 Y s 1017 860 m cl s 1017 800 m -65 Y s 1017 735 m cl s 1110 859 m 24 Y s 1110 883 m cl s 1110 832 m -47 Y s 1110 785 m cl s 3 lw 366 1100 459 1083 552 1033 645 1001 738 963 831 867 924 814 1017 814 1110 845 9 { m20} R 6
 lw 3 lw 319 584 m 1860 X s 412 584 m cl s 459 584 m cl s 505 584 m cl s 552 584 m cl s 598 584 m cl s 645 584 m cl s 691 584 m cl s 738 584 m cl s 784 584 m cl s 831 584 m cl s 877 584 m cl s 924 584 m cl s 970 584 m cl s 1017 584 m cl s 1063 584 m
 cl s 1110 584 m cl s 1156 584 m cl s 1203 584 m cl s 1249 584 m cl s 1296 584 m cl s 1342 584 m cl s 1389 584 m cl s 1435 584 m cl s 1482 584 m cl s 1528 584 m cl s 1575 584 m cl s 1621 584 m cl s 1668 584 m cl s 1714 584 m cl s 1761 584 m cl s 1807
 584 m cl s 1854 584 m cl s 1900 584 m cl s 1947 584 m cl s 1993 584 m cl s 2040 584 m cl s 2086 584 m cl s 412 584 m cl s 366 584 m cl s 319 584 m cl s 2086 584 m cl s 2133 584 m cl s 2179 584 m cl s 319 1729 m 1860 X s 412 1729 m cl s 459 1729 m cl
 s 505 1729 m cl s 552 1729 m cl s 598 1729 m cl s 645 1729 m cl s 691 1729 m cl s 738 1729 m cl s 784 1729 m cl s 831 1729 m cl s 877 1729 m cl s 924 1729 m cl s 970 1729 m cl s 1017 1729 m cl s 1063 1729 m cl s 1110 1729 m cl s 1156 1729 m cl s
 1203 1729 m cl s 1249 1729 m cl s 1296 1729 m cl s 1342 1729 m cl s 1389 1729 m cl s 1435 1729 m cl s 1482 1729 m cl s 1528 1729 m cl s 1575 1729 m cl s 1621 1729 m cl s 1668 1729 m cl s 1714 1729 m cl s 1761 1729 m cl s 1807 1729 m cl s 1854 1729 m
 cl s 1900 1729 m cl s 1947 1729 m cl s 1993 1729 m cl s 2040 1729 m cl s 2086 1729 m cl s 412 1729 m cl s 366 1729 m cl s 319 1729 m cl s 2086 1729 m cl s 2133 1729 m cl s 2179 1729 m cl s 319 584 m 1145 Y s 341 637 m -22 X s 341 669 m -22 X s 341
 691 m -22 X s 341 708 m -22 X s 341 722 m -22 X s 341 734 m -22 X s 341 744 m -22 X s 341 753 m -22 X s 363 761 m -44 X s 341 814 m -22 X s 341 845 m -22 X s 341 867 m -22 X s 341 884 m -22 X s 341 898 m -22 X s 341 910 m -22 X s 341 920 m -22 X s
 341 929 m -22 X s 363 937 m -44 X s 341 991 m -22 X s 341 1022 m -22 X s 341 1044 m -22 X s 341 1061 m -22 X s 341 1075 m -22 X s 341 1087 m -22 X s 341 1097 m -22 X s 341 1106 m -22 X s 363 1114 m -44 X s 341 1167 m -22 X s 341 1198 m -22 X s 341
 1220 m -22 X s 341 1237 m -22 X s 341 1251 m -22 X s 341 1263 m -22 X s 341 1273 m -22 X s 341 1282 m -22 X s 363 1290 m -44 X s 341 1344 m -22 X s 341 1375 m -22 X s 341 1397 m -22 X s 341 1414 m -22 X s 341 1428 m -22 X s 341 1440 m -22 X s 341
 1450 m -22 X s 341 1459 m -22 X s 363 1467 m -44 X s 341 1520 m -22 X s 341 1551 m -22 X s 341 1573 m -22 X s 341 1590 m -22 X s 341 1604 m -22 X s 341 1616 m -22 X s 341 1626 m -22 X s 341 1635 m -22 X s 363 1644 m -44 X s 341 1697 m -22 X s 341
 1728 m -22 X s 2179 584 m 1145 Y s 2157 637 m 22 X s 2157 669 m 22 X s 2157 691 m 22 X s 2157 708 m 22 X s 2157 722 m 22 X s 2157 734 m 22 X s 2157 744 m 22 X s 2157 753 m 22 X s 2136 761 m 43 X s 2157 814 m 22 X s 2157 845 m 22 X s 2157 867 m 22 X
 s 2157 884 m 22 X s 2157 898 m 22 X s 2157 910 m 22 X s 2157 920 m 22 X s 2157 929 m 22 X s 2136 937 m 43 X s 2157 991 m 22 X s 2157 1022 m 22 X s 2157 1044 m 22 X s 2157 1061 m 22 X s 2157 1075 m 22 X s 2157 1087 m 22 X s 2157 1097 m 22 X s 2157
 1106 m 22 X s 2136 1114 m 43 X s 2157 1167 m 22 X s 2157 1198 m 22 X s 2157 1220 m 22 X s 2157 1237 m 22 X s 2157 1251 m 22 X s 2157 1263 m 22 X s 2157 1273 m 22 X s 2157 1282 m 22 X s 2136 1290 m 43 X s 2157 1344 m 22 X s 2157 1375 m 22 X s 2157
 1397 m 22 X s 2157 1414 m 22 X s 2157 1428 m 22 X s 2157 1440 m 22 X s 2157 1450 m 22 X s 2157 1459 m 22 X s 2136 1467 m 43 X s 2157 1520 m 22 X s 2157 1551 m 22 X s 2157 1573 m 22 X s 2157 1590 m 22 X s 2157 1604 m 22 X s 2157 1616 m 22 X s 2157
 1626 m 22 X s 2157 1635 m 22 X s 2136 1644 m 43 X s 2157 1697 m 22 X s 2157 1728 m 22 X s
 gsave  2263 1770 2 313 C 406.765 1447.41 t 0 r /Helvetica findfont 64.4212 sf 0 0 m (CRW for MB\255GGo) show NC gr 
 gsave  2263 1770 2 313 C 1464.36 1616.89 t 0 r /Helvetica findfont 64.4212 sf 0 0 m (SM Total) show NC gr  1 1 1 c 1338 1603 m 107 X 74 Y -107 X f 1 0 0 c 6 lw 1338 1640 m 107 X s black
 gsave  2263 1770 2 313 C 1464.36 1511.81 t 0 r /Helvetica findfont 64.4212 sf 0 0 m (Data) show NC gr  1391 1502 m 64 Y s 3 lw 1391 1534 m20 6 lw
 gsave  2263 1770 2 313 C 1464.36 1406.73 t 0 r /Helvetica findfont 64.4212 sf 0 0 m (W+jets) show NC gr  0.4 0.6 1 c 3 lw 1338 1391 m 107 X 74 Y -107 X f 6 lw black 3 lw 1338 1465 m 107 X s 1338 1391 m 107 X s 1445 1391 m 74 Y s 1338 1391 m 74 Y s
 gsave  2263 1770 2 313 C 1498.25 1298.26 t 0 r /Helvetica findfont 64.4212 sf 0 0 m (\(+EW\) & single top) show NC gr 
 gsave  2263 1770 2 313 C 1481.3 1298.26 t 0 r /Helvetica findfont 64.4212 sf 0 0 m (t) show NC gr  1481 1349 m 17 X s
 gsave  2263 1770 2 313 C 1464.36 1298.26 t 0 r /Helvetica findfont 64.4212 sf 0 0 m (t) show NC gr  0.6 1 0.6 c 1338 1284 m 107 X 75 Y -107 X f black 1338 1359 m 107 X s 1338 1284 m 107 X s 1445 1284 m 75 Y s 1338 1284 m 75 Y s
 gsave  2263 1770 2 313 C 1464.36 1193.18 t 0 r /Helvetica findfont 64.4212 sf 0 0 m (Z+jets) show NC gr  1 0.8 0.4 c 1338 1178 m 107 X 75 Y -107 X f black 1338 1253 m 107 X s 1338 1178 m 107 X s 1445 1178 m 75 Y s 1338 1178 m 75 Y s
 gsave  2263 1770 2 313 C 1464.36 1088.1 t 0 r /Helvetica findfont 64.4212 sf 0 0 m (Diboson) show NC gr  1 0.4 0.6 c 1338 1072 m 107 X 74 Y -107 X f black 1338 1146 m 107 X s 1338 1072 m 107 X s 1445 1072 m 74 Y s 1338 1072 m 74 Y s
 gsave  2263 1770 2 313 C 911.832 1566.05 t 0 r /Helvetica findfont 44.0776 sf 0 0 m (\2551) show NC gr 
 gsave  2263 1770 2 313 C 471.17 1535.54 t 0 r /Helvetica findfont 64.4212 sf 0 0 m (=13TeV, 139 fb) show NC gr 
 gsave  2263 1770 2 313 C 440.662 1535.54 t 0 r /Helvetica findfont 64.4212 sf 0 0 m (s) show NC gr  6 lw 420 1573 m 7 -41 d s 3 lw 427 1532 m 7 61 d s 434 1593 m 37 X s 1 1 1 c 2254 561 2 2 bf black 1 1 1 c black 1860 358 318 187 bl 1 1 1 c black
 1860 358 318 187 bl 6 lw 1 1 1 c black 3 lw 364 339 m20 6 lw 3 lw 457 311 m20 6 lw 3 lw 550 308 m20 6 lw 3 lw 643 339 m20 6 lw 3 lw 736 368 m20 6 lw 3 lw 829 309 m20 6 lw 3 lw 923 289 m20 6 lw 3 lw 1016 389 m20 6 lw 3 lw 318 187 m 1860 X s
 gsave  2254 561 2 2 C 1959.25 27.1177 t 0 r /Helvetica findfont 78.1689 sf 0 0 m ( [GeV]) show NC gr 
 gsave  2254 561 2 2 C 1854.17 64.4045 t 0 r /Helvetica findfont 50.9797 sf 0 0 m (miss) show NC gr 
 gsave  2254 561 2 2 C 1854.17 3.38971 t 0 r /Helvetica findfont 50.9797 sf 0 0 m (T) show NC gr 
 gsave  2254 561 2 2 C 1803.33 27.1177 t 0 r /Helvetica findfont 78.1689 sf 0 0 m (E) show NC gr  411 201 m -14 Y s 457 194 m -7 Y s 504 194 m -7 Y s 550 194 m -7 Y s 597 201 m -14 Y s 643 194 m -7 Y s 690 194 m -7 Y s 736 194 m -7 Y s 783 201 m -14
 Y s 829 194 m -7 Y s 876 194 m -7 Y s 923 194 m -7 Y s 969 201 m -14 Y s 1016 194 m -7 Y s 1062 194 m -7 Y s 1109 194 m -7 Y s 1155 201 m -14 Y s 1202 194 m -7 Y s 1248 194 m -7 Y s 1295 194 m -7 Y s 1341 201 m -14 Y s 1388 194 m -7 Y s 1434 194 m
 -7 Y s 1481 194 m -7 Y s 1527 201 m -14 Y s 1574 194 m -7 Y s 1620 194 m -7 Y s 1667 194 m -7 Y s 1713 201 m -14 Y s 1760 194 m -7 Y s 1806 194 m -7 Y s 1853 194 m -7 Y s 1899 201 m -14 Y s 1946 194 m -7 Y s 1992 194 m -7 Y s 2039 194 m -7 Y s 2085
 201 m -14 Y s 411 201 m -14 Y s 364 194 m -7 Y s 318 194 m -7 Y s 2085 201 m -14 Y s 2132 194 m -7 Y s
 gsave  2254 561 2 2 C 345.75 118.64 t 0 r /Helvetica findfont 78.1689 sf 0 0 m (400) show NC gr 
 gsave  2254 561 2 2 C 532.185 118.64 t 0 r /Helvetica findfont 78.1689 sf 0 0 m (600) show NC gr 
 gsave  2254 561 2 2 C 715.229 118.64 t 0 r /Helvetica findfont 78.1689 sf 0 0 m (800) show NC gr 
 gsave  2254 561 2 2 C 877.935 118.64 t 0 r /Helvetica findfont 78.1689 sf 0 0 m (1000) show NC gr 
 gsave  2254 561 2 2 C 1064.37 118.64 t 0 r /Helvetica findfont 78.1689 sf 0 0 m (1200) show NC gr 
 gsave  2254 561 2 2 C 1250.8 118.64 t 0 r /Helvetica findfont 78.1689 sf 0 0 m (1400) show NC gr 
 gsave  2254 561 2 2 C 1437.24 118.64 t 0 r /Helvetica findfont 78.1689 sf 0 0 m (1600) show NC gr 
 gsave  2254 561 2 2 C 1623.67 118.64 t 0 r /Helvetica findfont 78.1689 sf 0 0 m (1800) show NC gr 
 gsave  2254 561 2 2 C 1810.11 118.64 t 0 r /Helvetica findfont 78.1689 sf 0 0 m (2000) show NC gr 
 gsave  2254 561 2 2 C 1996.54 118.64 t 0 r /Helvetica findfont 78.1689 sf 0 0 m (2200) show NC gr  318 545 m 1860 X s 411 531 m 14 Y s 457 538 m 7 Y s 504 538 m 7 Y s 550 538 m 7 Y s 597 531 m 14 Y s 643 538 m 7 Y s 690 538 m 7 Y s 736 538 m 7 Y s
 783 531 m 14 Y s 829 538 m 7 Y s 876 538 m 7 Y s 923 538 m 7 Y s 969 531 m 14 Y s 1016 538 m 7 Y s 1062 538 m 7 Y s 1109 538 m 7 Y s 1155 531 m 14 Y s 1202 538 m 7 Y s 1248 538 m 7 Y s 1295 538 m 7 Y s 1341 531 m 14 Y s 1388 538 m 7 Y s 1434 538 m 7
 Y s 1481 538 m 7 Y s 1527 531 m 14 Y s 1574 538 m 7 Y s 1620 538 m 7 Y s 1667 538 m 7 Y s 1713 531 m 14 Y s 1760 538 m 7 Y s 1806 538 m 7 Y s 1853 538 m 7 Y s 1899 531 m 14 Y s 1946 538 m 7 Y s 1992 538 m 7 Y s 2039 538 m 7 Y s 2085 531 m 14 Y s 411
 531 m 14 Y s 364 538 m 7 Y s 318 538 m 7 Y s 2085 531 m 14 Y s 2132 538 m 7 Y s 318 187 m 358 Y s
 gsave  2254 561 2 2 C 166.096 284.736 t 90 r /Helvetica findfont 67.9729 sf 0 0 m (Data/SM) show NC gr  361 203 m -43 X s 339 220 m -21 X s 339 236 m -21 X s 339 252 m -21 X s 339 268 m -21 X s 361 285 m -43 X s 339 301 m -21 X s 339 317 m -21 X s
 339 334 m -21 X s 339 350 m -21 X s 361 366 m -43 X s 339 382 m -21 X s 339 399 m -21 X s 339 415 m -21 X s 339 431 m -21 X s 361 447 m -43 X s 339 464 m -21 X s 339 480 m -21 X s 339 496 m -21 X s 339 512 m -21 X s 361 529 m -43 X s 361 203 m -43 X
 s 339 187 m -21 X s 361 529 m -43 X s
 gsave  2254 561 2 2 C 261.008 183.044 t 0 r /Helvetica findfont 57.777 sf 0 0 m (0) show NC gr 
 gsave  2254 561 2 2 C 213.552 261.008 t 0 r /Helvetica findfont 57.777 sf 0 0 m (0.5) show NC gr 
 gsave  2254 561 2 2 C 271.177 342.361 t 0 r /Helvetica findfont 57.777 sf 0 0 m (1) show NC gr 
 gsave  2254 561 2 2 C 213.552 423.714 t 0 r /Helvetica findfont 57.777 sf 0 0 m (1.5) show NC gr 
 gsave  2254 561 2 2 C 261.008 505.067 t 0 r /Helvetica findfont 57.777 sf 0 0 m (2) show NC gr  2178 187 m 358 Y s 2135 203 m 43 X s 2157 220 m 21 X s 2157 236 m 21 X s 2157 252 m 21 X s 2157 268 m 21 X s 2135 285 m 43 X s 2157 301 m 21 X s 2157 317
 m 21 X s 2157 334 m 21 X s 2157 350 m 21 X s 2135 366 m 43 X s 2157 382 m 21 X s 2157 399 m 21 X s 2157 415 m 21 X s 2157 431 m 21 X s 2135 447 m 43 X s 2157 464 m 21 X s 2157 480 m 21 X s 2157 496 m 21 X s 2157 512 m 21 X s 2135 529 m 43 X s 2135
 203 m 43 X s 2157 187 m 21 X s 2135 529 m 43 X s 9 lw 364 352 m 1 Y s 364 353 m cl s 364 325 m -1 Y s 364 324 m cl s 550 321 m 4 Y s 550 325 m cl s 550 294 m -4 Y s 550 290 m cl s 643 353 m 15 Y s 643 368 m cl s 643 326 m -15 Y s 643 311 m cl s 736
 381 m 31 Y s 736 412 m cl s 736 354 m -29 Y s 736 325 m cl s 829 323 m 43 Y s 829 366 m cl s 829 295 m -36 Y s 829 259 m cl s 923 302 m 56 Y s 923 358 m cl s 923 275 m -41 Y s 923 234 m cl s 1016 402 m 137 Y s 1016 539 m cl s 1016 375 m -106 Y s
 1016 269 m cl s 1109 545 m -147 Y s 1109 398 m cl s 3 lw 364 339 457 311 550 308 643 339 736 368 829 309 923 289 1016 389 8 { m20} R 9 lw 1 0 0 c 6 lw black 3 lw 1 0 0 c 2155 203 m cl s 2127 203 m cl s 2098 203 m cl s 2085 220 m -18 -18 d s 2085 248
 m -46 -46 d s 2085 277 m -75 -75 d s 2085 305 m -93 -92 d s 1983 203 m cl s 2085 334 m -93 -93 d s 1954 203 m cl s 2085 363 m -93 -93 d s 1926 203 m cl s 2085 391 m -93 -93 d s 1897 203 m cl s 2085 420 m -93 -93 d s 1868 203 m cl s 2085 448 m -93
 -92 d s 1840 203 m cl s 2085 477 m -93 -93 d s 1811 203 m cl s 2085 506 m -93 -93 d s 1806 227 m s 2082 531 m -90 -90 d s 1806 256 m s 2053 531 m -61 -61 d s 1806 285 m -15 -16 d s 2024 531 m -32 -32 d s 1806 313 m -44 -44 d s 1996 531 m -4 -4 d s
 1806 342 m -73 -73 d s 1806 370 m -106 -106 d s 1806 399 m -135 -135 d s 1806 428 m -164 -164 d s 1806 456 m -206 -205 d s 1784 463 m -213 -212 d s 1756 463 m -213 -212 d s 1727 463 m -200 -199 d s 1703 468 m -184 -183 d s 1675 468 m -184 -183 d s
 1646 468 m -184 -183 d s 1620 471 m -186 -186 d s 1602 481 m -168 -167 d s 1574 481 m -162 -160 d s 1545 481 m -18 -17 d s 1511 447 m -128 -126 d s 1482 447 m -127 -126 d s 1341 307 m -22 -22 d s 1453 447 m -19 -19 d s 1417 411 m -127 -126 d s 1388
 411 m -127 -126 d s 1360 411 m -122 -121 d s 1341 421 m -132 -131 d s 1339 447 m -159 -157 d s 1310 447 m -155 -154 d s 1281 447 m -126 -125 d s 1252 447 m -4 -4 d s 1247 442 m -114 -114 d s 1219 442 m -115 -114 d s 1190 442 m -35 -34 d s 1152 404 m
 -77 -76 d s 1161 442 m -6 -6 d s 1123 404 m -64 -63 d s 1094 404 m -64 -63 d s 1065 404 m -3 -3 d s 1053 392 m -51 -51 d s 1024 392 m -51 -51 d s 996 392 m -47 -46 d s 962 386 m -41 -40 d s 933 386 m -41 -40 d s 904 386 m -40 -39 d s 875 385 m -39
 -38 d s 846 385 m -39 -38 d s 817 385 m -36 -35 d s 789 385 m -36 -35 d s 757 383 m -33 -33 d s 728 383 m -33 -33 d s 700 383 m -32 -32 d s 670 381 m -31 -30 d s 641 381 m -31 -30 d s 612 381 m -28 -28 d s 581 379 m -25 -26 d s 552 379 m -25 -26 d s
 524 379 m -22 -22 d s 491 375 m -18 -18 d s 463 375 m -19 -18 d s 318 231 m s 434 375 m -18 -18 d s 318 259 m s 403 373 m -14 -14 d s 318 288 m s 375 373 m -15 -14 d s 318 317 m s 346 373 m -14 -14 d s 318 345 m s 6 lw black[ 4 8] 0 sd 3 lw 318 447
 m 1860 X s 318 285 m 1860 X s 1 0 0 c[  12 12 ] 0 sd 6 lw 318 366 m 1860 X s
 gr  gr showpage
end
%%EOF
