%!PS-Adobe-2.0 EPSF-2.0
%%BoundingBox:  0 0 567 521
%%Title: Distributions/met_distrCRW_MB-SSd_afterFit_forThesis.eps: canvas
%%Creator: ROOT Version 6.04/16
%%CreationDate: Tue May 19 22:01:15 2020
%%DocumentNeededResources: ProcSet (FontSetInit)
%%EndComments
%%BeginProlog
80 dict begin
/s {stroke} def /l {lineto} def /m {moveto} def /t {translate} def
/r {rotate} def /rl {roll}  def /R {repeat} def
/d {rlineto} def /rm {rmoveto} def /gr {grestore} def /f {eofill} def
/c {setrgbcolor} def /black {0 setgray} def /sd {setdash} def
/cl {closepath} def /sf {scalefont setfont} def /lw {setlinewidth} def
/box {m dup 0 exch d exch 0 d 0 exch neg d cl} def
/NC{systemdict begin initclip end}def/C{NC box clip newpath}def
/bl {box s} def /bf {gsave box gsave f grestore 1 lw [] 0 sd s grestore} def /Y { 0 exch d} def /X { 0 d} def 
/K {{pop pop 0 moveto} exch kshow} bind def
/ita {/ang 15 def gsave [1 0 ang dup sin exch cos div 1 0 0] concat} def 
/mp {newpath /y exch def /x exch def} def
/side {[w .77 mul w .23 mul] .385 w mul sd w 0 l currentpoint t -144 r} def
/mr {mp x y w2 0 360 arc} def /m24 {mr s} def /m20 {mr f} def
/mb {mp x y w2 add m w2 neg 0 d 0 w neg d w 0 d 0 w d cl} def
/mt {mp x y w2 add m w2 neg w neg d w 0 d cl} def
/m21 {mb f} def /m25 {mb s} def /m22 {mt f} def /m26{mt s} def
/m23 {mp x y w2 sub m w2 w d w neg 0 d cl f} def
/m27 {mp x y w2 add m w3 neg w2 neg d w3 w2 neg d w3 w2 d cl s} def
/m28 {mp x w2 sub y w2 sub w3 add m w3 0 d  0 w3 neg d w3 0 d 0 w3 d w3 0 d  0 w3 d w3 neg 0 d 0 w3 d w3 neg 0 d 0 w3 neg d w3 neg 0 d cl s } def
/m29 {mp gsave x w2 sub y w2 add w3 sub m currentpoint t 4 {side} repeat cl fill gr} def
/m30 {mp gsave x w2 sub y w2 add w3 sub m currentpoint t 4 {side} repeat cl s gr} def
/m31 {mp x y w2 sub m 0 w d x w2 sub y m w 0 d x w2 sub y w2 add m w w neg d x w2 sub y w2 sub m w w d s} def
/m32 {mp x y w2 sub m w2 w d w neg 0 d cl s} def
/m33 {mp x y w2 add m w3 neg w2 neg d w3 w2 neg d w3 w2 d cl f} def
/m34 {mp x w2 sub y w2 sub w3 add m w3 0 d  0 w3 neg d w3 0 d 0 w3 d w3 0 d  0 w3 d w3 neg 0 d 0 w3 d w3 neg 0 d 0 w3 neg d w3 neg 0 d cl f } def
/m2 {mp x y w2 sub m 0 w d x w2 sub y m w 0 d s} def
/m5 {mp x w2 sub y w2 sub m w w d x w2 sub y w2 add m w w neg d s} def
%%IncludeResource: ProcSet (FontSetInit)
%%IncludeResource: font Times-Roman
%%IncludeResource: font Times-Italic
%%IncludeResource: font Times-Bold
%%IncludeResource: font Times-BoldItalic
%%IncludeResource: font Helvetica
%%IncludeResource: font Helvetica-Oblique
%%IncludeResource: font Helvetica-Bold
%%IncludeResource: font Helvetica-BoldOblique
%%IncludeResource: font Courier
%%IncludeResource: font Courier-Oblique
%%IncludeResource: font Courier-Bold
%%IncludeResource: font Courier-BoldOblique
%%IncludeResource: font Symbol
%%IncludeResource: font ZapfDingbats
/reEncode {exch findfont dup length dict begin {1 index /FID eq  {pop pop} {def} ifelse } forall /Encoding exch def currentdict end dup /FontName get exch definefont pop } def [/Times-Bold /Times-Italic /Times-BoldItalic /Helvetica /Helvetica-Oblique
 /Helvetica-Bold /Helvetica-BoldOblique /Courier /Courier-Oblique /Courier-Bold /Courier-BoldOblique /Times-Roman /AvantGarde-Book /AvantGarde-BookOblique /AvantGarde-Demi /AvantGarde-DemiOblique /Bookman-Demi /Bookman-DemiItalic /Bookman-Light
 /Bookman-LightItalic /Helvetica-Narrow /Helvetica-Narrow-Bold /Helvetica-Narrow-BoldOblique /Helvetica-Narrow-Oblique /NewCenturySchlbk-Roman /NewCenturySchlbk-Bold /NewCenturySchlbk-BoldItalic /NewCenturySchlbk-Italic /Palatino-Bold
 /Palatino-BoldItalic /Palatino-Italic /Palatino-Roman ] {ISOLatin1Encoding reEncode } forall
%%EndProlog
%%BeginSetup
%%EndSetup
newpath  gsave  .25 .25 scale  gsave  0 0 t black[  ] 0 sd 3 lw 1 1 1 c 2268 2085 0 0 bf black 1 1 1 c 2263 1770 2 313 bf black 1 1 1 c black 1860 1145 319 584 bl 1 1 1 c black 1860 1145 319 584 bl 6 lw 1 1 1 c black 3 lw /w 33 def /w2 {w 2 div} def
 /w3 {w 3 div} def 366 1261 m20 6 lw 3 lw 459 1229 m20 6 lw 3 lw 552 1179 m20 6 lw 3 lw 645 1130 m20 6 lw 3 lw 738 1084 m20 6 lw 3 lw 831 1038 m20 6 lw 3 lw 924 1001 m20 6 lw 3 lw 1017 964 m20 6 lw 3 lw 1110 924 m20 6 lw 1203 882 m 1 Y s 3 lw 1203
 896 m20 6 lw 1296 804 m 15 Y s 1296 846 m 5 Y s 3 lw 1296 832 m20 6 lw 1389 759 m 27 Y s 1389 813 m 10 Y s 3 lw 1389 799 m20 6 lw 1482 687 m 58 Y s 1482 773 m 17 Y s 3 lw 1482 759 m20 6 lw 3 lw 319 584 m 1860 X s
 gsave  2263 1770 2 313 C 1949.08 355.92 t 0 r /Helvetica findfont 81.3741 sf 0 0 m ( [GeV]) show NC gr 
 gsave  2263 1770 2 313 C 1837.22 396.596 t 0 r /Helvetica findfont 54.2494 sf 0 0 m (miss) show NC gr 
 gsave  2263 1770 2 313 C 1837.22 332.192 t 0 r /Helvetica findfont 54.2494 sf 0 0 m (T) show NC gr 
 gsave  2263 1770 2 313 C 1786.38 355.92 t 0 r /Helvetica findfont 81.3741 sf 0 0 m (E) show NC gr  412 584 m cl s 459 584 m cl s 505 584 m cl s 552 584 m cl s 598 584 m cl s 645 584 m cl s 691 584 m cl s 738 584 m cl s 784 584 m cl s 831 584 m cl s
 877 584 m cl s 924 584 m cl s 970 584 m cl s 1017 584 m cl s 1063 584 m cl s 1110 584 m cl s 1156 584 m cl s 1203 584 m cl s 1249 584 m cl s 1296 584 m cl s 1342 584 m cl s 1389 584 m cl s 1435 584 m cl s 1482 584 m cl s 1528 584 m cl s 1575 584 m
 cl s 1621 584 m cl s 1668 584 m cl s 1714 584 m cl s 1761 584 m cl s 1807 584 m cl s 1854 584 m cl s 1900 584 m cl s 1947 584 m cl s 1993 584 m cl s 2040 584 m cl s 2086 584 m cl s 412 584 m cl s 366 584 m cl s 319 584 m cl s 2086 584 m cl s 2133
 584 m cl s 2179 584 m cl s 319 1729 m 1860 X s 412 1729 m cl s 459 1729 m cl s 505 1729 m cl s 552 1729 m cl s 598 1729 m cl s 645 1729 m cl s 691 1729 m cl s 738 1729 m cl s 784 1729 m cl s 831 1729 m cl s 877 1729 m cl s 924 1729 m cl s 970 1729 m
 cl s 1017 1729 m cl s 1063 1729 m cl s 1110 1729 m cl s 1156 1729 m cl s 1203 1729 m cl s 1249 1729 m cl s 1296 1729 m cl s 1342 1729 m cl s 1389 1729 m cl s 1435 1729 m cl s 1482 1729 m cl s 1528 1729 m cl s 1575 1729 m cl s 1621 1729 m cl s 1668
 1729 m cl s 1714 1729 m cl s 1761 1729 m cl s 1807 1729 m cl s 1854 1729 m cl s 1900 1729 m cl s 1947 1729 m cl s 1993 1729 m cl s 2040 1729 m cl s 2086 1729 m cl s 412 1729 m cl s 366 1729 m cl s 319 1729 m cl s 2086 1729 m cl s 2133 1729 m cl s
 2179 1729 m cl s 319 584 m 1145 Y s
 gsave  2263 1770 2 313 C 166.096 1091.49 t 90 r /Helvetica findfont 81.3741 sf 0 0 m (Events / 100 GeV) show NC gr  341 625 m -22 X s 341 648 m -22 X s 341 665 m -22 X s 341 678 m -22 X s 341 689 m -22 X s 341 698 m -22 X s 341 706 m -22 X s 341 712
 m -22 X s 363 719 m -44 X s
 gsave  2263 1770 2 313 C 300.555 691.503 t 0 r  -36 0 t /Helvetica findfont 64.4212 sf 0 0 m (1) show NC gr  341 759 m -22 X s 341 783 m -22 X s 341 799 m -22 X s 341 812 m -22 X s 341 823 m -22 X s 341 832 m -22 X s 341 840 m -22 X s 341 847 m -22
 X s 363 853 m -44 X s
 gsave  2263 1770 2 313 C 300.555 825.813 t 0 r  -73 0 t /Helvetica findfont 64.4212 sf 0 0 m (10) show NC gr  341 893 m -22 X s 341 917 m -22 X s 341 934 m -22 X s 341 947 m -22 X s 341 957 m -22 X s 341 966 m -22 X s 341 974 m -22 X s 341 981 m -22
 X s 363 987 m -44 X s
 gsave  2263 1770 2 313 C 274.567 986.406 t 0 r /Helvetica findfont 44.0776 sf 0 0 m (2) show NC gr 
 gsave  2263 1770 2 313 C 203.383 959.288 t 0 r /Helvetica findfont 64.4212 sf 0 0 m (10) show NC gr  341 1028 m -22 X s 341 1051 m -22 X s 341 1068 m -22 X s 341 1081 m -22 X s 341 1092 m -22 X s 341 1101 m -22 X s 341 1109 m -22 X s 341 1115 m -22
 X s 363 1122 m -44 X s
 gsave  2263 1770 2 313 C 274.567 1121.99 t 0 r /Helvetica findfont 44.0776 sf 0 0 m (3) show NC gr 
 gsave  2263 1770 2 313 C 203.383 1091.49 t 0 r /Helvetica findfont 64.4212 sf 0 0 m (10) show NC gr  341 1162 m -22 X s 341 1186 m -22 X s 341 1202 m -22 X s 341 1215 m -22 X s 341 1226 m -22 X s 341 1235 m -22 X s 341 1243 m -22 X s 341 1250 m -22
 X s 363 1256 m -44 X s
 gsave  2263 1770 2 313 C 274.567 1254.19 t 0 r /Helvetica findfont 44.0776 sf 0 0 m (4) show NC gr 
 gsave  2263 1770 2 313 C 203.383 1227.08 t 0 r /Helvetica findfont 64.4212 sf 0 0 m (10) show NC gr  341 1296 m -22 X s 341 1320 m -22 X s 341 1337 m -22 X s 341 1350 m -22 X s 341 1360 m -22 X s 341 1369 m -22 X s 341 1377 m -22 X s 341 1384 m -22
 X s 363 1390 m -44 X s
 gsave  2263 1770 2 313 C 274.567 1393.17 t 0 r /Helvetica findfont 44.0776 sf 0 0 m (5) show NC gr 
 gsave  2263 1770 2 313 C 203.383 1362.66 t 0 r /Helvetica findfont 64.4212 sf 0 0 m (10) show NC gr  341 1431 m -22 X s 341 1454 m -22 X s 341 1471 m -22 X s 341 1484 m -22 X s 341 1495 m -22 X s 341 1504 m -22 X s 341 1511 m -22 X s 341 1518 m -22
 X s 363 1524 m -44 X s
 gsave  2263 1770 2 313 C 274.567 1525.37 t 0 r /Helvetica findfont 44.0776 sf 0 0 m (6) show NC gr 
 gsave  2263 1770 2 313 C 203.383 1494.86 t 0 r /Helvetica findfont 64.4212 sf 0 0 m (10) show NC gr  341 1565 m -22 X s 341 1589 m -22 X s 341 1605 m -22 X s 341 1618 m -22 X s 341 1629 m -22 X s 341 1638 m -22 X s 341 1646 m -22 X s 341 1653 m -22
 X s 363 1659 m -44 X s
 gsave  2263 1770 2 313 C 274.567 1657.57 t 0 r /Helvetica findfont 44.0776 sf 0 0 m (7) show NC gr 
 gsave  2263 1770 2 313 C 203.383 1630.45 t 0 r /Helvetica findfont 64.4212 sf 0 0 m (10) show NC gr  341 1699 m -22 X s 341 1723 m -22 X s 2179 584 m 1145 Y s 2157 625 m 22 X s 2157 648 m 22 X s 2157 665 m 22 X s 2157 678 m 22 X s 2157 689 m 22 X s
 2157 698 m 22 X s 2157 706 m 22 X s 2157 712 m 22 X s 2136 719 m 43 X s 2157 759 m 22 X s 2157 783 m 22 X s 2157 799 m 22 X s 2157 812 m 22 X s 2157 823 m 22 X s 2157 832 m 22 X s 2157 840 m 22 X s 2157 847 m 22 X s 2136 853 m 43 X s 2157 893 m 22 X
 s 2157 917 m 22 X s 2157 934 m 22 X s 2157 947 m 22 X s 2157 957 m 22 X s 2157 966 m 22 X s 2157 974 m 22 X s 2157 981 m 22 X s 2136 987 m 43 X s 2157 1028 m 22 X s 2157 1051 m 22 X s 2157 1068 m 22 X s 2157 1081 m 22 X s 2157 1092 m 22 X s 2157
 1101 m 22 X s 2157 1109 m 22 X s 2157 1115 m 22 X s 2136 1122 m 43 X s 2157 1162 m 22 X s 2157 1186 m 22 X s 2157 1202 m 22 X s 2157 1215 m 22 X s 2157 1226 m 22 X s 2157 1235 m 22 X s 2157 1243 m 22 X s 2157 1250 m 22 X s 2136 1256 m 43 X s 2157
 1296 m 22 X s 2157 1320 m 22 X s 2157 1337 m 22 X s 2157 1350 m 22 X s 2157 1360 m 22 X s 2157 1369 m 22 X s 2157 1377 m 22 X s 2157 1384 m 22 X s 2136 1390 m 43 X s 2157 1431 m 22 X s 2157 1454 m 22 X s 2157 1471 m 22 X s 2157 1484 m 22 X s 2157
 1495 m 22 X s 2157 1504 m 22 X s 2157 1511 m 22 X s 2157 1518 m 22 X s 2136 1524 m 43 X s 2157 1565 m 22 X s 2157 1589 m 22 X s 2157 1605 m 22 X s 2157 1618 m 22 X s 2157 1629 m 22 X s 2157 1638 m 22 X s 2157 1646 m 22 X s 2157 1653 m 22 X s 2136
 1659 m 43 X s 2157 1699 m 22 X s 2157 1723 m 22 X s 0.4 0.6 1 c black 0.4 0.6 1 c 319 584 m 678 Y 93 X -33 Y 93 X -50 Y 93 X -52 Y 93 X -44 Y 93 X -45 Y 93 X -40 Y 93 X -41 Y 93 X -41 Y 93 X -35 Y 93 X -38 Y 93 X -33 Y 93 X -43 Y 93 X -27 Y 93 X -56
 Y 93 X 3 Y 93 X -82 Y 93 X -21 Y 279 X f black 0.4 0.6 1 c black 319 1262 m 93 X -33 Y 93 X -50 Y 93 X -52 Y 93 X -44 Y 93 X -45 Y 93 X -40 Y 93 X -41 Y 93 X -41 Y 93 X -35 Y 93 X -38 Y 93 X -33 Y 93 X -43 Y 93 X -27 Y 93 X -56 Y 93 X 3 Y 93 X -82 Y
 93 X -21 Y 279 X s 0.999 0.999 0.999 c black 0.999 0.999 0.999 c 319 584 m 577 Y 93 X -41 Y 93 X -56 Y 93 X -56 Y 93 X -50 Y 93 X -54 Y 93 X -34 Y 93 X -45 Y 93 X -29 Y 93 X -32 Y 93 X -48 Y 93 X -59 Y 93 X -45 Y 93 X -28 Y 651 X f black 0.999 0.999
 0.999 c black 319 1161 m 93 X -41 Y 93 X -56 Y 93 X -56 Y 93 X -50 Y 93 X -54 Y 93 X -34 Y 93 X -45 Y 93 X -29 Y 93 X -32 Y 93 X -48 Y 93 X -59 Y 93 X -45 Y 93 X -28 Y 651 X s 1 1 1 c black 319 1161 m 93 X -41 Y 93 X -56 Y 93 X -56 Y 93 X -50 Y 93 X
 -54 Y 93 X -34 Y 93 X -45 Y 93 X -29 Y 93 X -32 Y 93 X -48 Y 93 X -59 Y 93 X -45 Y 93 X -28 Y 651 X s 0.6 1 0.6 c black 0.6 1 0.6 c 319 584 m 577 Y 93 X -41 Y 93 X -56 Y 93 X -56 Y 93 X -50 Y 93 X -54 Y 93 X -34 Y 93 X -45 Y 93 X -29 Y 93 X -32 Y 93
 X -48 Y 93 X -59 Y 93 X -45 Y 93 X -28 Y 651 X f black 0.6 1 0.6 c black 319 1161 m 93 X -41 Y 93 X -56 Y 93 X -56 Y 93 X -50 Y 93 X -54 Y 93 X -34 Y 93 X -45 Y 93 X -29 Y 93 X -32 Y 93 X -48 Y 93 X -59 Y 93 X -45 Y 93 X -28 Y 651 X s 0.999 0.999
 0.999 c black 0.999 0.999 0.999 c 319 584 m 512 Y 93 X -26 Y 93 X -46 Y 93 X -46 Y 93 X -48 Y 93 X -47 Y 93 X -31 Y 93 X -35 Y 93 X -37 Y 93 X -23 Y 93 X -50 Y 93 X -54 Y 93 X -69 Y 744 X f black 0.999 0.999 0.999 c black 319 1096 m 93 X -26 Y 93 X
 -46 Y 93 X -46 Y 93 X -48 Y 93 X -47 Y 93 X -31 Y 93 X -35 Y 93 X -37 Y 93 X -23 Y 93 X -50 Y 93 X -54 Y 93 X -69 Y 744 X s 1 1 1 c black 319 1096 m 93 X -26 Y 93 X -46 Y 93 X -46 Y 93 X -48 Y 93 X -47 Y 93 X -31 Y 93 X -35 Y 93 X -37 Y 93 X -23 Y
 93 X -50 Y 93 X -54 Y 93 X -69 Y 744 X s 1 0.8 0.4 c black 1 0.8 0.4 c 319 584 m 512 Y 93 X -26 Y 93 X -46 Y 93 X -46 Y 93 X -48 Y 93 X -47 Y 93 X -31 Y 93 X -35 Y 93 X -37 Y 93 X -23 Y 93 X -50 Y 93 X -54 Y 93 X -69 Y 744 X f black 1 0.8 0.4 c
 black 319 1096 m 93 X -26 Y 93 X -46 Y 93 X -46 Y 93 X -48 Y 93 X -47 Y 93 X -31 Y 93 X -35 Y 93 X -37 Y 93 X -23 Y 93 X -50 Y 93 X -54 Y 93 X -69 Y 744 X s 0.999 0.999 0.999 c black 0.999 0.999 0.999 c 319 584 m 505 Y 93 X -26 Y 93 X -44 Y 93 X -47
 Y 93 X -47 Y 93 X -46 Y 93 X -32 Y 93 X -36 Y 93 X -34 Y 93 X -23 Y 93 X -51 Y 93 X -53 Y 93 X -66 Y 744 X f black 0.999 0.999 0.999 c black 319 1089 m 93 X -26 Y 93 X -44 Y 93 X -47 Y 93 X -47 Y 93 X -46 Y 93 X -32 Y 93 X -36 Y 93 X -34 Y 93 X -23
 Y 93 X -51 Y 93 X -53 Y 93 X -66 Y 744 X s 1 1 1 c black 319 1089 m 93 X -26 Y 93 X -44 Y 93 X -47 Y 93 X -47 Y 93 X -46 Y 93 X -32 Y 93 X -36 Y 93 X -34 Y 93 X -23 Y 93 X -51 Y 93 X -53 Y 93 X -66 Y 744 X s 1 0.4 0.6 c black 1 0.4 0.6 c 319 584 m
 505 Y 93 X -26 Y 93 X -44 Y 93 X -47 Y 93 X -47 Y 93 X -46 Y 93 X -32 Y 93 X -36 Y 93 X -34 Y 93 X -23 Y 93 X -51 Y 93 X -53 Y 93 X -66 Y 744 X f black 1 0.4 0.6 c black 319 1089 m 93 X -26 Y 93 X -44 Y 93 X -47 Y 93 X -47 Y 93 X -46 Y 93 X -32 Y 93
 X -36 Y 93 X -34 Y 93 X -23 Y 93 X -51 Y 93 X -53 Y 93 X -66 Y 744 X s 1 0 0 c 6 lw 1 1 1 c black 1 0 0 c 319 1262 m 93 X -33 Y 93 X -50 Y 93 X -52 Y 93 X -44 Y 93 X -45 Y 93 X -40 Y 93 X -41 Y 93 X -41 Y 93 X -35 Y 93 X -38 Y 93 X -33 Y 93 X -43 Y
 93 X -27 Y 93 X -56 Y 93 X 3 Y 93 X -82 Y 93 X -21 Y 279 X s black 3 lw 1 0 0 c 1 lw << /PatternType 1 /PaintType 2 /TilingType 1 /BBox [ 0 0 100 100 ] /XStep 100 /YStep 100 /PaintProc { begin gsave 0 100 m 100 0 l s gr end } >> [ 0.24 0 0 0.24 0 0
 ] makepattern /P05 exch def /cs {[/Pattern /DeviceRGB] setcolorspace} def /FA {f [/DeviceRGB] setcolorspace} def cs 1 0 0 P05 setcolor 319 584 m 678 Y 93 X -33 Y 93 X -49 Y 93 X -52 Y 93 X -44 Y 93 X -44 Y 93 X -41 Y 93 X -40 Y 93 X -40 Y 93 X -34 Y
 93 X -38 Y 93 X -31 Y 93 X -40 Y 93 X -28 Y 93 X -52 Y 93 X 6 Y 93 X -76 Y 93 X -19 Y 93 X -23 Y -186 X 82 Y -93 X 3 Y -93 X 62 Y -93 X 26 Y -93 X 47 Y -93 X 34 Y -93 X 39 Y -93 X 35 Y -93 X 43 Y -93 X 41 Y -93 X 41 Y -93 X 45 Y -93 X 43 Y -93 X 54
 Y -93 X 50 Y -93 X 32 Y -93 X -677 Y FA 6 lw 1 1 1 c 15 lw 1296 812 m -7 Y s 1296 805 m cl s 1389 820 m 5 Y s 1389 825 m cl s 1389 779 m -17 Y s 1389 762 m cl s 1482 779 m 15 Y s 1482 794 m cl s 1482 739 m -40 Y s 1482 699 m cl s black 1 1 1 c 3 lw
 /w 43 def /w2 {w 2 div} def /w3 {w 3 div} def 366 1261 459 1229 552 1179 645 1130 738 1084 831 1038 924 1001 1017 964 1110 924 1203 896 1296 832 1389 799 1482 759 13 { m20} R 15 lw black 6 lw 1 1 1 c black 3 lw /w 33 def /w2 {w 2 div} def /w3 {w 3
 div} def 366 1261 m20 6 lw 3 lw 459 1229 m20 6 lw 3 lw 552 1179 m20 6 lw 3 lw 645 1130 m20 6 lw 3 lw 738 1084 m20 6 lw 3 lw 831 1038 m20 6 lw 3 lw 924 1001 m20 6 lw 3 lw 1017 964 m20 6 lw 3 lw 1110 924 m20 6 lw 1203 882 m 1 Y s 3 lw 1203 896 m20 6
 lw 1296 804 m 15 Y s 1296 846 m 5 Y s 3 lw 1296 832 m20 6 lw 1389 759 m 27 Y s 1389 813 m 10 Y s 3 lw 1389 799 m20 6 lw 1482 687 m 58 Y s 1482 773 m 17 Y s 3 lw 1482 759 m20 6 lw 1203 883 m -1 Y s 1203 882 m cl s 1296 846 m 5 Y s 1296 851 m cl s
 1296 819 m -14 Y s 1296 805 m cl s 1389 813 m 12 Y s 1389 825 m cl s 1389 786 m -24 Y s 1389 762 m cl s 1482 773 m 21 Y s 1482 794 m cl s 1482 745 m -46 Y s 1482 699 m cl s 3 lw 366 1261 459 1229 552 1179 645 1130 738 1084 831 1038 924 1001 1017 964
 1110 924 1203 896 1296 832 1389 799 1482 759 13 { m20} R 6 lw 3 lw 319 584 m 1860 X s 412 584 m cl s 459 584 m cl s 505 584 m cl s 552 584 m cl s 598 584 m cl s 645 584 m cl s 691 584 m cl s 738 584 m cl s 784 584 m cl s 831 584 m cl s 877 584 m cl
 s 924 584 m cl s 970 584 m cl s 1017 584 m cl s 1063 584 m cl s 1110 584 m cl s 1156 584 m cl s 1203 584 m cl s 1249 584 m cl s 1296 584 m cl s 1342 584 m cl s 1389 584 m cl s 1435 584 m cl s 1482 584 m cl s 1528 584 m cl s 1575 584 m cl s 1621 584
 m cl s 1668 584 m cl s 1714 584 m cl s 1761 584 m cl s 1807 584 m cl s 1854 584 m cl s 1900 584 m cl s 1947 584 m cl s 1993 584 m cl s 2040 584 m cl s 2086 584 m cl s 412 584 m cl s 366 584 m cl s 319 584 m cl s 2086 584 m cl s 2133 584 m cl s 2179
 584 m cl s 319 1729 m 1860 X s 412 1729 m cl s 459 1729 m cl s 505 1729 m cl s 552 1729 m cl s 598 1729 m cl s 645 1729 m cl s 691 1729 m cl s 738 1729 m cl s 784 1729 m cl s 831 1729 m cl s 877 1729 m cl s 924 1729 m cl s 970 1729 m cl s 1017 1729
 m cl s 1063 1729 m cl s 1110 1729 m cl s 1156 1729 m cl s 1203 1729 m cl s 1249 1729 m cl s 1296 1729 m cl s 1342 1729 m cl s 1389 1729 m cl s 1435 1729 m cl s 1482 1729 m cl s 1528 1729 m cl s 1575 1729 m cl s 1621 1729 m cl s 1668 1729 m cl s 1714
 1729 m cl s 1761 1729 m cl s 1807 1729 m cl s 1854 1729 m cl s 1900 1729 m cl s 1947 1729 m cl s 1993 1729 m cl s 2040 1729 m cl s 2086 1729 m cl s 412 1729 m cl s 366 1729 m cl s 319 1729 m cl s 2086 1729 m cl s 2133 1729 m cl s 2179 1729 m cl s
 319 584 m 1145 Y s 341 625 m -22 X s 341 648 m -22 X s 341 665 m -22 X s 341 678 m -22 X s 341 689 m -22 X s 341 698 m -22 X s 341 706 m -22 X s 341 712 m -22 X s 363 719 m -44 X s 341 759 m -22 X s 341 783 m -22 X s 341 799 m -22 X s 341 812 m -22
 X s 341 823 m -22 X s 341 832 m -22 X s 341 840 m -22 X s 341 847 m -22 X s 363 853 m -44 X s 341 893 m -22 X s 341 917 m -22 X s 341 934 m -22 X s 341 947 m -22 X s 341 957 m -22 X s 341 966 m -22 X s 341 974 m -22 X s 341 981 m -22 X s 363 987 m
 -44 X s 341 1028 m -22 X s 341 1051 m -22 X s 341 1068 m -22 X s 341 1081 m -22 X s 341 1092 m -22 X s 341 1101 m -22 X s 341 1109 m -22 X s 341 1115 m -22 X s 363 1122 m -44 X s 341 1162 m -22 X s 341 1186 m -22 X s 341 1202 m -22 X s 341 1215 m
 -22 X s 341 1226 m -22 X s 341 1235 m -22 X s 341 1243 m -22 X s 341 1250 m -22 X s 363 1256 m -44 X s 341 1296 m -22 X s 341 1320 m -22 X s 341 1337 m -22 X s 341 1350 m -22 X s 341 1360 m -22 X s 341 1369 m -22 X s 341 1377 m -22 X s 341 1384 m
 -22 X s 363 1390 m -44 X s 341 1431 m -22 X s 341 1454 m -22 X s 341 1471 m -22 X s 341 1484 m -22 X s 341 1495 m -22 X s 341 1504 m -22 X s 341 1511 m -22 X s 341 1518 m -22 X s 363 1524 m -44 X s 341 1565 m -22 X s 341 1589 m -22 X s 341 1605 m
 -22 X s 341 1618 m -22 X s 341 1629 m -22 X s 341 1638 m -22 X s 341 1646 m -22 X s 341 1653 m -22 X s 363 1659 m -44 X s 341 1699 m -22 X s 341 1723 m -22 X s 2179 584 m 1145 Y s 2157 625 m 22 X s 2157 648 m 22 X s 2157 665 m 22 X s 2157 678 m 22 X
 s 2157 689 m 22 X s 2157 698 m 22 X s 2157 706 m 22 X s 2157 712 m 22 X s 2136 719 m 43 X s 2157 759 m 22 X s 2157 783 m 22 X s 2157 799 m 22 X s 2157 812 m 22 X s 2157 823 m 22 X s 2157 832 m 22 X s 2157 840 m 22 X s 2157 847 m 22 X s 2136 853 m 43
 X s 2157 893 m 22 X s 2157 917 m 22 X s 2157 934 m 22 X s 2157 947 m 22 X s 2157 957 m 22 X s 2157 966 m 22 X s 2157 974 m 22 X s 2157 981 m 22 X s 2136 987 m 43 X s 2157 1028 m 22 X s 2157 1051 m 22 X s 2157 1068 m 22 X s 2157 1081 m 22 X s 2157
 1092 m 22 X s 2157 1101 m 22 X s 2157 1109 m 22 X s 2157 1115 m 22 X s 2136 1122 m 43 X s 2157 1162 m 22 X s 2157 1186 m 22 X s 2157 1202 m 22 X s 2157 1215 m 22 X s 2157 1226 m 22 X s 2157 1235 m 22 X s 2157 1243 m 22 X s 2157 1250 m 22 X s 2136
 1256 m 43 X s 2157 1296 m 22 X s 2157 1320 m 22 X s 2157 1337 m 22 X s 2157 1350 m 22 X s 2157 1360 m 22 X s 2157 1369 m 22 X s 2157 1377 m 22 X s 2157 1384 m 22 X s 2136 1390 m 43 X s 2157 1431 m 22 X s 2157 1454 m 22 X s 2157 1471 m 22 X s 2157
 1484 m 22 X s 2157 1495 m 22 X s 2157 1504 m 22 X s 2157 1511 m 22 X s 2157 1518 m 22 X s 2136 1524 m 43 X s 2157 1565 m 22 X s 2157 1589 m 22 X s 2157 1605 m 22 X s 2157 1618 m 22 X s 2157 1629 m 22 X s 2157 1638 m 22 X s 2157 1646 m 22 X s 2157
 1653 m 22 X s 2136 1659 m 43 X s 2157 1699 m 22 X s 2157 1723 m 22 X s
 gsave  2263 1770 2 313 C 406.765 1447.41 t 0 r /Helvetica findfont 64.4212 sf 0 0 m (CRW for MB\255SSd) show NC gr 
 gsave  2263 1770 2 313 C 1464.36 1616.89 t 0 r /Helvetica findfont 64.4212 sf 0 0 m (SM Total) show NC gr  1 1 1 c 1338 1603 m 107 X 74 Y -107 X f 1 0 0 c 6 lw 1338 1640 m 107 X s black
 gsave  2263 1770 2 313 C 1464.36 1511.81 t 0 r /Helvetica findfont 64.4212 sf 0 0 m (Data) show NC gr  1391 1502 m 64 Y s 3 lw 1391 1534 m20 6 lw
 gsave  2263 1770 2 313 C 1464.36 1406.73 t 0 r /Helvetica findfont 64.4212 sf 0 0 m (W+jets) show NC gr  0.4 0.6 1 c 3 lw 1338 1391 m 107 X 74 Y -107 X f 6 lw black 3 lw 1338 1465 m 107 X s 1338 1391 m 107 X s 1445 1391 m 74 Y s 1338 1391 m 74 Y s
 gsave  2263 1770 2 313 C 1498.25 1298.26 t 0 r /Helvetica findfont 64.4212 sf 0 0 m (\(+EW\) & single top) show NC gr 
 gsave  2263 1770 2 313 C 1481.3 1298.26 t 0 r /Helvetica findfont 64.4212 sf 0 0 m (t) show NC gr  1481 1349 m 17 X s
 gsave  2263 1770 2 313 C 1464.36 1298.26 t 0 r /Helvetica findfont 64.4212 sf 0 0 m (t) show NC gr  0.6 1 0.6 c 1338 1284 m 107 X 75 Y -107 X f black 1338 1359 m 107 X s 1338 1284 m 107 X s 1445 1284 m 75 Y s 1338 1284 m 75 Y s
 gsave  2263 1770 2 313 C 1464.36 1193.18 t 0 r /Helvetica findfont 64.4212 sf 0 0 m (Z+jets) show NC gr  1 0.8 0.4 c 1338 1178 m 107 X 75 Y -107 X f black 1338 1253 m 107 X s 1338 1178 m 107 X s 1445 1178 m 75 Y s 1338 1178 m 75 Y s
 gsave  2263 1770 2 313 C 1464.36 1088.1 t 0 r /Helvetica findfont 64.4212 sf 0 0 m (Diboson) show NC gr  1 0.4 0.6 c 1338 1072 m 107 X 74 Y -107 X f black 1338 1146 m 107 X s 1338 1072 m 107 X s 1445 1072 m 74 Y s 1338 1072 m 74 Y s
 gsave  2263 1770 2 313 C 911.832 1566.05 t 0 r /Helvetica findfont 44.0776 sf 0 0 m (\2551) show NC gr 
 gsave  2263 1770 2 313 C 471.17 1535.54 t 0 r /Helvetica findfont 64.4212 sf 0 0 m (=13TeV, 139 fb) show NC gr 
 gsave  2263 1770 2 313 C 440.662 1535.54 t 0 r /Helvetica findfont 64.4212 sf 0 0 m (s) show NC gr  6 lw 420 1573 m 7 -41 d s 3 lw 427 1532 m 7 61 d s 434 1593 m 37 X s 1 1 1 c 2254 561 2 2 bf black 1 1 1 c black 1860 358 318 187 bl 1 1 1 c black
 1860 358 318 187 bl 6 lw 1 1 1 c black 3 lw 364 365 m20 6 lw 3 lw 457 367 m20 6 lw 3 lw 550 364 m20 6 lw 3 lw 643 375 m20 6 lw 3 lw 736 367 m20 6 lw 3 lw 829 365 m20 6 lw 3 lw 923 375 m20 6 lw 3 lw 1016 387 m20 6 lw 3 lw 1109 392 m20 6 lw 3 lw 1202
 413 m20 6 lw 3 lw 1295 339 m20 6 lw 3 lw 1388 339 m20 6 lw 3 lw 1481 344 m20 6 lw 3 lw 318 187 m 1860 X s
 gsave  2254 561 2 2 C 1959.25 27.1177 t 0 r /Helvetica findfont 78.1689 sf 0 0 m ( [GeV]) show NC gr 
 gsave  2254 561 2 2 C 1854.17 64.4045 t 0 r /Helvetica findfont 50.9797 sf 0 0 m (miss) show NC gr 
 gsave  2254 561 2 2 C 1854.17 3.38971 t 0 r /Helvetica findfont 50.9797 sf 0 0 m (T) show NC gr 
 gsave  2254 561 2 2 C 1803.33 27.1177 t 0 r /Helvetica findfont 78.1689 sf 0 0 m (E) show NC gr  411 201 m -14 Y s 457 194 m -7 Y s 504 194 m -7 Y s 550 194 m -7 Y s 597 201 m -14 Y s 643 194 m -7 Y s 690 194 m -7 Y s 736 194 m -7 Y s 783 201 m -14
 Y s 829 194 m -7 Y s 876 194 m -7 Y s 923 194 m -7 Y s 969 201 m -14 Y s 1016 194 m -7 Y s 1062 194 m -7 Y s 1109 194 m -7 Y s 1155 201 m -14 Y s 1202 194 m -7 Y s 1248 194 m -7 Y s 1295 194 m -7 Y s 1341 201 m -14 Y s 1388 194 m -7 Y s 1434 194 m
 -7 Y s 1481 194 m -7 Y s 1527 201 m -14 Y s 1574 194 m -7 Y s 1620 194 m -7 Y s 1667 194 m -7 Y s 1713 201 m -14 Y s 1760 194 m -7 Y s 1806 194 m -7 Y s 1853 194 m -7 Y s 1899 201 m -14 Y s 1946 194 m -7 Y s 1992 194 m -7 Y s 2039 194 m -7 Y s 2085
 201 m -14 Y s 411 201 m -14 Y s 364 194 m -7 Y s 318 194 m -7 Y s 2085 201 m -14 Y s 2132 194 m -7 Y s
 gsave  2254 561 2 2 C 345.75 118.64 t 0 r /Helvetica findfont 78.1689 sf 0 0 m (400) show NC gr 
 gsave  2254 561 2 2 C 532.185 118.64 t 0 r /Helvetica findfont 78.1689 sf 0 0 m (600) show NC gr 
 gsave  2254 561 2 2 C 715.229 118.64 t 0 r /Helvetica findfont 78.1689 sf 0 0 m (800) show NC gr 
 gsave  2254 561 2 2 C 877.935 118.64 t 0 r /Helvetica findfont 78.1689 sf 0 0 m (1000) show NC gr 
 gsave  2254 561 2 2 C 1064.37 118.64 t 0 r /Helvetica findfont 78.1689 sf 0 0 m (1200) show NC gr 
 gsave  2254 561 2 2 C 1250.8 118.64 t 0 r /Helvetica findfont 78.1689 sf 0 0 m (1400) show NC gr 
 gsave  2254 561 2 2 C 1437.24 118.64 t 0 r /Helvetica findfont 78.1689 sf 0 0 m (1600) show NC gr 
 gsave  2254 561 2 2 C 1623.67 118.64 t 0 r /Helvetica findfont 78.1689 sf 0 0 m (1800) show NC gr 
 gsave  2254 561 2 2 C 1810.11 118.64 t 0 r /Helvetica findfont 78.1689 sf 0 0 m (2000) show NC gr 
 gsave  2254 561 2 2 C 1996.54 118.64 t 0 r /Helvetica findfont 78.1689 sf 0 0 m (2200) show NC gr  318 545 m 1860 X s 411 531 m 14 Y s 457 538 m 7 Y s 504 538 m 7 Y s 550 538 m 7 Y s 597 531 m 14 Y s 643 538 m 7 Y s 690 538 m 7 Y s 736 538 m 7 Y s
 783 531 m 14 Y s 829 538 m 7 Y s 876 538 m 7 Y s 923 538 m 7 Y s 969 531 m 14 Y s 1016 538 m 7 Y s 1062 538 m 7 Y s 1109 538 m 7 Y s 1155 531 m 14 Y s 1202 538 m 7 Y s 1248 538 m 7 Y s 1295 538 m 7 Y s 1341 531 m 14 Y s 1388 538 m 7 Y s 1434 538 m 7
 Y s 1481 538 m 7 Y s 1527 531 m 14 Y s 1574 538 m 7 Y s 1620 538 m 7 Y s 1667 538 m 7 Y s 1713 531 m 14 Y s 1760 538 m 7 Y s 1806 538 m 7 Y s 1853 538 m 7 Y s 1899 531 m 14 Y s 1946 538 m 7 Y s 1992 538 m 7 Y s 2039 538 m 7 Y s 2085 531 m 14 Y s 411
 531 m 14 Y s 364 538 m 7 Y s 318 538 m 7 Y s 2085 531 m 14 Y s 2132 538 m 7 Y s 318 187 m 358 Y s
 gsave  2254 561 2 2 C 166.096 284.736 t 90 r /Helvetica findfont 67.9729 sf 0 0 m (Data/SM) show NC gr  361 203 m -43 X s 339 220 m -21 X s 339 236 m -21 X s 339 252 m -21 X s 339 268 m -21 X s 361 285 m -43 X s 339 301 m -21 X s 339 317 m -21 X s
 339 334 m -21 X s 339 350 m -21 X s 361 366 m -43 X s 339 382 m -21 X s 339 399 m -21 X s 339 415 m -21 X s 339 431 m -21 X s 361 447 m -43 X s 339 464 m -21 X s 339 480 m -21 X s 339 496 m -21 X s 339 512 m -21 X s 361 529 m -43 X s 361 203 m -43 X
 s 339 187 m -21 X s 361 529 m -43 X s
 gsave  2254 561 2 2 C 261.008 183.044 t 0 r /Helvetica findfont 57.777 sf 0 0 m (0) show NC gr 
 gsave  2254 561 2 2 C 213.552 261.008 t 0 r /Helvetica findfont 57.777 sf 0 0 m (0.5) show NC gr 
 gsave  2254 561 2 2 C 271.177 342.361 t 0 r /Helvetica findfont 57.777 sf 0 0 m (1) show NC gr 
 gsave  2254 561 2 2 C 213.552 423.714 t 0 r /Helvetica findfont 57.777 sf 0 0 m (1.5) show NC gr 
 gsave  2254 561 2 2 C 261.008 505.067 t 0 r /Helvetica findfont 57.777 sf 0 0 m (2) show NC gr  2178 187 m 358 Y s 2135 203 m 43 X s 2157 220 m 21 X s 2157 236 m 21 X s 2157 252 m 21 X s 2157 268 m 21 X s 2135 285 m 43 X s 2157 301 m 21 X s 2157 317
 m 21 X s 2157 334 m 21 X s 2157 350 m 21 X s 2135 366 m 43 X s 2157 382 m 21 X s 2157 399 m 21 X s 2157 415 m 21 X s 2157 431 m 21 X s 2135 447 m 43 X s 2157 464 m 21 X s 2157 480 m 21 X s 2157 496 m 21 X s 2157 512 m 21 X s 2135 529 m 43 X s 2135
 203 m 43 X s 2157 187 m 21 X s 2135 529 m 43 X s 9 lw 923 388 m 2 Y s 923 390 m cl s 923 361 m -1 Y s 923 360 m cl s 1016 401 m 9 Y s 1016 410 m cl s 1016 374 m -9 Y s 1016 365 m cl s 1109 405 m 19 Y s 1109 424 m cl s 1109 378 m -18 Y s 1109 360 m
 cl s 1202 427 m 33 Y s 1202 460 m cl s 1202 400 m -32 Y s 1202 368 m cl s 1295 352 m 40 Y s 1295 392 m cl s 1295 325 m -36 Y s 1295 289 m cl s 1388 353 m 59 Y s 1388 412 m cl s 1388 326 m -52 Y s 1388 274 m cl s 1481 358 m 101 Y s 1481 459 m cl s
 1481 331 m -77 Y s 1481 254 m cl s 3 lw 364 365 457 367 550 364 643 375 736 367 829 365 923 375 1016 387 1109 392 1202 413 1295 339 1388 339 1481 344 13 { m20} R 9 lw 1 0 0 c 6 lw black 3 lw 1 0 0 c 2155 203 m cl s 2127 203 m cl s 2098 203 m cl s
 2085 191 m -3 -4 d s 2085 220 m -32 -33 d s 2085 248 m -61 -61 d s 2085 277 m -90 -90 d s 2085 305 m -93 -92 d s 2085 334 m -93 -93 d s 2085 363 m -102 -103 d s 2085 391 m -131 -131 d s 2085 420 m -160 -160 d s 2085 448 m -186 -185 d s 2085 477 m
 -186 -186 d s 2085 506 m -211 -211 d s 2085 534 m -240 -239 d s 2068 545 m -251 -250 d s 2039 545 m -47 -46 d s 1966 472 m -160 -159 d s 2010 545 m -18 -18 d s 1937 472 m -155 -154 d s 1908 472 m -9 -9 d s 1873 437 m -120 -119 d s 1845 437 m -120
 -119 d s 1816 437 m -10 -9 d s 1793 414 m -85 -84 d s 1764 414 m -84 -84 d s 1736 414 m -85 -84 d s 1695 402 m -73 -72 d s 1666 402 m -60 -60 d s 1637 402 m -60 -60 d s 1596 390 m -48 -48 d s 1568 390 m -51 -51 d s 1539 390 m -51 -51 d s 1513 393 m
 -54 -54 d s 1485 393 m -51 -50 d s 1456 393 m -44 -44 d s 1417 383 m -33 -34 d s 1388 383 m -33 -34 d s 1360 383 m -30 -30 d s 1327 379 m -26 -26 d s 1298 379 m -25 -26 d s 1270 379 m -24 -24 d s 1239 377 m -22 -22 d s 1210 377 m -21 -22 d s 1182
 377 m -22 -22 d s 1152 376 m -20 -20 d s 1124 376 m -21 -20 d s 1095 376 m -21 -20 d s 1066 376 m -4 -4 d s 1062 372 m -12 -12 d s 1033 372 m -12 -12 d s 1005 372 m -12 -12 d s 976 372 m -11 -11 d s 946 371 m -9 -10 d s 917 371 m -9 -10 d s 889 371
 m -10 -10 d s 859 369 m -7 -6 d s 830 369 m -7 -6 d s 801 369 m -7 -6 d s 772 369 m -6 -6 d s 743 369 m -6 -6 d s 715 369 m -6 -6 d s 687 370 m -8 -8 d s 659 370 m -9 -8 d s 630 370 m -9 -8 d s 601 370 m -5 -5 d s 570 367 m -3 -2 d s 541 367 m -3 -2
 d s 512 367 m -2 -2 d s 483 367 m -2 -2 d s 455 367 m -3 -2 d s 318 231 m s 426 367 m -2 -2 d s 318 259 m s 397 367 m -2 -2 d s 318 288 m s 369 367 m -3 -2 d s 318 317 m s 340 367 m -2 -2 d s 318 345 m s 6 lw black[ 4 8] 0 sd 3 lw 318 447 m 1860 X s
 318 285 m 1860 X s 1 0 0 c[  12 12 ] 0 sd 6 lw 318 366 m 1860 X s
 gr  gr showpage
end
%%EOF
