%!PS-Adobe-2.0 EPSF-2.0
%%BoundingBox:  0 0 567 521
%%Title: Distributions/met_distrCRY_MB-GGo_afterFit_forThesis.eps: canvas
%%Creator: ROOT Version 6.04/16
%%CreationDate: Tue May 19 22:01:41 2020
%%DocumentNeededResources: ProcSet (FontSetInit)
%%EndComments
%%BeginProlog
80 dict begin
/s {stroke} def /l {lineto} def /m {moveto} def /t {translate} def
/r {rotate} def /rl {roll}  def /R {repeat} def
/d {rlineto} def /rm {rmoveto} def /gr {grestore} def /f {eofill} def
/c {setrgbcolor} def /black {0 setgray} def /sd {setdash} def
/cl {closepath} def /sf {scalefont setfont} def /lw {setlinewidth} def
/box {m dup 0 exch d exch 0 d 0 exch neg d cl} def
/NC{systemdict begin initclip end}def/C{NC box clip newpath}def
/bl {box s} def /bf {gsave box gsave f grestore 1 lw [] 0 sd s grestore} def /Y { 0 exch d} def /X { 0 d} def 
/K {{pop pop 0 moveto} exch kshow} bind def
/ita {/ang 15 def gsave [1 0 ang dup sin exch cos div 1 0 0] concat} def 
/mp {newpath /y exch def /x exch def} def
/side {[w .77 mul w .23 mul] .385 w mul sd w 0 l currentpoint t -144 r} def
/mr {mp x y w2 0 360 arc} def /m24 {mr s} def /m20 {mr f} def
/mb {mp x y w2 add m w2 neg 0 d 0 w neg d w 0 d 0 w d cl} def
/mt {mp x y w2 add m w2 neg w neg d w 0 d cl} def
/m21 {mb f} def /m25 {mb s} def /m22 {mt f} def /m26{mt s} def
/m23 {mp x y w2 sub m w2 w d w neg 0 d cl f} def
/m27 {mp x y w2 add m w3 neg w2 neg d w3 w2 neg d w3 w2 d cl s} def
/m28 {mp x w2 sub y w2 sub w3 add m w3 0 d  0 w3 neg d w3 0 d 0 w3 d w3 0 d  0 w3 d w3 neg 0 d 0 w3 d w3 neg 0 d 0 w3 neg d w3 neg 0 d cl s } def
/m29 {mp gsave x w2 sub y w2 add w3 sub m currentpoint t 4 {side} repeat cl fill gr} def
/m30 {mp gsave x w2 sub y w2 add w3 sub m currentpoint t 4 {side} repeat cl s gr} def
/m31 {mp x y w2 sub m 0 w d x w2 sub y m w 0 d x w2 sub y w2 add m w w neg d x w2 sub y w2 sub m w w d s} def
/m32 {mp x y w2 sub m w2 w d w neg 0 d cl s} def
/m33 {mp x y w2 add m w3 neg w2 neg d w3 w2 neg d w3 w2 d cl f} def
/m34 {mp x w2 sub y w2 sub w3 add m w3 0 d  0 w3 neg d w3 0 d 0 w3 d w3 0 d  0 w3 d w3 neg 0 d 0 w3 d w3 neg 0 d 0 w3 neg d w3 neg 0 d cl f } def
/m2 {mp x y w2 sub m 0 w d x w2 sub y m w 0 d s} def
/m5 {mp x w2 sub y w2 sub m w w d x w2 sub y w2 add m w w neg d s} def
%%IncludeResource: ProcSet (FontSetInit)
%%IncludeResource: font Times-Roman
%%IncludeResource: font Times-Italic
%%IncludeResource: font Times-Bold
%%IncludeResource: font Times-BoldItalic
%%IncludeResource: font Helvetica
%%IncludeResource: font Helvetica-Oblique
%%IncludeResource: font Helvetica-Bold
%%IncludeResource: font Helvetica-BoldOblique
%%IncludeResource: font Courier
%%IncludeResource: font Courier-Oblique
%%IncludeResource: font Courier-Bold
%%IncludeResource: font Courier-BoldOblique
%%IncludeResource: font Symbol
%%IncludeResource: font ZapfDingbats
/reEncode {exch findfont dup length dict begin {1 index /FID eq  {pop pop} {def} ifelse } forall /Encoding exch def currentdict end dup /FontName get exch definefont pop } def [/Times-Bold /Times-Italic /Times-BoldItalic /Helvetica /Helvetica-Oblique
 /Helvetica-Bold /Helvetica-BoldOblique /Courier /Courier-Oblique /Courier-Bold /Courier-BoldOblique /Times-Roman /AvantGarde-Book /AvantGarde-BookOblique /AvantGarde-Demi /AvantGarde-DemiOblique /Bookman-Demi /Bookman-DemiItalic /Bookman-Light
 /Bookman-LightItalic /Helvetica-Narrow /Helvetica-Narrow-Bold /Helvetica-Narrow-BoldOblique /Helvetica-Narrow-Oblique /NewCenturySchlbk-Roman /NewCenturySchlbk-Bold /NewCenturySchlbk-BoldItalic /NewCenturySchlbk-Italic /Palatino-Bold
 /Palatino-BoldItalic /Palatino-Italic /Palatino-Roman ] {ISOLatin1Encoding reEncode } forall
%%EndProlog
%%BeginSetup
%%EndSetup
newpath  gsave  .25 .25 scale  gsave  0 0 t black[  ] 0 sd 3 lw 1 1 1 c 2268 2085 0 0 bf black 1 1 1 c 2263 1770 2 313 bf black 1 1 1 c black 1860 1145 319 584 bl 1 1 1 c black 1860 1145 319 584 bl 6 lw 1 1 1 c black 3 lw /w 33 def /w2 {w 2 div} def
 /w3 {w 3 div} def 366 1116 m20 6 lw 3 lw 459 1097 m20 6 lw 3 lw 552 1066 m20 6 lw 645 990 m 3 Y s 645 1020 m 1 Y s 3 lw 645 1007 m20 6 lw 738 945 m 9 Y s 738 981 m 4 Y s 3 lw 738 968 m20 6 lw 831 873 m 23 Y s 831 923 m 11 Y s 3 lw 831 909 m20 6 lw
 924 779 m 52 Y s 924 858 m 21 Y s 3 lw 924 845 m20 6 lw 1110 873 m 23 Y s 1110 923 m 11 Y s 3 lw 1110 909 m20 6 lw 1203 584 m 163 Y s 1203 774 m 40 Y s 3 lw 1203 761 m20 6 lw 1296 720 m 80 Y s 1296 827 m 27 Y s 3 lw 1296 814 m20 6 lw 1482 584 m 163
 Y s 1482 774 m 40 Y s 3 lw 1482 761 m20 6 lw 1575 720 m 80 Y s 1575 827 m 27 Y s 3 lw 1575 814 m20 6 lw 3 lw 319 584 m 1860 X s
 gsave  2263 1770 2 313 C 1949.08 355.92 t 0 r /Helvetica findfont 81.3741 sf 0 0 m ( [GeV]) show NC gr 
 gsave  2263 1770 2 313 C 1837.22 396.596 t 0 r /Helvetica findfont 54.2494 sf 0 0 m (miss) show NC gr 
 gsave  2263 1770 2 313 C 1837.22 332.192 t 0 r /Helvetica findfont 54.2494 sf 0 0 m (T) show NC gr 
 gsave  2263 1770 2 313 C 1786.38 355.92 t 0 r /Helvetica findfont 81.3741 sf 0 0 m (E) show NC gr  412 584 m cl s 459 584 m cl s 505 584 m cl s 552 584 m cl s 598 584 m cl s 645 584 m cl s 691 584 m cl s 738 584 m cl s 784 584 m cl s 831 584 m cl s
 877 584 m cl s 924 584 m cl s 970 584 m cl s 1017 584 m cl s 1063 584 m cl s 1110 584 m cl s 1156 584 m cl s 1203 584 m cl s 1249 584 m cl s 1296 584 m cl s 1342 584 m cl s 1389 584 m cl s 1435 584 m cl s 1482 584 m cl s 1528 584 m cl s 1575 584 m
 cl s 1621 584 m cl s 1668 584 m cl s 1714 584 m cl s 1761 584 m cl s 1807 584 m cl s 1854 584 m cl s 1900 584 m cl s 1947 584 m cl s 1993 584 m cl s 2040 584 m cl s 2086 584 m cl s 412 584 m cl s 366 584 m cl s 319 584 m cl s 2086 584 m cl s 2133
 584 m cl s 2179 584 m cl s 319 1729 m 1860 X s 412 1729 m cl s 459 1729 m cl s 505 1729 m cl s 552 1729 m cl s 598 1729 m cl s 645 1729 m cl s 691 1729 m cl s 738 1729 m cl s 784 1729 m cl s 831 1729 m cl s 877 1729 m cl s 924 1729 m cl s 970 1729 m
 cl s 1017 1729 m cl s 1063 1729 m cl s 1110 1729 m cl s 1156 1729 m cl s 1203 1729 m cl s 1249 1729 m cl s 1296 1729 m cl s 1342 1729 m cl s 1389 1729 m cl s 1435 1729 m cl s 1482 1729 m cl s 1528 1729 m cl s 1575 1729 m cl s 1621 1729 m cl s 1668
 1729 m cl s 1714 1729 m cl s 1761 1729 m cl s 1807 1729 m cl s 1854 1729 m cl s 1900 1729 m cl s 1947 1729 m cl s 1993 1729 m cl s 2040 1729 m cl s 2086 1729 m cl s 412 1729 m cl s 366 1729 m cl s 319 1729 m cl s 2086 1729 m cl s 2133 1729 m cl s
 2179 1729 m cl s 319 584 m 1145 Y s
 gsave  2263 1770 2 313 C 166.096 1091.49 t 90 r /Helvetica findfont 81.3741 sf 0 0 m (Events / 100 GeV) show NC gr  341 637 m -22 X s 341 668 m -22 X s 341 690 m -22 X s 341 707 m -22 X s 341 721 m -22 X s 341 733 m -22 X s 341 743 m -22 X s 341 752
 m -22 X s 363 761 m -44 X s
 gsave  2263 1770 2 313 C 300.555 733.396 t 0 r  -36 0 t /Helvetica findfont 64.4212 sf 0 0 m (1) show NC gr  341 814 m -22 X s 341 845 m -22 X s 341 867 m -22 X s 341 884 m -22 X s 341 898 m -22 X s 341 909 m -22 X s 341 920 m -22 X s 341 929 m -22
 X s 363 937 m -44 X s
 gsave  2263 1770 2 313 C 300.555 909.601 t 0 r  -73 0 t /Helvetica findfont 64.4212 sf 0 0 m (10) show NC gr  341 990 m -22 X s 341 1021 m -22 X s 341 1043 m -22 X s 341 1060 m -22 X s 341 1074 m -22 X s 341 1086 m -22 X s 341 1096 m -22 X s 341
 1105 m -22 X s 363 1113 m -44 X s
 gsave  2263 1770 2 313 C 274.567 1111.83 t 0 r /Helvetica findfont 44.0776 sf 0 0 m (2) show NC gr 
 gsave  2263 1770 2 313 C 203.383 1084.71 t 0 r /Helvetica findfont 64.4212 sf 0 0 m (10) show NC gr  341 1166 m -22 X s 341 1197 m -22 X s 341 1219 m -22 X s 341 1236 m -22 X s 341 1250 m -22 X s 341 1262 m -22 X s 341 1272 m -22 X s 341 1281 m -22
 X s 363 1289 m -44 X s
 gsave  2263 1770 2 313 C 274.567 1291.48 t 0 r /Helvetica findfont 44.0776 sf 0 0 m (3) show NC gr 
 gsave  2263 1770 2 313 C 203.383 1260.97 t 0 r /Helvetica findfont 64.4212 sf 0 0 m (10) show NC gr  341 1342 m -22 X s 341 1373 m -22 X s 341 1395 m -22 X s 341 1412 m -22 X s 341 1426 m -22 X s 341 1438 m -22 X s 341 1448 m -22 X s 341 1457 m -22
 X s 363 1465 m -44 X s
 gsave  2263 1770 2 313 C 274.567 1464.36 t 0 r /Helvetica findfont 44.0776 sf 0 0 m (4) show NC gr 
 gsave  2263 1770 2 313 C 203.383 1437.24 t 0 r /Helvetica findfont 64.4212 sf 0 0 m (10) show NC gr  341 1518 m -22 X s 341 1549 m -22 X s 341 1571 m -22 X s 341 1588 m -22 X s 341 1602 m -22 X s 341 1614 m -22 X s 341 1624 m -22 X s 341 1633 m -22
 X s 363 1642 m -44 X s
 gsave  2263 1770 2 313 C 274.567 1644.01 t 0 r /Helvetica findfont 44.0776 sf 0 0 m (5) show NC gr 
 gsave  2263 1770 2 313 C 203.383 1613.5 t 0 r /Helvetica findfont 64.4212 sf 0 0 m (10) show NC gr  341 1695 m -22 X s 341 1726 m -22 X s 2179 584 m 1145 Y s 2157 637 m 22 X s 2157 668 m 22 X s 2157 690 m 22 X s 2157 707 m 22 X s 2157 721 m 22 X s
 2157 733 m 22 X s 2157 743 m 22 X s 2157 752 m 22 X s 2136 761 m 43 X s 2157 814 m 22 X s 2157 845 m 22 X s 2157 867 m 22 X s 2157 884 m 22 X s 2157 898 m 22 X s 2157 909 m 22 X s 2157 920 m 22 X s 2157 929 m 22 X s 2136 937 m 43 X s 2157 990 m 22 X
 s 2157 1021 m 22 X s 2157 1043 m 22 X s 2157 1060 m 22 X s 2157 1074 m 22 X s 2157 1086 m 22 X s 2157 1096 m 22 X s 2157 1105 m 22 X s 2136 1113 m 43 X s 2157 1166 m 22 X s 2157 1197 m 22 X s 2157 1219 m 22 X s 2157 1236 m 22 X s 2157 1250 m 22 X s
 2157 1262 m 22 X s 2157 1272 m 22 X s 2157 1281 m 22 X s 2136 1289 m 43 X s 2157 1342 m 22 X s 2157 1373 m 22 X s 2157 1395 m 22 X s 2157 1412 m 22 X s 2157 1426 m 22 X s 2157 1438 m 22 X s 2157 1448 m 22 X s 2157 1457 m 22 X s 2136 1465 m 43 X s
 2157 1518 m 22 X s 2157 1549 m 22 X s 2157 1571 m 22 X s 2157 1588 m 22 X s 2157 1602 m 22 X s 2157 1614 m 22 X s 2157 1624 m 22 X s 2157 1633 m 22 X s 2136 1642 m 43 X s 2157 1695 m 22 X s 2157 1726 m 22 X s 1 1 0 c black 1 1 0 c 319 584 m 520 Y 93
 X 2 Y 93 X -42 Y 93 X -43 Y 93 X -60 Y 93 X -14 Y 93 X -59 Y 93 X -63 Y 93 X -31 Y 93 X -40 Y 93 X -47 Y 93 X -31 Y 93 X -58 Y 93 X 1 Y 93 X -35 Y 558 X f black 1 1 0 c black 319 1104 m 93 X 2 Y 93 X -42 Y 93 X -43 Y 93 X -60 Y 93 X -14 Y 93 X -59 Y
 93 X -63 Y 93 X -31 Y 93 X -40 Y 93 X -47 Y 93 X -31 Y 93 X -58 Y 93 X 1 Y 93 X -35 Y 558 X s 0.999 0.999 0.999 c black 0.999 0.999 0.999 c 319 584 m 257 Y 93 X -37 Y 93 X -41 Y 93 X -24 Y 93 X -109 Y 93 X 29 Y 93 X -75 Y 1302 X f black 0.999 0.999
 0.999 c black 319 841 m 93 X -37 Y 93 X -41 Y 93 X -24 Y 93 X -109 Y 93 X 29 Y 93 X -75 Y 1302 X s 1 1 1 c black 319 841 m 93 X -37 Y 93 X -41 Y 93 X -24 Y 93 X -109 Y 93 X 29 Y 93 X -75 Y 1302 X s 0.4 0.6 1 c black 0.4 0.6 1 c 319 584 m 257 Y 93 X
 -37 Y 93 X -41 Y 93 X -24 Y 93 X -109 Y 93 X 29 Y 93 X -75 Y 1302 X f black 0.4 0.6 1 c black 319 841 m 93 X -37 Y 93 X -41 Y 93 X -24 Y 93 X -109 Y 93 X 29 Y 93 X -75 Y 1302 X s 0.999 0.999 0.999 c black 0.999 0.999 0.999 c 319 584 m 252 Y 93 X -41
 Y 93 X -61 Y 93 X -7 Y 93 X -108 Y 93 X 23 Y 93 X -58 Y 1302 X f black 0.999 0.999 0.999 c black 319 836 m 93 X -41 Y 93 X -61 Y 93 X -7 Y 93 X -108 Y 93 X 23 Y 93 X -58 Y 1302 X s 1 1 1 c black 319 836 m 93 X -41 Y 93 X -61 Y 93 X -7 Y 93 X -108 Y
 93 X 23 Y 93 X -58 Y 1302 X s 0.6 1 0.6 c black 0.6 1 0.6 c 319 584 m 252 Y 93 X -41 Y 93 X -61 Y 93 X -7 Y 93 X -108 Y 93 X 23 Y 93 X -58 Y 1302 X f black 0.6 1 0.6 c black 319 836 m 93 X -41 Y 93 X -61 Y 93 X -7 Y 93 X -108 Y 93 X 23 Y 93 X -58 Y
 1302 X s 0.999 0.999 0.999 c black 0.999 0.999 0.999 c 319 584 m 186 X 9 Y 93 X 73 Y 93 X -82 Y 1488 X f black 0.999 0.999 0.999 c black 319 584 m 186 X 9 Y 93 X 73 Y 93 X -82 Y 1488 X s 1 1 1 c black 319 584 m 186 X 9 Y 93 X 73 Y 93 X -82 Y 1488 X
 s 1 0.4 0.6 c black 1 0.4 0.6 c 319 584 m 186 X 9 Y 93 X 73 Y 93 X -82 Y 1488 X f black 1 0.4 0.6 c black 319 584 m 186 X 9 Y 93 X 73 Y 93 X -82 Y 1488 X s 1 0 0 c 6 lw 1 1 1 c black 1 0 0 c 319 1104 m 93 X 2 Y 93 X -42 Y 93 X -43 Y 93 X -60 Y 93 X
 -14 Y 93 X -59 Y 93 X -63 Y 93 X -31 Y 93 X -40 Y 93 X -47 Y 93 X -31 Y 93 X -58 Y 93 X 1 Y 93 X -35 Y 558 X s black 3 lw 1 0 0 c 1 lw << /PatternType 1 /PaintType 2 /TilingType 1 /BBox [ 0 0 100 100 ] /XStep 100 /YStep 100 /PaintProc { begin gsave
 0 100 m 100 0 l s gr end } >> [ 0.24 0 0 0.24 0 0 ] makepattern /P05 exch def /cs {[/Pattern /DeviceRGB] setcolorspace} def /FA {f [/DeviceRGB] setcolorspace} def cs 1 0 0 P05 setcolor 319 584 m 528 Y 93 X 1 Y 93 X -43 Y 93 X -41 Y 93 X -57 Y 93 X
 -9 Y 93 X -64 Y 93 X -66 Y 93 X -31 Y 93 X -39 Y 93 X -47 Y 93 X -29 Y 93 X -57 Y 93 X 30 Y 93 X -76 Y -93 X 20 Y -93 X 59 Y -93 X 34 Y -93 X 48 Y -93 X 41 Y -93 X 29 Y -93 X 59 Y -93 X 53 Y -93 X 22 Y -93 X 63 Y -93 X 44 Y -93 X 42 Y -93 X -4 Y -93
 X -510 Y FA 6 lw 1 1 1 c 15 lw 738 947 m -2 Y s 738 945 m cl s 831 930 m 5 Y s 831 935 m cl s 831 889 m -15 Y s 831 874 m cl s 924 865 m 17 Y s 924 882 m cl s 924 824 m -39 Y s 924 785 m cl s 1110 930 m 5 Y s 1110 935 m cl s 1110 889 m -15 Y s 1110
 874 m cl s 1203 781 m 43 Y s 1203 824 m cl s 1203 740 m -113 Y s 1203 627 m cl s 1296 834 m 25 Y s 1296 859 m cl s 1296 793 m -58 Y s 1296 735 m cl s 1482 781 m 43 Y s 1482 824 m cl s 1482 740 m -113 Y s 1482 627 m cl s 1575 834 m 25 Y s 1575 859 m
 cl s 1575 793 m -58 Y s 1575 735 m cl s black 1 1 1 c 3 lw /w 43 def /w2 {w 2 div} def /w3 {w 3 div} def 366 1116 459 1097 552 1066 645 1007 738 968 831 909 924 845 7 { m20} R 15 lw 3 lw 1110 909 1203 761 1296 814 3 { m20} R 15 lw 3 lw 1482 761 1575
 814 2 { m20} R 15 lw black 6 lw 1 1 1 c black 3 lw /w 33 def /w2 {w 2 div} def /w3 {w 3 div} def 366 1116 m20 6 lw 3 lw 459 1097 m20 6 lw 3 lw 552 1066 m20 6 lw 645 990 m 3 Y s 645 1020 m 1 Y s 3 lw 645 1007 m20 6 lw 738 945 m 9 Y s 738 981 m 4 Y s
 3 lw 738 968 m20 6 lw 831 873 m 23 Y s 831 923 m 11 Y s 3 lw 831 909 m20 6 lw 924 779 m 52 Y s 924 858 m 21 Y s 3 lw 924 845 m20 6 lw 1110 873 m 23 Y s 1110 923 m 11 Y s 3 lw 1110 909 m20 6 lw 1203 584 m 163 Y s 1203 774 m 40 Y s 3 lw 1203 761 m20 6
 lw 1296 720 m 80 Y s 1296 827 m 27 Y s 3 lw 1296 814 m20 6 lw 1482 584 m 163 Y s 1482 774 m 40 Y s 3 lw 1482 761 m20 6 lw 1575 720 m 80 Y s 1575 827 m 27 Y s 3 lw 1575 814 m20 6 lw 645 1020 m 1 Y s 645 1021 m cl s 645 993 m -3 Y s 645 990 m cl s 738
 981 m 5 Y s 738 986 m cl s 738 954 m -9 Y s 738 945 m cl s 831 923 m 12 Y s 831 935 m cl s 831 896 m -22 Y s 831 874 m cl s 924 858 m 24 Y s 924 882 m cl s 924 831 m -46 Y s 924 785 m cl s 1110 923 m 12 Y s 1110 935 m cl s 1110 896 m -22 Y s 1110
 874 m cl s 1203 774 m 50 Y s 1203 824 m cl s 1203 747 m -120 Y s 1203 627 m cl s 1296 827 m 32 Y s 1296 859 m cl s 1296 800 m -65 Y s 1296 735 m cl s 1482 774 m 50 Y s 1482 824 m cl s 1482 747 m -120 Y s 1482 627 m cl s 1575 827 m 32 Y s 1575 859 m
 cl s 1575 800 m -65 Y s 1575 735 m cl s 3 lw 366 1116 459 1097 552 1066 645 1007 738 968 831 909 924 845 7 { m20} R 6 lw 3 lw 1110 909 1203 761 1296 814 3 { m20} R 6 lw 3 lw 1482 761 1575 814 2 { m20} R 6 lw 3 lw 319 584 m 1860 X s 412 584 m cl s
 459 584 m cl s 505 584 m cl s 552 584 m cl s 598 584 m cl s 645 584 m cl s 691 584 m cl s 738 584 m cl s 784 584 m cl s 831 584 m cl s 877 584 m cl s 924 584 m cl s 970 584 m cl s 1017 584 m cl s 1063 584 m cl s 1110 584 m cl s 1156 584 m cl s 1203
 584 m cl s 1249 584 m cl s 1296 584 m cl s 1342 584 m cl s 1389 584 m cl s 1435 584 m cl s 1482 584 m cl s 1528 584 m cl s 1575 584 m cl s 1621 584 m cl s 1668 584 m cl s 1714 584 m cl s 1761 584 m cl s 1807 584 m cl s 1854 584 m cl s 1900 584 m cl
 s 1947 584 m cl s 1993 584 m cl s 2040 584 m cl s 2086 584 m cl s 412 584 m cl s 366 584 m cl s 319 584 m cl s 2086 584 m cl s 2133 584 m cl s 2179 584 m cl s 319 1729 m 1860 X s 412 1729 m cl s 459 1729 m cl s 505 1729 m cl s 552 1729 m cl s 598
 1729 m cl s 645 1729 m cl s 691 1729 m cl s 738 1729 m cl s 784 1729 m cl s 831 1729 m cl s 877 1729 m cl s 924 1729 m cl s 970 1729 m cl s 1017 1729 m cl s 1063 1729 m cl s 1110 1729 m cl s 1156 1729 m cl s 1203 1729 m cl s 1249 1729 m cl s 1296
 1729 m cl s 1342 1729 m cl s 1389 1729 m cl s 1435 1729 m cl s 1482 1729 m cl s 1528 1729 m cl s 1575 1729 m cl s 1621 1729 m cl s 1668 1729 m cl s 1714 1729 m cl s 1761 1729 m cl s 1807 1729 m cl s 1854 1729 m cl s 1900 1729 m cl s 1947 1729 m cl s
 1993 1729 m cl s 2040 1729 m cl s 2086 1729 m cl s 412 1729 m cl s 366 1729 m cl s 319 1729 m cl s 2086 1729 m cl s 2133 1729 m cl s 2179 1729 m cl s 319 584 m 1145 Y s 341 637 m -22 X s 341 668 m -22 X s 341 690 m -22 X s 341 707 m -22 X s 341 721
 m -22 X s 341 733 m -22 X s 341 743 m -22 X s 341 752 m -22 X s 363 761 m -44 X s 341 814 m -22 X s 341 845 m -22 X s 341 867 m -22 X s 341 884 m -22 X s 341 898 m -22 X s 341 909 m -22 X s 341 920 m -22 X s 341 929 m -22 X s 363 937 m -44 X s 341
 990 m -22 X s 341 1021 m -22 X s 341 1043 m -22 X s 341 1060 m -22 X s 341 1074 m -22 X s 341 1086 m -22 X s 341 1096 m -22 X s 341 1105 m -22 X s 363 1113 m -44 X s 341 1166 m -22 X s 341 1197 m -22 X s 341 1219 m -22 X s 341 1236 m -22 X s 341
 1250 m -22 X s 341 1262 m -22 X s 341 1272 m -22 X s 341 1281 m -22 X s 363 1289 m -44 X s 341 1342 m -22 X s 341 1373 m -22 X s 341 1395 m -22 X s 341 1412 m -22 X s 341 1426 m -22 X s 341 1438 m -22 X s 341 1448 m -22 X s 341 1457 m -22 X s 363
 1465 m -44 X s 341 1518 m -22 X s 341 1549 m -22 X s 341 1571 m -22 X s 341 1588 m -22 X s 341 1602 m -22 X s 341 1614 m -22 X s 341 1624 m -22 X s 341 1633 m -22 X s 363 1642 m -44 X s 341 1695 m -22 X s 341 1726 m -22 X s 2179 584 m 1145 Y s 2157
 637 m 22 X s 2157 668 m 22 X s 2157 690 m 22 X s 2157 707 m 22 X s 2157 721 m 22 X s 2157 733 m 22 X s 2157 743 m 22 X s 2157 752 m 22 X s 2136 761 m 43 X s 2157 814 m 22 X s 2157 845 m 22 X s 2157 867 m 22 X s 2157 884 m 22 X s 2157 898 m 22 X s
 2157 909 m 22 X s 2157 920 m 22 X s 2157 929 m 22 X s 2136 937 m 43 X s 2157 990 m 22 X s 2157 1021 m 22 X s 2157 1043 m 22 X s 2157 1060 m 22 X s 2157 1074 m 22 X s 2157 1086 m 22 X s 2157 1096 m 22 X s 2157 1105 m 22 X s 2136 1113 m 43 X s 2157
 1166 m 22 X s 2157 1197 m 22 X s 2157 1219 m 22 X s 2157 1236 m 22 X s 2157 1250 m 22 X s 2157 1262 m 22 X s 2157 1272 m 22 X s 2157 1281 m 22 X s 2136 1289 m 43 X s 2157 1342 m 22 X s 2157 1373 m 22 X s 2157 1395 m 22 X s 2157 1412 m 22 X s 2157
 1426 m 22 X s 2157 1438 m 22 X s 2157 1448 m 22 X s 2157 1457 m 22 X s 2136 1465 m 43 X s 2157 1518 m 22 X s 2157 1549 m 22 X s 2157 1571 m 22 X s 2157 1588 m 22 X s 2157 1602 m 22 X s 2157 1614 m 22 X s 2157 1624 m 22 X s 2157 1633 m 22 X s 2136
 1642 m 43 X s 2157 1695 m 22 X s 2157 1726 m 22 X s
 gsave  2263 1770 2 313 C 406.765 1447.41 t 0 r /Helvetica findfont 64.4212 sf 0 0 m (CRY for MB\255GGo) show NC gr 
 gsave  2263 1770 2 313 C 1464.36 1616.89 t 0 r /Helvetica findfont 64.4212 sf 0 0 m (SM Total) show NC gr  1 1 1 c 1338 1603 m 107 X 74 Y -107 X f 1 0 0 c 6 lw 1338 1640 m 107 X s black
 gsave  2263 1770 2 313 C 1464.36 1511.81 t 0 r /Helvetica findfont 64.4212 sf 0 0 m (Data) show NC gr  1391 1502 m 64 Y s 3 lw 1391 1534 m20 6 lw
 gsave  2263 1770 2 313 C 1464.36 1406.73 t 0 r /Helvetica findfont 64.4212 sf 0 0 m (GAMMAjets) show NC gr  1 1 0 c 3 lw 1338 1391 m 107 X 74 Y -107 X f 6 lw black 3 lw 1338 1465 m 107 X s 1338 1391 m 107 X s 1445 1391 m 74 Y s 1338 1391 m 74 Y s
 gsave  2263 1770 2 313 C 1464.36 1298.26 t 0 r /Helvetica findfont 64.4212 sf 0 0 m (W+jets) show NC gr  0.4 0.6 1 c 1338 1284 m 107 X 75 Y -107 X f black 1338 1359 m 107 X s 1338 1284 m 107 X s 1445 1284 m 75 Y s 1338 1284 m 75 Y s
 gsave  2263 1770 2 313 C 1498.25 1193.18 t 0 r /Helvetica findfont 64.4212 sf 0 0 m (\(+EW\) & single top) show NC gr 
 gsave  2263 1770 2 313 C 1481.3 1193.18 t 0 r /Helvetica findfont 64.4212 sf 0 0 m (t) show NC gr  1481 1244 m 17 X s
 gsave  2263 1770 2 313 C 1464.36 1193.18 t 0 r /Helvetica findfont 64.4212 sf 0 0 m (t) show NC gr  0.6 1 0.6 c 1338 1178 m 107 X 75 Y -107 X f black 1338 1253 m 107 X s 1338 1178 m 107 X s 1445 1178 m 75 Y s 1338 1178 m 75 Y s
 gsave  2263 1770 2 313 C 1464.36 1088.1 t 0 r /Helvetica findfont 64.4212 sf 0 0 m (Diboson) show NC gr  1 0.4 0.6 c 1338 1072 m 107 X 74 Y -107 X f black 1338 1146 m 107 X s 1338 1072 m 107 X s 1445 1072 m 74 Y s 1338 1072 m 74 Y s
 gsave  2263 1770 2 313 C 911.832 1566.05 t 0 r /Helvetica findfont 44.0776 sf 0 0 m (\2551) show NC gr 
 gsave  2263 1770 2 313 C 471.17 1535.54 t 0 r /Helvetica findfont 64.4212 sf 0 0 m (=13TeV, 139 fb) show NC gr 
 gsave  2263 1770 2 313 C 440.662 1535.54 t 0 r /Helvetica findfont 64.4212 sf 0 0 m (s) show NC gr  6 lw 420 1573 m 7 -41 d s 3 lw 427 1532 m 7 61 d s 434 1593 m 37 X s 1 1 1 c 2254 561 2 2 bf black 1 1 1 c black 1860 358 318 187 bl 1 1 1 c black
 1860 358 318 187 bl 6 lw 1 1 1 c black 3 lw 364 394 m20 6 lw 3 lw 457 348 m20 6 lw 3 lw 550 371 m20 6 lw 3 lw 643 339 m20 6 lw 3 lw 736 380 m20 6 lw 3 lw 829 303 m20 6 lw 3 lw 923 296 m20 6 lw 3 lw 1202 380 m20 6 lw 3 lw 318 187 m 1860 X s
 gsave  2254 561 2 2 C 1959.25 27.1177 t 0 r /Helvetica findfont 78.1689 sf 0 0 m ( [GeV]) show NC gr 
 gsave  2254 561 2 2 C 1854.17 64.4045 t 0 r /Helvetica findfont 50.9797 sf 0 0 m (miss) show NC gr 
 gsave  2254 561 2 2 C 1854.17 3.38971 t 0 r /Helvetica findfont 50.9797 sf 0 0 m (T) show NC gr 
 gsave  2254 561 2 2 C 1803.33 27.1177 t 0 r /Helvetica findfont 78.1689 sf 0 0 m (E) show NC gr  411 201 m -14 Y s 457 194 m -7 Y s 504 194 m -7 Y s 550 194 m -7 Y s 597 201 m -14 Y s 643 194 m -7 Y s 690 194 m -7 Y s 736 194 m -7 Y s 783 201 m -14
 Y s 829 194 m -7 Y s 876 194 m -7 Y s 923 194 m -7 Y s 969 201 m -14 Y s 1016 194 m -7 Y s 1062 194 m -7 Y s 1109 194 m -7 Y s 1155 201 m -14 Y s 1202 194 m -7 Y s 1248 194 m -7 Y s 1295 194 m -7 Y s 1341 201 m -14 Y s 1388 194 m -7 Y s 1434 194 m
 -7 Y s 1481 194 m -7 Y s 1527 201 m -14 Y s 1574 194 m -7 Y s 1620 194 m -7 Y s 1667 194 m -7 Y s 1713 201 m -14 Y s 1760 194 m -7 Y s 1806 194 m -7 Y s 1853 194 m -7 Y s 1899 201 m -14 Y s 1946 194 m -7 Y s 1992 194 m -7 Y s 2039 194 m -7 Y s 2085
 201 m -14 Y s 411 201 m -14 Y s 364 194 m -7 Y s 318 194 m -7 Y s 2085 201 m -14 Y s 2132 194 m -7 Y s
 gsave  2254 561 2 2 C 345.75 118.64 t 0 r /Helvetica findfont 78.1689 sf 0 0 m (400) show NC gr 
 gsave  2254 561 2 2 C 532.185 118.64 t 0 r /Helvetica findfont 78.1689 sf 0 0 m (600) show NC gr 
 gsave  2254 561 2 2 C 715.229 118.64 t 0 r /Helvetica findfont 78.1689 sf 0 0 m (800) show NC gr 
 gsave  2254 561 2 2 C 877.935 118.64 t 0 r /Helvetica findfont 78.1689 sf 0 0 m (1000) show NC gr 
 gsave  2254 561 2 2 C 1064.37 118.64 t 0 r /Helvetica findfont 78.1689 sf 0 0 m (1200) show NC gr 
 gsave  2254 561 2 2 C 1250.8 118.64 t 0 r /Helvetica findfont 78.1689 sf 0 0 m (1400) show NC gr 
 gsave  2254 561 2 2 C 1437.24 118.64 t 0 r /Helvetica findfont 78.1689 sf 0 0 m (1600) show NC gr 
 gsave  2254 561 2 2 C 1623.67 118.64 t 0 r /Helvetica findfont 78.1689 sf 0 0 m (1800) show NC gr 
 gsave  2254 561 2 2 C 1810.11 118.64 t 0 r /Helvetica findfont 78.1689 sf 0 0 m (2000) show NC gr 
 gsave  2254 561 2 2 C 1996.54 118.64 t 0 r /Helvetica findfont 78.1689 sf 0 0 m (2200) show NC gr  318 545 m 1860 X s 411 531 m 14 Y s 457 538 m 7 Y s 504 538 m 7 Y s 550 538 m 7 Y s 597 531 m 14 Y s 643 538 m 7 Y s 690 538 m 7 Y s 736 538 m 7 Y s
 783 531 m 14 Y s 829 538 m 7 Y s 876 538 m 7 Y s 923 538 m 7 Y s 969 531 m 14 Y s 1016 538 m 7 Y s 1062 538 m 7 Y s 1109 538 m 7 Y s 1155 531 m 14 Y s 1202 538 m 7 Y s 1248 538 m 7 Y s 1295 538 m 7 Y s 1341 531 m 14 Y s 1388 538 m 7 Y s 1434 538 m 7
 Y s 1481 538 m 7 Y s 1527 531 m 14 Y s 1574 538 m 7 Y s 1620 538 m 7 Y s 1667 538 m 7 Y s 1713 531 m 14 Y s 1760 538 m 7 Y s 1806 538 m 7 Y s 1853 538 m 7 Y s 1899 531 m 14 Y s 1946 538 m 7 Y s 1992 538 m 7 Y s 2039 538 m 7 Y s 2085 531 m 14 Y s 411
 531 m 14 Y s 364 538 m 7 Y s 318 538 m 7 Y s 2085 531 m 14 Y s 2132 538 m 7 Y s 318 187 m 358 Y s
 gsave  2254 561 2 2 C 166.096 284.736 t 90 r /Helvetica findfont 67.9729 sf 0 0 m (Data/SM) show NC gr  361 203 m -43 X s 339 220 m -21 X s 339 236 m -21 X s 339 252 m -21 X s 339 268 m -21 X s 361 285 m -43 X s 339 301 m -21 X s 339 317 m -21 X s
 339 334 m -21 X s 339 350 m -21 X s 361 366 m -43 X s 339 382 m -21 X s 339 399 m -21 X s 339 415 m -21 X s 339 431 m -21 X s 361 447 m -43 X s 339 464 m -21 X s 339 480 m -21 X s 339 496 m -21 X s 339 512 m -21 X s 361 529 m -43 X s 361 203 m -43 X
 s 339 187 m -21 X s 361 529 m -43 X s
 gsave  2254 561 2 2 C 261.008 183.044 t 0 r /Helvetica findfont 57.777 sf 0 0 m (0) show NC gr 
 gsave  2254 561 2 2 C 213.552 261.008 t 0 r /Helvetica findfont 57.777 sf 0 0 m (0.5) show NC gr 
 gsave  2254 561 2 2 C 271.177 342.361 t 0 r /Helvetica findfont 57.777 sf 0 0 m (1) show NC gr 
 gsave  2254 561 2 2 C 213.552 423.714 t 0 r /Helvetica findfont 57.777 sf 0 0 m (1.5) show NC gr 
 gsave  2254 561 2 2 C 261.008 505.067 t 0 r /Helvetica findfont 57.777 sf 0 0 m (2) show NC gr  2178 187 m 358 Y s 2135 203 m 43 X s 2157 220 m 21 X s 2157 236 m 21 X s 2157 252 m 21 X s 2157 268 m 21 X s 2135 285 m 43 X s 2157 301 m 21 X s 2157 317
 m 21 X s 2157 334 m 21 X s 2157 350 m 21 X s 2135 366 m 43 X s 2157 382 m 21 X s 2157 399 m 21 X s 2157 415 m 21 X s 2157 431 m 21 X s 2135 447 m 43 X s 2157 464 m 21 X s 2157 480 m 21 X s 2157 496 m 21 X s 2157 512 m 21 X s 2135 529 m 43 X s 2135
 203 m 43 X s 2157 187 m 21 X s 2135 529 m 43 X s 9 lw 364 408 m 5 Y s 364 413 m cl s 364 381 m -5 Y s 364 376 m cl s 457 361 m 3 Y s 457 364 m cl s 457 334 m -2 Y s 457 332 m cl s 550 384 m 10 Y s 550 394 m cl s 550 357 m -9 Y s 550 348 m cl s 643
 352 m 14 Y s 643 366 m cl s 643 325 m -13 Y s 643 312 m cl s 736 393 m 33 Y s 736 426 m cl s 736 366 m -31 Y s 736 335 m cl s 829 316 m 26 Y s 829 342 m cl s 829 289 m -23 Y s 829 266 m cl s 923 310 m 45 Y s 923 355 m cl s 923 283 m -37 Y s 923 246
 m cl s 1202 393 m 152 Y s 1202 545 m cl s 1202 366 m -132 Y s 1202 234 m cl s 1295 545 m -108 Y s 1295 437 m cl s 1481 545 m -159 Y s 1481 386 m cl s 3 lw 364 394 457 348 550 371 643 339 736 380 829 303 923 296 7 { m20} R 9 lw 3 lw 1202 380 m20 9 lw
 1 0 0 c 6 lw black 3 lw 1 0 0 c 2178 227 m s 2178 255 m s 2178 284 m s 2178 312 m -25 -25 d s 2178 341 m -53 -54 d s 2178 369 m -82 -82 d s 2178 398 m -101 -101 d s 2178 427 m -130 -130 d s 2168 445 m -149 -148 d s 2139 445 m -167 -167 d s 2110 445
 m -167 -167 d s 2072 435 m -157 -157 d s 2044 435 m -145 -144 d s 2015 435 m -120 -119 d s 1992 441 m -126 -125 d s 1976 454 m -139 -138 d s 1948 454 m -139 -138 d s 1919 454 m -20 -20 d s 1881 416 m -100 -99 d s 1852 416 m -99 -99 d s 1824 416 m
 -100 -99 d s 1794 415 m -97 -97 d s 1765 415 m -97 -97 d s 1620 271 m -19 -19 d s 1737 415 m -98 -97 d s 1620 299 m -47 -47 d s 1706 414 m -162 -162 d s 1678 414 m -151 -150 d s 1649 414 m -122 -122 d s 1620 414 m -93 -93 d s 1620 442 m -104 -104 d
 s 1620 471 m -133 -133 d s 1601 480 m -74 -73 d s 1514 394 m -55 -56 d s 1572 480 m -45 -45 d s 1485 394 m -52 -53 d s 1544 480 m -17 -16 d s 1457 394 m -53 -53 d s 1425 391 m -50 -50 d s 1397 391 m -50 -50 d s 1368 391 m -45 -45 d s 1334 386 m -40
 -40 d s 1305 386 m -39 -40 d s 1277 386 m -39 -39 d s 1247 385 m -38 -38 d s 1219 385 m -39 -38 d s 1190 385 m -36 -36 d s 1161 385 m -36 -36 d s 1130 383 m -34 -34 d s 1102 383 m -34 -34 d s 1073 383 m -36 -36 d s 1047 385 m -39 -38 d s 1018 385 m
 -39 -38 d s 989 385 m -45 -45 d s 967 392 m -52 -52 d s 938 392 m -51 -52 d s 876 330 m -2 -2 d s 910 392 m -64 -64 d s 881 392 m -64 -64 d s 865 404 m -77 -76 d s 836 404 m -62 -62 d s 807 404 m -62 -62 d s 765 390 m -49 -48 d s 736 390 m -46 -46 d
 s 707 390 m -42 -42 d s 673 384 m -37 -36 d s 644 384 m -37 -36 d s 615 384 m -33 -33 d s 583 381 m -30 -30 d s 555 381 m -30 -30 d s 526 381 m -31 -31 d s 498 382 m -32 -32 d s 469 382 m -31 -32 d s 318 231 m s 441 382 m -34 -34 d s 318 259 m s 412
 382 m -34 -34 d s 318 288 m s 386 384 m -37 -36 d s 318 317 m s 357 384 m -37 -36 d s 318 345 m s 328 384 m -10 -10 d s 6 lw 0 0 1 c 9 lw 1109 496 m 30 Y s 3 lw 1098 526 m 11 19 d 11 -19 d f 9 lw 1098 526 m 11 19 d 11 -19 d -22 X cl s 1574 496 m 30
 Y s 3 lw 1563 526 m 11 19 d 11 -19 d f 9 lw 1563 526 m 11 19 d 11 -19 d -22 X cl s black[ 4 8] 0 sd 3 lw 318 447 m 1860 X s 318 285 m 1860 X s 1 0 0 c[  12 12 ] 0 sd 6 lw 318 366 m 1860 X s
 gr  gr showpage
end
%%EOF
