%!PS-Adobe-2.0 EPSF-2.0
%%BoundingBox:  0 0 567 521
%%Title: Distributions/met_distrSR_MB-C_beforeFit_forThesis.eps: canvas
%%Creator: ROOT Version 6.04/16
%%CreationDate: Tue May 19 22:02:22 2020
%%DocumentNeededResources: ProcSet (FontSetInit)
%%EndComments
%%BeginProlog
80 dict begin
/s {stroke} def /l {lineto} def /m {moveto} def /t {translate} def
/r {rotate} def /rl {roll}  def /R {repeat} def
/d {rlineto} def /rm {rmoveto} def /gr {grestore} def /f {eofill} def
/c {setrgbcolor} def /black {0 setgray} def /sd {setdash} def
/cl {closepath} def /sf {scalefont setfont} def /lw {setlinewidth} def
/box {m dup 0 exch d exch 0 d 0 exch neg d cl} def
/NC{systemdict begin initclip end}def/C{NC box clip newpath}def
/bl {box s} def /bf {gsave box gsave f grestore 1 lw [] 0 sd s grestore} def /Y { 0 exch d} def /X { 0 d} def 
/K {{pop pop 0 moveto} exch kshow} bind def
/ita {/ang 15 def gsave [1 0 ang dup sin exch cos div 1 0 0] concat} def 
/mp {newpath /y exch def /x exch def} def
/side {[w .77 mul w .23 mul] .385 w mul sd w 0 l currentpoint t -144 r} def
/mr {mp x y w2 0 360 arc} def /m24 {mr s} def /m20 {mr f} def
/mb {mp x y w2 add m w2 neg 0 d 0 w neg d w 0 d 0 w d cl} def
/mt {mp x y w2 add m w2 neg w neg d w 0 d cl} def
/m21 {mb f} def /m25 {mb s} def /m22 {mt f} def /m26{mt s} def
/m23 {mp x y w2 sub m w2 w d w neg 0 d cl f} def
/m27 {mp x y w2 add m w3 neg w2 neg d w3 w2 neg d w3 w2 d cl s} def
/m28 {mp x w2 sub y w2 sub w3 add m w3 0 d  0 w3 neg d w3 0 d 0 w3 d w3 0 d  0 w3 d w3 neg 0 d 0 w3 d w3 neg 0 d 0 w3 neg d w3 neg 0 d cl s } def
/m29 {mp gsave x w2 sub y w2 add w3 sub m currentpoint t 4 {side} repeat cl fill gr} def
/m30 {mp gsave x w2 sub y w2 add w3 sub m currentpoint t 4 {side} repeat cl s gr} def
/m31 {mp x y w2 sub m 0 w d x w2 sub y m w 0 d x w2 sub y w2 add m w w neg d x w2 sub y w2 sub m w w d s} def
/m32 {mp x y w2 sub m w2 w d w neg 0 d cl s} def
/m33 {mp x y w2 add m w3 neg w2 neg d w3 w2 neg d w3 w2 d cl f} def
/m34 {mp x w2 sub y w2 sub w3 add m w3 0 d  0 w3 neg d w3 0 d 0 w3 d w3 0 d  0 w3 d w3 neg 0 d 0 w3 d w3 neg 0 d 0 w3 neg d w3 neg 0 d cl f } def
/m2 {mp x y w2 sub m 0 w d x w2 sub y m w 0 d s} def
/m5 {mp x w2 sub y w2 sub m w w d x w2 sub y w2 add m w w neg d s} def
%%IncludeResource: ProcSet (FontSetInit)
%%IncludeResource: font Times-Roman
%%IncludeResource: font Times-Italic
%%IncludeResource: font Times-Bold
%%IncludeResource: font Times-BoldItalic
%%IncludeResource: font Helvetica
%%IncludeResource: font Helvetica-Oblique
%%IncludeResource: font Helvetica-Bold
%%IncludeResource: font Helvetica-BoldOblique
%%IncludeResource: font Courier
%%IncludeResource: font Courier-Oblique
%%IncludeResource: font Courier-Bold
%%IncludeResource: font Courier-BoldOblique
%%IncludeResource: font Symbol
%%IncludeResource: font ZapfDingbats
/reEncode {exch findfont dup length dict begin {1 index /FID eq  {pop pop} {def} ifelse } forall /Encoding exch def currentdict end dup /FontName get exch definefont pop } def [/Times-Bold /Times-Italic /Times-BoldItalic /Helvetica /Helvetica-Oblique
 /Helvetica-Bold /Helvetica-BoldOblique /Courier /Courier-Oblique /Courier-Bold /Courier-BoldOblique /Times-Roman /AvantGarde-Book /AvantGarde-BookOblique /AvantGarde-Demi /AvantGarde-DemiOblique /Bookman-Demi /Bookman-DemiItalic /Bookman-Light
 /Bookman-LightItalic /Helvetica-Narrow /Helvetica-Narrow-Bold /Helvetica-Narrow-BoldOblique /Helvetica-Narrow-Oblique /NewCenturySchlbk-Roman /NewCenturySchlbk-Bold /NewCenturySchlbk-BoldItalic /NewCenturySchlbk-Italic /Palatino-Bold
 /Palatino-BoldItalic /Palatino-Italic /Palatino-Roman ] {ISOLatin1Encoding reEncode } forall
%%EndProlog
%%BeginSetup
%%EndSetup
newpath  gsave  .25 .25 scale  gsave  0 0 t black[  ] 0 sd 3 lw 1 1 1 c 2268 2085 0 0 bf black 1 1 1 c 2263 1770 2 313 bf black 1 1 1 c black 1860 1145 319 584 bl 1 1 1 c black 1860 1145 319 584 bl 6 lw 1 1 1 c black 3 lw /w 33 def /w2 {w 2 div} def
 /w3 {w 3 div} def 552 1059 m20 6 lw 3 lw 645 1115 m20 6 lw 3 lw 738 1133 m20 6 lw 3 lw 831 1129 m20 6 lw 3 lw 924 1095 m20 6 lw 3 lw 1017 1067 m20 6 lw 3 lw 1110 1029 m20 6 lw 3 lw 1203 986 m20 6 lw 3 lw 1296 935 m20 6 lw 1389 861 m 5 Y s 3 lw 1389
 879 m20 6 lw 1482 852 m 5 Y s 1482 884 m 1 Y s 3 lw 1482 871 m20 6 lw 1575 852 m 5 Y s 1575 884 m 1 Y s 3 lw 1575 871 m20 6 lw 1668 833 m 9 Y s 1668 869 m 2 Y s 3 lw 1668 855 m20 6 lw 1761 734 m 37 Y s 1761 798 m 13 Y s 3 lw 1761 784 m20 6 lw 1854
 584 m 122 Y s 1854 733 m 28 Y s 3 lw 1854 720 m20 6 lw 2040 584 m 122 Y s 2040 733 m 28 Y s 3 lw 2040 720 m20 6 lw 2133 584 m 122 Y s 2133 733 m 28 Y s 3 lw 2133 720 m20 6 lw 3 lw 319 584 m 1860 X s
 gsave  2263 1770 2 313 C 1949.08 355.92 t 0 r /Helvetica findfont 81.3741 sf 0 0 m ( [GeV]) show NC gr 
 gsave  2263 1770 2 313 C 1837.22 396.596 t 0 r /Helvetica findfont 54.2494 sf 0 0 m (miss) show NC gr 
 gsave  2263 1770 2 313 C 1837.22 332.192 t 0 r /Helvetica findfont 54.2494 sf 0 0 m (T) show NC gr 
 gsave  2263 1770 2 313 C 1786.38 355.92 t 0 r /Helvetica findfont 81.3741 sf 0 0 m (E) show NC gr  412 584 m cl s 459 584 m cl s 505 584 m cl s 552 584 m cl s 598 584 m cl s 645 584 m cl s 691 584 m cl s 738 584 m cl s 784 584 m cl s 831 584 m cl s
 877 584 m cl s 924 584 m cl s 970 584 m cl s 1017 584 m cl s 1063 584 m cl s 1110 584 m cl s 1156 584 m cl s 1203 584 m cl s 1249 584 m cl s 1296 584 m cl s 1342 584 m cl s 1389 584 m cl s 1435 584 m cl s 1482 584 m cl s 1528 584 m cl s 1575 584 m
 cl s 1621 584 m cl s 1668 584 m cl s 1714 584 m cl s 1761 584 m cl s 1807 584 m cl s 1854 584 m cl s 1900 584 m cl s 1947 584 m cl s 1993 584 m cl s 2040 584 m cl s 2086 584 m cl s 412 584 m cl s 366 584 m cl s 319 584 m cl s 2086 584 m cl s 2133
 584 m cl s 2179 584 m cl s 319 1729 m 1860 X s 412 1729 m cl s 459 1729 m cl s 505 1729 m cl s 552 1729 m cl s 598 1729 m cl s 645 1729 m cl s 691 1729 m cl s 738 1729 m cl s 784 1729 m cl s 831 1729 m cl s 877 1729 m cl s 924 1729 m cl s 970 1729 m
 cl s 1017 1729 m cl s 1063 1729 m cl s 1110 1729 m cl s 1156 1729 m cl s 1203 1729 m cl s 1249 1729 m cl s 1296 1729 m cl s 1342 1729 m cl s 1389 1729 m cl s 1435 1729 m cl s 1482 1729 m cl s 1528 1729 m cl s 1575 1729 m cl s 1621 1729 m cl s 1668
 1729 m cl s 1714 1729 m cl s 1761 1729 m cl s 1807 1729 m cl s 1854 1729 m cl s 1900 1729 m cl s 1947 1729 m cl s 1993 1729 m cl s 2040 1729 m cl s 2086 1729 m cl s 412 1729 m cl s 366 1729 m cl s 319 1729 m cl s 2086 1729 m cl s 2133 1729 m cl s
 2179 1729 m cl s 319 584 m 1145 Y s
 gsave  2263 1770 2 313 C 166.096 1091.49 t 90 r /Helvetica findfont 81.3741 sf 0 0 m (Events / 100 GeV) show NC gr  341 625 m -22 X s 341 649 m -22 X s 341 666 m -22 X s 341 679 m -22 X s 341 690 m -22 X s 341 699 m -22 X s 341 707 m -22 X s 341 714
 m -22 X s 363 720 m -44 X s
 gsave  2263 1770 2 313 C 300.555 692.645 t 0 r  -36 0 t /Helvetica findfont 64.4212 sf 0 0 m (1) show NC gr  341 761 m -22 X s 341 784 m -22 X s 341 801 m -22 X s 341 814 m -22 X s 341 825 m -22 X s 341 834 m -22 X s 341 842 m -22 X s 341 849 m -22
 X s 363 855 m -44 X s
 gsave  2263 1770 2 313 C 300.555 828.099 t 0 r  -73 0 t /Helvetica findfont 64.4212 sf 0 0 m (10) show NC gr  341 896 m -22 X s 341 920 m -22 X s 341 937 m -22 X s 341 950 m -22 X s 341 961 m -22 X s 341 970 m -22 X s 341 978 m -22 X s 341 984 m -22
 X s 363 991 m -44 X s
 gsave  2263 1770 2 313 C 274.567 989.796 t 0 r /Helvetica findfont 44.0776 sf 0 0 m (2) show NC gr 
 gsave  2263 1770 2 313 C 203.383 962.678 t 0 r /Helvetica findfont 64.4212 sf 0 0 m (10) show NC gr  341 1031 m -22 X s 341 1055 m -22 X s 341 1072 m -22 X s 341 1085 m -22 X s 341 1096 m -22 X s 341 1105 m -22 X s 341 1113 m -22 X s 341 1120 m -22
 X s 363 1126 m -44 X s
 gsave  2263 1770 2 313 C 274.567 1128.77 t 0 r /Helvetica findfont 44.0776 sf 0 0 m (3) show NC gr 
 gsave  2263 1770 2 313 C 203.383 1098.27 t 0 r /Helvetica findfont 64.4212 sf 0 0 m (10) show NC gr  341 1167 m -22 X s 341 1191 m -22 X s 341 1208 m -22 X s 341 1221 m -22 X s 341 1232 m -22 X s 341 1241 m -22 X s 341 1248 m -22 X s 341 1255 m -22
 X s 363 1262 m -44 X s
 gsave  2263 1770 2 313 C 274.567 1260.97 t 0 r /Helvetica findfont 44.0776 sf 0 0 m (4) show NC gr 
 gsave  2263 1770 2 313 C 203.383 1233.85 t 0 r /Helvetica findfont 64.4212 sf 0 0 m (10) show NC gr  341 1302 m -22 X s 341 1326 m -22 X s 341 1343 m -22 X s 341 1356 m -22 X s 341 1367 m -22 X s 341 1376 m -22 X s 341 1384 m -22 X s 341 1391 m -22
 X s 363 1397 m -44 X s
 gsave  2263 1770 2 313 C 274.567 1399.95 t 0 r /Helvetica findfont 44.0776 sf 0 0 m (5) show NC gr 
 gsave  2263 1770 2 313 C 203.383 1369.44 t 0 r /Helvetica findfont 64.4212 sf 0 0 m (10) show NC gr  341 1438 m -22 X s 341 1462 m -22 X s 341 1479 m -22 X s 341 1492 m -22 X s 341 1502 m -22 X s 341 1512 m -22 X s 341 1519 m -22 X s 341 1526 m -22
 X s 363 1532 m -44 X s
 gsave  2263 1770 2 313 C 274.567 1535.54 t 0 r /Helvetica findfont 44.0776 sf 0 0 m (6) show NC gr 
 gsave  2263 1770 2 313 C 203.383 1505.03 t 0 r /Helvetica findfont 64.4212 sf 0 0 m (10) show NC gr  341 1573 m -22 X s 341 1597 m -22 X s 341 1614 m -22 X s 341 1627 m -22 X s 341 1638 m -22 X s 341 1647 m -22 X s 341 1655 m -22 X s 341 1662 m -22
 X s 363 1668 m -44 X s
 gsave  2263 1770 2 313 C 274.567 1667.74 t 0 r /Helvetica findfont 44.0776 sf 0 0 m (7) show NC gr 
 gsave  2263 1770 2 313 C 203.383 1640.62 t 0 r /Helvetica findfont 64.4212 sf 0 0 m (10) show NC gr  341 1709 m -22 X s 2179 584 m 1145 Y s 2157 625 m 22 X s 2157 649 m 22 X s 2157 666 m 22 X s 2157 679 m 22 X s 2157 690 m 22 X s 2157 699 m 22 X s
 2157 707 m 22 X s 2157 714 m 22 X s 2136 720 m 43 X s 2157 761 m 22 X s 2157 784 m 22 X s 2157 801 m 22 X s 2157 814 m 22 X s 2157 825 m 22 X s 2157 834 m 22 X s 2157 842 m 22 X s 2157 849 m 22 X s 2136 855 m 43 X s 2157 896 m 22 X s 2157 920 m 22 X
 s 2157 937 m 22 X s 2157 950 m 22 X s 2157 961 m 22 X s 2157 970 m 22 X s 2157 978 m 22 X s 2157 984 m 22 X s 2136 991 m 43 X s 2157 1031 m 22 X s 2157 1055 m 22 X s 2157 1072 m 22 X s 2157 1085 m 22 X s 2157 1096 m 22 X s 2157 1105 m 22 X s 2157
 1113 m 22 X s 2157 1120 m 22 X s 2136 1126 m 43 X s 2157 1167 m 22 X s 2157 1191 m 22 X s 2157 1208 m 22 X s 2157 1221 m 22 X s 2157 1232 m 22 X s 2157 1241 m 22 X s 2157 1248 m 22 X s 2157 1255 m 22 X s 2136 1262 m 43 X s 2157 1302 m 22 X s 2157
 1326 m 22 X s 2157 1343 m 22 X s 2157 1356 m 22 X s 2157 1367 m 22 X s 2157 1376 m 22 X s 2157 1384 m 22 X s 2157 1391 m 22 X s 2136 1397 m 43 X s 2157 1438 m 22 X s 2157 1462 m 22 X s 2157 1479 m 22 X s 2157 1492 m 22 X s 2157 1502 m 22 X s 2157
 1512 m 22 X s 2157 1519 m 22 X s 2157 1526 m 22 X s 2136 1532 m 43 X s 2157 1573 m 22 X s 2157 1597 m 22 X s 2157 1614 m 22 X s 2157 1627 m 22 X s 2157 1638 m 22 X s 2157 1647 m 22 X s 2157 1655 m 22 X s 2157 1662 m 22 X s 2136 1668 m 43 X s 2157
 1709 m 22 X s 0.4 0.6 1 c black 0.4 0.6 1 c 319 584 m 186 X 479 Y 93 X 56 Y 93 X 11 Y 93 X -2 Y 93 X -34 Y 93 X -39 Y 93 X -36 Y 93 X -35 Y 93 X -31 Y 93 X -48 Y 93 X -18 Y 93 X -42 Y 93 X -23 Y 93 X -47 Y 93 X -17 Y 93 X -26 Y 93 X -40 Y 93 X 33 Y
 93 X -141 Y f black 0.4 0.6 1 c black 319 584 m 186 X 479 Y 93 X 56 Y 93 X 11 Y 93 X -2 Y 93 X -34 Y 93 X -39 Y 93 X -36 Y 93 X -35 Y 93 X -31 Y 93 X -48 Y 93 X -18 Y 93 X -42 Y 93 X -23 Y 93 X -47 Y 93 X -17 Y 93 X -26 Y 93 X -40 Y 93 X 33 Y 93 X s
 0.999 0.999 0.999 c black 0.999 0.999 0.999 c 319 584 m 186 X 460 Y 93 X 57 Y 93 X 12 Y 93 X 1 Y 93 X -34 Y 93 X -39 Y 93 X -34 Y 93 X -35 Y 93 X -28 Y 93 X -53 Y 93 X -15 Y 93 X -41 Y 93 X -23 Y 93 X -50 Y 93 X -12 Y 93 X -48 Y 93 X -18 Y 93 X 33 Y
 93 X -133 Y f black 0.999 0.999 0.999 c black 319 584 m 186 X 460 Y 93 X 57 Y 93 X 12 Y 93 X 1 Y 93 X -34 Y 93 X -39 Y 93 X -34 Y 93 X -35 Y 93 X -28 Y 93 X -53 Y 93 X -15 Y 93 X -41 Y 93 X -23 Y 93 X -50 Y 93 X -12 Y 93 X -48 Y 93 X -18 Y 93 X 33 Y
 93 X s 1 1 1 c black 319 584 m 186 X 460 Y 93 X 57 Y 93 X 12 Y 93 X 1 Y 93 X -34 Y 93 X -39 Y 93 X -34 Y 93 X -35 Y 93 X -28 Y 93 X -53 Y 93 X -15 Y 93 X -41 Y 93 X -23 Y 93 X -50 Y 93 X -12 Y 93 X -48 Y 93 X -18 Y 93 X 33 Y 93 X s 0.6 1 0.6 c black
 0.6 1 0.6 c 319 584 m 186 X 460 Y 93 X 57 Y 93 X 12 Y 93 X 1 Y 93 X -34 Y 93 X -39 Y 93 X -34 Y 93 X -35 Y 93 X -28 Y 93 X -53 Y 93 X -15 Y 93 X -41 Y 93 X -23 Y 93 X -50 Y 93 X -12 Y 93 X -48 Y 93 X -18 Y 93 X 33 Y 93 X -133 Y f black 0.6 1 0.6 c
 black 319 584 m 186 X 460 Y 93 X 57 Y 93 X 12 Y 93 X 1 Y 93 X -34 Y 93 X -39 Y 93 X -34 Y 93 X -35 Y 93 X -28 Y 93 X -53 Y 93 X -15 Y 93 X -41 Y 93 X -23 Y 93 X -50 Y 93 X -12 Y 93 X -48 Y 93 X -18 Y 93 X 33 Y 93 X s 0.999 0.999 0.999 c black 0.999
 0.999 0.999 c 319 584 m 186 X 451 Y 93 X 59 Y 93 X 15 Y 93 X 2 Y 93 X -33 Y 93 X -39 Y 93 X -34 Y 93 X -34 Y 93 X -29 Y 93 X -54 Y 93 X -13 Y 93 X -43 Y 93 X -24 Y 93 X -46 Y 93 X -12 Y 93 X -49 Y 93 X -17 Y 93 X 34 Y 93 X -134 Y f black 0.999 0.999
 0.999 c black 319 584 m 186 X 451 Y 93 X 59 Y 93 X 15 Y 93 X 2 Y 93 X -33 Y 93 X -39 Y 93 X -34 Y 93 X -34 Y 93 X -29 Y 93 X -54 Y 93 X -13 Y 93 X -43 Y 93 X -24 Y 93 X -46 Y 93 X -12 Y 93 X -49 Y 93 X -17 Y 93 X 34 Y 93 X s 1 1 1 c black 319 584 m
 186 X 451 Y 93 X 59 Y 93 X 15 Y 93 X 2 Y 93 X -33 Y 93 X -39 Y 93 X -34 Y 93 X -34 Y 93 X -29 Y 93 X -54 Y 93 X -13 Y 93 X -43 Y 93 X -24 Y 93 X -46 Y 93 X -12 Y 93 X -49 Y 93 X -17 Y 93 X 34 Y 93 X s 1 0.8 0.4 c black 1 0.8 0.4 c 319 584 m 186 X
 451 Y 93 X 59 Y 93 X 15 Y 93 X 2 Y 93 X -33 Y 93 X -39 Y 93 X -34 Y 93 X -34 Y 93 X -29 Y 93 X -54 Y 93 X -13 Y 93 X -43 Y 93 X -24 Y 93 X -46 Y 93 X -12 Y 93 X -49 Y 93 X -17 Y 93 X 34 Y 93 X -134 Y f black 1 0.8 0.4 c black 319 584 m 186 X 451 Y
 93 X 59 Y 93 X 15 Y 93 X 2 Y 93 X -33 Y 93 X -39 Y 93 X -34 Y 93 X -34 Y 93 X -29 Y 93 X -54 Y 93 X -13 Y 93 X -43 Y 93 X -24 Y 93 X -46 Y 93 X -12 Y 93 X -49 Y 93 X -17 Y 93 X 34 Y 93 X s 0.999 0.999 0.999 c black 0.999 0.999 0.999 c 319 584 m 186
 X 307 Y 93 X 62 Y 93 X 15 Y 93 X -3 Y 93 X -30 Y 93 X -45 Y 93 X -26 Y 93 X -26 Y 93 X -31 Y 93 X -44 Y 93 X 1 Y 93 X -60 Y 93 X -15 Y 93 X -105 Y 93 X 59 Y 93 X -59 Y 186 X 20 Y 93 X -20 Y f black 0.999 0.999 0.999 c black 319 584 m 186 X 307 Y 93
 X 62 Y 93 X 15 Y 93 X -3 Y 93 X -30 Y 93 X -45 Y 93 X -26 Y 93 X -26 Y 93 X -31 Y 93 X -44 Y 93 X 1 Y 93 X -60 Y 93 X -15 Y 93 X -105 Y 93 X 59 Y 93 X -59 Y 186 X 20 Y 93 X s 1 1 1 c black 319 584 m 186 X 307 Y 93 X 62 Y 93 X 15 Y 93 X -3 Y 93 X -30
 Y 93 X -45 Y 93 X -26 Y 93 X -26 Y 93 X -31 Y 93 X -44 Y 93 X 1 Y 93 X -60 Y 93 X -15 Y 93 X -105 Y 93 X 59 Y 93 X -59 Y 186 X 20 Y 93 X s 1 0.4 0.6 c black 1 0.4 0.6 c 319 584 m 186 X 307 Y 93 X 62 Y 93 X 15 Y 93 X -3 Y 93 X -30 Y 93 X -45 Y 93 X
 -26 Y 93 X -26 Y 93 X -31 Y 93 X -44 Y 93 X 1 Y 93 X -60 Y 93 X -15 Y 93 X -105 Y 93 X 59 Y 93 X -59 Y 186 X 20 Y 93 X -20 Y f black 1 0.4 0.6 c black 319 584 m 186 X 307 Y 93 X 62 Y 93 X 15 Y 93 X -3 Y 93 X -30 Y 93 X -45 Y 93 X -26 Y 93 X -26 Y 93
 X -31 Y 93 X -44 Y 93 X 1 Y 93 X -60 Y 93 X -15 Y 93 X -105 Y 93 X 59 Y 93 X -59 Y 186 X 20 Y 93 X s 0.999 0.999 0.999 c black 0.999 0.999 0.999 c 319 584 m 279 X 36 Y 186 X 9 Y 93 X 3 Y 93 X -48 Y 1209 X f black 0.999 0.999 0.999 c black 319 584 m
 279 X 36 Y 186 X 9 Y 93 X 3 Y 93 X -48 Y 1209 X s 1 1 1 c black 319 584 m 279 X 36 Y 186 X 9 Y 93 X 3 Y 93 X -48 Y 1209 X s 0 0 0.4 c black 0 0 0.4 c 319 584 m 279 X 36 Y 186 X 9 Y 93 X 3 Y 93 X -48 Y 1209 X f black 0 0 0.4 c black 319 584 m 279 X
 36 Y 186 X 9 Y 93 X 3 Y 93 X -48 Y 1209 X s 1 0 0 c 6 lw 1 1 1 c black 1 0 0 c 319 584 m 186 X 479 Y 93 X 56 Y 93 X 11 Y 93 X -2 Y 93 X -34 Y 93 X -39 Y 93 X -36 Y 93 X -35 Y 93 X -31 Y 93 X -48 Y 93 X -18 Y 93 X -42 Y 93 X -23 Y 93 X -47 Y 93 X -17
 Y 93 X -26 Y 93 X -40 Y 93 X 33 Y 93 X s black 3 lw 1 0 0 c 1 lw << /PatternType 1 /PaintType 2 /TilingType 1 /BBox [ 0 0 100 100 ] /XStep 100 /YStep 100 /PaintProc { begin gsave 0 100 m 100 0 l s gr end } >> [ 0.24 0 0 0.24 0 0 ] makepattern /P05
 exch def /cs {[/Pattern /DeviceRGB] setcolorspace} def /FA {f [/DeviceRGB] setcolorspace} def cs 1 0 0 P05 setcolor 505 584 m 482 Y 93 X 56 Y 93 X 11 Y 93 X -2 Y 93 X -34 Y 93 X -39 Y 93 X -36 Y 93 X -34 Y 93 X -31 Y 93 X -39 Y 93 X -26 Y 93 X -37 Y
 93 X -26 Y 93 X -47 Y 93 X -14 Y 93 X -21 Y 93 X -41 Y 93 X 31 Y 93 X -153 Y 127 Y -93 X -37 Y -93 X 40 Y -93 X 33 Y -93 X 21 Y -93 X 47 Y -93 X 17 Y -93 X 50 Y -93 X 6 Y -93 X 61 Y -93 X 31 Y -93 X 35 Y -93 X 37 Y -93 X 39 Y -93 X 34 Y -93 X 2 Y
 -93 X -12 Y -93 X -55 Y -93 X -476 Y FA 6 lw 1 1 1 c 15 lw 1668 835 m -2 Y s 1668 833 m cl s 1761 805 m 8 Y s 1761 813 m cl s 1761 764 m -26 Y s 1761 738 m cl s 1854 740 m 28 Y s 1854 768 m cl s 1854 699 m -82 Y s 1854 617 m cl s 2040 740 m 28 Y s
 2040 768 m cl s 2040 699 m -82 Y s 2040 617 m cl s 2133 740 m 28 Y s 2133 768 m cl s 2133 699 m -82 Y s 2133 617 m cl s black 1 1 1 c 3 lw /w 43 def /w2 {w 2 div} def /w3 {w 3 div} def 552 1059 645 1115 738 1133 831 1129 924 1095 1017 1067 1110 1029
 1203 986 1296 935 1389 879 1482 871 1575 871 1668 855 1761 784 1854 720 15 { m20} R 15 lw 3 lw 2040 720 2133 720 2 { m20} R 15 lw black 6 lw 1 1 1 c black 3 lw /w 33 def /w2 {w 2 div} def /w3 {w 3 div} def 552 1059 m20 6 lw 3 lw 645 1115 m20 6 lw 3
 lw 738 1133 m20 6 lw 3 lw 831 1129 m20 6 lw 3 lw 924 1095 m20 6 lw 3 lw 1017 1067 m20 6 lw 3 lw 1110 1029 m20 6 lw 3 lw 1203 986 m20 6 lw 3 lw 1296 935 m20 6 lw 1389 861 m 5 Y s 3 lw 1389 879 m20 6 lw 1482 852 m 5 Y s 1482 884 m 1 Y s 3 lw 1482 871
 m20 6 lw 1575 852 m 5 Y s 1575 884 m 1 Y s 3 lw 1575 871 m20 6 lw 1668 833 m 9 Y s 1668 869 m 2 Y s 3 lw 1668 855 m20 6 lw 1761 734 m 37 Y s 1761 798 m 13 Y s 3 lw 1761 784 m20 6 lw 1854 584 m 122 Y s 1854 733 m 28 Y s 3 lw 1854 720 m20 6 lw 2040
 584 m 122 Y s 2040 733 m 28 Y s 3 lw 2040 720 m20 6 lw 2133 584 m 122 Y s 2133 733 m 28 Y s 3 lw 2133 720 m20 6 lw 1389 893 m s 1389 893 m cl s 1389 866 m -4 Y s 1389 862 m cl s 1482 884 m 1 Y s 1482 885 m cl s 1482 857 m -5 Y s 1482 852 m cl s 1575
 884 m 1 Y s 1575 885 m cl s 1575 857 m -5 Y s 1575 852 m cl s 1668 869 m 3 Y s 1668 872 m cl s 1668 842 m -9 Y s 1668 833 m cl s 1761 798 m 15 Y s 1761 813 m cl s 1761 771 m -33 Y s 1761 738 m cl s 1854 733 m 35 Y s 1854 768 m cl s 1854 706 m -89 Y
 s 1854 617 m cl s 2040 733 m 35 Y s 2040 768 m cl s 2040 706 m -89 Y s 2040 617 m cl s 2133 733 m 35 Y s 2133 768 m cl s 2133 706 m -89 Y s 2133 617 m cl s 3 lw 552 1059 645 1115 738 1133 831 1129 924 1095 1017 1067 1110 1029 1203 986 1296 935 1389
 879 1482 871 1575 871 1668 855 1761 784 1854 720 15 { m20} R 6 lw 3 lw 2040 720 2133 720 2 { m20} R 6 lw 3 lw 319 584 m 1860 X s 412 584 m cl s 459 584 m cl s 505 584 m cl s 552 584 m cl s 598 584 m cl s 645 584 m cl s 691 584 m cl s 738 584 m cl s
 784 584 m cl s 831 584 m cl s 877 584 m cl s 924 584 m cl s 970 584 m cl s 1017 584 m cl s 1063 584 m cl s 1110 584 m cl s 1156 584 m cl s 1203 584 m cl s 1249 584 m cl s 1296 584 m cl s 1342 584 m cl s 1389 584 m cl s 1435 584 m cl s 1482 584 m cl
 s 1528 584 m cl s 1575 584 m cl s 1621 584 m cl s 1668 584 m cl s 1714 584 m cl s 1761 584 m cl s 1807 584 m cl s 1854 584 m cl s 1900 584 m cl s 1947 584 m cl s 1993 584 m cl s 2040 584 m cl s 2086 584 m cl s 412 584 m cl s 366 584 m cl s 319 584 m
 cl s 2086 584 m cl s 2133 584 m cl s 2179 584 m cl s 319 1729 m 1860 X s 412 1729 m cl s 459 1729 m cl s 505 1729 m cl s 552 1729 m cl s 598 1729 m cl s 645 1729 m cl s 691 1729 m cl s 738 1729 m cl s 784 1729 m cl s 831 1729 m cl s 877 1729 m cl s
 924 1729 m cl s 970 1729 m cl s 1017 1729 m cl s 1063 1729 m cl s 1110 1729 m cl s 1156 1729 m cl s 1203 1729 m cl s 1249 1729 m cl s 1296 1729 m cl s 1342 1729 m cl s 1389 1729 m cl s 1435 1729 m cl s 1482 1729 m cl s 1528 1729 m cl s 1575 1729 m
 cl s 1621 1729 m cl s 1668 1729 m cl s 1714 1729 m cl s 1761 1729 m cl s 1807 1729 m cl s 1854 1729 m cl s 1900 1729 m cl s 1947 1729 m cl s 1993 1729 m cl s 2040 1729 m cl s 2086 1729 m cl s 412 1729 m cl s 366 1729 m cl s 319 1729 m cl s 2086 1729
 m cl s 2133 1729 m cl s 2179 1729 m cl s 319 584 m 1145 Y s 341 625 m -22 X s 341 649 m -22 X s 341 666 m -22 X s 341 679 m -22 X s 341 690 m -22 X s 341 699 m -22 X s 341 707 m -22 X s 341 714 m -22 X s 363 720 m -44 X s 341 761 m -22 X s 341 784 m
 -22 X s 341 801 m -22 X s 341 814 m -22 X s 341 825 m -22 X s 341 834 m -22 X s 341 842 m -22 X s 341 849 m -22 X s 363 855 m -44 X s 341 896 m -22 X s 341 920 m -22 X s 341 937 m -22 X s 341 950 m -22 X s 341 961 m -22 X s 341 970 m -22 X s 341 978
 m -22 X s 341 984 m -22 X s 363 991 m -44 X s 341 1031 m -22 X s 341 1055 m -22 X s 341 1072 m -22 X s 341 1085 m -22 X s 341 1096 m -22 X s 341 1105 m -22 X s 341 1113 m -22 X s 341 1120 m -22 X s 363 1126 m -44 X s 341 1167 m -22 X s 341 1191 m
 -22 X s 341 1208 m -22 X s 341 1221 m -22 X s 341 1232 m -22 X s 341 1241 m -22 X s 341 1248 m -22 X s 341 1255 m -22 X s 363 1262 m -44 X s 341 1302 m -22 X s 341 1326 m -22 X s 341 1343 m -22 X s 341 1356 m -22 X s 341 1367 m -22 X s 341 1376 m
 -22 X s 341 1384 m -22 X s 341 1391 m -22 X s 363 1397 m -44 X s 341 1438 m -22 X s 341 1462 m -22 X s 341 1479 m -22 X s 341 1492 m -22 X s 341 1502 m -22 X s 341 1512 m -22 X s 341 1519 m -22 X s 341 1526 m -22 X s 363 1532 m -44 X s 341 1573 m
 -22 X s 341 1597 m -22 X s 341 1614 m -22 X s 341 1627 m -22 X s 341 1638 m -22 X s 341 1647 m -22 X s 341 1655 m -22 X s 341 1662 m -22 X s 363 1668 m -44 X s 341 1709 m -22 X s 2179 584 m 1145 Y s 2157 625 m 22 X s 2157 649 m 22 X s 2157 666 m 22
 X s 2157 679 m 22 X s 2157 690 m 22 X s 2157 699 m 22 X s 2157 707 m 22 X s 2157 714 m 22 X s 2136 720 m 43 X s 2157 761 m 22 X s 2157 784 m 22 X s 2157 801 m 22 X s 2157 814 m 22 X s 2157 825 m 22 X s 2157 834 m 22 X s 2157 842 m 22 X s 2157 849 m
 22 X s 2136 855 m 43 X s 2157 896 m 22 X s 2157 920 m 22 X s 2157 937 m 22 X s 2157 950 m 22 X s 2157 961 m 22 X s 2157 970 m 22 X s 2157 978 m 22 X s 2157 984 m 22 X s 2136 991 m 43 X s 2157 1031 m 22 X s 2157 1055 m 22 X s 2157 1072 m 22 X s 2157
 1085 m 22 X s 2157 1096 m 22 X s 2157 1105 m 22 X s 2157 1113 m 22 X s 2157 1120 m 22 X s 2136 1126 m 43 X s 2157 1167 m 22 X s 2157 1191 m 22 X s 2157 1208 m 22 X s 2157 1221 m 22 X s 2157 1232 m 22 X s 2157 1241 m 22 X s 2157 1248 m 22 X s 2157
 1255 m 22 X s 2136 1262 m 43 X s 2157 1302 m 22 X s 2157 1326 m 22 X s 2157 1343 m 22 X s 2157 1356 m 22 X s 2157 1367 m 22 X s 2157 1376 m 22 X s 2157 1384 m 22 X s 2157 1391 m 22 X s 2136 1397 m 43 X s 2157 1438 m 22 X s 2157 1462 m 22 X s 2157
 1479 m 22 X s 2157 1492 m 22 X s 2157 1502 m 22 X s 2157 1512 m 22 X s 2157 1519 m 22 X s 2157 1526 m 22 X s 2136 1532 m 43 X s 2157 1573 m 22 X s 2157 1597 m 22 X s 2157 1614 m 22 X s 2157 1627 m 22 X s 2157 1638 m 22 X s 2157 1647 m 22 X s 2157
 1655 m 22 X s 2157 1662 m 22 X s 2136 1668 m 43 X s 2157 1709 m 22 X s
 gsave  2263 1770 2 313 C 406.765 1447.41 t 0 r /Helvetica findfont 64.4212 sf 0 0 m (SR for MB\255C) show NC gr 
 gsave  2263 1770 2 313 C 1464.36 1630.45 t 0 r /Helvetica findfont 64.4212 sf 0 0 m (SM Total) show NC gr  1 1 1 c 1338 1616 m 107 X 64 Y -107 X f 1 0 0 c 6 lw 1338 1648 m 107 X s black
 gsave  2263 1770 2 313 C 1464.36 1538.93 t 0 r /Helvetica findfont 64.4212 sf 0 0 m (Data) show NC gr  1391 1529 m 55 Y s 3 lw 1391 1557 m20 6 lw
 gsave  2263 1770 2 313 C 1464.36 1447.41 t 0 r /Helvetica findfont 64.4212 sf 0 0 m (W+jets) show NC gr  0.4 0.6 1 c 3 lw 1338 1434 m 107 X 64 Y -107 X f 6 lw black 3 lw 1338 1498 m 107 X s 1338 1434 m 107 X s 1445 1434 m 64 Y s 1338 1434 m 64 Y s
 gsave  2263 1770 2 313 C 1498.25 1355.88 t 0 r /Helvetica findfont 64.4212 sf 0 0 m (\(+EW\) & single top) show NC gr 
 gsave  2263 1770 2 313 C 1481.3 1355.88 t 0 r /Helvetica findfont 64.4212 sf 0 0 m (t) show NC gr  1481 1407 m 17 X s
 gsave  2263 1770 2 313 C 1464.36 1355.88 t 0 r /Helvetica findfont 64.4212 sf 0 0 m (t) show NC gr  0.6 1 0.6 c 1338 1343 m 107 X 63 Y -107 X f black 1338 1406 m 107 X s 1338 1343 m 107 X s 1445 1343 m 63 Y s 1338 1343 m 63 Y s
 gsave  2263 1770 2 313 C 1464.36 1264.36 t 0 r /Helvetica findfont 64.4212 sf 0 0 m (Z+jets) show NC gr  1 0.8 0.4 c 1338 1252 m 107 X 63 Y -107 X f black 1338 1315 m 107 X s 1338 1252 m 107 X s 1445 1252 m 63 Y s 1338 1252 m 63 Y s
 gsave  2263 1770 2 313 C 1464.36 1172.84 t 0 r /Helvetica findfont 64.4212 sf 0 0 m (Diboson) show NC gr  1 0.4 0.6 c 1338 1161 m 107 X 63 Y -107 X f black 1338 1224 m 107 X s 1338 1161 m 107 X s 1445 1161 m 63 Y s 1338 1161 m 63 Y s
 gsave  2263 1770 2 313 C 1464.36 1081.32 t 0 r /Helvetica findfont 64.4212 sf 0 0 m (Multi\255jet) show NC gr  0 0 0.4 c 1338 1070 m 107 X 63 Y -107 X f black 1338 1133 m 107 X s 1338 1070 m 107 X s 1445 1070 m 63 Y s 1338 1070 m 63 Y s
 gsave  2263 1770 2 313 C 911.832 1566.05 t 0 r /Helvetica findfont 44.0776 sf 0 0 m (\2551) show NC gr 
 gsave  2263 1770 2 313 C 471.17 1535.54 t 0 r /Helvetica findfont 64.4212 sf 0 0 m (=13TeV, 139 fb) show NC gr 
 gsave  2263 1770 2 313 C 440.662 1535.54 t 0 r /Helvetica findfont 64.4212 sf 0 0 m (s) show NC gr  6 lw 420 1573 m 7 -41 d s 3 lw 427 1532 m 7 61 d s 434 1593 m 37 X s 1 1 1 c 2254 561 2 2 bf black 1 1 1 c black 1860 358 318 187 bl 1 1 1 c black
 1860 358 318 187 bl 6 lw 1 1 1 c black 3 lw 550 354 m20 6 lw 3 lw 643 357 m20 6 lw 3 lw 736 375 m20 6 lw 3 lw 829 368 m20 6 lw 3 lw 923 368 m20 6 lw 3 lw 1016 401 m20 6 lw 3 lw 1109 397 m20 6 lw 3 lw 1202 373 m20 6 lw 3 lw 1295 323 m20 6 lw 3 lw
 1388 308 m20 6 lw 3 lw 1481 326 m20 6 lw 3 lw 1574 456 m20 6 lw 3 lw 1667 488 m20 6 lw 3 lw 1760 393 m20 6 lw 3 lw 1853 288 m20 6 lw 3 lw 2039 463 m20 6 lw 3 lw 2132 351 m20 6 lw 3 lw 318 187 m 1860 X s
 gsave  2254 561 2 2 C 1959.25 27.1177 t 0 r /Helvetica findfont 78.1689 sf 0 0 m ( [GeV]) show NC gr 
 gsave  2254 561 2 2 C 1854.17 64.4045 t 0 r /Helvetica findfont 50.9797 sf 0 0 m (miss) show NC gr 
 gsave  2254 561 2 2 C 1854.17 3.38971 t 0 r /Helvetica findfont 50.9797 sf 0 0 m (T) show NC gr 
 gsave  2254 561 2 2 C 1803.33 27.1177 t 0 r /Helvetica findfont 78.1689 sf 0 0 m (E) show NC gr  411 201 m -14 Y s 457 194 m -7 Y s 504 194 m -7 Y s 550 194 m -7 Y s 597 201 m -14 Y s 643 194 m -7 Y s 690 194 m -7 Y s 736 194 m -7 Y s 783 201 m -14
 Y s 829 194 m -7 Y s 876 194 m -7 Y s 923 194 m -7 Y s 969 201 m -14 Y s 1016 194 m -7 Y s 1062 194 m -7 Y s 1109 194 m -7 Y s 1155 201 m -14 Y s 1202 194 m -7 Y s 1248 194 m -7 Y s 1295 194 m -7 Y s 1341 201 m -14 Y s 1388 194 m -7 Y s 1434 194 m
 -7 Y s 1481 194 m -7 Y s 1527 201 m -14 Y s 1574 194 m -7 Y s 1620 194 m -7 Y s 1667 194 m -7 Y s 1713 201 m -14 Y s 1760 194 m -7 Y s 1806 194 m -7 Y s 1853 194 m -7 Y s 1899 201 m -14 Y s 1946 194 m -7 Y s 1992 194 m -7 Y s 2039 194 m -7 Y s 2085
 201 m -14 Y s 411 201 m -14 Y s 364 194 m -7 Y s 318 194 m -7 Y s 2085 201 m -14 Y s 2132 194 m -7 Y s
 gsave  2254 561 2 2 C 345.75 118.64 t 0 r /Helvetica findfont 78.1689 sf 0 0 m (400) show NC gr 
 gsave  2254 561 2 2 C 532.185 118.64 t 0 r /Helvetica findfont 78.1689 sf 0 0 m (600) show NC gr 
 gsave  2254 561 2 2 C 715.229 118.64 t 0 r /Helvetica findfont 78.1689 sf 0 0 m (800) show NC gr 
 gsave  2254 561 2 2 C 877.935 118.64 t 0 r /Helvetica findfont 78.1689 sf 0 0 m (1000) show NC gr 
 gsave  2254 561 2 2 C 1064.37 118.64 t 0 r /Helvetica findfont 78.1689 sf 0 0 m (1200) show NC gr 
 gsave  2254 561 2 2 C 1250.8 118.64 t 0 r /Helvetica findfont 78.1689 sf 0 0 m (1400) show NC gr 
 gsave  2254 561 2 2 C 1437.24 118.64 t 0 r /Helvetica findfont 78.1689 sf 0 0 m (1600) show NC gr 
 gsave  2254 561 2 2 C 1623.67 118.64 t 0 r /Helvetica findfont 78.1689 sf 0 0 m (1800) show NC gr 
 gsave  2254 561 2 2 C 1810.11 118.64 t 0 r /Helvetica findfont 78.1689 sf 0 0 m (2000) show NC gr 
 gsave  2254 561 2 2 C 1996.54 118.64 t 0 r /Helvetica findfont 78.1689 sf 0 0 m (2200) show NC gr  318 545 m 1860 X s 411 531 m 14 Y s 457 538 m 7 Y s 504 538 m 7 Y s 550 538 m 7 Y s 597 531 m 14 Y s 643 538 m 7 Y s 690 538 m 7 Y s 736 538 m 7 Y s
 783 531 m 14 Y s 829 538 m 7 Y s 876 538 m 7 Y s 923 538 m 7 Y s 969 531 m 14 Y s 1016 538 m 7 Y s 1062 538 m 7 Y s 1109 538 m 7 Y s 1155 531 m 14 Y s 1202 538 m 7 Y s 1248 538 m 7 Y s 1295 538 m 7 Y s 1341 531 m 14 Y s 1388 538 m 7 Y s 1434 538 m 7
 Y s 1481 538 m 7 Y s 1527 531 m 14 Y s 1574 538 m 7 Y s 1620 538 m 7 Y s 1667 538 m 7 Y s 1713 531 m 14 Y s 1760 538 m 7 Y s 1806 538 m 7 Y s 1853 538 m 7 Y s 1899 531 m 14 Y s 1946 538 m 7 Y s 1992 538 m 7 Y s 2039 538 m 7 Y s 2085 531 m 14 Y s 411
 531 m 14 Y s 364 538 m 7 Y s 318 538 m 7 Y s 2085 531 m 14 Y s 2132 538 m 7 Y s 318 187 m 358 Y s
 gsave  2254 561 2 2 C 166.096 284.736 t 90 r /Helvetica findfont 67.9729 sf 0 0 m (Data/SM) show NC gr  361 203 m -43 X s 339 220 m -21 X s 339 236 m -21 X s 339 252 m -21 X s 339 268 m -21 X s 361 285 m -43 X s 339 301 m -21 X s 339 317 m -21 X s
 339 334 m -21 X s 339 350 m -21 X s 361 366 m -43 X s 339 382 m -21 X s 339 399 m -21 X s 339 415 m -21 X s 339 431 m -21 X s 361 447 m -43 X s 339 464 m -21 X s 339 480 m -21 X s 339 496 m -21 X s 339 512 m -21 X s 361 529 m -43 X s 361 203 m -43 X
 s 339 187 m -21 X s 361 529 m -43 X s
 gsave  2254 561 2 2 C 261.008 183.044 t 0 r /Helvetica findfont 57.777 sf 0 0 m (0) show NC gr 
 gsave  2254 561 2 2 C 213.552 261.008 t 0 r /Helvetica findfont 57.777 sf 0 0 m (0.5) show NC gr 
 gsave  2254 561 2 2 C 271.177 342.361 t 0 r /Helvetica findfont 57.777 sf 0 0 m (1) show NC gr 
 gsave  2254 561 2 2 C 213.552 423.714 t 0 r /Helvetica findfont 57.777 sf 0 0 m (1.5) show NC gr 
 gsave  2254 561 2 2 C 261.008 505.067 t 0 r /Helvetica findfont 57.777 sf 0 0 m (2) show NC gr  2178 187 m 358 Y s 2135 203 m 43 X s 2157 220 m 21 X s 2157 236 m 21 X s 2157 252 m 21 X s 2157 268 m 21 X s 2135 285 m 43 X s 2157 301 m 21 X s 2157 317
 m 21 X s 2157 334 m 21 X s 2157 350 m 21 X s 2135 366 m 43 X s 2157 382 m 21 X s 2157 399 m 21 X s 2157 415 m 21 X s 2157 431 m 21 X s 2135 447 m 43 X s 2157 464 m 21 X s 2157 480 m 21 X s 2157 496 m 21 X s 2157 512 m 21 X s 2135 529 m 43 X s 2135
 203 m 43 X s 2157 187 m 21 X s 2135 529 m 43 X s 9 lw 1109 411 m s 1109 411 m cl s 1109 384 m -1 Y s 1109 383 m cl s 1202 387 m 4 Y s 1202 391 m cl s 1202 360 m -4 Y s 1202 356 m cl s 1295 337 m 6 Y s 1295 343 m cl s 1295 310 m -6 Y s 1295 304 m cl
 s 1388 322 m 14 Y s 1388 336 m cl s 1388 295 m -13 Y s 1388 282 m cl s 1481 339 m 21 Y s 1481 360 m cl s 1481 312 m -20 Y s 1481 292 m cl s 1574 470 m 58 Y s 1574 528 m cl s 1574 443 m -56 Y s 1574 387 m cl s 1667 502 m 43 Y s 1667 545 m cl s 1667
 475 m -75 Y s 1667 400 m cl s 1760 406 m 107 Y s 1760 513 m cl s 1760 379 m -89 Y s 1760 290 m cl s 1853 302 m 95 Y s 1853 397 m cl s 1853 274 m -56 Y s 1853 218 m cl s 2039 476 m 69 Y s 2039 545 m cl s 2039 449 m -200 Y s 2039 249 m cl s 2132 365 m
 177 Y s 2132 542 m cl s 2132 338 m -109 Y s 2132 229 m cl s 3 lw 550 354 643 357 736 375 829 368 923 368 1016 401 1109 397 1202 373 1295 323 1388 308 1481 326 1574 456 1667 488 1760 393 1853 288 15 { m20} R 9 lw 3 lw 2039 463 2132 351 2 { m20} R 9
 lw 1 0 0 c 6 lw black 3 lw 1 0 0 c 2178 227 m s 2178 255 m s 2178 284 m s 2178 312 m s 2178 341 m -9 -10 d s 2178 369 m -38 -38 d s 2178 398 m -67 -67 d s 2152 401 m -78 -78 d s 2124 401 m -78 -78 d s 2095 401 m -78 -78 d s 2075 409 m -88 -88 d s
 2046 409 m -88 -88 d s 2017 409 m -88 -88 d s 1990 411 m -89 -90 d s 1961 411 m -73 -73 d s 1933 411 m -73 -73 d s 1904 411 m -5 -5 d s 1888 394 m -57 -56 d s 1859 394 m -53 -52 d s 1830 394 m -47 -46 d s 1792 384 m -37 -36 d s 1763 384 m -37 -36 d
 s 1734 384 m -38 -38 d s 1707 386 m -40 -40 d s 1679 386 m -41 -40 d s 1650 386 m -51 -51 d s 1621 386 m -51 -51 d s 1604 397 m -63 -62 d s 1575 397 m -48 -47 d s 1546 397 m -46 -46 d s 1501 381 m -29 -30 d s 1472 381 m -29 -30 d s 1434 343 m -16
 -17 d s 1444 381 m -55 -55 d s 1434 400 m -74 -74 d s 1411 406 m -70 -70 d s 1383 406 m -52 -52 d s 1354 406 m -13 -13 d s 1326 378 m -24 -24 d s 1297 378 m -23 -24 d s 1269 378 m -23 -23 d s 1239 377 m -22 -22 d s 1210 377 m -21 -22 d s 1182 377 m
 -22 -22 d s 1153 377 m -21 -21 d s 1124 377 m -21 -21 d s 1095 377 m -21 -21 d s 1067 377 m -20 -20 d s 1036 375 m -18 -18 d s 1008 375 m -18 -18 d s 979 375 m -18 -18 d s 950 375 m -18 -18 d s 921 375 m -17 -18 d s 893 375 m -18 -18 d s 864 375 m
 -18 -18 d s 835 375 m -17 -18 d s 807 375 m -18 -18 d s 778 375 m -18 -18 d s 749 375 m -17 -18 d s 721 375 m -18 -18 d s 692 375 m -18 -18 d s 664 375 m -19 -18 d s 504 216 m s 491 203 m cl s 635 375 m -19 -18 d s 504 245 m s 462 203 m cl s 606 375
 m -18 -18 d s 504 273 m s 434 203 m cl s 578 375 m -19 -18 d s 504 302 m s 405 203 m cl s 549 375 m -19 -18 d s 504 330 m s 376 203 m cl s 520 375 m -16 -16 d s 348 203 m cl s 319 203 m cl s 6 lw black[ 4 8] 0 sd 3 lw 318 447 m 1860 X s 318 285 m
 1860 X s 1 0 0 c[  12 12 ] 0 sd 6 lw 318 366 m 1860 X s
 gr  gr showpage
end
%%EOF
