%!PS-Adobe-2.0 EPSF-2.0
%%BoundingBox:  0 0 567 521
%%Title: Distributions/met_distrCRT_MB-GGo_beforeFit_forThesis.eps: canvas
%%Creator: ROOT Version 6.04/16
%%CreationDate: Tue May 19 22:01:11 2020
%%DocumentNeededResources: ProcSet (FontSetInit)
%%EndComments
%%BeginProlog
80 dict begin
/s {stroke} def /l {lineto} def /m {moveto} def /t {translate} def
/r {rotate} def /rl {roll}  def /R {repeat} def
/d {rlineto} def /rm {rmoveto} def /gr {grestore} def /f {eofill} def
/c {setrgbcolor} def /black {0 setgray} def /sd {setdash} def
/cl {closepath} def /sf {scalefont setfont} def /lw {setlinewidth} def
/box {m dup 0 exch d exch 0 d 0 exch neg d cl} def
/NC{systemdict begin initclip end}def/C{NC box clip newpath}def
/bl {box s} def /bf {gsave box gsave f grestore 1 lw [] 0 sd s grestore} def /Y { 0 exch d} def /X { 0 d} def 
/K {{pop pop 0 moveto} exch kshow} bind def
/ita {/ang 15 def gsave [1 0 ang dup sin exch cos div 1 0 0] concat} def 
/mp {newpath /y exch def /x exch def} def
/side {[w .77 mul w .23 mul] .385 w mul sd w 0 l currentpoint t -144 r} def
/mr {mp x y w2 0 360 arc} def /m24 {mr s} def /m20 {mr f} def
/mb {mp x y w2 add m w2 neg 0 d 0 w neg d w 0 d 0 w d cl} def
/mt {mp x y w2 add m w2 neg w neg d w 0 d cl} def
/m21 {mb f} def /m25 {mb s} def /m22 {mt f} def /m26{mt s} def
/m23 {mp x y w2 sub m w2 w d w neg 0 d cl f} def
/m27 {mp x y w2 add m w3 neg w2 neg d w3 w2 neg d w3 w2 d cl s} def
/m28 {mp x w2 sub y w2 sub w3 add m w3 0 d  0 w3 neg d w3 0 d 0 w3 d w3 0 d  0 w3 d w3 neg 0 d 0 w3 d w3 neg 0 d 0 w3 neg d w3 neg 0 d cl s } def
/m29 {mp gsave x w2 sub y w2 add w3 sub m currentpoint t 4 {side} repeat cl fill gr} def
/m30 {mp gsave x w2 sub y w2 add w3 sub m currentpoint t 4 {side} repeat cl s gr} def
/m31 {mp x y w2 sub m 0 w d x w2 sub y m w 0 d x w2 sub y w2 add m w w neg d x w2 sub y w2 sub m w w d s} def
/m32 {mp x y w2 sub m w2 w d w neg 0 d cl s} def
/m33 {mp x y w2 add m w3 neg w2 neg d w3 w2 neg d w3 w2 d cl f} def
/m34 {mp x w2 sub y w2 sub w3 add m w3 0 d  0 w3 neg d w3 0 d 0 w3 d w3 0 d  0 w3 d w3 neg 0 d 0 w3 d w3 neg 0 d 0 w3 neg d w3 neg 0 d cl f } def
/m2 {mp x y w2 sub m 0 w d x w2 sub y m w 0 d s} def
/m5 {mp x w2 sub y w2 sub m w w d x w2 sub y w2 add m w w neg d s} def
%%IncludeResource: ProcSet (FontSetInit)
%%IncludeResource: font Times-Roman
%%IncludeResource: font Times-Italic
%%IncludeResource: font Times-Bold
%%IncludeResource: font Times-BoldItalic
%%IncludeResource: font Helvetica
%%IncludeResource: font Helvetica-Oblique
%%IncludeResource: font Helvetica-Bold
%%IncludeResource: font Helvetica-BoldOblique
%%IncludeResource: font Courier
%%IncludeResource: font Courier-Oblique
%%IncludeResource: font Courier-Bold
%%IncludeResource: font Courier-BoldOblique
%%IncludeResource: font Symbol
%%IncludeResource: font ZapfDingbats
/reEncode {exch findfont dup length dict begin {1 index /FID eq  {pop pop} {def} ifelse } forall /Encoding exch def currentdict end dup /FontName get exch definefont pop } def [/Times-Bold /Times-Italic /Times-BoldItalic /Helvetica /Helvetica-Oblique
 /Helvetica-Bold /Helvetica-BoldOblique /Courier /Courier-Oblique /Courier-Bold /Courier-BoldOblique /Times-Roman /AvantGarde-Book /AvantGarde-BookOblique /AvantGarde-Demi /AvantGarde-DemiOblique /Bookman-Demi /Bookman-DemiItalic /Bookman-Light
 /Bookman-LightItalic /Helvetica-Narrow /Helvetica-Narrow-Bold /Helvetica-Narrow-BoldOblique /Helvetica-Narrow-Oblique /NewCenturySchlbk-Roman /NewCenturySchlbk-Bold /NewCenturySchlbk-BoldItalic /NewCenturySchlbk-Italic /Palatino-Bold
 /Palatino-BoldItalic /Palatino-Italic /Palatino-Roman ] {ISOLatin1Encoding reEncode } forall
%%EndProlog
%%BeginSetup
%%EndSetup
newpath  gsave  .25 .25 scale  gsave  0 0 t black[  ] 0 sd 3 lw 1 1 1 c 2268 2085 0 0 bf black 1 1 1 c 2263 1770 2 313 bf black 1 1 1 c black 1860 1145 319 584 bl 1 1 1 c black 1860 1145 319 584 bl 6 lw 1 1 1 c black 3 lw /w 33 def /w2 {w 2 div} def
 /w3 {w 3 div} def 366 1146 m20 6 lw 3 lw 459 1120 m20 6 lw 3 lw 552 1050 m20 6 lw 645 952 m 4 Y s 645 983 m 1 Y s 3 lw 645 969 m20 6 lw 738 889 m 13 Y s 738 930 m 6 Y s 3 lw 738 916 m20 6 lw 831 584 m 153 Y s 831 764 m 36 Y s 3 lw 831 750 m20 6 lw
 924 584 m 153 Y s 924 764 m 36 Y s 3 lw 924 750 m20 6 lw 1017 712 m 74 Y s 1017 814 m 25 Y s 3 lw 1017 800 m20 6 lw 1110 584 m 153 Y s 1110 764 m 36 Y s 3 lw 1110 750 m20 6 lw 1203 584 m 153 Y s 1203 764 m 36 Y s 3 lw 1203 750 m20 6 lw 1389 584 m
 153 Y s 1389 764 m 36 Y s 3 lw 1389 750 m20 6 lw 3 lw 319 584 m 1860 X s
 gsave  2263 1770 2 313 C 1949.08 355.92 t 0 r /Helvetica findfont 81.3741 sf 0 0 m ( [GeV]) show NC gr 
 gsave  2263 1770 2 313 C 1837.22 396.596 t 0 r /Helvetica findfont 54.2494 sf 0 0 m (miss) show NC gr 
 gsave  2263 1770 2 313 C 1837.22 332.192 t 0 r /Helvetica findfont 54.2494 sf 0 0 m (T) show NC gr 
 gsave  2263 1770 2 313 C 1786.38 355.92 t 0 r /Helvetica findfont 81.3741 sf 0 0 m (E) show NC gr  412 584 m cl s 459 584 m cl s 505 584 m cl s 552 584 m cl s 598 584 m cl s 645 584 m cl s 691 584 m cl s 738 584 m cl s 784 584 m cl s 831 584 m cl s
 877 584 m cl s 924 584 m cl s 970 584 m cl s 1017 584 m cl s 1063 584 m cl s 1110 584 m cl s 1156 584 m cl s 1203 584 m cl s 1249 584 m cl s 1296 584 m cl s 1342 584 m cl s 1389 584 m cl s 1435 584 m cl s 1482 584 m cl s 1528 584 m cl s 1575 584 m
 cl s 1621 584 m cl s 1668 584 m cl s 1714 584 m cl s 1761 584 m cl s 1807 584 m cl s 1854 584 m cl s 1900 584 m cl s 1947 584 m cl s 1993 584 m cl s 2040 584 m cl s 2086 584 m cl s 412 584 m cl s 366 584 m cl s 319 584 m cl s 2086 584 m cl s 2133
 584 m cl s 2179 584 m cl s 319 1729 m 1860 X s 412 1729 m cl s 459 1729 m cl s 505 1729 m cl s 552 1729 m cl s 598 1729 m cl s 645 1729 m cl s 691 1729 m cl s 738 1729 m cl s 784 1729 m cl s 831 1729 m cl s 877 1729 m cl s 924 1729 m cl s 970 1729 m
 cl s 1017 1729 m cl s 1063 1729 m cl s 1110 1729 m cl s 1156 1729 m cl s 1203 1729 m cl s 1249 1729 m cl s 1296 1729 m cl s 1342 1729 m cl s 1389 1729 m cl s 1435 1729 m cl s 1482 1729 m cl s 1528 1729 m cl s 1575 1729 m cl s 1621 1729 m cl s 1668
 1729 m cl s 1714 1729 m cl s 1761 1729 m cl s 1807 1729 m cl s 1854 1729 m cl s 1900 1729 m cl s 1947 1729 m cl s 1993 1729 m cl s 2040 1729 m cl s 2086 1729 m cl s 412 1729 m cl s 366 1729 m cl s 319 1729 m cl s 2086 1729 m cl s 2133 1729 m cl s
 2179 1729 m cl s 319 584 m 1145 Y s
 gsave  2263 1770 2 313 C 166.096 1091.49 t 90 r /Helvetica findfont 81.3741 sf 0 0 m (Events / 100 GeV) show NC gr  341 634 m -22 X s 341 663 m -22 X s 341 684 m -22 X s 341 700 m -22 X s 341 713 m -22 X s 341 724 m -22 X s 341 734 m -22 X s 341 743
 m -22 X s 363 750 m -44 X s
 gsave  2263 1770 2 313 C 300.555 723.014 t 0 r  -36 0 t /Helvetica findfont 64.4212 sf 0 0 m (1) show NC gr  341 800 m -22 X s 341 829 m -22 X s 341 850 m -22 X s 341 866 m -22 X s 341 879 m -22 X s 341 890 m -22 X s 341 900 m -22 X s 341 908 m -22
 X s 363 916 m -44 X s
 gsave  2263 1770 2 313 C 300.555 888.836 t 0 r  -73 0 t /Helvetica findfont 64.4212 sf 0 0 m (10) show NC gr  341 966 m -22 X s 341 995 m -22 X s 341 1016 m -22 X s 341 1032 m -22 X s 341 1045 m -22 X s 341 1056 m -22 X s 341 1066 m -22 X s 341 1074
 m -22 X s 363 1082 m -44 X s
 gsave  2263 1770 2 313 C 274.567 1081.32 t 0 r /Helvetica findfont 44.0776 sf 0 0 m (2) show NC gr 
 gsave  2263 1770 2 313 C 203.383 1054.2 t 0 r /Helvetica findfont 64.4212 sf 0 0 m (10) show NC gr  341 1132 m -22 X s 341 1161 m -22 X s 341 1182 m -22 X s 341 1198 m -22 X s 341 1211 m -22 X s 341 1222 m -22 X s 341 1232 m -22 X s 341 1240 m -22 X
 s 363 1248 m -44 X s
 gsave  2263 1770 2 313 C 274.567 1250.8 t 0 r /Helvetica findfont 44.0776 sf 0 0 m (3) show NC gr 
 gsave  2263 1770 2 313 C 203.383 1220.3 t 0 r /Helvetica findfont 64.4212 sf 0 0 m (10) show NC gr  341 1298 m -22 X s 341 1327 m -22 X s 341 1347 m -22 X s 341 1364 m -22 X s 341 1377 m -22 X s 341 1388 m -22 X s 341 1397 m -22 X s 341 1406 m -22 X
 s 363 1413 m -44 X s
 gsave  2263 1770 2 313 C 274.567 1410.12 t 0 r /Helvetica findfont 44.0776 sf 0 0 m (4) show NC gr 
 gsave  2263 1770 2 313 C 203.383 1383 t 0 r /Helvetica findfont 64.4212 sf 0 0 m (10) show NC gr  341 1463 m -22 X s 341 1493 m -22 X s 341 1513 m -22 X s 341 1529 m -22 X s 341 1542 m -22 X s 341 1554 m -22 X s 341 1563 m -22 X s 341 1572 m -22 X s
 363 1579 m -44 X s
 gsave  2263 1770 2 313 C 274.567 1579.61 t 0 r /Helvetica findfont 44.0776 sf 0 0 m (5) show NC gr 
 gsave  2263 1770 2 313 C 203.383 1549.1 t 0 r /Helvetica findfont 64.4212 sf 0 0 m (10) show NC gr  341 1629 m -22 X s 341 1658 m -22 X s 341 1679 m -22 X s 341 1695 m -22 X s 341 1708 m -22 X s 341 1719 m -22 X s 2179 584 m 1145 Y s 2157 634 m 22 X
 s 2157 663 m 22 X s 2157 684 m 22 X s 2157 700 m 22 X s 2157 713 m 22 X s 2157 724 m 22 X s 2157 734 m 22 X s 2157 743 m 22 X s 2136 750 m 43 X s 2157 800 m 22 X s 2157 829 m 22 X s 2157 850 m 22 X s 2157 866 m 22 X s 2157 879 m 22 X s 2157 890 m 22
 X s 2157 900 m 22 X s 2157 908 m 22 X s 2136 916 m 43 X s 2157 966 m 22 X s 2157 995 m 22 X s 2157 1016 m 22 X s 2157 1032 m 22 X s 2157 1045 m 22 X s 2157 1056 m 22 X s 2157 1066 m 22 X s 2157 1074 m 22 X s 2136 1082 m 43 X s 2157 1132 m 22 X s
 2157 1161 m 22 X s 2157 1182 m 22 X s 2157 1198 m 22 X s 2157 1211 m 22 X s 2157 1222 m 22 X s 2157 1232 m 22 X s 2157 1240 m 22 X s 2136 1248 m 43 X s 2157 1298 m 22 X s 2157 1327 m 22 X s 2157 1347 m 22 X s 2157 1364 m 22 X s 2157 1377 m 22 X s
 2157 1388 m 22 X s 2157 1397 m 22 X s 2157 1406 m 22 X s 2136 1413 m 43 X s 2157 1463 m 22 X s 2157 1493 m 22 X s 2157 1513 m 22 X s 2157 1529 m 22 X s 2157 1542 m 22 X s 2157 1554 m 22 X s 2157 1563 m 22 X s 2157 1572 m 22 X s 2136 1579 m 43 X s
 2157 1629 m 22 X s 2157 1658 m 22 X s 2157 1679 m 22 X s 2157 1695 m 22 X s 2157 1708 m 22 X s 2157 1719 m 22 X s 0.6 1 0.6 c black 0.6 1 0.6 c 319 584 m 568 Y 93 X -11 Y 93 X -57 Y 93 X -66 Y 93 X -58 Y 93 X -62 Y 93 X -28 Y 93 X -76 Y 93 X -76 Y
 93 X -20 Y 93 X -40 Y 93 X -74 Y 837 X f black 0.6 1 0.6 c black 319 1152 m 93 X -11 Y 93 X -57 Y 93 X -66 Y 93 X -58 Y 93 X -62 Y 93 X -28 Y 93 X -76 Y 93 X -76 Y 93 X -20 Y 93 X -40 Y 93 X -74 Y 837 X s 0.999 0.999 0.999 c black 0.999 0.999 0.999
 c 319 584 m 396 Y 93 X 4 Y 93 X -40 Y 93 X -44 Y 93 X -54 Y 93 X -47 Y 93 X -20 Y 93 X -60 Y 93 X -49 Y 93 X -22 Y 93 X -12 Y 93 X -52 Y 837 X f black 0.999 0.999 0.999 c black 319 980 m 93 X 4 Y 93 X -40 Y 93 X -44 Y 93 X -54 Y 93 X -47 Y 93 X -20
 Y 93 X -60 Y 93 X -49 Y 93 X -22 Y 93 X -12 Y 93 X -52 Y 837 X s 1 1 1 c black 319 980 m 93 X 4 Y 93 X -40 Y 93 X -44 Y 93 X -54 Y 93 X -47 Y 93 X -20 Y 93 X -60 Y 93 X -49 Y 93 X -22 Y 93 X -12 Y 93 X -52 Y 837 X s 0.4 0.6 1 c black 0.4 0.6 1 c 319
 584 m 396 Y 93 X 4 Y 93 X -40 Y 93 X -44 Y 93 X -54 Y 93 X -47 Y 93 X -20 Y 93 X -60 Y 93 X -49 Y 93 X -22 Y 93 X -12 Y 93 X -52 Y 837 X f black 0.4 0.6 1 c black 319 980 m 93 X 4 Y 93 X -40 Y 93 X -44 Y 93 X -54 Y 93 X -47 Y 93 X -20 Y 93 X -60 Y
 93 X -49 Y 93 X -22 Y 93 X -12 Y 93 X -52 Y 837 X s 0.999 0.999 0.999 c black 0.999 0.999 0.999 c 319 584 m 225 Y 93 X 17 Y 93 X -25 Y 93 X -70 Y 93 X -41 Y 93 X -21 Y 93 X -85 Y 1302 X f black 0.999 0.999 0.999 c black 319 809 m 93 X 17 Y 93 X -25
 Y 93 X -70 Y 93 X -41 Y 93 X -21 Y 93 X -85 Y 1302 X s 1 1 1 c black 319 809 m 93 X 17 Y 93 X -25 Y 93 X -70 Y 93 X -41 Y 93 X -21 Y 93 X -85 Y 1302 X s 1 0.8 0.4 c black 1 0.8 0.4 c 319 584 m 225 Y 93 X 17 Y 93 X -25 Y 93 X -70 Y 93 X -41 Y 93 X
 -21 Y 93 X -85 Y 1302 X f black 1 0.8 0.4 c black 319 809 m 93 X 17 Y 93 X -25 Y 93 X -70 Y 93 X -41 Y 93 X -21 Y 93 X -85 Y 1302 X s 0.999 0.999 0.999 c black 0.999 0.999 0.999 c 319 584 m 218 Y 93 X 20 Y 93 X -26 Y 93 X -74 Y 93 X -43 Y 93 X -12 Y
 93 X -83 Y 1302 X f black 0.999 0.999 0.999 c black 319 802 m 93 X 20 Y 93 X -26 Y 93 X -74 Y 93 X -43 Y 93 X -12 Y 93 X -83 Y 1302 X s 1 1 1 c black 319 802 m 93 X 20 Y 93 X -26 Y 93 X -74 Y 93 X -43 Y 93 X -12 Y 93 X -83 Y 1302 X s 1 0.4 0.6 c
 black 1 0.4 0.6 c 319 584 m 218 Y 93 X 20 Y 93 X -26 Y 93 X -74 Y 93 X -43 Y 93 X -12 Y 93 X -83 Y 1302 X f black 1 0.4 0.6 c black 319 802 m 93 X 20 Y 93 X -26 Y 93 X -74 Y 93 X -43 Y 93 X -12 Y 93 X -83 Y 1302 X s 1 0 0 c 6 lw 1 1 1 c black 1 0 0
 c 319 1152 m 93 X -11 Y 93 X -57 Y 93 X -66 Y 93 X -58 Y 93 X -62 Y 93 X -28 Y 93 X -76 Y 93 X -76 Y 93 X -20 Y 93 X -40 Y 93 X -74 Y 837 X s black 3 lw 1 0 0 c 1 lw << /PatternType 1 /PaintType 2 /TilingType 1 /BBox [ 0 0 100 100 ] /XStep 100
 /YStep 100 /PaintProc { begin gsave 0 100 m 100 0 l s gr end } >> [ 0.24 0 0 0.24 0 0 ] makepattern /P05 exch def /cs {[/Pattern /DeviceRGB] setcolorspace} def /FA {f [/DeviceRGB] setcolorspace} def cs 1 0 0 P05 setcolor 319 584 m 570 Y 93 X -10 Y
 93 X -55 Y 93 X -65 Y 93 X -58 Y 93 X -61 Y 93 X -23 Y 93 X -78 Y 93 X -73 Y 93 X -22 Y 93 X -23 Y 93 X -92 Y 93 X -10 Y -93 X 29 Y -93 X 71 Y -93 X 19 Y -93 X 79 Y -93 X 75 Y -93 X 32 Y -93 X 63 Y -93 X 60 Y -93 X 68 Y -93 X 57 Y -93 X 13 Y -93 X
 -566 Y FA 6 lw 1 1 1 c 15 lw 738 896 m -7 Y s 738 889 m cl s 831 770 m 40 Y s 831 810 m cl s 831 730 m -106 Y s 831 624 m cl s 924 770 m 40 Y s 924 810 m cl s 924 730 m -106 Y s 924 624 m cl s 1017 820 m 23 Y s 1017 843 m cl s 1017 780 m -54 Y s
 1017 726 m cl s 1110 770 m 40 Y s 1110 810 m cl s 1110 730 m -106 Y s 1110 624 m cl s 1203 770 m 40 Y s 1203 810 m cl s 1203 730 m -106 Y s 1203 624 m cl s 1389 770 m 40 Y s 1389 810 m cl s 1389 730 m -106 Y s 1389 624 m cl s black 1 1 1 c 3 lw /w
 43 def /w2 {w 2 div} def /w3 {w 3 div} def 366 1146 459 1120 552 1050 645 969 738 916 831 750 924 750 1017 800 1110 750 1203 750 10 { m20} R 15 lw 3 lw 1389 750 m20 15 lw black 6 lw 1 1 1 c black 3 lw /w 33 def /w2 {w 2 div} def /w3 {w 3 div} def
 366 1146 m20 6 lw 3 lw 459 1120 m20 6 lw 3 lw 552 1050 m20 6 lw 645 952 m 4 Y s 645 983 m 1 Y s 3 lw 645 969 m20 6 lw 738 889 m 13 Y s 738 930 m 6 Y s 3 lw 738 916 m20 6 lw 831 584 m 153 Y s 831 764 m 36 Y s 3 lw 831 750 m20 6 lw 924 584 m 153 Y s
 924 764 m 36 Y s 3 lw 924 750 m20 6 lw 1017 712 m 74 Y s 1017 814 m 25 Y s 3 lw 1017 800 m20 6 lw 1110 584 m 153 Y s 1110 764 m 36 Y s 3 lw 1110 750 m20 6 lw 1203 584 m 153 Y s 1203 764 m 36 Y s 3 lw 1203 750 m20 6 lw 1389 584 m 153 Y s 1389 764 m
 36 Y s 3 lw 1389 750 m20 6 lw 645 983 m 1 Y s 645 984 m cl s 645 956 m -4 Y s 645 952 m cl s 738 930 m 6 Y s 738 936 m cl s 738 902 m -13 Y s 738 889 m cl s 831 764 m 46 Y s 831 810 m cl s 831 737 m -113 Y s 831 624 m cl s 924 764 m 46 Y s 924 810 m
 cl s 924 737 m -113 Y s 924 624 m cl s 1017 814 m 29 Y s 1017 843 m cl s 1017 786 m -60 Y s 1017 726 m cl s 1110 764 m 46 Y s 1110 810 m cl s 1110 737 m -113 Y s 1110 624 m cl s 1203 764 m 46 Y s 1203 810 m cl s 1203 737 m -113 Y s 1203 624 m cl s
 1389 764 m 46 Y s 1389 810 m cl s 1389 737 m -113 Y s 1389 624 m cl s 3 lw 366 1146 459 1120 552 1050 645 969 738 916 831 750 924 750 1017 800 1110 750 1203 750 10 { m20} R 6 lw 3 lw 1389 750 m20 6 lw 3 lw 319 584 m 1860 X s 412 584 m cl s 459 584 m
 cl s 505 584 m cl s 552 584 m cl s 598 584 m cl s 645 584 m cl s 691 584 m cl s 738 584 m cl s 784 584 m cl s 831 584 m cl s 877 584 m cl s 924 584 m cl s 970 584 m cl s 1017 584 m cl s 1063 584 m cl s 1110 584 m cl s 1156 584 m cl s 1203 584 m cl s
 1249 584 m cl s 1296 584 m cl s 1342 584 m cl s 1389 584 m cl s 1435 584 m cl s 1482 584 m cl s 1528 584 m cl s 1575 584 m cl s 1621 584 m cl s 1668 584 m cl s 1714 584 m cl s 1761 584 m cl s 1807 584 m cl s 1854 584 m cl s 1900 584 m cl s 1947 584
 m cl s 1993 584 m cl s 2040 584 m cl s 2086 584 m cl s 412 584 m cl s 366 584 m cl s 319 584 m cl s 2086 584 m cl s 2133 584 m cl s 2179 584 m cl s 319 1729 m 1860 X s 412 1729 m cl s 459 1729 m cl s 505 1729 m cl s 552 1729 m cl s 598 1729 m cl s
 645 1729 m cl s 691 1729 m cl s 738 1729 m cl s 784 1729 m cl s 831 1729 m cl s 877 1729 m cl s 924 1729 m cl s 970 1729 m cl s 1017 1729 m cl s 1063 1729 m cl s 1110 1729 m cl s 1156 1729 m cl s 1203 1729 m cl s 1249 1729 m cl s 1296 1729 m cl s
 1342 1729 m cl s 1389 1729 m cl s 1435 1729 m cl s 1482 1729 m cl s 1528 1729 m cl s 1575 1729 m cl s 1621 1729 m cl s 1668 1729 m cl s 1714 1729 m cl s 1761 1729 m cl s 1807 1729 m cl s 1854 1729 m cl s 1900 1729 m cl s 1947 1729 m cl s 1993 1729 m
 cl s 2040 1729 m cl s 2086 1729 m cl s 412 1729 m cl s 366 1729 m cl s 319 1729 m cl s 2086 1729 m cl s 2133 1729 m cl s 2179 1729 m cl s 319 584 m 1145 Y s 341 634 m -22 X s 341 663 m -22 X s 341 684 m -22 X s 341 700 m -22 X s 341 713 m -22 X s
 341 724 m -22 X s 341 734 m -22 X s 341 743 m -22 X s 363 750 m -44 X s 341 800 m -22 X s 341 829 m -22 X s 341 850 m -22 X s 341 866 m -22 X s 341 879 m -22 X s 341 890 m -22 X s 341 900 m -22 X s 341 908 m -22 X s 363 916 m -44 X s 341 966 m -22 X
 s 341 995 m -22 X s 341 1016 m -22 X s 341 1032 m -22 X s 341 1045 m -22 X s 341 1056 m -22 X s 341 1066 m -22 X s 341 1074 m -22 X s 363 1082 m -44 X s 341 1132 m -22 X s 341 1161 m -22 X s 341 1182 m -22 X s 341 1198 m -22 X s 341 1211 m -22 X s
 341 1222 m -22 X s 341 1232 m -22 X s 341 1240 m -22 X s 363 1248 m -44 X s 341 1298 m -22 X s 341 1327 m -22 X s 341 1347 m -22 X s 341 1364 m -22 X s 341 1377 m -22 X s 341 1388 m -22 X s 341 1397 m -22 X s 341 1406 m -22 X s 363 1413 m -44 X s
 341 1463 m -22 X s 341 1493 m -22 X s 341 1513 m -22 X s 341 1529 m -22 X s 341 1542 m -22 X s 341 1554 m -22 X s 341 1563 m -22 X s 341 1572 m -22 X s 363 1579 m -44 X s 341 1629 m -22 X s 341 1658 m -22 X s 341 1679 m -22 X s 341 1695 m -22 X s
 341 1708 m -22 X s 341 1719 m -22 X s 2179 584 m 1145 Y s 2157 634 m 22 X s 2157 663 m 22 X s 2157 684 m 22 X s 2157 700 m 22 X s 2157 713 m 22 X s 2157 724 m 22 X s 2157 734 m 22 X s 2157 743 m 22 X s 2136 750 m 43 X s 2157 800 m 22 X s 2157 829 m
 22 X s 2157 850 m 22 X s 2157 866 m 22 X s 2157 879 m 22 X s 2157 890 m 22 X s 2157 900 m 22 X s 2157 908 m 22 X s 2136 916 m 43 X s 2157 966 m 22 X s 2157 995 m 22 X s 2157 1016 m 22 X s 2157 1032 m 22 X s 2157 1045 m 22 X s 2157 1056 m 22 X s 2157
 1066 m 22 X s 2157 1074 m 22 X s 2136 1082 m 43 X s 2157 1132 m 22 X s 2157 1161 m 22 X s 2157 1182 m 22 X s 2157 1198 m 22 X s 2157 1211 m 22 X s 2157 1222 m 22 X s 2157 1232 m 22 X s 2157 1240 m 22 X s 2136 1248 m 43 X s 2157 1298 m 22 X s 2157
 1327 m 22 X s 2157 1347 m 22 X s 2157 1364 m 22 X s 2157 1377 m 22 X s 2157 1388 m 22 X s 2157 1397 m 22 X s 2157 1406 m 22 X s 2136 1413 m 43 X s 2157 1463 m 22 X s 2157 1493 m 22 X s 2157 1513 m 22 X s 2157 1529 m 22 X s 2157 1542 m 22 X s 2157
 1554 m 22 X s 2157 1563 m 22 X s 2157 1572 m 22 X s 2136 1579 m 43 X s 2157 1629 m 22 X s 2157 1658 m 22 X s 2157 1679 m 22 X s 2157 1695 m 22 X s 2157 1708 m 22 X s 2157 1719 m 22 X s
 gsave  2263 1770 2 313 C 406.765 1447.41 t 0 r /Helvetica findfont 64.4212 sf 0 0 m (CRT for MB\255GGo) show NC gr 
 gsave  2263 1770 2 313 C 1464.36 1616.89 t 0 r /Helvetica findfont 64.4212 sf 0 0 m (SM Total) show NC gr  1 1 1 c 1338 1603 m 107 X 74 Y -107 X f 1 0 0 c 6 lw 1338 1640 m 107 X s black
 gsave  2263 1770 2 313 C 1464.36 1511.81 t 0 r /Helvetica findfont 64.4212 sf 0 0 m (Data) show NC gr  1391 1502 m 64 Y s 3 lw 1391 1534 m20 6 lw
 gsave  2263 1770 2 313 C 1498.25 1406.73 t 0 r /Helvetica findfont 64.4212 sf 0 0 m (\(+EW\) & single top) show NC gr 
 gsave  2263 1770 2 313 C 1481.3 1406.73 t 0 r /Helvetica findfont 64.4212 sf 0 0 m (t) show NC gr  3 lw 1481 1458 m 17 X s
 gsave  2263 1770 2 313 C 1464.36 1406.73 t 0 r /Helvetica findfont 64.4212 sf 0 0 m (t) show NC gr  0.6 1 0.6 c 1338 1391 m 107 X 74 Y -107 X f black 1338 1465 m 107 X s 1338 1391 m 107 X s 1445 1391 m 74 Y s 1338 1391 m 74 Y s
 gsave  2263 1770 2 313 C 1464.36 1298.26 t 0 r /Helvetica findfont 64.4212 sf 0 0 m (W+jets) show NC gr  0.4 0.6 1 c 1338 1284 m 107 X 75 Y -107 X f black 1338 1359 m 107 X s 1338 1284 m 107 X s 1445 1284 m 75 Y s 1338 1284 m 75 Y s
 gsave  2263 1770 2 313 C 1464.36 1193.18 t 0 r /Helvetica findfont 64.4212 sf 0 0 m (Z+jets) show NC gr  1 0.8 0.4 c 1338 1178 m 107 X 75 Y -107 X f black 1338 1253 m 107 X s 1338 1178 m 107 X s 1445 1178 m 75 Y s 1338 1178 m 75 Y s
 gsave  2263 1770 2 313 C 1464.36 1088.1 t 0 r /Helvetica findfont 64.4212 sf 0 0 m (Diboson) show NC gr  1 0.4 0.6 c 1338 1072 m 107 X 74 Y -107 X f black 1338 1146 m 107 X s 1338 1072 m 107 X s 1445 1072 m 74 Y s 1338 1072 m 74 Y s
 gsave  2263 1770 2 313 C 911.832 1566.05 t 0 r /Helvetica findfont 44.0776 sf 0 0 m (\2551) show NC gr 
 gsave  2263 1770 2 313 C 471.17 1535.54 t 0 r /Helvetica findfont 64.4212 sf 0 0 m (=13TeV, 139 fb) show NC gr 
 gsave  2263 1770 2 313 C 440.662 1535.54 t 0 r /Helvetica findfont 64.4212 sf 0 0 m (s) show NC gr  6 lw 420 1573 m 7 -41 d s 3 lw 427 1532 m 7 61 d s 434 1593 m 37 X s 1 1 1 c 2254 561 2 2 bf black 1 1 1 c black 1860 358 318 187 bl 1 1 1 c black
 1860 358 318 187 bl 6 lw 1 1 1 c black 3 lw 364 352 m20 6 lw 3 lw 457 326 m20 6 lw 3 lw 550 304 m20 6 lw 3 lw 643 286 m20 6 lw 3 lw 736 292 m20 6 lw 3 lw 829 224 m20 6 lw 3 lw 923 234 m20 6 lw 3 lw 1016 380 m20 6 lw 3 lw 1109 457 m20 6 lw 3 lw 1202
 540 m20 6 lw 3 lw 318 187 m 1860 X s
 gsave  2254 561 2 2 C 1959.25 27.1177 t 0 r /Helvetica findfont 78.1689 sf 0 0 m ( [GeV]) show NC gr 
 gsave  2254 561 2 2 C 1854.17 64.4045 t 0 r /Helvetica findfont 50.9797 sf 0 0 m (miss) show NC gr 
 gsave  2254 561 2 2 C 1854.17 3.38971 t 0 r /Helvetica findfont 50.9797 sf 0 0 m (T) show NC gr 
 gsave  2254 561 2 2 C 1803.33 27.1177 t 0 r /Helvetica findfont 78.1689 sf 0 0 m (E) show NC gr  411 201 m -14 Y s 457 194 m -7 Y s 504 194 m -7 Y s 550 194 m -7 Y s 597 201 m -14 Y s 643 194 m -7 Y s 690 194 m -7 Y s 736 194 m -7 Y s 783 201 m -14
 Y s 829 194 m -7 Y s 876 194 m -7 Y s 923 194 m -7 Y s 969 201 m -14 Y s 1016 194 m -7 Y s 1062 194 m -7 Y s 1109 194 m -7 Y s 1155 201 m -14 Y s 1202 194 m -7 Y s 1248 194 m -7 Y s 1295 194 m -7 Y s 1341 201 m -14 Y s 1388 194 m -7 Y s 1434 194 m
 -7 Y s 1481 194 m -7 Y s 1527 201 m -14 Y s 1574 194 m -7 Y s 1620 194 m -7 Y s 1667 194 m -7 Y s 1713 201 m -14 Y s 1760 194 m -7 Y s 1806 194 m -7 Y s 1853 194 m -7 Y s 1899 201 m -14 Y s 1946 194 m -7 Y s 1992 194 m -7 Y s 2039 194 m -7 Y s 2085
 201 m -14 Y s 411 201 m -14 Y s 364 194 m -7 Y s 318 194 m -7 Y s 2085 201 m -14 Y s 2132 194 m -7 Y s
 gsave  2254 561 2 2 C 345.75 118.64 t 0 r /Helvetica findfont 78.1689 sf 0 0 m (400) show NC gr 
 gsave  2254 561 2 2 C 532.185 118.64 t 0 r /Helvetica findfont 78.1689 sf 0 0 m (600) show NC gr 
 gsave  2254 561 2 2 C 715.229 118.64 t 0 r /Helvetica findfont 78.1689 sf 0 0 m (800) show NC gr 
 gsave  2254 561 2 2 C 877.935 118.64 t 0 r /Helvetica findfont 78.1689 sf 0 0 m (1000) show NC gr 
 gsave  2254 561 2 2 C 1064.37 118.64 t 0 r /Helvetica findfont 78.1689 sf 0 0 m (1200) show NC gr 
 gsave  2254 561 2 2 C 1250.8 118.64 t 0 r /Helvetica findfont 78.1689 sf 0 0 m (1400) show NC gr 
 gsave  2254 561 2 2 C 1437.24 118.64 t 0 r /Helvetica findfont 78.1689 sf 0 0 m (1600) show NC gr 
 gsave  2254 561 2 2 C 1623.67 118.64 t 0 r /Helvetica findfont 78.1689 sf 0 0 m (1800) show NC gr 
 gsave  2254 561 2 2 C 1810.11 118.64 t 0 r /Helvetica findfont 78.1689 sf 0 0 m (2000) show NC gr 
 gsave  2254 561 2 2 C 1996.54 118.64 t 0 r /Helvetica findfont 78.1689 sf 0 0 m (2200) show NC gr  318 545 m 1860 X s 411 531 m 14 Y s 457 538 m 7 Y s 504 538 m 7 Y s 550 538 m 7 Y s 597 531 m 14 Y s 643 538 m 7 Y s 690 538 m 7 Y s 736 538 m 7 Y s
 783 531 m 14 Y s 829 538 m 7 Y s 876 538 m 7 Y s 923 538 m 7 Y s 969 531 m 14 Y s 1016 538 m 7 Y s 1062 538 m 7 Y s 1109 538 m 7 Y s 1155 531 m 14 Y s 1202 538 m 7 Y s 1248 538 m 7 Y s 1295 538 m 7 Y s 1341 531 m 14 Y s 1388 538 m 7 Y s 1434 538 m 7
 Y s 1481 538 m 7 Y s 1527 531 m 14 Y s 1574 538 m 7 Y s 1620 538 m 7 Y s 1667 538 m 7 Y s 1713 531 m 14 Y s 1760 538 m 7 Y s 1806 538 m 7 Y s 1853 538 m 7 Y s 1899 531 m 14 Y s 1946 538 m 7 Y s 1992 538 m 7 Y s 2039 538 m 7 Y s 2085 531 m 14 Y s 411
 531 m 14 Y s 364 538 m 7 Y s 318 538 m 7 Y s 2085 531 m 14 Y s 2132 538 m 7 Y s 318 187 m 358 Y s
 gsave  2254 561 2 2 C 166.096 284.736 t 90 r /Helvetica findfont 67.9729 sf 0 0 m (Data/SM) show NC gr  361 203 m -43 X s 339 220 m -21 X s 339 236 m -21 X s 339 252 m -21 X s 339 268 m -21 X s 361 285 m -43 X s 339 301 m -21 X s 339 317 m -21 X s
 339 334 m -21 X s 339 350 m -21 X s 361 366 m -43 X s 339 382 m -21 X s 339 399 m -21 X s 339 415 m -21 X s 339 431 m -21 X s 361 447 m -43 X s 339 464 m -21 X s 339 480 m -21 X s 339 496 m -21 X s 339 512 m -21 X s 361 529 m -43 X s 361 203 m -43 X
 s 339 187 m -21 X s 361 529 m -43 X s
 gsave  2254 561 2 2 C 261.008 183.044 t 0 r /Helvetica findfont 57.777 sf 0 0 m (0) show NC gr 
 gsave  2254 561 2 2 C 213.552 261.008 t 0 r /Helvetica findfont 57.777 sf 0 0 m (0.5) show NC gr 
 gsave  2254 561 2 2 C 271.177 342.361 t 0 r /Helvetica findfont 57.777 sf 0 0 m (1) show NC gr 
 gsave  2254 561 2 2 C 213.552 423.714 t 0 r /Helvetica findfont 57.777 sf 0 0 m (1.5) show NC gr 
 gsave  2254 561 2 2 C 261.008 505.067 t 0 r /Helvetica findfont 57.777 sf 0 0 m (2) show NC gr  2178 187 m 358 Y s 2135 203 m 43 X s 2157 220 m 21 X s 2157 236 m 21 X s 2157 252 m 21 X s 2157 268 m 21 X s 2135 285 m 43 X s 2157 301 m 21 X s 2157 317
 m 21 X s 2157 334 m 21 X s 2157 350 m 21 X s 2135 366 m 43 X s 2157 382 m 21 X s 2157 399 m 21 X s 2157 415 m 21 X s 2157 431 m 21 X s 2135 447 m 43 X s 2157 464 m 21 X s 2157 480 m 21 X s 2157 496 m 21 X s 2157 512 m 21 X s 2135 529 m 43 X s 2135
 203 m 43 X s 2157 187 m 21 X s 2135 529 m 43 X s 9 lw 643 300 m 5 Y s 643 305 m cl s 643 273 m -5 Y s 643 268 m cl s 736 306 m 15 Y s 736 321 m cl s 736 278 m -13 Y s 736 265 m cl s 829 238 m 13 Y s 829 251 m cl s 829 211 m -4 Y s 829 207 m cl s 923
 248 m 25 Y s 923 273 m cl s 923 220 m -11 Y s 923 209 m cl s 1016 394 m 130 Y s 1016 524 m cl s 1016 367 m -101 Y s 1016 266 m cl s 1109 470 m 75 Y s 1109 545 m cl s 1109 443 m -195 Y s 1109 248 m cl s 1202 527 m -265 Y s 1202 262 m cl s 3 lw 364
 352 457 326 550 304 643 286 736 292 829 224 923 234 1016 380 1109 457 1202 540 10 { m20} R 9 lw 1 0 0 c 6 lw black 3 lw 1 0 0 c 2155 203 m cl s 2127 203 m cl s 2098 203 m cl s 2069 203 m cl s 2040 203 m cl s 2012 203 m cl s 1983 203 m cl s 1954 203
 m cl s 1926 203 m cl s 1897 203 m cl s 1868 203 m cl s 1840 203 m cl s 1811 203 m cl s 1806 227 m -28 -27 d s 1806 256 m -56 -56 d s 1806 285 m -85 -85 d s 1806 313 m -93 -93 d s 1806 342 m -93 -93 d s 1806 370 m -93 -92 d s 1806 399 m -120 -120 d s
 1620 214 m -11 -11 d s 1806 428 m -149 -149 d s 1620 242 m -39 -39 d s 1806 456 m -177 -177 d s 1620 271 m -68 -68 d s 1806 485 m -279 -278 d s 1806 513 m -279 -278 d s 1797 532 m -286 -284 d s 1768 532 m -55 -54 d s 1688 453 m -206 -205 d s 1739
 532 m -26 -26 d s 1660 453 m -206 -205 d s 1631 453 m -197 -196 d s 1620 471 m -186 -186 d s 1620 499 m -207 -206 d s 1620 528 m -235 -235 d s 1593 529 m -237 -236 d s 1564 529 m -37 -36 d s 1519 484 m -195 -194 d s 1535 529 m -8 -8 d s 1490 484 m
 -194 -194 d s 1462 484 m -28 -27 d s 1416 439 m -149 -149 d s 1387 439 m -139 -139 d s 1359 439 m -111 -110 d s 1333 442 m -105 -105 d s 1304 442 m -105 -105 d s 1275 442 m -27 -27 d s 1228 395 m -58 -58 d s 1200 395 m -61 -60 d s 1171 395 m -61 -60
 d s 1145 398 m -63 -63 d s 1116 398 m -57 -57 d s 1088 398 m -57 -57 d s 1053 391 m -51 -50 d s 1024 391 m -51 -50 d s 995 391 m -53 -53 d s 969 394 m -56 -56 d s 940 394 m -55 -56 d s 912 394 m -47 -47 d s 883 394 m -7 -7 d s 874 385 m -38 -38 d s
 846 385 m -39 -38 d s 817 385 m -35 -34 d s 788 385 m -34 -34 d s 756 382 m -31 -31 d s 727 382 m -31 -31 d s 699 382 m -30 -30 d s 668 380 m -27 -28 d s 639 380 m -27 -28 d s 611 380 m -24 -24 d s 578 376 m -20 -20 d s 549 376 m -19 -20 d s 521 376
 m -17 -17 d s 489 373 m -14 -14 d s 460 373 m -13 -14 d s 318 231 m s 432 373 m -14 -14 d s 318 259 m s 401 371 m -10 -10 d s 318 288 m s 372 371 m -9 -10 d s 318 317 m s 343 371 m -9 -10 d s 318 345 m s 6 lw black[ 4 8] 0 sd 3 lw 318 447 m 1860 X s
 318 285 m 1860 X s 1 0 0 c[  12 12 ] 0 sd 6 lw 318 366 m 1860 X s
 gr  gr showpage
end
%%EOF
