%!PS-Adobe-2.0 EPSF-2.0
%%BoundingBox:  0 0 567 521
%%Title: Distributions/met_distrCRY_MB-GGo_beforeFit_forThesis.eps: canvas
%%Creator: ROOT Version 6.04/16
%%CreationDate: Tue May 19 22:01:41 2020
%%DocumentNeededResources: ProcSet (FontSetInit)
%%EndComments
%%BeginProlog
80 dict begin
/s {stroke} def /l {lineto} def /m {moveto} def /t {translate} def
/r {rotate} def /rl {roll}  def /R {repeat} def
/d {rlineto} def /rm {rmoveto} def /gr {grestore} def /f {eofill} def
/c {setrgbcolor} def /black {0 setgray} def /sd {setdash} def
/cl {closepath} def /sf {scalefont setfont} def /lw {setlinewidth} def
/box {m dup 0 exch d exch 0 d 0 exch neg d cl} def
/NC{systemdict begin initclip end}def/C{NC box clip newpath}def
/bl {box s} def /bf {gsave box gsave f grestore 1 lw [] 0 sd s grestore} def /Y { 0 exch d} def /X { 0 d} def 
/K {{pop pop 0 moveto} exch kshow} bind def
/ita {/ang 15 def gsave [1 0 ang dup sin exch cos div 1 0 0] concat} def 
/mp {newpath /y exch def /x exch def} def
/side {[w .77 mul w .23 mul] .385 w mul sd w 0 l currentpoint t -144 r} def
/mr {mp x y w2 0 360 arc} def /m24 {mr s} def /m20 {mr f} def
/mb {mp x y w2 add m w2 neg 0 d 0 w neg d w 0 d 0 w d cl} def
/mt {mp x y w2 add m w2 neg w neg d w 0 d cl} def
/m21 {mb f} def /m25 {mb s} def /m22 {mt f} def /m26{mt s} def
/m23 {mp x y w2 sub m w2 w d w neg 0 d cl f} def
/m27 {mp x y w2 add m w3 neg w2 neg d w3 w2 neg d w3 w2 d cl s} def
/m28 {mp x w2 sub y w2 sub w3 add m w3 0 d  0 w3 neg d w3 0 d 0 w3 d w3 0 d  0 w3 d w3 neg 0 d 0 w3 d w3 neg 0 d 0 w3 neg d w3 neg 0 d cl s } def
/m29 {mp gsave x w2 sub y w2 add w3 sub m currentpoint t 4 {side} repeat cl fill gr} def
/m30 {mp gsave x w2 sub y w2 add w3 sub m currentpoint t 4 {side} repeat cl s gr} def
/m31 {mp x y w2 sub m 0 w d x w2 sub y m w 0 d x w2 sub y w2 add m w w neg d x w2 sub y w2 sub m w w d s} def
/m32 {mp x y w2 sub m w2 w d w neg 0 d cl s} def
/m33 {mp x y w2 add m w3 neg w2 neg d w3 w2 neg d w3 w2 d cl f} def
/m34 {mp x w2 sub y w2 sub w3 add m w3 0 d  0 w3 neg d w3 0 d 0 w3 d w3 0 d  0 w3 d w3 neg 0 d 0 w3 d w3 neg 0 d 0 w3 neg d w3 neg 0 d cl f } def
/m2 {mp x y w2 sub m 0 w d x w2 sub y m w 0 d s} def
/m5 {mp x w2 sub y w2 sub m w w d x w2 sub y w2 add m w w neg d s} def
%%IncludeResource: ProcSet (FontSetInit)
%%IncludeResource: font Times-Roman
%%IncludeResource: font Times-Italic
%%IncludeResource: font Times-Bold
%%IncludeResource: font Times-BoldItalic
%%IncludeResource: font Helvetica
%%IncludeResource: font Helvetica-Oblique
%%IncludeResource: font Helvetica-Bold
%%IncludeResource: font Helvetica-BoldOblique
%%IncludeResource: font Courier
%%IncludeResource: font Courier-Oblique
%%IncludeResource: font Courier-Bold
%%IncludeResource: font Courier-BoldOblique
%%IncludeResource: font Symbol
%%IncludeResource: font ZapfDingbats
/reEncode {exch findfont dup length dict begin {1 index /FID eq  {pop pop} {def} ifelse } forall /Encoding exch def currentdict end dup /FontName get exch definefont pop } def [/Times-Bold /Times-Italic /Times-BoldItalic /Helvetica /Helvetica-Oblique
 /Helvetica-Bold /Helvetica-BoldOblique /Courier /Courier-Oblique /Courier-Bold /Courier-BoldOblique /Times-Roman /AvantGarde-Book /AvantGarde-BookOblique /AvantGarde-Demi /AvantGarde-DemiOblique /Bookman-Demi /Bookman-DemiItalic /Bookman-Light
 /Bookman-LightItalic /Helvetica-Narrow /Helvetica-Narrow-Bold /Helvetica-Narrow-BoldOblique /Helvetica-Narrow-Oblique /NewCenturySchlbk-Roman /NewCenturySchlbk-Bold /NewCenturySchlbk-BoldItalic /NewCenturySchlbk-Italic /Palatino-Bold
 /Palatino-BoldItalic /Palatino-Italic /Palatino-Roman ] {ISOLatin1Encoding reEncode } forall
%%EndProlog
%%BeginSetup
%%EndSetup
newpath  gsave  .25 .25 scale  gsave  0 0 t black[  ] 0 sd 3 lw 1 1 1 c 2268 2085 0 0 bf black 1 1 1 c 2263 1770 2 313 bf black 1 1 1 c black 1860 1145 319 584 bl 1 1 1 c black 1860 1145 319 584 bl 6 lw 1 1 1 c black 3 lw /w 33 def /w2 {w 2 div} def
 /w3 {w 3 div} def 366 1106 m20 6 lw 3 lw 459 1088 m20 6 lw 3 lw 552 1057 m20 6 lw 645 983 m 3 Y s 645 1013 m s 3 lw 645 999 m20 6 lw 738 938 m 9 Y s 738 974 m 4 Y s 3 lw 738 961 m20 6 lw 831 868 m 22 Y s 831 917 m 11 Y s 3 lw 831 904 m20 6 lw 924
 775 m 51 Y s 924 854 m 20 Y s 3 lw 924 840 m20 6 lw 1110 868 m 22 Y s 1110 917 m 11 Y s 3 lw 1110 904 m20 6 lw 1203 584 m 160 Y s 1203 771 m 38 Y s 3 lw 1203 757 m20 6 lw 1296 717 m 79 Y s 1296 823 m 27 Y s 3 lw 1296 809 m20 6 lw 1482 584 m 160 Y s
 1482 771 m 38 Y s 3 lw 1482 757 m20 6 lw 1575 717 m 79 Y s 1575 823 m 27 Y s 3 lw 1575 809 m20 6 lw 3 lw 319 584 m 1860 X s
 gsave  2263 1770 2 313 C 1949.08 355.92 t 0 r /Helvetica findfont 81.3741 sf 0 0 m ( [GeV]) show NC gr 
 gsave  2263 1770 2 313 C 1837.22 396.596 t 0 r /Helvetica findfont 54.2494 sf 0 0 m (miss) show NC gr 
 gsave  2263 1770 2 313 C 1837.22 332.192 t 0 r /Helvetica findfont 54.2494 sf 0 0 m (T) show NC gr 
 gsave  2263 1770 2 313 C 1786.38 355.92 t 0 r /Helvetica findfont 81.3741 sf 0 0 m (E) show NC gr  412 584 m cl s 459 584 m cl s 505 584 m cl s 552 584 m cl s 598 584 m cl s 645 584 m cl s 691 584 m cl s 738 584 m cl s 784 584 m cl s 831 584 m cl s
 877 584 m cl s 924 584 m cl s 970 584 m cl s 1017 584 m cl s 1063 584 m cl s 1110 584 m cl s 1156 584 m cl s 1203 584 m cl s 1249 584 m cl s 1296 584 m cl s 1342 584 m cl s 1389 584 m cl s 1435 584 m cl s 1482 584 m cl s 1528 584 m cl s 1575 584 m
 cl s 1621 584 m cl s 1668 584 m cl s 1714 584 m cl s 1761 584 m cl s 1807 584 m cl s 1854 584 m cl s 1900 584 m cl s 1947 584 m cl s 1993 584 m cl s 2040 584 m cl s 2086 584 m cl s 412 584 m cl s 366 584 m cl s 319 584 m cl s 2086 584 m cl s 2133
 584 m cl s 2179 584 m cl s 319 1729 m 1860 X s 412 1729 m cl s 459 1729 m cl s 505 1729 m cl s 552 1729 m cl s 598 1729 m cl s 645 1729 m cl s 691 1729 m cl s 738 1729 m cl s 784 1729 m cl s 831 1729 m cl s 877 1729 m cl s 924 1729 m cl s 970 1729 m
 cl s 1017 1729 m cl s 1063 1729 m cl s 1110 1729 m cl s 1156 1729 m cl s 1203 1729 m cl s 1249 1729 m cl s 1296 1729 m cl s 1342 1729 m cl s 1389 1729 m cl s 1435 1729 m cl s 1482 1729 m cl s 1528 1729 m cl s 1575 1729 m cl s 1621 1729 m cl s 1668
 1729 m cl s 1714 1729 m cl s 1761 1729 m cl s 1807 1729 m cl s 1854 1729 m cl s 1900 1729 m cl s 1947 1729 m cl s 1993 1729 m cl s 2040 1729 m cl s 2086 1729 m cl s 412 1729 m cl s 366 1729 m cl s 319 1729 m cl s 2086 1729 m cl s 2133 1729 m cl s
 2179 1729 m cl s 319 584 m 1145 Y s
 gsave  2263 1770 2 313 C 166.096 1091.49 t 90 r /Helvetica findfont 81.3741 sf 0 0 m (Events / 100 GeV) show NC gr  341 636 m -22 X s 341 667 m -22 X s 341 689 m -22 X s 341 705 m -22 X s 341 719 m -22 X s 341 731 m -22 X s 341 741 m -22 X s 341 749
 m -22 X s 363 757 m -44 X s
 gsave  2263 1770 2 313 C 300.555 730.267 t 0 r  -36 0 t /Helvetica findfont 64.4212 sf 0 0 m (1) show NC gr  341 809 m -22 X s 341 840 m -22 X s 341 862 m -22 X s 341 878 m -22 X s 341 892 m -22 X s 341 904 m -22 X s 341 914 m -22 X s 341 923 m -22
 X s 363 930 m -44 X s
 gsave  2263 1770 2 313 C 300.555 903.342 t 0 r  -73 0 t /Helvetica findfont 64.4212 sf 0 0 m (10) show NC gr  341 983 m -22 X s 341 1013 m -22 X s 341 1035 m -22 X s 341 1051 m -22 X s 341 1065 m -22 X s 341 1077 m -22 X s 341 1087 m -22 X s 341
 1096 m -22 X s 363 1104 m -44 X s
 gsave  2263 1770 2 313 C 274.567 1101.66 t 0 r /Helvetica findfont 44.0776 sf 0 0 m (2) show NC gr 
 gsave  2263 1770 2 313 C 203.383 1074.54 t 0 r /Helvetica findfont 64.4212 sf 0 0 m (10) show NC gr  341 1156 m -22 X s 341 1186 m -22 X s 341 1208 m -22 X s 341 1225 m -22 X s 341 1238 m -22 X s 341 1250 m -22 X s 341 1260 m -22 X s 341 1269 m -22
 X s 363 1277 m -44 X s
 gsave  2263 1770 2 313 C 274.567 1277.92 t 0 r /Helvetica findfont 44.0776 sf 0 0 m (3) show NC gr 
 gsave  2263 1770 2 313 C 203.383 1247.41 t 0 r /Helvetica findfont 64.4212 sf 0 0 m (10) show NC gr  341 1329 m -22 X s 341 1359 m -22 X s 341 1381 m -22 X s 341 1398 m -22 X s 341 1411 m -22 X s 341 1423 m -22 X s 341 1433 m -22 X s 341 1442 m -22
 X s 363 1450 m -44 X s
 gsave  2263 1770 2 313 C 274.567 1447.41 t 0 r /Helvetica findfont 44.0776 sf 0 0 m (4) show NC gr 
 gsave  2263 1770 2 313 C 203.383 1420.29 t 0 r /Helvetica findfont 64.4212 sf 0 0 m (10) show NC gr  341 1502 m -22 X s 341 1532 m -22 X s 341 1554 m -22 X s 341 1571 m -22 X s 341 1584 m -22 X s 341 1596 m -22 X s 341 1606 m -22 X s 341 1615 m -22
 X s 363 1623 m -44 X s
 gsave  2263 1770 2 313 C 274.567 1623.67 t 0 r /Helvetica findfont 44.0776 sf 0 0 m (5) show NC gr 
 gsave  2263 1770 2 313 C 203.383 1593.16 t 0 r /Helvetica findfont 64.4212 sf 0 0 m (10) show NC gr  341 1675 m -22 X s 341 1705 m -22 X s 341 1727 m -22 X s 2179 584 m 1145 Y s 2157 636 m 22 X s 2157 667 m 22 X s 2157 689 m 22 X s 2157 705 m 22 X s
 2157 719 m 22 X s 2157 731 m 22 X s 2157 741 m 22 X s 2157 749 m 22 X s 2136 757 m 43 X s 2157 809 m 22 X s 2157 840 m 22 X s 2157 862 m 22 X s 2157 878 m 22 X s 2157 892 m 22 X s 2157 904 m 22 X s 2157 914 m 22 X s 2157 923 m 22 X s 2136 930 m 43 X
 s 2157 983 m 22 X s 2157 1013 m 22 X s 2157 1035 m 22 X s 2157 1051 m 22 X s 2157 1065 m 22 X s 2157 1077 m 22 X s 2157 1087 m 22 X s 2157 1096 m 22 X s 2136 1104 m 43 X s 2157 1156 m 22 X s 2157 1186 m 22 X s 2157 1208 m 22 X s 2157 1225 m 22 X s
 2157 1238 m 22 X s 2157 1250 m 22 X s 2157 1260 m 22 X s 2157 1269 m 22 X s 2136 1277 m 43 X s 2157 1329 m 22 X s 2157 1359 m 22 X s 2157 1381 m 22 X s 2157 1398 m 22 X s 2157 1411 m 22 X s 2157 1423 m 22 X s 2157 1433 m 22 X s 2157 1442 m 22 X s
 2136 1450 m 43 X s 2157 1502 m 22 X s 2157 1532 m 22 X s 2157 1554 m 22 X s 2157 1571 m 22 X s 2157 1584 m 22 X s 2157 1596 m 22 X s 2157 1606 m 22 X s 2157 1615 m 22 X s 2136 1623 m 43 X s 2157 1675 m 22 X s 2157 1705 m 22 X s 2157 1727 m 22 X s 1
 1 0 c black 1 1 0 c 319 584 m 539 Y 93 X 4 Y 93 X -41 Y 93 X -42 Y 93 X -58 Y 93 X -15 Y 93 X -58 Y 93 X -62 Y 93 X -29 Y 93 X -39 Y 93 X -46 Y 93 X -30 Y 93 X -57 Y 93 X 38 Y 93 X -104 Y 93 X 12 Y 93 X -12 Y 372 X f black 1 1 0 c black 319 1123 m
 93 X 4 Y 93 X -41 Y 93 X -42 Y 93 X -58 Y 93 X -15 Y 93 X -58 Y 93 X -62 Y 93 X -29 Y 93 X -39 Y 93 X -46 Y 93 X -30 Y 93 X -57 Y 93 X 38 Y 93 X -104 Y 93 X 12 Y 93 X -12 Y 372 X s 0.999 0.999 0.999 c black 0.999 0.999 0.999 c 319 584 m 259 Y 93 X
 -27 Y 93 X -36 Y 93 X -18 Y 93 X -79 Y 93 X 1 Y 93 X -100 Y 651 X 65 Y 93 X -65 Y 558 X f black 0.999 0.999 0.999 c black 319 843 m 93 X -27 Y 93 X -36 Y 93 X -18 Y 93 X -79 Y 93 X 1 Y 93 X -100 Y 651 X 65 Y 93 X -65 Y 558 X s 1 1 1 c black 319 843
 m 93 X -27 Y 93 X -36 Y 93 X -18 Y 93 X -79 Y 93 X 1 Y 93 X -100 Y 651 X 65 Y 93 X -65 Y 558 X s 0.4 0.6 1 c black 0.4 0.6 1 c 319 584 m 259 Y 93 X -27 Y 93 X -36 Y 93 X -18 Y 93 X -79 Y 93 X 1 Y 93 X -100 Y 651 X 65 Y 93 X -65 Y 558 X f black 0.4
 0.6 1 c black 319 843 m 93 X -27 Y 93 X -36 Y 93 X -18 Y 93 X -79 Y 93 X 1 Y 93 X -100 Y 651 X 65 Y 93 X -65 Y 558 X s 0.999 0.999 0.999 c black 0.999 0.999 0.999 c 319 584 m 253 Y 93 X -30 Y 93 X -58 Y 93 X 2 Y 93 X -75 Y 93 X -8 Y 93 X -84 Y 651 X
 65 Y 93 X -65 Y 558 X f black 0.999 0.999 0.999 c black 319 837 m 93 X -30 Y 93 X -58 Y 93 X 2 Y 93 X -75 Y 93 X -8 Y 93 X -84 Y 651 X 65 Y 93 X -65 Y 558 X s 1 1 1 c black 319 837 m 93 X -30 Y 93 X -58 Y 93 X 2 Y 93 X -75 Y 93 X -8 Y 93 X -84 Y 651
 X 65 Y 93 X -65 Y 558 X s 0.6 1 0.6 c black 0.6 1 0.6 c 319 584 m 253 Y 93 X -30 Y 93 X -58 Y 93 X 2 Y 93 X -75 Y 93 X -8 Y 93 X -84 Y 651 X 65 Y 93 X -65 Y 558 X f black 0.6 1 0.6 c black 319 837 m 93 X -30 Y 93 X -58 Y 93 X 2 Y 93 X -75 Y 93 X -8
 Y 93 X -84 Y 651 X 65 Y 93 X -65 Y 558 X s 0.999 0.999 0.999 c black 0.999 0.999 0.999 c 319 584 m 186 X 8 Y 93 X 73 Y 93 X -81 Y 1488 X f black 0.999 0.999 0.999 c black 319 584 m 186 X 8 Y 93 X 73 Y 93 X -81 Y 1488 X s 1 1 1 c black 319 584 m 186
 X 8 Y 93 X 73 Y 93 X -81 Y 1488 X s 1 0.4 0.6 c black 1 0.4 0.6 c 319 584 m 186 X 8 Y 93 X 73 Y 93 X -81 Y 1488 X f black 1 0.4 0.6 c black 319 584 m 186 X 8 Y 93 X 73 Y 93 X -81 Y 1488 X s 1 0 0 c 6 lw 1 1 1 c black 1 0 0 c 319 1123 m 93 X 4 Y 93 X
 -41 Y 93 X -42 Y 93 X -58 Y 93 X -15 Y 93 X -58 Y 93 X -62 Y 93 X -29 Y 93 X -39 Y 93 X -46 Y 93 X -30 Y 93 X -57 Y 93 X 38 Y 93 X -104 Y 93 X 12 Y 93 X -12 Y 372 X s black 3 lw 1 0 0 c 1 lw << /PatternType 1 /PaintType 2 /TilingType 1 /BBox [ 0 0
 100 100 ] /XStep 100 /YStep 100 /PaintProc { begin gsave 0 100 m 100 0 l s gr end } >> [ 0.24 0 0 0.24 0 0 ] makepattern /P05 exch def /cs {[/Pattern /DeviceRGB] setcolorspace} def /FA {f [/DeviceRGB] setcolorspace} def cs 1 0 0 P05 setcolor 319 584
 m 546 Y 93 X 4 Y 93 X -41 Y 93 X -39 Y 93 X -57 Y 93 X -10 Y 93 X -63 Y 93 X -64 Y 93 X -30 Y 93 X -36 Y 93 X -46 Y 93 X -29 Y 93 X -56 Y 93 X 61 Y 93 X -134 Y 93 X 27 Y 93 X -33 Y -186 X 34 Y -93 X 16 Y -93 X 59 Y -93 X 31 Y -93 X 48 Y -93 X 40 Y
 -93 X 29 Y -93 X 58 Y -93 X 52 Y -93 X 22 Y -93 X 60 Y -93 X 44 Y -93 X 42 Y -93 X -4 Y -93 X -531 Y FA 6 lw 1 1 1 c 15 lw 738 941 m -2 Y s 738 939 m cl s 831 924 m 5 Y s 831 929 m cl s 831 883 m -14 Y s 831 869 m cl s 924 860 m 17 Y s 924 877 m cl
 s 924 820 m -39 Y s 924 781 m cl s 1110 924 m 5 Y s 1110 929 m cl s 1110 883 m -14 Y s 1110 869 m cl s 1203 778 m 42 Y s 1203 820 m cl s 1203 737 m -111 Y s 1203 626 m cl s 1296 830 m 24 Y s 1296 854 m cl s 1296 789 m -57 Y s 1296 732 m cl s 1482
 778 m 42 Y s 1482 820 m cl s 1482 737 m -111 Y s 1482 626 m cl s 1575 830 m 24 Y s 1575 854 m cl s 1575 789 m -57 Y s 1575 732 m cl s black 1 1 1 c 3 lw /w 43 def /w2 {w 2 div} def /w3 {w 3 div} def 366 1106 459 1088 552 1057 645 999 738 961 831 904
 924 840 7 { m20} R 15 lw 3 lw 1110 904 1203 757 1296 809 3 { m20} R 15 lw 3 lw 1482 757 1575 809 2 { m20} R 15 lw black 6 lw 1 1 1 c black 3 lw /w 33 def /w2 {w 2 div} def /w3 {w 3 div} def 366 1106 m20 6 lw 3 lw 459 1088 m20 6 lw 3 lw 552 1057 m20
 6 lw 645 983 m 3 Y s 645 1013 m s 3 lw 645 999 m20 6 lw 738 938 m 9 Y s 738 974 m 4 Y s 3 lw 738 961 m20 6 lw 831 868 m 22 Y s 831 917 m 11 Y s 3 lw 831 904 m20 6 lw 924 775 m 51 Y s 924 854 m 20 Y s 3 lw 924 840 m20 6 lw 1110 868 m 22 Y s 1110 917
 m 11 Y s 3 lw 1110 904 m20 6 lw 1203 584 m 160 Y s 1203 771 m 38 Y s 3 lw 1203 757 m20 6 lw 1296 717 m 79 Y s 1296 823 m 27 Y s 3 lw 1296 809 m20 6 lw 1482 584 m 160 Y s 1482 771 m 38 Y s 3 lw 1482 757 m20 6 lw 1575 717 m 79 Y s 1575 823 m 27 Y s 3
 lw 1575 809 m20 6 lw 645 1013 m s 645 1013 m cl s 645 986 m -3 Y s 645 983 m cl s 738 974 m 4 Y s 738 978 m cl s 738 947 m -8 Y s 738 939 m cl s 831 917 m 12 Y s 831 929 m cl s 831 890 m -21 Y s 831 869 m cl s 924 854 m 23 Y s 924 877 m cl s 924 826
 m -45 Y s 924 781 m cl s 1110 917 m 12 Y s 1110 929 m cl s 1110 890 m -21 Y s 1110 869 m cl s 1203 771 m 49 Y s 1203 820 m cl s 1203 744 m -118 Y s 1203 626 m cl s 1296 823 m 31 Y s 1296 854 m cl s 1296 796 m -64 Y s 1296 732 m cl s 1482 771 m 49 Y
 s 1482 820 m cl s 1482 744 m -118 Y s 1482 626 m cl s 1575 823 m 31 Y s 1575 854 m cl s 1575 796 m -64 Y s 1575 732 m cl s 3 lw 366 1106 459 1088 552 1057 645 999 738 961 831 904 924 840 7 { m20} R 6 lw 3 lw 1110 904 1203 757 1296 809 3 { m20} R 6
 lw 3 lw 1482 757 1575 809 2 { m20} R 6 lw 3 lw 319 584 m 1860 X s 412 584 m cl s 459 584 m cl s 505 584 m cl s 552 584 m cl s 598 584 m cl s 645 584 m cl s 691 584 m cl s 738 584 m cl s 784 584 m cl s 831 584 m cl s 877 584 m cl s 924 584 m cl s 970
 584 m cl s 1017 584 m cl s 1063 584 m cl s 1110 584 m cl s 1156 584 m cl s 1203 584 m cl s 1249 584 m cl s 1296 584 m cl s 1342 584 m cl s 1389 584 m cl s 1435 584 m cl s 1482 584 m cl s 1528 584 m cl s 1575 584 m cl s 1621 584 m cl s 1668 584 m cl
 s 1714 584 m cl s 1761 584 m cl s 1807 584 m cl s 1854 584 m cl s 1900 584 m cl s 1947 584 m cl s 1993 584 m cl s 2040 584 m cl s 2086 584 m cl s 412 584 m cl s 366 584 m cl s 319 584 m cl s 2086 584 m cl s 2133 584 m cl s 2179 584 m cl s 319 1729 m
 1860 X s 412 1729 m cl s 459 1729 m cl s 505 1729 m cl s 552 1729 m cl s 598 1729 m cl s 645 1729 m cl s 691 1729 m cl s 738 1729 m cl s 784 1729 m cl s 831 1729 m cl s 877 1729 m cl s 924 1729 m cl s 970 1729 m cl s 1017 1729 m cl s 1063 1729 m cl
 s 1110 1729 m cl s 1156 1729 m cl s 1203 1729 m cl s 1249 1729 m cl s 1296 1729 m cl s 1342 1729 m cl s 1389 1729 m cl s 1435 1729 m cl s 1482 1729 m cl s 1528 1729 m cl s 1575 1729 m cl s 1621 1729 m cl s 1668 1729 m cl s 1714 1729 m cl s 1761 1729
 m cl s 1807 1729 m cl s 1854 1729 m cl s 1900 1729 m cl s 1947 1729 m cl s 1993 1729 m cl s 2040 1729 m cl s 2086 1729 m cl s 412 1729 m cl s 366 1729 m cl s 319 1729 m cl s 2086 1729 m cl s 2133 1729 m cl s 2179 1729 m cl s 319 584 m 1145 Y s 341
 636 m -22 X s 341 667 m -22 X s 341 689 m -22 X s 341 705 m -22 X s 341 719 m -22 X s 341 731 m -22 X s 341 741 m -22 X s 341 749 m -22 X s 363 757 m -44 X s 341 809 m -22 X s 341 840 m -22 X s 341 862 m -22 X s 341 878 m -22 X s 341 892 m -22 X s
 341 904 m -22 X s 341 914 m -22 X s 341 923 m -22 X s 363 930 m -44 X s 341 983 m -22 X s 341 1013 m -22 X s 341 1035 m -22 X s 341 1051 m -22 X s 341 1065 m -22 X s 341 1077 m -22 X s 341 1087 m -22 X s 341 1096 m -22 X s 363 1104 m -44 X s 341
 1156 m -22 X s 341 1186 m -22 X s 341 1208 m -22 X s 341 1225 m -22 X s 341 1238 m -22 X s 341 1250 m -22 X s 341 1260 m -22 X s 341 1269 m -22 X s 363 1277 m -44 X s 341 1329 m -22 X s 341 1359 m -22 X s 341 1381 m -22 X s 341 1398 m -22 X s 341
 1411 m -22 X s 341 1423 m -22 X s 341 1433 m -22 X s 341 1442 m -22 X s 363 1450 m -44 X s 341 1502 m -22 X s 341 1532 m -22 X s 341 1554 m -22 X s 341 1571 m -22 X s 341 1584 m -22 X s 341 1596 m -22 X s 341 1606 m -22 X s 341 1615 m -22 X s 363
 1623 m -44 X s 341 1675 m -22 X s 341 1705 m -22 X s 341 1727 m -22 X s 2179 584 m 1145 Y s 2157 636 m 22 X s 2157 667 m 22 X s 2157 689 m 22 X s 2157 705 m 22 X s 2157 719 m 22 X s 2157 731 m 22 X s 2157 741 m 22 X s 2157 749 m 22 X s 2136 757 m 43
 X s 2157 809 m 22 X s 2157 840 m 22 X s 2157 862 m 22 X s 2157 878 m 22 X s 2157 892 m 22 X s 2157 904 m 22 X s 2157 914 m 22 X s 2157 923 m 22 X s 2136 930 m 43 X s 2157 983 m 22 X s 2157 1013 m 22 X s 2157 1035 m 22 X s 2157 1051 m 22 X s 2157
 1065 m 22 X s 2157 1077 m 22 X s 2157 1087 m 22 X s 2157 1096 m 22 X s 2136 1104 m 43 X s 2157 1156 m 22 X s 2157 1186 m 22 X s 2157 1208 m 22 X s 2157 1225 m 22 X s 2157 1238 m 22 X s 2157 1250 m 22 X s 2157 1260 m 22 X s 2157 1269 m 22 X s 2136
 1277 m 43 X s 2157 1329 m 22 X s 2157 1359 m 22 X s 2157 1381 m 22 X s 2157 1398 m 22 X s 2157 1411 m 22 X s 2157 1423 m 22 X s 2157 1433 m 22 X s 2157 1442 m 22 X s 2136 1450 m 43 X s 2157 1502 m 22 X s 2157 1532 m 22 X s 2157 1554 m 22 X s 2157
 1571 m 22 X s 2157 1584 m 22 X s 2157 1596 m 22 X s 2157 1606 m 22 X s 2157 1615 m 22 X s 2136 1623 m 43 X s 2157 1675 m 22 X s 2157 1705 m 22 X s 2157 1727 m 22 X s
 gsave  2263 1770 2 313 C 406.765 1447.41 t 0 r /Helvetica findfont 64.4212 sf 0 0 m (CRY for MB\255GGo) show NC gr 
 gsave  2263 1770 2 313 C 1464.36 1616.89 t 0 r /Helvetica findfont 64.4212 sf 0 0 m (SM Total) show NC gr  1 1 1 c 1338 1603 m 107 X 74 Y -107 X f 1 0 0 c 6 lw 1338 1640 m 107 X s black
 gsave  2263 1770 2 313 C 1464.36 1511.81 t 0 r /Helvetica findfont 64.4212 sf 0 0 m (Data) show NC gr  1391 1502 m 64 Y s 3 lw 1391 1534 m20 6 lw
 gsave  2263 1770 2 313 C 1464.36 1406.73 t 0 r /Helvetica findfont 64.4212 sf 0 0 m (GAMMAjets) show NC gr  1 1 0 c 3 lw 1338 1391 m 107 X 74 Y -107 X f 6 lw black 3 lw 1338 1465 m 107 X s 1338 1391 m 107 X s 1445 1391 m 74 Y s 1338 1391 m 74 Y s
 gsave  2263 1770 2 313 C 1464.36 1298.26 t 0 r /Helvetica findfont 64.4212 sf 0 0 m (W+jets) show NC gr  0.4 0.6 1 c 1338 1284 m 107 X 75 Y -107 X f black 1338 1359 m 107 X s 1338 1284 m 107 X s 1445 1284 m 75 Y s 1338 1284 m 75 Y s
 gsave  2263 1770 2 313 C 1498.25 1193.18 t 0 r /Helvetica findfont 64.4212 sf 0 0 m (\(+EW\) & single top) show NC gr 
 gsave  2263 1770 2 313 C 1481.3 1193.18 t 0 r /Helvetica findfont 64.4212 sf 0 0 m (t) show NC gr  1481 1244 m 17 X s
 gsave  2263 1770 2 313 C 1464.36 1193.18 t 0 r /Helvetica findfont 64.4212 sf 0 0 m (t) show NC gr  0.6 1 0.6 c 1338 1178 m 107 X 75 Y -107 X f black 1338 1253 m 107 X s 1338 1178 m 107 X s 1445 1178 m 75 Y s 1338 1178 m 75 Y s
 gsave  2263 1770 2 313 C 1464.36 1088.1 t 0 r /Helvetica findfont 64.4212 sf 0 0 m (Diboson) show NC gr  1 0.4 0.6 c 1338 1072 m 107 X 74 Y -107 X f black 1338 1146 m 107 X s 1338 1072 m 107 X s 1445 1072 m 74 Y s 1338 1072 m 74 Y s
 gsave  2263 1770 2 313 C 911.832 1566.05 t 0 r /Helvetica findfont 44.0776 sf 0 0 m (\2551) show NC gr 
 gsave  2263 1770 2 313 C 471.17 1535.54 t 0 r /Helvetica findfont 64.4212 sf 0 0 m (=13TeV, 139 fb) show NC gr 
 gsave  2263 1770 2 313 C 440.662 1535.54 t 0 r /Helvetica findfont 64.4212 sf 0 0 m (s) show NC gr  6 lw 420 1573 m 7 -41 d s 3 lw 427 1532 m 7 61 d s 434 1593 m 37 X s 1 1 1 c 2254 561 2 2 bf black 1 1 1 c black 1860 358 318 187 bl 1 1 1 c black
 1860 358 318 187 bl 6 lw 1 1 1 c black 3 lw 364 334 m20 6 lw 3 lw 457 300 m20 6 lw 3 lw 550 315 m20 6 lw 3 lw 643 293 m20 6 lw 3 lw 736 320 m20 6 lw 3 lw 829 270 m20 6 lw 3 lw 923 265 m20 6 lw 3 lw 1202 318 m20 6 lw 3 lw 318 187 m 1860 X s
 gsave  2254 561 2 2 C 1959.25 27.1177 t 0 r /Helvetica findfont 78.1689 sf 0 0 m ( [GeV]) show NC gr 
 gsave  2254 561 2 2 C 1854.17 64.4045 t 0 r /Helvetica findfont 50.9797 sf 0 0 m (miss) show NC gr 
 gsave  2254 561 2 2 C 1854.17 3.38971 t 0 r /Helvetica findfont 50.9797 sf 0 0 m (T) show NC gr 
 gsave  2254 561 2 2 C 1803.33 27.1177 t 0 r /Helvetica findfont 78.1689 sf 0 0 m (E) show NC gr  411 201 m -14 Y s 457 194 m -7 Y s 504 194 m -7 Y s 550 194 m -7 Y s 597 201 m -14 Y s 643 194 m -7 Y s 690 194 m -7 Y s 736 194 m -7 Y s 783 201 m -14
 Y s 829 194 m -7 Y s 876 194 m -7 Y s 923 194 m -7 Y s 969 201 m -14 Y s 1016 194 m -7 Y s 1062 194 m -7 Y s 1109 194 m -7 Y s 1155 201 m -14 Y s 1202 194 m -7 Y s 1248 194 m -7 Y s 1295 194 m -7 Y s 1341 201 m -14 Y s 1388 194 m -7 Y s 1434 194 m
 -7 Y s 1481 194 m -7 Y s 1527 201 m -14 Y s 1574 194 m -7 Y s 1620 194 m -7 Y s 1667 194 m -7 Y s 1713 201 m -14 Y s 1760 194 m -7 Y s 1806 194 m -7 Y s 1853 194 m -7 Y s 1899 201 m -14 Y s 1946 194 m -7 Y s 1992 194 m -7 Y s 2039 194 m -7 Y s 2085
 201 m -14 Y s 411 201 m -14 Y s 364 194 m -7 Y s 318 194 m -7 Y s 2085 201 m -14 Y s 2132 194 m -7 Y s
 gsave  2254 561 2 2 C 345.75 118.64 t 0 r /Helvetica findfont 78.1689 sf 0 0 m (400) show NC gr 
 gsave  2254 561 2 2 C 532.185 118.64 t 0 r /Helvetica findfont 78.1689 sf 0 0 m (600) show NC gr 
 gsave  2254 561 2 2 C 715.229 118.64 t 0 r /Helvetica findfont 78.1689 sf 0 0 m (800) show NC gr 
 gsave  2254 561 2 2 C 877.935 118.64 t 0 r /Helvetica findfont 78.1689 sf 0 0 m (1000) show NC gr 
 gsave  2254 561 2 2 C 1064.37 118.64 t 0 r /Helvetica findfont 78.1689 sf 0 0 m (1200) show NC gr 
 gsave  2254 561 2 2 C 1250.8 118.64 t 0 r /Helvetica findfont 78.1689 sf 0 0 m (1400) show NC gr 
 gsave  2254 561 2 2 C 1437.24 118.64 t 0 r /Helvetica findfont 78.1689 sf 0 0 m (1600) show NC gr 
 gsave  2254 561 2 2 C 1623.67 118.64 t 0 r /Helvetica findfont 78.1689 sf 0 0 m (1800) show NC gr 
 gsave  2254 561 2 2 C 1810.11 118.64 t 0 r /Helvetica findfont 78.1689 sf 0 0 m (2000) show NC gr 
 gsave  2254 561 2 2 C 1996.54 118.64 t 0 r /Helvetica findfont 78.1689 sf 0 0 m (2200) show NC gr  318 545 m 1860 X s 411 531 m 14 Y s 457 538 m 7 Y s 504 538 m 7 Y s 550 538 m 7 Y s 597 531 m 14 Y s 643 538 m 7 Y s 690 538 m 7 Y s 736 538 m 7 Y s
 783 531 m 14 Y s 829 538 m 7 Y s 876 538 m 7 Y s 923 538 m 7 Y s 969 531 m 14 Y s 1016 538 m 7 Y s 1062 538 m 7 Y s 1109 538 m 7 Y s 1155 531 m 14 Y s 1202 538 m 7 Y s 1248 538 m 7 Y s 1295 538 m 7 Y s 1341 531 m 14 Y s 1388 538 m 7 Y s 1434 538 m 7
 Y s 1481 538 m 7 Y s 1527 531 m 14 Y s 1574 538 m 7 Y s 1620 538 m 7 Y s 1667 538 m 7 Y s 1713 531 m 14 Y s 1760 538 m 7 Y s 1806 538 m 7 Y s 1853 538 m 7 Y s 1899 531 m 14 Y s 1946 538 m 7 Y s 1992 538 m 7 Y s 2039 538 m 7 Y s 2085 531 m 14 Y s 411
 531 m 14 Y s 364 538 m 7 Y s 318 538 m 7 Y s 2085 531 m 14 Y s 2132 538 m 7 Y s 318 187 m 358 Y s
 gsave  2254 561 2 2 C 166.096 284.736 t 90 r /Helvetica findfont 67.9729 sf 0 0 m (Data/SM) show NC gr  361 203 m -43 X s 339 220 m -21 X s 339 236 m -21 X s 339 252 m -21 X s 339 268 m -21 X s 361 285 m -43 X s 339 301 m -21 X s 339 317 m -21 X s
 339 334 m -21 X s 339 350 m -21 X s 361 366 m -43 X s 339 382 m -21 X s 339 399 m -21 X s 339 415 m -21 X s 339 431 m -21 X s 361 447 m -43 X s 339 464 m -21 X s 339 480 m -21 X s 339 496 m -21 X s 339 512 m -21 X s 361 529 m -43 X s 361 203 m -43 X
 s 339 187 m -21 X s 361 529 m -43 X s
 gsave  2254 561 2 2 C 261.008 183.044 t 0 r /Helvetica findfont 57.777 sf 0 0 m (0) show NC gr 
 gsave  2254 561 2 2 C 213.552 261.008 t 0 r /Helvetica findfont 57.777 sf 0 0 m (0.5) show NC gr 
 gsave  2254 561 2 2 C 271.177 342.361 t 0 r /Helvetica findfont 57.777 sf 0 0 m (1) show NC gr 
 gsave  2254 561 2 2 C 213.552 423.714 t 0 r /Helvetica findfont 57.777 sf 0 0 m (1.5) show NC gr 
 gsave  2254 561 2 2 C 261.008 505.067 t 0 r /Helvetica findfont 57.777 sf 0 0 m (2) show NC gr  2178 187 m 358 Y s 2135 203 m 43 X s 2157 220 m 21 X s 2157 236 m 21 X s 2157 252 m 21 X s 2157 268 m 21 X s 2135 285 m 43 X s 2157 301 m 21 X s 2157 317
 m 21 X s 2157 334 m 21 X s 2157 350 m 21 X s 2135 366 m 43 X s 2157 382 m 21 X s 2157 399 m 21 X s 2157 415 m 21 X s 2157 431 m 21 X s 2135 447 m 43 X s 2157 464 m 21 X s 2157 480 m 21 X s 2157 496 m 21 X s 2157 512 m 21 X s 2135 529 m 43 X s 2135
 203 m 43 X s 2157 187 m 21 X s 2135 529 m 43 X s 9 lw 550 328 m 2 Y s 550 330 m cl s 550 301 m -1 Y s 550 300 m cl s 643 306 m 5 Y s 643 311 m cl s 643 279 m -4 Y s 643 275 m cl s 736 333 m 17 Y s 736 350 m cl s 736 306 m -16 Y s 736 290 m cl s 829
 283 m 13 Y s 829 296 m cl s 829 256 m -11 Y s 829 245 m cl s 923 279 m 25 Y s 923 304 m cl s 923 252 m -20 Y s 923 232 m cl s 1109 545 m -36 Y s 1109 509 m cl s 1202 332 m 135 Y s 1202 467 m cl s 1202 305 m -82 Y s 1202 223 m cl s 1295 545 m -189 Y
 s 1295 356 m cl s 1481 545 m -223 Y s 1481 322 m cl s 1574 545 m -51 Y s 1574 494 m cl s 3 lw 364 334 457 300 550 315 643 293 736 320 829 270 923 265 7 { m20} R 9 lw 3 lw 1202 318 m20 9 lw 1 0 0 c 6 lw black 3 lw 1 0 0 c 2178 227 m s 2178 255 m s
 2178 284 m s 2178 312 m -26 -26 d s 2178 341 m -54 -55 d s 2178 369 m -83 -83 d s 2178 398 m -103 -103 d s 2178 427 m -131 -132 d s 2169 446 m -151 -151 d s 2140 446 m -169 -169 d s 2111 446 m -169 -169 d s 2074 437 m -160 -160 d s 2045 437 m -146
 -146 d s 2016 437 m -123 -123 d s 1992 441 m -128 -127 d s 1977 455 m -141 -141 d s 1949 455 m -142 -141 d s 1920 455 m -21 -21 d s 1883 418 m -104 -103 d s 1854 418 m -103 -103 d s 1826 418 m -104 -103 d s 1796 417 m -101 -100 d s 1767 417 m -101
 -100 d s 1620 271 m -3 -3 d s 1738 417 m -100 -100 d s 1620 299 m -32 -31 d s 1708 415 m -148 -147 d s 1679 415 m -148 -147 d s 1651 415 m -124 -123 d s 1622 415 m -95 -94 d s 1620 442 m -107 -107 d s 1614 464 m -130 -129 d s 1585 464 m -58 -57 d s
 1518 397 m -63 -62 d s 1556 464 m -29 -29 d s 1489 397 m -60 -60 d s 1528 464 m -1 X s 1460 397 m -60 -60 d s 1429 395 m -58 -58 d s 1400 395 m -57 -58 d s 1372 395 m -54 -54 d s 1343 395 m -2 -2 d s 1339 391 m -50 -50 d s 1311 391 m -51 -50 d s
 1282 391 m -49 -49 d s 1253 391 m -49 -49 d s 1223 390 m -47 -48 d s 1194 390 m -43 -43 d s 1166 390 m -43 -43 d s 1133 385 m -39 -38 d s 1104 385 m -39 -38 d s 1076 385 m -41 -40 d s 1048 387 m -42 -42 d s 1020 387 m -42 -42 d s 991 387 m -48 -48 d
 s 968 393 m -53 -54 d s 939 393 m -53 -54 d s 876 330 m -2 -2 d s 911 393 m -66 -65 d s 882 393 m -65 -65 d s 865 404 m -77 -76 d s 836 404 m -65 -64 d s 807 404 m -64 -64 d s 767 392 m -53 -52 d s 738 392 m -48 -48 d s 709 392 m -48 -48 d s 676 388
 m -44 -44 d s 648 388 m -44 -44 d s 619 388 m -39 -39 d s 586 383 m -35 -34 d s 557 383 m -35 -34 d s 528 383 m -34 -34 d s 499 383 m -34 -34 d s 470 383 m -33 -34 d s 318 231 m s 442 383 m -33 -33 d s 318 259 m s 413 383 m -33 -33 d s 318 288 m s
 383 382 m -31 -32 d s 318 317 m s 355 382 m -32 -32 d s 318 345 m s 326 382 m -8 -8 d s 6 lw 0 0 1 c 9 lw 1109 496 m 30 Y s 3 lw 1098 526 m 11 19 d 11 -19 d f 9 lw 1098 526 m 11 19 d 11 -19 d -22 X cl s black[ 4 8] 0 sd 3 lw 318 447 m 1860 X s 318
 285 m 1860 X s 1 0 0 c[  12 12 ] 0 sd 6 lw 318 366 m 1860 X s
 gr  gr showpage
end
%%EOF
