%!PS-Adobe-2.0 EPSF-2.0
%%BoundingBox:  0 0 567 521
%%Title: Distributions/met_distrCRW_MB-C_afterFit_forThesis.eps: canvas
%%Creator: ROOT Version 6.04/16
%%CreationDate: Tue May 19 22:01:23 2020
%%DocumentNeededResources: ProcSet (FontSetInit)
%%EndComments
%%BeginProlog
80 dict begin
/s {stroke} def /l {lineto} def /m {moveto} def /t {translate} def
/r {rotate} def /rl {roll}  def /R {repeat} def
/d {rlineto} def /rm {rmoveto} def /gr {grestore} def /f {eofill} def
/c {setrgbcolor} def /black {0 setgray} def /sd {setdash} def
/cl {closepath} def /sf {scalefont setfont} def /lw {setlinewidth} def
/box {m dup 0 exch d exch 0 d 0 exch neg d cl} def
/NC{systemdict begin initclip end}def/C{NC box clip newpath}def
/bl {box s} def /bf {gsave box gsave f grestore 1 lw [] 0 sd s grestore} def /Y { 0 exch d} def /X { 0 d} def 
/K {{pop pop 0 moveto} exch kshow} bind def
/ita {/ang 15 def gsave [1 0 ang dup sin exch cos div 1 0 0] concat} def 
/mp {newpath /y exch def /x exch def} def
/side {[w .77 mul w .23 mul] .385 w mul sd w 0 l currentpoint t -144 r} def
/mr {mp x y w2 0 360 arc} def /m24 {mr s} def /m20 {mr f} def
/mb {mp x y w2 add m w2 neg 0 d 0 w neg d w 0 d 0 w d cl} def
/mt {mp x y w2 add m w2 neg w neg d w 0 d cl} def
/m21 {mb f} def /m25 {mb s} def /m22 {mt f} def /m26{mt s} def
/m23 {mp x y w2 sub m w2 w d w neg 0 d cl f} def
/m27 {mp x y w2 add m w3 neg w2 neg d w3 w2 neg d w3 w2 d cl s} def
/m28 {mp x w2 sub y w2 sub w3 add m w3 0 d  0 w3 neg d w3 0 d 0 w3 d w3 0 d  0 w3 d w3 neg 0 d 0 w3 d w3 neg 0 d 0 w3 neg d w3 neg 0 d cl s } def
/m29 {mp gsave x w2 sub y w2 add w3 sub m currentpoint t 4 {side} repeat cl fill gr} def
/m30 {mp gsave x w2 sub y w2 add w3 sub m currentpoint t 4 {side} repeat cl s gr} def
/m31 {mp x y w2 sub m 0 w d x w2 sub y m w 0 d x w2 sub y w2 add m w w neg d x w2 sub y w2 sub m w w d s} def
/m32 {mp x y w2 sub m w2 w d w neg 0 d cl s} def
/m33 {mp x y w2 add m w3 neg w2 neg d w3 w2 neg d w3 w2 d cl f} def
/m34 {mp x w2 sub y w2 sub w3 add m w3 0 d  0 w3 neg d w3 0 d 0 w3 d w3 0 d  0 w3 d w3 neg 0 d 0 w3 d w3 neg 0 d 0 w3 neg d w3 neg 0 d cl f } def
/m2 {mp x y w2 sub m 0 w d x w2 sub y m w 0 d s} def
/m5 {mp x w2 sub y w2 sub m w w d x w2 sub y w2 add m w w neg d s} def
%%IncludeResource: ProcSet (FontSetInit)
%%IncludeResource: font Times-Roman
%%IncludeResource: font Times-Italic
%%IncludeResource: font Times-Bold
%%IncludeResource: font Times-BoldItalic
%%IncludeResource: font Helvetica
%%IncludeResource: font Helvetica-Oblique
%%IncludeResource: font Helvetica-Bold
%%IncludeResource: font Helvetica-BoldOblique
%%IncludeResource: font Courier
%%IncludeResource: font Courier-Oblique
%%IncludeResource: font Courier-Bold
%%IncludeResource: font Courier-BoldOblique
%%IncludeResource: font Symbol
%%IncludeResource: font ZapfDingbats
/reEncode {exch findfont dup length dict begin {1 index /FID eq  {pop pop} {def} ifelse } forall /Encoding exch def currentdict end dup /FontName get exch definefont pop } def [/Times-Bold /Times-Italic /Times-BoldItalic /Helvetica /Helvetica-Oblique
 /Helvetica-Bold /Helvetica-BoldOblique /Courier /Courier-Oblique /Courier-Bold /Courier-BoldOblique /Times-Roman /AvantGarde-Book /AvantGarde-BookOblique /AvantGarde-Demi /AvantGarde-DemiOblique /Bookman-Demi /Bookman-DemiItalic /Bookman-Light
 /Bookman-LightItalic /Helvetica-Narrow /Helvetica-Narrow-Bold /Helvetica-Narrow-BoldOblique /Helvetica-Narrow-Oblique /NewCenturySchlbk-Roman /NewCenturySchlbk-Bold /NewCenturySchlbk-BoldItalic /NewCenturySchlbk-Italic /Palatino-Bold
 /Palatino-BoldItalic /Palatino-Italic /Palatino-Roman ] {ISOLatin1Encoding reEncode } forall
%%EndProlog
%%BeginSetup
%%EndSetup
newpath  gsave  .25 .25 scale  gsave  0 0 t black[  ] 0 sd 3 lw 1 1 1 c 2268 2085 0 0 bf black 1 1 1 c 2263 1770 2 313 bf black 1 1 1 c black 1860 1145 319 584 bl 1 1 1 c black 1860 1145 319 584 bl 6 lw 1 1 1 c black 3 lw /w 33 def /w2 {w 2 div} def
 /w3 {w 3 div} def 366 1056 m20 6 lw 3 lw 459 1137 m20 6 lw 3 lw 552 1130 m20 6 lw 3 lw 645 1122 m20 6 lw 3 lw 738 1105 m20 6 lw 3 lw 831 1072 m20 6 lw 3 lw 924 1033 m20 6 lw 3 lw 1017 999 m20 6 lw 3 lw 1110 948 m20 6 lw 3 lw 1203 927 m20 6 lw 1296
 863 m 3 Y s 3 lw 1296 880 m20 6 lw 1389 814 m 12 Y s 1389 853 m 4 Y s 3 lw 1389 839 m20 6 lw 1482 759 m 26 Y s 1482 812 m 10 Y s 3 lw 1482 799 m20 6 lw 1575 584 m 121 Y s 1575 732 m 27 Y s 3 lw 1575 718 m20 6 lw 2133 584 m 121 Y s 2133 732 m 27 Y s
 3 lw 2133 718 m20 6 lw 3 lw 319 584 m 1860 X s
 gsave  2263 1770 2 313 C 1949.08 355.92 t 0 r /Helvetica findfont 81.3741 sf 0 0 m ( [GeV]) show NC gr 
 gsave  2263 1770 2 313 C 1837.22 396.596 t 0 r /Helvetica findfont 54.2494 sf 0 0 m (miss) show NC gr 
 gsave  2263 1770 2 313 C 1837.22 332.192 t 0 r /Helvetica findfont 54.2494 sf 0 0 m (T) show NC gr 
 gsave  2263 1770 2 313 C 1786.38 355.92 t 0 r /Helvetica findfont 81.3741 sf 0 0 m (E) show NC gr  412 584 m cl s 459 584 m cl s 505 584 m cl s 552 584 m cl s 598 584 m cl s 645 584 m cl s 691 584 m cl s 738 584 m cl s 784 584 m cl s 831 584 m cl s
 877 584 m cl s 924 584 m cl s 970 584 m cl s 1017 584 m cl s 1063 584 m cl s 1110 584 m cl s 1156 584 m cl s 1203 584 m cl s 1249 584 m cl s 1296 584 m cl s 1342 584 m cl s 1389 584 m cl s 1435 584 m cl s 1482 584 m cl s 1528 584 m cl s 1575 584 m
 cl s 1621 584 m cl s 1668 584 m cl s 1714 584 m cl s 1761 584 m cl s 1807 584 m cl s 1854 584 m cl s 1900 584 m cl s 1947 584 m cl s 1993 584 m cl s 2040 584 m cl s 2086 584 m cl s 412 584 m cl s 366 584 m cl s 319 584 m cl s 2086 584 m cl s 2133
 584 m cl s 2179 584 m cl s 319 1729 m 1860 X s 412 1729 m cl s 459 1729 m cl s 505 1729 m cl s 552 1729 m cl s 598 1729 m cl s 645 1729 m cl s 691 1729 m cl s 738 1729 m cl s 784 1729 m cl s 831 1729 m cl s 877 1729 m cl s 924 1729 m cl s 970 1729 m
 cl s 1017 1729 m cl s 1063 1729 m cl s 1110 1729 m cl s 1156 1729 m cl s 1203 1729 m cl s 1249 1729 m cl s 1296 1729 m cl s 1342 1729 m cl s 1389 1729 m cl s 1435 1729 m cl s 1482 1729 m cl s 1528 1729 m cl s 1575 1729 m cl s 1621 1729 m cl s 1668
 1729 m cl s 1714 1729 m cl s 1761 1729 m cl s 1807 1729 m cl s 1854 1729 m cl s 1900 1729 m cl s 1947 1729 m cl s 1993 1729 m cl s 2040 1729 m cl s 2086 1729 m cl s 412 1729 m cl s 366 1729 m cl s 319 1729 m cl s 2086 1729 m cl s 2133 1729 m cl s
 2179 1729 m cl s 319 584 m 1145 Y s
 gsave  2263 1770 2 313 C 166.096 1091.49 t 90 r /Helvetica findfont 81.3741 sf 0 0 m (Events / 100 GeV) show NC gr  341 625 m -22 X s 341 648 m -22 X s 341 665 m -22 X s 341 678 m -22 X s 341 689 m -22 X s 341 698 m -22 X s 341 705 m -22 X s 341 712
 m -22 X s 363 718 m -44 X s
 gsave  2263 1770 2 313 C 300.555 691.142 t 0 r  -36 0 t /Helvetica findfont 64.4212 sf 0 0 m (1) show NC gr  341 759 m -22 X s 341 782 m -22 X s 341 799 m -22 X s 341 812 m -22 X s 341 822 m -22 X s 341 831 m -22 X s 341 839 m -22 X s 341 846 m -22
 X s 363 852 m -44 X s
 gsave  2263 1770 2 313 C 300.555 825.092 t 0 r  -73 0 t /Helvetica findfont 64.4212 sf 0 0 m (10) show NC gr  341 893 m -22 X s 341 916 m -22 X s 341 933 m -22 X s 341 946 m -22 X s 341 956 m -22 X s 341 965 m -22 X s 341 973 m -22 X s 341 980 m -22
 X s 363 986 m -44 X s
 gsave  2263 1770 2 313 C 274.567 983.016 t 0 r /Helvetica findfont 44.0776 sf 0 0 m (2) show NC gr 
 gsave  2263 1770 2 313 C 203.383 955.898 t 0 r /Helvetica findfont 64.4212 sf 0 0 m (10) show NC gr  341 1026 m -22 X s 341 1050 m -22 X s 341 1067 m -22 X s 341 1080 m -22 X s 341 1090 m -22 X s 341 1099 m -22 X s 341 1107 m -22 X s 341 1114 m -22
 X s 363 1120 m -44 X s
 gsave  2263 1770 2 313 C 274.567 1121.99 t 0 r /Helvetica findfont 44.0776 sf 0 0 m (3) show NC gr 
 gsave  2263 1770 2 313 C 203.383 1091.49 t 0 r /Helvetica findfont 64.4212 sf 0 0 m (10) show NC gr  341 1160 m -22 X s 341 1184 m -22 X s 341 1201 m -22 X s 341 1214 m -22 X s 341 1224 m -22 X s 341 1233 m -22 X s 341 1241 m -22 X s 341 1248 m -22
 X s 363 1254 m -44 X s
 gsave  2263 1770 2 313 C 274.567 1250.8 t 0 r /Helvetica findfont 44.0776 sf 0 0 m (4) show NC gr 
 gsave  2263 1770 2 313 C 203.383 1223.69 t 0 r /Helvetica findfont 64.4212 sf 0 0 m (10) show NC gr  341 1294 m -22 X s 341 1318 m -22 X s 341 1335 m -22 X s 341 1348 m -22 X s 341 1358 m -22 X s 341 1367 m -22 X s 341 1375 m -22 X s 341 1382 m -22
 X s 363 1388 m -44 X s
 gsave  2263 1770 2 313 C 274.567 1389.78 t 0 r /Helvetica findfont 44.0776 sf 0 0 m (5) show NC gr 
 gsave  2263 1770 2 313 C 203.383 1359.27 t 0 r /Helvetica findfont 64.4212 sf 0 0 m (10) show NC gr  341 1428 m -22 X s 341 1452 m -22 X s 341 1469 m -22 X s 341 1482 m -22 X s 341 1492 m -22 X s 341 1501 m -22 X s 341 1509 m -22 X s 341 1516 m -22
 X s 363 1522 m -44 X s
 gsave  2263 1770 2 313 C 274.567 1521.98 t 0 r /Helvetica findfont 44.0776 sf 0 0 m (6) show NC gr 
 gsave  2263 1770 2 313 C 203.383 1491.47 t 0 r /Helvetica findfont 64.4212 sf 0 0 m (10) show NC gr  341 1562 m -22 X s 341 1586 m -22 X s 341 1603 m -22 X s 341 1616 m -22 X s 341 1626 m -22 X s 341 1635 m -22 X s 341 1643 m -22 X s 341 1650 m -22
 X s 363 1656 m -44 X s
 gsave  2263 1770 2 313 C 274.567 1654.18 t 0 r /Helvetica findfont 44.0776 sf 0 0 m (7) show NC gr 
 gsave  2263 1770 2 313 C 203.383 1627.06 t 0 r /Helvetica findfont 64.4212 sf 0 0 m (10) show NC gr  341 1696 m -22 X s 341 1720 m -22 X s 2179 584 m 1145 Y s 2157 625 m 22 X s 2157 648 m 22 X s 2157 665 m 22 X s 2157 678 m 22 X s 2157 689 m 22 X s
 2157 698 m 22 X s 2157 705 m 22 X s 2157 712 m 22 X s 2136 718 m 43 X s 2157 759 m 22 X s 2157 782 m 22 X s 2157 799 m 22 X s 2157 812 m 22 X s 2157 822 m 22 X s 2157 831 m 22 X s 2157 839 m 22 X s 2157 846 m 22 X s 2136 852 m 43 X s 2157 893 m 22 X
 s 2157 916 m 22 X s 2157 933 m 22 X s 2157 946 m 22 X s 2157 956 m 22 X s 2157 965 m 22 X s 2157 973 m 22 X s 2157 980 m 22 X s 2136 986 m 43 X s 2157 1026 m 22 X s 2157 1050 m 22 X s 2157 1067 m 22 X s 2157 1080 m 22 X s 2157 1090 m 22 X s 2157
 1099 m 22 X s 2157 1107 m 22 X s 2157 1114 m 22 X s 2136 1120 m 43 X s 2157 1160 m 22 X s 2157 1184 m 22 X s 2157 1201 m 22 X s 2157 1214 m 22 X s 2157 1224 m 22 X s 2157 1233 m 22 X s 2157 1241 m 22 X s 2157 1248 m 22 X s 2136 1254 m 43 X s 2157
 1294 m 22 X s 2157 1318 m 22 X s 2157 1335 m 22 X s 2157 1348 m 22 X s 2157 1358 m 22 X s 2157 1367 m 22 X s 2157 1375 m 22 X s 2157 1382 m 22 X s 2136 1388 m 43 X s 2157 1428 m 22 X s 2157 1452 m 22 X s 2157 1469 m 22 X s 2157 1482 m 22 X s 2157
 1492 m 22 X s 2157 1501 m 22 X s 2157 1509 m 22 X s 2157 1516 m 22 X s 2136 1522 m 43 X s 2157 1562 m 22 X s 2157 1586 m 22 X s 2157 1603 m 22 X s 2157 1616 m 22 X s 2157 1626 m 22 X s 2157 1635 m 22 X s 2157 1643 m 22 X s 2157 1650 m 22 X s 2136
 1656 m 43 X s 2157 1696 m 22 X s 2157 1720 m 22 X s 0.4 0.6 1 c black 0.4 0.6 1 c 319 584 m 475 Y 93 X 81 Y 93 X -7 Y 93 X -18 Y 93 X -8 Y 93 X -35 Y 93 X -39 Y 93 X -46 Y 93 X -35 Y 93 X -41 Y 93 X -32 Y 93 X -42 Y 93 X -33 Y 93 X -34 Y 93 X -52 Y
 93 X -2 Y 93 X -82 Y 93 X -3 Y 93 X -47 Y 186 X f black 0.4 0.6 1 c black 319 1059 m 93 X 81 Y 93 X -7 Y 93 X -18 Y 93 X -8 Y 93 X -35 Y 93 X -39 Y 93 X -46 Y 93 X -35 Y 93 X -41 Y 93 X -32 Y 93 X -42 Y 93 X -33 Y 93 X -34 Y 93 X -52 Y 93 X -2 Y 93
 X -82 Y 93 X -3 Y 93 X -47 Y 186 X s 0.999 0.999 0.999 c black 0.999 0.999 0.999 c 319 584 m 368 Y 93 X 79 Y 93 X -12 Y 93 X -22 Y 93 X -21 Y 93 X -41 Y 93 X -35 Y 93 X -37 Y 93 X -26 Y 93 X -65 Y 93 X -33 Y 93 X -57 Y 186 X -98 Y 186 X 33 Y 93 X
 -33 Y 372 X f black 0.999 0.999 0.999 c black 319 952 m 93 X 79 Y 93 X -12 Y 93 X -22 Y 93 X -21 Y 93 X -41 Y 93 X -35 Y 93 X -37 Y 93 X -26 Y 93 X -65 Y 93 X -33 Y 93 X -57 Y 186 X -98 Y 186 X 33 Y 93 X -33 Y 372 X s 1 1 1 c black 319 952 m 93 X 79
 Y 93 X -12 Y 93 X -22 Y 93 X -21 Y 93 X -41 Y 93 X -35 Y 93 X -37 Y 93 X -26 Y 93 X -65 Y 93 X -33 Y 93 X -57 Y 186 X -98 Y 186 X 33 Y 93 X -33 Y 372 X s 0.6 1 0.6 c black 0.6 1 0.6 c 319 584 m 368 Y 93 X 79 Y 93 X -12 Y 93 X -22 Y 93 X -21 Y 93 X
 -41 Y 93 X -35 Y 93 X -37 Y 93 X -26 Y 93 X -65 Y 93 X -33 Y 93 X -57 Y 186 X -98 Y 186 X 33 Y 93 X -33 Y 372 X f black 0.6 1 0.6 c black 319 952 m 93 X 79 Y 93 X -12 Y 93 X -22 Y 93 X -21 Y 93 X -41 Y 93 X -35 Y 93 X -37 Y 93 X -26 Y 93 X -65 Y 93
 X -33 Y 93 X -57 Y 186 X -98 Y 186 X 33 Y 93 X -33 Y 372 X s 0.999 0.999 0.999 c black 0.999 0.999 0.999 c 319 584 m 314 Y 93 X 85 Y 93 X -5 Y 93 X -15 Y 93 X -13 Y 93 X -33 Y 93 X -35 Y 93 X -27 Y 93 X -30 Y 93 X -58 Y 93 X -45 Y 93 X -45 Y 93 X
 -93 Y 279 X 32 Y 93 X -32 Y 372 X f black 0.999 0.999 0.999 c black 319 898 m 93 X 85 Y 93 X -5 Y 93 X -15 Y 93 X -13 Y 93 X -33 Y 93 X -35 Y 93 X -27 Y 93 X -30 Y 93 X -58 Y 93 X -45 Y 93 X -45 Y 93 X -93 Y 279 X 32 Y 93 X -32 Y 372 X s 1 1 1 c
 black 319 898 m 93 X 85 Y 93 X -5 Y 93 X -15 Y 93 X -13 Y 93 X -33 Y 93 X -35 Y 93 X -27 Y 93 X -30 Y 93 X -58 Y 93 X -45 Y 93 X -45 Y 93 X -93 Y 279 X 32 Y 93 X -32 Y 372 X s 1 0.8 0.4 c black 1 0.8 0.4 c 319 584 m 314 Y 93 X 85 Y 93 X -5 Y 93 X
 -15 Y 93 X -13 Y 93 X -33 Y 93 X -35 Y 93 X -27 Y 93 X -30 Y 93 X -58 Y 93 X -45 Y 93 X -45 Y 93 X -93 Y 279 X 32 Y 93 X -32 Y 372 X f black 1 0.8 0.4 c black 319 898 m 93 X 85 Y 93 X -5 Y 93 X -15 Y 93 X -13 Y 93 X -33 Y 93 X -35 Y 93 X -27 Y 93 X
 -30 Y 93 X -58 Y 93 X -45 Y 93 X -45 Y 93 X -93 Y 279 X 32 Y 93 X -32 Y 372 X s 0.999 0.999 0.999 c black 0.999 0.999 0.999 c 319 584 m 306 Y 93 X 85 Y 93 X -3 Y 93 X -15 Y 93 X -12 Y 93 X -32 Y 93 X -36 Y 93 X -26 Y 93 X -28 Y 93 X -59 Y 93 X -46 Y
 93 X -48 Y 93 X -86 Y 279 X 32 Y 93 X -32 Y 372 X f black 0.999 0.999 0.999 c black 319 890 m 93 X 85 Y 93 X -3 Y 93 X -15 Y 93 X -12 Y 93 X -32 Y 93 X -36 Y 93 X -26 Y 93 X -28 Y 93 X -59 Y 93 X -46 Y 93 X -48 Y 93 X -86 Y 279 X 32 Y 93 X -32 Y 372
 X s 1 1 1 c black 319 890 m 93 X 85 Y 93 X -3 Y 93 X -15 Y 93 X -12 Y 93 X -32 Y 93 X -36 Y 93 X -26 Y 93 X -28 Y 93 X -59 Y 93 X -46 Y 93 X -48 Y 93 X -86 Y 279 X 32 Y 93 X -32 Y 372 X s 1 0.4 0.6 c black 1 0.4 0.6 c 319 584 m 306 Y 93 X 85 Y 93 X
 -3 Y 93 X -15 Y 93 X -12 Y 93 X -32 Y 93 X -36 Y 93 X -26 Y 93 X -28 Y 93 X -59 Y 93 X -46 Y 93 X -48 Y 93 X -86 Y 279 X 32 Y 93 X -32 Y 372 X f black 1 0.4 0.6 c black 319 890 m 93 X 85 Y 93 X -3 Y 93 X -15 Y 93 X -12 Y 93 X -32 Y 93 X -36 Y 93 X
 -26 Y 93 X -28 Y 93 X -59 Y 93 X -46 Y 93 X -48 Y 93 X -86 Y 279 X 32 Y 93 X -32 Y 372 X s 1 0 0 c 6 lw 1 1 1 c black 1 0 0 c 319 1059 m 93 X 81 Y 93 X -7 Y 93 X -18 Y 93 X -8 Y 93 X -35 Y 93 X -39 Y 93 X -46 Y 93 X -35 Y 93 X -41 Y 93 X -32 Y 93 X
 -42 Y 93 X -33 Y 93 X -34 Y 93 X -52 Y 93 X -2 Y 93 X -82 Y 93 X -3 Y 93 X -47 Y 186 X s black 3 lw 1 0 0 c 1 lw << /PatternType 1 /PaintType 2 /TilingType 1 /BBox [ 0 0 100 100 ] /XStep 100 /YStep 100 /PaintProc { begin gsave 0 100 m 100 0 l s gr
 end } >> [ 0.24 0 0 0.24 0 0 ] makepattern /P05 exch def /cs {[/Pattern /DeviceRGB] setcolorspace} def /FA {f [/DeviceRGB] setcolorspace} def cs 1 0 0 P05 setcolor 319 584 m 476 Y 93 X 80 Y 93 X -6 Y 93 X -16 Y 93 X -9 Y 93 X -36 Y 93 X -39 Y 93 X
 -44 Y 93 X -35 Y 93 X -40 Y 93 X -33 Y 93 X -40 Y 93 X -30 Y 93 X -35 Y 93 X -50 Y 93 X -2 Y 93 X -72 Y 93 X -6 Y 93 X -36 Y 93 X -27 Y -93 X 26 Y -93 X -4 Y -93 X 98 Y -93 X 3 Y -93 X 56 Y -93 X 31 Y -93 X 37 Y -93 X 45 Y -93 X 31 Y -93 X 41 Y -93
 X 35 Y -93 X 48 Y -93 X 39 Y -93 X 35 Y -93 X 8 Y -93 X 19 Y -93 X 7 Y -93 X -82 Y -93 X -473 Y FA 6 lw 1 1 1 c 15 lw 1389 819 m -4 Y s 1389 815 m cl s 1482 819 m 5 Y s 1482 824 m cl s 1482 779 m -18 Y s 1482 761 m cl s 1575 739 m 27 Y s 1575 766 m
 cl s 1575 698 m -81 Y s 1575 617 m cl s 2133 739 m 27 Y s 2133 766 m cl s 2133 698 m -81 Y s 2133 617 m cl s black 1 1 1 c 3 lw /w 43 def /w2 {w 2 div} def /w3 {w 3 div} def 366 1056 459 1137 552 1130 645 1122 738 1105 831 1072 924 1033 1017 999
 1110 948 1203 927 1296 880 1389 839 1482 799 1575 718 14 { m20} R 15 lw 3 lw 2133 718 m20 15 lw black 6 lw 1 1 1 c black 3 lw /w 33 def /w2 {w 2 div} def /w3 {w 3 div} def 366 1056 m20 6 lw 3 lw 459 1137 m20 6 lw 3 lw 552 1130 m20 6 lw 3 lw 645 1122
 m20 6 lw 3 lw 738 1105 m20 6 lw 3 lw 831 1072 m20 6 lw 3 lw 924 1033 m20 6 lw 3 lw 1017 999 m20 6 lw 3 lw 1110 948 m20 6 lw 3 lw 1203 927 m20 6 lw 1296 863 m 3 Y s 3 lw 1296 880 m20 6 lw 1389 814 m 12 Y s 1389 853 m 4 Y s 3 lw 1389 839 m20 6 lw 1482
 759 m 26 Y s 1482 812 m 10 Y s 3 lw 1482 799 m20 6 lw 1575 584 m 121 Y s 1575 732 m 27 Y s 3 lw 1575 718 m20 6 lw 2133 584 m 121 Y s 2133 732 m 27 Y s 3 lw 2133 718 m20 6 lw 1296 866 m -3 Y s 1296 863 m cl s 1389 853 m 4 Y s 1389 857 m cl s 1389 826
 m -11 Y s 1389 815 m cl s 1482 812 m 12 Y s 1482 824 m cl s 1482 785 m -24 Y s 1482 761 m cl s 1575 732 m 34 Y s 1575 766 m cl s 1575 705 m -88 Y s 1575 617 m cl s 2133 732 m 34 Y s 2133 766 m cl s 2133 705 m -88 Y s 2133 617 m cl s 3 lw 366 1056
 459 1137 552 1130 645 1122 738 1105 831 1072 924 1033 1017 999 1110 948 1203 927 1296 880 1389 839 1482 799 1575 718 14 { m20} R 6 lw 3 lw 2133 718 m20 6 lw 3 lw 319 584 m 1860 X s 412 584 m cl s 459 584 m cl s 505 584 m cl s 552 584 m cl s 598 584
 m cl s 645 584 m cl s 691 584 m cl s 738 584 m cl s 784 584 m cl s 831 584 m cl s 877 584 m cl s 924 584 m cl s 970 584 m cl s 1017 584 m cl s 1063 584 m cl s 1110 584 m cl s 1156 584 m cl s 1203 584 m cl s 1249 584 m cl s 1296 584 m cl s 1342 584 m
 cl s 1389 584 m cl s 1435 584 m cl s 1482 584 m cl s 1528 584 m cl s 1575 584 m cl s 1621 584 m cl s 1668 584 m cl s 1714 584 m cl s 1761 584 m cl s 1807 584 m cl s 1854 584 m cl s 1900 584 m cl s 1947 584 m cl s 1993 584 m cl s 2040 584 m cl s 2086
 584 m cl s 412 584 m cl s 366 584 m cl s 319 584 m cl s 2086 584 m cl s 2133 584 m cl s 2179 584 m cl s 319 1729 m 1860 X s 412 1729 m cl s 459 1729 m cl s 505 1729 m cl s 552 1729 m cl s 598 1729 m cl s 645 1729 m cl s 691 1729 m cl s 738 1729 m cl
 s 784 1729 m cl s 831 1729 m cl s 877 1729 m cl s 924 1729 m cl s 970 1729 m cl s 1017 1729 m cl s 1063 1729 m cl s 1110 1729 m cl s 1156 1729 m cl s 1203 1729 m cl s 1249 1729 m cl s 1296 1729 m cl s 1342 1729 m cl s 1389 1729 m cl s 1435 1729 m cl
 s 1482 1729 m cl s 1528 1729 m cl s 1575 1729 m cl s 1621 1729 m cl s 1668 1729 m cl s 1714 1729 m cl s 1761 1729 m cl s 1807 1729 m cl s 1854 1729 m cl s 1900 1729 m cl s 1947 1729 m cl s 1993 1729 m cl s 2040 1729 m cl s 2086 1729 m cl s 412 1729
 m cl s 366 1729 m cl s 319 1729 m cl s 2086 1729 m cl s 2133 1729 m cl s 2179 1729 m cl s 319 584 m 1145 Y s 341 625 m -22 X s 341 648 m -22 X s 341 665 m -22 X s 341 678 m -22 X s 341 689 m -22 X s 341 698 m -22 X s 341 705 m -22 X s 341 712 m -22
 X s 363 718 m -44 X s 341 759 m -22 X s 341 782 m -22 X s 341 799 m -22 X s 341 812 m -22 X s 341 822 m -22 X s 341 831 m -22 X s 341 839 m -22 X s 341 846 m -22 X s 363 852 m -44 X s 341 893 m -22 X s 341 916 m -22 X s 341 933 m -22 X s 341 946 m
 -22 X s 341 956 m -22 X s 341 965 m -22 X s 341 973 m -22 X s 341 980 m -22 X s 363 986 m -44 X s 341 1026 m -22 X s 341 1050 m -22 X s 341 1067 m -22 X s 341 1080 m -22 X s 341 1090 m -22 X s 341 1099 m -22 X s 341 1107 m -22 X s 341 1114 m -22 X s
 363 1120 m -44 X s 341 1160 m -22 X s 341 1184 m -22 X s 341 1201 m -22 X s 341 1214 m -22 X s 341 1224 m -22 X s 341 1233 m -22 X s 341 1241 m -22 X s 341 1248 m -22 X s 363 1254 m -44 X s 341 1294 m -22 X s 341 1318 m -22 X s 341 1335 m -22 X s
 341 1348 m -22 X s 341 1358 m -22 X s 341 1367 m -22 X s 341 1375 m -22 X s 341 1382 m -22 X s 363 1388 m -44 X s 341 1428 m -22 X s 341 1452 m -22 X s 341 1469 m -22 X s 341 1482 m -22 X s 341 1492 m -22 X s 341 1501 m -22 X s 341 1509 m -22 X s
 341 1516 m -22 X s 363 1522 m -44 X s 341 1562 m -22 X s 341 1586 m -22 X s 341 1603 m -22 X s 341 1616 m -22 X s 341 1626 m -22 X s 341 1635 m -22 X s 341 1643 m -22 X s 341 1650 m -22 X s 363 1656 m -44 X s 341 1696 m -22 X s 341 1720 m -22 X s
 2179 584 m 1145 Y s 2157 625 m 22 X s 2157 648 m 22 X s 2157 665 m 22 X s 2157 678 m 22 X s 2157 689 m 22 X s 2157 698 m 22 X s 2157 705 m 22 X s 2157 712 m 22 X s 2136 718 m 43 X s 2157 759 m 22 X s 2157 782 m 22 X s 2157 799 m 22 X s 2157 812 m 22
 X s 2157 822 m 22 X s 2157 831 m 22 X s 2157 839 m 22 X s 2157 846 m 22 X s 2136 852 m 43 X s 2157 893 m 22 X s 2157 916 m 22 X s 2157 933 m 22 X s 2157 946 m 22 X s 2157 956 m 22 X s 2157 965 m 22 X s 2157 973 m 22 X s 2157 980 m 22 X s 2136 986 m
 43 X s 2157 1026 m 22 X s 2157 1050 m 22 X s 2157 1067 m 22 X s 2157 1080 m 22 X s 2157 1090 m 22 X s 2157 1099 m 22 X s 2157 1107 m 22 X s 2157 1114 m 22 X s 2136 1120 m 43 X s 2157 1160 m 22 X s 2157 1184 m 22 X s 2157 1201 m 22 X s 2157 1214 m 22
 X s 2157 1224 m 22 X s 2157 1233 m 22 X s 2157 1241 m 22 X s 2157 1248 m 22 X s 2136 1254 m 43 X s 2157 1294 m 22 X s 2157 1318 m 22 X s 2157 1335 m 22 X s 2157 1348 m 22 X s 2157 1358 m 22 X s 2157 1367 m 22 X s 2157 1375 m 22 X s 2157 1382 m 22 X
 s 2136 1388 m 43 X s 2157 1428 m 22 X s 2157 1452 m 22 X s 2157 1469 m 22 X s 2157 1482 m 22 X s 2157 1492 m 22 X s 2157 1501 m 22 X s 2157 1509 m 22 X s 2157 1516 m 22 X s 2136 1522 m 43 X s 2157 1562 m 22 X s 2157 1586 m 22 X s 2157 1603 m 22 X s
 2157 1616 m 22 X s 2157 1626 m 22 X s 2157 1635 m 22 X s 2157 1643 m 22 X s 2157 1650 m 22 X s 2136 1656 m 43 X s 2157 1696 m 22 X s 2157 1720 m 22 X s
 gsave  2263 1770 2 313 C 406.765 1447.41 t 0 r /Helvetica findfont 64.4212 sf 0 0 m (CRW for MB\255C) show NC gr 
 gsave  2263 1770 2 313 C 1464.36 1616.89 t 0 r /Helvetica findfont 64.4212 sf 0 0 m (SM Total) show NC gr  1 1 1 c 1338 1603 m 107 X 74 Y -107 X f 1 0 0 c 6 lw 1338 1640 m 107 X s black
 gsave  2263 1770 2 313 C 1464.36 1511.81 t 0 r /Helvetica findfont 64.4212 sf 0 0 m (Data) show NC gr  1391 1502 m 64 Y s 3 lw 1391 1534 m20 6 lw
 gsave  2263 1770 2 313 C 1464.36 1406.73 t 0 r /Helvetica findfont 64.4212 sf 0 0 m (W+jets) show NC gr  0.4 0.6 1 c 3 lw 1338 1391 m 107 X 74 Y -107 X f 6 lw black 3 lw 1338 1465 m 107 X s 1338 1391 m 107 X s 1445 1391 m 74 Y s 1338 1391 m 74 Y s
 gsave  2263 1770 2 313 C 1498.25 1298.26 t 0 r /Helvetica findfont 64.4212 sf 0 0 m (\(+EW\) & single top) show NC gr 
 gsave  2263 1770 2 313 C 1481.3 1298.26 t 0 r /Helvetica findfont 64.4212 sf 0 0 m (t) show NC gr  1481 1349 m 17 X s
 gsave  2263 1770 2 313 C 1464.36 1298.26 t 0 r /Helvetica findfont 64.4212 sf 0 0 m (t) show NC gr  0.6 1 0.6 c 1338 1284 m 107 X 75 Y -107 X f black 1338 1359 m 107 X s 1338 1284 m 107 X s 1445 1284 m 75 Y s 1338 1284 m 75 Y s
 gsave  2263 1770 2 313 C 1464.36 1193.18 t 0 r /Helvetica findfont 64.4212 sf 0 0 m (Z+jets) show NC gr  1 0.8 0.4 c 1338 1178 m 107 X 75 Y -107 X f black 1338 1253 m 107 X s 1338 1178 m 107 X s 1445 1178 m 75 Y s 1338 1178 m 75 Y s
 gsave  2263 1770 2 313 C 1464.36 1088.1 t 0 r /Helvetica findfont 64.4212 sf 0 0 m (Diboson) show NC gr  1 0.4 0.6 c 1338 1072 m 107 X 74 Y -107 X f black 1338 1146 m 107 X s 1338 1072 m 107 X s 1445 1072 m 74 Y s 1338 1072 m 74 Y s
 gsave  2263 1770 2 313 C 911.832 1566.05 t 0 r /Helvetica findfont 44.0776 sf 0 0 m (\2551) show NC gr 
 gsave  2263 1770 2 313 C 471.17 1535.54 t 0 r /Helvetica findfont 64.4212 sf 0 0 m (=13TeV, 139 fb) show NC gr 
 gsave  2263 1770 2 313 C 440.662 1535.54 t 0 r /Helvetica findfont 64.4212 sf 0 0 m (s) show NC gr  6 lw 420 1573 m 7 -41 d s 3 lw 427 1532 m 7 61 d s 434 1593 m 37 X s 1 1 1 c 2254 561 2 2 bf black 1 1 1 c black 1860 358 318 187 bl 1 1 1 c black
 1860 358 318 187 bl 6 lw 1 1 1 c black 3 lw 364 358 m20 6 lw 3 lw 457 358 m20 6 lw 3 lw 550 360 m20 6 lw 3 lw 643 385 m20 6 lw 3 lw 736 360 m20 6 lw 3 lw 829 368 m20 6 lw 3 lw 923 368 m20 6 lw 3 lw 1016 403 m20 6 lw 3 lw 1109 357 m20 6 lw 3 lw 1202
 415 m20 6 lw 3 lw 1295 367 m20 6 lw 3 lw 1388 373 m20 6 lw 3 lw 1481 353 m20 6 lw 3 lw 1574 270 m20 6 lw 3 lw 318 187 m 1860 X s
 gsave  2254 561 2 2 C 1959.25 27.1177 t 0 r /Helvetica findfont 78.1689 sf 0 0 m ( [GeV]) show NC gr 
 gsave  2254 561 2 2 C 1854.17 64.4045 t 0 r /Helvetica findfont 50.9797 sf 0 0 m (miss) show NC gr 
 gsave  2254 561 2 2 C 1854.17 3.38971 t 0 r /Helvetica findfont 50.9797 sf 0 0 m (T) show NC gr 
 gsave  2254 561 2 2 C 1803.33 27.1177 t 0 r /Helvetica findfont 78.1689 sf 0 0 m (E) show NC gr  411 201 m -14 Y s 457 194 m -7 Y s 504 194 m -7 Y s 550 194 m -7 Y s 597 201 m -14 Y s 643 194 m -7 Y s 690 194 m -7 Y s 736 194 m -7 Y s 783 201 m -14
 Y s 829 194 m -7 Y s 876 194 m -7 Y s 923 194 m -7 Y s 969 201 m -14 Y s 1016 194 m -7 Y s 1062 194 m -7 Y s 1109 194 m -7 Y s 1155 201 m -14 Y s 1202 194 m -7 Y s 1248 194 m -7 Y s 1295 194 m -7 Y s 1341 201 m -14 Y s 1388 194 m -7 Y s 1434 194 m
 -7 Y s 1481 194 m -7 Y s 1527 201 m -14 Y s 1574 194 m -7 Y s 1620 194 m -7 Y s 1667 194 m -7 Y s 1713 201 m -14 Y s 1760 194 m -7 Y s 1806 194 m -7 Y s 1853 194 m -7 Y s 1899 201 m -14 Y s 1946 194 m -7 Y s 1992 194 m -7 Y s 2039 194 m -7 Y s 2085
 201 m -14 Y s 411 201 m -14 Y s 364 194 m -7 Y s 318 194 m -7 Y s 2085 201 m -14 Y s 2132 194 m -7 Y s
 gsave  2254 561 2 2 C 345.75 118.64 t 0 r /Helvetica findfont 78.1689 sf 0 0 m (400) show NC gr 
 gsave  2254 561 2 2 C 532.185 118.64 t 0 r /Helvetica findfont 78.1689 sf 0 0 m (600) show NC gr 
 gsave  2254 561 2 2 C 715.229 118.64 t 0 r /Helvetica findfont 78.1689 sf 0 0 m (800) show NC gr 
 gsave  2254 561 2 2 C 877.935 118.64 t 0 r /Helvetica findfont 78.1689 sf 0 0 m (1000) show NC gr 
 gsave  2254 561 2 2 C 1064.37 118.64 t 0 r /Helvetica findfont 78.1689 sf 0 0 m (1200) show NC gr 
 gsave  2254 561 2 2 C 1250.8 118.64 t 0 r /Helvetica findfont 78.1689 sf 0 0 m (1400) show NC gr 
 gsave  2254 561 2 2 C 1437.24 118.64 t 0 r /Helvetica findfont 78.1689 sf 0 0 m (1600) show NC gr 
 gsave  2254 561 2 2 C 1623.67 118.64 t 0 r /Helvetica findfont 78.1689 sf 0 0 m (1800) show NC gr 
 gsave  2254 561 2 2 C 1810.11 118.64 t 0 r /Helvetica findfont 78.1689 sf 0 0 m (2000) show NC gr 
 gsave  2254 561 2 2 C 1996.54 118.64 t 0 r /Helvetica findfont 78.1689 sf 0 0 m (2200) show NC gr  318 545 m 1860 X s 411 531 m 14 Y s 457 538 m 7 Y s 504 538 m 7 Y s 550 538 m 7 Y s 597 531 m 14 Y s 643 538 m 7 Y s 690 538 m 7 Y s 736 538 m 7 Y s
 783 531 m 14 Y s 829 538 m 7 Y s 876 538 m 7 Y s 923 538 m 7 Y s 969 531 m 14 Y s 1016 538 m 7 Y s 1062 538 m 7 Y s 1109 538 m 7 Y s 1155 531 m 14 Y s 1202 538 m 7 Y s 1248 538 m 7 Y s 1295 538 m 7 Y s 1341 531 m 14 Y s 1388 538 m 7 Y s 1434 538 m 7
 Y s 1481 538 m 7 Y s 1527 531 m 14 Y s 1574 538 m 7 Y s 1620 538 m 7 Y s 1667 538 m 7 Y s 1713 531 m 14 Y s 1760 538 m 7 Y s 1806 538 m 7 Y s 1853 538 m 7 Y s 1899 531 m 14 Y s 1946 538 m 7 Y s 1992 538 m 7 Y s 2039 538 m 7 Y s 2085 531 m 14 Y s 411
 531 m 14 Y s 364 538 m 7 Y s 318 538 m 7 Y s 2085 531 m 14 Y s 2132 538 m 7 Y s 318 187 m 358 Y s
 gsave  2254 561 2 2 C 166.096 284.736 t 90 r /Helvetica findfont 67.9729 sf 0 0 m (Data/SM) show NC gr  361 203 m -43 X s 339 220 m -21 X s 339 236 m -21 X s 339 252 m -21 X s 339 268 m -21 X s 361 285 m -43 X s 339 301 m -21 X s 339 317 m -21 X s
 339 334 m -21 X s 339 350 m -21 X s 361 366 m -43 X s 339 382 m -21 X s 339 399 m -21 X s 339 415 m -21 X s 339 431 m -21 X s 361 447 m -43 X s 339 464 m -21 X s 339 480 m -21 X s 339 496 m -21 X s 339 512 m -21 X s 361 529 m -43 X s 361 203 m -43 X
 s 339 187 m -21 X s 361 529 m -43 X s
 gsave  2254 561 2 2 C 261.008 183.044 t 0 r /Helvetica findfont 57.777 sf 0 0 m (0) show NC gr 
 gsave  2254 561 2 2 C 213.552 261.008 t 0 r /Helvetica findfont 57.777 sf 0 0 m (0.5) show NC gr 
 gsave  2254 561 2 2 C 271.177 342.361 t 0 r /Helvetica findfont 57.777 sf 0 0 m (1) show NC gr 
 gsave  2254 561 2 2 C 213.552 423.714 t 0 r /Helvetica findfont 57.777 sf 0 0 m (1.5) show NC gr 
 gsave  2254 561 2 2 C 261.008 505.067 t 0 r /Helvetica findfont 57.777 sf 0 0 m (2) show NC gr  2178 187 m 358 Y s 2135 203 m 43 X s 2157 220 m 21 X s 2157 236 m 21 X s 2157 252 m 21 X s 2157 268 m 21 X s 2135 285 m 43 X s 2157 301 m 21 X s 2157 317
 m 21 X s 2157 334 m 21 X s 2157 350 m 21 X s 2135 366 m 43 X s 2157 382 m 21 X s 2157 399 m 21 X s 2157 415 m 21 X s 2157 431 m 21 X s 2135 447 m 43 X s 2157 464 m 21 X s 2157 480 m 21 X s 2157 496 m 21 X s 2157 512 m 21 X s 2135 529 m 43 X s 2135
 203 m 43 X s 2157 187 m 21 X s 2135 529 m 43 X s 9 lw 1016 417 m 4 Y s 1016 421 m cl s 1016 390 m -5 Y s 1016 385 m cl s 1109 370 m 8 Y s 1109 378 m cl s 1109 343 m -7 Y s 1109 336 m cl s 1202 428 m 22 Y s 1202 450 m cl s 1202 401 m -21 Y s 1202 380
 m cl s 1295 381 m 28 Y s 1295 409 m cl s 1295 354 m -27 Y s 1295 327 m cl s 1388 386 m 49 Y s 1388 435 m cl s 1388 359 m -45 Y s 1388 314 m cl s 1481 367 m 67 Y s 1481 434 m cl s 1481 340 m -58 Y s 1481 282 m cl s 1574 283 m 72 Y s 1574 355 m cl s
 1574 256 m -41 Y s 1574 215 m cl s 3 lw 364 358 457 358 550 360 643 385 736 360 829 368 923 368 1016 403 1109 357 1202 415 1295 367 1388 373 1481 353 1574 270 14 { m20} R 9 lw 1 0 0 c 6 lw black 3 lw 1 0 0 c 2178 198 m -10 -11 d s 2178 227 m -39 -40
 d s 2178 255 m -68 -68 d s 2178 284 m -93 -93 d s 2178 312 m -93 -92 d s 2178 341 m -93 -93 d s 2178 369 m -116 -116 d s 2178 398 m -145 -145 d s 2178 427 m -174 -174 d s 2178 455 m -186 -185 d s 2178 484 m -186 -186 d s 2178 512 m -197 -197 d s
 2178 541 m -226 -226 d s 2154 545 m -231 -230 d s 2125 545 m -40 -39 d s 2059 479 m -177 -176 d s 2096 545 m -11 -11 d s 2030 479 m -38 -38 d s 1968 417 m -114 -114 d s 2001 479 m -9 -9 d s 1939 417 m -114 -114 d s 1910 417 m -104 -104 d s 1894 429
 m -93 -92 d s 1865 429 m -92 -92 d s 1836 429 m -30 -30 d s 1802 395 m -58 -58 d s 1808 429 m -2 -1 d s 1774 395 m -59 -58 d s 1745 395 m -57 -57 d s 1716 395 m -57 -57 d s 1687 394 m -57 -56 d s 1658 394 m -49 -48 d s 1629 394 m -48 -48 d s 1593
 386 m -41 -40 d s 1564 386 m -46 -45 d s 1536 386 m -46 -45 d s 1512 391 m -51 -50 d s 1483 391 m -49 -48 d s 1454 391 m -41 -41 d s 1416 382 m -31 -32 d s 1387 382 m -31 -32 d s 1359 382 m -26 -26 d s 1324 376 m -19 -20 d s 1295 376 m -19 -20 d s
 1267 376 m -21 -21 d s 1239 377 m -22 -22 d s 1211 377 m -23 -22 d s 1182 377 m -23 -22 d s 1151 375 m -18 -18 d s 1122 375 m -17 -18 d s 1093 375 m -17 -18 d s 1065 375 m -19 -19 d s 1038 376 m -21 -20 d s 1009 376 m -21 -20 d s 980 376 m -15 -14 d
 s 946 371 m -9 -9 d s 917 371 m -9 -9 d s 888 371 m -9 -9 d s 860 371 m -10 -10 d s 831 371 m -9 -10 d s 803 371 m -10 -10 d s 775 372 m -12 -12 d s 747 372 m -13 -12 d s 718 372 m -13 -12 d s 690 373 m -13 -13 d s 661 373 m -13 -13 d s 632 373 m
 -13 -13 d s 603 373 m -9 -10 d s 571 369 m -6 -6 d s 543 369 m -6 -6 d s 514 369 m -6 -6 d s 485 369 m -5 -6 d s 456 369 m -5 -6 d s 318 231 m s 427 369 m -5 -6 d s 318 259 m s 400 370 m -8 -8 d s 318 288 m s 372 370 m -9 -8 d s 318 317 m s 343 370
 m -8 -8 d s 318 345 m s 6 lw black[ 4 8] 0 sd 3 lw 318 447 m 1860 X s 318 285 m 1860 X s 1 0 0 c[  12 12 ] 0 sd 6 lw 318 366 m 1860 X s
 gr  gr showpage
end
%%EOF
