%!PS-Adobe-2.0 EPSF-2.0
%%BoundingBox:  0 0 567 521
%%Title: Distributions/met_distrCRT_MB-SSd_beforeFit_forThesis.eps: canvas
%%Creator: ROOT Version 6.04/16
%%CreationDate: Tue May 19 22:01:00 2020
%%DocumentNeededResources: ProcSet (FontSetInit)
%%EndComments
%%BeginProlog
80 dict begin
/s {stroke} def /l {lineto} def /m {moveto} def /t {translate} def
/r {rotate} def /rl {roll}  def /R {repeat} def
/d {rlineto} def /rm {rmoveto} def /gr {grestore} def /f {eofill} def
/c {setrgbcolor} def /black {0 setgray} def /sd {setdash} def
/cl {closepath} def /sf {scalefont setfont} def /lw {setlinewidth} def
/box {m dup 0 exch d exch 0 d 0 exch neg d cl} def
/NC{systemdict begin initclip end}def/C{NC box clip newpath}def
/bl {box s} def /bf {gsave box gsave f grestore 1 lw [] 0 sd s grestore} def /Y { 0 exch d} def /X { 0 d} def 
/K {{pop pop 0 moveto} exch kshow} bind def
/ita {/ang 15 def gsave [1 0 ang dup sin exch cos div 1 0 0] concat} def 
/mp {newpath /y exch def /x exch def} def
/side {[w .77 mul w .23 mul] .385 w mul sd w 0 l currentpoint t -144 r} def
/mr {mp x y w2 0 360 arc} def /m24 {mr s} def /m20 {mr f} def
/mb {mp x y w2 add m w2 neg 0 d 0 w neg d w 0 d 0 w d cl} def
/mt {mp x y w2 add m w2 neg w neg d w 0 d cl} def
/m21 {mb f} def /m25 {mb s} def /m22 {mt f} def /m26{mt s} def
/m23 {mp x y w2 sub m w2 w d w neg 0 d cl f} def
/m27 {mp x y w2 add m w3 neg w2 neg d w3 w2 neg d w3 w2 d cl s} def
/m28 {mp x w2 sub y w2 sub w3 add m w3 0 d  0 w3 neg d w3 0 d 0 w3 d w3 0 d  0 w3 d w3 neg 0 d 0 w3 d w3 neg 0 d 0 w3 neg d w3 neg 0 d cl s } def
/m29 {mp gsave x w2 sub y w2 add w3 sub m currentpoint t 4 {side} repeat cl fill gr} def
/m30 {mp gsave x w2 sub y w2 add w3 sub m currentpoint t 4 {side} repeat cl s gr} def
/m31 {mp x y w2 sub m 0 w d x w2 sub y m w 0 d x w2 sub y w2 add m w w neg d x w2 sub y w2 sub m w w d s} def
/m32 {mp x y w2 sub m w2 w d w neg 0 d cl s} def
/m33 {mp x y w2 add m w3 neg w2 neg d w3 w2 neg d w3 w2 d cl f} def
/m34 {mp x w2 sub y w2 sub w3 add m w3 0 d  0 w3 neg d w3 0 d 0 w3 d w3 0 d  0 w3 d w3 neg 0 d 0 w3 d w3 neg 0 d 0 w3 neg d w3 neg 0 d cl f } def
/m2 {mp x y w2 sub m 0 w d x w2 sub y m w 0 d s} def
/m5 {mp x w2 sub y w2 sub m w w d x w2 sub y w2 add m w w neg d s} def
%%IncludeResource: ProcSet (FontSetInit)
%%IncludeResource: font Times-Roman
%%IncludeResource: font Times-Italic
%%IncludeResource: font Times-Bold
%%IncludeResource: font Times-BoldItalic
%%IncludeResource: font Helvetica
%%IncludeResource: font Helvetica-Oblique
%%IncludeResource: font Helvetica-Bold
%%IncludeResource: font Helvetica-BoldOblique
%%IncludeResource: font Courier
%%IncludeResource: font Courier-Oblique
%%IncludeResource: font Courier-Bold
%%IncludeResource: font Courier-BoldOblique
%%IncludeResource: font Symbol
%%IncludeResource: font ZapfDingbats
/reEncode {exch findfont dup length dict begin {1 index /FID eq  {pop pop} {def} ifelse } forall /Encoding exch def currentdict end dup /FontName get exch definefont pop } def [/Times-Bold /Times-Italic /Times-BoldItalic /Helvetica /Helvetica-Oblique
 /Helvetica-Bold /Helvetica-BoldOblique /Courier /Courier-Oblique /Courier-Bold /Courier-BoldOblique /Times-Roman /AvantGarde-Book /AvantGarde-BookOblique /AvantGarde-Demi /AvantGarde-DemiOblique /Bookman-Demi /Bookman-DemiItalic /Bookman-Light
 /Bookman-LightItalic /Helvetica-Narrow /Helvetica-Narrow-Bold /Helvetica-Narrow-BoldOblique /Helvetica-Narrow-Oblique /NewCenturySchlbk-Roman /NewCenturySchlbk-Bold /NewCenturySchlbk-BoldItalic /NewCenturySchlbk-Italic /Palatino-Bold
 /Palatino-BoldItalic /Palatino-Italic /Palatino-Roman ] {ISOLatin1Encoding reEncode } forall
%%EndProlog
%%BeginSetup
%%EndSetup
newpath  gsave  .25 .25 scale  gsave  0 0 t black[  ] 0 sd 3 lw 1 1 1 c 2268 2085 0 0 bf black 1 1 1 c 2263 1770 2 313 bf black 1 1 1 c black 1860 1145 319 584 bl 1 1 1 c black 1860 1145 319 584 bl 6 lw 1 1 1 c black 3 lw /w 33 def /w2 {w 2 div} def
 /w3 {w 3 div} def 366 1252 m20 6 lw 3 lw 459 1204 m20 6 lw 3 lw 552 1139 m20 6 lw 3 lw 645 1075 m20 6 lw 3 lw 738 1024 m20 6 lw 3 lw 831 975 m20 6 lw 3 lw 924 909 m20 6 lw 1017 857 m 5 Y s 1017 889 m s 3 lw 1017 875 m20 6 lw 1110 794 m 18 Y s 1110
 839 m 6 Y s 3 lw 1110 825 m20 6 lw 1203 806 m 15 Y s 1203 848 m 5 Y s 3 lw 1203 834 m20 6 lw 1389 734 m 37 Y s 1389 798 m 13 Y s 3 lw 1389 784 m20 6 lw 3 lw 319 584 m 1860 X s
 gsave  2263 1770 2 313 C 1949.08 355.92 t 0 r /Helvetica findfont 81.3741 sf 0 0 m ( [GeV]) show NC gr 
 gsave  2263 1770 2 313 C 1837.22 396.596 t 0 r /Helvetica findfont 54.2494 sf 0 0 m (miss) show NC gr 
 gsave  2263 1770 2 313 C 1837.22 332.192 t 0 r /Helvetica findfont 54.2494 sf 0 0 m (T) show NC gr 
 gsave  2263 1770 2 313 C 1786.38 355.92 t 0 r /Helvetica findfont 81.3741 sf 0 0 m (E) show NC gr  412 584 m cl s 459 584 m cl s 505 584 m cl s 552 584 m cl s 598 584 m cl s 645 584 m cl s 691 584 m cl s 738 584 m cl s 784 584 m cl s 831 584 m cl s
 877 584 m cl s 924 584 m cl s 970 584 m cl s 1017 584 m cl s 1063 584 m cl s 1110 584 m cl s 1156 584 m cl s 1203 584 m cl s 1249 584 m cl s 1296 584 m cl s 1342 584 m cl s 1389 584 m cl s 1435 584 m cl s 1482 584 m cl s 1528 584 m cl s 1575 584 m
 cl s 1621 584 m cl s 1668 584 m cl s 1714 584 m cl s 1761 584 m cl s 1807 584 m cl s 1854 584 m cl s 1900 584 m cl s 1947 584 m cl s 1993 584 m cl s 2040 584 m cl s 2086 584 m cl s 412 584 m cl s 366 584 m cl s 319 584 m cl s 2086 584 m cl s 2133
 584 m cl s 2179 584 m cl s 319 1729 m 1860 X s 412 1729 m cl s 459 1729 m cl s 505 1729 m cl s 552 1729 m cl s 598 1729 m cl s 645 1729 m cl s 691 1729 m cl s 738 1729 m cl s 784 1729 m cl s 831 1729 m cl s 877 1729 m cl s 924 1729 m cl s 970 1729 m
 cl s 1017 1729 m cl s 1063 1729 m cl s 1110 1729 m cl s 1156 1729 m cl s 1203 1729 m cl s 1249 1729 m cl s 1296 1729 m cl s 1342 1729 m cl s 1389 1729 m cl s 1435 1729 m cl s 1482 1729 m cl s 1528 1729 m cl s 1575 1729 m cl s 1621 1729 m cl s 1668
 1729 m cl s 1714 1729 m cl s 1761 1729 m cl s 1807 1729 m cl s 1854 1729 m cl s 1900 1729 m cl s 1947 1729 m cl s 1993 1729 m cl s 2040 1729 m cl s 2086 1729 m cl s 412 1729 m cl s 366 1729 m cl s 319 1729 m cl s 2086 1729 m cl s 2133 1729 m cl s
 2179 1729 m cl s 319 584 m 1145 Y s
 gsave  2263 1770 2 313 C 166.096 1091.49 t 90 r /Helvetica findfont 81.3741 sf 0 0 m (Events / 100 GeV) show NC gr  341 625 m -22 X s 341 649 m -22 X s 341 666 m -22 X s 341 679 m -22 X s 341 690 m -22 X s 341 699 m -22 X s 341 707 m -22 X s 341 714
 m -22 X s 363 720 m -44 X s
 gsave  2263 1770 2 313 C 300.555 692.695 t 0 r  -36 0 t /Helvetica findfont 64.4212 sf 0 0 m (1) show NC gr  341 761 m -22 X s 341 784 m -22 X s 341 801 m -22 X s 341 815 m -22 X s 341 825 m -22 X s 341 834 m -22 X s 341 842 m -22 X s 341 849 m -22
 X s 363 855 m -44 X s
 gsave  2263 1770 2 313 C 300.555 828.198 t 0 r  -73 0 t /Helvetica findfont 64.4212 sf 0 0 m (10) show NC gr  341 896 m -22 X s 341 920 m -22 X s 341 937 m -22 X s 341 950 m -22 X s 341 961 m -22 X s 341 970 m -22 X s 341 978 m -22 X s 341 985 m -22
 X s 363 991 m -44 X s
 gsave  2263 1770 2 313 C 274.567 989.796 t 0 r /Helvetica findfont 44.0776 sf 0 0 m (2) show NC gr 
 gsave  2263 1770 2 313 C 203.383 962.678 t 0 r /Helvetica findfont 64.4212 sf 0 0 m (10) show NC gr  341 1032 m -22 X s 341 1055 m -22 X s 341 1072 m -22 X s 341 1086 m -22 X s 341 1096 m -22 X s 341 1105 m -22 X s 341 1113 m -22 X s 341 1120 m -22
 X s 363 1126 m -44 X s
 gsave  2263 1770 2 313 C 274.567 1128.77 t 0 r /Helvetica findfont 44.0776 sf 0 0 m (3) show NC gr 
 gsave  2263 1770 2 313 C 203.383 1098.27 t 0 r /Helvetica findfont 64.4212 sf 0 0 m (10) show NC gr  341 1167 m -22 X s 341 1191 m -22 X s 341 1208 m -22 X s 341 1221 m -22 X s 341 1232 m -22 X s 341 1241 m -22 X s 341 1249 m -22 X s 341 1256 m -22
 X s 363 1262 m -44 X s
 gsave  2263 1770 2 313 C 274.567 1260.97 t 0 r /Helvetica findfont 44.0776 sf 0 0 m (4) show NC gr 
 gsave  2263 1770 2 313 C 203.383 1233.85 t 0 r /Helvetica findfont 64.4212 sf 0 0 m (10) show NC gr  341 1303 m -22 X s 341 1326 m -22 X s 341 1343 m -22 X s 341 1357 m -22 X s 341 1367 m -22 X s 341 1376 m -22 X s 341 1384 m -22 X s 341 1391 m -22
 X s 363 1397 m -44 X s
 gsave  2263 1770 2 313 C 274.567 1399.95 t 0 r /Helvetica findfont 44.0776 sf 0 0 m (5) show NC gr 
 gsave  2263 1770 2 313 C 203.383 1369.44 t 0 r /Helvetica findfont 64.4212 sf 0 0 m (10) show NC gr  341 1438 m -22 X s 341 1462 m -22 X s 341 1479 m -22 X s 341 1492 m -22 X s 341 1503 m -22 X s 341 1512 m -22 X s 341 1520 m -22 X s 341 1527 m -22
 X s 363 1533 m -44 X s
 gsave  2263 1770 2 313 C 274.567 1535.54 t 0 r /Helvetica findfont 44.0776 sf 0 0 m (6) show NC gr 
 gsave  2263 1770 2 313 C 203.383 1505.03 t 0 r /Helvetica findfont 64.4212 sf 0 0 m (10) show NC gr  341 1574 m -22 X s 341 1597 m -22 X s 341 1614 m -22 X s 341 1628 m -22 X s 341 1638 m -22 X s 341 1647 m -22 X s 341 1655 m -22 X s 341 1662 m -22
 X s 363 1668 m -44 X s
 gsave  2263 1770 2 313 C 274.567 1667.74 t 0 r /Helvetica findfont 44.0776 sf 0 0 m (7) show NC gr 
 gsave  2263 1770 2 313 C 203.383 1640.62 t 0 r /Helvetica findfont 64.4212 sf 0 0 m (10) show NC gr  341 1709 m -22 X s 2179 584 m 1145 Y s 2157 625 m 22 X s 2157 649 m 22 X s 2157 666 m 22 X s 2157 679 m 22 X s 2157 690 m 22 X s 2157 699 m 22 X s
 2157 707 m 22 X s 2157 714 m 22 X s 2136 720 m 43 X s 2157 761 m 22 X s 2157 784 m 22 X s 2157 801 m 22 X s 2157 815 m 22 X s 2157 825 m 22 X s 2157 834 m 22 X s 2157 842 m 22 X s 2157 849 m 22 X s 2136 855 m 43 X s 2157 896 m 22 X s 2157 920 m 22 X
 s 2157 937 m 22 X s 2157 950 m 22 X s 2157 961 m 22 X s 2157 970 m 22 X s 2157 978 m 22 X s 2157 985 m 22 X s 2136 991 m 43 X s 2157 1032 m 22 X s 2157 1055 m 22 X s 2157 1072 m 22 X s 2157 1086 m 22 X s 2157 1096 m 22 X s 2157 1105 m 22 X s 2157
 1113 m 22 X s 2157 1120 m 22 X s 2136 1126 m 43 X s 2157 1167 m 22 X s 2157 1191 m 22 X s 2157 1208 m 22 X s 2157 1221 m 22 X s 2157 1232 m 22 X s 2157 1241 m 22 X s 2157 1249 m 22 X s 2157 1256 m 22 X s 2136 1262 m 43 X s 2157 1303 m 22 X s 2157
 1326 m 22 X s 2157 1343 m 22 X s 2157 1357 m 22 X s 2157 1367 m 22 X s 2157 1376 m 22 X s 2157 1384 m 22 X s 2157 1391 m 22 X s 2136 1397 m 43 X s 2157 1438 m 22 X s 2157 1462 m 22 X s 2157 1479 m 22 X s 2157 1492 m 22 X s 2157 1503 m 22 X s 2157
 1512 m 22 X s 2157 1520 m 22 X s 2157 1527 m 22 X s 2136 1533 m 43 X s 2157 1574 m 22 X s 2157 1597 m 22 X s 2157 1614 m 22 X s 2157 1628 m 22 X s 2157 1638 m 22 X s 2157 1647 m 22 X s 2157 1655 m 22 X s 2157 1662 m 22 X s 2136 1668 m 43 X s 2157
 1709 m 22 X s 0.6 1 0.6 c black 0.6 1 0.6 c 319 584 m 673 Y 93 X -43 Y 93 X -63 Y 93 X -60 Y 93 X -52 Y 93 X -49 Y 93 X -41 Y 93 X -53 Y 93 X -46 Y 93 X -28 Y 93 X -66 Y 93 X -18 Y 93 X -76 Y 93 X -13 Y 93 X -14 Y 93 X -51 Y 465 X f black 0.6 1 0.6
 c black 319 1257 m 93 X -43 Y 93 X -63 Y 93 X -60 Y 93 X -52 Y 93 X -49 Y 93 X -41 Y 93 X -53 Y 93 X -46 Y 93 X -28 Y 93 X -66 Y 93 X -18 Y 93 X -76 Y 93 X -13 Y 93 X -14 Y 93 X -51 Y 465 X s 0.999 0.999 0.999 c black 0.999 0.999 0.999 c 319 584 m
 569 Y 93 X -27 Y 93 X -50 Y 93 X -48 Y 93 X -48 Y 93 X -44 Y 93 X -40 Y 93 X -41 Y 93 X -37 Y 93 X -21 Y 93 X -60 Y 93 X -23 Y 93 X -76 Y 93 X 5 Y 93 X -16 Y 93 X -43 Y 465 X f black 0.999 0.999 0.999 c black 319 1153 m 93 X -27 Y 93 X -50 Y 93 X
 -48 Y 93 X -48 Y 93 X -44 Y 93 X -40 Y 93 X -41 Y 93 X -37 Y 93 X -21 Y 93 X -60 Y 93 X -23 Y 93 X -76 Y 93 X 5 Y 93 X -16 Y 93 X -43 Y 465 X s 1 1 1 c black 319 1153 m 93 X -27 Y 93 X -50 Y 93 X -48 Y 93 X -48 Y 93 X -44 Y 93 X -40 Y 93 X -41 Y 93
 X -37 Y 93 X -21 Y 93 X -60 Y 93 X -23 Y 93 X -76 Y 93 X 5 Y 93 X -16 Y 93 X -43 Y 465 X s 0.4 0.6 1 c black 0.4 0.6 1 c 319 584 m 569 Y 93 X -27 Y 93 X -50 Y 93 X -48 Y 93 X -48 Y 93 X -44 Y 93 X -40 Y 93 X -41 Y 93 X -37 Y 93 X -21 Y 93 X -60 Y 93
 X -23 Y 93 X -76 Y 93 X 5 Y 93 X -16 Y 93 X -43 Y 465 X f black 0.4 0.6 1 c black 319 1153 m 93 X -27 Y 93 X -50 Y 93 X -48 Y 93 X -48 Y 93 X -44 Y 93 X -40 Y 93 X -41 Y 93 X -37 Y 93 X -21 Y 93 X -60 Y 93 X -23 Y 93 X -76 Y 93 X 5 Y 93 X -16 Y 93 X
 -43 Y 465 X s 0.999 0.999 0.999 c black 0.999 0.999 0.999 c 319 584 m 421 Y 93 X -18 Y 93 X -54 Y 93 X -42 Y 93 X -52 Y 93 X -52 Y 93 X -42 Y 93 X -50 Y 93 X -5 Y 93 X -14 Y 93 X -23 Y 93 X -24 Y 93 X -45 Y 744 X f black 0.999 0.999 0.999 c black
 319 1005 m 93 X -18 Y 93 X -54 Y 93 X -42 Y 93 X -52 Y 93 X -52 Y 93 X -42 Y 93 X -50 Y 93 X -5 Y 93 X -14 Y 93 X -23 Y 93 X -24 Y 93 X -45 Y 744 X s 1 1 1 c black 319 1005 m 93 X -18 Y 93 X -54 Y 93 X -42 Y 93 X -52 Y 93 X -52 Y 93 X -42 Y 93 X -50
 Y 93 X -5 Y 93 X -14 Y 93 X -23 Y 93 X -24 Y 93 X -45 Y 744 X s 1 0.8 0.4 c black 1 0.8 0.4 c 319 584 m 421 Y 93 X -18 Y 93 X -54 Y 93 X -42 Y 93 X -52 Y 93 X -52 Y 93 X -42 Y 93 X -50 Y 93 X -5 Y 93 X -14 Y 93 X -23 Y 93 X -24 Y 93 X -45 Y 744 X f
 black 1 0.8 0.4 c black 319 1005 m 93 X -18 Y 93 X -54 Y 93 X -42 Y 93 X -52 Y 93 X -52 Y 93 X -42 Y 93 X -50 Y 93 X -5 Y 93 X -14 Y 93 X -23 Y 93 X -24 Y 93 X -45 Y 744 X s 0.999 0.999 0.999 c black 0.999 0.999 0.999 c 319 584 m 413 Y 93 X -16 Y 93
 X -55 Y 93 X -39 Y 93 X -50 Y 93 X -55 Y 93 X -41 Y 93 X -51 Y 93 X -2 Y 93 X -15 Y 93 X -22 Y 93 X -22 Y 93 X -45 Y 744 X f black 0.999 0.999 0.999 c black 319 997 m 93 X -16 Y 93 X -55 Y 93 X -39 Y 93 X -50 Y 93 X -55 Y 93 X -41 Y 93 X -51 Y 93 X
 -2 Y 93 X -15 Y 93 X -22 Y 93 X -22 Y 93 X -45 Y 744 X s 1 1 1 c black 319 997 m 93 X -16 Y 93 X -55 Y 93 X -39 Y 93 X -50 Y 93 X -55 Y 93 X -41 Y 93 X -51 Y 93 X -2 Y 93 X -15 Y 93 X -22 Y 93 X -22 Y 93 X -45 Y 744 X s 1 0.4 0.6 c black 1 0.4 0.6 c
 319 584 m 413 Y 93 X -16 Y 93 X -55 Y 93 X -39 Y 93 X -50 Y 93 X -55 Y 93 X -41 Y 93 X -51 Y 93 X -2 Y 93 X -15 Y 93 X -22 Y 93 X -22 Y 93 X -45 Y 744 X f black 1 0.4 0.6 c black 319 997 m 93 X -16 Y 93 X -55 Y 93 X -39 Y 93 X -50 Y 93 X -55 Y 93 X
 -41 Y 93 X -51 Y 93 X -2 Y 93 X -15 Y 93 X -22 Y 93 X -22 Y 93 X -45 Y 744 X s 1 0 0 c 6 lw 1 1 1 c black 1 0 0 c 319 1257 m 93 X -43 Y 93 X -63 Y 93 X -60 Y 93 X -52 Y 93 X -49 Y 93 X -41 Y 93 X -53 Y 93 X -46 Y 93 X -28 Y 93 X -66 Y 93 X -18 Y 93
 X -76 Y 93 X -13 Y 93 X -14 Y 93 X -51 Y 465 X s black 3 lw 1 0 0 c 1 lw << /PatternType 1 /PaintType 2 /TilingType 1 /BBox [ 0 0 100 100 ] /XStep 100 /YStep 100 /PaintProc { begin gsave 0 100 m 100 0 l s gr end } >> [ 0.24 0 0 0.24 0 0 ]
 makepattern /P05 exch def /cs {[/Pattern /DeviceRGB] setcolorspace} def /FA {f [/DeviceRGB] setcolorspace} def cs 1 0 0 P05 setcolor 319 584 m 677 Y 93 X -44 Y 93 X -63 Y 93 X -60 Y 93 X -52 Y 93 X -48 Y 93 X -41 Y 93 X -52 Y 93 X -46 Y 93 X -26 Y
 93 X -63 Y 93 X -7 Y 93 X -81 Y 93 X -12 Y 93 X -9 Y 93 X -63 Y 93 X -10 Y -93 X 15 Y -93 X 27 Y -93 X 13 Y -93 X 65 Y -93 X 42 Y -93 X 68 Y -93 X 29 Y -93 X 48 Y -93 X 54 Y -93 X 42 Y -93 X 49 Y -93 X 52 Y -93 X 60 Y -93 X 62 Y -93 X 43 Y -93 X
 -669 Y FA 6 lw 1 1 1 c 15 lw 1110 846 m s 1110 846 m cl s 1110 805 m -9 Y s 1110 796 m cl s 1203 814 m -7 Y s 1203 807 m cl s 1389 805 m 8 Y s 1389 813 m cl s 1389 764 m -26 Y s 1389 738 m cl s black 1 1 1 c 3 lw /w 43 def /w2 {w 2 div} def /w3 {w 3
 div} def 366 1252 459 1204 552 1139 645 1075 738 1024 831 975 924 909 1017 875 1110 825 1203 834 10 { m20} R 15 lw 3 lw 1389 784 m20 15 lw black 6 lw 1 1 1 c black 3 lw /w 33 def /w2 {w 2 div} def /w3 {w 3 div} def 366 1252 m20 6 lw 3 lw 459 1204
 m20 6 lw 3 lw 552 1139 m20 6 lw 3 lw 645 1075 m20 6 lw 3 lw 738 1024 m20 6 lw 3 lw 831 975 m20 6 lw 3 lw 924 909 m20 6 lw 1017 857 m 5 Y s 1017 889 m s 3 lw 1017 875 m20 6 lw 1110 794 m 18 Y s 1110 839 m 6 Y s 3 lw 1110 825 m20 6 lw 1203 806 m 15 Y
 s 1203 848 m 5 Y s 3 lw 1203 834 m20 6 lw 1389 734 m 37 Y s 1389 798 m 13 Y s 3 lw 1389 784 m20 6 lw 1017 889 m s 1017 889 m cl s 1017 862 m -5 Y s 1017 857 m cl s 1110 839 m 7 Y s 1110 846 m cl s 1110 812 m -16 Y s 1110 796 m cl s 1203 848 m 6 Y s
 1203 854 m cl s 1203 821 m -14 Y s 1203 807 m cl s 1389 798 m 15 Y s 1389 813 m cl s 1389 771 m -33 Y s 1389 738 m cl s 3 lw 366 1252 459 1204 552 1139 645 1075 738 1024 831 975 924 909 1017 875 1110 825 1203 834 10 { m20} R 6 lw 3 lw 1389 784 m20 6
 lw 3 lw 319 584 m 1860 X s 412 584 m cl s 459 584 m cl s 505 584 m cl s 552 584 m cl s 598 584 m cl s 645 584 m cl s 691 584 m cl s 738 584 m cl s 784 584 m cl s 831 584 m cl s 877 584 m cl s 924 584 m cl s 970 584 m cl s 1017 584 m cl s 1063 584 m
 cl s 1110 584 m cl s 1156 584 m cl s 1203 584 m cl s 1249 584 m cl s 1296 584 m cl s 1342 584 m cl s 1389 584 m cl s 1435 584 m cl s 1482 584 m cl s 1528 584 m cl s 1575 584 m cl s 1621 584 m cl s 1668 584 m cl s 1714 584 m cl s 1761 584 m cl s 1807
 584 m cl s 1854 584 m cl s 1900 584 m cl s 1947 584 m cl s 1993 584 m cl s 2040 584 m cl s 2086 584 m cl s 412 584 m cl s 366 584 m cl s 319 584 m cl s 2086 584 m cl s 2133 584 m cl s 2179 584 m cl s 319 1729 m 1860 X s 412 1729 m cl s 459 1729 m cl
 s 505 1729 m cl s 552 1729 m cl s 598 1729 m cl s 645 1729 m cl s 691 1729 m cl s 738 1729 m cl s 784 1729 m cl s 831 1729 m cl s 877 1729 m cl s 924 1729 m cl s 970 1729 m cl s 1017 1729 m cl s 1063 1729 m cl s 1110 1729 m cl s 1156 1729 m cl s
 1203 1729 m cl s 1249 1729 m cl s 1296 1729 m cl s 1342 1729 m cl s 1389 1729 m cl s 1435 1729 m cl s 1482 1729 m cl s 1528 1729 m cl s 1575 1729 m cl s 1621 1729 m cl s 1668 1729 m cl s 1714 1729 m cl s 1761 1729 m cl s 1807 1729 m cl s 1854 1729 m
 cl s 1900 1729 m cl s 1947 1729 m cl s 1993 1729 m cl s 2040 1729 m cl s 2086 1729 m cl s 412 1729 m cl s 366 1729 m cl s 319 1729 m cl s 2086 1729 m cl s 2133 1729 m cl s 2179 1729 m cl s 319 584 m 1145 Y s 341 625 m -22 X s 341 649 m -22 X s 341
 666 m -22 X s 341 679 m -22 X s 341 690 m -22 X s 341 699 m -22 X s 341 707 m -22 X s 341 714 m -22 X s 363 720 m -44 X s 341 761 m -22 X s 341 784 m -22 X s 341 801 m -22 X s 341 815 m -22 X s 341 825 m -22 X s 341 834 m -22 X s 341 842 m -22 X s
 341 849 m -22 X s 363 855 m -44 X s 341 896 m -22 X s 341 920 m -22 X s 341 937 m -22 X s 341 950 m -22 X s 341 961 m -22 X s 341 970 m -22 X s 341 978 m -22 X s 341 985 m -22 X s 363 991 m -44 X s 341 1032 m -22 X s 341 1055 m -22 X s 341 1072 m
 -22 X s 341 1086 m -22 X s 341 1096 m -22 X s 341 1105 m -22 X s 341 1113 m -22 X s 341 1120 m -22 X s 363 1126 m -44 X s 341 1167 m -22 X s 341 1191 m -22 X s 341 1208 m -22 X s 341 1221 m -22 X s 341 1232 m -22 X s 341 1241 m -22 X s 341 1249 m
 -22 X s 341 1256 m -22 X s 363 1262 m -44 X s 341 1303 m -22 X s 341 1326 m -22 X s 341 1343 m -22 X s 341 1357 m -22 X s 341 1367 m -22 X s 341 1376 m -22 X s 341 1384 m -22 X s 341 1391 m -22 X s 363 1397 m -44 X s 341 1438 m -22 X s 341 1462 m
 -22 X s 341 1479 m -22 X s 341 1492 m -22 X s 341 1503 m -22 X s 341 1512 m -22 X s 341 1520 m -22 X s 341 1527 m -22 X s 363 1533 m -44 X s 341 1574 m -22 X s 341 1597 m -22 X s 341 1614 m -22 X s 341 1628 m -22 X s 341 1638 m -22 X s 341 1647 m
 -22 X s 341 1655 m -22 X s 341 1662 m -22 X s 363 1668 m -44 X s 341 1709 m -22 X s 2179 584 m 1145 Y s 2157 625 m 22 X s 2157 649 m 22 X s 2157 666 m 22 X s 2157 679 m 22 X s 2157 690 m 22 X s 2157 699 m 22 X s 2157 707 m 22 X s 2157 714 m 22 X s
 2136 720 m 43 X s 2157 761 m 22 X s 2157 784 m 22 X s 2157 801 m 22 X s 2157 815 m 22 X s 2157 825 m 22 X s 2157 834 m 22 X s 2157 842 m 22 X s 2157 849 m 22 X s 2136 855 m 43 X s 2157 896 m 22 X s 2157 920 m 22 X s 2157 937 m 22 X s 2157 950 m 22 X
 s 2157 961 m 22 X s 2157 970 m 22 X s 2157 978 m 22 X s 2157 985 m 22 X s 2136 991 m 43 X s 2157 1032 m 22 X s 2157 1055 m 22 X s 2157 1072 m 22 X s 2157 1086 m 22 X s 2157 1096 m 22 X s 2157 1105 m 22 X s 2157 1113 m 22 X s 2157 1120 m 22 X s 2136
 1126 m 43 X s 2157 1167 m 22 X s 2157 1191 m 22 X s 2157 1208 m 22 X s 2157 1221 m 22 X s 2157 1232 m 22 X s 2157 1241 m 22 X s 2157 1249 m 22 X s 2157 1256 m 22 X s 2136 1262 m 43 X s 2157 1303 m 22 X s 2157 1326 m 22 X s 2157 1343 m 22 X s 2157
 1357 m 22 X s 2157 1367 m 22 X s 2157 1376 m 22 X s 2157 1384 m 22 X s 2157 1391 m 22 X s 2136 1397 m 43 X s 2157 1438 m 22 X s 2157 1462 m 22 X s 2157 1479 m 22 X s 2157 1492 m 22 X s 2157 1503 m 22 X s 2157 1512 m 22 X s 2157 1520 m 22 X s 2157
 1527 m 22 X s 2136 1533 m 43 X s 2157 1574 m 22 X s 2157 1597 m 22 X s 2157 1614 m 22 X s 2157 1628 m 22 X s 2157 1638 m 22 X s 2157 1647 m 22 X s 2157 1655 m 22 X s 2157 1662 m 22 X s 2136 1668 m 43 X s 2157 1709 m 22 X s
 gsave  2263 1770 2 313 C 406.765 1447.41 t 0 r /Helvetica findfont 64.4212 sf 0 0 m (CRT for MB\255SSd) show NC gr 
 gsave  2263 1770 2 313 C 1464.36 1616.89 t 0 r /Helvetica findfont 64.4212 sf 0 0 m (SM Total) show NC gr  1 1 1 c 1338 1603 m 107 X 74 Y -107 X f 1 0 0 c 6 lw 1338 1640 m 107 X s black
 gsave  2263 1770 2 313 C 1464.36 1511.81 t 0 r /Helvetica findfont 64.4212 sf 0 0 m (Data) show NC gr  1391 1502 m 64 Y s 3 lw 1391 1534 m20 6 lw
 gsave  2263 1770 2 313 C 1498.25 1406.73 t 0 r /Helvetica findfont 64.4212 sf 0 0 m (\(+EW\) & single top) show NC gr 
 gsave  2263 1770 2 313 C 1481.3 1406.73 t 0 r /Helvetica findfont 64.4212 sf 0 0 m (t) show NC gr  3 lw 1481 1458 m 17 X s
 gsave  2263 1770 2 313 C 1464.36 1406.73 t 0 r /Helvetica findfont 64.4212 sf 0 0 m (t) show NC gr  0.6 1 0.6 c 1338 1391 m 107 X 74 Y -107 X f black 1338 1465 m 107 X s 1338 1391 m 107 X s 1445 1391 m 74 Y s 1338 1391 m 74 Y s
 gsave  2263 1770 2 313 C 1464.36 1298.26 t 0 r /Helvetica findfont 64.4212 sf 0 0 m (W+jets) show NC gr  0.4 0.6 1 c 1338 1284 m 107 X 75 Y -107 X f black 1338 1359 m 107 X s 1338 1284 m 107 X s 1445 1284 m 75 Y s 1338 1284 m 75 Y s
 gsave  2263 1770 2 313 C 1464.36 1193.18 t 0 r /Helvetica findfont 64.4212 sf 0 0 m (Z+jets) show NC gr  1 0.8 0.4 c 1338 1178 m 107 X 75 Y -107 X f black 1338 1253 m 107 X s 1338 1178 m 107 X s 1445 1178 m 75 Y s 1338 1178 m 75 Y s
 gsave  2263 1770 2 313 C 1464.36 1088.1 t 0 r /Helvetica findfont 64.4212 sf 0 0 m (Diboson) show NC gr  1 0.4 0.6 c 1338 1072 m 107 X 74 Y -107 X f black 1338 1146 m 107 X s 1338 1072 m 107 X s 1445 1072 m 74 Y s 1338 1072 m 74 Y s
 gsave  2263 1770 2 313 C 911.832 1566.05 t 0 r /Helvetica findfont 44.0776 sf 0 0 m (\2551) show NC gr 
 gsave  2263 1770 2 313 C 471.17 1535.54 t 0 r /Helvetica findfont 64.4212 sf 0 0 m (=13TeV, 139 fb) show NC gr 
 gsave  2263 1770 2 313 C 440.662 1535.54 t 0 r /Helvetica findfont 64.4212 sf 0 0 m (s) show NC gr  6 lw 420 1573 m 7 -41 d s 3 lw 427 1532 m 7 61 d s 434 1593 m 37 X s 1 1 1 c 2254 561 2 2 bf black 1 1 1 c black 1860 358 318 187 bl 1 1 1 c black
 1860 358 318 187 bl 6 lw 1 1 1 c black 3 lw 364 351 m20 6 lw 3 lw 457 341 m20 6 lw 3 lw 550 335 m20 6 lw 3 lw 643 327 m20 6 lw 3 lw 736 329 m20 6 lw 3 lw 829 328 m20 6 lw 3 lw 923 286 m20 6 lw 3 lw 1016 317 m20 6 lw 3 lw 1109 311 m20 6 lw 3 lw 1202
 405 m20 6 lw 3 lw 318 187 m 1860 X s
 gsave  2254 561 2 2 C 1959.25 27.1177 t 0 r /Helvetica findfont 78.1689 sf 0 0 m ( [GeV]) show NC gr 
 gsave  2254 561 2 2 C 1854.17 64.4045 t 0 r /Helvetica findfont 50.9797 sf 0 0 m (miss) show NC gr 
 gsave  2254 561 2 2 C 1854.17 3.38971 t 0 r /Helvetica findfont 50.9797 sf 0 0 m (T) show NC gr 
 gsave  2254 561 2 2 C 1803.33 27.1177 t 0 r /Helvetica findfont 78.1689 sf 0 0 m (E) show NC gr  411 201 m -14 Y s 457 194 m -7 Y s 504 194 m -7 Y s 550 194 m -7 Y s 597 201 m -14 Y s 643 194 m -7 Y s 690 194 m -7 Y s 736 194 m -7 Y s 783 201 m -14
 Y s 829 194 m -7 Y s 876 194 m -7 Y s 923 194 m -7 Y s 969 201 m -14 Y s 1016 194 m -7 Y s 1062 194 m -7 Y s 1109 194 m -7 Y s 1155 201 m -14 Y s 1202 194 m -7 Y s 1248 194 m -7 Y s 1295 194 m -7 Y s 1341 201 m -14 Y s 1388 194 m -7 Y s 1434 194 m
 -7 Y s 1481 194 m -7 Y s 1527 201 m -14 Y s 1574 194 m -7 Y s 1620 194 m -7 Y s 1667 194 m -7 Y s 1713 201 m -14 Y s 1760 194 m -7 Y s 1806 194 m -7 Y s 1853 194 m -7 Y s 1899 201 m -14 Y s 1946 194 m -7 Y s 1992 194 m -7 Y s 2039 194 m -7 Y s 2085
 201 m -14 Y s 411 201 m -14 Y s 364 194 m -7 Y s 318 194 m -7 Y s 2085 201 m -14 Y s 2132 194 m -7 Y s
 gsave  2254 561 2 2 C 345.75 118.64 t 0 r /Helvetica findfont 78.1689 sf 0 0 m (400) show NC gr 
 gsave  2254 561 2 2 C 532.185 118.64 t 0 r /Helvetica findfont 78.1689 sf 0 0 m (600) show NC gr 
 gsave  2254 561 2 2 C 715.229 118.64 t 0 r /Helvetica findfont 78.1689 sf 0 0 m (800) show NC gr 
 gsave  2254 561 2 2 C 877.935 118.64 t 0 r /Helvetica findfont 78.1689 sf 0 0 m (1000) show NC gr 
 gsave  2254 561 2 2 C 1064.37 118.64 t 0 r /Helvetica findfont 78.1689 sf 0 0 m (1200) show NC gr 
 gsave  2254 561 2 2 C 1250.8 118.64 t 0 r /Helvetica findfont 78.1689 sf 0 0 m (1400) show NC gr 
 gsave  2254 561 2 2 C 1437.24 118.64 t 0 r /Helvetica findfont 78.1689 sf 0 0 m (1600) show NC gr 
 gsave  2254 561 2 2 C 1623.67 118.64 t 0 r /Helvetica findfont 78.1689 sf 0 0 m (1800) show NC gr 
 gsave  2254 561 2 2 C 1810.11 118.64 t 0 r /Helvetica findfont 78.1689 sf 0 0 m (2000) show NC gr 
 gsave  2254 561 2 2 C 1996.54 118.64 t 0 r /Helvetica findfont 78.1689 sf 0 0 m (2200) show NC gr  318 545 m 1860 X s 411 531 m 14 Y s 457 538 m 7 Y s 504 538 m 7 Y s 550 538 m 7 Y s 597 531 m 14 Y s 643 538 m 7 Y s 690 538 m 7 Y s 736 538 m 7 Y s
 783 531 m 14 Y s 829 538 m 7 Y s 876 538 m 7 Y s 923 538 m 7 Y s 969 531 m 14 Y s 1016 538 m 7 Y s 1062 538 m 7 Y s 1109 538 m 7 Y s 1155 531 m 14 Y s 1202 538 m 7 Y s 1248 538 m 7 Y s 1295 538 m 7 Y s 1341 531 m 14 Y s 1388 538 m 7 Y s 1434 538 m 7
 Y s 1481 538 m 7 Y s 1527 531 m 14 Y s 1574 538 m 7 Y s 1620 538 m 7 Y s 1667 538 m 7 Y s 1713 531 m 14 Y s 1760 538 m 7 Y s 1806 538 m 7 Y s 1853 538 m 7 Y s 1899 531 m 14 Y s 1946 538 m 7 Y s 1992 538 m 7 Y s 2039 538 m 7 Y s 2085 531 m 14 Y s 411
 531 m 14 Y s 364 538 m 7 Y s 318 538 m 7 Y s 2085 531 m 14 Y s 2132 538 m 7 Y s 318 187 m 358 Y s
 gsave  2254 561 2 2 C 166.096 284.736 t 90 r /Helvetica findfont 67.9729 sf 0 0 m (Data/SM) show NC gr  361 203 m -43 X s 339 220 m -21 X s 339 236 m -21 X s 339 252 m -21 X s 339 268 m -21 X s 361 285 m -43 X s 339 301 m -21 X s 339 317 m -21 X s
 339 334 m -21 X s 339 350 m -21 X s 361 366 m -43 X s 339 382 m -21 X s 339 399 m -21 X s 339 415 m -21 X s 339 431 m -21 X s 361 447 m -43 X s 339 464 m -21 X s 339 480 m -21 X s 339 496 m -21 X s 339 512 m -21 X s 361 529 m -43 X s 361 203 m -43 X
 s 339 187 m -21 X s 361 529 m -43 X s
 gsave  2254 561 2 2 C 261.008 183.044 t 0 r /Helvetica findfont 57.777 sf 0 0 m (0) show NC gr 
 gsave  2254 561 2 2 C 213.552 261.008 t 0 r /Helvetica findfont 57.777 sf 0 0 m (0.5) show NC gr 
 gsave  2254 561 2 2 C 271.177 342.361 t 0 r /Helvetica findfont 57.777 sf 0 0 m (1) show NC gr 
 gsave  2254 561 2 2 C 213.552 423.714 t 0 r /Helvetica findfont 57.777 sf 0 0 m (1.5) show NC gr 
 gsave  2254 561 2 2 C 261.008 505.067 t 0 r /Helvetica findfont 57.777 sf 0 0 m (2) show NC gr  2178 187 m 358 Y s 2135 203 m 43 X s 2157 220 m 21 X s 2157 236 m 21 X s 2157 252 m 21 X s 2157 268 m 21 X s 2135 285 m 43 X s 2157 301 m 21 X s 2157 317
 m 21 X s 2157 334 m 21 X s 2157 350 m 21 X s 2135 366 m 43 X s 2157 382 m 21 X s 2157 399 m 21 X s 2157 415 m 21 X s 2157 431 m 21 X s 2135 447 m 43 X s 2157 464 m 21 X s 2157 480 m 21 X s 2157 496 m 21 X s 2157 512 m 21 X s 2135 529 m 43 X s 2135
 203 m 43 X s 2157 187 m 21 X s 2135 529 m 43 X s 9 lw 829 342 m s 829 342 m cl s 829 315 m -1 Y s 829 314 m cl s 923 300 m 3 Y s 923 303 m cl s 923 273 m -3 Y s 923 270 m cl s 1016 330 m 17 Y s 1016 347 m cl s 1016 303 m -16 Y s 1016 287 m cl s 1109
 324 m 33 Y s 1109 357 m cl s 1109 297 m -29 Y s 1109 268 m cl s 1202 418 m 66 Y s 1202 484 m cl s 1202 391 m -60 Y s 1202 331 m cl s 1388 545 m -177 Y s 1388 368 m cl s 3 lw 364 351 457 341 550 335 643 327 736 329 829 328 923 286 1016 317 1109 311
 1202 405 10 { m20} R 9 lw 1 0 0 c 6 lw black 3 lw 1 0 0 c 2178 198 m -10 -11 d s 2178 227 m -39 -40 d s 2178 255 m -68 -68 d s 2178 284 m -93 -93 d s 2178 312 m -93 -92 d s 2178 341 m -93 -93 d s 2178 369 m -119 -118 d s 2178 398 m -148 -147 d s
 2178 427 m -176 -176 d s 1992 241 m -7 -7 d s 2178 455 m -222 -221 d s 2178 484 m -250 -250 d s 1899 206 m -18 -19 d s 2178 512 m -326 -325 d s 2178 541 m -355 -354 d s 2154 545 m -348 -346 d s 2125 545 m -40 -39 d s 2061 482 m -255 -255 d s 2096
 545 m -11 -11 d s 2033 482 m -227 -226 d s 2004 482 m -199 -199 d s 1992 498 m -216 -215 d s 1963 498 m -216 -215 d s 1934 498 m -215 -215 d s 1906 498 m -207 -206 d s 1899 520 m -229 -228 d s 1895 545 m -89 -89 d s 1799 449 m -157 -157 d s 1867 545
 m -61 -60 d s 1771 449 m -151 -150 d s 1838 545 m -32 -32 d s 1742 449 m -136 -135 d s 1809 545 m -3 -3 d s 1704 440 m -126 -126 d s 1675 440 m -126 -126 d s 1647 440 m -126 -126 d s 1596 418 m -104 -104 d s 1567 418 m -104 -104 d s 1539 418 m -104
 -104 d s 1434 314 m -19 -19 d s 1509 418 m -122 -123 d s 1481 418 m -123 -123 d s 1452 418 m -111 -111 d s 1434 428 m -93 -92 d s 1414 437 m -98 -98 d s 1385 437 m -98 -98 d s 1357 437 m -16 -16 d s 1313 393 m -55 -54 d s 1284 393 m -48 -47 d s 1255
 393 m -47 -47 d s 1220 386 m -41 -40 d s 1191 386 m -37 -37 d s 1162 386 m -37 -37 d s 1131 383 m -35 -34 d s 1102 383 m -34 -34 d s 1073 383 m -31 -31 d s 1041 380 m -28 -28 d s 1013 380 m -28 -28 d s 984 380 m -25 -25 d s 952 377 m -22 -22 d s 924
 377 m -23 -22 d s 895 377 m -21 -20 d s 865 375 m -19 -18 d s 836 375 m -19 -18 d s 807 375 m -19 -18 d s 778 375 m -18 -18 d s 749 375 m -17 -18 d s 720 375 m -17 -18 d s 692 375 m -17 -17 d s 663 374 m -17 -16 d s 634 374 m -17 -16 d s 605 374 m
 -17 -17 d s 577 375 m -18 -18 d s 548 375 m -17 -18 d s 520 375 m -19 -19 d s 492 376 m -20 -20 d s 463 376 m -19 -20 d s 318 231 m s 435 376 m -20 -20 d s 318 259 m s 407 377 m -22 -22 d s 318 288 m s 378 377 m -21 -22 d s 318 317 m s 350 377 m -22
 -22 d s 318 345 m s 321 377 m -3 -3 d s 6 lw black[ 4 8] 0 sd 3 lw 318 447 m 1860 X s 318 285 m 1860 X s 1 0 0 c[  12 12 ] 0 sd 6 lw 318 366 m 1860 X s
 gr  gr showpage
end
%%EOF
