%!PS-Adobe-2.0 EPSF-2.0
%%BoundingBox:  0 0 567 521
%%Title: Distributions/metsqrtmeffInc_met_distrCRW_MB-GGd_afterFit_forThesis.eps: canvas
%%Creator: ROOT Version 6.04/16
%%CreationDate: Tue May 19 22:05:47 2020
%%DocumentNeededResources: ProcSet (FontSetInit)
%%EndComments
%%BeginProlog
80 dict begin
/s {stroke} def /l {lineto} def /m {moveto} def /t {translate} def
/r {rotate} def /rl {roll}  def /R {repeat} def
/d {rlineto} def /rm {rmoveto} def /gr {grestore} def /f {eofill} def
/c {setrgbcolor} def /black {0 setgray} def /sd {setdash} def
/cl {closepath} def /sf {scalefont setfont} def /lw {setlinewidth} def
/box {m dup 0 exch d exch 0 d 0 exch neg d cl} def
/NC{systemdict begin initclip end}def/C{NC box clip newpath}def
/bl {box s} def /bf {gsave box gsave f grestore 1 lw [] 0 sd s grestore} def /Y { 0 exch d} def /X { 0 d} def 
/K {{pop pop 0 moveto} exch kshow} bind def
/ita {/ang 15 def gsave [1 0 ang dup sin exch cos div 1 0 0] concat} def 
/mp {newpath /y exch def /x exch def} def
/side {[w .77 mul w .23 mul] .385 w mul sd w 0 l currentpoint t -144 r} def
/mr {mp x y w2 0 360 arc} def /m24 {mr s} def /m20 {mr f} def
/mb {mp x y w2 add m w2 neg 0 d 0 w neg d w 0 d 0 w d cl} def
/mt {mp x y w2 add m w2 neg w neg d w 0 d cl} def
/m21 {mb f} def /m25 {mb s} def /m22 {mt f} def /m26{mt s} def
/m23 {mp x y w2 sub m w2 w d w neg 0 d cl f} def
/m27 {mp x y w2 add m w3 neg w2 neg d w3 w2 neg d w3 w2 d cl s} def
/m28 {mp x w2 sub y w2 sub w3 add m w3 0 d  0 w3 neg d w3 0 d 0 w3 d w3 0 d  0 w3 d w3 neg 0 d 0 w3 d w3 neg 0 d 0 w3 neg d w3 neg 0 d cl s } def
/m29 {mp gsave x w2 sub y w2 add w3 sub m currentpoint t 4 {side} repeat cl fill gr} def
/m30 {mp gsave x w2 sub y w2 add w3 sub m currentpoint t 4 {side} repeat cl s gr} def
/m31 {mp x y w2 sub m 0 w d x w2 sub y m w 0 d x w2 sub y w2 add m w w neg d x w2 sub y w2 sub m w w d s} def
/m32 {mp x y w2 sub m w2 w d w neg 0 d cl s} def
/m33 {mp x y w2 add m w3 neg w2 neg d w3 w2 neg d w3 w2 d cl f} def
/m34 {mp x w2 sub y w2 sub w3 add m w3 0 d  0 w3 neg d w3 0 d 0 w3 d w3 0 d  0 w3 d w3 neg 0 d 0 w3 d w3 neg 0 d 0 w3 neg d w3 neg 0 d cl f } def
/m2 {mp x y w2 sub m 0 w d x w2 sub y m w 0 d s} def
/m5 {mp x w2 sub y w2 sub m w w d x w2 sub y w2 add m w w neg d s} def
%%IncludeResource: ProcSet (FontSetInit)
%%IncludeResource: font Times-Roman
%%IncludeResource: font Times-Italic
%%IncludeResource: font Times-Bold
%%IncludeResource: font Times-BoldItalic
%%IncludeResource: font Helvetica
%%IncludeResource: font Helvetica-Oblique
%%IncludeResource: font Helvetica-Bold
%%IncludeResource: font Helvetica-BoldOblique
%%IncludeResource: font Courier
%%IncludeResource: font Courier-Oblique
%%IncludeResource: font Courier-Bold
%%IncludeResource: font Courier-BoldOblique
%%IncludeResource: font Symbol
%%IncludeResource: font ZapfDingbats
/reEncode {exch findfont dup length dict begin {1 index /FID eq  {pop pop} {def} ifelse } forall /Encoding exch def currentdict end dup /FontName get exch definefont pop } def [/Times-Bold /Times-Italic /Times-BoldItalic /Helvetica /Helvetica-Oblique
 /Helvetica-Bold /Helvetica-BoldOblique /Courier /Courier-Oblique /Courier-Bold /Courier-BoldOblique /Times-Roman /AvantGarde-Book /AvantGarde-BookOblique /AvantGarde-Demi /AvantGarde-DemiOblique /Bookman-Demi /Bookman-DemiItalic /Bookman-Light
 /Bookman-LightItalic /Helvetica-Narrow /Helvetica-Narrow-Bold /Helvetica-Narrow-BoldOblique /Helvetica-Narrow-Oblique /NewCenturySchlbk-Roman /NewCenturySchlbk-Bold /NewCenturySchlbk-BoldItalic /NewCenturySchlbk-Italic /Palatino-Bold
 /Palatino-BoldItalic /Palatino-Italic /Palatino-Roman ] {ISOLatin1Encoding reEncode } forall
%%EndProlog
%%BeginSetup
%%EndSetup
newpath  gsave  .25 .25 scale  gsave  0 0 t black[  ] 0 sd 3 lw 1 1 1 c 2268 2085 0 0 bf black 1 1 1 c 2263 1770 2 313 bf black 1 1 1 c black 1860 1145 319 584 bl 1 1 1 c black 1860 1145 319 584 bl 6 lw 1 1 1 c black 3 lw /w 33 def /w2 {w 2 div} def
 /w3 {w 3 div} def 391 1204 m20 6 lw 3 lw 534 1175 m20 6 lw 3 lw 677 1142 m20 6 lw 3 lw 820 1109 m20 6 lw 3 lw 963 1061 m20 6 lw 3 lw 1106 1023 m20 6 lw 3 lw 1249 968 m20 6 lw 1392 925 m 2 Y s 3 lw 1392 940 m20 6 lw 1535 861 m 11 Y s 1535 899 m 5 Y s
 3 lw 1535 886 m20 6 lw 1679 893 m 6 Y s 1679 926 m 1 Y s 3 lw 1679 912 m20 6 lw 3 lw 319 584 m 1860 X s
 gsave  2263 1770 2 313 C 2101.62 396.596 t 0 r /Helvetica findfont 54.2494 sf 0 0 m (1/2) show NC gr 
 gsave  2263 1770 2 313 C 1874.51 355.92 t 0 r /Helvetica findfont 81.3741 sf 0 0 m ( [GeV]) show NC gr 
 gsave  2263 1770 2 313 C 1840.61 332.192 t 0 r /Helvetica findfont 54.2494 sf 0 0 m (T) show NC gr 
 gsave  2263 1770 2 313 C 1786.38 355.92 t 0 r /Helvetica findfont 81.3741 sf 0 0 m (H) show NC gr  6 lw 1749 417 m 14 -85 d s 3 lw 1763 332 m 13 105 d s 1776 437 m 99 X s
 gsave  2263 1770 2 313 C 1711.8 355.92 t 0 r /Helvetica findfont 81.3741 sf 0 0 m (/) show NC gr 
 gsave  2263 1770 2 313 C 1599.94 396.596 t 0 r /Helvetica findfont 54.2494 sf 0 0 m (miss) show NC gr 
 gsave  2263 1770 2 313 C 1599.94 332.192 t 0 r /Helvetica findfont 54.2494 sf 0 0 m (T) show NC gr 
 gsave  2263 1770 2 313 C 1549.1 355.92 t 0 r /Helvetica findfont 81.3741 sf 0 0 m (E) show NC gr  319 584 m cl s 391 584 m cl s 462 584 m cl s 534 584 m cl s 605 584 m cl s 677 584 m cl s 748 584 m cl s 820 584 m cl s 892 584 m cl s 963 584 m cl s
 1035 584 m cl s 1106 584 m cl s 1178 584 m cl s 1249 584 m cl s 1321 584 m cl s 1392 584 m cl s 1464 584 m cl s 1535 584 m cl s 1607 584 m cl s 1679 584 m cl s 1750 584 m cl s 1822 584 m cl s 1893 584 m cl s 1965 584 m cl s 2036 584 m cl s 2108 584
 m cl s 2108 584 m cl s 2179 584 m cl s 319 1729 m 1860 X s 319 1729 m cl s 391 1729 m cl s 462 1729 m cl s 534 1729 m cl s 605 1729 m cl s 677 1729 m cl s 748 1729 m cl s 820 1729 m cl s 892 1729 m cl s 963 1729 m cl s 1035 1729 m cl s 1106 1729 m
 cl s 1178 1729 m cl s 1249 1729 m cl s 1321 1729 m cl s 1392 1729 m cl s 1464 1729 m cl s 1535 1729 m cl s 1607 1729 m cl s 1679 1729 m cl s 1750 1729 m cl s 1822 1729 m cl s 1893 1729 m cl s 1965 1729 m cl s 2036 1729 m cl s 2108 1729 m cl s 2108
 1729 m cl s 2179 1729 m cl s 319 584 m 1145 Y s
 gsave  2263 1770 2 313 C 125.419 1654.18 t 90 r /Helvetica findfont 54.2494 sf 0 0 m (1/2) show NC gr 
 gsave  2263 1770 2 313 C 166.096 1064.37 t 90 r /Helvetica findfont 81.3741 sf 0 0 m (Events / 2 [GeV]) show NC gr  341 630 m -22 X s 341 656 m -22 X s 341 675 m -22 X s 341 690 m -22 X s 341 702 m -22 X s 341 712 m -22 X s 341 720 m -22 X s 341 728
 m -22 X s 363 735 m -44 X s
 gsave  2263 1770 2 313 C 300.555 707.845 t 0 r  -36 0 t /Helvetica findfont 64.4212 sf 0 0 m (1) show NC gr  341 780 m -22 X s 341 807 m -22 X s 341 826 m -22 X s 341 840 m -22 X s 341 852 m -22 X s 341 862 m -22 X s 341 871 m -22 X s 341 879 m -22
 X s 363 886 m -44 X s
 gsave  2263 1770 2 313 C 300.555 858.498 t 0 r  -73 0 t /Helvetica findfont 64.4212 sf 0 0 m (10) show NC gr  341 931 m -22 X s 341 957 m -22 X s 341 976 m -22 X s 341 991 m -22 X s 341 1003 m -22 X s 341 1013 m -22 X s 341 1022 m -22 X s 341 1029 m
 -22 X s 363 1036 m -44 X s
 gsave  2263 1770 2 313 C 274.567 1033.86 t 0 r /Helvetica findfont 44.0776 sf 0 0 m (2) show NC gr 
 gsave  2263 1770 2 313 C 203.383 1006.74 t 0 r /Helvetica findfont 64.4212 sf 0 0 m (10) show NC gr  341 1082 m -22 X s 341 1108 m -22 X s 341 1127 m -22 X s 341 1142 m -22 X s 341 1153 m -22 X s 341 1164 m -22 X s 341 1172 m -22 X s 341 1180 m -22
 X s 363 1187 m -44 X s
 gsave  2263 1770 2 313 C 274.567 1189.79 t 0 r /Helvetica findfont 44.0776 sf 0 0 m (3) show NC gr 
 gsave  2263 1770 2 313 C 203.383 1159.28 t 0 r /Helvetica findfont 64.4212 sf 0 0 m (10) show NC gr  341 1232 m -22 X s 341 1259 m -22 X s 341 1278 m -22 X s 341 1292 m -22 X s 341 1304 m -22 X s 341 1314 m -22 X s 341 1323 m -22 X s 341 1331 m -22
 X s 363 1338 m -44 X s
 gsave  2263 1770 2 313 C 274.567 1335.55 t 0 r /Helvetica findfont 44.0776 sf 0 0 m (4) show NC gr 
 gsave  2263 1770 2 313 C 203.383 1308.43 t 0 r /Helvetica findfont 64.4212 sf 0 0 m (10) show NC gr  341 1383 m -22 X s 341 1409 m -22 X s 341 1428 m -22 X s 341 1443 m -22 X s 341 1455 m -22 X s 341 1465 m -22 X s 341 1474 m -22 X s 341 1481 m -22
 X s 363 1488 m -44 X s
 gsave  2263 1770 2 313 C 274.567 1491.47 t 0 r /Helvetica findfont 44.0776 sf 0 0 m (5) show NC gr 
 gsave  2263 1770 2 313 C 203.383 1460.97 t 0 r /Helvetica findfont 64.4212 sf 0 0 m (10) show NC gr  341 1534 m -22 X s 341 1560 m -22 X s 341 1579 m -22 X s 341 1594 m -22 X s 341 1605 m -22 X s 341 1616 m -22 X s 341 1624 m -22 X s 341 1632 m -22
 X s 363 1639 m -44 X s
 gsave  2263 1770 2 313 C 274.567 1640.62 t 0 r /Helvetica findfont 44.0776 sf 0 0 m (6) show NC gr 
 gsave  2263 1770 2 313 C 203.383 1610.11 t 0 r /Helvetica findfont 64.4212 sf 0 0 m (10) show NC gr  341 1684 m -22 X s 341 1711 m -22 X s 2179 584 m 1145 Y s 2157 630 m 22 X s 2157 656 m 22 X s 2157 675 m 22 X s 2157 690 m 22 X s 2157 702 m 22 X s
 2157 712 m 22 X s 2157 720 m 22 X s 2157 728 m 22 X s 2136 735 m 43 X s 2157 780 m 22 X s 2157 807 m 22 X s 2157 826 m 22 X s 2157 840 m 22 X s 2157 852 m 22 X s 2157 862 m 22 X s 2157 871 m 22 X s 2157 879 m 22 X s 2136 886 m 43 X s 2157 931 m 22 X
 s 2157 957 m 22 X s 2157 976 m 22 X s 2157 991 m 22 X s 2157 1003 m 22 X s 2157 1013 m 22 X s 2157 1022 m 22 X s 2157 1029 m 22 X s 2136 1036 m 43 X s 2157 1082 m 22 X s 2157 1108 m 22 X s 2157 1127 m 22 X s 2157 1142 m 22 X s 2157 1153 m 22 X s
 2157 1164 m 22 X s 2157 1172 m 22 X s 2157 1180 m 22 X s 2136 1187 m 43 X s 2157 1232 m 22 X s 2157 1259 m 22 X s 2157 1278 m 22 X s 2157 1292 m 22 X s 2157 1304 m 22 X s 2157 1314 m 22 X s 2157 1323 m 22 X s 2157 1331 m 22 X s 2136 1338 m 43 X s
 2157 1383 m 22 X s 2157 1409 m 22 X s 2157 1428 m 22 X s 2157 1443 m 22 X s 2157 1455 m 22 X s 2157 1465 m 22 X s 2157 1474 m 22 X s 2157 1481 m 22 X s 2136 1488 m 43 X s 2157 1534 m 22 X s 2157 1560 m 22 X s 2157 1579 m 22 X s 2157 1594 m 22 X s
 2157 1605 m 22 X s 2157 1616 m 22 X s 2157 1624 m 22 X s 2157 1632 m 22 X s 2136 1639 m 43 X s 2157 1684 m 22 X s 2157 1711 m 22 X s 0.4 0.6 1 c black 0.4 0.6 1 c 319 584 m 621 Y 143 X -28 Y 143 X -37 Y 143 X -38 Y 144 X -41 Y 143 X -41 Y 143 X -42
 Y 143 X -46 Y 143 X -44 Y 143 X -48 Y 143 X -46 Y 143 X -48 Y 143 X -32 Y 143 X -130 Y f black 0.4 0.6 1 c black 319 1205 m 143 X -28 Y 143 X -37 Y 143 X -38 Y 144 X -41 Y 143 X -41 Y 143 X -42 Y 143 X -46 Y 143 X -44 Y 143 X -48 Y 143 X -46 Y 143 X
 -48 Y 143 X -32 Y 143 X s 0.999 0.999 0.999 c black 0.999 0.999 0.999 c 319 584 m 527 Y 143 X -35 Y 143 X -42 Y 143 X -44 Y 144 X -45 Y 143 X -58 Y 143 X -39 Y 143 X -47 Y 143 X -55 Y 143 X -39 Y 143 X -17 Y 143 X -106 Y 286 X f black 0.999 0.999
 0.999 c black 319 1111 m 143 X -35 Y 143 X -42 Y 143 X -44 Y 144 X -45 Y 143 X -58 Y 143 X -39 Y 143 X -47 Y 143 X -55 Y 143 X -39 Y 143 X -17 Y 143 X -106 Y 286 X s 1 1 1 c black 319 1111 m 143 X -35 Y 143 X -42 Y 143 X -44 Y 144 X -45 Y 143 X -58
 Y 143 X -39 Y 143 X -47 Y 143 X -55 Y 143 X -39 Y 143 X -17 Y 143 X -106 Y 286 X s 0.6 1 0.6 c black 0.6 1 0.6 c 319 584 m 527 Y 143 X -35 Y 143 X -42 Y 143 X -44 Y 144 X -45 Y 143 X -58 Y 143 X -39 Y 143 X -47 Y 143 X -55 Y 143 X -39 Y 143 X -17 Y
 143 X -106 Y 286 X f black 0.6 1 0.6 c black 319 1111 m 143 X -35 Y 143 X -42 Y 143 X -44 Y 144 X -45 Y 143 X -58 Y 143 X -39 Y 143 X -47 Y 143 X -55 Y 143 X -39 Y 143 X -17 Y 143 X -106 Y 286 X s 0.999 0.999 0.999 c black 0.999 0.999 0.999 c 319
 584 m 449 Y 143 X -24 Y 143 X -33 Y 143 X -39 Y 144 X -36 Y 143 X -38 Y 143 X -33 Y 143 X -43 Y 143 X -49 Y 143 X -37 Y 143 X -28 Y 143 X -89 Y 286 X f black 0.999 0.999 0.999 c black 319 1033 m 143 X -24 Y 143 X -33 Y 143 X -39 Y 144 X -36 Y 143 X
 -38 Y 143 X -33 Y 143 X -43 Y 143 X -49 Y 143 X -37 Y 143 X -28 Y 143 X -89 Y 286 X s 1 1 1 c black 319 1033 m 143 X -24 Y 143 X -33 Y 143 X -39 Y 144 X -36 Y 143 X -38 Y 143 X -33 Y 143 X -43 Y 143 X -49 Y 143 X -37 Y 143 X -28 Y 143 X -89 Y 286 X
 s 1 0.8 0.4 c black 1 0.8 0.4 c 319 584 m 449 Y 143 X -24 Y 143 X -33 Y 143 X -39 Y 144 X -36 Y 143 X -38 Y 143 X -33 Y 143 X -43 Y 143 X -49 Y 143 X -37 Y 143 X -28 Y 143 X -89 Y 286 X f black 1 0.8 0.4 c black 319 1033 m 143 X -24 Y 143 X -33 Y
 143 X -39 Y 144 X -36 Y 143 X -38 Y 143 X -33 Y 143 X -43 Y 143 X -49 Y 143 X -37 Y 143 X -28 Y 143 X -89 Y 286 X s 0.999 0.999 0.999 c black 0.999 0.999 0.999 c 319 584 m 442 Y 143 X -25 Y 143 X -30 Y 143 X -38 Y 144 X -37 Y 143 X -36 Y 143 X -32 Y
 143 X -43 Y 143 X -50 Y 143 X -39 Y 143 X -25 Y 143 X -87 Y 286 X f black 0.999 0.999 0.999 c black 319 1026 m 143 X -25 Y 143 X -30 Y 143 X -38 Y 144 X -37 Y 143 X -36 Y 143 X -32 Y 143 X -43 Y 143 X -50 Y 143 X -39 Y 143 X -25 Y 143 X -87 Y 286 X
 s 1 1 1 c black 319 1026 m 143 X -25 Y 143 X -30 Y 143 X -38 Y 144 X -37 Y 143 X -36 Y 143 X -32 Y 143 X -43 Y 143 X -50 Y 143 X -39 Y 143 X -25 Y 143 X -87 Y 286 X s 1 0.4 0.6 c black 1 0.4 0.6 c 319 584 m 442 Y 143 X -25 Y 143 X -30 Y 143 X -38 Y
 144 X -37 Y 143 X -36 Y 143 X -32 Y 143 X -43 Y 143 X -50 Y 143 X -39 Y 143 X -25 Y 143 X -87 Y 286 X f black 1 0.4 0.6 c black 319 1026 m 143 X -25 Y 143 X -30 Y 143 X -38 Y 144 X -37 Y 143 X -36 Y 143 X -32 Y 143 X -43 Y 143 X -50 Y 143 X -39 Y
 143 X -25 Y 143 X -87 Y 286 X s 1 0 0 c 6 lw 1 1 1 c black 1 0 0 c 319 1205 m 143 X -28 Y 143 X -37 Y 143 X -38 Y 144 X -41 Y 143 X -41 Y 143 X -42 Y 143 X -46 Y 143 X -44 Y 143 X -48 Y 143 X -46 Y 143 X -48 Y 143 X -32 Y 143 X s black 3 lw 1 0 0 c
 1 lw << /PatternType 1 /PaintType 2 /TilingType 1 /BBox [ 0 0 100 100 ] /XStep 100 /YStep 100 /PaintProc { begin gsave 0 100 m 100 0 l s gr end } >> [ 0.24 0 0 0.24 0 0 ] makepattern /P05 exch def /cs {[/Pattern /DeviceRGB] setcolorspace} def /FA {f
 [/DeviceRGB] setcolorspace} def cs 1 0 0 P05 setcolor 319 584 m 622 Y 143 X -27 Y 143 X -37 Y 143 X -38 Y 144 X -41 Y 143 X -40 Y 143 X -42 Y 143 X -46 Y 143 X -41 Y 143 X -49 Y 143 X -41 Y 143 X -50 Y 143 X -30 Y 143 X -23 Y -143 X 35 Y -143 X 47 Y
 -143 X 51 Y -143 X 47 Y -143 X 47 Y -143 X 47 Y -143 X 43 Y -143 X 41 Y -143 X 41 Y -144 X 38 Y -143 X 38 Y -143 X 28 Y -143 X -620 Y FA 6 lw 1 1 1 c 15 lw 1535 865 m -4 Y s 1535 861 m cl s black 1 1 1 c 3 lw /w 43 def /w2 {w 2 div} def /w3 {w 3
 div} def 391 1204 534 1175 677 1142 820 1109 963 1061 1106 1023 1249 968 1392 940 1535 886 1679 912 10 { m20} R 15 lw black 6 lw 1 1 1 c black 3 lw /w 33 def /w2 {w 2 div} def /w3 {w 3 div} def 391 1204 m20 6 lw 3 lw 534 1175 m20 6 lw 3 lw 677 1142
 m20 6 lw 3 lw 820 1109 m20 6 lw 3 lw 963 1061 m20 6 lw 3 lw 1106 1023 m20 6 lw 3 lw 1249 968 m20 6 lw 1392 925 m 2 Y s 3 lw 1392 940 m20 6 lw 1535 861 m 11 Y s 1535 899 m 5 Y s 3 lw 1535 886 m20 6 lw 1679 893 m 6 Y s 1679 926 m 1 Y s 3 lw 1679 912
 m20 6 lw 1392 927 m -2 Y s 1392 925 m cl s 1535 899 m 5 Y s 1535 904 m cl s 1535 872 m -11 Y s 1535 861 m cl s 1679 926 m 1 Y s 1679 927 m cl s 1679 899 m -6 Y s 1679 893 m cl s 3 lw 391 1204 534 1175 677 1142 820 1109 963 1061 1106 1023 1249 968
 1392 940 1535 886 1679 912 10 { m20} R 6 lw 3 lw 319 584 m 1860 X s 319 584 m cl s 391 584 m cl s 462 584 m cl s 534 584 m cl s 605 584 m cl s 677 584 m cl s 748 584 m cl s 820 584 m cl s 892 584 m cl s 963 584 m cl s 1035 584 m cl s 1106 584 m cl s
 1178 584 m cl s 1249 584 m cl s 1321 584 m cl s 1392 584 m cl s 1464 584 m cl s 1535 584 m cl s 1607 584 m cl s 1679 584 m cl s 1750 584 m cl s 1822 584 m cl s 1893 584 m cl s 1965 584 m cl s 2036 584 m cl s 2108 584 m cl s 2108 584 m cl s 2179 584
 m cl s 319 1729 m 1860 X s 319 1729 m cl s 391 1729 m cl s 462 1729 m cl s 534 1729 m cl s 605 1729 m cl s 677 1729 m cl s 748 1729 m cl s 820 1729 m cl s 892 1729 m cl s 963 1729 m cl s 1035 1729 m cl s 1106 1729 m cl s 1178 1729 m cl s 1249 1729 m
 cl s 1321 1729 m cl s 1392 1729 m cl s 1464 1729 m cl s 1535 1729 m cl s 1607 1729 m cl s 1679 1729 m cl s 1750 1729 m cl s 1822 1729 m cl s 1893 1729 m cl s 1965 1729 m cl s 2036 1729 m cl s 2108 1729 m cl s 2108 1729 m cl s 2179 1729 m cl s 319
 584 m 1145 Y s 341 630 m -22 X s 341 656 m -22 X s 341 675 m -22 X s 341 690 m -22 X s 341 702 m -22 X s 341 712 m -22 X s 341 720 m -22 X s 341 728 m -22 X s 363 735 m -44 X s 341 780 m -22 X s 341 807 m -22 X s 341 826 m -22 X s 341 840 m -22 X s
 341 852 m -22 X s 341 862 m -22 X s 341 871 m -22 X s 341 879 m -22 X s 363 886 m -44 X s 341 931 m -22 X s 341 957 m -22 X s 341 976 m -22 X s 341 991 m -22 X s 341 1003 m -22 X s 341 1013 m -22 X s 341 1022 m -22 X s 341 1029 m -22 X s 363 1036 m
 -44 X s 341 1082 m -22 X s 341 1108 m -22 X s 341 1127 m -22 X s 341 1142 m -22 X s 341 1153 m -22 X s 341 1164 m -22 X s 341 1172 m -22 X s 341 1180 m -22 X s 363 1187 m -44 X s 341 1232 m -22 X s 341 1259 m -22 X s 341 1278 m -22 X s 341 1292 m
 -22 X s 341 1304 m -22 X s 341 1314 m -22 X s 341 1323 m -22 X s 341 1331 m -22 X s 363 1338 m -44 X s 341 1383 m -22 X s 341 1409 m -22 X s 341 1428 m -22 X s 341 1443 m -22 X s 341 1455 m -22 X s 341 1465 m -22 X s 341 1474 m -22 X s 341 1481 m
 -22 X s 363 1488 m -44 X s 341 1534 m -22 X s 341 1560 m -22 X s 341 1579 m -22 X s 341 1594 m -22 X s 341 1605 m -22 X s 341 1616 m -22 X s 341 1624 m -22 X s 341 1632 m -22 X s 363 1639 m -44 X s 341 1684 m -22 X s 341 1711 m -22 X s 2179 584 m
 1145 Y s 2157 630 m 22 X s 2157 656 m 22 X s 2157 675 m 22 X s 2157 690 m 22 X s 2157 702 m 22 X s 2157 712 m 22 X s 2157 720 m 22 X s 2157 728 m 22 X s 2136 735 m 43 X s 2157 780 m 22 X s 2157 807 m 22 X s 2157 826 m 22 X s 2157 840 m 22 X s 2157
 852 m 22 X s 2157 862 m 22 X s 2157 871 m 22 X s 2157 879 m 22 X s 2136 886 m 43 X s 2157 931 m 22 X s 2157 957 m 22 X s 2157 976 m 22 X s 2157 991 m 22 X s 2157 1003 m 22 X s 2157 1013 m 22 X s 2157 1022 m 22 X s 2157 1029 m 22 X s 2136 1036 m 43 X
 s 2157 1082 m 22 X s 2157 1108 m 22 X s 2157 1127 m 22 X s 2157 1142 m 22 X s 2157 1153 m 22 X s 2157 1164 m 22 X s 2157 1172 m 22 X s 2157 1180 m 22 X s 2136 1187 m 43 X s 2157 1232 m 22 X s 2157 1259 m 22 X s 2157 1278 m 22 X s 2157 1292 m 22 X s
 2157 1304 m 22 X s 2157 1314 m 22 X s 2157 1323 m 22 X s 2157 1331 m 22 X s 2136 1338 m 43 X s 2157 1383 m 22 X s 2157 1409 m 22 X s 2157 1428 m 22 X s 2157 1443 m 22 X s 2157 1455 m 22 X s 2157 1465 m 22 X s 2157 1474 m 22 X s 2157 1481 m 22 X s
 2136 1488 m 43 X s 2157 1534 m 22 X s 2157 1560 m 22 X s 2157 1579 m 22 X s 2157 1594 m 22 X s 2157 1605 m 22 X s 2157 1616 m 22 X s 2157 1624 m 22 X s 2157 1632 m 22 X s 2136 1639 m 43 X s 2157 1684 m 22 X s 2157 1711 m 22 X s
 gsave  2263 1770 2 313 C 406.765 1447.41 t 0 r /Helvetica findfont 64.4212 sf 0 0 m (CRW for MB\255GGd) show NC gr 
 gsave  2263 1770 2 313 C 1464.36 1616.89 t 0 r /Helvetica findfont 64.4212 sf 0 0 m (SM Total) show NC gr  1 1 1 c 1338 1603 m 107 X 74 Y -107 X f 1 0 0 c 6 lw 1338 1640 m 107 X s black
 gsave  2263 1770 2 313 C 1464.36 1511.81 t 0 r /Helvetica findfont 64.4212 sf 0 0 m (Data) show NC gr  1391 1502 m 64 Y s 3 lw 1391 1534 m20 6 lw
 gsave  2263 1770 2 313 C 1464.36 1406.73 t 0 r /Helvetica findfont 64.4212 sf 0 0 m (W+jets) show NC gr  0.4 0.6 1 c 3 lw 1338 1391 m 107 X 74 Y -107 X f 6 lw black 3 lw 1338 1465 m 107 X s 1338 1391 m 107 X s 1445 1391 m 74 Y s 1338 1391 m 74 Y s
 gsave  2263 1770 2 313 C 1498.25 1298.26 t 0 r /Helvetica findfont 64.4212 sf 0 0 m (\(+EW\) & single top) show NC gr 
 gsave  2263 1770 2 313 C 1481.3 1298.26 t 0 r /Helvetica findfont 64.4212 sf 0 0 m (t) show NC gr  1481 1349 m 17 X s
 gsave  2263 1770 2 313 C 1464.36 1298.26 t 0 r /Helvetica findfont 64.4212 sf 0 0 m (t) show NC gr  0.6 1 0.6 c 1338 1284 m 107 X 75 Y -107 X f black 1338 1359 m 107 X s 1338 1284 m 107 X s 1445 1284 m 75 Y s 1338 1284 m 75 Y s
 gsave  2263 1770 2 313 C 1464.36 1193.18 t 0 r /Helvetica findfont 64.4212 sf 0 0 m (Z+jets) show NC gr  1 0.8 0.4 c 1338 1178 m 107 X 75 Y -107 X f black 1338 1253 m 107 X s 1338 1178 m 107 X s 1445 1178 m 75 Y s 1338 1178 m 75 Y s
 gsave  2263 1770 2 313 C 1464.36 1088.1 t 0 r /Helvetica findfont 64.4212 sf 0 0 m (Diboson) show NC gr  1 0.4 0.6 c 1338 1072 m 107 X 74 Y -107 X f black 1338 1146 m 107 X s 1338 1072 m 107 X s 1445 1072 m 74 Y s 1338 1072 m 74 Y s
 gsave  2263 1770 2 313 C 911.832 1566.05 t 0 r /Helvetica findfont 44.0776 sf 0 0 m (\2551) show NC gr 
 gsave  2263 1770 2 313 C 471.17 1535.54 t 0 r /Helvetica findfont 64.4212 sf 0 0 m (=13TeV, 139 fb) show NC gr 
 gsave  2263 1770 2 313 C 440.662 1535.54 t 0 r /Helvetica findfont 64.4212 sf 0 0 m (s) show NC gr  6 lw 420 1573 m 7 -41 d s 3 lw 427 1532 m 7 61 d s 434 1593 m 37 X s 1 1 1 c 2254 561 2 2 bf black 1 1 1 c black 1860 358 318 187 bl 1 1 1 c black
 1860 358 318 187 bl 6 lw 1 1 1 c black 3 lw 389 364 m20 6 lw 3 lw 533 361 m20 6 lw 3 lw 676 371 m20 6 lw 3 lw 819 384 m20 6 lw 3 lw 962 365 m20 6 lw 3 lw 1105 374 m20 6 lw 3 lw 1248 341 m20 6 lw 3 lw 1391 388 m20 6 lw 3 lw 1534 361 m20 6 lw 3 lw 318
 187 m 1860 X s
 gsave  2254 561 2 2 C 2105.01 64.4045 t 0 r /Helvetica findfont 50.9797 sf 0 0 m (1/2) show NC gr 
 gsave  2254 561 2 2 C 1888.07 23.728 t 0 r /Helvetica findfont 78.1689 sf 0 0 m ( [GeV]) show NC gr 
 gsave  2254 561 2 2 C 1857.56 3.38971 t 0 r /Helvetica findfont 50.9797 sf 0 0 m (T) show NC gr 
 gsave  2254 561 2 2 C 1806.72 23.728 t 0 r /Helvetica findfont 78.1689 sf 0 0 m (H) show NC gr  6 lw 1773 81 m 10 -78 d s 3 lw 1783 3 m 14 99 d s 1797 102 m 91 X s
 gsave  2254 561 2 2 C 1735.53 23.728 t 0 r /Helvetica findfont 78.1689 sf 0 0 m (/) show NC gr 
 gsave  2254 561 2 2 C 1630.45 61.0148 t 0 r /Helvetica findfont 50.9797 sf 0 0 m (miss) show NC gr 
 gsave  2254 561 2 2 C 1630.45 3.38971 t 0 r /Helvetica findfont 50.9797 sf 0 0 m (T) show NC gr 
 gsave  2254 561 2 2 C 1579.61 23.728 t 0 r /Helvetica findfont 78.1689 sf 0 0 m (E) show NC gr  318 201 m -14 Y s 389 194 m -7 Y s 461 194 m -7 Y s 533 194 m -7 Y s 604 194 m -7 Y s 676 201 m -14 Y s 747 194 m -7 Y s 819 194 m -7 Y s 890 194 m -7 Y
 s 962 194 m -7 Y s 1033 201 m -14 Y s 1105 194 m -7 Y s 1177 194 m -7 Y s 1248 194 m -7 Y s 1320 194 m -7 Y s 1391 201 m -14 Y s 1463 194 m -7 Y s 1534 194 m -7 Y s 1606 194 m -7 Y s 1677 194 m -7 Y s 1749 201 m -14 Y s 1821 194 m -7 Y s 1892 194 m
 -7 Y s 1964 194 m -7 Y s 2035 194 m -7 Y s 2107 201 m -14 Y s 2107 201 m -14 Y s 2178 194 m -7 Y s
 gsave  2254 561 2 2 C 271.177 118.64 t 0 r /Helvetica findfont 78.1689 sf 0 0 m (10) show NC gr 
 gsave  2254 561 2 2 C 630.486 118.64 t 0 r /Helvetica findfont 78.1689 sf 0 0 m (15) show NC gr 
 gsave  2254 561 2 2 C 986.406 118.64 t 0 r /Helvetica findfont 78.1689 sf 0 0 m (20) show NC gr 
 gsave  2254 561 2 2 C 1345.72 118.64 t 0 r /Helvetica findfont 78.1689 sf 0 0 m (25) show NC gr 
 gsave  2254 561 2 2 C 1701.63 118.64 t 0 r /Helvetica findfont 78.1689 sf 0 0 m (30) show NC gr 
 gsave  2254 561 2 2 C 2060.94 118.64 t 0 r /Helvetica findfont 78.1689 sf 0 0 m (35) show NC gr  318 545 m 1860 X s 318 531 m 14 Y s 389 538 m 7 Y s 461 538 m 7 Y s 533 538 m 7 Y s 604 538 m 7 Y s 676 531 m 14 Y s 747 538 m 7 Y s 819 538 m 7 Y s 890
 538 m 7 Y s 962 538 m 7 Y s 1033 531 m 14 Y s 1105 538 m 7 Y s 1177 538 m 7 Y s 1248 538 m 7 Y s 1320 538 m 7 Y s 1391 531 m 14 Y s 1463 538 m 7 Y s 1534 538 m 7 Y s 1606 538 m 7 Y s 1677 538 m 7 Y s 1749 531 m 14 Y s 1821 538 m 7 Y s 1892 538 m 7 Y
 s 1964 538 m 7 Y s 2035 538 m 7 Y s 2107 531 m 14 Y s 2107 531 m 14 Y s 2178 538 m 7 Y s 318 187 m 358 Y s
 gsave  2254 561 2 2 C 166.096 284.736 t 90 r /Helvetica findfont 67.9729 sf 0 0 m (Data/SM) show NC gr  361 203 m -43 X s 339 220 m -21 X s 339 236 m -21 X s 339 252 m -21 X s 339 268 m -21 X s 361 285 m -43 X s 339 301 m -21 X s 339 317 m -21 X s
 339 334 m -21 X s 339 350 m -21 X s 361 366 m -43 X s 339 382 m -21 X s 339 399 m -21 X s 339 415 m -21 X s 339 431 m -21 X s 361 447 m -43 X s 339 464 m -21 X s 339 480 m -21 X s 339 496 m -21 X s 339 512 m -21 X s 361 529 m -43 X s 361 203 m -43 X
 s 339 187 m -21 X s 361 529 m -43 X s
 gsave  2254 561 2 2 C 261.008 183.044 t 0 r /Helvetica findfont 57.777 sf 0 0 m (0) show NC gr 
 gsave  2254 561 2 2 C 213.552 261.008 t 0 r /Helvetica findfont 57.777 sf 0 0 m (0.5) show NC gr 
 gsave  2254 561 2 2 C 271.177 342.361 t 0 r /Helvetica findfont 57.777 sf 0 0 m (1) show NC gr 
 gsave  2254 561 2 2 C 213.552 423.714 t 0 r /Helvetica findfont 57.777 sf 0 0 m (1.5) show NC gr 
 gsave  2254 561 2 2 C 261.008 505.067 t 0 r /Helvetica findfont 57.777 sf 0 0 m (2) show NC gr  2178 187 m 358 Y s 2135 203 m 43 X s 2157 220 m 21 X s 2157 236 m 21 X s 2157 252 m 21 X s 2157 268 m 21 X s 2135 285 m 43 X s 2157 301 m 21 X s 2157 317
 m 21 X s 2157 334 m 21 X s 2157 350 m 21 X s 2135 366 m 43 X s 2157 382 m 21 X s 2157 399 m 21 X s 2157 415 m 21 X s 2157 431 m 21 X s 2135 447 m 43 X s 2157 464 m 21 X s 2157 480 m 21 X s 2157 496 m 21 X s 2157 512 m 21 X s 2135 529 m 43 X s 2135
 203 m 43 X s 2157 187 m 21 X s 2135 529 m 43 X s 9 lw 1105 387 m 6 Y s 1105 393 m cl s 1105 360 m -5 Y s 1105 355 m cl s 1248 355 m 10 Y s 1248 365 m cl s 1248 328 m -10 Y s 1248 318 m cl s 1391 402 m 25 Y s 1391 427 m cl s 1391 374 m -24 Y s 1391
 350 m cl s 1534 375 m 37 Y s 1534 412 m cl s 1534 348 m -36 Y s 1534 312 m cl s 3 lw 389 364 533 361 676 371 819 384 962 365 1105 374 1248 341 1391 388 1534 361 9 { m20} R 9 lw 1 0 0 c 6 lw black 3 lw 1 0 0 c 2178 341 m -3 -4 d s 2178 369 m -32 -32
 d s 2175 395 m -58 -58 d s 2146 395 m -57 -58 d s 2118 395 m -58 -58 d s 2089 395 m -54 -54 d s 2060 395 m -50 -50 d s 2024 387 m -43 -42 d s 1996 387 m -43 -42 d s 1967 387 m -43 -42 d s 1938 387 m -43 -42 d s 1892 342 m -1 Y s 1909 387 m -46 -46 d
 s 1884 391 m -50 -50 d s 1856 391 m -50 -50 d s 1827 391 m -50 -50 d s 1798 391 m -49 -49 d s 1770 391 m -39 -39 d s 1730 380 m -28 -28 d s 1701 380 m -27 -28 d s 1672 380 m -27 -28 d s 1643 380 m -27 -28 d s 1615 380 m -29 -29 d s 1588 381 m -31
 -30 d s 1559 381 m -31 -30 d s 1530 381 m -30 -30 d s 1502 381 m -31 -30 d s 1473 381 m -24 -24 d s 1438 375 m -18 -18 d s 1409 375 m -18 -18 d s 1381 375 m -18 -18 d s 1352 375 m -18 -18 d s 1323 375 m -17 -17 d s 1293 374 m -15 -16 d s 1265 374 m
 -16 -16 d s 1236 374 m -16 -16 d s 1207 374 m -15 -16 d s 1179 374 m -15 -14 d s 1148 372 m -12 -12 d s 1120 372 m -13 -12 d s 1091 372 m -13 -12 d s 1062 372 m -12 -12 d s 1034 372 m -1 X s 1033 371 m -11 -10 d s 1004 371 m -11 -10 d s 975 371 m
 -10 -10 d s 947 371 m -11 -10 d s 918 371 m -11 -10 d s 888 371 m -9 -10 d s 860 371 m -9 -10 d s 831 371 m -9 -10 d s 802 371 m -9 -10 d s 774 371 m -9 -10 d s 746 371 m -11 -10 d s 717 371 m -10 -10 d s 688 371 m -10 -10 d s 659 371 m -10 -10 d s
 631 371 m -10 -10 d s 601 370 m -8 -8 d s 572 370 m -7 -8 d s 543 370 m -7 -8 d s 515 370 m -8 -8 d s 486 370 m -7 -8 d s 456 369 m -5 -6 d s 318 231 m s 428 369 m -6 -6 d s 318 259 m s 399 369 m -6 -6 d s 318 288 m s 370 369 m -6 -6 d s 318 317 m s
 342 369 m -6 -6 d s 318 345 m s 6 lw 0 0 1 c 9 lw 1677 496 m 30 Y s 3 lw 1666 526 m 11 19 d 11 -19 d f 9 lw 1666 526 m 11 19 d 11 -19 d -22 X cl s black[ 4 8] 0 sd 3 lw 318 447 m 1860 X s 318 285 m 1860 X s 1 0 0 c[  12 12 ] 0 sd 6 lw 318 366 m 1860
 X s
 gr  gr showpage
end
%%EOF
