%!PS-Adobe-2.0 EPSF-2.0
%%BoundingBox:  0 0 567 521
%%Title: Distributions/metsqrtmeffInc_met_distrCRW_MB-SSd_afterFit_forThesis.eps: canvas
%%Creator: ROOT Version 6.04/16
%%CreationDate: Tue May 19 22:05:43 2020
%%DocumentNeededResources: ProcSet (FontSetInit)
%%EndComments
%%BeginProlog
80 dict begin
/s {stroke} def /l {lineto} def /m {moveto} def /t {translate} def
/r {rotate} def /rl {roll}  def /R {repeat} def
/d {rlineto} def /rm {rmoveto} def /gr {grestore} def /f {eofill} def
/c {setrgbcolor} def /black {0 setgray} def /sd {setdash} def
/cl {closepath} def /sf {scalefont setfont} def /lw {setlinewidth} def
/box {m dup 0 exch d exch 0 d 0 exch neg d cl} def
/NC{systemdict begin initclip end}def/C{NC box clip newpath}def
/bl {box s} def /bf {gsave box gsave f grestore 1 lw [] 0 sd s grestore} def /Y { 0 exch d} def /X { 0 d} def 
/K {{pop pop 0 moveto} exch kshow} bind def
/ita {/ang 15 def gsave [1 0 ang dup sin exch cos div 1 0 0] concat} def 
/mp {newpath /y exch def /x exch def} def
/side {[w .77 mul w .23 mul] .385 w mul sd w 0 l currentpoint t -144 r} def
/mr {mp x y w2 0 360 arc} def /m24 {mr s} def /m20 {mr f} def
/mb {mp x y w2 add m w2 neg 0 d 0 w neg d w 0 d 0 w d cl} def
/mt {mp x y w2 add m w2 neg w neg d w 0 d cl} def
/m21 {mb f} def /m25 {mb s} def /m22 {mt f} def /m26{mt s} def
/m23 {mp x y w2 sub m w2 w d w neg 0 d cl f} def
/m27 {mp x y w2 add m w3 neg w2 neg d w3 w2 neg d w3 w2 d cl s} def
/m28 {mp x w2 sub y w2 sub w3 add m w3 0 d  0 w3 neg d w3 0 d 0 w3 d w3 0 d  0 w3 d w3 neg 0 d 0 w3 d w3 neg 0 d 0 w3 neg d w3 neg 0 d cl s } def
/m29 {mp gsave x w2 sub y w2 add w3 sub m currentpoint t 4 {side} repeat cl fill gr} def
/m30 {mp gsave x w2 sub y w2 add w3 sub m currentpoint t 4 {side} repeat cl s gr} def
/m31 {mp x y w2 sub m 0 w d x w2 sub y m w 0 d x w2 sub y w2 add m w w neg d x w2 sub y w2 sub m w w d s} def
/m32 {mp x y w2 sub m w2 w d w neg 0 d cl s} def
/m33 {mp x y w2 add m w3 neg w2 neg d w3 w2 neg d w3 w2 d cl f} def
/m34 {mp x w2 sub y w2 sub w3 add m w3 0 d  0 w3 neg d w3 0 d 0 w3 d w3 0 d  0 w3 d w3 neg 0 d 0 w3 d w3 neg 0 d 0 w3 neg d w3 neg 0 d cl f } def
/m2 {mp x y w2 sub m 0 w d x w2 sub y m w 0 d s} def
/m5 {mp x w2 sub y w2 sub m w w d x w2 sub y w2 add m w w neg d s} def
%%IncludeResource: ProcSet (FontSetInit)
%%IncludeResource: font Times-Roman
%%IncludeResource: font Times-Italic
%%IncludeResource: font Times-Bold
%%IncludeResource: font Times-BoldItalic
%%IncludeResource: font Helvetica
%%IncludeResource: font Helvetica-Oblique
%%IncludeResource: font Helvetica-Bold
%%IncludeResource: font Helvetica-BoldOblique
%%IncludeResource: font Courier
%%IncludeResource: font Courier-Oblique
%%IncludeResource: font Courier-Bold
%%IncludeResource: font Courier-BoldOblique
%%IncludeResource: font Symbol
%%IncludeResource: font ZapfDingbats
/reEncode {exch findfont dup length dict begin {1 index /FID eq  {pop pop} {def} ifelse } forall /Encoding exch def currentdict end dup /FontName get exch definefont pop } def [/Times-Bold /Times-Italic /Times-BoldItalic /Helvetica /Helvetica-Oblique
 /Helvetica-Bold /Helvetica-BoldOblique /Courier /Courier-Oblique /Courier-Bold /Courier-BoldOblique /Times-Roman /AvantGarde-Book /AvantGarde-BookOblique /AvantGarde-Demi /AvantGarde-DemiOblique /Bookman-Demi /Bookman-DemiItalic /Bookman-Light
 /Bookman-LightItalic /Helvetica-Narrow /Helvetica-Narrow-Bold /Helvetica-Narrow-BoldOblique /Helvetica-Narrow-Oblique /NewCenturySchlbk-Roman /NewCenturySchlbk-Bold /NewCenturySchlbk-BoldItalic /NewCenturySchlbk-Italic /Palatino-Bold
 /Palatino-BoldItalic /Palatino-Italic /Palatino-Roman ] {ISOLatin1Encoding reEncode } forall
%%EndProlog
%%BeginSetup
%%EndSetup
newpath  gsave  .25 .25 scale  gsave  0 0 t black[  ] 0 sd 3 lw 1 1 1 c 2268 2085 0 0 bf black 1 1 1 c 2263 1770 2 313 bf black 1 1 1 c black 1860 1145 319 584 bl 1 1 1 c black 1860 1145 319 584 bl 6 lw 1 1 1 c black 3 lw /w 33 def /w2 {w 2 div} def
 /w3 {w 3 div} def 366 1252 m20 6 lw 3 lw 459 1235 m20 6 lw 3 lw 552 1209 m20 6 lw 3 lw 645 1180 m20 6 lw 3 lw 738 1148 m20 6 lw 3 lw 831 1114 m20 6 lw 3 lw 924 1078 m20 6 lw 3 lw 1017 1037 m20 6 lw 3 lw 1110 998 m20 6 lw 3 lw 1203 960 m20 6 lw 1296
 859 m 5 Y s 1296 891 m 1 Y s 3 lw 1296 878 m20 6 lw 1389 842 m 8 Y s 1389 877 m 2 Y s 3 lw 1389 864 m20 6 lw 1482 762 m 28 Y s 1482 817 m 11 Y s 3 lw 1482 803 m20 6 lw 1575 735 m 38 Y s 1575 800 m 13 Y s 3 lw 1575 786 m20 6 lw 3 lw 319 584 m 1860 X
 s
 gsave  2263 1770 2 313 C 2101.62 396.596 t 0 r /Helvetica findfont 54.2494 sf 0 0 m (1/2) show NC gr 
 gsave  2263 1770 2 313 C 1874.51 355.92 t 0 r /Helvetica findfont 81.3741 sf 0 0 m ( [GeV]) show NC gr 
 gsave  2263 1770 2 313 C 1840.61 332.192 t 0 r /Helvetica findfont 54.2494 sf 0 0 m (T) show NC gr 
 gsave  2263 1770 2 313 C 1786.38 355.92 t 0 r /Helvetica findfont 81.3741 sf 0 0 m (H) show NC gr  6 lw 1749 417 m 14 -85 d s 3 lw 1763 332 m 13 105 d s 1776 437 m 99 X s
 gsave  2263 1770 2 313 C 1711.8 355.92 t 0 r /Helvetica findfont 81.3741 sf 0 0 m (/) show NC gr 
 gsave  2263 1770 2 313 C 1599.94 396.596 t 0 r /Helvetica findfont 54.2494 sf 0 0 m (miss) show NC gr 
 gsave  2263 1770 2 313 C 1599.94 332.192 t 0 r /Helvetica findfont 54.2494 sf 0 0 m (T) show NC gr 
 gsave  2263 1770 2 313 C 1549.1 355.92 t 0 r /Helvetica findfont 81.3741 sf 0 0 m (E) show NC gr  319 584 m cl s 366 584 m cl s 412 584 m cl s 459 584 m cl s 505 584 m cl s 552 584 m cl s 598 584 m cl s 645 584 m cl s 691 584 m cl s 738 584 m cl s
 784 584 m cl s 831 584 m cl s 877 584 m cl s 924 584 m cl s 970 584 m cl s 1017 584 m cl s 1063 584 m cl s 1110 584 m cl s 1156 584 m cl s 1203 584 m cl s 1249 584 m cl s 1296 584 m cl s 1342 584 m cl s 1389 584 m cl s 1435 584 m cl s 1482 584 m cl
 s 1528 584 m cl s 1575 584 m cl s 1621 584 m cl s 1668 584 m cl s 1714 584 m cl s 1761 584 m cl s 1807 584 m cl s 1854 584 m cl s 1900 584 m cl s 1947 584 m cl s 1993 584 m cl s 2040 584 m cl s 2086 584 m cl s 2133 584 m cl s 2179 584 m cl s 319
 1729 m 1860 X s 319 1729 m cl s 366 1729 m cl s 412 1729 m cl s 459 1729 m cl s 505 1729 m cl s 552 1729 m cl s 598 1729 m cl s 645 1729 m cl s 691 1729 m cl s 738 1729 m cl s 784 1729 m cl s 831 1729 m cl s 877 1729 m cl s 924 1729 m cl s 970 1729
 m cl s 1017 1729 m cl s 1063 1729 m cl s 1110 1729 m cl s 1156 1729 m cl s 1203 1729 m cl s 1249 1729 m cl s 1296 1729 m cl s 1342 1729 m cl s 1389 1729 m cl s 1435 1729 m cl s 1482 1729 m cl s 1528 1729 m cl s 1575 1729 m cl s 1621 1729 m cl s 1668
 1729 m cl s 1714 1729 m cl s 1761 1729 m cl s 1807 1729 m cl s 1854 1729 m cl s 1900 1729 m cl s 1947 1729 m cl s 1993 1729 m cl s 2040 1729 m cl s 2086 1729 m cl s 2133 1729 m cl s 2179 1729 m cl s 319 584 m 1145 Y s
 gsave  2263 1770 2 313 C 125.419 1654.18 t 90 r /Helvetica findfont 54.2494 sf 0 0 m (1/2) show NC gr 
 gsave  2263 1770 2 313 C 166.096 1064.37 t 90 r /Helvetica findfont 81.3741 sf 0 0 m (Events / 2 [GeV]) show NC gr  341 625 m -22 X s 341 650 m -22 X s 341 667 m -22 X s 341 680 m -22 X s 341 691 m -22 X s 341 700 m -22 X s 341 708 m -22 X s 341 715
 m -22 X s 363 721 m -44 X s
 gsave  2263 1770 2 313 C 300.555 693.968 t 0 r  -36 0 t /Helvetica findfont 64.4212 sf 0 0 m (1) show NC gr  341 762 m -22 X s 341 786 m -22 X s 341 803 m -22 X s 341 817 m -22 X s 341 828 m -22 X s 341 837 m -22 X s 341 845 m -22 X s 341 852 m -22
 X s 363 858 m -44 X s
 gsave  2263 1770 2 313 C 300.555 830.744 t 0 r  -73 0 t /Helvetica findfont 64.4212 sf 0 0 m (10) show NC gr  341 899 m -22 X s 341 923 m -22 X s 341 940 m -22 X s 341 953 m -22 X s 341 964 m -22 X s 341 973 m -22 X s 341 981 m -22 X s 341 988 m -22
 X s 363 995 m -44 X s
 gsave  2263 1770 2 313 C 274.567 993.185 t 0 r /Helvetica findfont 44.0776 sf 0 0 m (2) show NC gr 
 gsave  2263 1770 2 313 C 203.383 966.068 t 0 r /Helvetica findfont 64.4212 sf 0 0 m (10) show NC gr  341 1036 m -22 X s 341 1060 m -22 X s 341 1077 m -22 X s 341 1090 m -22 X s 341 1101 m -22 X s 341 1110 m -22 X s 341 1118 m -22 X s 341 1125 m -22
 X s 363 1131 m -44 X s
 gsave  2263 1770 2 313 C 274.567 1132.16 t 0 r /Helvetica findfont 44.0776 sf 0 0 m (3) show NC gr 
 gsave  2263 1770 2 313 C 203.383 1101.66 t 0 r /Helvetica findfont 64.4212 sf 0 0 m (10) show NC gr  341 1173 m -22 X s 341 1197 m -22 X s 341 1214 m -22 X s 341 1227 m -22 X s 341 1238 m -22 X s 341 1247 m -22 X s 341 1255 m -22 X s 341 1262 m -22
 X s 363 1268 m -44 X s
 gsave  2263 1770 2 313 C 274.567 1267.75 t 0 r /Helvetica findfont 44.0776 sf 0 0 m (4) show NC gr 
 gsave  2263 1770 2 313 C 203.383 1240.63 t 0 r /Helvetica findfont 64.4212 sf 0 0 m (10) show NC gr  341 1309 m -22 X s 341 1333 m -22 X s 341 1351 m -22 X s 341 1364 m -22 X s 341 1375 m -22 X s 341 1384 m -22 X s 341 1392 m -22 X s 341 1399 m -22
 X s 363 1405 m -44 X s
 gsave  2263 1770 2 313 C 274.567 1406.73 t 0 r /Helvetica findfont 44.0776 sf 0 0 m (5) show NC gr 
 gsave  2263 1770 2 313 C 203.383 1376.22 t 0 r /Helvetica findfont 64.4212 sf 0 0 m (10) show NC gr  341 1446 m -22 X s 341 1470 m -22 X s 341 1487 m -22 X s 341 1501 m -22 X s 341 1511 m -22 X s 341 1521 m -22 X s 341 1528 m -22 X s 341 1535 m -22
 X s 363 1542 m -44 X s
 gsave  2263 1770 2 313 C 274.567 1542.32 t 0 r /Helvetica findfont 44.0776 sf 0 0 m (6) show NC gr 
 gsave  2263 1770 2 313 C 203.383 1511.81 t 0 r /Helvetica findfont 64.4212 sf 0 0 m (10) show NC gr  341 1583 m -22 X s 341 1607 m -22 X s 341 1624 m -22 X s 341 1637 m -22 X s 341 1648 m -22 X s 341 1657 m -22 X s 341 1665 m -22 X s 341 1672 m -22
 X s 363 1679 m -44 X s
 gsave  2263 1770 2 313 C 274.567 1677.91 t 0 r /Helvetica findfont 44.0776 sf 0 0 m (7) show NC gr 
 gsave  2263 1770 2 313 C 203.383 1650.79 t 0 r /Helvetica findfont 64.4212 sf 0 0 m (10) show NC gr  341 1720 m -22 X s 2179 584 m 1145 Y s 2157 625 m 22 X s 2157 650 m 22 X s 2157 667 m 22 X s 2157 680 m 22 X s 2157 691 m 22 X s 2157 700 m 22 X s
 2157 708 m 22 X s 2157 715 m 22 X s 2136 721 m 43 X s 2157 762 m 22 X s 2157 786 m 22 X s 2157 803 m 22 X s 2157 817 m 22 X s 2157 828 m 22 X s 2157 837 m 22 X s 2157 845 m 22 X s 2157 852 m 22 X s 2136 858 m 43 X s 2157 899 m 22 X s 2157 923 m 22 X
 s 2157 940 m 22 X s 2157 953 m 22 X s 2157 964 m 22 X s 2157 973 m 22 X s 2157 981 m 22 X s 2157 988 m 22 X s 2136 995 m 43 X s 2157 1036 m 22 X s 2157 1060 m 22 X s 2157 1077 m 22 X s 2157 1090 m 22 X s 2157 1101 m 22 X s 2157 1110 m 22 X s 2157
 1118 m 22 X s 2157 1125 m 22 X s 2136 1131 m 43 X s 2157 1173 m 22 X s 2157 1197 m 22 X s 2157 1214 m 22 X s 2157 1227 m 22 X s 2157 1238 m 22 X s 2157 1247 m 22 X s 2157 1255 m 22 X s 2157 1262 m 22 X s 2136 1268 m 43 X s 2157 1309 m 22 X s 2157
 1333 m 22 X s 2157 1351 m 22 X s 2157 1364 m 22 X s 2157 1375 m 22 X s 2157 1384 m 22 X s 2157 1392 m 22 X s 2157 1399 m 22 X s 2136 1405 m 43 X s 2157 1446 m 22 X s 2157 1470 m 22 X s 2157 1487 m 22 X s 2157 1501 m 22 X s 2157 1511 m 22 X s 2157
 1521 m 22 X s 2157 1528 m 22 X s 2157 1535 m 22 X s 2136 1542 m 43 X s 2157 1583 m 22 X s 2157 1607 m 22 X s 2157 1624 m 22 X s 2157 1637 m 22 X s 2157 1648 m 22 X s 2157 1657 m 22 X s 2157 1665 m 22 X s 2157 1672 m 22 X s 2136 1679 m 43 X s 2157
 1720 m 22 X s 0.4 0.6 1 c black 0.4 0.6 1 c 319 584 m 669 Y 93 X -18 Y 93 X -27 Y 93 X -31 Y 93 X -30 Y 93 X -34 Y 93 X -37 Y 93 X -39 Y 93 X -45 Y 93 X -44 Y 93 X -46 Y 93 X -56 Y 93 X -43 Y 93 X -61 Y 93 X -66 Y 93 X -52 Y 93 X -40 Y 372 X f black
 0.4 0.6 1 c black 319 1253 m 93 X -18 Y 93 X -27 Y 93 X -31 Y 93 X -30 Y 93 X -34 Y 93 X -37 Y 93 X -39 Y 93 X -45 Y 93 X -44 Y 93 X -46 Y 93 X -56 Y 93 X -43 Y 93 X -61 Y 93 X -66 Y 93 X -52 Y 93 X -40 Y 372 X s 0.999 0.999 0.999 c black 0.999
 0.999 0.999 c 319 584 m 565 Y 93 X -18 Y 93 X -32 Y 93 X -36 Y 93 X -36 Y 93 X -37 Y 93 X -52 Y 93 X -36 Y 93 X -48 Y 93 X -50 Y 93 X -25 Y 93 X -66 Y 93 X -102 Y 93 X -21 Y 93 X -6 Y 558 X f black 0.999 0.999 0.999 c black 319 1149 m 93 X -18 Y 93
 X -32 Y 93 X -36 Y 93 X -36 Y 93 X -37 Y 93 X -52 Y 93 X -36 Y 93 X -48 Y 93 X -50 Y 93 X -25 Y 93 X -66 Y 93 X -102 Y 93 X -21 Y 93 X -6 Y 558 X s 1 1 1 c black 319 1149 m 93 X -18 Y 93 X -32 Y 93 X -36 Y 93 X -36 Y 93 X -37 Y 93 X -52 Y 93 X -36 Y
 93 X -48 Y 93 X -50 Y 93 X -25 Y 93 X -66 Y 93 X -102 Y 93 X -21 Y 93 X -6 Y 558 X s 0.6 1 0.6 c black 0.6 1 0.6 c 319 584 m 565 Y 93 X -18 Y 93 X -32 Y 93 X -36 Y 93 X -36 Y 93 X -37 Y 93 X -52 Y 93 X -36 Y 93 X -48 Y 93 X -50 Y 93 X -25 Y 93 X -66
 Y 93 X -102 Y 93 X -21 Y 93 X -6 Y 558 X f black 0.6 1 0.6 c black 319 1149 m 93 X -18 Y 93 X -32 Y 93 X -36 Y 93 X -36 Y 93 X -37 Y 93 X -52 Y 93 X -36 Y 93 X -48 Y 93 X -50 Y 93 X -25 Y 93 X -66 Y 93 X -102 Y 93 X -21 Y 93 X -6 Y 558 X s 0.999
 0.999 0.999 c black 0.999 0.999 0.999 c 319 584 m 502 Y 93 X -16 Y 93 X -25 Y 93 X -26 Y 93 X -30 Y 93 X -29 Y 93 X -42 Y 93 X -34 Y 93 X -40 Y 93 X -51 Y 93 X -19 Y 93 X -69 Y 93 X -100 Y 93 X -15 Y 93 X -6 Y 558 X f black 0.999 0.999 0.999 c black
 319 1086 m 93 X -16 Y 93 X -25 Y 93 X -26 Y 93 X -30 Y 93 X -29 Y 93 X -42 Y 93 X -34 Y 93 X -40 Y 93 X -51 Y 93 X -19 Y 93 X -69 Y 93 X -100 Y 93 X -15 Y 93 X -6 Y 558 X s 1 1 1 c black 319 1086 m 93 X -16 Y 93 X -25 Y 93 X -26 Y 93 X -30 Y 93 X
 -29 Y 93 X -42 Y 93 X -34 Y 93 X -40 Y 93 X -51 Y 93 X -19 Y 93 X -69 Y 93 X -100 Y 93 X -15 Y 93 X -6 Y 558 X s 1 0.8 0.4 c black 1 0.8 0.4 c 319 584 m 502 Y 93 X -16 Y 93 X -25 Y 93 X -26 Y 93 X -30 Y 93 X -29 Y 93 X -42 Y 93 X -34 Y 93 X -40 Y 93
 X -51 Y 93 X -19 Y 93 X -69 Y 93 X -100 Y 93 X -15 Y 93 X -6 Y 558 X f black 1 0.8 0.4 c black 319 1086 m 93 X -16 Y 93 X -25 Y 93 X -26 Y 93 X -30 Y 93 X -29 Y 93 X -42 Y 93 X -34 Y 93 X -40 Y 93 X -51 Y 93 X -19 Y 93 X -69 Y 93 X -100 Y 93 X -15 Y
 93 X -6 Y 558 X s 0.999 0.999 0.999 c black 0.999 0.999 0.999 c 319 584 m 494 Y 93 X -16 Y 93 X -23 Y 93 X -26 Y 93 X -30 Y 93 X -27 Y 93 X -42 Y 93 X -34 Y 93 X -40 Y 93 X -53 Y 93 X -19 Y 93 X -67 Y 93 X -117 Y 93 X 4 Y 93 X -4 Y 558 X f black
 0.999 0.999 0.999 c black 319 1078 m 93 X -16 Y 93 X -23 Y 93 X -26 Y 93 X -30 Y 93 X -27 Y 93 X -42 Y 93 X -34 Y 93 X -40 Y 93 X -53 Y 93 X -19 Y 93 X -67 Y 93 X -117 Y 93 X 4 Y 93 X -4 Y 558 X s 1 1 1 c black 319 1078 m 93 X -16 Y 93 X -23 Y 93 X
 -26 Y 93 X -30 Y 93 X -27 Y 93 X -42 Y 93 X -34 Y 93 X -40 Y 93 X -53 Y 93 X -19 Y 93 X -67 Y 93 X -117 Y 93 X 4 Y 93 X -4 Y 558 X s 1 0.4 0.6 c black 1 0.4 0.6 c 319 584 m 494 Y 93 X -16 Y 93 X -23 Y 93 X -26 Y 93 X -30 Y 93 X -27 Y 93 X -42 Y 93 X
 -34 Y 93 X -40 Y 93 X -53 Y 93 X -19 Y 93 X -67 Y 93 X -117 Y 93 X 4 Y 93 X -4 Y 558 X f black 1 0.4 0.6 c black 319 1078 m 93 X -16 Y 93 X -23 Y 93 X -26 Y 93 X -30 Y 93 X -27 Y 93 X -42 Y 93 X -34 Y 93 X -40 Y 93 X -53 Y 93 X -19 Y 93 X -67 Y 93 X
 -117 Y 93 X 4 Y 93 X -4 Y 558 X s 1 0 0 c 6 lw 1 1 1 c black 1 0 0 c 319 1253 m 93 X -18 Y 93 X -27 Y 93 X -31 Y 93 X -30 Y 93 X -34 Y 93 X -37 Y 93 X -39 Y 93 X -45 Y 93 X -44 Y 93 X -46 Y 93 X -56 Y 93 X -43 Y 93 X -61 Y 93 X -66 Y 93 X -52 Y 93 X
 -40 Y 372 X s black 3 lw 1 0 0 c 1 lw << /PatternType 1 /PaintType 2 /TilingType 1 /BBox [ 0 0 100 100 ] /XStep 100 /YStep 100 /PaintProc { begin gsave 0 100 m 100 0 l s gr end } >> [ 0.24 0 0 0.24 0 0 ] makepattern /P05 exch def /cs {[/Pattern
 /DeviceRGB] setcolorspace} def /FA {f [/DeviceRGB] setcolorspace} def cs 1 0 0 P05 setcolor 319 584 m 669 Y 93 X -17 Y 93 X -27 Y 93 X -31 Y 93 X -30 Y 93 X -34 Y 93 X -37 Y 93 X -39 Y 93 X -44 Y 93 X -44 Y 93 X -45 Y 93 X -54 Y 93 X -43 Y 93 X -57
 Y 93 X -63 Y 93 X -45 Y 93 X -59 Y 14 Y -93 X 63 Y -93 X 72 Y -93 X 65 Y -93 X 43 Y -93 X 58 Y -93 X 46 Y -93 X 45 Y -93 X 45 Y -93 X 40 Y -93 X 37 Y -93 X 34 Y -93 X 30 Y -93 X 32 Y -93 X 27 Y -93 X 18 Y -93 X -669 Y FA 6 lw 1 1 1 c 15 lw 1389 843
 m s 1389 843 m cl s 1482 824 m 5 Y s 1482 829 m cl s 1482 783 m -18 Y s 1482 765 m cl s 1575 807 m 9 Y s 1575 816 m cl s 1575 766 m -26 Y s 1575 740 m cl s black 1 1 1 c 3 lw /w 43 def /w2 {w 2 div} def /w3 {w 3 div} def 366 1252 459 1235 552 1209
 645 1180 738 1148 831 1114 924 1078 1017 1037 1110 998 1203 960 1296 878 1389 864 1482 803 1575 786 14 { m20} R 15 lw black 6 lw 1 1 1 c black 3 lw /w 33 def /w2 {w 2 div} def /w3 {w 3 div} def 366 1252 m20 6 lw 3 lw 459 1235 m20 6 lw 3 lw 552 1209
 m20 6 lw 3 lw 645 1180 m20 6 lw 3 lw 738 1148 m20 6 lw 3 lw 831 1114 m20 6 lw 3 lw 924 1078 m20 6 lw 3 lw 1017 1037 m20 6 lw 3 lw 1110 998 m20 6 lw 3 lw 1203 960 m20 6 lw 1296 859 m 5 Y s 1296 891 m 1 Y s 3 lw 1296 878 m20 6 lw 1389 842 m 8 Y s 1389
 877 m 2 Y s 3 lw 1389 864 m20 6 lw 1482 762 m 28 Y s 1482 817 m 11 Y s 3 lw 1482 803 m20 6 lw 1575 735 m 38 Y s 1575 800 m 13 Y s 3 lw 1575 786 m20 6 lw 1296 891 m 1 Y s 1296 892 m cl s 1296 864 m -4 Y s 1296 860 m cl s 1389 877 m 2 Y s 1389 879 m
 cl s 1389 850 m -7 Y s 1389 843 m cl s 1482 817 m 12 Y s 1482 829 m cl s 1482 790 m -25 Y s 1482 765 m cl s 1575 800 m 16 Y s 1575 816 m cl s 1575 773 m -33 Y s 1575 740 m cl s 3 lw 366 1252 459 1235 552 1209 645 1180 738 1148 831 1114 924 1078 1017
 1037 1110 998 1203 960 1296 878 1389 864 1482 803 1575 786 14 { m20} R 6 lw 3 lw 319 584 m 1860 X s 319 584 m cl s 366 584 m cl s 412 584 m cl s 459 584 m cl s 505 584 m cl s 552 584 m cl s 598 584 m cl s 645 584 m cl s 691 584 m cl s 738 584 m cl s
 784 584 m cl s 831 584 m cl s 877 584 m cl s 924 584 m cl s 970 584 m cl s 1017 584 m cl s 1063 584 m cl s 1110 584 m cl s 1156 584 m cl s 1203 584 m cl s 1249 584 m cl s 1296 584 m cl s 1342 584 m cl s 1389 584 m cl s 1435 584 m cl s 1482 584 m cl
 s 1528 584 m cl s 1575 584 m cl s 1621 584 m cl s 1668 584 m cl s 1714 584 m cl s 1761 584 m cl s 1807 584 m cl s 1854 584 m cl s 1900 584 m cl s 1947 584 m cl s 1993 584 m cl s 2040 584 m cl s 2086 584 m cl s 2133 584 m cl s 2179 584 m cl s 319
 1729 m 1860 X s 319 1729 m cl s 366 1729 m cl s 412 1729 m cl s 459 1729 m cl s 505 1729 m cl s 552 1729 m cl s 598 1729 m cl s 645 1729 m cl s 691 1729 m cl s 738 1729 m cl s 784 1729 m cl s 831 1729 m cl s 877 1729 m cl s 924 1729 m cl s 970 1729
 m cl s 1017 1729 m cl s 1063 1729 m cl s 1110 1729 m cl s 1156 1729 m cl s 1203 1729 m cl s 1249 1729 m cl s 1296 1729 m cl s 1342 1729 m cl s 1389 1729 m cl s 1435 1729 m cl s 1482 1729 m cl s 1528 1729 m cl s 1575 1729 m cl s 1621 1729 m cl s 1668
 1729 m cl s 1714 1729 m cl s 1761 1729 m cl s 1807 1729 m cl s 1854 1729 m cl s 1900 1729 m cl s 1947 1729 m cl s 1993 1729 m cl s 2040 1729 m cl s 2086 1729 m cl s 2133 1729 m cl s 2179 1729 m cl s 319 584 m 1145 Y s 341 625 m -22 X s 341 650 m -22
 X s 341 667 m -22 X s 341 680 m -22 X s 341 691 m -22 X s 341 700 m -22 X s 341 708 m -22 X s 341 715 m -22 X s 363 721 m -44 X s 341 762 m -22 X s 341 786 m -22 X s 341 803 m -22 X s 341 817 m -22 X s 341 828 m -22 X s 341 837 m -22 X s 341 845 m
 -22 X s 341 852 m -22 X s 363 858 m -44 X s 341 899 m -22 X s 341 923 m -22 X s 341 940 m -22 X s 341 953 m -22 X s 341 964 m -22 X s 341 973 m -22 X s 341 981 m -22 X s 341 988 m -22 X s 363 995 m -44 X s 341 1036 m -22 X s 341 1060 m -22 X s 341
 1077 m -22 X s 341 1090 m -22 X s 341 1101 m -22 X s 341 1110 m -22 X s 341 1118 m -22 X s 341 1125 m -22 X s 363 1131 m -44 X s 341 1173 m -22 X s 341 1197 m -22 X s 341 1214 m -22 X s 341 1227 m -22 X s 341 1238 m -22 X s 341 1247 m -22 X s 341
 1255 m -22 X s 341 1262 m -22 X s 363 1268 m -44 X s 341 1309 m -22 X s 341 1333 m -22 X s 341 1351 m -22 X s 341 1364 m -22 X s 341 1375 m -22 X s 341 1384 m -22 X s 341 1392 m -22 X s 341 1399 m -22 X s 363 1405 m -44 X s 341 1446 m -22 X s 341
 1470 m -22 X s 341 1487 m -22 X s 341 1501 m -22 X s 341 1511 m -22 X s 341 1521 m -22 X s 341 1528 m -22 X s 341 1535 m -22 X s 363 1542 m -44 X s 341 1583 m -22 X s 341 1607 m -22 X s 341 1624 m -22 X s 341 1637 m -22 X s 341 1648 m -22 X s 341
 1657 m -22 X s 341 1665 m -22 X s 341 1672 m -22 X s 363 1679 m -44 X s 341 1720 m -22 X s 2179 584 m 1145 Y s 2157 625 m 22 X s 2157 650 m 22 X s 2157 667 m 22 X s 2157 680 m 22 X s 2157 691 m 22 X s 2157 700 m 22 X s 2157 708 m 22 X s 2157 715 m
 22 X s 2136 721 m 43 X s 2157 762 m 22 X s 2157 786 m 22 X s 2157 803 m 22 X s 2157 817 m 22 X s 2157 828 m 22 X s 2157 837 m 22 X s 2157 845 m 22 X s 2157 852 m 22 X s 2136 858 m 43 X s 2157 899 m 22 X s 2157 923 m 22 X s 2157 940 m 22 X s 2157 953
 m 22 X s 2157 964 m 22 X s 2157 973 m 22 X s 2157 981 m 22 X s 2157 988 m 22 X s 2136 995 m 43 X s 2157 1036 m 22 X s 2157 1060 m 22 X s 2157 1077 m 22 X s 2157 1090 m 22 X s 2157 1101 m 22 X s 2157 1110 m 22 X s 2157 1118 m 22 X s 2157 1125 m 22 X
 s 2136 1131 m 43 X s 2157 1173 m 22 X s 2157 1197 m 22 X s 2157 1214 m 22 X s 2157 1227 m 22 X s 2157 1238 m 22 X s 2157 1247 m 22 X s 2157 1255 m 22 X s 2157 1262 m 22 X s 2136 1268 m 43 X s 2157 1309 m 22 X s 2157 1333 m 22 X s 2157 1351 m 22 X s
 2157 1364 m 22 X s 2157 1375 m 22 X s 2157 1384 m 22 X s 2157 1392 m 22 X s 2157 1399 m 22 X s 2136 1405 m 43 X s 2157 1446 m 22 X s 2157 1470 m 22 X s 2157 1487 m 22 X s 2157 1501 m 22 X s 2157 1511 m 22 X s 2157 1521 m 22 X s 2157 1528 m 22 X s
 2157 1535 m 22 X s 2136 1542 m 43 X s 2157 1583 m 22 X s 2157 1607 m 22 X s 2157 1624 m 22 X s 2157 1637 m 22 X s 2157 1648 m 22 X s 2157 1657 m 22 X s 2157 1665 m 22 X s 2157 1672 m 22 X s 2136 1679 m 43 X s 2157 1720 m 22 X s
 gsave  2263 1770 2 313 C 406.765 1447.41 t 0 r /Helvetica findfont 64.4212 sf 0 0 m (CRW for MB\255SSd) show NC gr 
 gsave  2263 1770 2 313 C 1464.36 1616.89 t 0 r /Helvetica findfont 64.4212 sf 0 0 m (SM Total) show NC gr  1 1 1 c 1338 1603 m 107 X 74 Y -107 X f 1 0 0 c 6 lw 1338 1640 m 107 X s black
 gsave  2263 1770 2 313 C 1464.36 1511.81 t 0 r /Helvetica findfont 64.4212 sf 0 0 m (Data) show NC gr  1391 1502 m 64 Y s 3 lw 1391 1534 m20 6 lw
 gsave  2263 1770 2 313 C 1464.36 1406.73 t 0 r /Helvetica findfont 64.4212 sf 0 0 m (W+jets) show NC gr  0.4 0.6 1 c 3 lw 1338 1391 m 107 X 74 Y -107 X f 6 lw black 3 lw 1338 1465 m 107 X s 1338 1391 m 107 X s 1445 1391 m 74 Y s 1338 1391 m 74 Y s
 gsave  2263 1770 2 313 C 1498.25 1298.26 t 0 r /Helvetica findfont 64.4212 sf 0 0 m (\(+EW\) & single top) show NC gr 
 gsave  2263 1770 2 313 C 1481.3 1298.26 t 0 r /Helvetica findfont 64.4212 sf 0 0 m (t) show NC gr  1481 1349 m 17 X s
 gsave  2263 1770 2 313 C 1464.36 1298.26 t 0 r /Helvetica findfont 64.4212 sf 0 0 m (t) show NC gr  0.6 1 0.6 c 1338 1284 m 107 X 75 Y -107 X f black 1338 1359 m 107 X s 1338 1284 m 107 X s 1445 1284 m 75 Y s 1338 1284 m 75 Y s
 gsave  2263 1770 2 313 C 1464.36 1193.18 t 0 r /Helvetica findfont 64.4212 sf 0 0 m (Z+jets) show NC gr  1 0.8 0.4 c 1338 1178 m 107 X 75 Y -107 X f black 1338 1253 m 107 X s 1338 1178 m 107 X s 1445 1178 m 75 Y s 1338 1178 m 75 Y s
 gsave  2263 1770 2 313 C 1464.36 1088.1 t 0 r /Helvetica findfont 64.4212 sf 0 0 m (Diboson) show NC gr  1 0.4 0.6 c 1338 1072 m 107 X 74 Y -107 X f black 1338 1146 m 107 X s 1338 1072 m 107 X s 1445 1072 m 74 Y s 1338 1072 m 74 Y s
 gsave  2263 1770 2 313 C 911.832 1566.05 t 0 r /Helvetica findfont 44.0776 sf 0 0 m (\2551) show NC gr 
 gsave  2263 1770 2 313 C 471.17 1535.54 t 0 r /Helvetica findfont 64.4212 sf 0 0 m (=13TeV, 139 fb) show NC gr 
 gsave  2263 1770 2 313 C 440.662 1535.54 t 0 r /Helvetica findfont 64.4212 sf 0 0 m (s) show NC gr  6 lw 420 1573 m 7 -41 d s 3 lw 427 1532 m 7 61 d s 434 1593 m 37 X s 1 1 1 c 2254 561 2 2 bf black 1 1 1 c black 1860 358 318 187 bl 1 1 1 c black
 1860 358 318 187 bl 6 lw 1 1 1 c black 3 lw 364 363 m20 6 lw 3 lw 457 364 m20 6 lw 3 lw 550 368 m20 6 lw 3 lw 643 375 m20 6 lw 3 lw 736 370 m20 6 lw 3 lw 829 369 m20 6 lw 3 lw 923 373 m20 6 lw 3 lw 1016 368 m20 6 lw 3 lw 1109 382 m20 6 lw 3 lw 1202
 405 m20 6 lw 3 lw 1295 311 m20 6 lw 3 lw 1388 422 m20 6 lw 3 lw 1481 367 m20 6 lw 3 lw 318 187 m 1860 X s
 gsave  2254 561 2 2 C 2105.01 64.4045 t 0 r /Helvetica findfont 50.9797 sf 0 0 m (1/2) show NC gr 
 gsave  2254 561 2 2 C 1888.07 23.728 t 0 r /Helvetica findfont 78.1689 sf 0 0 m ( [GeV]) show NC gr 
 gsave  2254 561 2 2 C 1857.56 3.38971 t 0 r /Helvetica findfont 50.9797 sf 0 0 m (T) show NC gr 
 gsave  2254 561 2 2 C 1806.72 23.728 t 0 r /Helvetica findfont 78.1689 sf 0 0 m (H) show NC gr  6 lw 1773 81 m 10 -78 d s 3 lw 1783 3 m 14 99 d s 1797 102 m 91 X s
 gsave  2254 561 2 2 C 1735.53 23.728 t 0 r /Helvetica findfont 78.1689 sf 0 0 m (/) show NC gr 
 gsave  2254 561 2 2 C 1630.45 61.0148 t 0 r /Helvetica findfont 50.9797 sf 0 0 m (miss) show NC gr 
 gsave  2254 561 2 2 C 1630.45 3.38971 t 0 r /Helvetica findfont 50.9797 sf 0 0 m (T) show NC gr 
 gsave  2254 561 2 2 C 1579.61 23.728 t 0 r /Helvetica findfont 78.1689 sf 0 0 m (E) show NC gr  318 201 m -14 Y s 364 194 m -7 Y s 411 194 m -7 Y s 457 194 m -7 Y s 504 194 m -7 Y s 550 201 m -14 Y s 597 194 m -7 Y s 643 194 m -7 Y s 690 194 m -7 Y
 s 736 194 m -7 Y s 783 201 m -14 Y s 829 194 m -7 Y s 876 194 m -7 Y s 923 194 m -7 Y s 969 194 m -7 Y s 1016 201 m -14 Y s 1062 194 m -7 Y s 1109 194 m -7 Y s 1155 194 m -7 Y s 1202 194 m -7 Y s 1248 201 m -14 Y s 1295 194 m -7 Y s 1341 194 m -7 Y
 s 1388 194 m -7 Y s 1434 194 m -7 Y s 1481 201 m -14 Y s 1527 194 m -7 Y s 1574 194 m -7 Y s 1620 194 m -7 Y s 1667 194 m -7 Y s 1713 201 m -14 Y s 1760 194 m -7 Y s 1806 194 m -7 Y s 1853 194 m -7 Y s 1899 194 m -7 Y s 1946 201 m -14 Y s 1992 194 m
 -7 Y s 2039 194 m -7 Y s 2085 194 m -7 Y s 2132 194 m -7 Y s 2178 201 m -14 Y s
 gsave  2254 561 2 2 C 271.177 118.64 t 0 r /Helvetica findfont 78.1689 sf 0 0 m (10) show NC gr 
 gsave  2254 561 2 2 C 505.067 118.64 t 0 r /Helvetica findfont 78.1689 sf 0 0 m (15) show NC gr 
 gsave  2254 561 2 2 C 735.567 118.64 t 0 r /Helvetica findfont 78.1689 sf 0 0 m (20) show NC gr 
 gsave  2254 561 2 2 C 969.457 118.64 t 0 r /Helvetica findfont 78.1689 sf 0 0 m (25) show NC gr 
 gsave  2254 561 2 2 C 1203.35 118.64 t 0 r /Helvetica findfont 78.1689 sf 0 0 m (30) show NC gr 
 gsave  2254 561 2 2 C 1433.85 118.64 t 0 r /Helvetica findfont 78.1689 sf 0 0 m (35) show NC gr 
 gsave  2254 561 2 2 C 1667.74 118.64 t 0 r /Helvetica findfont 78.1689 sf 0 0 m (40) show NC gr 
 gsave  2254 561 2 2 C 1901.63 118.64 t 0 r /Helvetica findfont 78.1689 sf 0 0 m (45) show NC gr 
 gsave  2254 561 2 2 C 2132.13 118.64 t 0 r /Helvetica findfont 78.1689 sf 0 0 m (50) show NC gr  318 545 m 1860 X s 318 531 m 14 Y s 364 538 m 7 Y s 411 538 m 7 Y s 457 538 m 7 Y s 504 538 m 7 Y s 550 531 m 14 Y s 597 538 m 7 Y s 643 538 m 7 Y s 690
 538 m 7 Y s 736 538 m 7 Y s 783 531 m 14 Y s 829 538 m 7 Y s 876 538 m 7 Y s 923 538 m 7 Y s 969 538 m 7 Y s 1016 531 m 14 Y s 1062 538 m 7 Y s 1109 538 m 7 Y s 1155 538 m 7 Y s 1202 538 m 7 Y s 1248 531 m 14 Y s 1295 538 m 7 Y s 1341 538 m 7 Y s
 1388 538 m 7 Y s 1434 538 m 7 Y s 1481 531 m 14 Y s 1527 538 m 7 Y s 1574 538 m 7 Y s 1620 538 m 7 Y s 1667 538 m 7 Y s 1713 531 m 14 Y s 1760 538 m 7 Y s 1806 538 m 7 Y s 1853 538 m 7 Y s 1899 538 m 7 Y s 1946 531 m 14 Y s 1992 538 m 7 Y s 2039 538
 m 7 Y s 2085 538 m 7 Y s 2132 538 m 7 Y s 2178 531 m 14 Y s 318 187 m 358 Y s
 gsave  2254 561 2 2 C 166.096 284.736 t 90 r /Helvetica findfont 67.9729 sf 0 0 m (Data/SM) show NC gr  361 203 m -43 X s 339 220 m -21 X s 339 236 m -21 X s 339 252 m -21 X s 339 268 m -21 X s 361 285 m -43 X s 339 301 m -21 X s 339 317 m -21 X s
 339 334 m -21 X s 339 350 m -21 X s 361 366 m -43 X s 339 382 m -21 X s 339 399 m -21 X s 339 415 m -21 X s 339 431 m -21 X s 361 447 m -43 X s 339 464 m -21 X s 339 480 m -21 X s 339 496 m -21 X s 339 512 m -21 X s 361 529 m -43 X s 361 203 m -43 X
 s 339 187 m -21 X s 361 529 m -43 X s
 gsave  2254 561 2 2 C 261.008 183.044 t 0 r /Helvetica findfont 57.777 sf 0 0 m (0) show NC gr 
 gsave  2254 561 2 2 C 213.552 261.008 t 0 r /Helvetica findfont 57.777 sf 0 0 m (0.5) show NC gr 
 gsave  2254 561 2 2 C 271.177 342.361 t 0 r /Helvetica findfont 57.777 sf 0 0 m (1) show NC gr 
 gsave  2254 561 2 2 C 213.552 423.714 t 0 r /Helvetica findfont 57.777 sf 0 0 m (1.5) show NC gr 
 gsave  2254 561 2 2 C 261.008 505.067 t 0 r /Helvetica findfont 57.777 sf 0 0 m (2) show NC gr  2178 187 m 358 Y s 2135 203 m 43 X s 2157 220 m 21 X s 2157 236 m 21 X s 2157 252 m 21 X s 2157 268 m 21 X s 2135 285 m 43 X s 2157 301 m 21 X s 2157 317
 m 21 X s 2157 334 m 21 X s 2157 350 m 21 X s 2135 366 m 43 X s 2157 382 m 21 X s 2157 399 m 21 X s 2157 415 m 21 X s 2157 431 m 21 X s 2135 447 m 43 X s 2157 464 m 21 X s 2157 480 m 21 X s 2157 496 m 21 X s 2157 512 m 21 X s 2135 529 m 43 X s 2135
 203 m 43 X s 2157 187 m 21 X s 2135 529 m 43 X s 9 lw 1109 396 m 4 Y s 1109 400 m cl s 1109 369 m -4 Y s 1109 365 m cl s 1202 418 m 13 Y s 1202 431 m cl s 1202 391 m -13 Y s 1202 378 m cl s 1295 325 m 16 Y s 1295 341 m cl s 1295 298 m -15 Y s 1295
 283 m cl s 1388 435 m 54 Y s 1388 489 m cl s 1388 408 m -51 Y s 1388 357 m cl s 1481 381 m 74 Y s 1481 455 m cl s 1481 354 m -65 Y s 1481 289 m cl s 1574 532 m -172 Y s 1574 360 m cl s 3 lw 364 363 457 364 550 368 643 375 736 370 829 369 923 373
 1016 368 1109 382 1202 405 1295 311 1388 422 1481 367 13 { m20} R 9 lw 1 0 0 c 6 lw black 3 lw 1 0 0 c 2155 203 m cl s 2127 203 m cl s 2098 203 m cl s 2085 220 m s 2085 248 m -1 -2 d s 2085 277 m -30 -31 d s 2085 305 m -59 -59 d s 1992 213 m s 1983
 203 m cl s 2085 334 m -87 -88 d s 1992 241 m s 1954 203 m cl s 2085 363 m -93 -93 d s 1926 203 m cl s 2085 391 m -93 -93 d s 1899 206 m -4 -5 d s 2085 420 m -93 -93 d s 1899 234 m -33 -33 d s 2085 448 m -93 -92 d s 1899 263 m -62 -62 d s 2085 477 m
 -93 -93 d s 1899 291 m -91 -90 d s 2065 486 m -73 -73 d s 1899 320 m -93 -93 d s 2037 486 m -45 -45 d s 1899 349 m -93 -93 d s 2008 486 m -16 -16 d s 1899 377 m -93 -92 d s 1899 406 m -98 -98 d s 1899 434 m -127 -126 d s 1899 463 m -156 -155 d s
 1899 492 m -184 -184 d s 1899 520 m -93 -92 d s 1803 424 m -95 -95 d s 1882 531 m -76 -75 d s 1774 424 m -95 -95 d s 1853 531 m -47 -46 d s 1746 424 m -96 -95 d s 1824 531 m -18 -18 d s 1717 424 m -4 -3 d s 1695 403 m -73 -74 d s 1667 403 m -62 -61
 d s 1638 403 m -61 -61 d s 1597 390 m -49 -48 d s 1568 390 m -41 -40 d s 1539 390 m -38 -38 d s 1500 380 m -28 -28 d s 1472 380 m -28 -28 d s 1443 380 m -28 -28 d s 1414 380 m -28 -28 d s 1386 380 m -28 -28 d s 1357 380 m -22 -22 d s 1322 374 m -16
 -16 d s 1294 374 m -17 -16 d s 1265 374 m -16 -16 d s 1234 372 m -12 -12 d s 1206 372 m -13 -12 d s 1177 372 m -12 -12 d s 1148 371 m -11 -10 d s 1119 371 m -11 -10 d s 1090 371 m -11 -10 d s 1060 370 m -8 -8 d s 1032 370 m -9 -8 d s 1003 370 m -9
 -8 d s 974 370 m -7 -7 d s 945 369 m -7 -6 d s 916 369 m -7 -6 d s 887 369 m -6 -6 d s 858 369 m -5 -5 d s 829 369 m -5 -5 d s 800 369 m -5 -5 d s 772 369 m -6 -6 d s 743 369 m -5 -6 d s 715 369 m -6 -6 d s 686 369 m -6 -6 d s 657 369 m -5 -6 d s
 628 369 m -5 -6 d s 600 369 m -4 -4 d s 569 367 m -2 -2 d s 541 367 m -3 -2 d s 512 367 m -2 -2 d s 483 367 m -2 -2 d s 455 367 m -3 -2 d s 318 231 m s 426 367 m -2 -2 d s 318 259 m s 397 367 m -2 -2 d s 318 288 m s 369 367 m -3 -2 d s 318 317 m s
 340 367 m -2 -2 d s 318 345 m s 6 lw black[ 4 8] 0 sd 3 lw 318 447 m 1860 X s 318 285 m 1860 X s 1 0 0 c[  12 12 ] 0 sd 6 lw 318 366 m 1860 X s
 gr  gr showpage
end
%%EOF
