%!PS-Adobe-2.0 EPSF-2.0
%%BoundingBox:  0 0 567 521
%%Title: Distributions/metsqrtmeffInc_met_distrCRT_MB-GGd_beforeFit_forThesis.eps: canvas
%%Creator: ROOT Version 6.04/16
%%CreationDate: Tue May 19 22:05:32 2020
%%DocumentNeededResources: ProcSet (FontSetInit)
%%EndComments
%%BeginProlog
80 dict begin
/s {stroke} def /l {lineto} def /m {moveto} def /t {translate} def
/r {rotate} def /rl {roll}  def /R {repeat} def
/d {rlineto} def /rm {rmoveto} def /gr {grestore} def /f {eofill} def
/c {setrgbcolor} def /black {0 setgray} def /sd {setdash} def
/cl {closepath} def /sf {scalefont setfont} def /lw {setlinewidth} def
/box {m dup 0 exch d exch 0 d 0 exch neg d cl} def
/NC{systemdict begin initclip end}def/C{NC box clip newpath}def
/bl {box s} def /bf {gsave box gsave f grestore 1 lw [] 0 sd s grestore} def /Y { 0 exch d} def /X { 0 d} def 
/K {{pop pop 0 moveto} exch kshow} bind def
/ita {/ang 15 def gsave [1 0 ang dup sin exch cos div 1 0 0] concat} def 
/mp {newpath /y exch def /x exch def} def
/side {[w .77 mul w .23 mul] .385 w mul sd w 0 l currentpoint t -144 r} def
/mr {mp x y w2 0 360 arc} def /m24 {mr s} def /m20 {mr f} def
/mb {mp x y w2 add m w2 neg 0 d 0 w neg d w 0 d 0 w d cl} def
/mt {mp x y w2 add m w2 neg w neg d w 0 d cl} def
/m21 {mb f} def /m25 {mb s} def /m22 {mt f} def /m26{mt s} def
/m23 {mp x y w2 sub m w2 w d w neg 0 d cl f} def
/m27 {mp x y w2 add m w3 neg w2 neg d w3 w2 neg d w3 w2 d cl s} def
/m28 {mp x w2 sub y w2 sub w3 add m w3 0 d  0 w3 neg d w3 0 d 0 w3 d w3 0 d  0 w3 d w3 neg 0 d 0 w3 d w3 neg 0 d 0 w3 neg d w3 neg 0 d cl s } def
/m29 {mp gsave x w2 sub y w2 add w3 sub m currentpoint t 4 {side} repeat cl fill gr} def
/m30 {mp gsave x w2 sub y w2 add w3 sub m currentpoint t 4 {side} repeat cl s gr} def
/m31 {mp x y w2 sub m 0 w d x w2 sub y m w 0 d x w2 sub y w2 add m w w neg d x w2 sub y w2 sub m w w d s} def
/m32 {mp x y w2 sub m w2 w d w neg 0 d cl s} def
/m33 {mp x y w2 add m w3 neg w2 neg d w3 w2 neg d w3 w2 d cl f} def
/m34 {mp x w2 sub y w2 sub w3 add m w3 0 d  0 w3 neg d w3 0 d 0 w3 d w3 0 d  0 w3 d w3 neg 0 d 0 w3 d w3 neg 0 d 0 w3 neg d w3 neg 0 d cl f } def
/m2 {mp x y w2 sub m 0 w d x w2 sub y m w 0 d s} def
/m5 {mp x w2 sub y w2 sub m w w d x w2 sub y w2 add m w w neg d s} def
%%IncludeResource: ProcSet (FontSetInit)
%%IncludeResource: font Times-Roman
%%IncludeResource: font Times-Italic
%%IncludeResource: font Times-Bold
%%IncludeResource: font Times-BoldItalic
%%IncludeResource: font Helvetica
%%IncludeResource: font Helvetica-Oblique
%%IncludeResource: font Helvetica-Bold
%%IncludeResource: font Helvetica-BoldOblique
%%IncludeResource: font Courier
%%IncludeResource: font Courier-Oblique
%%IncludeResource: font Courier-Bold
%%IncludeResource: font Courier-BoldOblique
%%IncludeResource: font Symbol
%%IncludeResource: font ZapfDingbats
/reEncode {exch findfont dup length dict begin {1 index /FID eq  {pop pop} {def} ifelse } forall /Encoding exch def currentdict end dup /FontName get exch definefont pop } def [/Times-Bold /Times-Italic /Times-BoldItalic /Helvetica /Helvetica-Oblique
 /Helvetica-Bold /Helvetica-BoldOblique /Courier /Courier-Oblique /Courier-Bold /Courier-BoldOblique /Times-Roman /AvantGarde-Book /AvantGarde-BookOblique /AvantGarde-Demi /AvantGarde-DemiOblique /Bookman-Demi /Bookman-DemiItalic /Bookman-Light
 /Bookman-LightItalic /Helvetica-Narrow /Helvetica-Narrow-Bold /Helvetica-Narrow-BoldOblique /Helvetica-Narrow-Oblique /NewCenturySchlbk-Roman /NewCenturySchlbk-Bold /NewCenturySchlbk-BoldItalic /NewCenturySchlbk-Italic /Palatino-Bold
 /Palatino-BoldItalic /Palatino-Italic /Palatino-Roman ] {ISOLatin1Encoding reEncode } forall
%%EndProlog
%%BeginSetup
%%EndSetup
newpath  gsave  .25 .25 scale  gsave  0 0 t black[  ] 0 sd 3 lw 1 1 1 c 2268 2085 0 0 bf black 1 1 1 c 2263 1770 2 313 bf black 1 1 1 c black 1860 1145 319 584 bl 1 1 1 c black 1860 1145 319 584 bl 6 lw 1 1 1 c black 3 lw /w 33 def /w2 {w 2 div} def
 /w3 {w 3 div} def 391 1207 m20 6 lw 3 lw 534 1170 m20 6 lw 3 lw 677 1127 m20 6 lw 3 lw 820 1061 m20 6 lw 3 lw 963 1022 m20 6 lw 3 lw 1106 965 m20 6 lw 1249 890 m 4 Y s 1249 922 m s 3 lw 1249 908 m20 6 lw 1392 845 m 13 Y s 1392 885 m 5 Y s 3 lw 1392
 871 m20 6 lw 1535 812 m 20 Y s 1535 859 m 8 Y s 3 lw 1535 845 m20 6 lw 1679 697 m 65 Y s 1679 789 m 20 Y s 3 lw 1679 775 m20 6 lw 3 lw 319 584 m 1860 X s
 gsave  2263 1770 2 313 C 2101.62 396.596 t 0 r /Helvetica findfont 54.2494 sf 0 0 m (1/2) show NC gr 
 gsave  2263 1770 2 313 C 1874.51 355.92 t 0 r /Helvetica findfont 81.3741 sf 0 0 m ( [GeV]) show NC gr 
 gsave  2263 1770 2 313 C 1840.61 332.192 t 0 r /Helvetica findfont 54.2494 sf 0 0 m (T) show NC gr 
 gsave  2263 1770 2 313 C 1786.38 355.92 t 0 r /Helvetica findfont 81.3741 sf 0 0 m (H) show NC gr  6 lw 1749 417 m 14 -85 d s 3 lw 1763 332 m 13 105 d s 1776 437 m 99 X s
 gsave  2263 1770 2 313 C 1711.8 355.92 t 0 r /Helvetica findfont 81.3741 sf 0 0 m (/) show NC gr 
 gsave  2263 1770 2 313 C 1599.94 396.596 t 0 r /Helvetica findfont 54.2494 sf 0 0 m (miss) show NC gr 
 gsave  2263 1770 2 313 C 1599.94 332.192 t 0 r /Helvetica findfont 54.2494 sf 0 0 m (T) show NC gr 
 gsave  2263 1770 2 313 C 1549.1 355.92 t 0 r /Helvetica findfont 81.3741 sf 0 0 m (E) show NC gr  319 584 m cl s 391 584 m cl s 462 584 m cl s 534 584 m cl s 605 584 m cl s 677 584 m cl s 748 584 m cl s 820 584 m cl s 892 584 m cl s 963 584 m cl s
 1035 584 m cl s 1106 584 m cl s 1178 584 m cl s 1249 584 m cl s 1321 584 m cl s 1392 584 m cl s 1464 584 m cl s 1535 584 m cl s 1607 584 m cl s 1679 584 m cl s 1750 584 m cl s 1822 584 m cl s 1893 584 m cl s 1965 584 m cl s 2036 584 m cl s 2108 584
 m cl s 2108 584 m cl s 2179 584 m cl s 319 1729 m 1860 X s 319 1729 m cl s 391 1729 m cl s 462 1729 m cl s 534 1729 m cl s 605 1729 m cl s 677 1729 m cl s 748 1729 m cl s 820 1729 m cl s 892 1729 m cl s 963 1729 m cl s 1035 1729 m cl s 1106 1729 m
 cl s 1178 1729 m cl s 1249 1729 m cl s 1321 1729 m cl s 1392 1729 m cl s 1464 1729 m cl s 1535 1729 m cl s 1607 1729 m cl s 1679 1729 m cl s 1750 1729 m cl s 1822 1729 m cl s 1893 1729 m cl s 1965 1729 m cl s 2036 1729 m cl s 2108 1729 m cl s 2108
 1729 m cl s 2179 1729 m cl s 319 584 m 1145 Y s
 gsave  2263 1770 2 313 C 125.419 1654.18 t 90 r /Helvetica findfont 54.2494 sf 0 0 m (1/2) show NC gr 
 gsave  2263 1770 2 313 C 166.096 1064.37 t 90 r /Helvetica findfont 81.3741 sf 0 0 m (Events / 2 [GeV]) show NC gr  341 629 m -22 X s 341 654 m -22 X s 341 673 m -22 X s 341 687 m -22 X s 341 699 m -22 X s 341 708 m -22 X s 341 717 m -22 X s 341 724
 m -22 X s 363 731 m -44 X s
 gsave  2263 1770 2 313 C 300.555 704.057 t 0 r  -36 0 t /Helvetica findfont 64.4212 sf 0 0 m (1) show NC gr  341 775 m -22 X s 341 801 m -22 X s 341 820 m -22 X s 341 834 m -22 X s 341 845 m -22 X s 341 855 m -22 X s 341 864 m -22 X s 341 871 m -22
 X s 363 878 m -44 X s
 gsave  2263 1770 2 313 C 300.555 850.922 t 0 r  -73 0 t /Helvetica findfont 64.4212 sf 0 0 m (10) show NC gr  341 922 m -22 X s 341 948 m -22 X s 341 966 m -22 X s 341 981 m -22 X s 341 992 m -22 X s 341 1002 m -22 X s 341 1011 m -22 X s 341 1018 m
 -22 X s 363 1025 m -44 X s
 gsave  2263 1770 2 313 C 274.567 1023.69 t 0 r /Helvetica findfont 44.0776 sf 0 0 m (2) show NC gr 
 gsave  2263 1770 2 313 C 203.383 996.575 t 0 r /Helvetica findfont 64.4212 sf 0 0 m (10) show NC gr  341 1069 m -22 X s 341 1095 m -22 X s 341 1113 m -22 X s 341 1128 m -22 X s 341 1139 m -22 X s 341 1149 m -22 X s 341 1158 m -22 X s 341 1165 m -22
 X s 363 1172 m -44 X s
 gsave  2263 1770 2 313 C 274.567 1172.84 t 0 r /Helvetica findfont 44.0776 sf 0 0 m (3) show NC gr 
 gsave  2263 1770 2 313 C 203.383 1142.33 t 0 r /Helvetica findfont 64.4212 sf 0 0 m (10) show NC gr  341 1216 m -22 X s 341 1242 m -22 X s 341 1260 m -22 X s 341 1274 m -22 X s 341 1286 m -22 X s 341 1296 m -22 X s 341 1304 m -22 X s 341 1312 m -22
 X s 363 1319 m -44 X s
 gsave  2263 1770 2 313 C 274.567 1318.6 t 0 r /Helvetica findfont 44.0776 sf 0 0 m (4) show NC gr 
 gsave  2263 1770 2 313 C 203.383 1291.48 t 0 r /Helvetica findfont 64.4212 sf 0 0 m (10) show NC gr  341 1363 m -22 X s 341 1389 m -22 X s 341 1407 m -22 X s 341 1421 m -22 X s 341 1433 m -22 X s 341 1443 m -22 X s 341 1451 m -22 X s 341 1459 m -22
 X s 363 1465 m -44 X s
 gsave  2263 1770 2 313 C 274.567 1467.74 t 0 r /Helvetica findfont 44.0776 sf 0 0 m (5) show NC gr 
 gsave  2263 1770 2 313 C 203.383 1437.24 t 0 r /Helvetica findfont 64.4212 sf 0 0 m (10) show NC gr  341 1510 m -22 X s 341 1536 m -22 X s 341 1554 m -22 X s 341 1568 m -22 X s 341 1580 m -22 X s 341 1590 m -22 X s 341 1598 m -22 X s 341 1606 m -22
 X s 363 1612 m -44 X s
 gsave  2263 1770 2 313 C 274.567 1613.5 t 0 r /Helvetica findfont 44.0776 sf 0 0 m (6) show NC gr 
 gsave  2263 1770 2 313 C 203.383 1582.99 t 0 r /Helvetica findfont 64.4212 sf 0 0 m (10) show NC gr  341 1657 m -22 X s 341 1682 m -22 X s 341 1701 m -22 X s 341 1715 m -22 X s 341 1727 m -22 X s 2179 584 m 1145 Y s 2157 629 m 22 X s 2157 654 m 22 X
 s 2157 673 m 22 X s 2157 687 m 22 X s 2157 699 m 22 X s 2157 708 m 22 X s 2157 717 m 22 X s 2157 724 m 22 X s 2136 731 m 43 X s 2157 775 m 22 X s 2157 801 m 22 X s 2157 820 m 22 X s 2157 834 m 22 X s 2157 845 m 22 X s 2157 855 m 22 X s 2157 864 m 22
 X s 2157 871 m 22 X s 2136 878 m 43 X s 2157 922 m 22 X s 2157 948 m 22 X s 2157 966 m 22 X s 2157 981 m 22 X s 2157 992 m 22 X s 2157 1002 m 22 X s 2157 1011 m 22 X s 2157 1018 m 22 X s 2136 1025 m 43 X s 2157 1069 m 22 X s 2157 1095 m 22 X s 2157
 1113 m 22 X s 2157 1128 m 22 X s 2157 1139 m 22 X s 2157 1149 m 22 X s 2157 1158 m 22 X s 2157 1165 m 22 X s 2136 1172 m 43 X s 2157 1216 m 22 X s 2157 1242 m 22 X s 2157 1260 m 22 X s 2157 1274 m 22 X s 2157 1286 m 22 X s 2157 1296 m 22 X s 2157
 1304 m 22 X s 2157 1312 m 22 X s 2136 1319 m 43 X s 2157 1363 m 22 X s 2157 1389 m 22 X s 2157 1407 m 22 X s 2157 1421 m 22 X s 2157 1433 m 22 X s 2157 1443 m 22 X s 2157 1451 m 22 X s 2157 1459 m 22 X s 2136 1465 m 43 X s 2157 1510 m 22 X s 2157
 1536 m 22 X s 2157 1554 m 22 X s 2157 1568 m 22 X s 2157 1580 m 22 X s 2157 1590 m 22 X s 2157 1598 m 22 X s 2157 1606 m 22 X s 2136 1612 m 43 X s 2157 1657 m 22 X s 2157 1682 m 22 X s 2157 1701 m 22 X s 2157 1715 m 22 X s 2157 1727 m 22 X s 0.6 1
 0.6 c black 0.6 1 0.6 c 319 584 m 634 Y 143 X -37 Y 143 X -48 Y 143 X -50 Y 144 X -49 Y 143 X -54 Y 143 X -48 Y 143 X -51 Y 143 X -69 Y 143 X -28 Y 143 X -46 Y 143 X -39 Y 143 X -66 Y 143 X -49 Y f black 0.6 1 0.6 c black 319 1218 m 143 X -37 Y 143
 X -48 Y 143 X -50 Y 144 X -49 Y 143 X -54 Y 143 X -48 Y 143 X -51 Y 143 X -69 Y 143 X -28 Y 143 X -46 Y 143 X -39 Y 143 X -66 Y 143 X s 0.999 0.999 0.999 c black 0.999 0.999 0.999 c 319 584 m 505 Y 143 X -29 Y 143 X -30 Y 143 X -40 Y 144 X -37 Y 143
 X -37 Y 143 X -42 Y 143 X -43 Y 143 X -45 Y 143 X -36 Y 143 X -43 Y 143 X -73 Y 143 X -5 Y 143 X -45 Y f black 0.999 0.999 0.999 c black 319 1089 m 143 X -29 Y 143 X -30 Y 143 X -40 Y 144 X -37 Y 143 X -37 Y 143 X -42 Y 143 X -43 Y 143 X -45 Y 143 X
 -36 Y 143 X -43 Y 143 X -73 Y 143 X -5 Y 143 X s 1 1 1 c black 319 1089 m 143 X -29 Y 143 X -30 Y 143 X -40 Y 144 X -37 Y 143 X -37 Y 143 X -42 Y 143 X -43 Y 143 X -45 Y 143 X -36 Y 143 X -43 Y 143 X -73 Y 143 X -5 Y 143 X s 0.4 0.6 1 c black 0.4
 0.6 1 c 319 584 m 505 Y 143 X -29 Y 143 X -30 Y 143 X -40 Y 144 X -37 Y 143 X -37 Y 143 X -42 Y 143 X -43 Y 143 X -45 Y 143 X -36 Y 143 X -43 Y 143 X -73 Y 143 X -5 Y 143 X -45 Y f black 0.4 0.6 1 c black 319 1089 m 143 X -29 Y 143 X -30 Y 143 X -40
 Y 144 X -37 Y 143 X -37 Y 143 X -42 Y 143 X -43 Y 143 X -45 Y 143 X -36 Y 143 X -43 Y 143 X -73 Y 143 X -5 Y 143 X s 0.999 0.999 0.999 c black 0.999 0.999 0.999 c 319 584 m 362 Y 143 X -30 Y 143 X -31 Y 143 X -34 Y 144 X -62 Y 143 X -36 Y 143 X -97
 Y 143 X 15 Y 143 X -30 Y 143 X 8 Y 143 X -65 Y 429 X f black 0.999 0.999 0.999 c black 319 946 m 143 X -30 Y 143 X -31 Y 143 X -34 Y 144 X -62 Y 143 X -36 Y 143 X -97 Y 143 X 15 Y 143 X -30 Y 143 X 8 Y 143 X -65 Y 429 X s 1 1 1 c black 319 946 m 143
 X -30 Y 143 X -31 Y 143 X -34 Y 144 X -62 Y 143 X -36 Y 143 X -97 Y 143 X 15 Y 143 X -30 Y 143 X 8 Y 143 X -65 Y 429 X s 1 0.8 0.4 c black 1 0.8 0.4 c 319 584 m 362 Y 143 X -30 Y 143 X -31 Y 143 X -34 Y 144 X -62 Y 143 X -36 Y 143 X -97 Y 143 X 15 Y
 143 X -30 Y 143 X 8 Y 143 X -65 Y 429 X f black 1 0.8 0.4 c black 319 946 m 143 X -30 Y 143 X -31 Y 143 X -34 Y 144 X -62 Y 143 X -36 Y 143 X -97 Y 143 X 15 Y 143 X -30 Y 143 X 8 Y 143 X -65 Y 429 X s 0.999 0.999 0.999 c black 0.999 0.999 0.999 c
 319 584 m 355 Y 143 X -30 Y 143 X -32 Y 143 X -32 Y 144 X -62 Y 143 X -31 Y 143 X -106 Y 143 X 22 Y 143 X -30 Y 143 X 10 Y 143 X -64 Y 429 X f black 0.999 0.999 0.999 c black 319 939 m 143 X -30 Y 143 X -32 Y 143 X -32 Y 144 X -62 Y 143 X -31 Y 143
 X -106 Y 143 X 22 Y 143 X -30 Y 143 X 10 Y 143 X -64 Y 429 X s 1 1 1 c black 319 939 m 143 X -30 Y 143 X -32 Y 143 X -32 Y 144 X -62 Y 143 X -31 Y 143 X -106 Y 143 X 22 Y 143 X -30 Y 143 X 10 Y 143 X -64 Y 429 X s 1 0.4 0.6 c black 1 0.4 0.6 c 319
 584 m 355 Y 143 X -30 Y 143 X -32 Y 143 X -32 Y 144 X -62 Y 143 X -31 Y 143 X -106 Y 143 X 22 Y 143 X -30 Y 143 X 10 Y 143 X -64 Y 429 X f black 1 0.4 0.6 c black 319 939 m 143 X -30 Y 143 X -32 Y 143 X -32 Y 144 X -62 Y 143 X -31 Y 143 X -106 Y 143
 X 22 Y 143 X -30 Y 143 X 10 Y 143 X -64 Y 429 X s 1 0 0 c 6 lw 1 1 1 c black 1 0 0 c 319 1218 m 143 X -37 Y 143 X -48 Y 143 X -50 Y 144 X -49 Y 143 X -54 Y 143 X -48 Y 143 X -51 Y 143 X -69 Y 143 X -28 Y 143 X -46 Y 143 X -39 Y 143 X -66 Y 143 X s
 black 3 lw 1 0 0 c 1 lw << /PatternType 1 /PaintType 2 /TilingType 1 /BBox [ 0 0 100 100 ] /XStep 100 /YStep 100 /PaintProc { begin gsave 0 100 m 100 0 l s gr end } >> [ 0.24 0 0 0.24 0 0 ] makepattern /P05 exch def /cs {[/Pattern /DeviceRGB]
 setcolorspace} def /FA {f [/DeviceRGB] setcolorspace} def cs 1 0 0 P05 setcolor 319 584 m 635 Y 143 X -36 Y 143 X -48 Y 143 X -49 Y 144 X -49 Y 143 X -53 Y 143 X -47 Y 143 X -49 Y 143 X -68 Y 143 X -27 Y 143 X -37 Y 143 X -27 Y 143 X -79 Y 143 X -40
 Y -143 X 32 Y -143 X 73 Y -143 X 58 Y -143 X 29 Y -143 X 71 Y -143 X 54 Y -143 X 48 Y -143 X 56 Y -143 X 50 Y -144 X 50 Y -143 X 49 Y -143 X 37 Y -143 X -633 Y FA 6 lw 1 1 1 c 15 lw 1392 851 m -5 Y s 1392 846 m cl s 1535 866 m 2 Y s 1535 868 m cl s
 1535 825 m -12 Y s 1535 813 m cl s 1679 796 m 17 Y s 1679 813 m cl s 1679 755 m -45 Y s 1679 710 m cl s black 1 1 1 c 3 lw /w 43 def /w2 {w 2 div} def /w3 {w 3 div} def 391 1207 534 1170 677 1127 820 1061 963 1022 1106 965 1249 908 1392 871 1535 845
 1679 775 10 { m20} R 15 lw black 6 lw 1 1 1 c black 3 lw /w 33 def /w2 {w 2 div} def /w3 {w 3 div} def 391 1207 m20 6 lw 3 lw 534 1170 m20 6 lw 3 lw 677 1127 m20 6 lw 3 lw 820 1061 m20 6 lw 3 lw 963 1022 m20 6 lw 3 lw 1106 965 m20 6 lw 1249 890 m 4
 Y s 1249 922 m s 3 lw 1249 908 m20 6 lw 1392 845 m 13 Y s 1392 885 m 5 Y s 3 lw 1392 871 m20 6 lw 1535 812 m 20 Y s 1535 859 m 8 Y s 3 lw 1535 845 m20 6 lw 1679 697 m 65 Y s 1679 789 m 20 Y s 3 lw 1679 775 m20 6 lw 1249 922 m s 1249 922 m cl s 1249
 894 m -4 Y s 1249 890 m cl s 1392 885 m 5 Y s 1392 890 m cl s 1392 858 m -12 Y s 1392 846 m cl s 1535 859 m 9 Y s 1535 868 m cl s 1535 832 m -19 Y s 1535 813 m cl s 1679 789 m 24 Y s 1679 813 m cl s 1679 762 m -52 Y s 1679 710 m cl s 3 lw 391 1207
 534 1170 677 1127 820 1061 963 1022 1106 965 1249 908 1392 871 1535 845 1679 775 10 { m20} R 6 lw 3 lw 319 584 m 1860 X s 319 584 m cl s 391 584 m cl s 462 584 m cl s 534 584 m cl s 605 584 m cl s 677 584 m cl s 748 584 m cl s 820 584 m cl s 892 584
 m cl s 963 584 m cl s 1035 584 m cl s 1106 584 m cl s 1178 584 m cl s 1249 584 m cl s 1321 584 m cl s 1392 584 m cl s 1464 584 m cl s 1535 584 m cl s 1607 584 m cl s 1679 584 m cl s 1750 584 m cl s 1822 584 m cl s 1893 584 m cl s 1965 584 m cl s
 2036 584 m cl s 2108 584 m cl s 2108 584 m cl s 2179 584 m cl s 319 1729 m 1860 X s 319 1729 m cl s 391 1729 m cl s 462 1729 m cl s 534 1729 m cl s 605 1729 m cl s 677 1729 m cl s 748 1729 m cl s 820 1729 m cl s 892 1729 m cl s 963 1729 m cl s 1035
 1729 m cl s 1106 1729 m cl s 1178 1729 m cl s 1249 1729 m cl s 1321 1729 m cl s 1392 1729 m cl s 1464 1729 m cl s 1535 1729 m cl s 1607 1729 m cl s 1679 1729 m cl s 1750 1729 m cl s 1822 1729 m cl s 1893 1729 m cl s 1965 1729 m cl s 2036 1729 m cl s
 2108 1729 m cl s 2108 1729 m cl s 2179 1729 m cl s 319 584 m 1145 Y s 341 629 m -22 X s 341 654 m -22 X s 341 673 m -22 X s 341 687 m -22 X s 341 699 m -22 X s 341 708 m -22 X s 341 717 m -22 X s 341 724 m -22 X s 363 731 m -44 X s 341 775 m -22 X s
 341 801 m -22 X s 341 820 m -22 X s 341 834 m -22 X s 341 845 m -22 X s 341 855 m -22 X s 341 864 m -22 X s 341 871 m -22 X s 363 878 m -44 X s 341 922 m -22 X s 341 948 m -22 X s 341 966 m -22 X s 341 981 m -22 X s 341 992 m -22 X s 341 1002 m -22
 X s 341 1011 m -22 X s 341 1018 m -22 X s 363 1025 m -44 X s 341 1069 m -22 X s 341 1095 m -22 X s 341 1113 m -22 X s 341 1128 m -22 X s 341 1139 m -22 X s 341 1149 m -22 X s 341 1158 m -22 X s 341 1165 m -22 X s 363 1172 m -44 X s 341 1216 m -22 X
 s 341 1242 m -22 X s 341 1260 m -22 X s 341 1274 m -22 X s 341 1286 m -22 X s 341 1296 m -22 X s 341 1304 m -22 X s 341 1312 m -22 X s 363 1319 m -44 X s 341 1363 m -22 X s 341 1389 m -22 X s 341 1407 m -22 X s 341 1421 m -22 X s 341 1433 m -22 X s
 341 1443 m -22 X s 341 1451 m -22 X s 341 1459 m -22 X s 363 1465 m -44 X s 341 1510 m -22 X s 341 1536 m -22 X s 341 1554 m -22 X s 341 1568 m -22 X s 341 1580 m -22 X s 341 1590 m -22 X s 341 1598 m -22 X s 341 1606 m -22 X s 363 1612 m -44 X s
 341 1657 m -22 X s 341 1682 m -22 X s 341 1701 m -22 X s 341 1715 m -22 X s 341 1727 m -22 X s 2179 584 m 1145 Y s 2157 629 m 22 X s 2157 654 m 22 X s 2157 673 m 22 X s 2157 687 m 22 X s 2157 699 m 22 X s 2157 708 m 22 X s 2157 717 m 22 X s 2157 724
 m 22 X s 2136 731 m 43 X s 2157 775 m 22 X s 2157 801 m 22 X s 2157 820 m 22 X s 2157 834 m 22 X s 2157 845 m 22 X s 2157 855 m 22 X s 2157 864 m 22 X s 2157 871 m 22 X s 2136 878 m 43 X s 2157 922 m 22 X s 2157 948 m 22 X s 2157 966 m 22 X s 2157
 981 m 22 X s 2157 992 m 22 X s 2157 1002 m 22 X s 2157 1011 m 22 X s 2157 1018 m 22 X s 2136 1025 m 43 X s 2157 1069 m 22 X s 2157 1095 m 22 X s 2157 1113 m 22 X s 2157 1128 m 22 X s 2157 1139 m 22 X s 2157 1149 m 22 X s 2157 1158 m 22 X s 2157 1165
 m 22 X s 2136 1172 m 43 X s 2157 1216 m 22 X s 2157 1242 m 22 X s 2157 1260 m 22 X s 2157 1274 m 22 X s 2157 1286 m 22 X s 2157 1296 m 22 X s 2157 1304 m 22 X s 2157 1312 m 22 X s 2136 1319 m 43 X s 2157 1363 m 22 X s 2157 1389 m 22 X s 2157 1407 m
 22 X s 2157 1421 m 22 X s 2157 1433 m 22 X s 2157 1443 m 22 X s 2157 1451 m 22 X s 2157 1459 m 22 X s 2136 1465 m 43 X s 2157 1510 m 22 X s 2157 1536 m 22 X s 2157 1554 m 22 X s 2157 1568 m 22 X s 2157 1580 m 22 X s 2157 1590 m 22 X s 2157 1598 m 22
 X s 2157 1606 m 22 X s 2136 1612 m 43 X s 2157 1657 m 22 X s 2157 1682 m 22 X s 2157 1701 m 22 X s 2157 1715 m 22 X s 2157 1727 m 22 X s
 gsave  2263 1770 2 313 C 406.765 1447.41 t 0 r /Helvetica findfont 64.4212 sf 0 0 m (CRT for MB\255GGd) show NC gr 
 gsave  2263 1770 2 313 C 1464.36 1616.89 t 0 r /Helvetica findfont 64.4212 sf 0 0 m (SM Total) show NC gr  1 1 1 c 1338 1603 m 107 X 74 Y -107 X f 1 0 0 c 6 lw 1338 1640 m 107 X s black
 gsave  2263 1770 2 313 C 1464.36 1511.81 t 0 r /Helvetica findfont 64.4212 sf 0 0 m (Data) show NC gr  1391 1502 m 64 Y s 3 lw 1391 1534 m20 6 lw
 gsave  2263 1770 2 313 C 1498.25 1406.73 t 0 r /Helvetica findfont 64.4212 sf 0 0 m (\(+EW\) & single top) show NC gr 
 gsave  2263 1770 2 313 C 1481.3 1406.73 t 0 r /Helvetica findfont 64.4212 sf 0 0 m (t) show NC gr  3 lw 1481 1458 m 17 X s
 gsave  2263 1770 2 313 C 1464.36 1406.73 t 0 r /Helvetica findfont 64.4212 sf 0 0 m (t) show NC gr  0.6 1 0.6 c 1338 1391 m 107 X 74 Y -107 X f black 1338 1465 m 107 X s 1338 1391 m 107 X s 1445 1391 m 74 Y s 1338 1391 m 74 Y s
 gsave  2263 1770 2 313 C 1464.36 1298.26 t 0 r /Helvetica findfont 64.4212 sf 0 0 m (W+jets) show NC gr  0.4 0.6 1 c 1338 1284 m 107 X 75 Y -107 X f black 1338 1359 m 107 X s 1338 1284 m 107 X s 1445 1284 m 75 Y s 1338 1284 m 75 Y s
 gsave  2263 1770 2 313 C 1464.36 1193.18 t 0 r /Helvetica findfont 64.4212 sf 0 0 m (Z+jets) show NC gr  1 0.8 0.4 c 1338 1178 m 107 X 75 Y -107 X f black 1338 1253 m 107 X s 1338 1178 m 107 X s 1445 1178 m 75 Y s 1338 1178 m 75 Y s
 gsave  2263 1770 2 313 C 1464.36 1088.1 t 0 r /Helvetica findfont 64.4212 sf 0 0 m (Diboson) show NC gr  1 0.4 0.6 c 1338 1072 m 107 X 74 Y -107 X f black 1338 1146 m 107 X s 1338 1072 m 107 X s 1445 1072 m 74 Y s 1338 1072 m 74 Y s
 gsave  2263 1770 2 313 C 911.832 1566.05 t 0 r /Helvetica findfont 44.0776 sf 0 0 m (\2551) show NC gr 
 gsave  2263 1770 2 313 C 471.17 1535.54 t 0 r /Helvetica findfont 64.4212 sf 0 0 m (=13TeV, 139 fb) show NC gr 
 gsave  2263 1770 2 313 C 440.662 1535.54 t 0 r /Helvetica findfont 64.4212 sf 0 0 m (s) show NC gr  6 lw 420 1573 m 7 -41 d s 3 lw 427 1532 m 7 61 d s 434 1593 m 37 X s 1 1 1 c 2254 561 2 2 bf black 1 1 1 c black 1860 358 318 187 bl 1 1 1 c black
 1860 358 318 187 bl 6 lw 1 1 1 c black 3 lw 389 341 m20 6 lw 3 lw 533 341 m20 6 lw 3 lw 676 351 m20 6 lw 3 lw 819 318 m20 6 lw 3 lw 962 340 m20 6 lw 3 lw 1105 332 m20 6 lw 3 lw 1248 315 m20 6 lw 3 lw 1391 342 m20 6 lw 3 lw 1534 480 m20 6 lw 3 lw
 1677 346 m20 6 lw 3 lw 318 187 m 1860 X s
 gsave  2254 561 2 2 C 2105.01 64.4045 t 0 r /Helvetica findfont 50.9797 sf 0 0 m (1/2) show NC gr 
 gsave  2254 561 2 2 C 1888.07 23.728 t 0 r /Helvetica findfont 78.1689 sf 0 0 m ( [GeV]) show NC gr 
 gsave  2254 561 2 2 C 1857.56 3.38971 t 0 r /Helvetica findfont 50.9797 sf 0 0 m (T) show NC gr 
 gsave  2254 561 2 2 C 1806.72 23.728 t 0 r /Helvetica findfont 78.1689 sf 0 0 m (H) show NC gr  6 lw 1773 81 m 10 -78 d s 3 lw 1783 3 m 14 99 d s 1797 102 m 91 X s
 gsave  2254 561 2 2 C 1735.53 23.728 t 0 r /Helvetica findfont 78.1689 sf 0 0 m (/) show NC gr 
 gsave  2254 561 2 2 C 1630.45 61.0148 t 0 r /Helvetica findfont 50.9797 sf 0 0 m (miss) show NC gr 
 gsave  2254 561 2 2 C 1630.45 3.38971 t 0 r /Helvetica findfont 50.9797 sf 0 0 m (T) show NC gr 
 gsave  2254 561 2 2 C 1579.61 23.728 t 0 r /Helvetica findfont 78.1689 sf 0 0 m (E) show NC gr  318 201 m -14 Y s 389 194 m -7 Y s 461 194 m -7 Y s 533 194 m -7 Y s 604 194 m -7 Y s 676 201 m -14 Y s 747 194 m -7 Y s 819 194 m -7 Y s 890 194 m -7 Y
 s 962 194 m -7 Y s 1033 201 m -14 Y s 1105 194 m -7 Y s 1177 194 m -7 Y s 1248 194 m -7 Y s 1320 194 m -7 Y s 1391 201 m -14 Y s 1463 194 m -7 Y s 1534 194 m -7 Y s 1606 194 m -7 Y s 1677 194 m -7 Y s 1749 201 m -14 Y s 1821 194 m -7 Y s 1892 194 m
 -7 Y s 1964 194 m -7 Y s 2035 194 m -7 Y s 2107 201 m -14 Y s 2107 201 m -14 Y s 2178 194 m -7 Y s
 gsave  2254 561 2 2 C 271.177 118.64 t 0 r /Helvetica findfont 78.1689 sf 0 0 m (10) show NC gr 
 gsave  2254 561 2 2 C 630.486 118.64 t 0 r /Helvetica findfont 78.1689 sf 0 0 m (15) show NC gr 
 gsave  2254 561 2 2 C 986.406 118.64 t 0 r /Helvetica findfont 78.1689 sf 0 0 m (20) show NC gr 
 gsave  2254 561 2 2 C 1345.72 118.64 t 0 r /Helvetica findfont 78.1689 sf 0 0 m (25) show NC gr 
 gsave  2254 561 2 2 C 1701.63 118.64 t 0 r /Helvetica findfont 78.1689 sf 0 0 m (30) show NC gr 
 gsave  2254 561 2 2 C 2060.94 118.64 t 0 r /Helvetica findfont 78.1689 sf 0 0 m (35) show NC gr  318 545 m 1860 X s 318 531 m 14 Y s 389 538 m 7 Y s 461 538 m 7 Y s 533 538 m 7 Y s 604 538 m 7 Y s 676 531 m 14 Y s 747 538 m 7 Y s 819 538 m 7 Y s 890
 538 m 7 Y s 962 538 m 7 Y s 1033 531 m 14 Y s 1105 538 m 7 Y s 1177 538 m 7 Y s 1248 538 m 7 Y s 1320 538 m 7 Y s 1391 531 m 14 Y s 1463 538 m 7 Y s 1534 538 m 7 Y s 1606 538 m 7 Y s 1677 538 m 7 Y s 1749 531 m 14 Y s 1821 538 m 7 Y s 1892 538 m 7 Y
 s 1964 538 m 7 Y s 2035 538 m 7 Y s 2107 531 m 14 Y s 2107 531 m 14 Y s 2178 538 m 7 Y s 318 187 m 358 Y s
 gsave  2254 561 2 2 C 166.096 284.736 t 90 r /Helvetica findfont 67.9729 sf 0 0 m (Data/SM) show NC gr  361 203 m -43 X s 339 220 m -21 X s 339 236 m -21 X s 339 252 m -21 X s 339 268 m -21 X s 361 285 m -43 X s 339 301 m -21 X s 339 317 m -21 X s
 339 334 m -21 X s 339 350 m -21 X s 361 366 m -43 X s 339 382 m -21 X s 339 399 m -21 X s 339 415 m -21 X s 339 431 m -21 X s 361 447 m -43 X s 339 464 m -21 X s 339 480 m -21 X s 339 496 m -21 X s 339 512 m -21 X s 361 529 m -43 X s 361 203 m -43 X
 s 339 187 m -21 X s 361 529 m -43 X s
 gsave  2254 561 2 2 C 261.008 183.044 t 0 r /Helvetica findfont 57.777 sf 0 0 m (0) show NC gr 
 gsave  2254 561 2 2 C 213.552 261.008 t 0 r /Helvetica findfont 57.777 sf 0 0 m (0.5) show NC gr 
 gsave  2254 561 2 2 C 271.177 342.361 t 0 r /Helvetica findfont 57.777 sf 0 0 m (1) show NC gr 
 gsave  2254 561 2 2 C 213.552 423.714 t 0 r /Helvetica findfont 57.777 sf 0 0 m (1.5) show NC gr 
 gsave  2254 561 2 2 C 261.008 505.067 t 0 r /Helvetica findfont 57.777 sf 0 0 m (2) show NC gr  2178 187 m 358 Y s 2135 203 m 43 X s 2157 220 m 21 X s 2157 236 m 21 X s 2157 252 m 21 X s 2157 268 m 21 X s 2135 285 m 43 X s 2157 301 m 21 X s 2157 317
 m 21 X s 2157 334 m 21 X s 2157 350 m 21 X s 2135 366 m 43 X s 2157 382 m 21 X s 2157 399 m 21 X s 2157 415 m 21 X s 2157 431 m 21 X s 2135 447 m 43 X s 2157 464 m 21 X s 2157 480 m 21 X s 2157 496 m 21 X s 2157 512 m 21 X s 2135 529 m 43 X s 2135
 203 m 43 X s 2157 187 m 21 X s 2135 529 m 43 X s 9 lw 962 353 m s 962 353 m cl s 962 326 m s 962 326 m cl s 1105 346 m 7 Y s 1105 353 m cl s 1105 318 m -6 Y s 1105 312 m cl s 1248 328 m 15 Y s 1248 343 m cl s 1248 301 m -14 Y s 1248 287 m cl s 1391
 356 m 34 Y s 1391 390 m cl s 1391 329 m -32 Y s 1391 297 m cl s 1534 494 m 51 Y s 1534 545 m cl s 1534 467 m -96 Y s 1534 371 m cl s 1677 360 m 102 Y s 1677 462 m cl s 1677 333 m -79 Y s 1677 254 m cl s 3 lw 389 341 533 341 676 351 819 318 962 340
 1105 332 1248 315 1391 342 1534 480 1677 346 10 { m20} R 9 lw 1 0 0 c 6 lw black 3 lw 1 0 0 c 2178 341 m -24 -25 d s 2178 369 m -53 -53 d s 2178 398 m -82 -82 d s 2167 416 m -99 -100 d s 2035 284 m -14 -14 d s 2139 416 m -100 -100 d s 2035 313 m -43
 -43 d s 2110 416 m -147 -146 d s 2081 416 m -146 -146 d s 2053 416 m -147 -146 d s 2035 427 m -143 -143 d s 2035 456 m -143 -143 d s 2014 463 m -148 -148 d s 1985 463 m -148 -148 d s 1956 463 m -148 -148 d s 1927 463 m -35 -36 d s 1882 417 m -102
 -102 d s 1899 463 m -7 -7 d s 1853 417 m -102 -102 d s 1824 417 m -77 -77 d s 1795 417 m -76 -77 d s 1767 417 m -18 -18 d s 1742 392 m -52 -52 d s 1713 392 m -52 -52 d s 1685 392 m -52 -52 d s 1656 392 m -50 -50 d s 1627 392 m -49 -49 d s 1595 389 m
 -45 -46 d s 1567 389 m -46 -46 d s 1538 389 m -46 -46 d s 1509 389 m -46 -46 d s 1481 389 m -43 -42 d s 1448 385 m -38 -38 d s 1420 385 m -39 -38 d s 1391 385 m -39 -38 d s 1362 385 m -38 -38 d s 1334 385 m -33 -32 d s 1298 379 m -25 -26 d s 1270
 379 m -26 -26 d s 1241 379 m -26 -26 d s 1212 379 m -25 -26 d s 1184 379 m -25 -25 d s 1154 378 m -24 -24 d s 1125 378 m -23 -24 d s 1097 378 m -24 -24 d s 1068 378 m -24 -24 d s 1039 378 m -19 -20 d s 1006 374 m -15 -16 d s 978 374 m -16 -16 d s
 949 374 m -16 -16 d s 920 374 m -15 -16 d s 892 374 m -2 -2 d s 890 372 m -12 -12 d s 861 372 m -12 -12 d s 833 372 m -13 -12 d s 804 372 m -12 -12 d s 775 372 m -12 -12 d s 745 370 m -9 -8 d s 716 370 m -9 -8 d s 687 370 m -8 -8 d s 659 370 m -9 -8
 d s 630 370 m -9 -8 d s 600 369 m -6 -6 d s 572 369 m -7 -6 d s 543 369 m -7 -6 d s 514 369 m -6 -6 d s 486 369 m -7 -6 d s 456 368 m -5 -4 d s 318 231 m s 427 368 m -4 -4 d s 318 259 m s 398 368 m -4 -4 d s 318 288 m s 370 368 m -5 -4 d s 318 317 m
 s 341 368 m -4 -4 d s 318 345 m s 6 lw black[ 4 8] 0 sd 3 lw 318 447 m 1860 X s 318 285 m 1860 X s 1 0 0 c[  12 12 ] 0 sd 6 lw 318 366 m 1860 X s
 gr  gr showpage
end
%%EOF
