%!PS-Adobe-2.0 EPSF-2.0
%%BoundingBox:  0 0 567 521
%%Title: Distributions/metsqrtmeffInc_met_distrVR0LmetSig_MB-GGo_beforeFit_forThesis.eps: canvas
%%Creator: ROOT Version 6.04/16
%%CreationDate: Tue May 19 22:06:40 2020
%%DocumentNeededResources: ProcSet (FontSetInit)
%%EndComments
%%BeginProlog
80 dict begin
/s {stroke} def /l {lineto} def /m {moveto} def /t {translate} def
/r {rotate} def /rl {roll}  def /R {repeat} def
/d {rlineto} def /rm {rmoveto} def /gr {grestore} def /f {eofill} def
/c {setrgbcolor} def /black {0 setgray} def /sd {setdash} def
/cl {closepath} def /sf {scalefont setfont} def /lw {setlinewidth} def
/box {m dup 0 exch d exch 0 d 0 exch neg d cl} def
/NC{systemdict begin initclip end}def/C{NC box clip newpath}def
/bl {box s} def /bf {gsave box gsave f grestore 1 lw [] 0 sd s grestore} def /Y { 0 exch d} def /X { 0 d} def 
/K {{pop pop 0 moveto} exch kshow} bind def
/ita {/ang 15 def gsave [1 0 ang dup sin exch cos div 1 0 0] concat} def 
/mp {newpath /y exch def /x exch def} def
/side {[w .77 mul w .23 mul] .385 w mul sd w 0 l currentpoint t -144 r} def
/mr {mp x y w2 0 360 arc} def /m24 {mr s} def /m20 {mr f} def
/mb {mp x y w2 add m w2 neg 0 d 0 w neg d w 0 d 0 w d cl} def
/mt {mp x y w2 add m w2 neg w neg d w 0 d cl} def
/m21 {mb f} def /m25 {mb s} def /m22 {mt f} def /m26{mt s} def
/m23 {mp x y w2 sub m w2 w d w neg 0 d cl f} def
/m27 {mp x y w2 add m w3 neg w2 neg d w3 w2 neg d w3 w2 d cl s} def
/m28 {mp x w2 sub y w2 sub w3 add m w3 0 d  0 w3 neg d w3 0 d 0 w3 d w3 0 d  0 w3 d w3 neg 0 d 0 w3 d w3 neg 0 d 0 w3 neg d w3 neg 0 d cl s } def
/m29 {mp gsave x w2 sub y w2 add w3 sub m currentpoint t 4 {side} repeat cl fill gr} def
/m30 {mp gsave x w2 sub y w2 add w3 sub m currentpoint t 4 {side} repeat cl s gr} def
/m31 {mp x y w2 sub m 0 w d x w2 sub y m w 0 d x w2 sub y w2 add m w w neg d x w2 sub y w2 sub m w w d s} def
/m32 {mp x y w2 sub m w2 w d w neg 0 d cl s} def
/m33 {mp x y w2 add m w3 neg w2 neg d w3 w2 neg d w3 w2 d cl f} def
/m34 {mp x w2 sub y w2 sub w3 add m w3 0 d  0 w3 neg d w3 0 d 0 w3 d w3 0 d  0 w3 d w3 neg 0 d 0 w3 d w3 neg 0 d 0 w3 neg d w3 neg 0 d cl f } def
/m2 {mp x y w2 sub m 0 w d x w2 sub y m w 0 d s} def
/m5 {mp x w2 sub y w2 sub m w w d x w2 sub y w2 add m w w neg d s} def
%%IncludeResource: ProcSet (FontSetInit)
%%IncludeResource: font Times-Roman
%%IncludeResource: font Times-Italic
%%IncludeResource: font Times-Bold
%%IncludeResource: font Times-BoldItalic
%%IncludeResource: font Helvetica
%%IncludeResource: font Helvetica-Oblique
%%IncludeResource: font Helvetica-Bold
%%IncludeResource: font Helvetica-BoldOblique
%%IncludeResource: font Courier
%%IncludeResource: font Courier-Oblique
%%IncludeResource: font Courier-Bold
%%IncludeResource: font Courier-BoldOblique
%%IncludeResource: font Symbol
%%IncludeResource: font ZapfDingbats
/reEncode {exch findfont dup length dict begin {1 index /FID eq  {pop pop} {def} ifelse } forall /Encoding exch def currentdict end dup /FontName get exch definefont pop } def [/Times-Bold /Times-Italic /Times-BoldItalic /Helvetica /Helvetica-Oblique
 /Helvetica-Bold /Helvetica-BoldOblique /Courier /Courier-Oblique /Courier-Bold /Courier-BoldOblique /Times-Roman /AvantGarde-Book /AvantGarde-BookOblique /AvantGarde-Demi /AvantGarde-DemiOblique /Bookman-Demi /Bookman-DemiItalic /Bookman-Light
 /Bookman-LightItalic /Helvetica-Narrow /Helvetica-Narrow-Bold /Helvetica-Narrow-BoldOblique /Helvetica-Narrow-Oblique /NewCenturySchlbk-Roman /NewCenturySchlbk-Bold /NewCenturySchlbk-BoldItalic /NewCenturySchlbk-Italic /Palatino-Bold
 /Palatino-BoldItalic /Palatino-Italic /Palatino-Roman ] {ISOLatin1Encoding reEncode } forall
%%EndProlog
%%BeginSetup
%%EndSetup
newpath  gsave  .25 .25 scale  gsave  0 0 t black[  ] 0 sd 3 lw 1 1 1 c 2268 2085 0 0 bf black 1 1 1 c 2263 1770 2 313 bf black 1 1 1 c black 1860 1145 319 584 bl 1 1 1 c black 1860 1145 319 584 bl 6 lw 1 1 1 c black 3 lw /w 33 def /w2 {w 2 div} def
 /w3 {w 3 div} def 412 1101 m20 6 lw 598 1011 m 2 Y s 3 lw 598 1027 m20 6 lw 784 921 m 15 Y s 784 963 m 7 Y s 3 lw 784 949 m20 6 lw 970 842 m 32 Y s 970 902 m 15 Y s 3 lw 970 888 m20 6 lw 1156 722 m 81 Y s 1156 830 m 28 Y s 3 lw 1156 817 m20 6 lw
 1342 584 m 165 Y s 1342 777 m 40 Y s 3 lw 1342 763 m20 6 lw 1528 584 m 165 Y s 1528 777 m 40 Y s 3 lw 1528 763 m20 6 lw 1714 584 m 165 Y s 1714 777 m 40 Y s 3 lw 1714 763 m20 6 lw 3 lw 319 584 m 1860 X s
 gsave  2263 1770 2 313 C 2101.62 396.596 t 0 r /Helvetica findfont 54.2494 sf 0 0 m (1/2) show NC gr 
 gsave  2263 1770 2 313 C 1874.51 355.92 t 0 r /Helvetica findfont 81.3741 sf 0 0 m ( [GeV]) show NC gr 
 gsave  2263 1770 2 313 C 1840.61 332.192 t 0 r /Helvetica findfont 54.2494 sf 0 0 m (T) show NC gr 
 gsave  2263 1770 2 313 C 1786.38 355.92 t 0 r /Helvetica findfont 81.3741 sf 0 0 m (H) show NC gr  6 lw 1749 417 m 14 -85 d s 3 lw 1763 332 m 13 105 d s 1776 437 m 99 X s
 gsave  2263 1770 2 313 C 1711.8 355.92 t 0 r /Helvetica findfont 81.3741 sf 0 0 m (/) show NC gr 
 gsave  2263 1770 2 313 C 1599.94 396.596 t 0 r /Helvetica findfont 54.2494 sf 0 0 m (miss) show NC gr 
 gsave  2263 1770 2 313 C 1599.94 332.192 t 0 r /Helvetica findfont 54.2494 sf 0 0 m (T) show NC gr 
 gsave  2263 1770 2 313 C 1549.1 355.92 t 0 r /Helvetica findfont 81.3741 sf 0 0 m (E) show NC gr  319 584 m cl s 366 584 m cl s 412 584 m cl s 459 584 m cl s 505 584 m cl s 552 584 m cl s 598 584 m cl s 645 584 m cl s 691 584 m cl s 738 584 m cl s
 784 584 m cl s 831 584 m cl s 877 584 m cl s 924 584 m cl s 970 584 m cl s 1017 584 m cl s 1063 584 m cl s 1110 584 m cl s 1156 584 m cl s 1203 584 m cl s 1249 584 m cl s 1296 584 m cl s 1342 584 m cl s 1389 584 m cl s 1435 584 m cl s 1482 584 m cl
 s 1528 584 m cl s 1575 584 m cl s 1621 584 m cl s 1668 584 m cl s 1714 584 m cl s 1761 584 m cl s 1807 584 m cl s 1854 584 m cl s 1900 584 m cl s 1947 584 m cl s 1993 584 m cl s 2040 584 m cl s 2086 584 m cl s 2133 584 m cl s 2179 584 m cl s 319
 1729 m 1860 X s 319 1729 m cl s 366 1729 m cl s 412 1729 m cl s 459 1729 m cl s 505 1729 m cl s 552 1729 m cl s 598 1729 m cl s 645 1729 m cl s 691 1729 m cl s 738 1729 m cl s 784 1729 m cl s 831 1729 m cl s 877 1729 m cl s 924 1729 m cl s 970 1729
 m cl s 1017 1729 m cl s 1063 1729 m cl s 1110 1729 m cl s 1156 1729 m cl s 1203 1729 m cl s 1249 1729 m cl s 1296 1729 m cl s 1342 1729 m cl s 1389 1729 m cl s 1435 1729 m cl s 1482 1729 m cl s 1528 1729 m cl s 1575 1729 m cl s 1621 1729 m cl s 1668
 1729 m cl s 1714 1729 m cl s 1761 1729 m cl s 1807 1729 m cl s 1854 1729 m cl s 1900 1729 m cl s 1947 1729 m cl s 1993 1729 m cl s 2040 1729 m cl s 2086 1729 m cl s 2133 1729 m cl s 2179 1729 m cl s 319 584 m 1145 Y s
 gsave  2263 1770 2 313 C 125.419 1654.18 t 90 r /Helvetica findfont 54.2494 sf 0 0 m (1/2) show NC gr 
 gsave  2263 1770 2 313 C 166.096 1064.37 t 90 r /Helvetica findfont 81.3741 sf 0 0 m (Events / 2 [GeV]) show NC gr  341 638 m -22 X s 341 670 m -22 X s 341 692 m -22 X s 341 709 m -22 X s 341 723 m -22 X s 341 735 m -22 X s 341 746 m -22 X s 341 755
 m -22 X s 363 763 m -44 X s
 gsave  2263 1770 2 313 C 300.555 735.917 t 0 r  -36 0 t /Helvetica findfont 64.4212 sf 0 0 m (1) show NC gr  341 817 m -22 X s 341 848 m -22 X s 341 871 m -22 X s 341 888 m -22 X s 341 902 m -22 X s 341 914 m -22 X s 341 924 m -22 X s 341 934 m -22
 X s 363 942 m -44 X s
 gsave  2263 1770 2 313 C 300.555 914.642 t 0 r  -73 0 t /Helvetica findfont 64.4212 sf 0 0 m (10) show NC gr  341 996 m -22 X s 341 1027 m -22 X s 341 1049 m -22 X s 341 1067 m -22 X s 341 1081 m -22 X s 341 1093 m -22 X s 341 1103 m -22 X s 341
 1112 m -22 X s 363 1120 m -44 X s
 gsave  2263 1770 2 313 C 274.567 1118.6 t 0 r /Helvetica findfont 44.0776 sf 0 0 m (2) show NC gr 
 gsave  2263 1770 2 313 C 203.383 1091.49 t 0 r /Helvetica findfont 64.4212 sf 0 0 m (10) show NC gr  341 1174 m -22 X s 341 1206 m -22 X s 341 1228 m -22 X s 341 1245 m -22 X s 341 1260 m -22 X s 341 1272 m -22 X s 341 1282 m -22 X s 341 1291 m -22
 X s 363 1299 m -44 X s
 gsave  2263 1770 2 313 C 274.567 1301.65 t 0 r /Helvetica findfont 44.0776 sf 0 0 m (3) show NC gr 
 gsave  2263 1770 2 313 C 203.383 1271.14 t 0 r /Helvetica findfont 64.4212 sf 0 0 m (10) show NC gr  341 1353 m -22 X s 341 1384 m -22 X s 341 1407 m -22 X s 341 1424 m -22 X s 341 1438 m -22 X s 341 1450 m -22 X s 341 1461 m -22 X s 341 1470 m -22
 X s 363 1478 m -44 X s
 gsave  2263 1770 2 313 C 274.567 1477.91 t 0 r /Helvetica findfont 44.0776 sf 0 0 m (4) show NC gr 
 gsave  2263 1770 2 313 C 203.383 1450.8 t 0 r /Helvetica findfont 64.4212 sf 0 0 m (10) show NC gr  341 1532 m -22 X s 341 1563 m -22 X s 341 1586 m -22 X s 341 1603 m -22 X s 341 1617 m -22 X s 341 1629 m -22 X s 341 1639 m -22 X s 341 1648 m -22 X
 s 363 1657 m -44 X s
 gsave  2263 1770 2 313 C 274.567 1657.57 t 0 r /Helvetica findfont 44.0776 sf 0 0 m (5) show NC gr 
 gsave  2263 1770 2 313 C 203.383 1627.06 t 0 r /Helvetica findfont 64.4212 sf 0 0 m (10) show NC gr  341 1710 m -22 X s 2179 584 m 1145 Y s 2157 638 m 22 X s 2157 670 m 22 X s 2157 692 m 22 X s 2157 709 m 22 X s 2157 723 m 22 X s 2157 735 m 22 X s
 2157 746 m 22 X s 2157 755 m 22 X s 2136 763 m 43 X s 2157 817 m 22 X s 2157 848 m 22 X s 2157 871 m 22 X s 2157 888 m 22 X s 2157 902 m 22 X s 2157 914 m 22 X s 2157 924 m 22 X s 2157 934 m 22 X s 2136 942 m 43 X s 2157 996 m 22 X s 2157 1027 m 22
 X s 2157 1049 m 22 X s 2157 1067 m 22 X s 2157 1081 m 22 X s 2157 1093 m 22 X s 2157 1103 m 22 X s 2157 1112 m 22 X s 2136 1120 m 43 X s 2157 1174 m 22 X s 2157 1206 m 22 X s 2157 1228 m 22 X s 2157 1245 m 22 X s 2157 1260 m 22 X s 2157 1272 m 22 X
 s 2157 1282 m 22 X s 2157 1291 m 22 X s 2136 1299 m 43 X s 2157 1353 m 22 X s 2157 1384 m 22 X s 2157 1407 m 22 X s 2157 1424 m 22 X s 2157 1438 m 22 X s 2157 1450 m 22 X s 2157 1461 m 22 X s 2157 1470 m 22 X s 2136 1478 m 43 X s 2157 1532 m 22 X s
 2157 1563 m 22 X s 2157 1586 m 22 X s 2157 1603 m 22 X s 2157 1617 m 22 X s 2157 1629 m 22 X s 2157 1639 m 22 X s 2157 1648 m 22 X s 2136 1657 m 43 X s 2157 1710 m 22 X s 0.4 0.6 1 c black 0.4 0.6 1 c 319 584 m 523 Y 186 X -53 Y 186 X -64 Y 186 X
 -70 Y 186 X -51 Y 186 X -62 Y 186 X -105 Y 186 X -55 Y 186 X -63 Y 186 X 49 Y 186 X -49 Y f black 0.4 0.6 1 c black 319 1107 m 186 X -53 Y 186 X -64 Y 186 X -70 Y 186 X -51 Y 186 X -62 Y 186 X -105 Y 186 X -55 Y 186 X -63 Y 186 X 49 Y 186 X s 0.999
 0.999 0.999 c black 0.999 0.999 0.999 c 319 584 m 511 Y 186 X -51 Y 186 X -67 Y 186 X -72 Y 186 X -66 Y 186 X -61 Y 186 X -88 Y 186 X -52 Y 186 X -54 Y 186 X 34 Y 186 X -34 Y f black 0.999 0.999 0.999 c black 319 1095 m 186 X -51 Y 186 X -67 Y 186 X
 -72 Y 186 X -66 Y 186 X -61 Y 186 X -88 Y 186 X -52 Y 186 X -54 Y 186 X 34 Y 186 X s 1 1 1 c black 319 1095 m 186 X -51 Y 186 X -67 Y 186 X -72 Y 186 X -66 Y 186 X -61 Y 186 X -88 Y 186 X -52 Y 186 X -54 Y 186 X 34 Y 186 X s 0.6 1 0.6 c black 0.6 1
 0.6 c 319 584 m 511 Y 186 X -51 Y 186 X -67 Y 186 X -72 Y 186 X -66 Y 186 X -61 Y 186 X -88 Y 186 X -52 Y 186 X -54 Y 186 X 34 Y 186 X -34 Y f black 0.6 1 0.6 c black 319 1095 m 186 X -51 Y 186 X -67 Y 186 X -72 Y 186 X -66 Y 186 X -61 Y 186 X -88 Y
 186 X -52 Y 186 X -54 Y 186 X 34 Y 186 X s 0.999 0.999 0.999 c black 0.999 0.999 0.999 c 319 584 m 376 Y 186 X -44 Y 186 X -59 Y 186 X -47 Y 186 X -85 Y 186 X -11 Y 186 X -67 Y 186 X -55 Y 186 X -8 Y 186 X 24 Y 186 X -24 Y f black 0.999 0.999 0.999
 c black 319 960 m 186 X -44 Y 186 X -59 Y 186 X -47 Y 186 X -85 Y 186 X -11 Y 186 X -67 Y 186 X -55 Y 186 X -8 Y 186 X 24 Y 186 X s 1 1 1 c black 319 960 m 186 X -44 Y 186 X -59 Y 186 X -47 Y 186 X -85 Y 186 X -11 Y 186 X -67 Y 186 X -55 Y 186 X -8
 Y 186 X 24 Y 186 X s 1 0.8 0.4 c black 1 0.8 0.4 c 319 584 m 376 Y 186 X -44 Y 186 X -59 Y 186 X -47 Y 186 X -85 Y 186 X -11 Y 186 X -67 Y 186 X -55 Y 186 X -8 Y 186 X 24 Y 186 X -24 Y f black 1 0.8 0.4 c black 319 960 m 186 X -44 Y 186 X -59 Y 186
 X -47 Y 186 X -85 Y 186 X -11 Y 186 X -67 Y 186 X -55 Y 186 X -8 Y 186 X 24 Y 186 X s 0.999 0.999 0.999 c black 0.999 0.999 0.999 c 319 584 m 277 Y 186 X -48 Y 186 X -70 Y 186 X -49 Y 186 X -110 Y 1116 X f black 0.999 0.999 0.999 c black 319 861 m
 186 X -48 Y 186 X -70 Y 186 X -49 Y 186 X -110 Y 1116 X s 1 1 1 c black 319 861 m 186 X -48 Y 186 X -70 Y 186 X -49 Y 186 X -110 Y 1116 X s 1 0.4 0.6 c black 1 0.4 0.6 c 319 584 m 277 Y 186 X -48 Y 186 X -70 Y 186 X -49 Y 186 X -110 Y 1116 X f black
 1 0.4 0.6 c black 319 861 m 186 X -48 Y 186 X -70 Y 186 X -49 Y 186 X -110 Y 1116 X s 0.999 0.999 0.999 c black 0.999 0.999 0.999 c 319 584 m 191 Y 186 X -131 Y 186 X -60 Y 1488 X f black 0.999 0.999 0.999 c black 319 775 m 186 X -131 Y 186 X -60 Y
 1488 X s 1 1 1 c black 319 775 m 186 X -131 Y 186 X -60 Y 1488 X s 0 0 0.4 c black 0 0 0.4 c 319 584 m 191 Y 186 X -131 Y 186 X -60 Y 1488 X f black 0 0 0.4 c black 319 775 m 186 X -131 Y 186 X -60 Y 1488 X s 1 0 0 c 6 lw 1 1 1 c black 1 0 0 c 319
 1107 m 186 X -53 Y 186 X -64 Y 186 X -70 Y 186 X -51 Y 186 X -62 Y 186 X -105 Y 186 X -55 Y 186 X -63 Y 186 X 49 Y 186 X s black 3 lw 1 0 0 c 1 lw << /PatternType 1 /PaintType 2 /TilingType 1 /BBox [ 0 0 100 100 ] /XStep 100 /YStep 100 /PaintProc {
 begin gsave 0 100 m 100 0 l s gr end } >> [ 0.24 0 0 0.24 0 0 ] makepattern /P05 exch def /cs {[/Pattern /DeviceRGB] setcolorspace} def /FA {f [/DeviceRGB] setcolorspace} def cs 1 0 0 P05 setcolor 319 584 m 527 Y 186 X -52 Y 186 X -64 Y 186 X -69 Y
 186 X -46 Y 186 X -61 Y 186 X -102 Y 186 X -54 Y 186 X -79 Y 186 X 89 Y 186 X -89 Y -372 X 41 Y -186 X 58 Y -186 X 110 Y -186 X 62 Y -186 X 58 Y -186 X 72 Y -186 X 64 Y -186 X 54 Y -186 X -519 Y FA 6 lw 1 1 1 c 15 lw 784 969 m 1 Y s 784 970 m cl s
 784 929 m -7 Y s 784 922 m cl s 970 908 m 10 Y s 970 918 m cl s 970 868 m -24 Y s 970 844 m cl s 1156 837 m 26 Y s 1156 863 m cl s 1156 796 m -59 Y s 1156 737 m cl s 1342 783 m 44 Y s 1342 827 m cl s 1342 743 m -116 Y s 1342 627 m cl s 1528 783 m 44
 Y s 1528 827 m cl s 1528 743 m -116 Y s 1528 627 m cl s 1714 783 m 44 Y s 1714 827 m cl s 1714 743 m -116 Y s 1714 627 m cl s black 1 1 1 c 3 lw /w 43 def /w2 {w 2 div} def /w3 {w 3 div} def 412 1101 598 1027 784 949 970 888 1156 817 1342 763 1528
 763 1714 763 8 { m20} R 15 lw black 6 lw 1 1 1 c black 3 lw /w 33 def /w2 {w 2 div} def /w3 {w 3 div} def 412 1101 m20 6 lw 598 1011 m 2 Y s 3 lw 598 1027 m20 6 lw 784 921 m 15 Y s 784 963 m 7 Y s 3 lw 784 949 m20 6 lw 970 842 m 32 Y s 970 902 m 15
 Y s 3 lw 970 888 m20 6 lw 1156 722 m 81 Y s 1156 830 m 28 Y s 3 lw 1156 817 m20 6 lw 1342 584 m 165 Y s 1342 777 m 40 Y s 3 lw 1342 763 m20 6 lw 1528 584 m 165 Y s 1528 777 m 40 Y s 3 lw 1528 763 m20 6 lw 1714 584 m 165 Y s 1714 777 m 40 Y s 3 lw
 1714 763 m20 6 lw 598 1013 m -1 Y s 598 1012 m cl s 784 963 m 7 Y s 784 970 m cl s 784 936 m -14 Y s 784 922 m cl s 970 902 m 16 Y s 970 918 m cl s 970 874 m -30 Y s 970 844 m cl s 1156 830 m 33 Y s 1156 863 m cl s 1156 803 m -66 Y s 1156 737 m cl s
 1342 777 m 50 Y s 1342 827 m cl s 1342 749 m -122 Y s 1342 627 m cl s 1528 777 m 50 Y s 1528 827 m cl s 1528 749 m -122 Y s 1528 627 m cl s 1714 777 m 50 Y s 1714 827 m cl s 1714 749 m -122 Y s 1714 627 m cl s 3 lw 412 1101 598 1027 784 949 970 888
 1156 817 1342 763 1528 763 1714 763 8 { m20} R 6 lw 3 lw 319 584 m 1860 X s 319 584 m cl s 366 584 m cl s 412 584 m cl s 459 584 m cl s 505 584 m cl s 552 584 m cl s 598 584 m cl s 645 584 m cl s 691 584 m cl s 738 584 m cl s 784 584 m cl s 831 584
 m cl s 877 584 m cl s 924 584 m cl s 970 584 m cl s 1017 584 m cl s 1063 584 m cl s 1110 584 m cl s 1156 584 m cl s 1203 584 m cl s 1249 584 m cl s 1296 584 m cl s 1342 584 m cl s 1389 584 m cl s 1435 584 m cl s 1482 584 m cl s 1528 584 m cl s 1575
 584 m cl s 1621 584 m cl s 1668 584 m cl s 1714 584 m cl s 1761 584 m cl s 1807 584 m cl s 1854 584 m cl s 1900 584 m cl s 1947 584 m cl s 1993 584 m cl s 2040 584 m cl s 2086 584 m cl s 2133 584 m cl s 2179 584 m cl s 319 1729 m 1860 X s 319 1729 m
 cl s 366 1729 m cl s 412 1729 m cl s 459 1729 m cl s 505 1729 m cl s 552 1729 m cl s 598 1729 m cl s 645 1729 m cl s 691 1729 m cl s 738 1729 m cl s 784 1729 m cl s 831 1729 m cl s 877 1729 m cl s 924 1729 m cl s 970 1729 m cl s 1017 1729 m cl s
 1063 1729 m cl s 1110 1729 m cl s 1156 1729 m cl s 1203 1729 m cl s 1249 1729 m cl s 1296 1729 m cl s 1342 1729 m cl s 1389 1729 m cl s 1435 1729 m cl s 1482 1729 m cl s 1528 1729 m cl s 1575 1729 m cl s 1621 1729 m cl s 1668 1729 m cl s 1714 1729 m
 cl s 1761 1729 m cl s 1807 1729 m cl s 1854 1729 m cl s 1900 1729 m cl s 1947 1729 m cl s 1993 1729 m cl s 2040 1729 m cl s 2086 1729 m cl s 2133 1729 m cl s 2179 1729 m cl s 319 584 m 1145 Y s 341 638 m -22 X s 341 670 m -22 X s 341 692 m -22 X s
 341 709 m -22 X s 341 723 m -22 X s 341 735 m -22 X s 341 746 m -22 X s 341 755 m -22 X s 363 763 m -44 X s 341 817 m -22 X s 341 848 m -22 X s 341 871 m -22 X s 341 888 m -22 X s 341 902 m -22 X s 341 914 m -22 X s 341 924 m -22 X s 341 934 m -22 X
 s 363 942 m -44 X s 341 996 m -22 X s 341 1027 m -22 X s 341 1049 m -22 X s 341 1067 m -22 X s 341 1081 m -22 X s 341 1093 m -22 X s 341 1103 m -22 X s 341 1112 m -22 X s 363 1120 m -44 X s 341 1174 m -22 X s 341 1206 m -22 X s 341 1228 m -22 X s
 341 1245 m -22 X s 341 1260 m -22 X s 341 1272 m -22 X s 341 1282 m -22 X s 341 1291 m -22 X s 363 1299 m -44 X s 341 1353 m -22 X s 341 1384 m -22 X s 341 1407 m -22 X s 341 1424 m -22 X s 341 1438 m -22 X s 341 1450 m -22 X s 341 1461 m -22 X s
 341 1470 m -22 X s 363 1478 m -44 X s 341 1532 m -22 X s 341 1563 m -22 X s 341 1586 m -22 X s 341 1603 m -22 X s 341 1617 m -22 X s 341 1629 m -22 X s 341 1639 m -22 X s 341 1648 m -22 X s 363 1657 m -44 X s 341 1710 m -22 X s 2179 584 m 1145 Y s
 2157 638 m 22 X s 2157 670 m 22 X s 2157 692 m 22 X s 2157 709 m 22 X s 2157 723 m 22 X s 2157 735 m 22 X s 2157 746 m 22 X s 2157 755 m 22 X s 2136 763 m 43 X s 2157 817 m 22 X s 2157 848 m 22 X s 2157 871 m 22 X s 2157 888 m 22 X s 2157 902 m 22 X
 s 2157 914 m 22 X s 2157 924 m 22 X s 2157 934 m 22 X s 2136 942 m 43 X s 2157 996 m 22 X s 2157 1027 m 22 X s 2157 1049 m 22 X s 2157 1067 m 22 X s 2157 1081 m 22 X s 2157 1093 m 22 X s 2157 1103 m 22 X s 2157 1112 m 22 X s 2136 1120 m 43 X s 2157
 1174 m 22 X s 2157 1206 m 22 X s 2157 1228 m 22 X s 2157 1245 m 22 X s 2157 1260 m 22 X s 2157 1272 m 22 X s 2157 1282 m 22 X s 2157 1291 m 22 X s 2136 1299 m 43 X s 2157 1353 m 22 X s 2157 1384 m 22 X s 2157 1407 m 22 X s 2157 1424 m 22 X s 2157
 1438 m 22 X s 2157 1450 m 22 X s 2157 1461 m 22 X s 2157 1470 m 22 X s 2136 1478 m 43 X s 2157 1532 m 22 X s 2157 1563 m 22 X s 2157 1586 m 22 X s 2157 1603 m 22 X s 2157 1617 m 22 X s 2157 1629 m 22 X s 2157 1639 m 22 X s 2157 1648 m 22 X s 2136
 1657 m 43 X s 2157 1710 m 22 X s
 gsave  2263 1770 2 313 C 406.765 1447.41 t 0 r /Helvetica findfont 64.4212 sf 0 0 m (VR0LmetSig for MB\255GGo) show NC gr 
 gsave  2263 1770 2 313 C 1464.36 1630.45 t 0 r /Helvetica findfont 64.4212 sf 0 0 m (SM Total) show NC gr  1 1 1 c 1338 1616 m 107 X 64 Y -107 X f 1 0 0 c 6 lw 1338 1648 m 107 X s black
 gsave  2263 1770 2 313 C 1464.36 1538.93 t 0 r /Helvetica findfont 64.4212 sf 0 0 m (Data) show NC gr  1391 1529 m 55 Y s 3 lw 1391 1557 m20 6 lw
 gsave  2263 1770 2 313 C 1464.36 1447.41 t 0 r /Helvetica findfont 64.4212 sf 0 0 m (W+jets) show NC gr  0.4 0.6 1 c 3 lw 1338 1434 m 107 X 64 Y -107 X f 6 lw black 3 lw 1338 1498 m 107 X s 1338 1434 m 107 X s 1445 1434 m 64 Y s 1338 1434 m 64 Y s
 gsave  2263 1770 2 313 C 1498.25 1355.88 t 0 r /Helvetica findfont 64.4212 sf 0 0 m (\(+EW\) & single top) show NC gr 
 gsave  2263 1770 2 313 C 1481.3 1355.88 t 0 r /Helvetica findfont 64.4212 sf 0 0 m (t) show NC gr  1481 1407 m 17 X s
 gsave  2263 1770 2 313 C 1464.36 1355.88 t 0 r /Helvetica findfont 64.4212 sf 0 0 m (t) show NC gr  0.6 1 0.6 c 1338 1343 m 107 X 63 Y -107 X f black 1338 1406 m 107 X s 1338 1343 m 107 X s 1445 1343 m 63 Y s 1338 1343 m 63 Y s
 gsave  2263 1770 2 313 C 1464.36 1264.36 t 0 r /Helvetica findfont 64.4212 sf 0 0 m (Z+jets) show NC gr  1 0.8 0.4 c 1338 1252 m 107 X 63 Y -107 X f black 1338 1315 m 107 X s 1338 1252 m 107 X s 1445 1252 m 63 Y s 1338 1252 m 63 Y s
 gsave  2263 1770 2 313 C 1464.36 1172.84 t 0 r /Helvetica findfont 64.4212 sf 0 0 m (Diboson) show NC gr  1 0.4 0.6 c 1338 1161 m 107 X 63 Y -107 X f black 1338 1224 m 107 X s 1338 1161 m 107 X s 1445 1161 m 63 Y s 1338 1161 m 63 Y s
 gsave  2263 1770 2 313 C 1464.36 1081.32 t 0 r /Helvetica findfont 64.4212 sf 0 0 m (Multi\255jet) show NC gr  0 0 0.4 c 1338 1070 m 107 X 63 Y -107 X f black 1338 1133 m 107 X s 1338 1070 m 107 X s 1445 1070 m 63 Y s 1338 1070 m 63 Y s
 gsave  2263 1770 2 313 C 911.832 1566.05 t 0 r /Helvetica findfont 44.0776 sf 0 0 m (\2551) show NC gr 
 gsave  2263 1770 2 313 C 471.17 1535.54 t 0 r /Helvetica findfont 64.4212 sf 0 0 m (=13TeV, 139 fb) show NC gr 
 gsave  2263 1770 2 313 C 440.662 1535.54 t 0 r /Helvetica findfont 64.4212 sf 0 0 m (s) show NC gr  6 lw 420 1573 m 7 -41 d s 3 lw 427 1532 m 7 61 d s 434 1593 m 37 X s 1 1 1 c 2254 561 2 2 bf black 1 1 1 c black 1860 358 318 187 bl 1 1 1 c black
 1860 358 318 187 bl 6 lw 1 1 1 c black 3 lw 411 354 m20 6 lw 3 lw 597 318 m20 6 lw 3 lw 783 300 m20 6 lw 3 lw 969 311 m20 6 lw 3 lw 1155 287 m20 6 lw 3 lw 1341 295 m20 6 lw 3 lw 318 187 m 1860 X s
 gsave  2254 561 2 2 C 2105.01 64.4045 t 0 r /Helvetica findfont 50.9797 sf 0 0 m (1/2) show NC gr 
 gsave  2254 561 2 2 C 1888.07 23.728 t 0 r /Helvetica findfont 78.1689 sf 0 0 m ( [GeV]) show NC gr 
 gsave  2254 561 2 2 C 1857.56 3.38971 t 0 r /Helvetica findfont 50.9797 sf 0 0 m (T) show NC gr 
 gsave  2254 561 2 2 C 1806.72 23.728 t 0 r /Helvetica findfont 78.1689 sf 0 0 m (H) show NC gr  6 lw 1773 81 m 10 -78 d s 3 lw 1783 3 m 14 99 d s 1797 102 m 91 X s
 gsave  2254 561 2 2 C 1735.53 23.728 t 0 r /Helvetica findfont 78.1689 sf 0 0 m (/) show NC gr 
 gsave  2254 561 2 2 C 1630.45 61.0148 t 0 r /Helvetica findfont 50.9797 sf 0 0 m (miss) show NC gr 
 gsave  2254 561 2 2 C 1630.45 3.38971 t 0 r /Helvetica findfont 50.9797 sf 0 0 m (T) show NC gr 
 gsave  2254 561 2 2 C 1579.61 23.728 t 0 r /Helvetica findfont 78.1689 sf 0 0 m (E) show NC gr  318 201 m -14 Y s 364 194 m -7 Y s 411 194 m -7 Y s 457 194 m -7 Y s 504 201 m -14 Y s 550 194 m -7 Y s 597 194 m -7 Y s 643 194 m -7 Y s 690 201 m -14 Y
 s 736 194 m -7 Y s 783 194 m -7 Y s 829 194 m -7 Y s 876 201 m -14 Y s 923 194 m -7 Y s 969 194 m -7 Y s 1016 194 m -7 Y s 1062 201 m -14 Y s 1109 194 m -7 Y s 1155 194 m -7 Y s 1202 194 m -7 Y s 1248 201 m -14 Y s 1295 194 m -7 Y s 1341 194 m -7 Y
 s 1388 194 m -7 Y s 1434 201 m -14 Y s 1481 194 m -7 Y s 1527 194 m -7 Y s 1574 194 m -7 Y s 1620 201 m -14 Y s 1667 194 m -7 Y s 1713 194 m -7 Y s 1760 194 m -7 Y s 1806 201 m -14 Y s 1853 194 m -7 Y s 1899 194 m -7 Y s 1946 194 m -7 Y s 1992 201 m
 -14 Y s 2039 194 m -7 Y s 2085 194 m -7 Y s 2132 194 m -7 Y s 2178 201 m -14 Y s
 gsave  2254 561 2 2 C 271.177 118.64 t 0 r /Helvetica findfont 78.1689 sf 0 0 m (10) show NC gr 
 gsave  2254 561 2 2 C 457.611 118.64 t 0 r /Helvetica findfont 78.1689 sf 0 0 m (12) show NC gr 
 gsave  2254 561 2 2 C 644.045 118.64 t 0 r /Helvetica findfont 78.1689 sf 0 0 m (14) show NC gr 
 gsave  2254 561 2 2 C 830.479 118.64 t 0 r /Helvetica findfont 78.1689 sf 0 0 m (16) show NC gr 
 gsave  2254 561 2 2 C 1016.91 118.64 t 0 r /Helvetica findfont 78.1689 sf 0 0 m (18) show NC gr 
 gsave  2254 561 2 2 C 1203.35 118.64 t 0 r /Helvetica findfont 78.1689 sf 0 0 m (20) show NC gr 
 gsave  2254 561 2 2 C 1389.78 118.64 t 0 r /Helvetica findfont 78.1689 sf 0 0 m (22) show NC gr 
 gsave  2254 561 2 2 C 1572.83 118.64 t 0 r /Helvetica findfont 78.1689 sf 0 0 m (24) show NC gr 
 gsave  2254 561 2 2 C 1759.26 118.64 t 0 r /Helvetica findfont 78.1689 sf 0 0 m (26) show NC gr 
 gsave  2254 561 2 2 C 1945.69 118.64 t 0 r /Helvetica findfont 78.1689 sf 0 0 m (28) show NC gr 
 gsave  2254 561 2 2 C 2132.13 118.64 t 0 r /Helvetica findfont 78.1689 sf 0 0 m (30) show NC gr  318 545 m 1860 X s 318 531 m 14 Y s 364 538 m 7 Y s 411 538 m 7 Y s 457 538 m 7 Y s 504 531 m 14 Y s 550 538 m 7 Y s 597 538 m 7 Y s 643 538 m 7 Y s 690
 531 m 14 Y s 736 538 m 7 Y s 783 538 m 7 Y s 829 538 m 7 Y s 876 531 m 14 Y s 923 538 m 7 Y s 969 538 m 7 Y s 1016 538 m 7 Y s 1062 531 m 14 Y s 1109 538 m 7 Y s 1155 538 m 7 Y s 1202 538 m 7 Y s 1248 531 m 14 Y s 1295 538 m 7 Y s 1341 538 m 7 Y s
 1388 538 m 7 Y s 1434 531 m 14 Y s 1481 538 m 7 Y s 1527 538 m 7 Y s 1574 538 m 7 Y s 1620 531 m 14 Y s 1667 538 m 7 Y s 1713 538 m 7 Y s 1760 538 m 7 Y s 1806 531 m 14 Y s 1853 538 m 7 Y s 1899 538 m 7 Y s 1946 538 m 7 Y s 1992 531 m 14 Y s 2039
 538 m 7 Y s 2085 538 m 7 Y s 2132 538 m 7 Y s 2178 531 m 14 Y s 318 187 m 358 Y s
 gsave  2254 561 2 2 C 166.096 284.736 t 90 r /Helvetica findfont 67.9729 sf 0 0 m (Data/SM) show NC gr  361 203 m -43 X s 339 220 m -21 X s 339 236 m -21 X s 339 252 m -21 X s 339 268 m -21 X s 361 285 m -43 X s 339 301 m -21 X s 339 317 m -21 X s
 339 334 m -21 X s 339 350 m -21 X s 361 366 m -43 X s 339 382 m -21 X s 339 399 m -21 X s 339 415 m -21 X s 339 431 m -21 X s 361 447 m -43 X s 339 464 m -21 X s 339 480 m -21 X s 339 496 m -21 X s 339 512 m -21 X s 361 529 m -43 X s 361 203 m -43 X
 s 339 187 m -21 X s 361 529 m -43 X s
 gsave  2254 561 2 2 C 261.008 183.044 t 0 r /Helvetica findfont 57.777 sf 0 0 m (0) show NC gr 
 gsave  2254 561 2 2 C 213.552 261.008 t 0 r /Helvetica findfont 57.777 sf 0 0 m (0.5) show NC gr 
 gsave  2254 561 2 2 C 271.177 342.361 t 0 r /Helvetica findfont 57.777 sf 0 0 m (1) show NC gr 
 gsave  2254 561 2 2 C 213.552 423.714 t 0 r /Helvetica findfont 57.777 sf 0 0 m (1.5) show NC gr 
 gsave  2254 561 2 2 C 261.008 505.067 t 0 r /Helvetica findfont 57.777 sf 0 0 m (2) show NC gr  2178 187 m 358 Y s 2135 203 m 43 X s 2157 220 m 21 X s 2157 236 m 21 X s 2157 252 m 21 X s 2157 268 m 21 X s 2135 285 m 43 X s 2157 301 m 21 X s 2157 317
 m 21 X s 2157 334 m 21 X s 2157 350 m 21 X s 2135 366 m 43 X s 2157 382 m 21 X s 2157 399 m 21 X s 2157 415 m 21 X s 2157 431 m 21 X s 2135 447 m 43 X s 2157 464 m 21 X s 2157 480 m 21 X s 2157 496 m 21 X s 2157 512 m 21 X s 2135 529 m 43 X s 2135
 203 m 43 X s 2157 187 m 21 X s 2135 529 m 43 X s 9 lw 411 368 m 3 Y s 411 371 m cl s 411 340 m -3 Y s 411 337 m cl s 597 331 m 8 Y s 597 339 m cl s 597 304 m -7 Y s 597 297 m cl s 783 313 m 17 Y s 783 330 m cl s 783 286 m -15 Y s 783 271 m cl s 969
 325 m 37 Y s 969 362 m cl s 969 298 m -33 Y s 969 265 m cl s 1155 300 m 54 Y s 1155 354 m cl s 1155 273 m -40 Y s 1155 233 m cl s 1341 309 m 105 Y s 1341 414 m cl s 1341 282 m -63 Y s 1341 219 m cl s 1527 545 m -279 Y s 1527 266 m cl s 1713 545 m
 -215 Y s 1713 330 m cl s 3 lw 411 354 597 318 783 300 969 311 1155 287 1341 295 6 { m20} R 9 lw 1 0 0 c 6 lw black 3 lw 1 0 0 c 2178 284 m -27 -28 d s 2178 312 m -56 -56 d s 2178 341 m -85 -85 d s 2178 369 m -114 -113 d s 2178 398 m -142 -142 d s
 2178 427 m -171 -171 d s 2178 455 m -186 -185 d s 2171 476 m -179 -178 d s 2142 476 m -165 -165 d s 2113 476 m -165 -165 d s 2085 476 m -166 -165 d s 2056 476 m -166 -165 d s 2027 476 m -35 -35 d s 1972 421 m -110 -110 d s 1998 476 m -6 -6 d s 1943
 421 m -110 -110 d s 1914 421 m -108 -108 d s 1886 421 m -95 -94 d s 1857 421 m -94 -94 d s 1828 421 m -94 -94 d s 1784 405 m -79 -78 d s 1755 405 m -78 -78 d s 1727 405 m -79 -78 d s 1698 405 m -78 -77 d s 1669 405 m -74 -74 d s 1640 405 m -74 -74 d
 s 1608 401 m -71 -70 d s 1579 401 m -70 -70 d s 1550 401 m -70 -70 d s 1521 401 m -70 -70 d s 1493 401 m -62 -62 d s 1464 401 m -62 -62 d s 1435 401 m -1 -1 d s 1427 393 m -53 -54 d s 1398 393 m -53 -54 d s 1370 393 m -54 -54 d s 1341 393 m -54 -54
 d s 1312 393 m -53 -54 d s 1284 393 m -53 -53 d s 1255 393 m -53 -53 d s 1225 392 m -51 -52 d s 1197 392 m -52 -52 d s 1168 392 m -52 -52 d s 1139 392 m -51 -52 d s 1111 392 m -49 -49 d s 1082 392 m -39 -39 d s 1041 379 m -27 -26 d s 1012 379 m -27
 -26 d s 983 379 m -26 -26 d s 955 379 m -27 -26 d s 926 379 m -27 -26 d s 897 379 m -24 -23 d s 866 376 m -21 -20 d s 837 376 m -21 -20 d s 808 376 m -21 -20 d s 779 376 m -20 -20 d s 751 376 m -21 -20 d s 722 376 m -21 -20 d s 693 376 m -21 -21 d s
 665 377 m -21 -22 d s 636 377 m -21 -22 d s 608 377 m -22 -22 d s 579 377 m -21 -22 d s 550 377 m -21 -22 d s 522 377 m -19 -19 d s 490 374 m -16 -16 d s 462 374 m -17 -16 d s 318 231 m s 433 374 m -16 -16 d s 318 259 m s 404 374 m -16 -16 d s 318
 288 m s 376 374 m -17 -16 d s 318 317 m s 347 374 m -16 -16 d s 318 345 m s 318 374 m s 6 lw black[ 4 8] 0 sd 3 lw 318 447 m 1860 X s 318 285 m 1860 X s 1 0 0 c[  12 12 ] 0 sd 6 lw 318 366 m 1860 X s
 gr  gr showpage
end
%%EOF
