%!PS-Adobe-2.0 EPSF-2.0
%%BoundingBox:  0 0 567 521
%%Title: Distributions/metsqrtmeffInc_met_distrCRT_MB-SSd_afterFit_forThesis.eps: canvas
%%Creator: ROOT Version 6.04/16
%%CreationDate: Tue May 19 22:05:28 2020
%%DocumentNeededResources: ProcSet (FontSetInit)
%%EndComments
%%BeginProlog
80 dict begin
/s {stroke} def /l {lineto} def /m {moveto} def /t {translate} def
/r {rotate} def /rl {roll}  def /R {repeat} def
/d {rlineto} def /rm {rmoveto} def /gr {grestore} def /f {eofill} def
/c {setrgbcolor} def /black {0 setgray} def /sd {setdash} def
/cl {closepath} def /sf {scalefont setfont} def /lw {setlinewidth} def
/box {m dup 0 exch d exch 0 d 0 exch neg d cl} def
/NC{systemdict begin initclip end}def/C{NC box clip newpath}def
/bl {box s} def /bf {gsave box gsave f grestore 1 lw [] 0 sd s grestore} def /Y { 0 exch d} def /X { 0 d} def 
/K {{pop pop 0 moveto} exch kshow} bind def
/ita {/ang 15 def gsave [1 0 ang dup sin exch cos div 1 0 0] concat} def 
/mp {newpath /y exch def /x exch def} def
/side {[w .77 mul w .23 mul] .385 w mul sd w 0 l currentpoint t -144 r} def
/mr {mp x y w2 0 360 arc} def /m24 {mr s} def /m20 {mr f} def
/mb {mp x y w2 add m w2 neg 0 d 0 w neg d w 0 d 0 w d cl} def
/mt {mp x y w2 add m w2 neg w neg d w 0 d cl} def
/m21 {mb f} def /m25 {mb s} def /m22 {mt f} def /m26{mt s} def
/m23 {mp x y w2 sub m w2 w d w neg 0 d cl f} def
/m27 {mp x y w2 add m w3 neg w2 neg d w3 w2 neg d w3 w2 d cl s} def
/m28 {mp x w2 sub y w2 sub w3 add m w3 0 d  0 w3 neg d w3 0 d 0 w3 d w3 0 d  0 w3 d w3 neg 0 d 0 w3 d w3 neg 0 d 0 w3 neg d w3 neg 0 d cl s } def
/m29 {mp gsave x w2 sub y w2 add w3 sub m currentpoint t 4 {side} repeat cl fill gr} def
/m30 {mp gsave x w2 sub y w2 add w3 sub m currentpoint t 4 {side} repeat cl s gr} def
/m31 {mp x y w2 sub m 0 w d x w2 sub y m w 0 d x w2 sub y w2 add m w w neg d x w2 sub y w2 sub m w w d s} def
/m32 {mp x y w2 sub m w2 w d w neg 0 d cl s} def
/m33 {mp x y w2 add m w3 neg w2 neg d w3 w2 neg d w3 w2 d cl f} def
/m34 {mp x w2 sub y w2 sub w3 add m w3 0 d  0 w3 neg d w3 0 d 0 w3 d w3 0 d  0 w3 d w3 neg 0 d 0 w3 d w3 neg 0 d 0 w3 neg d w3 neg 0 d cl f } def
/m2 {mp x y w2 sub m 0 w d x w2 sub y m w 0 d s} def
/m5 {mp x w2 sub y w2 sub m w w d x w2 sub y w2 add m w w neg d s} def
%%IncludeResource: ProcSet (FontSetInit)
%%IncludeResource: font Times-Roman
%%IncludeResource: font Times-Italic
%%IncludeResource: font Times-Bold
%%IncludeResource: font Times-BoldItalic
%%IncludeResource: font Helvetica
%%IncludeResource: font Helvetica-Oblique
%%IncludeResource: font Helvetica-Bold
%%IncludeResource: font Helvetica-BoldOblique
%%IncludeResource: font Courier
%%IncludeResource: font Courier-Oblique
%%IncludeResource: font Courier-Bold
%%IncludeResource: font Courier-BoldOblique
%%IncludeResource: font Symbol
%%IncludeResource: font ZapfDingbats
/reEncode {exch findfont dup length dict begin {1 index /FID eq  {pop pop} {def} ifelse } forall /Encoding exch def currentdict end dup /FontName get exch definefont pop } def [/Times-Bold /Times-Italic /Times-BoldItalic /Helvetica /Helvetica-Oblique
 /Helvetica-Bold /Helvetica-BoldOblique /Courier /Courier-Oblique /Courier-Bold /Courier-BoldOblique /Times-Roman /AvantGarde-Book /AvantGarde-BookOblique /AvantGarde-Demi /AvantGarde-DemiOblique /Bookman-Demi /Bookman-DemiItalic /Bookman-Light
 /Bookman-LightItalic /Helvetica-Narrow /Helvetica-Narrow-Bold /Helvetica-Narrow-BoldOblique /Helvetica-Narrow-Oblique /NewCenturySchlbk-Roman /NewCenturySchlbk-Bold /NewCenturySchlbk-BoldItalic /NewCenturySchlbk-Italic /Palatino-Bold
 /Palatino-BoldItalic /Palatino-Italic /Palatino-Roman ] {ISOLatin1Encoding reEncode } forall
%%EndProlog
%%BeginSetup
%%EndSetup
newpath  gsave  .25 .25 scale  gsave  0 0 t black[  ] 0 sd 3 lw 1 1 1 c 2268 2085 0 0 bf black 1 1 1 c 2263 1770 2 313 bf black 1 1 1 c black 1860 1145 319 584 bl 1 1 1 c black 1860 1145 319 584 bl 6 lw 1 1 1 c black 3 lw /w 33 def /w2 {w 2 div} def
 /w3 {w 3 div} def 366 1244 m20 6 lw 3 lw 459 1224 m20 6 lw 3 lw 552 1190 m20 6 lw 3 lw 645 1144 m20 6 lw 3 lw 738 1103 m20 6 lw 3 lw 831 1061 m20 6 lw 3 lw 924 1004 m20 6 lw 3 lw 1017 955 m20 6 lw 3 lw 1110 920 m20 6 lw 1203 812 m 15 Y s 1203 854 m
 6 Y s 3 lw 1203 840 m20 6 lw 1296 765 m 28 Y s 1296 820 m 11 Y s 3 lw 1296 807 m20 6 lw 1482 584 m 126 Y s 1482 737 m 28 Y s 3 lw 1482 723 m20 6 lw 3 lw 319 584 m 1860 X s
 gsave  2263 1770 2 313 C 2101.62 396.596 t 0 r /Helvetica findfont 54.2494 sf 0 0 m (1/2) show NC gr 
 gsave  2263 1770 2 313 C 1874.51 355.92 t 0 r /Helvetica findfont 81.3741 sf 0 0 m ( [GeV]) show NC gr 
 gsave  2263 1770 2 313 C 1840.61 332.192 t 0 r /Helvetica findfont 54.2494 sf 0 0 m (T) show NC gr 
 gsave  2263 1770 2 313 C 1786.38 355.92 t 0 r /Helvetica findfont 81.3741 sf 0 0 m (H) show NC gr  6 lw 1749 417 m 14 -85 d s 3 lw 1763 332 m 13 105 d s 1776 437 m 99 X s
 gsave  2263 1770 2 313 C 1711.8 355.92 t 0 r /Helvetica findfont 81.3741 sf 0 0 m (/) show NC gr 
 gsave  2263 1770 2 313 C 1599.94 396.596 t 0 r /Helvetica findfont 54.2494 sf 0 0 m (miss) show NC gr 
 gsave  2263 1770 2 313 C 1599.94 332.192 t 0 r /Helvetica findfont 54.2494 sf 0 0 m (T) show NC gr 
 gsave  2263 1770 2 313 C 1549.1 355.92 t 0 r /Helvetica findfont 81.3741 sf 0 0 m (E) show NC gr  319 584 m cl s 366 584 m cl s 412 584 m cl s 459 584 m cl s 505 584 m cl s 552 584 m cl s 598 584 m cl s 645 584 m cl s 691 584 m cl s 738 584 m cl s
 784 584 m cl s 831 584 m cl s 877 584 m cl s 924 584 m cl s 970 584 m cl s 1017 584 m cl s 1063 584 m cl s 1110 584 m cl s 1156 584 m cl s 1203 584 m cl s 1249 584 m cl s 1296 584 m cl s 1342 584 m cl s 1389 584 m cl s 1435 584 m cl s 1482 584 m cl
 s 1528 584 m cl s 1575 584 m cl s 1621 584 m cl s 1668 584 m cl s 1714 584 m cl s 1761 584 m cl s 1807 584 m cl s 1854 584 m cl s 1900 584 m cl s 1947 584 m cl s 1993 584 m cl s 2040 584 m cl s 2086 584 m cl s 2133 584 m cl s 2179 584 m cl s 319
 1729 m 1860 X s 319 1729 m cl s 366 1729 m cl s 412 1729 m cl s 459 1729 m cl s 505 1729 m cl s 552 1729 m cl s 598 1729 m cl s 645 1729 m cl s 691 1729 m cl s 738 1729 m cl s 784 1729 m cl s 831 1729 m cl s 877 1729 m cl s 924 1729 m cl s 970 1729
 m cl s 1017 1729 m cl s 1063 1729 m cl s 1110 1729 m cl s 1156 1729 m cl s 1203 1729 m cl s 1249 1729 m cl s 1296 1729 m cl s 1342 1729 m cl s 1389 1729 m cl s 1435 1729 m cl s 1482 1729 m cl s 1528 1729 m cl s 1575 1729 m cl s 1621 1729 m cl s 1668
 1729 m cl s 1714 1729 m cl s 1761 1729 m cl s 1807 1729 m cl s 1854 1729 m cl s 1900 1729 m cl s 1947 1729 m cl s 1993 1729 m cl s 2040 1729 m cl s 2086 1729 m cl s 2133 1729 m cl s 2179 1729 m cl s 319 584 m 1145 Y s
 gsave  2263 1770 2 313 C 125.419 1654.18 t 90 r /Helvetica findfont 54.2494 sf 0 0 m (1/2) show NC gr 
 gsave  2263 1770 2 313 C 166.096 1064.37 t 90 r /Helvetica findfont 81.3741 sf 0 0 m (Events / 2 [GeV]) show NC gr  341 626 m -22 X s 341 651 m -22 X s 341 668 m -22 X s 341 681 m -22 X s 341 692 m -22 X s 341 702 m -22 X s 341 710 m -22 X s 341 717
 m -22 X s 363 723 m -44 X s
 gsave  2263 1770 2 313 C 300.555 696.026 t 0 r  -36 0 t /Helvetica findfont 64.4212 sf 0 0 m (1) show NC gr  341 765 m -22 X s 341 789 m -22 X s 341 807 m -22 X s 341 820 m -22 X s 341 831 m -22 X s 341 840 m -22 X s 341 849 m -22 X s 341 856 m -22
 X s 363 862 m -44 X s
 gsave  2263 1770 2 313 C 300.555 834.86 t 0 r  -73 0 t /Helvetica findfont 64.4212 sf 0 0 m (10) show NC gr  341 904 m -22 X s 341 928 m -22 X s 341 946 m -22 X s 341 959 m -22 X s 341 970 m -22 X s 341 979 m -22 X s 341 987 m -22 X s 341 994 m -22
 X s 363 1001 m -44 X s
 gsave  2263 1770 2 313 C 274.567 999.965 t 0 r /Helvetica findfont 44.0776 sf 0 0 m (2) show NC gr 
 gsave  2263 1770 2 313 C 203.383 972.847 t 0 r /Helvetica findfont 64.4212 sf 0 0 m (10) show NC gr  341 1043 m -22 X s 341 1067 m -22 X s 341 1084 m -22 X s 341 1098 m -22 X s 341 1109 m -22 X s 341 1118 m -22 X s 341 1126 m -22 X s 341 1133 m -22
 X s 363 1140 m -44 X s
 gsave  2263 1770 2 313 C 274.567 1142.33 t 0 r /Helvetica findfont 44.0776 sf 0 0 m (3) show NC gr 
 gsave  2263 1770 2 313 C 203.383 1111.83 t 0 r /Helvetica findfont 64.4212 sf 0 0 m (10) show NC gr  341 1181 m -22 X s 341 1206 m -22 X s 341 1223 m -22 X s 341 1237 m -22 X s 341 1248 m -22 X s 341 1257 m -22 X s 341 1265 m -22 X s 341 1272 m -22
 X s 363 1278 m -44 X s
 gsave  2263 1770 2 313 C 274.567 1277.92 t 0 r /Helvetica findfont 44.0776 sf 0 0 m (4) show NC gr 
 gsave  2263 1770 2 313 C 203.383 1250.8 t 0 r /Helvetica findfont 64.4212 sf 0 0 m (10) show NC gr  341 1320 m -22 X s 341 1345 m -22 X s 341 1362 m -22 X s 341 1376 m -22 X s 341 1387 m -22 X s 341 1396 m -22 X s 341 1404 m -22 X s 341 1411 m -22 X
 s 363 1417 m -44 X s
 gsave  2263 1770 2 313 C 274.567 1420.29 t 0 r /Helvetica findfont 44.0776 sf 0 0 m (5) show NC gr 
 gsave  2263 1770 2 313 C 203.383 1389.78 t 0 r /Helvetica findfont 64.4212 sf 0 0 m (10) show NC gr  341 1459 m -22 X s 341 1484 m -22 X s 341 1501 m -22 X s 341 1514 m -22 X s 341 1525 m -22 X s 341 1535 m -22 X s 341 1543 m -22 X s 341 1550 m -22
 X s 363 1556 m -44 X s
 gsave  2263 1770 2 313 C 274.567 1559.27 t 0 r /Helvetica findfont 44.0776 sf 0 0 m (6) show NC gr 
 gsave  2263 1770 2 313 C 203.383 1528.76 t 0 r /Helvetica findfont 64.4212 sf 0 0 m (10) show NC gr  341 1598 m -22 X s 341 1622 m -22 X s 341 1640 m -22 X s 341 1653 m -22 X s 341 1664 m -22 X s 341 1673 m -22 X s 341 1682 m -22 X s 341 1689 m -22
 X s 363 1695 m -44 X s
 gsave  2263 1770 2 313 C 274.567 1694.86 t 0 r /Helvetica findfont 44.0776 sf 0 0 m (7) show NC gr 
 gsave  2263 1770 2 313 C 203.383 1667.74 t 0 r /Helvetica findfont 64.4212 sf 0 0 m (10) show NC gr  2179 584 m 1145 Y s 2157 626 m 22 X s 2157 651 m 22 X s 2157 668 m 22 X s 2157 681 m 22 X s 2157 692 m 22 X s 2157 702 m 22 X s 2157 710 m 22 X s
 2157 717 m 22 X s 2136 723 m 43 X s 2157 765 m 22 X s 2157 789 m 22 X s 2157 807 m 22 X s 2157 820 m 22 X s 2157 831 m 22 X s 2157 840 m 22 X s 2157 849 m 22 X s 2157 856 m 22 X s 2136 862 m 43 X s 2157 904 m 22 X s 2157 928 m 22 X s 2157 946 m 22 X
 s 2157 959 m 22 X s 2157 970 m 22 X s 2157 979 m 22 X s 2157 987 m 22 X s 2157 994 m 22 X s 2136 1001 m 43 X s 2157 1043 m 22 X s 2157 1067 m 22 X s 2157 1084 m 22 X s 2157 1098 m 22 X s 2157 1109 m 22 X s 2157 1118 m 22 X s 2157 1126 m 22 X s 2157
 1133 m 22 X s 2136 1140 m 43 X s 2157 1181 m 22 X s 2157 1206 m 22 X s 2157 1223 m 22 X s 2157 1237 m 22 X s 2157 1248 m 22 X s 2157 1257 m 22 X s 2157 1265 m 22 X s 2157 1272 m 22 X s 2136 1278 m 43 X s 2157 1320 m 22 X s 2157 1345 m 22 X s 2157
 1362 m 22 X s 2157 1376 m 22 X s 2157 1387 m 22 X s 2157 1396 m 22 X s 2157 1404 m 22 X s 2157 1411 m 22 X s 2136 1417 m 43 X s 2157 1459 m 22 X s 2157 1484 m 22 X s 2157 1501 m 22 X s 2157 1514 m 22 X s 2157 1525 m 22 X s 2157 1535 m 22 X s 2157
 1543 m 22 X s 2157 1550 m 22 X s 2136 1556 m 43 X s 2157 1598 m 22 X s 2157 1622 m 22 X s 2157 1640 m 22 X s 2157 1653 m 22 X s 2157 1664 m 22 X s 2157 1673 m 22 X s 2157 1682 m 22 X s 2157 1689 m 22 X s 2136 1695 m 43 X s 0.6 1 0.6 c black 0.6 1
 0.6 c 319 584 m 662 Y 93 X -22 Y 93 X -37 Y 93 X -42 Y 93 X -45 Y 93 X -46 Y 93 X -50 Y 93 X -49 Y 93 X -52 Y 93 X -57 Y 93 X -45 Y 93 X -40 Y 93 X -46 Y 93 X -63 Y 93 X -68 Y 558 X f black 0.6 1 0.6 c black 319 1246 m 93 X -22 Y 93 X -37 Y 93 X -42
 Y 93 X -45 Y 93 X -46 Y 93 X -50 Y 93 X -49 Y 93 X -52 Y 93 X -57 Y 93 X -45 Y 93 X -40 Y 93 X -46 Y 93 X -63 Y 93 X -68 Y 558 X s 0.999 0.999 0.999 c black 0.999 0.999 0.999 c 319 584 m 556 Y 93 X -17 Y 93 X -26 Y 93 X -28 Y 93 X -32 Y 93 X -31 Y
 93 X -42 Y 93 X -43 Y 93 X -35 Y 93 X -54 Y 93 X -40 Y 93 X -47 Y 93 X -31 Y 93 X -65 Y 93 X -65 Y 558 X f black 0.999 0.999 0.999 c black 319 1140 m 93 X -17 Y 93 X -26 Y 93 X -28 Y 93 X -32 Y 93 X -31 Y 93 X -42 Y 93 X -43 Y 93 X -35 Y 93 X -54 Y
 93 X -40 Y 93 X -47 Y 93 X -31 Y 93 X -65 Y 93 X -65 Y 558 X s 1 1 1 c black 319 1140 m 93 X -17 Y 93 X -26 Y 93 X -28 Y 93 X -32 Y 93 X -31 Y 93 X -42 Y 93 X -43 Y 93 X -35 Y 93 X -54 Y 93 X -40 Y 93 X -47 Y 93 X -31 Y 93 X -65 Y 93 X -65 Y 558 X s
 0.4 0.6 1 c black 0.4 0.6 1 c 319 584 m 556 Y 93 X -17 Y 93 X -26 Y 93 X -28 Y 93 X -32 Y 93 X -31 Y 93 X -42 Y 93 X -43 Y 93 X -35 Y 93 X -54 Y 93 X -40 Y 93 X -47 Y 93 X -31 Y 93 X -65 Y 93 X -65 Y 558 X f black 0.4 0.6 1 c black 319 1140 m 93 X
 -17 Y 93 X -26 Y 93 X -28 Y 93 X -32 Y 93 X -31 Y 93 X -42 Y 93 X -43 Y 93 X -35 Y 93 X -54 Y 93 X -40 Y 93 X -47 Y 93 X -31 Y 93 X -65 Y 93 X -65 Y 558 X s 0.999 0.999 0.999 c black 0.999 0.999 0.999 c 319 584 m 413 Y 93 X -13 Y 93 X -28 Y 93 X -28
 Y 93 X -32 Y 93 X -41 Y 93 X -53 Y 93 X -32 Y 93 X -6 Y 93 X -53 Y 93 X -61 Y 93 X -23 Y 93 X 43 Y 93 X -86 Y 651 X f black 0.999 0.999 0.999 c black 319 997 m 93 X -13 Y 93 X -28 Y 93 X -28 Y 93 X -32 Y 93 X -41 Y 93 X -53 Y 93 X -32 Y 93 X -6 Y 93
 X -53 Y 93 X -61 Y 93 X -23 Y 93 X 43 Y 93 X -86 Y 651 X s 1 1 1 c black 319 997 m 93 X -13 Y 93 X -28 Y 93 X -28 Y 93 X -32 Y 93 X -41 Y 93 X -53 Y 93 X -32 Y 93 X -6 Y 93 X -53 Y 93 X -61 Y 93 X -23 Y 93 X 43 Y 93 X -86 Y 651 X s 1 0.8 0.4 c black
 1 0.8 0.4 c 319 584 m 413 Y 93 X -13 Y 93 X -28 Y 93 X -28 Y 93 X -32 Y 93 X -41 Y 93 X -53 Y 93 X -32 Y 93 X -6 Y 93 X -53 Y 93 X -61 Y 93 X -23 Y 93 X 43 Y 93 X -86 Y 651 X f black 1 0.8 0.4 c black 319 997 m 93 X -13 Y 93 X -28 Y 93 X -28 Y 93 X
 -32 Y 93 X -41 Y 93 X -53 Y 93 X -32 Y 93 X -6 Y 93 X -53 Y 93 X -61 Y 93 X -23 Y 93 X 43 Y 93 X -86 Y 651 X s 0.999 0.999 0.999 c black 0.999 0.999 0.999 c 319 584 m 405 Y 93 X -11 Y 93 X -27 Y 93 X -29 Y 93 X -32 Y 93 X -38 Y 93 X -59 Y 93 X -25 Y
 93 X -6 Y 93 X -52 Y 93 X -69 Y 93 X -15 Y 93 X 44 Y 93 X -86 Y 651 X f black 0.999 0.999 0.999 c black 319 989 m 93 X -11 Y 93 X -27 Y 93 X -29 Y 93 X -32 Y 93 X -38 Y 93 X -59 Y 93 X -25 Y 93 X -6 Y 93 X -52 Y 93 X -69 Y 93 X -15 Y 93 X 44 Y 93 X
 -86 Y 651 X s 1 1 1 c black 319 989 m 93 X -11 Y 93 X -27 Y 93 X -29 Y 93 X -32 Y 93 X -38 Y 93 X -59 Y 93 X -25 Y 93 X -6 Y 93 X -52 Y 93 X -69 Y 93 X -15 Y 93 X 44 Y 93 X -86 Y 651 X s 1 0.4 0.6 c black 1 0.4 0.6 c 319 584 m 405 Y 93 X -11 Y 93 X
 -27 Y 93 X -29 Y 93 X -32 Y 93 X -38 Y 93 X -59 Y 93 X -25 Y 93 X -6 Y 93 X -52 Y 93 X -69 Y 93 X -15 Y 93 X 44 Y 93 X -86 Y 651 X f black 1 0.4 0.6 c black 319 989 m 93 X -11 Y 93 X -27 Y 93 X -29 Y 93 X -32 Y 93 X -38 Y 93 X -59 Y 93 X -25 Y 93 X
 -6 Y 93 X -52 Y 93 X -69 Y 93 X -15 Y 93 X 44 Y 93 X -86 Y 651 X s 1 0 0 c 6 lw 1 1 1 c black 1 0 0 c 319 1246 m 93 X -22 Y 93 X -37 Y 93 X -42 Y 93 X -45 Y 93 X -46 Y 93 X -50 Y 93 X -49 Y 93 X -52 Y 93 X -57 Y 93 X -45 Y 93 X -40 Y 93 X -46 Y 93 X
 -63 Y 93 X -68 Y 558 X s black 3 lw 1 0 0 c 1 lw << /PatternType 1 /PaintType 2 /TilingType 1 /BBox [ 0 0 100 100 ] /XStep 100 /YStep 100 /PaintProc { begin gsave 0 100 m 100 0 l s gr end } >> [ 0.24 0 0 0.24 0 0 ] makepattern /P05 exch def /cs
 {[/Pattern /DeviceRGB] setcolorspace} def /FA {f [/DeviceRGB] setcolorspace} def cs 1 0 0 P05 setcolor 319 584 m 662 Y 93 X -22 Y 93 X -36 Y 93 X -42 Y 93 X -45 Y 93 X -45 Y 93 X -50 Y 93 X -47 Y 93 X -52 Y 93 X -56 Y 93 X -41 Y 93 X -37 Y 93 X -43
 Y 93 X -65 Y 93 X -81 Y 93 X 4 Y 93 X -4 Y -186 X 51 Y -93 X 60 Y -93 X 52 Y -93 X 44 Y -93 X 50 Y -93 X 58 Y -93 X 52 Y -93 X 50 Y -93 X 51 Y -93 X 47 Y -93 X 45 Y -93 X 43 Y -93 X 36 Y -93 X 22 Y -93 X -661 Y FA 6 lw 1 1 1 c 15 lw 1203 820 m -7 Y
 s 1203 813 m cl s 1296 827 m 6 Y s 1296 833 m cl s 1296 786 m -18 Y s 1296 768 m cl s 1482 743 m 30 Y s 1482 773 m cl s 1482 703 m -85 Y s 1482 618 m cl s black 1 1 1 c 3 lw /w 43 def /w2 {w 2 div} def /w3 {w 3 div} def 366 1244 459 1224 552 1190
 645 1144 738 1103 831 1061 924 1004 1017 955 1110 920 1203 840 1296 807 11 { m20} R 15 lw 3 lw 1482 723 m20 15 lw black 6 lw 1 1 1 c black 3 lw /w 33 def /w2 {w 2 div} def /w3 {w 3 div} def 366 1244 m20 6 lw 3 lw 459 1224 m20 6 lw 3 lw 552 1190 m20
 6 lw 3 lw 645 1144 m20 6 lw 3 lw 738 1103 m20 6 lw 3 lw 831 1061 m20 6 lw 3 lw 924 1004 m20 6 lw 3 lw 1017 955 m20 6 lw 3 lw 1110 920 m20 6 lw 1203 812 m 15 Y s 1203 854 m 6 Y s 3 lw 1203 840 m20 6 lw 1296 765 m 28 Y s 1296 820 m 11 Y s 3 lw 1296
 807 m20 6 lw 1482 584 m 126 Y s 1482 737 m 28 Y s 3 lw 1482 723 m20 6 lw 1203 854 m 6 Y s 1203 860 m cl s 1203 827 m -14 Y s 1203 813 m cl s 1296 820 m 13 Y s 1296 833 m cl s 1296 793 m -25 Y s 1296 768 m cl s 1482 737 m 36 Y s 1482 773 m cl s 1482
 710 m -92 Y s 1482 618 m cl s 3 lw 366 1244 459 1224 552 1190 645 1144 738 1103 831 1061 924 1004 1017 955 1110 920 1203 840 1296 807 11 { m20} R 6 lw 3 lw 1482 723 m20 6 lw 3 lw 319 584 m 1860 X s 319 584 m cl s 366 584 m cl s 412 584 m cl s 459
 584 m cl s 505 584 m cl s 552 584 m cl s 598 584 m cl s 645 584 m cl s 691 584 m cl s 738 584 m cl s 784 584 m cl s 831 584 m cl s 877 584 m cl s 924 584 m cl s 970 584 m cl s 1017 584 m cl s 1063 584 m cl s 1110 584 m cl s 1156 584 m cl s 1203 584
 m cl s 1249 584 m cl s 1296 584 m cl s 1342 584 m cl s 1389 584 m cl s 1435 584 m cl s 1482 584 m cl s 1528 584 m cl s 1575 584 m cl s 1621 584 m cl s 1668 584 m cl s 1714 584 m cl s 1761 584 m cl s 1807 584 m cl s 1854 584 m cl s 1900 584 m cl s
 1947 584 m cl s 1993 584 m cl s 2040 584 m cl s 2086 584 m cl s 2133 584 m cl s 2179 584 m cl s 319 1729 m 1860 X s 319 1729 m cl s 366 1729 m cl s 412 1729 m cl s 459 1729 m cl s 505 1729 m cl s 552 1729 m cl s 598 1729 m cl s 645 1729 m cl s 691
 1729 m cl s 738 1729 m cl s 784 1729 m cl s 831 1729 m cl s 877 1729 m cl s 924 1729 m cl s 970 1729 m cl s 1017 1729 m cl s 1063 1729 m cl s 1110 1729 m cl s 1156 1729 m cl s 1203 1729 m cl s 1249 1729 m cl s 1296 1729 m cl s 1342 1729 m cl s 1389
 1729 m cl s 1435 1729 m cl s 1482 1729 m cl s 1528 1729 m cl s 1575 1729 m cl s 1621 1729 m cl s 1668 1729 m cl s 1714 1729 m cl s 1761 1729 m cl s 1807 1729 m cl s 1854 1729 m cl s 1900 1729 m cl s 1947 1729 m cl s 1993 1729 m cl s 2040 1729 m cl s
 2086 1729 m cl s 2133 1729 m cl s 2179 1729 m cl s 319 584 m 1145 Y s 341 626 m -22 X s 341 651 m -22 X s 341 668 m -22 X s 341 681 m -22 X s 341 692 m -22 X s 341 702 m -22 X s 341 710 m -22 X s 341 717 m -22 X s 363 723 m -44 X s 341 765 m -22 X s
 341 789 m -22 X s 341 807 m -22 X s 341 820 m -22 X s 341 831 m -22 X s 341 840 m -22 X s 341 849 m -22 X s 341 856 m -22 X s 363 862 m -44 X s 341 904 m -22 X s 341 928 m -22 X s 341 946 m -22 X s 341 959 m -22 X s 341 970 m -22 X s 341 979 m -22 X
 s 341 987 m -22 X s 341 994 m -22 X s 363 1001 m -44 X s 341 1043 m -22 X s 341 1067 m -22 X s 341 1084 m -22 X s 341 1098 m -22 X s 341 1109 m -22 X s 341 1118 m -22 X s 341 1126 m -22 X s 341 1133 m -22 X s 363 1140 m -44 X s 341 1181 m -22 X s
 341 1206 m -22 X s 341 1223 m -22 X s 341 1237 m -22 X s 341 1248 m -22 X s 341 1257 m -22 X s 341 1265 m -22 X s 341 1272 m -22 X s 363 1278 m -44 X s 341 1320 m -22 X s 341 1345 m -22 X s 341 1362 m -22 X s 341 1376 m -22 X s 341 1387 m -22 X s
 341 1396 m -22 X s 341 1404 m -22 X s 341 1411 m -22 X s 363 1417 m -44 X s 341 1459 m -22 X s 341 1484 m -22 X s 341 1501 m -22 X s 341 1514 m -22 X s 341 1525 m -22 X s 341 1535 m -22 X s 341 1543 m -22 X s 341 1550 m -22 X s 363 1556 m -44 X s
 341 1598 m -22 X s 341 1622 m -22 X s 341 1640 m -22 X s 341 1653 m -22 X s 341 1664 m -22 X s 341 1673 m -22 X s 341 1682 m -22 X s 341 1689 m -22 X s 363 1695 m -44 X s 2179 584 m 1145 Y s 2157 626 m 22 X s 2157 651 m 22 X s 2157 668 m 22 X s 2157
 681 m 22 X s 2157 692 m 22 X s 2157 702 m 22 X s 2157 710 m 22 X s 2157 717 m 22 X s 2136 723 m 43 X s 2157 765 m 22 X s 2157 789 m 22 X s 2157 807 m 22 X s 2157 820 m 22 X s 2157 831 m 22 X s 2157 840 m 22 X s 2157 849 m 22 X s 2157 856 m 22 X s
 2136 862 m 43 X s 2157 904 m 22 X s 2157 928 m 22 X s 2157 946 m 22 X s 2157 959 m 22 X s 2157 970 m 22 X s 2157 979 m 22 X s 2157 987 m 22 X s 2157 994 m 22 X s 2136 1001 m 43 X s 2157 1043 m 22 X s 2157 1067 m 22 X s 2157 1084 m 22 X s 2157 1098 m
 22 X s 2157 1109 m 22 X s 2157 1118 m 22 X s 2157 1126 m 22 X s 2157 1133 m 22 X s 2136 1140 m 43 X s 2157 1181 m 22 X s 2157 1206 m 22 X s 2157 1223 m 22 X s 2157 1237 m 22 X s 2157 1248 m 22 X s 2157 1257 m 22 X s 2157 1265 m 22 X s 2157 1272 m 22
 X s 2136 1278 m 43 X s 2157 1320 m 22 X s 2157 1345 m 22 X s 2157 1362 m 22 X s 2157 1376 m 22 X s 2157 1387 m 22 X s 2157 1396 m 22 X s 2157 1404 m 22 X s 2157 1411 m 22 X s 2136 1417 m 43 X s 2157 1459 m 22 X s 2157 1484 m 22 X s 2157 1501 m 22 X
 s 2157 1514 m 22 X s 2157 1525 m 22 X s 2157 1535 m 22 X s 2157 1543 m 22 X s 2157 1550 m 22 X s 2136 1556 m 43 X s 2157 1598 m 22 X s 2157 1622 m 22 X s 2157 1640 m 22 X s 2157 1653 m 22 X s 2157 1664 m 22 X s 2157 1673 m 22 X s 2157 1682 m 22 X s
 2157 1689 m 22 X s 2136 1695 m 43 X s
 gsave  2263 1770 2 313 C 406.765 1447.41 t 0 r /Helvetica findfont 64.4212 sf 0 0 m (CRT for MB\255SSd) show NC gr 
 gsave  2263 1770 2 313 C 1464.36 1616.89 t 0 r /Helvetica findfont 64.4212 sf 0 0 m (SM Total) show NC gr  1 1 1 c 1338 1603 m 107 X 74 Y -107 X f 1 0 0 c 6 lw 1338 1640 m 107 X s black
 gsave  2263 1770 2 313 C 1464.36 1511.81 t 0 r /Helvetica findfont 64.4212 sf 0 0 m (Data) show NC gr  1391 1502 m 64 Y s 3 lw 1391 1534 m20 6 lw
 gsave  2263 1770 2 313 C 1498.25 1406.73 t 0 r /Helvetica findfont 64.4212 sf 0 0 m (\(+EW\) & single top) show NC gr 
 gsave  2263 1770 2 313 C 1481.3 1406.73 t 0 r /Helvetica findfont 64.4212 sf 0 0 m (t) show NC gr  3 lw 1481 1458 m 17 X s
 gsave  2263 1770 2 313 C 1464.36 1406.73 t 0 r /Helvetica findfont 64.4212 sf 0 0 m (t) show NC gr  0.6 1 0.6 c 1338 1391 m 107 X 74 Y -107 X f black 1338 1465 m 107 X s 1338 1391 m 107 X s 1445 1391 m 74 Y s 1338 1391 m 74 Y s
 gsave  2263 1770 2 313 C 1464.36 1298.26 t 0 r /Helvetica findfont 64.4212 sf 0 0 m (W+jets) show NC gr  0.4 0.6 1 c 1338 1284 m 107 X 75 Y -107 X f black 1338 1359 m 107 X s 1338 1284 m 107 X s 1445 1284 m 75 Y s 1338 1284 m 75 Y s
 gsave  2263 1770 2 313 C 1464.36 1193.18 t 0 r /Helvetica findfont 64.4212 sf 0 0 m (Z+jets) show NC gr  1 0.8 0.4 c 1338 1178 m 107 X 75 Y -107 X f black 1338 1253 m 107 X s 1338 1178 m 107 X s 1445 1178 m 75 Y s 1338 1178 m 75 Y s
 gsave  2263 1770 2 313 C 1464.36 1088.1 t 0 r /Helvetica findfont 64.4212 sf 0 0 m (Diboson) show NC gr  1 0.4 0.6 c 1338 1072 m 107 X 74 Y -107 X f black 1338 1146 m 107 X s 1338 1072 m 107 X s 1445 1072 m 74 Y s 1338 1072 m 74 Y s
 gsave  2263 1770 2 313 C 911.832 1566.05 t 0 r /Helvetica findfont 44.0776 sf 0 0 m (\2551) show NC gr 
 gsave  2263 1770 2 313 C 471.17 1535.54 t 0 r /Helvetica findfont 64.4212 sf 0 0 m (=13TeV, 139 fb) show NC gr 
 gsave  2263 1770 2 313 C 440.662 1535.54 t 0 r /Helvetica findfont 64.4212 sf 0 0 m (s) show NC gr  6 lw 420 1573 m 7 -41 d s 3 lw 427 1532 m 7 61 d s 434 1593 m 37 X s 1 1 1 c 2254 561 2 2 bf black 1 1 1 c black 1860 358 318 187 bl 1 1 1 c black
 1860 358 318 187 bl 6 lw 1 1 1 c black 3 lw 364 362 m20 6 lw 3 lw 457 366 m20 6 lw 3 lw 550 374 m20 6 lw 3 lw 643 365 m20 6 lw 3 lw 736 375 m20 6 lw 3 lw 829 386 m20 6 lw 3 lw 923 366 m20 6 lw 3 lw 1016 366 m20 6 lw 3 lw 1109 418 m20 6 lw 3 lw 1202
 352 m20 6 lw 3 lw 1295 382 m20 6 lw 3 lw 1481 391 m20 6 lw 3 lw 318 187 m 1860 X s
 gsave  2254 561 2 2 C 2105.01 64.4045 t 0 r /Helvetica findfont 50.9797 sf 0 0 m (1/2) show NC gr 
 gsave  2254 561 2 2 C 1888.07 23.728 t 0 r /Helvetica findfont 78.1689 sf 0 0 m ( [GeV]) show NC gr 
 gsave  2254 561 2 2 C 1857.56 3.38971 t 0 r /Helvetica findfont 50.9797 sf 0 0 m (T) show NC gr 
 gsave  2254 561 2 2 C 1806.72 23.728 t 0 r /Helvetica findfont 78.1689 sf 0 0 m (H) show NC gr  6 lw 1773 81 m 10 -78 d s 3 lw 1783 3 m 14 99 d s 1797 102 m 91 X s
 gsave  2254 561 2 2 C 1735.53 23.728 t 0 r /Helvetica findfont 78.1689 sf 0 0 m (/) show NC gr 
 gsave  2254 561 2 2 C 1630.45 61.0148 t 0 r /Helvetica findfont 50.9797 sf 0 0 m (miss) show NC gr 
 gsave  2254 561 2 2 C 1630.45 3.38971 t 0 r /Helvetica findfont 50.9797 sf 0 0 m (T) show NC gr 
 gsave  2254 561 2 2 C 1579.61 23.728 t 0 r /Helvetica findfont 78.1689 sf 0 0 m (E) show NC gr  318 201 m -14 Y s 364 194 m -7 Y s 411 194 m -7 Y s 457 194 m -7 Y s 504 194 m -7 Y s 550 201 m -14 Y s 597 194 m -7 Y s 643 194 m -7 Y s 690 194 m -7 Y
 s 736 194 m -7 Y s 783 201 m -14 Y s 829 194 m -7 Y s 876 194 m -7 Y s 923 194 m -7 Y s 969 194 m -7 Y s 1016 201 m -14 Y s 1062 194 m -7 Y s 1109 194 m -7 Y s 1155 194 m -7 Y s 1202 194 m -7 Y s 1248 201 m -14 Y s 1295 194 m -7 Y s 1341 194 m -7 Y
 s 1388 194 m -7 Y s 1434 194 m -7 Y s 1481 201 m -14 Y s 1527 194 m -7 Y s 1574 194 m -7 Y s 1620 194 m -7 Y s 1667 194 m -7 Y s 1713 201 m -14 Y s 1760 194 m -7 Y s 1806 194 m -7 Y s 1853 194 m -7 Y s 1899 194 m -7 Y s 1946 201 m -14 Y s 1992 194 m
 -7 Y s 2039 194 m -7 Y s 2085 194 m -7 Y s 2132 194 m -7 Y s 2178 201 m -14 Y s
 gsave  2254 561 2 2 C 271.177 118.64 t 0 r /Helvetica findfont 78.1689 sf 0 0 m (10) show NC gr 
 gsave  2254 561 2 2 C 505.067 118.64 t 0 r /Helvetica findfont 78.1689 sf 0 0 m (15) show NC gr 
 gsave  2254 561 2 2 C 735.567 118.64 t 0 r /Helvetica findfont 78.1689 sf 0 0 m (20) show NC gr 
 gsave  2254 561 2 2 C 969.457 118.64 t 0 r /Helvetica findfont 78.1689 sf 0 0 m (25) show NC gr 
 gsave  2254 561 2 2 C 1203.35 118.64 t 0 r /Helvetica findfont 78.1689 sf 0 0 m (30) show NC gr 
 gsave  2254 561 2 2 C 1433.85 118.64 t 0 r /Helvetica findfont 78.1689 sf 0 0 m (35) show NC gr 
 gsave  2254 561 2 2 C 1667.74 118.64 t 0 r /Helvetica findfont 78.1689 sf 0 0 m (40) show NC gr 
 gsave  2254 561 2 2 C 1901.63 118.64 t 0 r /Helvetica findfont 78.1689 sf 0 0 m (45) show NC gr 
 gsave  2254 561 2 2 C 2132.13 118.64 t 0 r /Helvetica findfont 78.1689 sf 0 0 m (50) show NC gr  318 545 m 1860 X s 318 531 m 14 Y s 364 538 m 7 Y s 411 538 m 7 Y s 457 538 m 7 Y s 504 538 m 7 Y s 550 531 m 14 Y s 597 538 m 7 Y s 643 538 m 7 Y s 690
 538 m 7 Y s 736 538 m 7 Y s 783 531 m 14 Y s 829 538 m 7 Y s 876 538 m 7 Y s 923 538 m 7 Y s 969 538 m 7 Y s 1016 531 m 14 Y s 1062 538 m 7 Y s 1109 538 m 7 Y s 1155 538 m 7 Y s 1202 538 m 7 Y s 1248 531 m 14 Y s 1295 538 m 7 Y s 1341 538 m 7 Y s
 1388 538 m 7 Y s 1434 538 m 7 Y s 1481 531 m 14 Y s 1527 538 m 7 Y s 1574 538 m 7 Y s 1620 538 m 7 Y s 1667 538 m 7 Y s 1713 531 m 14 Y s 1760 538 m 7 Y s 1806 538 m 7 Y s 1853 538 m 7 Y s 1899 538 m 7 Y s 1946 531 m 14 Y s 1992 538 m 7 Y s 2039 538
 m 7 Y s 2085 538 m 7 Y s 2132 538 m 7 Y s 2178 531 m 14 Y s 318 187 m 358 Y s
 gsave  2254 561 2 2 C 166.096 284.736 t 90 r /Helvetica findfont 67.9729 sf 0 0 m (Data/SM) show NC gr  361 203 m -43 X s 339 220 m -21 X s 339 236 m -21 X s 339 252 m -21 X s 339 268 m -21 X s 361 285 m -43 X s 339 301 m -21 X s 339 317 m -21 X s
 339 334 m -21 X s 339 350 m -21 X s 361 366 m -43 X s 339 382 m -21 X s 339 399 m -21 X s 339 415 m -21 X s 339 431 m -21 X s 361 447 m -43 X s 339 464 m -21 X s 339 480 m -21 X s 339 496 m -21 X s 339 512 m -21 X s 361 529 m -43 X s 361 203 m -43 X
 s 339 187 m -21 X s 361 529 m -43 X s
 gsave  2254 561 2 2 C 261.008 183.044 t 0 r /Helvetica findfont 57.777 sf 0 0 m (0) show NC gr 
 gsave  2254 561 2 2 C 213.552 261.008 t 0 r /Helvetica findfont 57.777 sf 0 0 m (0.5) show NC gr 
 gsave  2254 561 2 2 C 271.177 342.361 t 0 r /Helvetica findfont 57.777 sf 0 0 m (1) show NC gr 
 gsave  2254 561 2 2 C 213.552 423.714 t 0 r /Helvetica findfont 57.777 sf 0 0 m (1.5) show NC gr 
 gsave  2254 561 2 2 C 261.008 505.067 t 0 r /Helvetica findfont 57.777 sf 0 0 m (2) show NC gr  2178 187 m 358 Y s 2135 203 m 43 X s 2157 220 m 21 X s 2157 236 m 21 X s 2157 252 m 21 X s 2157 268 m 21 X s 2135 285 m 43 X s 2157 301 m 21 X s 2157 317
 m 21 X s 2157 334 m 21 X s 2157 350 m 21 X s 2135 366 m 43 X s 2157 382 m 21 X s 2157 399 m 21 X s 2157 415 m 21 X s 2157 431 m 21 X s 2135 447 m 43 X s 2157 464 m 21 X s 2157 480 m 21 X s 2157 496 m 21 X s 2157 512 m 21 X s 2135 529 m 43 X s 2135
 203 m 43 X s 2157 187 m 21 X s 2135 529 m 43 X s 9 lw 923 380 m 2 Y s 923 382 m cl s 923 353 m -3 Y s 923 350 m cl s 1016 380 m 10 Y s 1016 390 m cl s 1016 353 m -10 Y s 1016 343 m cl s 1109 432 m 29 Y s 1109 461 m cl s 1109 405 m -28 Y s 1109 377 m
 cl s 1202 366 m 44 Y s 1202 410 m cl s 1202 338 m -41 Y s 1202 297 m cl s 1295 395 m 83 Y s 1295 478 m cl s 1295 368 m -71 Y s 1295 297 m cl s 1481 404 m 141 Y s 1481 545 m cl s 1481 377 m -141 Y s 1481 236 m cl s 3 lw 364 362 457 366 550 374 643
 365 736 375 829 386 923 366 1016 366 1109 418 1202 352 1295 382 11 { m20} R 9 lw 3 lw 1481 391 m20 9 lw 1 0 0 c 6 lw black 3 lw 1 0 0 c 2155 203 m cl s 2127 203 m cl s 2098 203 m cl s 2069 203 m cl s 2040 203 m cl s 2012 203 m cl s 1992 213 m s 1992
 241 m -1 -1 d s 1992 270 m -30 -30 d s 1992 298 m -58 -58 d s 1899 206 m -18 -19 d s 1992 327 m -87 -87 d s 1899 234 m -47 -47 d s 1992 356 m -169 -169 d s 1992 384 m -186 -185 d s 1992 413 m -186 -186 d s 1992 441 m -186 -185 d s 1992 470 m -188
 -187 d s 1986 492 m -210 -209 d s 1957 492 m -210 -209 d s 1929 492 m -211 -209 d s 1713 278 m -4 -5 d s 1900 492 m -220 -219 d s 1899 520 m -248 -247 d s 1895 545 m -89 -89 d s 1799 449 m -176 -176 d s 1867 545 m -61 -60 d s 1771 449 m -151 -150 d
 s 1838 545 m -32 -32 d s 1742 449 m -124 -123 d s 1809 545 m -3 -3 d s 1713 449 m -124 -123 d s 1694 459 m -133 -133 d s 1666 459 m -46 -45 d s 1613 406 m -81 -80 d s 1527 321 m -1 -1 d s 1637 459 m -17 -17 d s 1584 406 m -86 -86 d s 1556 406 m -87
 -86 d s 1527 407 m -87 -87 d s 1504 412 m -81 -81 d s 1475 412 m -81 -81 d s 1447 412 m -81 -81 d s 1406 401 m -65 -65 d s 1378 401 m -60 -59 d s 1349 401 m -8 -8 d s 1339 391 m -49 -49 d s 1310 391 m -49 -49 d s 1281 391 m -38 -38 d s 1253 391 m -5
 -5 d s 1242 379 m -27 -26 d s 1213 379 m -27 -26 d s 1184 379 m -27 -26 d s 1156 379 m -1 X s 1153 377 m -22 -22 d s 1124 377 m -21 -22 d s 1096 377 m -22 -22 d s 1067 377 m -21 -21 d s 1038 376 m -21 -20 d s 1009 376 m -21 -20 d s 980 376 m -17 -17
 d s 948 373 m -14 -14 d s 920 373 m -14 -14 d s 891 373 m -14 -14 d s 860 371 m -10 -10 d s 832 371 m -11 -10 d s 803 371 m -10 -10 d s 773 370 m -8 -8 d s 744 370 m -7 -8 d s 715 370 m -7 -8 d s 686 369 m -6 -6 d s 657 369 m -5 -6 d s 628 369 m -5
 -6 d s 600 369 m -5 -5 d s 571 368 m -5 -4 d s 542 368 m -5 -4 d s 513 368 m -4 -4 d s 484 368 m -3 -4 d s 455 368 m -3 -4 d s 318 231 m s 426 368 m -3 -4 d s 318 259 m s 398 368 m -3 -4 d s 318 288 m s 369 368 m -3 -4 d s 318 317 m s 340 368 m -3
 -4 d s 318 345 m s 6 lw black[ 4 8] 0 sd 3 lw 318 447 m 1860 X s 318 285 m 1860 X s 1 0 0 c[  12 12 ] 0 sd 6 lw 318 366 m 1860 X s
 gr  gr showpage
end
%%EOF
