%!PS-Adobe-2.0 EPSF-2.0
%%BoundingBox:  0 0 567 521
%%Title: Distributions/metsqrtmeffInc_met_distrCRW_MB-GGd_beforeFit_forThesis.eps: canvas
%%Creator: ROOT Version 6.04/16
%%CreationDate: Tue May 19 22:05:47 2020
%%DocumentNeededResources: ProcSet (FontSetInit)
%%EndComments
%%BeginProlog
80 dict begin
/s {stroke} def /l {lineto} def /m {moveto} def /t {translate} def
/r {rotate} def /rl {roll}  def /R {repeat} def
/d {rlineto} def /rm {rmoveto} def /gr {grestore} def /f {eofill} def
/c {setrgbcolor} def /black {0 setgray} def /sd {setdash} def
/cl {closepath} def /sf {scalefont setfont} def /lw {setlinewidth} def
/box {m dup 0 exch d exch 0 d 0 exch neg d cl} def
/NC{systemdict begin initclip end}def/C{NC box clip newpath}def
/bl {box s} def /bf {gsave box gsave f grestore 1 lw [] 0 sd s grestore} def /Y { 0 exch d} def /X { 0 d} def 
/K {{pop pop 0 moveto} exch kshow} bind def
/ita {/ang 15 def gsave [1 0 ang dup sin exch cos div 1 0 0] concat} def 
/mp {newpath /y exch def /x exch def} def
/side {[w .77 mul w .23 mul] .385 w mul sd w 0 l currentpoint t -144 r} def
/mr {mp x y w2 0 360 arc} def /m24 {mr s} def /m20 {mr f} def
/mb {mp x y w2 add m w2 neg 0 d 0 w neg d w 0 d 0 w d cl} def
/mt {mp x y w2 add m w2 neg w neg d w 0 d cl} def
/m21 {mb f} def /m25 {mb s} def /m22 {mt f} def /m26{mt s} def
/m23 {mp x y w2 sub m w2 w d w neg 0 d cl f} def
/m27 {mp x y w2 add m w3 neg w2 neg d w3 w2 neg d w3 w2 d cl s} def
/m28 {mp x w2 sub y w2 sub w3 add m w3 0 d  0 w3 neg d w3 0 d 0 w3 d w3 0 d  0 w3 d w3 neg 0 d 0 w3 d w3 neg 0 d 0 w3 neg d w3 neg 0 d cl s } def
/m29 {mp gsave x w2 sub y w2 add w3 sub m currentpoint t 4 {side} repeat cl fill gr} def
/m30 {mp gsave x w2 sub y w2 add w3 sub m currentpoint t 4 {side} repeat cl s gr} def
/m31 {mp x y w2 sub m 0 w d x w2 sub y m w 0 d x w2 sub y w2 add m w w neg d x w2 sub y w2 sub m w w d s} def
/m32 {mp x y w2 sub m w2 w d w neg 0 d cl s} def
/m33 {mp x y w2 add m w3 neg w2 neg d w3 w2 neg d w3 w2 d cl f} def
/m34 {mp x w2 sub y w2 sub w3 add m w3 0 d  0 w3 neg d w3 0 d 0 w3 d w3 0 d  0 w3 d w3 neg 0 d 0 w3 d w3 neg 0 d 0 w3 neg d w3 neg 0 d cl f } def
/m2 {mp x y w2 sub m 0 w d x w2 sub y m w 0 d s} def
/m5 {mp x w2 sub y w2 sub m w w d x w2 sub y w2 add m w w neg d s} def
%%IncludeResource: ProcSet (FontSetInit)
%%IncludeResource: font Times-Roman
%%IncludeResource: font Times-Italic
%%IncludeResource: font Times-Bold
%%IncludeResource: font Times-BoldItalic
%%IncludeResource: font Helvetica
%%IncludeResource: font Helvetica-Oblique
%%IncludeResource: font Helvetica-Bold
%%IncludeResource: font Helvetica-BoldOblique
%%IncludeResource: font Courier
%%IncludeResource: font Courier-Oblique
%%IncludeResource: font Courier-Bold
%%IncludeResource: font Courier-BoldOblique
%%IncludeResource: font Symbol
%%IncludeResource: font ZapfDingbats
/reEncode {exch findfont dup length dict begin {1 index /FID eq  {pop pop} {def} ifelse } forall /Encoding exch def currentdict end dup /FontName get exch definefont pop } def [/Times-Bold /Times-Italic /Times-BoldItalic /Helvetica /Helvetica-Oblique
 /Helvetica-Bold /Helvetica-BoldOblique /Courier /Courier-Oblique /Courier-Bold /Courier-BoldOblique /Times-Roman /AvantGarde-Book /AvantGarde-BookOblique /AvantGarde-Demi /AvantGarde-DemiOblique /Bookman-Demi /Bookman-DemiItalic /Bookman-Light
 /Bookman-LightItalic /Helvetica-Narrow /Helvetica-Narrow-Bold /Helvetica-Narrow-BoldOblique /Helvetica-Narrow-Oblique /NewCenturySchlbk-Roman /NewCenturySchlbk-Bold /NewCenturySchlbk-BoldItalic /NewCenturySchlbk-Italic /Palatino-Bold
 /Palatino-BoldItalic /Palatino-Italic /Palatino-Roman ] {ISOLatin1Encoding reEncode } forall
%%EndProlog
%%BeginSetup
%%EndSetup
newpath  gsave  .25 .25 scale  gsave  0 0 t black[  ] 0 sd 3 lw 1 1 1 c 2268 2085 0 0 bf black 1 1 1 c 2263 1770 2 313 bf black 1 1 1 c black 1860 1145 319 584 bl 1 1 1 c black 1860 1145 319 584 bl 6 lw 1 1 1 c black 3 lw /w 33 def /w2 {w 2 div} def
 /w3 {w 3 div} def 391 1199 m20 6 lw 3 lw 534 1171 m20 6 lw 3 lw 677 1138 m20 6 lw 3 lw 820 1105 m20 6 lw 3 lw 963 1057 m20 6 lw 3 lw 1106 1020 m20 6 lw 3 lw 1249 965 m20 6 lw 1392 922 m 2 Y s 3 lw 1392 937 m20 6 lw 1535 859 m 11 Y s 1535 897 m 4 Y s
 3 lw 1535 883 m20 6 lw 1679 890 m 6 Y s 1679 923 m 2 Y s 3 lw 1679 910 m20 6 lw 3 lw 319 584 m 1860 X s
 gsave  2263 1770 2 313 C 2101.62 396.596 t 0 r /Helvetica findfont 54.2494 sf 0 0 m (1/2) show NC gr 
 gsave  2263 1770 2 313 C 1874.51 355.92 t 0 r /Helvetica findfont 81.3741 sf 0 0 m ( [GeV]) show NC gr 
 gsave  2263 1770 2 313 C 1840.61 332.192 t 0 r /Helvetica findfont 54.2494 sf 0 0 m (T) show NC gr 
 gsave  2263 1770 2 313 C 1786.38 355.92 t 0 r /Helvetica findfont 81.3741 sf 0 0 m (H) show NC gr  6 lw 1749 417 m 14 -85 d s 3 lw 1763 332 m 13 105 d s 1776 437 m 99 X s
 gsave  2263 1770 2 313 C 1711.8 355.92 t 0 r /Helvetica findfont 81.3741 sf 0 0 m (/) show NC gr 
 gsave  2263 1770 2 313 C 1599.94 396.596 t 0 r /Helvetica findfont 54.2494 sf 0 0 m (miss) show NC gr 
 gsave  2263 1770 2 313 C 1599.94 332.192 t 0 r /Helvetica findfont 54.2494 sf 0 0 m (T) show NC gr 
 gsave  2263 1770 2 313 C 1549.1 355.92 t 0 r /Helvetica findfont 81.3741 sf 0 0 m (E) show NC gr  319 584 m cl s 391 584 m cl s 462 584 m cl s 534 584 m cl s 605 584 m cl s 677 584 m cl s 748 584 m cl s 820 584 m cl s 892 584 m cl s 963 584 m cl s
 1035 584 m cl s 1106 584 m cl s 1178 584 m cl s 1249 584 m cl s 1321 584 m cl s 1392 584 m cl s 1464 584 m cl s 1535 584 m cl s 1607 584 m cl s 1679 584 m cl s 1750 584 m cl s 1822 584 m cl s 1893 584 m cl s 1965 584 m cl s 2036 584 m cl s 2108 584
 m cl s 2108 584 m cl s 2179 584 m cl s 319 1729 m 1860 X s 319 1729 m cl s 391 1729 m cl s 462 1729 m cl s 534 1729 m cl s 605 1729 m cl s 677 1729 m cl s 748 1729 m cl s 820 1729 m cl s 892 1729 m cl s 963 1729 m cl s 1035 1729 m cl s 1106 1729 m
 cl s 1178 1729 m cl s 1249 1729 m cl s 1321 1729 m cl s 1392 1729 m cl s 1464 1729 m cl s 1535 1729 m cl s 1607 1729 m cl s 1679 1729 m cl s 1750 1729 m cl s 1822 1729 m cl s 1893 1729 m cl s 1965 1729 m cl s 2036 1729 m cl s 2108 1729 m cl s 2108
 1729 m cl s 2179 1729 m cl s 319 584 m 1145 Y s
 gsave  2263 1770 2 313 C 125.419 1654.18 t 90 r /Helvetica findfont 54.2494 sf 0 0 m (1/2) show NC gr 
 gsave  2263 1770 2 313 C 166.096 1064.37 t 90 r /Helvetica findfont 81.3741 sf 0 0 m (Events / 2 [GeV]) show NC gr  341 629 m -22 X s 341 656 m -22 X s 341 674 m -22 X s 341 689 m -22 X s 341 701 m -22 X s 341 711 m -22 X s 341 719 m -22 X s 341 727
 m -22 X s 363 734 m -44 X s
 gsave  2263 1770 2 313 C 300.555 706.694 t 0 r  -36 0 t /Helvetica findfont 64.4212 sf 0 0 m (1) show NC gr  341 779 m -22 X s 341 805 m -22 X s 341 824 m -22 X s 341 838 m -22 X s 341 850 m -22 X s 341 860 m -22 X s 341 869 m -22 X s 341 876 m -22
 X s 363 883 m -44 X s
 gsave  2263 1770 2 313 C 300.555 856.197 t 0 r  -73 0 t /Helvetica findfont 64.4212 sf 0 0 m (10) show NC gr  341 928 m -22 X s 341 955 m -22 X s 341 973 m -22 X s 341 988 m -22 X s 341 1000 m -22 X s 341 1010 m -22 X s 341 1018 m -22 X s 341 1026 m
 -22 X s 363 1033 m -44 X s
 gsave  2263 1770 2 313 C 274.567 1030.47 t 0 r /Helvetica findfont 44.0776 sf 0 0 m (2) show NC gr 
 gsave  2263 1770 2 313 C 203.383 1003.35 t 0 r /Helvetica findfont 64.4212 sf 0 0 m (10) show NC gr  341 1078 m -22 X s 341 1104 m -22 X s 341 1123 m -22 X s 341 1137 m -22 X s 341 1149 m -22 X s 341 1159 m -22 X s 341 1168 m -22 X s 341 1175 m -22
 X s 363 1182 m -44 X s
 gsave  2263 1770 2 313 C 274.567 1183.01 t 0 r /Helvetica findfont 44.0776 sf 0 0 m (3) show NC gr 
 gsave  2263 1770 2 313 C 203.383 1152.5 t 0 r /Helvetica findfont 64.4212 sf 0 0 m (10) show NC gr  341 1227 m -22 X s 341 1254 m -22 X s 341 1272 m -22 X s 341 1287 m -22 X s 341 1299 m -22 X s 341 1309 m -22 X s 341 1317 m -22 X s 341 1325 m -22 X
 s 363 1332 m -44 X s
 gsave  2263 1770 2 313 C 274.567 1328.77 t 0 r /Helvetica findfont 44.0776 sf 0 0 m (4) show NC gr 
 gsave  2263 1770 2 313 C 203.383 1301.65 t 0 r /Helvetica findfont 64.4212 sf 0 0 m (10) show NC gr  341 1377 m -22 X s 341 1403 m -22 X s 341 1422 m -22 X s 341 1436 m -22 X s 341 1448 m -22 X s 341 1458 m -22 X s 341 1467 m -22 X s 341 1474 m -22
 X s 363 1481 m -44 X s
 gsave  2263 1770 2 313 C 274.567 1484.69 t 0 r /Helvetica findfont 44.0776 sf 0 0 m (5) show NC gr 
 gsave  2263 1770 2 313 C 203.383 1454.19 t 0 r /Helvetica findfont 64.4212 sf 0 0 m (10) show NC gr  341 1526 m -22 X s 341 1553 m -22 X s 341 1571 m -22 X s 341 1586 m -22 X s 341 1598 m -22 X s 341 1608 m -22 X s 341 1616 m -22 X s 341 1624 m -22
 X s 363 1631 m -44 X s
 gsave  2263 1770 2 313 C 274.567 1633.84 t 0 r /Helvetica findfont 44.0776 sf 0 0 m (6) show NC gr 
 gsave  2263 1770 2 313 C 203.383 1603.33 t 0 r /Helvetica findfont 64.4212 sf 0 0 m (10) show NC gr  341 1676 m -22 X s 341 1702 m -22 X s 341 1721 m -22 X s 2179 584 m 1145 Y s 2157 629 m 22 X s 2157 656 m 22 X s 2157 674 m 22 X s 2157 689 m 22 X s
 2157 701 m 22 X s 2157 711 m 22 X s 2157 719 m 22 X s 2157 727 m 22 X s 2136 734 m 43 X s 2157 779 m 22 X s 2157 805 m 22 X s 2157 824 m 22 X s 2157 838 m 22 X s 2157 850 m 22 X s 2157 860 m 22 X s 2157 869 m 22 X s 2157 876 m 22 X s 2136 883 m 43 X
 s 2157 928 m 22 X s 2157 955 m 22 X s 2157 973 m 22 X s 2157 988 m 22 X s 2157 1000 m 22 X s 2157 1010 m 22 X s 2157 1018 m 22 X s 2157 1026 m 22 X s 2136 1033 m 43 X s 2157 1078 m 22 X s 2157 1104 m 22 X s 2157 1123 m 22 X s 2157 1137 m 22 X s 2157
 1149 m 22 X s 2157 1159 m 22 X s 2157 1168 m 22 X s 2157 1175 m 22 X s 2136 1182 m 43 X s 2157 1227 m 22 X s 2157 1254 m 22 X s 2157 1272 m 22 X s 2157 1287 m 22 X s 2157 1299 m 22 X s 2157 1309 m 22 X s 2157 1317 m 22 X s 2157 1325 m 22 X s 2136
 1332 m 43 X s 2157 1377 m 22 X s 2157 1403 m 22 X s 2157 1422 m 22 X s 2157 1436 m 22 X s 2157 1448 m 22 X s 2157 1458 m 22 X s 2157 1467 m 22 X s 2157 1474 m 22 X s 2136 1481 m 43 X s 2157 1526 m 22 X s 2157 1553 m 22 X s 2157 1571 m 22 X s 2157
 1586 m 22 X s 2157 1598 m 22 X s 2157 1608 m 22 X s 2157 1616 m 22 X s 2157 1624 m 22 X s 2136 1631 m 43 X s 2157 1676 m 22 X s 2157 1702 m 22 X s 2157 1721 m 22 X s 0.4 0.6 1 c black 0.4 0.6 1 c 319 584 m 625 Y 143 X -28 Y 143 X -36 Y 143 X -38 Y
 144 X -40 Y 143 X -41 Y 143 X -41 Y 143 X -46 Y 143 X -43 Y 143 X -47 Y 143 X -43 Y 143 X -50 Y 143 X -32 Y 143 X -140 Y f black 0.4 0.6 1 c black 319 1209 m 143 X -28 Y 143 X -36 Y 143 X -38 Y 144 X -40 Y 143 X -41 Y 143 X -41 Y 143 X -46 Y 143 X
 -43 Y 143 X -47 Y 143 X -43 Y 143 X -50 Y 143 X -32 Y 143 X s 0.999 0.999 0.999 c black 0.999 0.999 0.999 c 319 584 m 530 Y 143 X -35 Y 143 X -41 Y 143 X -42 Y 144 X -45 Y 143 X -58 Y 143 X -40 Y 143 X -43 Y 143 X -49 Y 143 X -38 Y 143 X -9 Y 143 X
 -130 Y 286 X f black 0.999 0.999 0.999 c black 319 1114 m 143 X -35 Y 143 X -41 Y 143 X -42 Y 144 X -45 Y 143 X -58 Y 143 X -40 Y 143 X -43 Y 143 X -49 Y 143 X -38 Y 143 X -9 Y 143 X -130 Y 286 X s 1 1 1 c black 319 1114 m 143 X -35 Y 143 X -41 Y
 143 X -42 Y 144 X -45 Y 143 X -58 Y 143 X -40 Y 143 X -43 Y 143 X -49 Y 143 X -38 Y 143 X -9 Y 143 X -130 Y 286 X s 0.6 1 0.6 c black 0.6 1 0.6 c 319 584 m 530 Y 143 X -35 Y 143 X -41 Y 143 X -42 Y 144 X -45 Y 143 X -58 Y 143 X -40 Y 143 X -43 Y 143
 X -49 Y 143 X -38 Y 143 X -9 Y 143 X -130 Y 286 X f black 0.6 1 0.6 c black 319 1114 m 143 X -35 Y 143 X -41 Y 143 X -42 Y 144 X -45 Y 143 X -58 Y 143 X -40 Y 143 X -43 Y 143 X -49 Y 143 X -38 Y 143 X -9 Y 143 X -130 Y 286 X s 0.999 0.999 0.999 c
 black 0.999 0.999 0.999 c 319 584 m 445 Y 143 X -24 Y 143 X -33 Y 143 X -39 Y 144 X -36 Y 143 X -39 Y 143 X -32 Y 143 X -43 Y 143 X -49 Y 143 X -36 Y 143 X -27 Y 143 X -87 Y 286 X f black 0.999 0.999 0.999 c black 319 1029 m 143 X -24 Y 143 X -33 Y
 143 X -39 Y 144 X -36 Y 143 X -39 Y 143 X -32 Y 143 X -43 Y 143 X -49 Y 143 X -36 Y 143 X -27 Y 143 X -87 Y 286 X s 1 1 1 c black 319 1029 m 143 X -24 Y 143 X -33 Y 143 X -39 Y 144 X -36 Y 143 X -39 Y 143 X -32 Y 143 X -43 Y 143 X -49 Y 143 X -36 Y
 143 X -27 Y 143 X -87 Y 286 X s 1 0.8 0.4 c black 1 0.8 0.4 c 319 584 m 445 Y 143 X -24 Y 143 X -33 Y 143 X -39 Y 144 X -36 Y 143 X -39 Y 143 X -32 Y 143 X -43 Y 143 X -49 Y 143 X -36 Y 143 X -27 Y 143 X -87 Y 286 X f black 1 0.8 0.4 c black 319
 1029 m 143 X -24 Y 143 X -33 Y 143 X -39 Y 144 X -36 Y 143 X -39 Y 143 X -32 Y 143 X -43 Y 143 X -49 Y 143 X -36 Y 143 X -27 Y 143 X -87 Y 286 X s 0.999 0.999 0.999 c black 0.999 0.999 0.999 c 319 584 m 437 Y 143 X -25 Y 143 X -30 Y 143 X -37 Y 144
 X -37 Y 143 X -37 Y 143 X -32 Y 143 X -42 Y 143 X -50 Y 143 X -38 Y 143 X -25 Y 143 X -84 Y 286 X f black 0.999 0.999 0.999 c black 319 1021 m 143 X -25 Y 143 X -30 Y 143 X -37 Y 144 X -37 Y 143 X -37 Y 143 X -32 Y 143 X -42 Y 143 X -50 Y 143 X -38
 Y 143 X -25 Y 143 X -84 Y 286 X s 1 1 1 c black 319 1021 m 143 X -25 Y 143 X -30 Y 143 X -37 Y 144 X -37 Y 143 X -37 Y 143 X -32 Y 143 X -42 Y 143 X -50 Y 143 X -38 Y 143 X -25 Y 143 X -84 Y 286 X s 1 0.4 0.6 c black 1 0.4 0.6 c 319 584 m 437 Y 143
 X -25 Y 143 X -30 Y 143 X -37 Y 144 X -37 Y 143 X -37 Y 143 X -32 Y 143 X -42 Y 143 X -50 Y 143 X -38 Y 143 X -25 Y 143 X -84 Y 286 X f black 1 0.4 0.6 c black 319 1021 m 143 X -25 Y 143 X -30 Y 143 X -37 Y 144 X -37 Y 143 X -37 Y 143 X -32 Y 143 X
 -42 Y 143 X -50 Y 143 X -38 Y 143 X -25 Y 143 X -84 Y 286 X s 1 0 0 c 6 lw 1 1 1 c black 1 0 0 c 319 1209 m 143 X -28 Y 143 X -36 Y 143 X -38 Y 144 X -40 Y 143 X -41 Y 143 X -41 Y 143 X -46 Y 143 X -43 Y 143 X -47 Y 143 X -43 Y 143 X -50 Y 143 X -32
 Y 143 X s black 3 lw 1 0 0 c 1 lw << /PatternType 1 /PaintType 2 /TilingType 1 /BBox [ 0 0 100 100 ] /XStep 100 /YStep 100 /PaintProc { begin gsave 0 100 m 100 0 l s gr end } >> [ 0.24 0 0 0.24 0 0 ] makepattern /P05 exch def /cs {[/Pattern
 /DeviceRGB] setcolorspace} def /FA {f [/DeviceRGB] setcolorspace} def cs 1 0 0 P05 setcolor 319 584 m 625 Y 143 X -27 Y 143 X -36 Y 143 X -37 Y 144 X -40 Y 143 X -40 Y 143 X -41 Y 143 X -45 Y 143 X -41 Y 143 X -47 Y 143 X -39 Y 143 X -52 Y 143 X -28
 Y 143 X -26 Y -143 X 36 Y -143 X 49 Y -143 X 48 Y -143 X 47 Y -143 X 45 Y -143 X 47 Y -143 X 42 Y -143 X 41 Y -143 X 41 Y -144 X 37 Y -143 X 37 Y -143 X 28 Y -143 X -624 Y FA 6 lw 1 1 1 c 15 lw 1535 863 m -4 Y s 1535 859 m cl s black 1 1 1 c 3 lw /w
 43 def /w2 {w 2 div} def /w3 {w 3 div} def 391 1199 534 1171 677 1138 820 1105 963 1057 1106 1020 1249 965 1392 937 1535 883 1679 910 10 { m20} R 15 lw black 6 lw 1 1 1 c black 3 lw /w 33 def /w2 {w 2 div} def /w3 {w 3 div} def 391 1199 m20 6 lw 3
 lw 534 1171 m20 6 lw 3 lw 677 1138 m20 6 lw 3 lw 820 1105 m20 6 lw 3 lw 963 1057 m20 6 lw 3 lw 1106 1020 m20 6 lw 3 lw 1249 965 m20 6 lw 1392 922 m 2 Y s 3 lw 1392 937 m20 6 lw 1535 859 m 11 Y s 1535 897 m 4 Y s 3 lw 1535 883 m20 6 lw 1679 890 m 6 Y
 s 1679 923 m 2 Y s 3 lw 1679 910 m20 6 lw 1392 924 m -2 Y s 1392 922 m cl s 1535 897 m 5 Y s 1535 902 m cl s 1535 870 m -11 Y s 1535 859 m cl s 1679 923 m 2 Y s 1679 925 m cl s 1679 896 m -5 Y s 1679 891 m cl s 3 lw 391 1199 534 1171 677 1138 820
 1105 963 1057 1106 1020 1249 965 1392 937 1535 883 1679 910 10 { m20} R 6 lw 3 lw 319 584 m 1860 X s 319 584 m cl s 391 584 m cl s 462 584 m cl s 534 584 m cl s 605 584 m cl s 677 584 m cl s 748 584 m cl s 820 584 m cl s 892 584 m cl s 963 584 m cl
 s 1035 584 m cl s 1106 584 m cl s 1178 584 m cl s 1249 584 m cl s 1321 584 m cl s 1392 584 m cl s 1464 584 m cl s 1535 584 m cl s 1607 584 m cl s 1679 584 m cl s 1750 584 m cl s 1822 584 m cl s 1893 584 m cl s 1965 584 m cl s 2036 584 m cl s 2108
 584 m cl s 2108 584 m cl s 2179 584 m cl s 319 1729 m 1860 X s 319 1729 m cl s 391 1729 m cl s 462 1729 m cl s 534 1729 m cl s 605 1729 m cl s 677 1729 m cl s 748 1729 m cl s 820 1729 m cl s 892 1729 m cl s 963 1729 m cl s 1035 1729 m cl s 1106 1729
 m cl s 1178 1729 m cl s 1249 1729 m cl s 1321 1729 m cl s 1392 1729 m cl s 1464 1729 m cl s 1535 1729 m cl s 1607 1729 m cl s 1679 1729 m cl s 1750 1729 m cl s 1822 1729 m cl s 1893 1729 m cl s 1965 1729 m cl s 2036 1729 m cl s 2108 1729 m cl s 2108
 1729 m cl s 2179 1729 m cl s 319 584 m 1145 Y s 341 629 m -22 X s 341 656 m -22 X s 341 674 m -22 X s 341 689 m -22 X s 341 701 m -22 X s 341 711 m -22 X s 341 719 m -22 X s 341 727 m -22 X s 363 734 m -44 X s 341 779 m -22 X s 341 805 m -22 X s 341
 824 m -22 X s 341 838 m -22 X s 341 850 m -22 X s 341 860 m -22 X s 341 869 m -22 X s 341 876 m -22 X s 363 883 m -44 X s 341 928 m -22 X s 341 955 m -22 X s 341 973 m -22 X s 341 988 m -22 X s 341 1000 m -22 X s 341 1010 m -22 X s 341 1018 m -22 X
 s 341 1026 m -22 X s 363 1033 m -44 X s 341 1078 m -22 X s 341 1104 m -22 X s 341 1123 m -22 X s 341 1137 m -22 X s 341 1149 m -22 X s 341 1159 m -22 X s 341 1168 m -22 X s 341 1175 m -22 X s 363 1182 m -44 X s 341 1227 m -22 X s 341 1254 m -22 X s
 341 1272 m -22 X s 341 1287 m -22 X s 341 1299 m -22 X s 341 1309 m -22 X s 341 1317 m -22 X s 341 1325 m -22 X s 363 1332 m -44 X s 341 1377 m -22 X s 341 1403 m -22 X s 341 1422 m -22 X s 341 1436 m -22 X s 341 1448 m -22 X s 341 1458 m -22 X s
 341 1467 m -22 X s 341 1474 m -22 X s 363 1481 m -44 X s 341 1526 m -22 X s 341 1553 m -22 X s 341 1571 m -22 X s 341 1586 m -22 X s 341 1598 m -22 X s 341 1608 m -22 X s 341 1616 m -22 X s 341 1624 m -22 X s 363 1631 m -44 X s 341 1676 m -22 X s
 341 1702 m -22 X s 341 1721 m -22 X s 2179 584 m 1145 Y s 2157 629 m 22 X s 2157 656 m 22 X s 2157 674 m 22 X s 2157 689 m 22 X s 2157 701 m 22 X s 2157 711 m 22 X s 2157 719 m 22 X s 2157 727 m 22 X s 2136 734 m 43 X s 2157 779 m 22 X s 2157 805 m
 22 X s 2157 824 m 22 X s 2157 838 m 22 X s 2157 850 m 22 X s 2157 860 m 22 X s 2157 869 m 22 X s 2157 876 m 22 X s 2136 883 m 43 X s 2157 928 m 22 X s 2157 955 m 22 X s 2157 973 m 22 X s 2157 988 m 22 X s 2157 1000 m 22 X s 2157 1010 m 22 X s 2157
 1018 m 22 X s 2157 1026 m 22 X s 2136 1033 m 43 X s 2157 1078 m 22 X s 2157 1104 m 22 X s 2157 1123 m 22 X s 2157 1137 m 22 X s 2157 1149 m 22 X s 2157 1159 m 22 X s 2157 1168 m 22 X s 2157 1175 m 22 X s 2136 1182 m 43 X s 2157 1227 m 22 X s 2157
 1254 m 22 X s 2157 1272 m 22 X s 2157 1287 m 22 X s 2157 1299 m 22 X s 2157 1309 m 22 X s 2157 1317 m 22 X s 2157 1325 m 22 X s 2136 1332 m 43 X s 2157 1377 m 22 X s 2157 1403 m 22 X s 2157 1422 m 22 X s 2157 1436 m 22 X s 2157 1448 m 22 X s 2157
 1458 m 22 X s 2157 1467 m 22 X s 2157 1474 m 22 X s 2136 1481 m 43 X s 2157 1526 m 22 X s 2157 1553 m 22 X s 2157 1571 m 22 X s 2157 1586 m 22 X s 2157 1598 m 22 X s 2157 1608 m 22 X s 2157 1616 m 22 X s 2157 1624 m 22 X s 2136 1631 m 43 X s 2157
 1676 m 22 X s 2157 1702 m 22 X s 2157 1721 m 22 X s
 gsave  2263 1770 2 313 C 406.765 1447.41 t 0 r /Helvetica findfont 64.4212 sf 0 0 m (CRW for MB\255GGd) show NC gr 
 gsave  2263 1770 2 313 C 1464.36 1616.89 t 0 r /Helvetica findfont 64.4212 sf 0 0 m (SM Total) show NC gr  1 1 1 c 1338 1603 m 107 X 74 Y -107 X f 1 0 0 c 6 lw 1338 1640 m 107 X s black
 gsave  2263 1770 2 313 C 1464.36 1511.81 t 0 r /Helvetica findfont 64.4212 sf 0 0 m (Data) show NC gr  1391 1502 m 64 Y s 3 lw 1391 1534 m20 6 lw
 gsave  2263 1770 2 313 C 1464.36 1406.73 t 0 r /Helvetica findfont 64.4212 sf 0 0 m (W+jets) show NC gr  0.4 0.6 1 c 3 lw 1338 1391 m 107 X 74 Y -107 X f 6 lw black 3 lw 1338 1465 m 107 X s 1338 1391 m 107 X s 1445 1391 m 74 Y s 1338 1391 m 74 Y s
 gsave  2263 1770 2 313 C 1498.25 1298.26 t 0 r /Helvetica findfont 64.4212 sf 0 0 m (\(+EW\) & single top) show NC gr 
 gsave  2263 1770 2 313 C 1481.3 1298.26 t 0 r /Helvetica findfont 64.4212 sf 0 0 m (t) show NC gr  1481 1349 m 17 X s
 gsave  2263 1770 2 313 C 1464.36 1298.26 t 0 r /Helvetica findfont 64.4212 sf 0 0 m (t) show NC gr  0.6 1 0.6 c 1338 1284 m 107 X 75 Y -107 X f black 1338 1359 m 107 X s 1338 1284 m 107 X s 1445 1284 m 75 Y s 1338 1284 m 75 Y s
 gsave  2263 1770 2 313 C 1464.36 1193.18 t 0 r /Helvetica findfont 64.4212 sf 0 0 m (Z+jets) show NC gr  1 0.8 0.4 c 1338 1178 m 107 X 75 Y -107 X f black 1338 1253 m 107 X s 1338 1178 m 107 X s 1445 1178 m 75 Y s 1338 1178 m 75 Y s
 gsave  2263 1770 2 313 C 1464.36 1088.1 t 0 r /Helvetica findfont 64.4212 sf 0 0 m (Diboson) show NC gr  1 0.4 0.6 c 1338 1072 m 107 X 74 Y -107 X f black 1338 1146 m 107 X s 1338 1072 m 107 X s 1445 1072 m 74 Y s 1338 1072 m 74 Y s
 gsave  2263 1770 2 313 C 911.832 1566.05 t 0 r /Helvetica findfont 44.0776 sf 0 0 m (\2551) show NC gr 
 gsave  2263 1770 2 313 C 471.17 1535.54 t 0 r /Helvetica findfont 64.4212 sf 0 0 m (=13TeV, 139 fb) show NC gr 
 gsave  2263 1770 2 313 C 440.662 1535.54 t 0 r /Helvetica findfont 64.4212 sf 0 0 m (s) show NC gr  6 lw 420 1573 m 7 -41 d s 3 lw 427 1532 m 7 61 d s 434 1593 m 37 X s 1 1 1 c 2254 561 2 2 bf black 1 1 1 c black 1860 358 318 187 bl 1 1 1 c black
 1860 358 318 187 bl 6 lw 1 1 1 c black 3 lw 389 343 m20 6 lw 3 lw 533 341 m20 6 lw 3 lw 676 349 m20 6 lw 3 lw 819 360 m20 6 lw 3 lw 962 343 m20 6 lw 3 lw 1105 351 m20 6 lw 3 lw 1248 322 m20 6 lw 3 lw 1391 362 m20 6 lw 3 lw 1534 336 m20 6 lw 3 lw 318
 187 m 1860 X s
 gsave  2254 561 2 2 C 2105.01 64.4045 t 0 r /Helvetica findfont 50.9797 sf 0 0 m (1/2) show NC gr 
 gsave  2254 561 2 2 C 1888.07 23.728 t 0 r /Helvetica findfont 78.1689 sf 0 0 m ( [GeV]) show NC gr 
 gsave  2254 561 2 2 C 1857.56 3.38971 t 0 r /Helvetica findfont 50.9797 sf 0 0 m (T) show NC gr 
 gsave  2254 561 2 2 C 1806.72 23.728 t 0 r /Helvetica findfont 78.1689 sf 0 0 m (H) show NC gr  6 lw 1773 81 m 10 -78 d s 3 lw 1783 3 m 14 99 d s 1797 102 m 91 X s
 gsave  2254 561 2 2 C 1735.53 23.728 t 0 r /Helvetica findfont 78.1689 sf 0 0 m (/) show NC gr 
 gsave  2254 561 2 2 C 1630.45 61.0148 t 0 r /Helvetica findfont 50.9797 sf 0 0 m (miss) show NC gr 
 gsave  2254 561 2 2 C 1630.45 3.38971 t 0 r /Helvetica findfont 50.9797 sf 0 0 m (T) show NC gr 
 gsave  2254 561 2 2 C 1579.61 23.728 t 0 r /Helvetica findfont 78.1689 sf 0 0 m (E) show NC gr  318 201 m -14 Y s 389 194 m -7 Y s 461 194 m -7 Y s 533 194 m -7 Y s 604 194 m -7 Y s 676 201 m -14 Y s 747 194 m -7 Y s 819 194 m -7 Y s 890 194 m -7 Y
 s 962 194 m -7 Y s 1033 201 m -14 Y s 1105 194 m -7 Y s 1177 194 m -7 Y s 1248 194 m -7 Y s 1320 194 m -7 Y s 1391 201 m -14 Y s 1463 194 m -7 Y s 1534 194 m -7 Y s 1606 194 m -7 Y s 1677 194 m -7 Y s 1749 201 m -14 Y s 1821 194 m -7 Y s 1892 194 m
 -7 Y s 1964 194 m -7 Y s 2035 194 m -7 Y s 2107 201 m -14 Y s 2107 201 m -14 Y s 2178 194 m -7 Y s
 gsave  2254 561 2 2 C 271.177 118.64 t 0 r /Helvetica findfont 78.1689 sf 0 0 m (10) show NC gr 
 gsave  2254 561 2 2 C 630.486 118.64 t 0 r /Helvetica findfont 78.1689 sf 0 0 m (15) show NC gr 
 gsave  2254 561 2 2 C 986.406 118.64 t 0 r /Helvetica findfont 78.1689 sf 0 0 m (20) show NC gr 
 gsave  2254 561 2 2 C 1345.72 118.64 t 0 r /Helvetica findfont 78.1689 sf 0 0 m (25) show NC gr 
 gsave  2254 561 2 2 C 1701.63 118.64 t 0 r /Helvetica findfont 78.1689 sf 0 0 m (30) show NC gr 
 gsave  2254 561 2 2 C 2060.94 118.64 t 0 r /Helvetica findfont 78.1689 sf 0 0 m (35) show NC gr  318 545 m 1860 X s 318 531 m 14 Y s 389 538 m 7 Y s 461 538 m 7 Y s 533 538 m 7 Y s 604 538 m 7 Y s 676 531 m 14 Y s 747 538 m 7 Y s 819 538 m 7 Y s 890
 538 m 7 Y s 962 538 m 7 Y s 1033 531 m 14 Y s 1105 538 m 7 Y s 1177 538 m 7 Y s 1248 538 m 7 Y s 1320 538 m 7 Y s 1391 531 m 14 Y s 1463 538 m 7 Y s 1534 538 m 7 Y s 1606 538 m 7 Y s 1677 538 m 7 Y s 1749 531 m 14 Y s 1821 538 m 7 Y s 1892 538 m 7 Y
 s 1964 538 m 7 Y s 2035 538 m 7 Y s 2107 531 m 14 Y s 2107 531 m 14 Y s 2178 538 m 7 Y s 318 187 m 358 Y s
 gsave  2254 561 2 2 C 166.096 284.736 t 90 r /Helvetica findfont 67.9729 sf 0 0 m (Data/SM) show NC gr  361 203 m -43 X s 339 220 m -21 X s 339 236 m -21 X s 339 252 m -21 X s 339 268 m -21 X s 361 285 m -43 X s 339 301 m -21 X s 339 317 m -21 X s
 339 334 m -21 X s 339 350 m -21 X s 361 366 m -43 X s 339 382 m -21 X s 339 399 m -21 X s 339 415 m -21 X s 339 431 m -21 X s 361 447 m -43 X s 339 464 m -21 X s 339 480 m -21 X s 339 496 m -21 X s 339 512 m -21 X s 361 529 m -43 X s 361 203 m -43 X
 s 339 187 m -21 X s 361 529 m -43 X s
 gsave  2254 561 2 2 C 261.008 183.044 t 0 r /Helvetica findfont 57.777 sf 0 0 m (0) show NC gr 
 gsave  2254 561 2 2 C 213.552 261.008 t 0 r /Helvetica findfont 57.777 sf 0 0 m (0.5) show NC gr 
 gsave  2254 561 2 2 C 271.177 342.361 t 0 r /Helvetica findfont 57.777 sf 0 0 m (1) show NC gr 
 gsave  2254 561 2 2 C 213.552 423.714 t 0 r /Helvetica findfont 57.777 sf 0 0 m (1.5) show NC gr 
 gsave  2254 561 2 2 C 261.008 505.067 t 0 r /Helvetica findfont 57.777 sf 0 0 m (2) show NC gr  2178 187 m 358 Y s 2135 203 m 43 X s 2157 220 m 21 X s 2157 236 m 21 X s 2157 252 m 21 X s 2157 268 m 21 X s 2135 285 m 43 X s 2157 301 m 21 X s 2157 317
 m 21 X s 2157 334 m 21 X s 2157 350 m 21 X s 2135 366 m 43 X s 2157 382 m 21 X s 2157 399 m 21 X s 2157 415 m 21 X s 2157 431 m 21 X s 2135 447 m 43 X s 2157 464 m 21 X s 2157 480 m 21 X s 2157 496 m 21 X s 2157 512 m 21 X s 2135 529 m 43 X s 2135
 203 m 43 X s 2157 187 m 21 X s 2135 529 m 43 X s 9 lw 1105 364 m 3 Y s 1105 367 m cl s 1105 337 m -2 Y s 1105 335 m cl s 1248 336 m 7 Y s 1248 343 m cl s 1248 309 m -6 Y s 1248 303 m cl s 1391 375 m 20 Y s 1391 395 m cl s 1391 348 m -19 Y s 1391 329
 m cl s 1534 350 m 30 Y s 1534 380 m cl s 1534 323 m -28 Y s 1534 295 m cl s 1677 545 m -34 Y s 1677 511 m cl s 3 lw 389 343 533 341 676 349 819 360 962 343 1105 351 1248 322 1391 362 1534 336 9 { m20} R 9 lw 1 0 0 c 6 lw black 3 lw 1 0 0 c 2178 341
 m -6 -6 d s 2178 369 m -34 -34 d s 2178 397 m -63 -62 d s 2149 397 m -63 -62 d s 2120 397 m -63 -62 d s 2092 397 m -57 -56 d s 2063 397 m -54 -54 d s 2026 389 m -46 -46 d s 1997 389 m -46 -46 d s 1968 389 m -45 -46 d s 1940 389 m -46 -46 d s 1892
 342 m -1 -2 d s 1911 389 m -49 -49 d s 1885 392 m -52 -52 d s 1857 392 m -52 -52 d s 1828 392 m -52 -52 d s 1799 392 m -50 -50 d s 1771 392 m -41 -40 d s 1730 380 m -29 -28 d s 1702 380 m -29 -28 d s 1673 380 m -29 -28 d s 1644 380 m -29 -28 d s
 1616 380 m -31 -30 d s 1588 382 m -31 -32 d s 1560 382 m -32 -32 d s 1531 382 m -32 -32 d s 1502 382 m -31 -32 d s 1473 382 m -25 -25 d s 1438 375 m -18 -18 d s 1410 375 m -19 -18 d s 1381 375 m -19 -18 d s 1352 375 m -18 -18 d s 1324 375 m -18 -17
 d s 1293 374 m -15 -16 d s 1265 374 m -16 -16 d s 1236 374 m -16 -16 d s 1207 374 m -15 -16 d s 1179 374 m -14 -14 d s 1148 372 m -12 -12 d s 1119 372 m -12 -12 d s 1091 372 m -12 -12 d s 1062 372 m -12 -12 d s 1032 371 m -10 -10 d s 1004 371 m -10
 -10 d s 975 371 m -10 -10 d s 946 371 m -10 -10 d s 917 371 m -9 -10 d s 888 370 m -8 -8 d s 859 370 m -8 -8 d s 830 370 m -7 -8 d s 802 370 m -8 -8 d s 773 370 m -8 -8 d s 745 370 m -9 -8 d s 716 370 m -9 -8 d s 687 370 m -8 -8 d s 659 370 m -9 -8
 d s 630 370 m -9 -8 d s 599 368 m -4 -4 d s 571 368 m -5 -4 d s 542 368 m -5 -4 d s 513 368 m -4 -4 d s 485 368 m -5 -4 d s 455 367 m -3 -2 d s 318 231 m s 426 367 m -2 -2 d s 318 259 m s 397 367 m -2 -2 d s 318 288 m s 369 367 m -3 -2 d s 318 317 m
 s 340 367 m -2 -2 d s 318 345 m s 6 lw 0 0 1 c 9 lw 1677 496 m 30 Y s 3 lw 1666 526 m 11 19 d 11 -19 d f 9 lw 1666 526 m 11 19 d 11 -19 d -22 X cl s black[ 4 8] 0 sd 3 lw 318 447 m 1860 X s 318 285 m 1860 X s 1 0 0 c[  12 12 ] 0 sd 6 lw 318 366 m
 1860 X s
 gr  gr showpage
end
%%EOF
