%!PS-Adobe-2.0 EPSF-2.0
%%BoundingBox:  0 0 567 521
%%Title: Distributions/metsqrtmeffInc_met_distrVR0LdPhi_MB-C_beforeFit_forThesis.eps: canvas
%%Creator: ROOT Version 6.04/16
%%CreationDate: Tue May 19 22:06:21 2020
%%DocumentNeededResources: ProcSet (FontSetInit)
%%EndComments
%%BeginProlog
80 dict begin
/s {stroke} def /l {lineto} def /m {moveto} def /t {translate} def
/r {rotate} def /rl {roll}  def /R {repeat} def
/d {rlineto} def /rm {rmoveto} def /gr {grestore} def /f {eofill} def
/c {setrgbcolor} def /black {0 setgray} def /sd {setdash} def
/cl {closepath} def /sf {scalefont setfont} def /lw {setlinewidth} def
/box {m dup 0 exch d exch 0 d 0 exch neg d cl} def
/NC{systemdict begin initclip end}def/C{NC box clip newpath}def
/bl {box s} def /bf {gsave box gsave f grestore 1 lw [] 0 sd s grestore} def /Y { 0 exch d} def /X { 0 d} def 
/K {{pop pop 0 moveto} exch kshow} bind def
/ita {/ang 15 def gsave [1 0 ang dup sin exch cos div 1 0 0] concat} def 
/mp {newpath /y exch def /x exch def} def
/side {[w .77 mul w .23 mul] .385 w mul sd w 0 l currentpoint t -144 r} def
/mr {mp x y w2 0 360 arc} def /m24 {mr s} def /m20 {mr f} def
/mb {mp x y w2 add m w2 neg 0 d 0 w neg d w 0 d 0 w d cl} def
/mt {mp x y w2 add m w2 neg w neg d w 0 d cl} def
/m21 {mb f} def /m25 {mb s} def /m22 {mt f} def /m26{mt s} def
/m23 {mp x y w2 sub m w2 w d w neg 0 d cl f} def
/m27 {mp x y w2 add m w3 neg w2 neg d w3 w2 neg d w3 w2 d cl s} def
/m28 {mp x w2 sub y w2 sub w3 add m w3 0 d  0 w3 neg d w3 0 d 0 w3 d w3 0 d  0 w3 d w3 neg 0 d 0 w3 d w3 neg 0 d 0 w3 neg d w3 neg 0 d cl s } def
/m29 {mp gsave x w2 sub y w2 add w3 sub m currentpoint t 4 {side} repeat cl fill gr} def
/m30 {mp gsave x w2 sub y w2 add w3 sub m currentpoint t 4 {side} repeat cl s gr} def
/m31 {mp x y w2 sub m 0 w d x w2 sub y m w 0 d x w2 sub y w2 add m w w neg d x w2 sub y w2 sub m w w d s} def
/m32 {mp x y w2 sub m w2 w d w neg 0 d cl s} def
/m33 {mp x y w2 add m w3 neg w2 neg d w3 w2 neg d w3 w2 d cl f} def
/m34 {mp x w2 sub y w2 sub w3 add m w3 0 d  0 w3 neg d w3 0 d 0 w3 d w3 0 d  0 w3 d w3 neg 0 d 0 w3 d w3 neg 0 d 0 w3 neg d w3 neg 0 d cl f } def
/m2 {mp x y w2 sub m 0 w d x w2 sub y m w 0 d s} def
/m5 {mp x w2 sub y w2 sub m w w d x w2 sub y w2 add m w w neg d s} def
%%IncludeResource: ProcSet (FontSetInit)
%%IncludeResource: font Times-Roman
%%IncludeResource: font Times-Italic
%%IncludeResource: font Times-Bold
%%IncludeResource: font Times-BoldItalic
%%IncludeResource: font Helvetica
%%IncludeResource: font Helvetica-Oblique
%%IncludeResource: font Helvetica-Bold
%%IncludeResource: font Helvetica-BoldOblique
%%IncludeResource: font Courier
%%IncludeResource: font Courier-Oblique
%%IncludeResource: font Courier-Bold
%%IncludeResource: font Courier-BoldOblique
%%IncludeResource: font Symbol
%%IncludeResource: font ZapfDingbats
/reEncode {exch findfont dup length dict begin {1 index /FID eq  {pop pop} {def} ifelse } forall /Encoding exch def currentdict end dup /FontName get exch definefont pop } def [/Times-Bold /Times-Italic /Times-BoldItalic /Helvetica /Helvetica-Oblique
 /Helvetica-Bold /Helvetica-BoldOblique /Courier /Courier-Oblique /Courier-Bold /Courier-BoldOblique /Times-Roman /AvantGarde-Book /AvantGarde-BookOblique /AvantGarde-Demi /AvantGarde-DemiOblique /Bookman-Demi /Bookman-DemiItalic /Bookman-Light
 /Bookman-LightItalic /Helvetica-Narrow /Helvetica-Narrow-Bold /Helvetica-Narrow-BoldOblique /Helvetica-Narrow-Oblique /NewCenturySchlbk-Roman /NewCenturySchlbk-Bold /NewCenturySchlbk-BoldItalic /NewCenturySchlbk-Italic /Palatino-Bold
 /Palatino-BoldItalic /Palatino-Italic /Palatino-Roman ] {ISOLatin1Encoding reEncode } forall
%%EndProlog
%%BeginSetup
%%EndSetup
newpath  gsave  .25 .25 scale  gsave  0 0 t black[  ] 0 sd 3 lw 1 1 1 c 2268 2085 0 0 bf black 1 1 1 c 2263 1770 2 313 bf black 1 1 1 c black 1860 1145 319 584 bl 1 1 1 c black 1860 1145 319 584 bl 6 lw 1 1 1 c black 3 lw /w 33 def /w2 {w 2 div} def
 /w3 {w 3 div} def 374 1137 m20 6 lw 3 lw 319 584 m 1860 X s
 gsave  2263 1770 2 313 C 2101.62 396.596 t 0 r /Helvetica findfont 54.2494 sf 0 0 m (1/2) show NC gr 
 gsave  2263 1770 2 313 C 1874.51 355.92 t 0 r /Helvetica findfont 81.3741 sf 0 0 m ( [GeV]) show NC gr 
 gsave  2263 1770 2 313 C 1840.61 332.192 t 0 r /Helvetica findfont 54.2494 sf 0 0 m (T) show NC gr 
 gsave  2263 1770 2 313 C 1786.38 355.92 t 0 r /Helvetica findfont 81.3741 sf 0 0 m (H) show NC gr  6 lw 1749 417 m 14 -85 d s 3 lw 1763 332 m 13 105 d s 1776 437 m 99 X s
 gsave  2263 1770 2 313 C 1711.8 355.92 t 0 r /Helvetica findfont 81.3741 sf 0 0 m (/) show NC gr 
 gsave  2263 1770 2 313 C 1599.94 396.596 t 0 r /Helvetica findfont 54.2494 sf 0 0 m (miss) show NC gr 
 gsave  2263 1770 2 313 C 1599.94 332.192 t 0 r /Helvetica findfont 54.2494 sf 0 0 m (T) show NC gr 
 gsave  2263 1770 2 313 C 1549.1 355.92 t 0 r /Helvetica findfont 81.3741 sf 0 0 m (E) show NC gr  538 584 m cl s 593 584 m cl s 647 584 m cl s 702 584 m cl s 757 584 m cl s 812 584 m cl s 866 584 m cl s 921 584 m cl s 976 584 m cl s 1030 584 m cl s
 1085 584 m cl s 1140 584 m cl s 1195 584 m cl s 1249 584 m cl s 1304 584 m cl s 1359 584 m cl s 1413 584 m cl s 1468 584 m cl s 1523 584 m cl s 1578 584 m cl s 1632 584 m cl s 1687 584 m cl s 1742 584 m cl s 1796 584 m cl s 1851 584 m cl s 1906 584
 m cl s 1961 584 m cl s 2015 584 m cl s 2070 584 m cl s 2125 584 m cl s 2179 584 m cl s 538 584 m cl s 483 584 m cl s 429 584 m cl s 374 584 m cl s 319 1729 m 1860 X s 538 1729 m cl s 593 1729 m cl s 647 1729 m cl s 702 1729 m cl s 757 1729 m cl s
 812 1729 m cl s 866 1729 m cl s 921 1729 m cl s 976 1729 m cl s 1030 1729 m cl s 1085 1729 m cl s 1140 1729 m cl s 1195 1729 m cl s 1249 1729 m cl s 1304 1729 m cl s 1359 1729 m cl s 1413 1729 m cl s 1468 1729 m cl s 1523 1729 m cl s 1578 1729 m cl
 s 1632 1729 m cl s 1687 1729 m cl s 1742 1729 m cl s 1796 1729 m cl s 1851 1729 m cl s 1906 1729 m cl s 1961 1729 m cl s 2015 1729 m cl s 2070 1729 m cl s 2125 1729 m cl s 2179 1729 m cl s 538 1729 m cl s 483 1729 m cl s 429 1729 m cl s 374 1729 m
 cl s 319 584 m 1145 Y s
 gsave  2263 1770 2 313 C 125.419 1654.18 t 90 r /Helvetica findfont 54.2494 sf 0 0 m (1/2) show NC gr 
 gsave  2263 1770 2 313 C 166.096 1064.37 t 90 r /Helvetica findfont 81.3741 sf 0 0 m (Events / 2 [GeV]) show NC gr  341 624 m -22 X s 341 647 m -22 X s 341 664 m -22 X s 341 677 m -22 X s 341 687 m -22 X s 341 696 m -22 X s 341 704 m -22 X s 341 710
 m -22 X s 363 717 m -44 X s
 gsave  2263 1770 2 313 C 300.555 689.408 t 0 r  -36 0 t /Helvetica findfont 64.4212 sf 0 0 m (1) show NC gr  341 756 m -22 X s 341 780 m -22 X s 341 796 m -22 X s 341 809 m -22 X s 341 819 m -22 X s 341 828 m -22 X s 341 836 m -22 X s 341 843 m -22
 X s 363 849 m -44 X s
 gsave  2263 1770 2 313 C 300.555 821.624 t 0 r  -73 0 t /Helvetica findfont 64.4212 sf 0 0 m (10) show NC gr  341 889 m -22 X s 341 912 m -22 X s 341 928 m -22 X s 341 941 m -22 X s 341 952 m -22 X s 341 960 m -22 X s 341 968 m -22 X s 341 975 m -22
 X s 363 981 m -44 X s
 gsave  2263 1770 2 313 C 274.567 979.626 t 0 r /Helvetica findfont 44.0776 sf 0 0 m (2) show NC gr 
 gsave  2263 1770 2 313 C 203.383 952.509 t 0 r /Helvetica findfont 64.4212 sf 0 0 m (10) show NC gr  341 1021 m -22 X s 341 1044 m -22 X s 341 1061 m -22 X s 341 1073 m -22 X s 341 1084 m -22 X s 341 1093 m -22 X s 341 1100 m -22 X s 341 1107 m -22
 X s 363 1113 m -44 X s
 gsave  2263 1770 2 313 C 274.567 1115.21 t 0 r /Helvetica findfont 44.0776 sf 0 0 m (3) show NC gr 
 gsave  2263 1770 2 313 C 203.383 1084.71 t 0 r /Helvetica findfont 64.4212 sf 0 0 m (10) show NC gr  341 1153 m -22 X s 341 1176 m -22 X s 341 1193 m -22 X s 341 1206 m -22 X s 341 1216 m -22 X s 341 1225 m -22 X s 341 1233 m -22 X s 341 1239 m -22
 X s 363 1245 m -44 X s
 gsave  2263 1770 2 313 C 274.567 1244.02 t 0 r /Helvetica findfont 44.0776 sf 0 0 m (4) show NC gr 
 gsave  2263 1770 2 313 C 203.383 1216.91 t 0 r /Helvetica findfont 64.4212 sf 0 0 m (10) show NC gr  341 1285 m -22 X s 341 1308 m -22 X s 341 1325 m -22 X s 341 1338 m -22 X s 341 1348 m -22 X s 341 1357 m -22 X s 341 1365 m -22 X s 341 1372 m -22
 X s 363 1378 m -44 X s
 gsave  2263 1770 2 313 C 274.567 1379.61 t 0 r /Helvetica findfont 44.0776 sf 0 0 m (5) show NC gr 
 gsave  2263 1770 2 313 C 203.383 1349.1 t 0 r /Helvetica findfont 64.4212 sf 0 0 m (10) show NC gr  341 1417 m -22 X s 341 1441 m -22 X s 341 1457 m -22 X s 341 1470 m -22 X s 341 1480 m -22 X s 341 1489 m -22 X s 341 1497 m -22 X s 341 1504 m -22 X
 s 363 1510 m -44 X s
 gsave  2263 1770 2 313 C 274.567 1511.81 t 0 r /Helvetica findfont 44.0776 sf 0 0 m (6) show NC gr 
 gsave  2263 1770 2 313 C 203.383 1481.3 t 0 r /Helvetica findfont 64.4212 sf 0 0 m (10) show NC gr  341 1550 m -22 X s 341 1573 m -22 X s 341 1589 m -22 X s 341 1602 m -22 X s 341 1613 m -22 X s 341 1622 m -22 X s 341 1629 m -22 X s 341 1636 m -22 X
 s 363 1642 m -44 X s
 gsave  2263 1770 2 313 C 274.567 1640.62 t 0 r /Helvetica findfont 44.0776 sf 0 0 m (7) show NC gr 
 gsave  2263 1770 2 313 C 203.383 1613.5 t 0 r /Helvetica findfont 64.4212 sf 0 0 m (10) show NC gr  341 1682 m -22 X s 341 1705 m -22 X s 341 1722 m -22 X s 2179 584 m 1145 Y s 2157 624 m 22 X s 2157 647 m 22 X s 2157 664 m 22 X s 2157 677 m 22 X s
 2157 687 m 22 X s 2157 696 m 22 X s 2157 704 m 22 X s 2157 710 m 22 X s 2136 717 m 43 X s 2157 756 m 22 X s 2157 780 m 22 X s 2157 796 m 22 X s 2157 809 m 22 X s 2157 819 m 22 X s 2157 828 m 22 X s 2157 836 m 22 X s 2157 843 m 22 X s 2136 849 m 43 X
 s 2157 889 m 22 X s 2157 912 m 22 X s 2157 928 m 22 X s 2157 941 m 22 X s 2157 952 m 22 X s 2157 960 m 22 X s 2157 968 m 22 X s 2157 975 m 22 X s 2136 981 m 43 X s 2157 1021 m 22 X s 2157 1044 m 22 X s 2157 1061 m 22 X s 2157 1073 m 22 X s 2157 1084
 m 22 X s 2157 1093 m 22 X s 2157 1100 m 22 X s 2157 1107 m 22 X s 2136 1113 m 43 X s 2157 1153 m 22 X s 2157 1176 m 22 X s 2157 1193 m 22 X s 2157 1206 m 22 X s 2157 1216 m 22 X s 2157 1225 m 22 X s 2157 1233 m 22 X s 2157 1239 m 22 X s 2136 1245 m
 43 X s 2157 1285 m 22 X s 2157 1308 m 22 X s 2157 1325 m 22 X s 2157 1338 m 22 X s 2157 1348 m 22 X s 2157 1357 m 22 X s 2157 1365 m 22 X s 2157 1372 m 22 X s 2136 1378 m 43 X s 2157 1417 m 22 X s 2157 1441 m 22 X s 2157 1457 m 22 X s 2157 1470 m 22
 X s 2157 1480 m 22 X s 2157 1489 m 22 X s 2157 1497 m 22 X s 2157 1504 m 22 X s 2136 1510 m 43 X s 2157 1550 m 22 X s 2157 1573 m 22 X s 2157 1589 m 22 X s 2157 1602 m 22 X s 2157 1613 m 22 X s 2157 1622 m 22 X s 2157 1629 m 22 X s 2157 1636 m 22 X
 s 2136 1642 m 43 X s 2157 1682 m 22 X s 2157 1705 m 22 X s 2157 1722 m 22 X s 0.4 0.6 1 c black 0.4 0.6 1 c 319 584 m 563 Y 110 X -563 Y 1750 X f black 0.4 0.6 1 c black 319 1147 m 110 X -563 Y 1750 X s 0.999 0.999 0.999 c black 0.999 0.999 0.999 c
 319 584 m 541 Y 110 X -541 Y 1750 X f black 0.999 0.999 0.999 c black 319 1125 m 110 X -541 Y 1750 X s 1 1 1 c black 319 1125 m 110 X -541 Y 1750 X s 0.6 1 0.6 c black 0.6 1 0.6 c 319 584 m 541 Y 110 X -541 Y 1750 X f black 0.6 1 0.6 c black 319
 1125 m 110 X -541 Y 1750 X s 0.999 0.999 0.999 c black 0.999 0.999 0.999 c 319 584 m 527 Y 110 X -527 Y 1750 X f black 0.999 0.999 0.999 c black 319 1111 m 110 X -527 Y 1750 X s 1 1 1 c black 319 1111 m 110 X -527 Y 1750 X s 1 0.8 0.4 c black 1 0.8
 0.4 c 319 584 m 527 Y 110 X -527 Y 1750 X f black 1 0.8 0.4 c black 319 1111 m 110 X -527 Y 1750 X s 0.999 0.999 0.999 c black 0.999 0.999 0.999 c 319 584 m 407 Y 110 X -407 Y 1750 X f black 0.999 0.999 0.999 c black 319 991 m 110 X -407 Y 1750 X s
 1 1 1 c black 319 991 m 110 X -407 Y 1750 X s 1 0.4 0.6 c black 1 0.4 0.6 c 319 584 m 407 Y 110 X -407 Y 1750 X f black 1 0.4 0.6 c black 319 991 m 110 X -407 Y 1750 X s 0.999 0.999 0.999 c black 0.999 0.999 0.999 c 319 584 m 349 Y 110 X -349 Y 1750
 X f black 0.999 0.999 0.999 c black 319 933 m 110 X -349 Y 1750 X s 1 1 1 c black 319 933 m 110 X -349 Y 1750 X s 0 0 0.4 c black 0 0 0.4 c 319 584 m 349 Y 110 X -349 Y 1750 X f black 0 0 0.4 c black 319 933 m 110 X -349 Y 1750 X s 1 0 0 c 6 lw 1 1
 1 c black 1 0 0 c 319 1147 m 110 X -563 Y 1750 X s black 3 lw 1 0 0 c 1 lw << /PatternType 1 /PaintType 2 /TilingType 1 /BBox [ 0 0 100 100 ] /XStep 100 /YStep 100 /PaintProc { begin gsave 0 100 m 100 0 l s gr end } >> [ 0.24 0 0 0.24 0 0 ]
 makepattern /P05 exch def /cs {[/Pattern /DeviceRGB] setcolorspace} def /FA {f [/DeviceRGB] setcolorspace} def cs 1 0 0 P05 setcolor 319 584 m 566 Y 110 X -566 Y 560 Y -110 X -560 Y FA 6 lw 1 1 1 c 15 lw black 1 1 1 c 3 lw /w 43 def /w2 {w 2 div}
 def /w3 {w 3 div} def 374 1137 m20 15 lw black 6 lw 1 1 1 c black 3 lw /w 33 def /w2 {w 2 div} def /w3 {w 3 div} def 374 1137 m20 6 lw 3 lw 374 1137 m20 6 lw 3 lw 319 584 m 1860 X s 538 584 m cl s 593 584 m cl s 647 584 m cl s 702 584 m cl s 757 584
 m cl s 812 584 m cl s 866 584 m cl s 921 584 m cl s 976 584 m cl s 1030 584 m cl s 1085 584 m cl s 1140 584 m cl s 1195 584 m cl s 1249 584 m cl s 1304 584 m cl s 1359 584 m cl s 1413 584 m cl s 1468 584 m cl s 1523 584 m cl s 1578 584 m cl s 1632
 584 m cl s 1687 584 m cl s 1742 584 m cl s 1796 584 m cl s 1851 584 m cl s 1906 584 m cl s 1961 584 m cl s 2015 584 m cl s 2070 584 m cl s 2125 584 m cl s 2179 584 m cl s 538 584 m cl s 483 584 m cl s 429 584 m cl s 374 584 m cl s 319 1729 m 1860 X
 s 538 1729 m cl s 593 1729 m cl s 647 1729 m cl s 702 1729 m cl s 757 1729 m cl s 812 1729 m cl s 866 1729 m cl s 921 1729 m cl s 976 1729 m cl s 1030 1729 m cl s 1085 1729 m cl s 1140 1729 m cl s 1195 1729 m cl s 1249 1729 m cl s 1304 1729 m cl s
 1359 1729 m cl s 1413 1729 m cl s 1468 1729 m cl s 1523 1729 m cl s 1578 1729 m cl s 1632 1729 m cl s 1687 1729 m cl s 1742 1729 m cl s 1796 1729 m cl s 1851 1729 m cl s 1906 1729 m cl s 1961 1729 m cl s 2015 1729 m cl s 2070 1729 m cl s 2125 1729 m
 cl s 2179 1729 m cl s 538 1729 m cl s 483 1729 m cl s 429 1729 m cl s 374 1729 m cl s 319 584 m 1145 Y s 341 624 m -22 X s 341 647 m -22 X s 341 664 m -22 X s 341 677 m -22 X s 341 687 m -22 X s 341 696 m -22 X s 341 704 m -22 X s 341 710 m -22 X s
 363 717 m -44 X s 341 756 m -22 X s 341 780 m -22 X s 341 796 m -22 X s 341 809 m -22 X s 341 819 m -22 X s 341 828 m -22 X s 341 836 m -22 X s 341 843 m -22 X s 363 849 m -44 X s 341 889 m -22 X s 341 912 m -22 X s 341 928 m -22 X s 341 941 m -22 X
 s 341 952 m -22 X s 341 960 m -22 X s 341 968 m -22 X s 341 975 m -22 X s 363 981 m -44 X s 341 1021 m -22 X s 341 1044 m -22 X s 341 1061 m -22 X s 341 1073 m -22 X s 341 1084 m -22 X s 341 1093 m -22 X s 341 1100 m -22 X s 341 1107 m -22 X s 363
 1113 m -44 X s 341 1153 m -22 X s 341 1176 m -22 X s 341 1193 m -22 X s 341 1206 m -22 X s 341 1216 m -22 X s 341 1225 m -22 X s 341 1233 m -22 X s 341 1239 m -22 X s 363 1245 m -44 X s 341 1285 m -22 X s 341 1308 m -22 X s 341 1325 m -22 X s 341
 1338 m -22 X s 341 1348 m -22 X s 341 1357 m -22 X s 341 1365 m -22 X s 341 1372 m -22 X s 363 1378 m -44 X s 341 1417 m -22 X s 341 1441 m -22 X s 341 1457 m -22 X s 341 1470 m -22 X s 341 1480 m -22 X s 341 1489 m -22 X s 341 1497 m -22 X s 341
 1504 m -22 X s 363 1510 m -44 X s 341 1550 m -22 X s 341 1573 m -22 X s 341 1589 m -22 X s 341 1602 m -22 X s 341 1613 m -22 X s 341 1622 m -22 X s 341 1629 m -22 X s 341 1636 m -22 X s 363 1642 m -44 X s 341 1682 m -22 X s 341 1705 m -22 X s 341
 1722 m -22 X s 2179 584 m 1145 Y s 2157 624 m 22 X s 2157 647 m 22 X s 2157 664 m 22 X s 2157 677 m 22 X s 2157 687 m 22 X s 2157 696 m 22 X s 2157 704 m 22 X s 2157 710 m 22 X s 2136 717 m 43 X s 2157 756 m 22 X s 2157 780 m 22 X s 2157 796 m 22 X
 s 2157 809 m 22 X s 2157 819 m 22 X s 2157 828 m 22 X s 2157 836 m 22 X s 2157 843 m 22 X s 2136 849 m 43 X s 2157 889 m 22 X s 2157 912 m 22 X s 2157 928 m 22 X s 2157 941 m 22 X s 2157 952 m 22 X s 2157 960 m 22 X s 2157 968 m 22 X s 2157 975 m 22
 X s 2136 981 m 43 X s 2157 1021 m 22 X s 2157 1044 m 22 X s 2157 1061 m 22 X s 2157 1073 m 22 X s 2157 1084 m 22 X s 2157 1093 m 22 X s 2157 1100 m 22 X s 2157 1107 m 22 X s 2136 1113 m 43 X s 2157 1153 m 22 X s 2157 1176 m 22 X s 2157 1193 m 22 X s
 2157 1206 m 22 X s 2157 1216 m 22 X s 2157 1225 m 22 X s 2157 1233 m 22 X s 2157 1239 m 22 X s 2136 1245 m 43 X s 2157 1285 m 22 X s 2157 1308 m 22 X s 2157 1325 m 22 X s 2157 1338 m 22 X s 2157 1348 m 22 X s 2157 1357 m 22 X s 2157 1365 m 22 X s
 2157 1372 m 22 X s 2136 1378 m 43 X s 2157 1417 m 22 X s 2157 1441 m 22 X s 2157 1457 m 22 X s 2157 1470 m 22 X s 2157 1480 m 22 X s 2157 1489 m 22 X s 2157 1497 m 22 X s 2157 1504 m 22 X s 2136 1510 m 43 X s 2157 1550 m 22 X s 2157 1573 m 22 X s
 2157 1589 m 22 X s 2157 1602 m 22 X s 2157 1613 m 22 X s 2157 1622 m 22 X s 2157 1629 m 22 X s 2157 1636 m 22 X s 2136 1642 m 43 X s 2157 1682 m 22 X s 2157 1705 m 22 X s 2157 1722 m 22 X s
 gsave  2263 1770 2 313 C 406.765 1447.41 t 0 r /Helvetica findfont 64.4212 sf 0 0 m (VR0LdPhi for MB\255C) show NC gr 
 gsave  2263 1770 2 313 C 1464.36 1630.45 t 0 r /Helvetica findfont 64.4212 sf 0 0 m (SM Total) show NC gr  1 1 1 c 1338 1616 m 107 X 64 Y -107 X f 1 0 0 c 6 lw 1338 1648 m 107 X s black
 gsave  2263 1770 2 313 C 1464.36 1538.93 t 0 r /Helvetica findfont 64.4212 sf 0 0 m (Data) show NC gr  1391 1529 m 55 Y s 3 lw 1391 1557 m20 6 lw
 gsave  2263 1770 2 313 C 1464.36 1447.41 t 0 r /Helvetica findfont 64.4212 sf 0 0 m (W+jets) show NC gr  0.4 0.6 1 c 3 lw 1338 1434 m 107 X 64 Y -107 X f 6 lw black 3 lw 1338 1498 m 107 X s 1338 1434 m 107 X s 1445 1434 m 64 Y s 1338 1434 m 64 Y s
 gsave  2263 1770 2 313 C 1498.25 1355.88 t 0 r /Helvetica findfont 64.4212 sf 0 0 m (\(+EW\) & single top) show NC gr 
 gsave  2263 1770 2 313 C 1481.3 1355.88 t 0 r /Helvetica findfont 64.4212 sf 0 0 m (t) show NC gr  1481 1407 m 17 X s
 gsave  2263 1770 2 313 C 1464.36 1355.88 t 0 r /Helvetica findfont 64.4212 sf 0 0 m (t) show NC gr  0.6 1 0.6 c 1338 1343 m 107 X 63 Y -107 X f black 1338 1406 m 107 X s 1338 1343 m 107 X s 1445 1343 m 63 Y s 1338 1343 m 63 Y s
 gsave  2263 1770 2 313 C 1464.36 1264.36 t 0 r /Helvetica findfont 64.4212 sf 0 0 m (Z+jets) show NC gr  1 0.8 0.4 c 1338 1252 m 107 X 63 Y -107 X f black 1338 1315 m 107 X s 1338 1252 m 107 X s 1445 1252 m 63 Y s 1338 1252 m 63 Y s
 gsave  2263 1770 2 313 C 1464.36 1172.84 t 0 r /Helvetica findfont 64.4212 sf 0 0 m (Diboson) show NC gr  1 0.4 0.6 c 1338 1161 m 107 X 63 Y -107 X f black 1338 1224 m 107 X s 1338 1161 m 107 X s 1445 1161 m 63 Y s 1338 1161 m 63 Y s
 gsave  2263 1770 2 313 C 1464.36 1081.32 t 0 r /Helvetica findfont 64.4212 sf 0 0 m (Multi\255jet) show NC gr  0 0 0.4 c 1338 1070 m 107 X 63 Y -107 X f black 1338 1133 m 107 X s 1338 1070 m 107 X s 1445 1070 m 63 Y s 1338 1070 m 63 Y s
 gsave  2263 1770 2 313 C 911.832 1566.05 t 0 r /Helvetica findfont 44.0776 sf 0 0 m (\2551) show NC gr 
 gsave  2263 1770 2 313 C 471.17 1535.54 t 0 r /Helvetica findfont 64.4212 sf 0 0 m (=13TeV, 139 fb) show NC gr 
 gsave  2263 1770 2 313 C 440.662 1535.54 t 0 r /Helvetica findfont 64.4212 sf 0 0 m (s) show NC gr  6 lw 420 1573 m 7 -41 d s 3 lw 427 1532 m 7 61 d s 434 1593 m 37 X s 1 1 1 c 2254 561 2 2 bf black 1 1 1 c black 1860 358 318 187 bl 1 1 1 c black
 1860 358 318 187 bl 6 lw 1 1 1 c black 3 lw 373 339 m20 6 lw 3 lw 318 187 m 1860 X s
 gsave  2254 561 2 2 C 2105.01 64.4045 t 0 r /Helvetica findfont 50.9797 sf 0 0 m (1/2) show NC gr 
 gsave  2254 561 2 2 C 1888.07 23.728 t 0 r /Helvetica findfont 78.1689 sf 0 0 m ( [GeV]) show NC gr 
 gsave  2254 561 2 2 C 1857.56 3.38971 t 0 r /Helvetica findfont 50.9797 sf 0 0 m (T) show NC gr 
 gsave  2254 561 2 2 C 1806.72 23.728 t 0 r /Helvetica findfont 78.1689 sf 0 0 m (H) show NC gr  6 lw 1773 81 m 10 -78 d s 3 lw 1783 3 m 14 99 d s 1797 102 m 91 X s
 gsave  2254 561 2 2 C 1735.53 23.728 t 0 r /Helvetica findfont 78.1689 sf 0 0 m (/) show NC gr 
 gsave  2254 561 2 2 C 1630.45 61.0148 t 0 r /Helvetica findfont 50.9797 sf 0 0 m (miss) show NC gr 
 gsave  2254 561 2 2 C 1630.45 3.38971 t 0 r /Helvetica findfont 50.9797 sf 0 0 m (T) show NC gr 
 gsave  2254 561 2 2 C 1579.61 23.728 t 0 r /Helvetica findfont 78.1689 sf 0 0 m (E) show NC gr  537 201 m -14 Y s 591 194 m -7 Y s 646 194 m -7 Y s 701 194 m -7 Y s 756 194 m -7 Y s 810 201 m -14 Y s 865 194 m -7 Y s 920 194 m -7 Y s 975 194 m -7 Y
 s 1029 194 m -7 Y s 1084 201 m -14 Y s 1139 194 m -7 Y s 1193 194 m -7 Y s 1248 194 m -7 Y s 1303 194 m -7 Y s 1358 201 m -14 Y s 1412 194 m -7 Y s 1467 194 m -7 Y s 1522 194 m -7 Y s 1576 194 m -7 Y s 1631 201 m -14 Y s 1686 194 m -7 Y s 1741 194 m
 -7 Y s 1795 194 m -7 Y s 1850 194 m -7 Y s 1905 201 m -14 Y s 1959 194 m -7 Y s 2014 194 m -7 Y s 2069 194 m -7 Y s 2124 194 m -7 Y s 2178 201 m -14 Y s 537 201 m -14 Y s 482 194 m -7 Y s 427 194 m -7 Y s 373 194 m -7 Y s 318 194 m -7 Y s
 gsave  2254 561 2 2 C 491.508 118.64 t 0 r /Helvetica findfont 78.1689 sf 0 0 m (20) show NC gr 
 gsave  2254 561 2 2 C 766.075 118.64 t 0 r /Helvetica findfont 78.1689 sf 0 0 m (25) show NC gr 
 gsave  2254 561 2 2 C 1037.25 118.64 t 0 r /Helvetica findfont 78.1689 sf 0 0 m (30) show NC gr 
 gsave  2254 561 2 2 C 1311.82 118.64 t 0 r /Helvetica findfont 78.1689 sf 0 0 m (35) show NC gr 
 gsave  2254 561 2 2 C 1586.38 118.64 t 0 r /Helvetica findfont 78.1689 sf 0 0 m (40) show NC gr 
 gsave  2254 561 2 2 C 1857.56 118.64 t 0 r /Helvetica findfont 78.1689 sf 0 0 m (45) show NC gr 
 gsave  2254 561 2 2 C 2132.13 118.64 t 0 r /Helvetica findfont 78.1689 sf 0 0 m (50) show NC gr  318 545 m 1860 X s 537 531 m 14 Y s 591 538 m 7 Y s 646 538 m 7 Y s 701 538 m 7 Y s 756 538 m 7 Y s 810 531 m 14 Y s 865 538 m 7 Y s 920 538 m 7 Y s 975
 538 m 7 Y s 1029 538 m 7 Y s 1084 531 m 14 Y s 1139 538 m 7 Y s 1193 538 m 7 Y s 1248 538 m 7 Y s 1303 538 m 7 Y s 1358 531 m 14 Y s 1412 538 m 7 Y s 1467 538 m 7 Y s 1522 538 m 7 Y s 1576 538 m 7 Y s 1631 531 m 14 Y s 1686 538 m 7 Y s 1741 538 m 7
 Y s 1795 538 m 7 Y s 1850 538 m 7 Y s 1905 531 m 14 Y s 1959 538 m 7 Y s 2014 538 m 7 Y s 2069 538 m 7 Y s 2124 538 m 7 Y s 2178 531 m 14 Y s 537 531 m 14 Y s 482 538 m 7 Y s 427 538 m 7 Y s 373 538 m 7 Y s 318 538 m 7 Y s 318 187 m 358 Y s
 gsave  2254 561 2 2 C 166.096 284.736 t 90 r /Helvetica findfont 67.9729 sf 0 0 m (Data/SM) show NC gr  361 203 m -43 X s 339 220 m -21 X s 339 236 m -21 X s 339 252 m -21 X s 339 268 m -21 X s 361 285 m -43 X s 339 301 m -21 X s 339 317 m -21 X s
 339 334 m -21 X s 339 350 m -21 X s 361 366 m -43 X s 339 382 m -21 X s 339 399 m -21 X s 339 415 m -21 X s 339 431 m -21 X s 361 447 m -43 X s 339 464 m -21 X s 339 480 m -21 X s 339 496 m -21 X s 339 512 m -21 X s 361 529 m -43 X s 361 203 m -43 X
 s 339 187 m -21 X s 361 529 m -43 X s
 gsave  2254 561 2 2 C 261.008 183.044 t 0 r /Helvetica findfont 57.777 sf 0 0 m (0) show NC gr 
 gsave  2254 561 2 2 C 213.552 261.008 t 0 r /Helvetica findfont 57.777 sf 0 0 m (0.5) show NC gr 
 gsave  2254 561 2 2 C 271.177 342.361 t 0 r /Helvetica findfont 57.777 sf 0 0 m (1) show NC gr 
 gsave  2254 561 2 2 C 213.552 423.714 t 0 r /Helvetica findfont 57.777 sf 0 0 m (1.5) show NC gr 
 gsave  2254 561 2 2 C 261.008 505.067 t 0 r /Helvetica findfont 57.777 sf 0 0 m (2) show NC gr  2178 187 m 358 Y s 2135 203 m 43 X s 2157 220 m 21 X s 2157 236 m 21 X s 2157 252 m 21 X s 2157 268 m 21 X s 2135 285 m 43 X s 2157 301 m 21 X s 2157 317
 m 21 X s 2157 334 m 21 X s 2157 350 m 21 X s 2135 366 m 43 X s 2157 382 m 21 X s 2157 399 m 21 X s 2157 415 m 21 X s 2157 431 m 21 X s 2135 447 m 43 X s 2157 464 m 21 X s 2157 480 m 21 X s 2157 496 m 21 X s 2157 512 m 21 X s 2135 529 m 43 X s 2135
 203 m 43 X s 2157 187 m 21 X s 2135 529 m 43 X s 9 lw 3 lw 373 339 m20 9 lw 1 0 0 c 6 lw black 3 lw 1 0 0 c 2155 203 m cl s 2127 203 m cl s 2098 203 m cl s 2069 203 m cl s 2040 203 m cl s 2012 203 m cl s 1983 203 m cl s 1954 203 m cl s 1926 203 m cl
 s 1897 203 m cl s 1868 203 m cl s 1840 203 m cl s 1811 203 m cl s 1782 203 m cl s 1754 203 m cl s 1725 203 m cl s 1696 203 m cl s 1667 203 m cl s 1639 203 m cl s 1610 203 m cl s 1581 203 m cl s 1553 203 m cl s 1524 203 m cl s 1495 203 m cl s 1467
 203 m cl s 1438 203 m cl s 1409 203 m cl s 1381 203 m cl s 1352 203 m cl s 1323 203 m cl s 1294 203 m cl s 1266 203 m cl s 1237 203 m cl s 1208 203 m cl s 1180 203 m cl s 1151 203 m cl s 1122 203 m cl s 1094 203 m cl s 1065 203 m cl s 1036 203 m cl
 s 1008 203 m cl s 979 203 m cl s 950 203 m cl s 922 203 m cl s 893 203 m cl s 864 203 m cl s 835 203 m cl s 807 203 m cl s 778 203 m cl s 749 203 m cl s 721 203 m cl s 692 203 m cl s 663 203 m cl s 635 203 m cl s 606 203 m cl s 577 203 m cl s 549
 203 m cl s 520 203 m cl s 491 203 m cl s 462 203 m cl s 434 203 m cl s 427 226 m s 427 254 m s 427 283 m s 427 311 m s 427 340 m s 318 231 m s 427 368 m -11 -11 d s 318 259 m s 405 375 m -18 -18 d s 318 288 m s 377 375 m -19 -18 d s 318 317 m s 348
 375 m -19 -18 d s 318 345 m s 319 375 m -1 -1 d s 6 lw black[ 4 8] 0 sd 3 lw 318 447 m 1860 X s 318 285 m 1860 X s 1 0 0 c[  12 12 ] 0 sd 6 lw 318 366 m 1860 X s
 gr  gr showpage
end
%%EOF
