%!PS-Adobe-2.0 EPSF-2.0
%%BoundingBox:  0 0 567 521
%%Title: Distributions/metsqrtmeffInc_met_distrCRT_MB-GGo_afterFit_forThesis.eps: canvas
%%Creator: ROOT Version 6.04/16
%%CreationDate: Tue May 19 22:05:40 2020
%%DocumentNeededResources: ProcSet (FontSetInit)
%%EndComments
%%BeginProlog
80 dict begin
/s {stroke} def /l {lineto} def /m {moveto} def /t {translate} def
/r {rotate} def /rl {roll}  def /R {repeat} def
/d {rlineto} def /rm {rmoveto} def /gr {grestore} def /f {eofill} def
/c {setrgbcolor} def /black {0 setgray} def /sd {setdash} def
/cl {closepath} def /sf {scalefont setfont} def /lw {setlinewidth} def
/box {m dup 0 exch d exch 0 d 0 exch neg d cl} def
/NC{systemdict begin initclip end}def/C{NC box clip newpath}def
/bl {box s} def /bf {gsave box gsave f grestore 1 lw [] 0 sd s grestore} def /Y { 0 exch d} def /X { 0 d} def 
/K {{pop pop 0 moveto} exch kshow} bind def
/ita {/ang 15 def gsave [1 0 ang dup sin exch cos div 1 0 0] concat} def 
/mp {newpath /y exch def /x exch def} def
/side {[w .77 mul w .23 mul] .385 w mul sd w 0 l currentpoint t -144 r} def
/mr {mp x y w2 0 360 arc} def /m24 {mr s} def /m20 {mr f} def
/mb {mp x y w2 add m w2 neg 0 d 0 w neg d w 0 d 0 w d cl} def
/mt {mp x y w2 add m w2 neg w neg d w 0 d cl} def
/m21 {mb f} def /m25 {mb s} def /m22 {mt f} def /m26{mt s} def
/m23 {mp x y w2 sub m w2 w d w neg 0 d cl f} def
/m27 {mp x y w2 add m w3 neg w2 neg d w3 w2 neg d w3 w2 d cl s} def
/m28 {mp x w2 sub y w2 sub w3 add m w3 0 d  0 w3 neg d w3 0 d 0 w3 d w3 0 d  0 w3 d w3 neg 0 d 0 w3 d w3 neg 0 d 0 w3 neg d w3 neg 0 d cl s } def
/m29 {mp gsave x w2 sub y w2 add w3 sub m currentpoint t 4 {side} repeat cl fill gr} def
/m30 {mp gsave x w2 sub y w2 add w3 sub m currentpoint t 4 {side} repeat cl s gr} def
/m31 {mp x y w2 sub m 0 w d x w2 sub y m w 0 d x w2 sub y w2 add m w w neg d x w2 sub y w2 sub m w w d s} def
/m32 {mp x y w2 sub m w2 w d w neg 0 d cl s} def
/m33 {mp x y w2 add m w3 neg w2 neg d w3 w2 neg d w3 w2 d cl f} def
/m34 {mp x w2 sub y w2 sub w3 add m w3 0 d  0 w3 neg d w3 0 d 0 w3 d w3 0 d  0 w3 d w3 neg 0 d 0 w3 d w3 neg 0 d 0 w3 neg d w3 neg 0 d cl f } def
/m2 {mp x y w2 sub m 0 w d x w2 sub y m w 0 d s} def
/m5 {mp x w2 sub y w2 sub m w w d x w2 sub y w2 add m w w neg d s} def
%%IncludeResource: ProcSet (FontSetInit)
%%IncludeResource: font Times-Roman
%%IncludeResource: font Times-Italic
%%IncludeResource: font Times-Bold
%%IncludeResource: font Times-BoldItalic
%%IncludeResource: font Helvetica
%%IncludeResource: font Helvetica-Oblique
%%IncludeResource: font Helvetica-Bold
%%IncludeResource: font Helvetica-BoldOblique
%%IncludeResource: font Courier
%%IncludeResource: font Courier-Oblique
%%IncludeResource: font Courier-Bold
%%IncludeResource: font Courier-BoldOblique
%%IncludeResource: font Symbol
%%IncludeResource: font ZapfDingbats
/reEncode {exch findfont dup length dict begin {1 index /FID eq  {pop pop} {def} ifelse } forall /Encoding exch def currentdict end dup /FontName get exch definefont pop } def [/Times-Bold /Times-Italic /Times-BoldItalic /Helvetica /Helvetica-Oblique
 /Helvetica-Bold /Helvetica-BoldOblique /Courier /Courier-Oblique /Courier-Bold /Courier-BoldOblique /Times-Roman /AvantGarde-Book /AvantGarde-BookOblique /AvantGarde-Demi /AvantGarde-DemiOblique /Bookman-Demi /Bookman-DemiItalic /Bookman-Light
 /Bookman-LightItalic /Helvetica-Narrow /Helvetica-Narrow-Bold /Helvetica-Narrow-BoldOblique /Helvetica-Narrow-Oblique /NewCenturySchlbk-Roman /NewCenturySchlbk-Bold /NewCenturySchlbk-BoldItalic /NewCenturySchlbk-Italic /Palatino-Bold
 /Palatino-BoldItalic /Palatino-Italic /Palatino-Roman ] {ISOLatin1Encoding reEncode } forall
%%EndProlog
%%BeginSetup
%%EndSetup
newpath  gsave  .25 .25 scale  gsave  0 0 t black[  ] 0 sd 3 lw 1 1 1 c 2268 2085 0 0 bf black 1 1 1 c 2263 1770 2 313 bf black 1 1 1 c black 1860 1145 319 584 bl 1 1 1 c black 1860 1145 319 584 bl 6 lw 1 1 1 c black 3 lw /w 33 def /w2 {w 2 div} def
 /w3 {w 3 div} def 412 1155 m20 6 lw 3 lw 598 1099 m20 6 lw 3 lw 784 1045 m20 6 lw 970 946 m 4 Y s 970 977 m 1 Y s 3 lw 970 964 m20 6 lw 1156 799 m 36 Y s 1156 862 m 16 Y s 3 lw 1156 849 m20 6 lw 1342 822 m 29 Y s 1342 878 m 13 Y s 3 lw 1342 865 m20
 6 lw 1528 711 m 74 Y s 1528 812 m 25 Y s 3 lw 1528 799 m20 6 lw 1714 584 m 152 Y s 1714 763 m 36 Y s 3 lw 1714 749 m20 6 lw 2086 584 m 152 Y s 2086 763 m 36 Y s 3 lw 2086 749 m20 6 lw 3 lw 319 584 m 1860 X s
 gsave  2263 1770 2 313 C 2101.62 396.596 t 0 r /Helvetica findfont 54.2494 sf 0 0 m (1/2) show NC gr 
 gsave  2263 1770 2 313 C 1874.51 355.92 t 0 r /Helvetica findfont 81.3741 sf 0 0 m ( [GeV]) show NC gr 
 gsave  2263 1770 2 313 C 1840.61 332.192 t 0 r /Helvetica findfont 54.2494 sf 0 0 m (T) show NC gr 
 gsave  2263 1770 2 313 C 1786.38 355.92 t 0 r /Helvetica findfont 81.3741 sf 0 0 m (H) show NC gr  6 lw 1749 417 m 14 -85 d s 3 lw 1763 332 m 13 105 d s 1776 437 m 99 X s
 gsave  2263 1770 2 313 C 1711.8 355.92 t 0 r /Helvetica findfont 81.3741 sf 0 0 m (/) show NC gr 
 gsave  2263 1770 2 313 C 1599.94 396.596 t 0 r /Helvetica findfont 54.2494 sf 0 0 m (miss) show NC gr 
 gsave  2263 1770 2 313 C 1599.94 332.192 t 0 r /Helvetica findfont 54.2494 sf 0 0 m (T) show NC gr 
 gsave  2263 1770 2 313 C 1549.1 355.92 t 0 r /Helvetica findfont 81.3741 sf 0 0 m (E) show NC gr  319 584 m cl s 366 584 m cl s 412 584 m cl s 459 584 m cl s 505 584 m cl s 552 584 m cl s 598 584 m cl s 645 584 m cl s 691 584 m cl s 738 584 m cl s
 784 584 m cl s 831 584 m cl s 877 584 m cl s 924 584 m cl s 970 584 m cl s 1017 584 m cl s 1063 584 m cl s 1110 584 m cl s 1156 584 m cl s 1203 584 m cl s 1249 584 m cl s 1296 584 m cl s 1342 584 m cl s 1389 584 m cl s 1435 584 m cl s 1482 584 m cl
 s 1528 584 m cl s 1575 584 m cl s 1621 584 m cl s 1668 584 m cl s 1714 584 m cl s 1761 584 m cl s 1807 584 m cl s 1854 584 m cl s 1900 584 m cl s 1947 584 m cl s 1993 584 m cl s 2040 584 m cl s 2086 584 m cl s 2133 584 m cl s 2179 584 m cl s 319
 1729 m 1860 X s 319 1729 m cl s 366 1729 m cl s 412 1729 m cl s 459 1729 m cl s 505 1729 m cl s 552 1729 m cl s 598 1729 m cl s 645 1729 m cl s 691 1729 m cl s 738 1729 m cl s 784 1729 m cl s 831 1729 m cl s 877 1729 m cl s 924 1729 m cl s 970 1729
 m cl s 1017 1729 m cl s 1063 1729 m cl s 1110 1729 m cl s 1156 1729 m cl s 1203 1729 m cl s 1249 1729 m cl s 1296 1729 m cl s 1342 1729 m cl s 1389 1729 m cl s 1435 1729 m cl s 1482 1729 m cl s 1528 1729 m cl s 1575 1729 m cl s 1621 1729 m cl s 1668
 1729 m cl s 1714 1729 m cl s 1761 1729 m cl s 1807 1729 m cl s 1854 1729 m cl s 1900 1729 m cl s 1947 1729 m cl s 1993 1729 m cl s 2040 1729 m cl s 2086 1729 m cl s 2133 1729 m cl s 2179 1729 m cl s 319 584 m 1145 Y s
 gsave  2263 1770 2 313 C 125.419 1654.18 t 90 r /Helvetica findfont 54.2494 sf 0 0 m (1/2) show NC gr 
 gsave  2263 1770 2 313 C 166.096 1064.37 t 90 r /Helvetica findfont 81.3741 sf 0 0 m (Events / 2 [GeV]) show NC gr  341 634 m -22 X s 341 663 m -22 X s 341 684 m -22 X s 341 700 m -22 X s 341 713 m -22 X s 341 724 m -22 X s 341 733 m -22 X s 341 742
 m -22 X s 363 749 m -44 X s
 gsave  2263 1770 2 313 C 300.555 722.124 t 0 r  -36 0 t /Helvetica findfont 64.4212 sf 0 0 m (1) show NC gr  341 799 m -22 X s 341 828 m -22 X s 341 849 m -22 X s 341 865 m -22 X s 341 878 m -22 X s 341 889 m -22 X s 341 898 m -22 X s 341 907 m -22
 X s 363 914 m -44 X s
 gsave  2263 1770 2 313 C 300.555 887.056 t 0 r  -73 0 t /Helvetica findfont 64.4212 sf 0 0 m (10) show NC gr  341 964 m -22 X s 341 993 m -22 X s 341 1013 m -22 X s 341 1029 m -22 X s 341 1043 m -22 X s 341 1054 m -22 X s 341 1063 m -22 X s 341 1072
 m -22 X s 363 1079 m -44 X s
 gsave  2263 1770 2 313 C 274.567 1077.93 t 0 r /Helvetica findfont 44.0776 sf 0 0 m (2) show NC gr 
 gsave  2263 1770 2 313 C 203.383 1050.81 t 0 r /Helvetica findfont 64.4212 sf 0 0 m (10) show NC gr  341 1129 m -22 X s 341 1158 m -22 X s 341 1178 m -22 X s 341 1194 m -22 X s 341 1207 m -22 X s 341 1218 m -22 X s 341 1228 m -22 X s 341 1236 m -22
 X s 363 1244 m -44 X s
 gsave  2263 1770 2 313 C 274.567 1247.41 t 0 r /Helvetica findfont 44.0776 sf 0 0 m (3) show NC gr 
 gsave  2263 1770 2 313 C 203.383 1216.91 t 0 r /Helvetica findfont 64.4212 sf 0 0 m (10) show NC gr  341 1294 m -22 X s 341 1323 m -22 X s 341 1343 m -22 X s 341 1359 m -22 X s 341 1372 m -22 X s 341 1383 m -22 X s 341 1393 m -22 X s 341 1401 m -22
 X s 363 1409 m -44 X s
 gsave  2263 1770 2 313 C 274.567 1406.73 t 0 r /Helvetica findfont 44.0776 sf 0 0 m (4) show NC gr 
 gsave  2263 1770 2 313 C 203.383 1379.61 t 0 r /Helvetica findfont 64.4212 sf 0 0 m (10) show NC gr  341 1459 m -22 X s 341 1488 m -22 X s 341 1508 m -22 X s 341 1524 m -22 X s 341 1537 m -22 X s 341 1548 m -22 X s 341 1558 m -22 X s 341 1566 m -22
 X s 363 1574 m -44 X s
 gsave  2263 1770 2 313 C 274.567 1576.22 t 0 r /Helvetica findfont 44.0776 sf 0 0 m (5) show NC gr 
 gsave  2263 1770 2 313 C 203.383 1545.71 t 0 r /Helvetica findfont 64.4212 sf 0 0 m (10) show NC gr  341 1624 m -22 X s 341 1653 m -22 X s 341 1673 m -22 X s 341 1689 m -22 X s 341 1702 m -22 X s 341 1713 m -22 X s 341 1723 m -22 X s 2179 584 m 1145
 Y s 2157 634 m 22 X s 2157 663 m 22 X s 2157 684 m 22 X s 2157 700 m 22 X s 2157 713 m 22 X s 2157 724 m 22 X s 2157 733 m 22 X s 2157 742 m 22 X s 2136 749 m 43 X s 2157 799 m 22 X s 2157 828 m 22 X s 2157 849 m 22 X s 2157 865 m 22 X s 2157 878 m
 22 X s 2157 889 m 22 X s 2157 898 m 22 X s 2157 907 m 22 X s 2136 914 m 43 X s 2157 964 m 22 X s 2157 993 m 22 X s 2157 1013 m 22 X s 2157 1029 m 22 X s 2157 1043 m 22 X s 2157 1054 m 22 X s 2157 1063 m 22 X s 2157 1072 m 22 X s 2136 1079 m 43 X s
 2157 1129 m 22 X s 2157 1158 m 22 X s 2157 1178 m 22 X s 2157 1194 m 22 X s 2157 1207 m 22 X s 2157 1218 m 22 X s 2157 1228 m 22 X s 2157 1236 m 22 X s 2136 1244 m 43 X s 2157 1294 m 22 X s 2157 1323 m 22 X s 2157 1343 m 22 X s 2157 1359 m 22 X s
 2157 1372 m 22 X s 2157 1383 m 22 X s 2157 1393 m 22 X s 2157 1401 m 22 X s 2136 1409 m 43 X s 2157 1459 m 22 X s 2157 1488 m 22 X s 2157 1508 m 22 X s 2157 1524 m 22 X s 2157 1537 m 22 X s 2157 1548 m 22 X s 2157 1558 m 22 X s 2157 1566 m 22 X s
 2136 1574 m 43 X s 2157 1624 m 22 X s 2157 1653 m 22 X s 2157 1673 m 22 X s 2157 1689 m 22 X s 2157 1702 m 22 X s 2157 1713 m 22 X s 2157 1723 m 22 X s 0.6 1 0.6 c black 0.6 1 0.6 c 319 584 m 571 Y 186 X -56 Y 186 X -61 Y 186 X -63 Y 186 X -56 Y 186
 X -76 Y 186 X -57 Y 186 X -50 Y 186 X -58 Y 186 X -29 Y 186 X -65 Y f black 0.6 1 0.6 c black 319 1155 m 186 X -56 Y 186 X -61 Y 186 X -63 Y 186 X -56 Y 186 X -76 Y 186 X -57 Y 186 X -50 Y 186 X -58 Y 186 X -29 Y 186 X s 0.999 0.999 0.999 c black
 0.999 0.999 0.999 c 319 584 m 404 Y 186 X -45 Y 186 X -41 Y 186 X -39 Y 186 X -56 Y 186 X -21 Y 186 X -69 Y 186 X -19 Y 186 X -29 Y 186 X -30 Y 186 X -55 Y f black 0.999 0.999 0.999 c black 319 988 m 186 X -45 Y 186 X -41 Y 186 X -39 Y 186 X -56 Y
 186 X -21 Y 186 X -69 Y 186 X -19 Y 186 X -29 Y 186 X -30 Y 186 X s 1 1 1 c black 319 988 m 186 X -45 Y 186 X -41 Y 186 X -39 Y 186 X -56 Y 186 X -21 Y 186 X -69 Y 186 X -19 Y 186 X -29 Y 186 X -30 Y 186 X s 0.4 0.6 1 c black 0.4 0.6 1 c 319 584 m
 404 Y 186 X -45 Y 186 X -41 Y 186 X -39 Y 186 X -56 Y 186 X -21 Y 186 X -69 Y 186 X -19 Y 186 X -29 Y 186 X -30 Y 186 X -55 Y f black 0.4 0.6 1 c black 319 988 m 186 X -45 Y 186 X -41 Y 186 X -39 Y 186 X -56 Y 186 X -21 Y 186 X -69 Y 186 X -19 Y 186
 X -29 Y 186 X -30 Y 186 X s 0.999 0.999 0.999 c black 0.999 0.999 0.999 c 319 584 m 273 Y 186 X -61 Y 186 X -27 Y 186 X -52 Y 186 X -88 Y 186 X 24 Y 186 X -69 Y 744 X f black 0.999 0.999 0.999 c black 319 857 m 186 X -61 Y 186 X -27 Y 186 X -52 Y
 186 X -88 Y 186 X 24 Y 186 X -69 Y 744 X s 1 1 1 c black 319 857 m 186 X -61 Y 186 X -27 Y 186 X -52 Y 186 X -88 Y 186 X 24 Y 186 X -69 Y 744 X s 1 0.8 0.4 c black 1 0.8 0.4 c 319 584 m 273 Y 186 X -61 Y 186 X -27 Y 186 X -52 Y 186 X -88 Y 186 X 24
 Y 186 X -69 Y 744 X f black 1 0.8 0.4 c black 319 857 m 186 X -61 Y 186 X -27 Y 186 X -52 Y 186 X -88 Y 186 X 24 Y 186 X -69 Y 744 X s 0.999 0.999 0.999 c black 0.999 0.999 0.999 c 319 584 m 269 Y 186 X -60 Y 186 X -26 Y 186 X -54 Y 186 X -95 Y 186
 X 34 Y 186 X -68 Y 744 X f black 0.999 0.999 0.999 c black 319 853 m 186 X -60 Y 186 X -26 Y 186 X -54 Y 186 X -95 Y 186 X 34 Y 186 X -68 Y 744 X s 1 1 1 c black 319 853 m 186 X -60 Y 186 X -26 Y 186 X -54 Y 186 X -95 Y 186 X 34 Y 186 X -68 Y 744 X
 s 1 0.4 0.6 c black 1 0.4 0.6 c 319 584 m 269 Y 186 X -60 Y 186 X -26 Y 186 X -54 Y 186 X -95 Y 186 X 34 Y 186 X -68 Y 744 X f black 1 0.4 0.6 c black 319 853 m 186 X -60 Y 186 X -26 Y 186 X -54 Y 186 X -95 Y 186 X 34 Y 186 X -68 Y 744 X s 1 0 0 c 6
 lw 1 1 1 c black 1 0 0 c 319 1155 m 186 X -56 Y 186 X -61 Y 186 X -63 Y 186 X -56 Y 186 X -76 Y 186 X -57 Y 186 X -50 Y 186 X -58 Y 186 X -29 Y 186 X s black 3 lw 1 0 0 c 1 lw << /PatternType 1 /PaintType 2 /TilingType 1 /BBox [ 0 0 100 100 ] /XStep
 100 /YStep 100 /PaintProc { begin gsave 0 100 m 100 0 l s gr end } >> [ 0.24 0 0 0.24 0 0 ] makepattern /P05 exch def /cs {[/Pattern /DeviceRGB] setcolorspace} def /FA {f [/DeviceRGB] setcolorspace} def cs 1 0 0 P05 setcolor 319 584 m 574 Y 186 X
 -55 Y 186 X -61 Y 186 X -63 Y 186 X -52 Y 186 X -67 Y 186 X -61 Y 186 X -49 Y 186 X -60 Y 186 X -20 Y 186 X -53 Y -186 X 46 Y -186 X 56 Y -186 X 50 Y -186 X 52 Y -186 X 90 Y -186 X 58 Y -186 X 65 Y -186 X 61 Y -186 X 56 Y -186 X -567 Y FA 6 lw 1 1 1
 c 15 lw 1156 869 m 10 Y s 1156 879 m cl s 1156 828 m -26 Y s 1156 802 m cl s 1342 885 m 7 Y s 1342 892 m cl s 1342 844 m -20 Y s 1342 824 m cl s 1528 819 m 22 Y s 1528 841 m cl s 1528 779 m -54 Y s 1528 725 m cl s 1714 770 m 39 Y s 1714 809 m cl s
 1714 729 m -105 Y s 1714 624 m cl s 2086 770 m 39 Y s 2086 809 m cl s 2086 729 m -105 Y s 2086 624 m cl s black 1 1 1 c 3 lw /w 43 def /w2 {w 2 div} def /w3 {w 3 div} def 412 1155 598 1099 784 1045 970 964 1156 849 1342 865 1528 799 1714 749 8 {
 m20} R 15 lw 3 lw 2086 749 m20 15 lw black 6 lw 1 1 1 c black 3 lw /w 33 def /w2 {w 2 div} def /w3 {w 3 div} def 412 1155 m20 6 lw 3 lw 598 1099 m20 6 lw 3 lw 784 1045 m20 6 lw 970 946 m 4 Y s 970 977 m 1 Y s 3 lw 970 964 m20 6 lw 1156 799 m 36 Y s
 1156 862 m 16 Y s 3 lw 1156 849 m20 6 lw 1342 822 m 29 Y s 1342 878 m 13 Y s 3 lw 1342 865 m20 6 lw 1528 711 m 74 Y s 1528 812 m 25 Y s 3 lw 1528 799 m20 6 lw 1714 584 m 152 Y s 1714 763 m 36 Y s 3 lw 1714 749 m20 6 lw 2086 584 m 152 Y s 2086 763 m
 36 Y s 3 lw 2086 749 m20 6 lw 970 977 m 1 Y s 970 978 m cl s 970 950 m -4 Y s 970 946 m cl s 1156 862 m 17 Y s 1156 879 m cl s 1156 835 m -33 Y s 1156 802 m cl s 1342 878 m 14 Y s 1342 892 m cl s 1342 851 m -27 Y s 1342 824 m cl s 1528 812 m 29 Y s
 1528 841 m cl s 1528 785 m -60 Y s 1528 725 m cl s 1714 763 m 46 Y s 1714 809 m cl s 1714 736 m -112 Y s 1714 624 m cl s 2086 763 m 46 Y s 2086 809 m cl s 2086 736 m -112 Y s 2086 624 m cl s 3 lw 412 1155 598 1099 784 1045 970 964 1156 849 1342 865
 1528 799 1714 749 8 { m20} R 6 lw 3 lw 2086 749 m20 6 lw 3 lw 319 584 m 1860 X s 319 584 m cl s 366 584 m cl s 412 584 m cl s 459 584 m cl s 505 584 m cl s 552 584 m cl s 598 584 m cl s 645 584 m cl s 691 584 m cl s 738 584 m cl s 784 584 m cl s 831
 584 m cl s 877 584 m cl s 924 584 m cl s 970 584 m cl s 1017 584 m cl s 1063 584 m cl s 1110 584 m cl s 1156 584 m cl s 1203 584 m cl s 1249 584 m cl s 1296 584 m cl s 1342 584 m cl s 1389 584 m cl s 1435 584 m cl s 1482 584 m cl s 1528 584 m cl s
 1575 584 m cl s 1621 584 m cl s 1668 584 m cl s 1714 584 m cl s 1761 584 m cl s 1807 584 m cl s 1854 584 m cl s 1900 584 m cl s 1947 584 m cl s 1993 584 m cl s 2040 584 m cl s 2086 584 m cl s 2133 584 m cl s 2179 584 m cl s 319 1729 m 1860 X s 319
 1729 m cl s 366 1729 m cl s 412 1729 m cl s 459 1729 m cl s 505 1729 m cl s 552 1729 m cl s 598 1729 m cl s 645 1729 m cl s 691 1729 m cl s 738 1729 m cl s 784 1729 m cl s 831 1729 m cl s 877 1729 m cl s 924 1729 m cl s 970 1729 m cl s 1017 1729 m
 cl s 1063 1729 m cl s 1110 1729 m cl s 1156 1729 m cl s 1203 1729 m cl s 1249 1729 m cl s 1296 1729 m cl s 1342 1729 m cl s 1389 1729 m cl s 1435 1729 m cl s 1482 1729 m cl s 1528 1729 m cl s 1575 1729 m cl s 1621 1729 m cl s 1668 1729 m cl s 1714
 1729 m cl s 1761 1729 m cl s 1807 1729 m cl s 1854 1729 m cl s 1900 1729 m cl s 1947 1729 m cl s 1993 1729 m cl s 2040 1729 m cl s 2086 1729 m cl s 2133 1729 m cl s 2179 1729 m cl s 319 584 m 1145 Y s 341 634 m -22 X s 341 663 m -22 X s 341 684 m
 -22 X s 341 700 m -22 X s 341 713 m -22 X s 341 724 m -22 X s 341 733 m -22 X s 341 742 m -22 X s 363 749 m -44 X s 341 799 m -22 X s 341 828 m -22 X s 341 849 m -22 X s 341 865 m -22 X s 341 878 m -22 X s 341 889 m -22 X s 341 898 m -22 X s 341 907
 m -22 X s 363 914 m -44 X s 341 964 m -22 X s 341 993 m -22 X s 341 1013 m -22 X s 341 1029 m -22 X s 341 1043 m -22 X s 341 1054 m -22 X s 341 1063 m -22 X s 341 1072 m -22 X s 363 1079 m -44 X s 341 1129 m -22 X s 341 1158 m -22 X s 341 1178 m -22
 X s 341 1194 m -22 X s 341 1207 m -22 X s 341 1218 m -22 X s 341 1228 m -22 X s 341 1236 m -22 X s 363 1244 m -44 X s 341 1294 m -22 X s 341 1323 m -22 X s 341 1343 m -22 X s 341 1359 m -22 X s 341 1372 m -22 X s 341 1383 m -22 X s 341 1393 m -22 X
 s 341 1401 m -22 X s 363 1409 m -44 X s 341 1459 m -22 X s 341 1488 m -22 X s 341 1508 m -22 X s 341 1524 m -22 X s 341 1537 m -22 X s 341 1548 m -22 X s 341 1558 m -22 X s 341 1566 m -22 X s 363 1574 m -44 X s 341 1624 m -22 X s 341 1653 m -22 X s
 341 1673 m -22 X s 341 1689 m -22 X s 341 1702 m -22 X s 341 1713 m -22 X s 341 1723 m -22 X s 2179 584 m 1145 Y s 2157 634 m 22 X s 2157 663 m 22 X s 2157 684 m 22 X s 2157 700 m 22 X s 2157 713 m 22 X s 2157 724 m 22 X s 2157 733 m 22 X s 2157 742
 m 22 X s 2136 749 m 43 X s 2157 799 m 22 X s 2157 828 m 22 X s 2157 849 m 22 X s 2157 865 m 22 X s 2157 878 m 22 X s 2157 889 m 22 X s 2157 898 m 22 X s 2157 907 m 22 X s 2136 914 m 43 X s 2157 964 m 22 X s 2157 993 m 22 X s 2157 1013 m 22 X s 2157
 1029 m 22 X s 2157 1043 m 22 X s 2157 1054 m 22 X s 2157 1063 m 22 X s 2157 1072 m 22 X s 2136 1079 m 43 X s 2157 1129 m 22 X s 2157 1158 m 22 X s 2157 1178 m 22 X s 2157 1194 m 22 X s 2157 1207 m 22 X s 2157 1218 m 22 X s 2157 1228 m 22 X s 2157
 1236 m 22 X s 2136 1244 m 43 X s 2157 1294 m 22 X s 2157 1323 m 22 X s 2157 1343 m 22 X s 2157 1359 m 22 X s 2157 1372 m 22 X s 2157 1383 m 22 X s 2157 1393 m 22 X s 2157 1401 m 22 X s 2136 1409 m 43 X s 2157 1459 m 22 X s 2157 1488 m 22 X s 2157
 1508 m 22 X s 2157 1524 m 22 X s 2157 1537 m 22 X s 2157 1548 m 22 X s 2157 1558 m 22 X s 2157 1566 m 22 X s 2136 1574 m 43 X s 2157 1624 m 22 X s 2157 1653 m 22 X s 2157 1673 m 22 X s 2157 1689 m 22 X s 2157 1702 m 22 X s 2157 1713 m 22 X s 2157
 1723 m 22 X s
 gsave  2263 1770 2 313 C 406.765 1447.41 t 0 r /Helvetica findfont 64.4212 sf 0 0 m (CRT for MB\255GGo) show NC gr 
 gsave  2263 1770 2 313 C 1464.36 1616.89 t 0 r /Helvetica findfont 64.4212 sf 0 0 m (SM Total) show NC gr  1 1 1 c 1338 1603 m 107 X 74 Y -107 X f 1 0 0 c 6 lw 1338 1640 m 107 X s black
 gsave  2263 1770 2 313 C 1464.36 1511.81 t 0 r /Helvetica findfont 64.4212 sf 0 0 m (Data) show NC gr  1391 1502 m 64 Y s 3 lw 1391 1534 m20 6 lw
 gsave  2263 1770 2 313 C 1498.25 1406.73 t 0 r /Helvetica findfont 64.4212 sf 0 0 m (\(+EW\) & single top) show NC gr 
 gsave  2263 1770 2 313 C 1481.3 1406.73 t 0 r /Helvetica findfont 64.4212 sf 0 0 m (t) show NC gr  3 lw 1481 1458 m 17 X s
 gsave  2263 1770 2 313 C 1464.36 1406.73 t 0 r /Helvetica findfont 64.4212 sf 0 0 m (t) show NC gr  0.6 1 0.6 c 1338 1391 m 107 X 74 Y -107 X f black 1338 1465 m 107 X s 1338 1391 m 107 X s 1445 1391 m 74 Y s 1338 1391 m 74 Y s
 gsave  2263 1770 2 313 C 1464.36 1298.26 t 0 r /Helvetica findfont 64.4212 sf 0 0 m (W+jets) show NC gr  0.4 0.6 1 c 1338 1284 m 107 X 75 Y -107 X f black 1338 1359 m 107 X s 1338 1284 m 107 X s 1445 1284 m 75 Y s 1338 1284 m 75 Y s
 gsave  2263 1770 2 313 C 1464.36 1193.18 t 0 r /Helvetica findfont 64.4212 sf 0 0 m (Z+jets) show NC gr  1 0.8 0.4 c 1338 1178 m 107 X 75 Y -107 X f black 1338 1253 m 107 X s 1338 1178 m 107 X s 1445 1178 m 75 Y s 1338 1178 m 75 Y s
 gsave  2263 1770 2 313 C 1464.36 1088.1 t 0 r /Helvetica findfont 64.4212 sf 0 0 m (Diboson) show NC gr  1 0.4 0.6 c 1338 1072 m 107 X 74 Y -107 X f black 1338 1146 m 107 X s 1338 1072 m 107 X s 1445 1072 m 74 Y s 1338 1072 m 74 Y s
 gsave  2263 1770 2 313 C 911.832 1566.05 t 0 r /Helvetica findfont 44.0776 sf 0 0 m (\2551) show NC gr 
 gsave  2263 1770 2 313 C 471.17 1535.54 t 0 r /Helvetica findfont 64.4212 sf 0 0 m (=13TeV, 139 fb) show NC gr 
 gsave  2263 1770 2 313 C 440.662 1535.54 t 0 r /Helvetica findfont 64.4212 sf 0 0 m (s) show NC gr  6 lw 420 1573 m 7 -41 d s 3 lw 427 1532 m 7 61 d s 434 1593 m 37 X s 1 1 1 c 2254 561 2 2 bf black 1 1 1 c black 1860 358 318 187 bl 1 1 1 c black
 1860 358 318 187 bl 6 lw 1 1 1 c black 3 lw 411 367 m20 6 lw 3 lw 597 366 m20 6 lw 3 lw 783 382 m20 6 lw 3 lw 969 344 m20 6 lw 3 lw 1155 264 m20 6 lw 3 lw 1341 423 m20 6 lw 3 lw 1527 399 m20 6 lw 3 lw 1713 398 m20 6 lw 3 lw 318 187 m 1860 X s
 gsave  2254 561 2 2 C 2105.01 64.4045 t 0 r /Helvetica findfont 50.9797 sf 0 0 m (1/2) show NC gr 
 gsave  2254 561 2 2 C 1888.07 23.728 t 0 r /Helvetica findfont 78.1689 sf 0 0 m ( [GeV]) show NC gr 
 gsave  2254 561 2 2 C 1857.56 3.38971 t 0 r /Helvetica findfont 50.9797 sf 0 0 m (T) show NC gr 
 gsave  2254 561 2 2 C 1806.72 23.728 t 0 r /Helvetica findfont 78.1689 sf 0 0 m (H) show NC gr  6 lw 1773 81 m 10 -78 d s 3 lw 1783 3 m 14 99 d s 1797 102 m 91 X s
 gsave  2254 561 2 2 C 1735.53 23.728 t 0 r /Helvetica findfont 78.1689 sf 0 0 m (/) show NC gr 
 gsave  2254 561 2 2 C 1630.45 61.0148 t 0 r /Helvetica findfont 50.9797 sf 0 0 m (miss) show NC gr 
 gsave  2254 561 2 2 C 1630.45 3.38971 t 0 r /Helvetica findfont 50.9797 sf 0 0 m (T) show NC gr 
 gsave  2254 561 2 2 C 1579.61 23.728 t 0 r /Helvetica findfont 78.1689 sf 0 0 m (E) show NC gr  318 201 m -14 Y s 364 194 m -7 Y s 411 194 m -7 Y s 457 194 m -7 Y s 504 201 m -14 Y s 550 194 m -7 Y s 597 194 m -7 Y s 643 194 m -7 Y s 690 201 m -14 Y
 s 736 194 m -7 Y s 783 194 m -7 Y s 829 194 m -7 Y s 876 201 m -14 Y s 923 194 m -7 Y s 969 194 m -7 Y s 1016 194 m -7 Y s 1062 201 m -14 Y s 1109 194 m -7 Y s 1155 194 m -7 Y s 1202 194 m -7 Y s 1248 201 m -14 Y s 1295 194 m -7 Y s 1341 194 m -7 Y
 s 1388 194 m -7 Y s 1434 201 m -14 Y s 1481 194 m -7 Y s 1527 194 m -7 Y s 1574 194 m -7 Y s 1620 201 m -14 Y s 1667 194 m -7 Y s 1713 194 m -7 Y s 1760 194 m -7 Y s 1806 201 m -14 Y s 1853 194 m -7 Y s 1899 194 m -7 Y s 1946 194 m -7 Y s 1992 201 m
 -14 Y s 2039 194 m -7 Y s 2085 194 m -7 Y s 2132 194 m -7 Y s 2178 201 m -14 Y s
 gsave  2254 561 2 2 C 271.177 118.64 t 0 r /Helvetica findfont 78.1689 sf 0 0 m (10) show NC gr 
 gsave  2254 561 2 2 C 457.611 118.64 t 0 r /Helvetica findfont 78.1689 sf 0 0 m (12) show NC gr 
 gsave  2254 561 2 2 C 644.045 118.64 t 0 r /Helvetica findfont 78.1689 sf 0 0 m (14) show NC gr 
 gsave  2254 561 2 2 C 830.479 118.64 t 0 r /Helvetica findfont 78.1689 sf 0 0 m (16) show NC gr 
 gsave  2254 561 2 2 C 1016.91 118.64 t 0 r /Helvetica findfont 78.1689 sf 0 0 m (18) show NC gr 
 gsave  2254 561 2 2 C 1203.35 118.64 t 0 r /Helvetica findfont 78.1689 sf 0 0 m (20) show NC gr 
 gsave  2254 561 2 2 C 1389.78 118.64 t 0 r /Helvetica findfont 78.1689 sf 0 0 m (22) show NC gr 
 gsave  2254 561 2 2 C 1572.83 118.64 t 0 r /Helvetica findfont 78.1689 sf 0 0 m (24) show NC gr 
 gsave  2254 561 2 2 C 1759.26 118.64 t 0 r /Helvetica findfont 78.1689 sf 0 0 m (26) show NC gr 
 gsave  2254 561 2 2 C 1945.69 118.64 t 0 r /Helvetica findfont 78.1689 sf 0 0 m (28) show NC gr 
 gsave  2254 561 2 2 C 2132.13 118.64 t 0 r /Helvetica findfont 78.1689 sf 0 0 m (30) show NC gr  318 545 m 1860 X s 318 531 m 14 Y s 364 538 m 7 Y s 411 538 m 7 Y s 457 538 m 7 Y s 504 531 m 14 Y s 550 538 m 7 Y s 597 538 m 7 Y s 643 538 m 7 Y s 690
 531 m 14 Y s 736 538 m 7 Y s 783 538 m 7 Y s 829 538 m 7 Y s 876 531 m 14 Y s 923 538 m 7 Y s 969 538 m 7 Y s 1016 538 m 7 Y s 1062 531 m 14 Y s 1109 538 m 7 Y s 1155 538 m 7 Y s 1202 538 m 7 Y s 1248 531 m 14 Y s 1295 538 m 7 Y s 1341 538 m 7 Y s
 1388 538 m 7 Y s 1434 531 m 14 Y s 1481 538 m 7 Y s 1527 538 m 7 Y s 1574 538 m 7 Y s 1620 531 m 14 Y s 1667 538 m 7 Y s 1713 538 m 7 Y s 1760 538 m 7 Y s 1806 531 m 14 Y s 1853 538 m 7 Y s 1899 538 m 7 Y s 1946 538 m 7 Y s 1992 531 m 14 Y s 2039
 538 m 7 Y s 2085 538 m 7 Y s 2132 538 m 7 Y s 2178 531 m 14 Y s 318 187 m 358 Y s
 gsave  2254 561 2 2 C 166.096 284.736 t 90 r /Helvetica findfont 67.9729 sf 0 0 m (Data/SM) show NC gr  361 203 m -43 X s 339 220 m -21 X s 339 236 m -21 X s 339 252 m -21 X s 339 268 m -21 X s 361 285 m -43 X s 339 301 m -21 X s 339 317 m -21 X s
 339 334 m -21 X s 339 350 m -21 X s 361 366 m -43 X s 339 382 m -21 X s 339 399 m -21 X s 339 415 m -21 X s 339 431 m -21 X s 361 447 m -43 X s 339 464 m -21 X s 339 480 m -21 X s 339 496 m -21 X s 339 512 m -21 X s 361 529 m -43 X s 361 203 m -43 X
 s 339 187 m -21 X s 361 529 m -43 X s
 gsave  2254 561 2 2 C 261.008 183.044 t 0 r /Helvetica findfont 57.777 sf 0 0 m (0) show NC gr 
 gsave  2254 561 2 2 C 213.552 261.008 t 0 r /Helvetica findfont 57.777 sf 0 0 m (0.5) show NC gr 
 gsave  2254 561 2 2 C 271.177 342.361 t 0 r /Helvetica findfont 57.777 sf 0 0 m (1) show NC gr 
 gsave  2254 561 2 2 C 213.552 423.714 t 0 r /Helvetica findfont 57.777 sf 0 0 m (1.5) show NC gr 
 gsave  2254 561 2 2 C 261.008 505.067 t 0 r /Helvetica findfont 57.777 sf 0 0 m (2) show NC gr  2178 187 m 358 Y s 2135 203 m 43 X s 2157 220 m 21 X s 2157 236 m 21 X s 2157 252 m 21 X s 2157 268 m 21 X s 2135 285 m 43 X s 2157 301 m 21 X s 2157 317
 m 21 X s 2157 334 m 21 X s 2157 350 m 21 X s 2135 366 m 43 X s 2157 382 m 21 X s 2157 399 m 21 X s 2157 415 m 21 X s 2157 431 m 21 X s 2135 447 m 43 X s 2157 464 m 21 X s 2157 480 m 21 X s 2157 496 m 21 X s 2157 512 m 21 X s 2135 529 m 43 X s 2135
 203 m 43 X s 2157 187 m 21 X s 2135 529 m 43 X s 9 lw 597 380 m s 597 380 m cl s 597 353 m -1 Y s 597 352 m cl s 783 396 m 9 Y s 783 405 m cl s 783 369 m -9 Y s 783 360 m cl s 969 357 m 18 Y s 969 375 m cl s 969 330 m -17 Y s 969 313 m cl s 1155 278
 m 19 Y s 1155 297 m cl s 1155 250 m -15 Y s 1155 235 m cl s 1341 437 m 90 Y s 1341 527 m cl s 1341 410 m -81 Y s 1341 329 m cl s 1527 412 m 133 Y s 1527 545 m cl s 1527 385 m -112 Y s 1527 273 m cl s 1713 412 m 133 Y s 1713 545 m cl s 1713 385 m
 -148 Y s 1713 237 m cl s 2085 545 m -226 Y s 2085 319 m cl s 3 lw 411 367 597 366 783 382 969 344 1155 264 1341 423 1527 399 1713 398 8 { m20} R 9 lw 1 0 0 c 6 lw black 3 lw 1 0 0 c 2178 312 m -4 -4 d s 2178 341 m -32 -33 d s 2178 369 m -61 -61 d s
 2178 398 m -90 -90 d s 2176 424 m -116 -116 d s 2147 424 m -116 -116 d s 2118 424 m -116 -116 d s 2089 424 m -97 -97 d s 2061 424 m -89 -88 d s 2032 424 m -88 -88 d s 2003 424 m -11 -11 d s 1976 396 m -61 -60 d s 1947 396 m -61 -60 d s 1919 396 m
 -61 -60 d s 1890 396 m -61 -60 d s 1861 396 m -66 -66 d s 1832 396 m -66 -66 d s 1806 399 m -68 -69 d s 1780 402 m -71 -72 d s 1752 402 m -72 -72 d s 1723 402 m -72 -72 d s 1694 402 m -71 -72 d s 1666 402 m -70 -70 d s 1637 402 m -70 -70 d s 1606
 400 m -68 -68 d s 1578 400 m -68 -68 d s 1549 400 m -68 -68 d s 1520 400 m -68 -68 d s 1492 400 m -78 -78 d s 1463 400 m -78 -78 d s 1434 400 m -77 -78 d s 1415 410 m -87 -88 d s 1387 410 m -88 -88 d s 1358 410 m -87 -88 d s 1329 410 m -81 -81 d s
 1301 410 m -62 -62 d s 1272 410 m -24 -24 d s 1246 384 m -36 -36 d s 1218 384 m -37 -36 d s 1189 384 m -36 -36 d s 1160 384 m -36 -36 d s 1132 384 m -37 -36 d s 1103 384 m -37 -36 d s 1074 384 m -29 -29 d s 1038 377 m -22 -22 d s 1010 377 m -22 -22
 d s 981 377 m -22 -22 d s 952 377 m -22 -22 d s 924 377 m -23 -22 d s 895 377 m -21 -21 d s 865 376 m -20 -20 d s 836 376 m -19 -20 d s 808 376 m -20 -20 d s 779 376 m -20 -20 d s 750 376 m -19 -20 d s 722 376 m -20 -20 d s 693 376 m -19 -19 d s 663
 375 m -18 -18 d s 635 375 m -18 -18 d s 606 375 m -18 -18 d s 577 375 m -18 -18 d s 548 375 m -17 -18 d s 520 375 m -18 -17 d s 491 374 m -17 -16 d s 462 374 m -17 -16 d s 318 231 m s 433 374 m -17 -16 d s 318 259 m s 405 374 m -17 -16 d s 318 288 m
 s 376 374 m -17 -16 d s 318 317 m s 347 374 m -17 -16 d s 318 345 m s 318 374 m s 6 lw black[ 4 8] 0 sd 3 lw 318 447 m 1860 X s 318 285 m 1860 X s 1 0 0 c[  12 12 ] 0 sd 6 lw 318 366 m 1860 X s
 gr  gr showpage
end
%%EOF
