%!PS-Adobe-2.0 EPSF-2.0
%%BoundingBox:  0 0 567 521
%%Title: Distributions/metsqrtmeffInc_met_distrCRW_MB-C_afterFit_forThesis.eps: canvas
%%Creator: ROOT Version 6.04/16
%%CreationDate: Tue May 19 22:05:51 2020
%%DocumentNeededResources: ProcSet (FontSetInit)
%%EndComments
%%BeginProlog
80 dict begin
/s {stroke} def /l {lineto} def /m {moveto} def /t {translate} def
/r {rotate} def /rl {roll}  def /R {repeat} def
/d {rlineto} def /rm {rmoveto} def /gr {grestore} def /f {eofill} def
/c {setrgbcolor} def /black {0 setgray} def /sd {setdash} def
/cl {closepath} def /sf {scalefont setfont} def /lw {setlinewidth} def
/box {m dup 0 exch d exch 0 d 0 exch neg d cl} def
/NC{systemdict begin initclip end}def/C{NC box clip newpath}def
/bl {box s} def /bf {gsave box gsave f grestore 1 lw [] 0 sd s grestore} def /Y { 0 exch d} def /X { 0 d} def 
/K {{pop pop 0 moveto} exch kshow} bind def
/ita {/ang 15 def gsave [1 0 ang dup sin exch cos div 1 0 0] concat} def 
/mp {newpath /y exch def /x exch def} def
/side {[w .77 mul w .23 mul] .385 w mul sd w 0 l currentpoint t -144 r} def
/mr {mp x y w2 0 360 arc} def /m24 {mr s} def /m20 {mr f} def
/mb {mp x y w2 add m w2 neg 0 d 0 w neg d w 0 d 0 w d cl} def
/mt {mp x y w2 add m w2 neg w neg d w 0 d cl} def
/m21 {mb f} def /m25 {mb s} def /m22 {mt f} def /m26{mt s} def
/m23 {mp x y w2 sub m w2 w d w neg 0 d cl f} def
/m27 {mp x y w2 add m w3 neg w2 neg d w3 w2 neg d w3 w2 d cl s} def
/m28 {mp x w2 sub y w2 sub w3 add m w3 0 d  0 w3 neg d w3 0 d 0 w3 d w3 0 d  0 w3 d w3 neg 0 d 0 w3 d w3 neg 0 d 0 w3 neg d w3 neg 0 d cl s } def
/m29 {mp gsave x w2 sub y w2 add w3 sub m currentpoint t 4 {side} repeat cl fill gr} def
/m30 {mp gsave x w2 sub y w2 add w3 sub m currentpoint t 4 {side} repeat cl s gr} def
/m31 {mp x y w2 sub m 0 w d x w2 sub y m w 0 d x w2 sub y w2 add m w w neg d x w2 sub y w2 sub m w w d s} def
/m32 {mp x y w2 sub m w2 w d w neg 0 d cl s} def
/m33 {mp x y w2 add m w3 neg w2 neg d w3 w2 neg d w3 w2 d cl f} def
/m34 {mp x w2 sub y w2 sub w3 add m w3 0 d  0 w3 neg d w3 0 d 0 w3 d w3 0 d  0 w3 d w3 neg 0 d 0 w3 d w3 neg 0 d 0 w3 neg d w3 neg 0 d cl f } def
/m2 {mp x y w2 sub m 0 w d x w2 sub y m w 0 d s} def
/m5 {mp x w2 sub y w2 sub m w w d x w2 sub y w2 add m w w neg d s} def
%%IncludeResource: ProcSet (FontSetInit)
%%IncludeResource: font Times-Roman
%%IncludeResource: font Times-Italic
%%IncludeResource: font Times-Bold
%%IncludeResource: font Times-BoldItalic
%%IncludeResource: font Helvetica
%%IncludeResource: font Helvetica-Oblique
%%IncludeResource: font Helvetica-Bold
%%IncludeResource: font Helvetica-BoldOblique
%%IncludeResource: font Courier
%%IncludeResource: font Courier-Oblique
%%IncludeResource: font Courier-Bold
%%IncludeResource: font Courier-BoldOblique
%%IncludeResource: font Symbol
%%IncludeResource: font ZapfDingbats
/reEncode {exch findfont dup length dict begin {1 index /FID eq  {pop pop} {def} ifelse } forall /Encoding exch def currentdict end dup /FontName get exch definefont pop } def [/Times-Bold /Times-Italic /Times-BoldItalic /Helvetica /Helvetica-Oblique
 /Helvetica-Bold /Helvetica-BoldOblique /Courier /Courier-Oblique /Courier-Bold /Courier-BoldOblique /Times-Roman /AvantGarde-Book /AvantGarde-BookOblique /AvantGarde-Demi /AvantGarde-DemiOblique /Bookman-Demi /Bookman-DemiItalic /Bookman-Light
 /Bookman-LightItalic /Helvetica-Narrow /Helvetica-Narrow-Bold /Helvetica-Narrow-BoldOblique /Helvetica-Narrow-Oblique /NewCenturySchlbk-Roman /NewCenturySchlbk-Bold /NewCenturySchlbk-BoldItalic /NewCenturySchlbk-Italic /Palatino-Bold
 /Palatino-BoldItalic /Palatino-Italic /Palatino-Roman ] {ISOLatin1Encoding reEncode } forall
%%EndProlog
%%BeginSetup
%%EndSetup
newpath  gsave  .25 .25 scale  gsave  0 0 t black[  ] 0 sd 3 lw 1 1 1 c 2268 2085 0 0 bf black 1 1 1 c 2263 1770 2 313 bf black 1 1 1 c black 1860 1145 319 584 bl 1 1 1 c black 1860 1145 319 584 bl 6 lw 1 1 1 c black 3 lw /w 33 def /w2 {w 2 div} def
 /w3 {w 3 div} def 374 1164 m20 6 lw 3 lw 483 1061 m20 6 lw 3 lw 593 1055 m20 6 lw 3 lw 702 1053 m20 6 lw 3 lw 812 1024 m20 6 lw 3 lw 921 1012 m20 6 lw 3 lw 1030 991 m20 6 lw 3 lw 1140 928 m20 6 lw 3 lw 1249 898 m20 6 lw 1359 846 m 3 Y s 3 lw 1359
 863 m20 6 lw 1468 832 m 5 Y s 1468 864 m 1 Y s 3 lw 1468 851 m20 6 lw 2125 584 m 115 Y s 2125 726 m 25 Y s 3 lw 2125 712 m20 6 lw 3 lw 319 584 m 1860 X s
 gsave  2263 1770 2 313 C 2101.62 396.596 t 0 r /Helvetica findfont 54.2494 sf 0 0 m (1/2) show NC gr 
 gsave  2263 1770 2 313 C 1874.51 355.92 t 0 r /Helvetica findfont 81.3741 sf 0 0 m ( [GeV]) show NC gr 
 gsave  2263 1770 2 313 C 1840.61 332.192 t 0 r /Helvetica findfont 54.2494 sf 0 0 m (T) show NC gr 
 gsave  2263 1770 2 313 C 1786.38 355.92 t 0 r /Helvetica findfont 81.3741 sf 0 0 m (H) show NC gr  6 lw 1749 417 m 14 -85 d s 3 lw 1763 332 m 13 105 d s 1776 437 m 99 X s
 gsave  2263 1770 2 313 C 1711.8 355.92 t 0 r /Helvetica findfont 81.3741 sf 0 0 m (/) show NC gr 
 gsave  2263 1770 2 313 C 1599.94 396.596 t 0 r /Helvetica findfont 54.2494 sf 0 0 m (miss) show NC gr 
 gsave  2263 1770 2 313 C 1599.94 332.192 t 0 r /Helvetica findfont 54.2494 sf 0 0 m (T) show NC gr 
 gsave  2263 1770 2 313 C 1549.1 355.92 t 0 r /Helvetica findfont 81.3741 sf 0 0 m (E) show NC gr  538 584 m cl s 593 584 m cl s 647 584 m cl s 702 584 m cl s 757 584 m cl s 812 584 m cl s 866 584 m cl s 921 584 m cl s 976 584 m cl s 1030 584 m cl s
 1085 584 m cl s 1140 584 m cl s 1195 584 m cl s 1249 584 m cl s 1304 584 m cl s 1359 584 m cl s 1413 584 m cl s 1468 584 m cl s 1523 584 m cl s 1578 584 m cl s 1632 584 m cl s 1687 584 m cl s 1742 584 m cl s 1796 584 m cl s 1851 584 m cl s 1906 584
 m cl s 1961 584 m cl s 2015 584 m cl s 2070 584 m cl s 2125 584 m cl s 2179 584 m cl s 538 584 m cl s 483 584 m cl s 429 584 m cl s 374 584 m cl s 319 1729 m 1860 X s 538 1729 m cl s 593 1729 m cl s 647 1729 m cl s 702 1729 m cl s 757 1729 m cl s
 812 1729 m cl s 866 1729 m cl s 921 1729 m cl s 976 1729 m cl s 1030 1729 m cl s 1085 1729 m cl s 1140 1729 m cl s 1195 1729 m cl s 1249 1729 m cl s 1304 1729 m cl s 1359 1729 m cl s 1413 1729 m cl s 1468 1729 m cl s 1523 1729 m cl s 1578 1729 m cl
 s 1632 1729 m cl s 1687 1729 m cl s 1742 1729 m cl s 1796 1729 m cl s 1851 1729 m cl s 1906 1729 m cl s 1961 1729 m cl s 2015 1729 m cl s 2070 1729 m cl s 2125 1729 m cl s 2179 1729 m cl s 538 1729 m cl s 483 1729 m cl s 429 1729 m cl s 374 1729 m
 cl s 319 584 m 1145 Y s
 gsave  2263 1770 2 313 C 125.419 1654.18 t 90 r /Helvetica findfont 54.2494 sf 0 0 m (1/2) show NC gr 
 gsave  2263 1770 2 313 C 166.096 1064.37 t 90 r /Helvetica findfont 81.3741 sf 0 0 m (Events / 2 [GeV]) show NC gr  341 623 m -22 X s 341 645 m -22 X s 341 661 m -22 X s 341 674 m -22 X s 341 684 m -22 X s 341 693 m -22 X s 341 700 m -22 X s 341 707
 m -22 X s 363 712 m -44 X s
 gsave  2263 1770 2 313 C 300.555 685.276 t 0 r  -36 0 t /Helvetica findfont 64.4212 sf 0 0 m (1) show NC gr  341 751 m -22 X s 341 774 m -22 X s 341 790 m -22 X s 341 802 m -22 X s 341 812 m -22 X s 341 821 m -22 X s 341 828 m -22 X s 341 835 m -22
 X s 363 840 m -44 X s
 gsave  2263 1770 2 313 C 300.555 813.361 t 0 r  -73 0 t /Helvetica findfont 64.4212 sf 0 0 m (10) show NC gr  341 879 m -22 X s 341 902 m -22 X s 341 918 m -22 X s 341 930 m -22 X s 341 940 m -22 X s 341 949 m -22 X s 341 956 m -22 X s 341 963 m -22
 X s 363 969 m -44 X s
 gsave  2263 1770 2 313 C 274.567 966.068 t 0 r /Helvetica findfont 44.0776 sf 0 0 m (2) show NC gr 
 gsave  2263 1770 2 313 C 203.383 938.95 t 0 r /Helvetica findfont 64.4212 sf 0 0 m (10) show NC gr  341 1007 m -22 X s 341 1030 m -22 X s 341 1046 m -22 X s 341 1058 m -22 X s 341 1068 m -22 X s 341 1077 m -22 X s 341 1084 m -22 X s 341 1091 m -22 X
 s 363 1097 m -44 X s
 gsave  2263 1770 2 313 C 274.567 1098.27 t 0 r /Helvetica findfont 44.0776 sf 0 0 m (3) show NC gr 
 gsave  2263 1770 2 313 C 203.383 1067.76 t 0 r /Helvetica findfont 64.4212 sf 0 0 m (10) show NC gr  341 1135 m -22 X s 341 1158 m -22 X s 341 1174 m -22 X s 341 1186 m -22 X s 341 1196 m -22 X s 341 1205 m -22 X s 341 1212 m -22 X s 341 1219 m -22
 X s 363 1225 m -44 X s
 gsave  2263 1770 2 313 C 274.567 1223.69 t 0 r /Helvetica findfont 44.0776 sf 0 0 m (4) show NC gr 
 gsave  2263 1770 2 313 C 203.383 1196.57 t 0 r /Helvetica findfont 64.4212 sf 0 0 m (10) show NC gr  341 1263 m -22 X s 341 1286 m -22 X s 341 1302 m -22 X s 341 1314 m -22 X s 341 1324 m -22 X s 341 1333 m -22 X s 341 1340 m -22 X s 341 1347 m -22
 X s 363 1353 m -44 X s
 gsave  2263 1770 2 313 C 274.567 1355.88 t 0 r /Helvetica findfont 44.0776 sf 0 0 m (5) show NC gr 
 gsave  2263 1770 2 313 C 203.383 1325.38 t 0 r /Helvetica findfont 64.4212 sf 0 0 m (10) show NC gr  341 1391 m -22 X s 341 1414 m -22 X s 341 1430 m -22 X s 341 1442 m -22 X s 341 1452 m -22 X s 341 1461 m -22 X s 341 1468 m -22 X s 341 1475 m -22
 X s 363 1481 m -44 X s
 gsave  2263 1770 2 313 C 274.567 1481.3 t 0 r /Helvetica findfont 44.0776 sf 0 0 m (6) show NC gr 
 gsave  2263 1770 2 313 C 203.383 1450.8 t 0 r /Helvetica findfont 64.4212 sf 0 0 m (10) show NC gr  341 1519 m -22 X s 341 1542 m -22 X s 341 1558 m -22 X s 341 1570 m -22 X s 341 1581 m -22 X s 341 1589 m -22 X s 341 1597 m -22 X s 341 1603 m -22 X
 s 363 1609 m -44 X s
 gsave  2263 1770 2 313 C 274.567 1606.72 t 0 r /Helvetica findfont 44.0776 sf 0 0 m (7) show NC gr 
 gsave  2263 1770 2 313 C 203.383 1579.61 t 0 r /Helvetica findfont 64.4212 sf 0 0 m (10) show NC gr  341 1648 m -22 X s 341 1670 m -22 X s 341 1686 m -22 X s 341 1699 m -22 X s 341 1709 m -22 X s 341 1717 m -22 X s 341 1725 m -22 X s 2179 584 m 1145
 Y s 2157 623 m 22 X s 2157 645 m 22 X s 2157 661 m 22 X s 2157 674 m 22 X s 2157 684 m 22 X s 2157 693 m 22 X s 2157 700 m 22 X s 2157 707 m 22 X s 2136 712 m 43 X s 2157 751 m 22 X s 2157 774 m 22 X s 2157 790 m 22 X s 2157 802 m 22 X s 2157 812 m
 22 X s 2157 821 m 22 X s 2157 828 m 22 X s 2157 835 m 22 X s 2136 840 m 43 X s 2157 879 m 22 X s 2157 902 m 22 X s 2157 918 m 22 X s 2157 930 m 22 X s 2157 940 m 22 X s 2157 949 m 22 X s 2157 956 m 22 X s 2157 963 m 22 X s 2136 969 m 43 X s 2157
 1007 m 22 X s 2157 1030 m 22 X s 2157 1046 m 22 X s 2157 1058 m 22 X s 2157 1068 m 22 X s 2157 1077 m 22 X s 2157 1084 m 22 X s 2157 1091 m 22 X s 2136 1097 m 43 X s 2157 1135 m 22 X s 2157 1158 m 22 X s 2157 1174 m 22 X s 2157 1186 m 22 X s 2157
 1196 m 22 X s 2157 1205 m 22 X s 2157 1212 m 22 X s 2157 1219 m 22 X s 2136 1225 m 43 X s 2157 1263 m 22 X s 2157 1286 m 22 X s 2157 1302 m 22 X s 2157 1314 m 22 X s 2157 1324 m 22 X s 2157 1333 m 22 X s 2157 1340 m 22 X s 2157 1347 m 22 X s 2136
 1353 m 43 X s 2157 1391 m 22 X s 2157 1414 m 22 X s 2157 1430 m 22 X s 2157 1442 m 22 X s 2157 1452 m 22 X s 2157 1461 m 22 X s 2157 1468 m 22 X s 2157 1475 m 22 X s 2136 1481 m 43 X s 2157 1519 m 22 X s 2157 1542 m 22 X s 2157 1558 m 22 X s 2157
 1570 m 22 X s 2157 1581 m 22 X s 2157 1589 m 22 X s 2157 1597 m 22 X s 2157 1603 m 22 X s 2136 1609 m 43 X s 2157 1648 m 22 X s 2157 1670 m 22 X s 2157 1686 m 22 X s 2157 1699 m 22 X s 2157 1709 m 22 X s 2157 1717 m 22 X s 2157 1725 m 22 X s 0.4 0.6
 1 c black 0.4 0.6 1 c 319 584 m 581 Y 110 X -104 Y 109 X -16 Y 109 X 1 Y 110 X -6 Y 109 X -27 Y 110 X -33 Y 109 X -39 Y 110 X -50 Y 109 X -42 Y 109 X -50 Y 110 X -70 Y 109 X -28 Y 110 X -72 Y 109 X -45 Y 328 X f black 0.4 0.6 1 c black 319 1165 m
 110 X -104 Y 109 X -16 Y 109 X 1 Y 110 X -6 Y 109 X -27 Y 110 X -33 Y 109 X -39 Y 110 X -50 Y 109 X -42 Y 109 X -50 Y 110 X -70 Y 109 X -28 Y 110 X -72 Y 109 X -45 Y 328 X s 0.999 0.999 0.999 c black 0.999 0.999 0.999 c 319 584 m 475 Y 110 X -118 Y
 109 X -9 Y 109 X -17 Y 110 X -9 Y 109 X -25 Y 110 X -32 Y 109 X -40 Y 110 X -34 Y 109 X -136 Y 109 X -20 Y 110 X -12 Y 109 X -23 Y 547 X f black 0.999 0.999 0.999 c black 319 1059 m 110 X -118 Y 109 X -9 Y 109 X -17 Y 110 X -9 Y 109 X -25 Y 110 X
 -32 Y 109 X -40 Y 110 X -34 Y 109 X -136 Y 109 X -20 Y 110 X -12 Y 109 X -23 Y 547 X s 1 1 1 c black 319 1059 m 110 X -118 Y 109 X -9 Y 109 X -17 Y 110 X -9 Y 109 X -25 Y 110 X -32 Y 109 X -40 Y 110 X -34 Y 109 X -136 Y 109 X -20 Y 110 X -12 Y 109 X
 -23 Y 547 X s 0.6 1 0.6 c black 0.6 1 0.6 c 319 584 m 475 Y 110 X -118 Y 109 X -9 Y 109 X -17 Y 110 X -9 Y 109 X -25 Y 110 X -32 Y 109 X -40 Y 110 X -34 Y 109 X -136 Y 109 X -20 Y 110 X -12 Y 109 X -23 Y 547 X f black 0.6 1 0.6 c black 319 1059 m
 110 X -118 Y 109 X -9 Y 109 X -17 Y 110 X -9 Y 109 X -25 Y 110 X -32 Y 109 X -40 Y 110 X -34 Y 109 X -136 Y 109 X -20 Y 110 X -12 Y 109 X -23 Y 547 X s 0.999 0.999 0.999 c black 0.999 0.999 0.999 c 319 584 m 433 Y 110 X -108 Y 109 X -1 Y 109 X -12 Y
 110 X -6 Y 109 X -22 Y 110 X -33 Y 109 X -30 Y 110 X -42 Y 109 X -128 Y 109 X -51 Y 110 X 23 Y 109 X -23 Y 547 X f black 0.999 0.999 0.999 c black 319 1017 m 110 X -108 Y 109 X -1 Y 109 X -12 Y 110 X -6 Y 109 X -22 Y 110 X -33 Y 109 X -30 Y 110 X
 -42 Y 109 X -128 Y 109 X -51 Y 110 X 23 Y 109 X -23 Y 547 X s 1 1 1 c black 319 1017 m 110 X -108 Y 109 X -1 Y 109 X -12 Y 110 X -6 Y 109 X -22 Y 110 X -33 Y 109 X -30 Y 110 X -42 Y 109 X -128 Y 109 X -51 Y 110 X 23 Y 109 X -23 Y 547 X s 1 0.8 0.4 c
 black 1 0.8 0.4 c 319 584 m 433 Y 110 X -108 Y 109 X -1 Y 109 X -12 Y 110 X -6 Y 109 X -22 Y 110 X -33 Y 109 X -30 Y 110 X -42 Y 109 X -128 Y 109 X -51 Y 110 X 23 Y 109 X -23 Y 547 X f black 1 0.8 0.4 c black 319 1017 m 110 X -108 Y 109 X -1 Y 109 X
 -12 Y 110 X -6 Y 109 X -22 Y 110 X -33 Y 109 X -30 Y 110 X -42 Y 109 X -128 Y 109 X -51 Y 110 X 23 Y 109 X -23 Y 547 X s 0.999 0.999 0.999 c black 0.999 0.999 0.999 c 319 584 m 426 Y 110 X -107 Y 109 X 1 Y 109 X -13 Y 110 X -5 Y 109 X -20 Y 110 X
 -36 Y 109 X -30 Y 110 X -40 Y 109 X -143 Y 109 X -33 Y 110 X 23 Y 109 X -23 Y 547 X f black 0.999 0.999 0.999 c black 319 1010 m 110 X -107 Y 109 X 1 Y 109 X -13 Y 110 X -5 Y 109 X -20 Y 110 X -36 Y 109 X -30 Y 110 X -40 Y 109 X -143 Y 109 X -33 Y
 110 X 23 Y 109 X -23 Y 547 X s 1 1 1 c black 319 1010 m 110 X -107 Y 109 X 1 Y 109 X -13 Y 110 X -5 Y 109 X -20 Y 110 X -36 Y 109 X -30 Y 110 X -40 Y 109 X -143 Y 109 X -33 Y 110 X 23 Y 109 X -23 Y 547 X s 1 0.4 0.6 c black 1 0.4 0.6 c 319 584 m 426
 Y 110 X -107 Y 109 X 1 Y 109 X -13 Y 110 X -5 Y 109 X -20 Y 110 X -36 Y 109 X -30 Y 110 X -40 Y 109 X -143 Y 109 X -33 Y 110 X 23 Y 109 X -23 Y 547 X f black 1 0.4 0.6 c black 319 1010 m 110 X -107 Y 109 X 1 Y 109 X -13 Y 110 X -5 Y 109 X -20 Y 110
 X -36 Y 109 X -30 Y 110 X -40 Y 109 X -143 Y 109 X -33 Y 110 X 23 Y 109 X -23 Y 547 X s 1 0 0 c 6 lw 1 1 1 c black 1 0 0 c 319 1165 m 110 X -104 Y 109 X -16 Y 109 X 1 Y 110 X -6 Y 109 X -27 Y 110 X -33 Y 109 X -39 Y 110 X -50 Y 109 X -42 Y 109 X -50
 Y 110 X -70 Y 109 X -28 Y 110 X -72 Y 109 X -45 Y 328 X s black 3 lw 1 0 0 c 1 lw << /PatternType 1 /PaintType 2 /TilingType 1 /BBox [ 0 0 100 100 ] /XStep 100 /YStep 100 /PaintProc { begin gsave 0 100 m 100 0 l s gr end } >> [ 0.24 0 0 0.24 0 0 ]
 makepattern /P05 exch def /cs {[/Pattern /DeviceRGB] setcolorspace} def /FA {f [/DeviceRGB] setcolorspace} def cs 1 0 0 P05 setcolor 319 584 m 582 Y 110 X -104 Y 109 X -13 Y 109 X -1 Y 110 X -4 Y 109 X -28 Y 110 X -33 Y 109 X -39 Y 110 X -48 Y 109 X
 -43 Y 109 X -46 Y 110 X -63 Y 109 X -33 Y 110 X -58 Y 109 X -56 Y 110 X -13 Y -110 X 1 Y -109 X 105 Y -110 X 17 Y -109 X 82 Y -110 X 57 Y -109 X 40 Y -109 X 51 Y -110 X 40 Y -109 X 34 Y -110 X 26 Y -109 X 8 Y -110 X -4 Y -109 X 19 Y -109 X 104 Y
 -110 X -580 Y FA 6 lw 1 1 1 c 15 lw 2125 733 m 25 Y s 2125 758 m cl s 2125 692 m -77 Y s 2125 615 m cl s black 1 1 1 c 3 lw /w 43 def /w2 {w 2 div} def /w3 {w 3 div} def 374 1164 483 1061 593 1055 702 1053 812 1024 921 1012 1030 991 1140 928 1249
 898 1359 863 1468 851 11 { m20} R 15 lw 3 lw 2125 712 m20 15 lw black 6 lw 1 1 1 c black 3 lw /w 33 def /w2 {w 2 div} def /w3 {w 3 div} def 374 1164 m20 6 lw 3 lw 483 1061 m20 6 lw 3 lw 593 1055 m20 6 lw 3 lw 702 1053 m20 6 lw 3 lw 812 1024 m20 6 lw
 3 lw 921 1012 m20 6 lw 3 lw 1030 991 m20 6 lw 3 lw 1140 928 m20 6 lw 3 lw 1249 898 m20 6 lw 1359 846 m 3 Y s 3 lw 1359 863 m20 6 lw 1468 832 m 5 Y s 1468 864 m 1 Y s 3 lw 1468 851 m20 6 lw 2125 584 m 115 Y s 2125 726 m 25 Y s 3 lw 2125 712 m20 6 lw
 1359 849 m -2 Y s 1359 847 m cl s 1468 864 m 1 Y s 1468 865 m cl s 1468 837 m -5 Y s 1468 832 m cl s 2125 726 m 32 Y s 2125 758 m cl s 2125 699 m -84 Y s 2125 615 m cl s 3 lw 374 1164 483 1061 593 1055 702 1053 812 1024 921 1012 1030 991 1140 928
 1249 898 1359 863 1468 851 11 { m20} R 6 lw 3 lw 2125 712 m20 6 lw 3 lw 319 584 m 1860 X s 538 584 m cl s 593 584 m cl s 647 584 m cl s 702 584 m cl s 757 584 m cl s 812 584 m cl s 866 584 m cl s 921 584 m cl s 976 584 m cl s 1030 584 m cl s 1085
 584 m cl s 1140 584 m cl s 1195 584 m cl s 1249 584 m cl s 1304 584 m cl s 1359 584 m cl s 1413 584 m cl s 1468 584 m cl s 1523 584 m cl s 1578 584 m cl s 1632 584 m cl s 1687 584 m cl s 1742 584 m cl s 1796 584 m cl s 1851 584 m cl s 1906 584 m cl
 s 1961 584 m cl s 2015 584 m cl s 2070 584 m cl s 2125 584 m cl s 2179 584 m cl s 538 584 m cl s 483 584 m cl s 429 584 m cl s 374 584 m cl s 319 1729 m 1860 X s 538 1729 m cl s 593 1729 m cl s 647 1729 m cl s 702 1729 m cl s 757 1729 m cl s 812
 1729 m cl s 866 1729 m cl s 921 1729 m cl s 976 1729 m cl s 1030 1729 m cl s 1085 1729 m cl s 1140 1729 m cl s 1195 1729 m cl s 1249 1729 m cl s 1304 1729 m cl s 1359 1729 m cl s 1413 1729 m cl s 1468 1729 m cl s 1523 1729 m cl s 1578 1729 m cl s
 1632 1729 m cl s 1687 1729 m cl s 1742 1729 m cl s 1796 1729 m cl s 1851 1729 m cl s 1906 1729 m cl s 1961 1729 m cl s 2015 1729 m cl s 2070 1729 m cl s 2125 1729 m cl s 2179 1729 m cl s 538 1729 m cl s 483 1729 m cl s 429 1729 m cl s 374 1729 m cl
 s 319 584 m 1145 Y s 341 623 m -22 X s 341 645 m -22 X s 341 661 m -22 X s 341 674 m -22 X s 341 684 m -22 X s 341 693 m -22 X s 341 700 m -22 X s 341 707 m -22 X s 363 712 m -44 X s 341 751 m -22 X s 341 774 m -22 X s 341 790 m -22 X s 341 802 m
 -22 X s 341 812 m -22 X s 341 821 m -22 X s 341 828 m -22 X s 341 835 m -22 X s 363 840 m -44 X s 341 879 m -22 X s 341 902 m -22 X s 341 918 m -22 X s 341 930 m -22 X s 341 940 m -22 X s 341 949 m -22 X s 341 956 m -22 X s 341 963 m -22 X s 363 969
 m -44 X s 341 1007 m -22 X s 341 1030 m -22 X s 341 1046 m -22 X s 341 1058 m -22 X s 341 1068 m -22 X s 341 1077 m -22 X s 341 1084 m -22 X s 341 1091 m -22 X s 363 1097 m -44 X s 341 1135 m -22 X s 341 1158 m -22 X s 341 1174 m -22 X s 341 1186 m
 -22 X s 341 1196 m -22 X s 341 1205 m -22 X s 341 1212 m -22 X s 341 1219 m -22 X s 363 1225 m -44 X s 341 1263 m -22 X s 341 1286 m -22 X s 341 1302 m -22 X s 341 1314 m -22 X s 341 1324 m -22 X s 341 1333 m -22 X s 341 1340 m -22 X s 341 1347 m
 -22 X s 363 1353 m -44 X s 341 1391 m -22 X s 341 1414 m -22 X s 341 1430 m -22 X s 341 1442 m -22 X s 341 1452 m -22 X s 341 1461 m -22 X s 341 1468 m -22 X s 341 1475 m -22 X s 363 1481 m -44 X s 341 1519 m -22 X s 341 1542 m -22 X s 341 1558 m
 -22 X s 341 1570 m -22 X s 341 1581 m -22 X s 341 1589 m -22 X s 341 1597 m -22 X s 341 1603 m -22 X s 363 1609 m -44 X s 341 1648 m -22 X s 341 1670 m -22 X s 341 1686 m -22 X s 341 1699 m -22 X s 341 1709 m -22 X s 341 1717 m -22 X s 341 1725 m
 -22 X s 2179 584 m 1145 Y s 2157 623 m 22 X s 2157 645 m 22 X s 2157 661 m 22 X s 2157 674 m 22 X s 2157 684 m 22 X s 2157 693 m 22 X s 2157 700 m 22 X s 2157 707 m 22 X s 2136 712 m 43 X s 2157 751 m 22 X s 2157 774 m 22 X s 2157 790 m 22 X s 2157
 802 m 22 X s 2157 812 m 22 X s 2157 821 m 22 X s 2157 828 m 22 X s 2157 835 m 22 X s 2136 840 m 43 X s 2157 879 m 22 X s 2157 902 m 22 X s 2157 918 m 22 X s 2157 930 m 22 X s 2157 940 m 22 X s 2157 949 m 22 X s 2157 956 m 22 X s 2157 963 m 22 X s
 2136 969 m 43 X s 2157 1007 m 22 X s 2157 1030 m 22 X s 2157 1046 m 22 X s 2157 1058 m 22 X s 2157 1068 m 22 X s 2157 1077 m 22 X s 2157 1084 m 22 X s 2157 1091 m 22 X s 2136 1097 m 43 X s 2157 1135 m 22 X s 2157 1158 m 22 X s 2157 1174 m 22 X s
 2157 1186 m 22 X s 2157 1196 m 22 X s 2157 1205 m 22 X s 2157 1212 m 22 X s 2157 1219 m 22 X s 2136 1225 m 43 X s 2157 1263 m 22 X s 2157 1286 m 22 X s 2157 1302 m 22 X s 2157 1314 m 22 X s 2157 1324 m 22 X s 2157 1333 m 22 X s 2157 1340 m 22 X s
 2157 1347 m 22 X s 2136 1353 m 43 X s 2157 1391 m 22 X s 2157 1414 m 22 X s 2157 1430 m 22 X s 2157 1442 m 22 X s 2157 1452 m 22 X s 2157 1461 m 22 X s 2157 1468 m 22 X s 2157 1475 m 22 X s 2136 1481 m 43 X s 2157 1519 m 22 X s 2157 1542 m 22 X s
 2157 1558 m 22 X s 2157 1570 m 22 X s 2157 1581 m 22 X s 2157 1589 m 22 X s 2157 1597 m 22 X s 2157 1603 m 22 X s 2136 1609 m 43 X s 2157 1648 m 22 X s 2157 1670 m 22 X s 2157 1686 m 22 X s 2157 1699 m 22 X s 2157 1709 m 22 X s 2157 1717 m 22 X s
 2157 1725 m 22 X s
 gsave  2263 1770 2 313 C 406.765 1447.41 t 0 r /Helvetica findfont 64.4212 sf 0 0 m (CRW for MB\255C) show NC gr 
 gsave  2263 1770 2 313 C 1464.36 1616.89 t 0 r /Helvetica findfont 64.4212 sf 0 0 m (SM Total) show NC gr  1 1 1 c 1338 1603 m 107 X 74 Y -107 X f 1 0 0 c 6 lw 1338 1640 m 107 X s black
 gsave  2263 1770 2 313 C 1464.36 1511.81 t 0 r /Helvetica findfont 64.4212 sf 0 0 m (Data) show NC gr  1391 1502 m 64 Y s 3 lw 1391 1534 m20 6 lw
 gsave  2263 1770 2 313 C 1464.36 1406.73 t 0 r /Helvetica findfont 64.4212 sf 0 0 m (W+jets) show NC gr  0.4 0.6 1 c 3 lw 1338 1391 m 107 X 74 Y -107 X f 6 lw black 3 lw 1338 1465 m 107 X s 1338 1391 m 107 X s 1445 1391 m 74 Y s 1338 1391 m 74 Y s
 gsave  2263 1770 2 313 C 1498.25 1298.26 t 0 r /Helvetica findfont 64.4212 sf 0 0 m (\(+EW\) & single top) show NC gr 
 gsave  2263 1770 2 313 C 1481.3 1298.26 t 0 r /Helvetica findfont 64.4212 sf 0 0 m (t) show NC gr  1481 1349 m 17 X s
 gsave  2263 1770 2 313 C 1464.36 1298.26 t 0 r /Helvetica findfont 64.4212 sf 0 0 m (t) show NC gr  0.6 1 0.6 c 1338 1284 m 107 X 75 Y -107 X f black 1338 1359 m 107 X s 1338 1284 m 107 X s 1445 1284 m 75 Y s 1338 1284 m 75 Y s
 gsave  2263 1770 2 313 C 1464.36 1193.18 t 0 r /Helvetica findfont 64.4212 sf 0 0 m (Z+jets) show NC gr  1 0.8 0.4 c 1338 1178 m 107 X 75 Y -107 X f black 1338 1253 m 107 X s 1338 1178 m 107 X s 1445 1178 m 75 Y s 1338 1178 m 75 Y s
 gsave  2263 1770 2 313 C 1464.36 1088.1 t 0 r /Helvetica findfont 64.4212 sf 0 0 m (Diboson) show NC gr  1 0.4 0.6 c 1338 1072 m 107 X 74 Y -107 X f black 1338 1146 m 107 X s 1338 1072 m 107 X s 1445 1072 m 74 Y s 1338 1072 m 74 Y s
 gsave  2263 1770 2 313 C 911.832 1566.05 t 0 r /Helvetica findfont 44.0776 sf 0 0 m (\2551) show NC gr 
 gsave  2263 1770 2 313 C 471.17 1535.54 t 0 r /Helvetica findfont 64.4212 sf 0 0 m (=13TeV, 139 fb) show NC gr 
 gsave  2263 1770 2 313 C 440.662 1535.54 t 0 r /Helvetica findfont 64.4212 sf 0 0 m (s) show NC gr  6 lw 420 1573 m 7 -41 d s 3 lw 427 1532 m 7 61 d s 434 1593 m 37 X s 1 1 1 c 2254 561 2 2 bf black 1 1 1 c black 1860 358 318 187 bl 1 1 1 c black
 1860 358 318 187 bl 6 lw 1 1 1 c black 3 lw 373 363 m20 6 lw 3 lw 482 365 m20 6 lw 3 lw 591 396 m20 6 lw 3 lw 701 386 m20 6 lw 3 lw 810 324 m20 6 lw 3 lw 920 363 m20 6 lw 3 lw 1029 401 m20 6 lw 3 lw 1139 332 m20 6 lw 3 lw 1248 386 m20 6 lw 3 lw 1358
 411 m20 6 lw 3 lw 318 187 m 1860 X s
 gsave  2254 561 2 2 C 2105.01 64.4045 t 0 r /Helvetica findfont 50.9797 sf 0 0 m (1/2) show NC gr 
 gsave  2254 561 2 2 C 1888.07 23.728 t 0 r /Helvetica findfont 78.1689 sf 0 0 m ( [GeV]) show NC gr 
 gsave  2254 561 2 2 C 1857.56 3.38971 t 0 r /Helvetica findfont 50.9797 sf 0 0 m (T) show NC gr 
 gsave  2254 561 2 2 C 1806.72 23.728 t 0 r /Helvetica findfont 78.1689 sf 0 0 m (H) show NC gr  6 lw 1773 81 m 10 -78 d s 3 lw 1783 3 m 14 99 d s 1797 102 m 91 X s
 gsave  2254 561 2 2 C 1735.53 23.728 t 0 r /Helvetica findfont 78.1689 sf 0 0 m (/) show NC gr 
 gsave  2254 561 2 2 C 1630.45 61.0148 t 0 r /Helvetica findfont 50.9797 sf 0 0 m (miss) show NC gr 
 gsave  2254 561 2 2 C 1630.45 3.38971 t 0 r /Helvetica findfont 50.9797 sf 0 0 m (T) show NC gr 
 gsave  2254 561 2 2 C 1579.61 23.728 t 0 r /Helvetica findfont 78.1689 sf 0 0 m (E) show NC gr  537 201 m -14 Y s 591 194 m -7 Y s 646 194 m -7 Y s 701 194 m -7 Y s 756 194 m -7 Y s 810 201 m -14 Y s 865 194 m -7 Y s 920 194 m -7 Y s 975 194 m -7 Y
 s 1029 194 m -7 Y s 1084 201 m -14 Y s 1139 194 m -7 Y s 1193 194 m -7 Y s 1248 194 m -7 Y s 1303 194 m -7 Y s 1358 201 m -14 Y s 1412 194 m -7 Y s 1467 194 m -7 Y s 1522 194 m -7 Y s 1576 194 m -7 Y s 1631 201 m -14 Y s 1686 194 m -7 Y s 1741 194 m
 -7 Y s 1795 194 m -7 Y s 1850 194 m -7 Y s 1905 201 m -14 Y s 1959 194 m -7 Y s 2014 194 m -7 Y s 2069 194 m -7 Y s 2124 194 m -7 Y s 2178 201 m -14 Y s 537 201 m -14 Y s 482 194 m -7 Y s 427 194 m -7 Y s 373 194 m -7 Y s 318 194 m -7 Y s
 gsave  2254 561 2 2 C 491.508 118.64 t 0 r /Helvetica findfont 78.1689 sf 0 0 m (20) show NC gr 
 gsave  2254 561 2 2 C 766.075 118.64 t 0 r /Helvetica findfont 78.1689 sf 0 0 m (25) show NC gr 
 gsave  2254 561 2 2 C 1037.25 118.64 t 0 r /Helvetica findfont 78.1689 sf 0 0 m (30) show NC gr 
 gsave  2254 561 2 2 C 1311.82 118.64 t 0 r /Helvetica findfont 78.1689 sf 0 0 m (35) show NC gr 
 gsave  2254 561 2 2 C 1586.38 118.64 t 0 r /Helvetica findfont 78.1689 sf 0 0 m (40) show NC gr 
 gsave  2254 561 2 2 C 1857.56 118.64 t 0 r /Helvetica findfont 78.1689 sf 0 0 m (45) show NC gr 
 gsave  2254 561 2 2 C 2132.13 118.64 t 0 r /Helvetica findfont 78.1689 sf 0 0 m (50) show NC gr  318 545 m 1860 X s 537 531 m 14 Y s 591 538 m 7 Y s 646 538 m 7 Y s 701 538 m 7 Y s 756 538 m 7 Y s 810 531 m 14 Y s 865 538 m 7 Y s 920 538 m 7 Y s 975
 538 m 7 Y s 1029 538 m 7 Y s 1084 531 m 14 Y s 1139 538 m 7 Y s 1193 538 m 7 Y s 1248 538 m 7 Y s 1303 538 m 7 Y s 1358 531 m 14 Y s 1412 538 m 7 Y s 1467 538 m 7 Y s 1522 538 m 7 Y s 1576 538 m 7 Y s 1631 531 m 14 Y s 1686 538 m 7 Y s 1741 538 m 7
 Y s 1795 538 m 7 Y s 1850 538 m 7 Y s 1905 531 m 14 Y s 1959 538 m 7 Y s 2014 538 m 7 Y s 2069 538 m 7 Y s 2124 538 m 7 Y s 2178 531 m 14 Y s 537 531 m 14 Y s 482 538 m 7 Y s 427 538 m 7 Y s 373 538 m 7 Y s 318 538 m 7 Y s 318 187 m 358 Y s
 gsave  2254 561 2 2 C 166.096 284.736 t 90 r /Helvetica findfont 67.9729 sf 0 0 m (Data/SM) show NC gr  361 203 m -43 X s 339 220 m -21 X s 339 236 m -21 X s 339 252 m -21 X s 339 268 m -21 X s 361 285 m -43 X s 339 301 m -21 X s 339 317 m -21 X s
 339 334 m -21 X s 339 350 m -21 X s 361 366 m -43 X s 339 382 m -21 X s 339 399 m -21 X s 339 415 m -21 X s 339 431 m -21 X s 361 447 m -43 X s 339 464 m -21 X s 339 480 m -21 X s 339 496 m -21 X s 339 512 m -21 X s 361 529 m -43 X s 361 203 m -43 X
 s 339 187 m -21 X s 361 529 m -43 X s
 gsave  2254 561 2 2 C 261.008 183.044 t 0 r /Helvetica findfont 57.777 sf 0 0 m (0) show NC gr 
 gsave  2254 561 2 2 C 213.552 261.008 t 0 r /Helvetica findfont 57.777 sf 0 0 m (0.5) show NC gr 
 gsave  2254 561 2 2 C 271.177 342.361 t 0 r /Helvetica findfont 57.777 sf 0 0 m (1) show NC gr 
 gsave  2254 561 2 2 C 213.552 423.714 t 0 r /Helvetica findfont 57.777 sf 0 0 m (1.5) show NC gr 
 gsave  2254 561 2 2 C 261.008 505.067 t 0 r /Helvetica findfont 57.777 sf 0 0 m (2) show NC gr  2178 187 m 358 Y s 2135 203 m 43 X s 2157 220 m 21 X s 2157 236 m 21 X s 2157 252 m 21 X s 2157 268 m 21 X s 2135 285 m 43 X s 2157 301 m 21 X s 2157 317
 m 21 X s 2157 334 m 21 X s 2157 350 m 21 X s 2135 366 m 43 X s 2157 382 m 21 X s 2157 399 m 21 X s 2157 415 m 21 X s 2157 431 m 21 X s 2135 447 m 43 X s 2157 464 m 21 X s 2157 480 m 21 X s 2157 496 m 21 X s 2157 512 m 21 X s 2135 529 m 43 X s 2135
 203 m 43 X s 2157 187 m 21 X s 2135 529 m 43 X s 9 lw 1029 415 m 2 Y s 1029 417 m cl s 1029 388 m -3 Y s 1029 385 m cl s 1139 345 m 6 Y s 1139 351 m cl s 1139 318 m -4 Y s 1139 314 m cl s 1248 399 m 21 Y s 1248 420 m cl s 1248 372 m -20 Y s 1248 352
 m cl s 1358 425 m 41 Y s 1358 466 m cl s 1358 398 m -40 Y s 1358 358 m cl s 1467 545 m -45 Y s 1467 500 m cl s 3 lw 373 363 482 365 591 396 701 386 810 324 920 363 1029 401 1139 332 1248 386 1358 411 10 { m20} R 9 lw 1 0 0 c 6 lw black 3 lw 1 0 0 c
 2155 203 m cl s 2127 203 m cl s 2098 203 m cl s 2069 203 m cl s 2069 232 m s 2069 260 m -6 -5 d s 2069 289 m -35 -34 d s 2069 318 m -63 -63 d s 2069 346 m -92 -91 d s 1959 237 m -22 -22 d s 2069 375 m -161 -160 d s 2069 403 m -189 -188 d s 2069 432
 m -218 -217 d s 2069 461 m -219 -219 d s 2057 477 m -207 -206 d s 2029 477 m -202 -200 d s 2000 477 m -201 -200 d s 1971 477 m -201 -200 d s 1959 494 m -218 -217 d s 1954 517 m -213 -212 d s 1925 517 m -184 -184 d s 1896 517 m -46 -46 d s 1834 455 m
 -120 -119 d s 1868 517 m -18 -17 d s 1805 455 m -119 -119 d s 1777 455 m -36 -36 d s 1717 396 m -60 -60 d s 1748 455 m -7 -7 d s 1689 396 m -83 -83 d s 1660 396 m -83 -83 d s 1631 396 m -83 -83 d s 1625 419 m -103 -104 d s 1597 419 m -79 -78 d s
 1568 419 m -78 -78 d s 1539 419 m -17 -18 d s 1512 391 m -51 -50 d s 1483 391 m -51 -50 d s 1454 391 m -42 -42 d s 1426 391 m -14 -13 d s 1410 376 m -20 -20 d s 1382 376 m -20 -20 d s 1353 376 m -20 -20 d s 1324 376 m -20 -20 d s 1303 355 m -3 -3 d
 s 1300 380 m -29 -28 d s 1271 380 m -29 -28 d s 1243 380 m -29 -28 d s 1214 380 m -25 -24 d s 1181 376 m -20 -20 d s 1152 376 m -20 -20 d s 1124 376 m -21 -20 d s 1095 376 m -19 -19 d s 1065 375 m -18 -18 d s 1036 375 m -18 -18 d s 1008 375 m -18
 -18 d s 979 375 m -17 -17 d s 949 374 m -16 -16 d s 920 374 m -15 -16 d s 892 374 m -16 -16 d s 865 376 m -20 -20 d s 837 376 m -21 -20 d s 808 376 m -21 -20 d s 779 376 m -20 -20 d s 745 370 m -9 -8 d s 716 370 m -9 -8 d s 687 370 m -8 -8 d s 659
 370 m -9 -8 d s 646 358 m -3 -3 d s 637 377 m -23 -22 d s 608 377 m -22 -22 d s 580 377 m -23 -22 d s 551 377 m -15 -15 d s 515 370 m -8 -8 d s 486 370 m -8 -8 d s 457 370 m -7 -8 d s 318 231 m s 429 370 m -7 -6 d s 318 259 m s 399 369 m -5 -5 d s
 318 288 m s 370 369 m -5 -5 d s 318 317 m s 341 369 m -5 -5 d s 318 345 m s 6 lw 0 0 1 c 9 lw 1467 496 m 30 Y s 3 lw 1456 526 m 11 19 d 11 -19 d f 9 lw 1456 526 m 11 19 d 11 -19 d -22 X cl s 2124 496 m 30 Y s 3 lw 2113 526 m 11 19 d 11 -19 d f 9 lw
 2113 526 m 11 19 d 11 -19 d -22 X cl s black[ 4 8] 0 sd 3 lw 318 447 m 1860 X s 318 285 m 1860 X s 1 0 0 c[  12 12 ] 0 sd 6 lw 318 366 m 1860 X s
 gr  gr showpage
end
%%EOF
