%!PS-Adobe-2.0 EPSF-2.0
%%BoundingBox:  0 0 567 521
%%Title: Distributions/metsqrtmeffInc_met_distrVR0LmetSig_MB-C_afterFit_forThesis.eps: canvas
%%Creator: ROOT Version 6.04/16
%%CreationDate: Tue May 19 22:06:28 2020
%%DocumentNeededResources: ProcSet (FontSetInit)
%%EndComments
%%BeginProlog
80 dict begin
/s {stroke} def /l {lineto} def /m {moveto} def /t {translate} def
/r {rotate} def /rl {roll}  def /R {repeat} def
/d {rlineto} def /rm {rmoveto} def /gr {grestore} def /f {eofill} def
/c {setrgbcolor} def /black {0 setgray} def /sd {setdash} def
/cl {closepath} def /sf {scalefont setfont} def /lw {setlinewidth} def
/box {m dup 0 exch d exch 0 d 0 exch neg d cl} def
/NC{systemdict begin initclip end}def/C{NC box clip newpath}def
/bl {box s} def /bf {gsave box gsave f grestore 1 lw [] 0 sd s grestore} def /Y { 0 exch d} def /X { 0 d} def 
/K {{pop pop 0 moveto} exch kshow} bind def
/ita {/ang 15 def gsave [1 0 ang dup sin exch cos div 1 0 0] concat} def 
/mp {newpath /y exch def /x exch def} def
/side {[w .77 mul w .23 mul] .385 w mul sd w 0 l currentpoint t -144 r} def
/mr {mp x y w2 0 360 arc} def /m24 {mr s} def /m20 {mr f} def
/mb {mp x y w2 add m w2 neg 0 d 0 w neg d w 0 d 0 w d cl} def
/mt {mp x y w2 add m w2 neg w neg d w 0 d cl} def
/m21 {mb f} def /m25 {mb s} def /m22 {mt f} def /m26{mt s} def
/m23 {mp x y w2 sub m w2 w d w neg 0 d cl f} def
/m27 {mp x y w2 add m w3 neg w2 neg d w3 w2 neg d w3 w2 d cl s} def
/m28 {mp x w2 sub y w2 sub w3 add m w3 0 d  0 w3 neg d w3 0 d 0 w3 d w3 0 d  0 w3 d w3 neg 0 d 0 w3 d w3 neg 0 d 0 w3 neg d w3 neg 0 d cl s } def
/m29 {mp gsave x w2 sub y w2 add w3 sub m currentpoint t 4 {side} repeat cl fill gr} def
/m30 {mp gsave x w2 sub y w2 add w3 sub m currentpoint t 4 {side} repeat cl s gr} def
/m31 {mp x y w2 sub m 0 w d x w2 sub y m w 0 d x w2 sub y w2 add m w w neg d x w2 sub y w2 sub m w w d s} def
/m32 {mp x y w2 sub m w2 w d w neg 0 d cl s} def
/m33 {mp x y w2 add m w3 neg w2 neg d w3 w2 neg d w3 w2 d cl f} def
/m34 {mp x w2 sub y w2 sub w3 add m w3 0 d  0 w3 neg d w3 0 d 0 w3 d w3 0 d  0 w3 d w3 neg 0 d 0 w3 d w3 neg 0 d 0 w3 neg d w3 neg 0 d cl f } def
/m2 {mp x y w2 sub m 0 w d x w2 sub y m w 0 d s} def
/m5 {mp x w2 sub y w2 sub m w w d x w2 sub y w2 add m w w neg d s} def
%%IncludeResource: ProcSet (FontSetInit)
%%IncludeResource: font Times-Roman
%%IncludeResource: font Times-Italic
%%IncludeResource: font Times-Bold
%%IncludeResource: font Times-BoldItalic
%%IncludeResource: font Helvetica
%%IncludeResource: font Helvetica-Oblique
%%IncludeResource: font Helvetica-Bold
%%IncludeResource: font Helvetica-BoldOblique
%%IncludeResource: font Courier
%%IncludeResource: font Courier-Oblique
%%IncludeResource: font Courier-Bold
%%IncludeResource: font Courier-BoldOblique
%%IncludeResource: font Symbol
%%IncludeResource: font ZapfDingbats
/reEncode {exch findfont dup length dict begin {1 index /FID eq  {pop pop} {def} ifelse } forall /Encoding exch def currentdict end dup /FontName get exch definefont pop } def [/Times-Bold /Times-Italic /Times-BoldItalic /Helvetica /Helvetica-Oblique
 /Helvetica-Bold /Helvetica-BoldOblique /Courier /Courier-Oblique /Courier-Bold /Courier-BoldOblique /Times-Roman /AvantGarde-Book /AvantGarde-BookOblique /AvantGarde-Demi /AvantGarde-DemiOblique /Bookman-Demi /Bookman-DemiItalic /Bookman-Light
 /Bookman-LightItalic /Helvetica-Narrow /Helvetica-Narrow-Bold /Helvetica-Narrow-BoldOblique /Helvetica-Narrow-Oblique /NewCenturySchlbk-Roman /NewCenturySchlbk-Bold /NewCenturySchlbk-BoldItalic /NewCenturySchlbk-Italic /Palatino-Bold
 /Palatino-BoldItalic /Palatino-Italic /Palatino-Roman ] {ISOLatin1Encoding reEncode } forall
%%EndProlog
%%BeginSetup
%%EndSetup
newpath  gsave  .25 .25 scale  gsave  0 0 t black[  ] 0 sd 3 lw 1 1 1 c 2268 2085 0 0 bf black 1 1 1 c 2263 1770 2 313 bf black 1 1 1 c black 1860 1145 319 584 bl 1 1 1 c black 1860 1145 319 584 bl 6 lw 1 1 1 c black 3 lw /w 33 def /w2 {w 2 div} def
 /w3 {w 3 div} def 374 1076 m20 6 lw 3 lw 483 1072 m20 6 lw 3 lw 593 1064 m20 6 lw 3 lw 702 1053 m20 6 lw 3 lw 812 1035 m20 6 lw 3 lw 921 991 m20 6 lw 3 lw 1030 940 m20 6 lw 1140 882 m 5 Y s 1140 914 m 1 Y s 3 lw 1140 901 m20 6 lw 1249 865 m 8 Y s
 1249 900 m 3 Y s 3 lw 1249 887 m20 6 lw 1359 745 m 41 Y s 1359 813 m 15 Y s 3 lw 1359 799 m20 6 lw 1468 745 m 41 Y s 1468 813 m 15 Y s 3 lw 1468 799 m20 6 lw 1578 745 m 41 Y s 1578 813 m 15 Y s 3 lw 1578 799 m20 6 lw 3 lw 319 584 m 1860 X s
 gsave  2263 1770 2 313 C 2101.62 396.596 t 0 r /Helvetica findfont 54.2494 sf 0 0 m (1/2) show NC gr 
 gsave  2263 1770 2 313 C 1874.51 355.92 t 0 r /Helvetica findfont 81.3741 sf 0 0 m ( [GeV]) show NC gr 
 gsave  2263 1770 2 313 C 1840.61 332.192 t 0 r /Helvetica findfont 54.2494 sf 0 0 m (T) show NC gr 
 gsave  2263 1770 2 313 C 1786.38 355.92 t 0 r /Helvetica findfont 81.3741 sf 0 0 m (H) show NC gr  6 lw 1749 417 m 14 -85 d s 3 lw 1763 332 m 13 105 d s 1776 437 m 99 X s
 gsave  2263 1770 2 313 C 1711.8 355.92 t 0 r /Helvetica findfont 81.3741 sf 0 0 m (/) show NC gr 
 gsave  2263 1770 2 313 C 1599.94 396.596 t 0 r /Helvetica findfont 54.2494 sf 0 0 m (miss) show NC gr 
 gsave  2263 1770 2 313 C 1599.94 332.192 t 0 r /Helvetica findfont 54.2494 sf 0 0 m (T) show NC gr 
 gsave  2263 1770 2 313 C 1549.1 355.92 t 0 r /Helvetica findfont 81.3741 sf 0 0 m (E) show NC gr  538 584 m cl s 593 584 m cl s 647 584 m cl s 702 584 m cl s 757 584 m cl s 812 584 m cl s 866 584 m cl s 921 584 m cl s 976 584 m cl s 1030 584 m cl s
 1085 584 m cl s 1140 584 m cl s 1195 584 m cl s 1249 584 m cl s 1304 584 m cl s 1359 584 m cl s 1413 584 m cl s 1468 584 m cl s 1523 584 m cl s 1578 584 m cl s 1632 584 m cl s 1687 584 m cl s 1742 584 m cl s 1796 584 m cl s 1851 584 m cl s 1906 584
 m cl s 1961 584 m cl s 2015 584 m cl s 2070 584 m cl s 2125 584 m cl s 2179 584 m cl s 538 584 m cl s 483 584 m cl s 429 584 m cl s 374 584 m cl s 319 1729 m 1860 X s 538 1729 m cl s 593 1729 m cl s 647 1729 m cl s 702 1729 m cl s 757 1729 m cl s
 812 1729 m cl s 866 1729 m cl s 921 1729 m cl s 976 1729 m cl s 1030 1729 m cl s 1085 1729 m cl s 1140 1729 m cl s 1195 1729 m cl s 1249 1729 m cl s 1304 1729 m cl s 1359 1729 m cl s 1413 1729 m cl s 1468 1729 m cl s 1523 1729 m cl s 1578 1729 m cl
 s 1632 1729 m cl s 1687 1729 m cl s 1742 1729 m cl s 1796 1729 m cl s 1851 1729 m cl s 1906 1729 m cl s 1961 1729 m cl s 2015 1729 m cl s 2070 1729 m cl s 2125 1729 m cl s 2179 1729 m cl s 538 1729 m cl s 483 1729 m cl s 429 1729 m cl s 374 1729 m
 cl s 319 584 m 1145 Y s
 gsave  2263 1770 2 313 C 125.419 1654.18 t 90 r /Helvetica findfont 54.2494 sf 0 0 m (1/2) show NC gr 
 gsave  2263 1770 2 313 C 166.096 1064.37 t 90 r /Helvetica findfont 81.3741 sf 0 0 m (Events / 2 [GeV]) show NC gr  341 628 m -22 X s 341 654 m -22 X s 341 672 m -22 X s 341 686 m -22 X s 341 697 m -22 X s 341 707 m -22 X s 341 716 m -22 X s 341 723
 m -22 X s 363 730 m -44 X s
 gsave  2263 1770 2 313 C 300.555 702.613 t 0 r  -36 0 t /Helvetica findfont 64.4212 sf 0 0 m (1) show NC gr  341 774 m -22 X s 341 799 m -22 X s 341 817 m -22 X s 341 831 m -22 X s 341 843 m -22 X s 341 853 m -22 X s 341 861 m -22 X s 341 868 m -22
 X s 363 875 m -44 X s
 gsave  2263 1770 2 313 C 300.555 848.034 t 0 r  -73 0 t /Helvetica findfont 64.4212 sf 0 0 m (10) show NC gr  341 919 m -22 X s 341 945 m -22 X s 341 963 m -22 X s 341 977 m -22 X s 341 988 m -22 X s 341 998 m -22 X s 341 1006 m -22 X s 341 1014 m
 -22 X s 363 1021 m -44 X s
 gsave  2263 1770 2 313 C 274.567 1020.3 t 0 r /Helvetica findfont 44.0776 sf 0 0 m (2) show NC gr 
 gsave  2263 1770 2 313 C 203.383 993.185 t 0 r /Helvetica findfont 64.4212 sf 0 0 m (10) show NC gr  341 1064 m -22 X s 341 1090 m -22 X s 341 1108 m -22 X s 341 1122 m -22 X s 341 1134 m -22 X s 341 1143 m -22 X s 341 1152 m -22 X s 341 1159 m -22
 X s 363 1166 m -44 X s
 gsave  2263 1770 2 313 C 274.567 1166.06 t 0 r /Helvetica findfont 44.0776 sf 0 0 m (3) show NC gr 
 gsave  2263 1770 2 313 C 203.383 1135.55 t 0 r /Helvetica findfont 64.4212 sf 0 0 m (10) show NC gr  341 1210 m -22 X s 341 1235 m -22 X s 341 1254 m -22 X s 341 1268 m -22 X s 341 1279 m -22 X s 341 1289 m -22 X s 341 1297 m -22 X s 341 1305 m -22
 X s 363 1311 m -44 X s
 gsave  2263 1770 2 313 C 274.567 1308.43 t 0 r /Helvetica findfont 44.0776 sf 0 0 m (4) show NC gr 
 gsave  2263 1770 2 313 C 203.383 1281.31 t 0 r /Helvetica findfont 64.4212 sf 0 0 m (10) show NC gr  341 1355 m -22 X s 341 1381 m -22 X s 341 1399 m -22 X s 341 1413 m -22 X s 341 1425 m -22 X s 341 1434 m -22 X s 341 1443 m -22 X s 341 1450 m -22
 X s 363 1457 m -44 X s
 gsave  2263 1770 2 313 C 274.567 1457.58 t 0 r /Helvetica findfont 44.0776 sf 0 0 m (5) show NC gr 
 gsave  2263 1770 2 313 C 203.383 1427.07 t 0 r /Helvetica findfont 64.4212 sf 0 0 m (10) show NC gr  341 1501 m -22 X s 341 1526 m -22 X s 341 1544 m -22 X s 341 1558 m -22 X s 341 1570 m -22 X s 341 1580 m -22 X s 341 1588 m -22 X s 341 1596 m -22
 X s 363 1602 m -44 X s
 gsave  2263 1770 2 313 C 274.567 1603.33 t 0 r /Helvetica findfont 44.0776 sf 0 0 m (6) show NC gr 
 gsave  2263 1770 2 313 C 203.383 1572.83 t 0 r /Helvetica findfont 64.4212 sf 0 0 m (10) show NC gr  341 1646 m -22 X s 341 1672 m -22 X s 341 1690 m -22 X s 341 1704 m -22 X s 341 1715 m -22 X s 341 1725 m -22 X s 2179 584 m 1145 Y s 2157 628 m 22
 X s 2157 654 m 22 X s 2157 672 m 22 X s 2157 686 m 22 X s 2157 697 m 22 X s 2157 707 m 22 X s 2157 716 m 22 X s 2157 723 m 22 X s 2136 730 m 43 X s 2157 774 m 22 X s 2157 799 m 22 X s 2157 817 m 22 X s 2157 831 m 22 X s 2157 843 m 22 X s 2157 853 m
 22 X s 2157 861 m 22 X s 2157 868 m 22 X s 2136 875 m 43 X s 2157 919 m 22 X s 2157 945 m 22 X s 2157 963 m 22 X s 2157 977 m 22 X s 2157 988 m 22 X s 2157 998 m 22 X s 2157 1006 m 22 X s 2157 1014 m 22 X s 2136 1021 m 43 X s 2157 1064 m 22 X s 2157
 1090 m 22 X s 2157 1108 m 22 X s 2157 1122 m 22 X s 2157 1134 m 22 X s 2157 1143 m 22 X s 2157 1152 m 22 X s 2157 1159 m 22 X s 2136 1166 m 43 X s 2157 1210 m 22 X s 2157 1235 m 22 X s 2157 1254 m 22 X s 2157 1268 m 22 X s 2157 1279 m 22 X s 2157
 1289 m 22 X s 2157 1297 m 22 X s 2157 1305 m 22 X s 2136 1311 m 43 X s 2157 1355 m 22 X s 2157 1381 m 22 X s 2157 1399 m 22 X s 2157 1413 m 22 X s 2157 1425 m 22 X s 2157 1434 m 22 X s 2157 1443 m 22 X s 2157 1450 m 22 X s 2136 1457 m 43 X s 2157
 1501 m 22 X s 2157 1526 m 22 X s 2157 1544 m 22 X s 2157 1558 m 22 X s 2157 1570 m 22 X s 2157 1580 m 22 X s 2157 1588 m 22 X s 2157 1596 m 22 X s 2136 1602 m 43 X s 2157 1646 m 22 X s 2157 1672 m 22 X s 2157 1690 m 22 X s 2157 1704 m 22 X s 2157
 1715 m 22 X s 2157 1725 m 22 X s 0.4 0.6 1 c black 0.4 0.6 1 c 319 584 m 505 Y 110 X -14 Y 109 X -14 Y 109 X -16 Y 110 X -11 Y 109 X -26 Y 110 X -48 Y 109 X -54 Y 110 X -61 Y 109 X -35 Y 109 X -41 Y 110 X -119 Y 109 X -30 Y 110 X -4 Y 109 X -32 Y
 328 X f black 0.4 0.6 1 c black 319 1089 m 110 X -14 Y 109 X -14 Y 109 X -16 Y 110 X -11 Y 109 X -26 Y 110 X -48 Y 109 X -54 Y 110 X -61 Y 109 X -35 Y 109 X -41 Y 110 X -119 Y 109 X -30 Y 110 X -4 Y 109 X -32 Y 328 X s 0.999 0.999 0.999 c black
 0.999 0.999 0.999 c 319 584 m 480 Y 110 X -15 Y 109 X -16 Y 109 X -16 Y 110 X -21 Y 109 X -28 Y 110 X -47 Y 109 X -42 Y 110 X -66 Y 109 X -27 Y 109 X -29 Y 110 X -154 Y 109 X -9 Y 110 X -10 Y 437 X f black 0.999 0.999 0.999 c black 319 1064 m 110 X
 -15 Y 109 X -16 Y 109 X -16 Y 110 X -21 Y 109 X -28 Y 110 X -47 Y 109 X -42 Y 110 X -66 Y 109 X -27 Y 109 X -29 Y 110 X -154 Y 109 X -9 Y 110 X -10 Y 437 X s 1 1 1 c black 319 1064 m 110 X -15 Y 109 X -16 Y 109 X -16 Y 110 X -21 Y 109 X -28 Y 110 X
 -47 Y 109 X -42 Y 110 X -66 Y 109 X -27 Y 109 X -29 Y 110 X -154 Y 109 X -9 Y 110 X -10 Y 437 X s 0.6 1 0.6 c black 0.6 1 0.6 c 319 584 m 480 Y 110 X -15 Y 109 X -16 Y 109 X -16 Y 110 X -21 Y 109 X -28 Y 110 X -47 Y 109 X -42 Y 110 X -66 Y 109 X -27
 Y 109 X -29 Y 110 X -154 Y 109 X -9 Y 110 X -10 Y 437 X f black 0.6 1 0.6 c black 319 1064 m 110 X -15 Y 109 X -16 Y 109 X -16 Y 110 X -21 Y 109 X -28 Y 110 X -47 Y 109 X -42 Y 110 X -66 Y 109 X -27 Y 109 X -29 Y 110 X -154 Y 109 X -9 Y 110 X -10 Y
 437 X s 0.999 0.999 0.999 c black 0.999 0.999 0.999 c 319 584 m 454 Y 110 X -10 Y 109 X -13 Y 109 X -10 Y 110 X -18 Y 109 X -26 Y 110 X -48 Y 109 X -38 Y 110 X -64 Y 109 X -26 Y 109 X -28 Y 110 X -155 Y 109 X -8 Y 110 X -10 Y 437 X f black 0.999
 0.999 0.999 c black 319 1038 m 110 X -10 Y 109 X -13 Y 109 X -10 Y 110 X -18 Y 109 X -26 Y 110 X -48 Y 109 X -38 Y 110 X -64 Y 109 X -26 Y 109 X -28 Y 110 X -155 Y 109 X -8 Y 110 X -10 Y 437 X s 1 1 1 c black 319 1038 m 110 X -10 Y 109 X -13 Y 109 X
 -10 Y 110 X -18 Y 109 X -26 Y 110 X -48 Y 109 X -38 Y 110 X -64 Y 109 X -26 Y 109 X -28 Y 110 X -155 Y 109 X -8 Y 110 X -10 Y 437 X s 1 0.8 0.4 c black 1 0.8 0.4 c 319 584 m 454 Y 110 X -10 Y 109 X -13 Y 109 X -10 Y 110 X -18 Y 109 X -26 Y 110 X -48
 Y 109 X -38 Y 110 X -64 Y 109 X -26 Y 109 X -28 Y 110 X -155 Y 109 X -8 Y 110 X -10 Y 437 X f black 1 0.8 0.4 c black 319 1038 m 110 X -10 Y 109 X -13 Y 109 X -10 Y 110 X -18 Y 109 X -26 Y 110 X -48 Y 109 X -38 Y 110 X -64 Y 109 X -26 Y 109 X -28 Y
 110 X -155 Y 109 X -8 Y 110 X -10 Y 437 X s 0.999 0.999 0.999 c black 0.999 0.999 0.999 c 319 584 m 323 Y 110 X -6 Y 109 X -15 Y 109 X -13 Y 110 X -10 Y 109 X -45 Y 110 X -22 Y 109 X -28 Y 110 X -58 Y 109 X 13 Y 109 X -139 Y 766 X f black 0.999
 0.999 0.999 c black 319 907 m 110 X -6 Y 109 X -15 Y 109 X -13 Y 110 X -10 Y 109 X -45 Y 110 X -22 Y 109 X -28 Y 110 X -58 Y 109 X 13 Y 109 X -139 Y 766 X s 1 1 1 c black 319 907 m 110 X -6 Y 109 X -15 Y 109 X -13 Y 110 X -10 Y 109 X -45 Y 110 X -22
 Y 109 X -28 Y 110 X -58 Y 109 X 13 Y 109 X -139 Y 766 X s 1 0.4 0.6 c black 1 0.4 0.6 c 319 584 m 323 Y 110 X -6 Y 109 X -15 Y 109 X -13 Y 110 X -10 Y 109 X -45 Y 110 X -22 Y 109 X -28 Y 110 X -58 Y 109 X 13 Y 109 X -139 Y 766 X f black 1 0.4 0.6 c
 black 319 907 m 110 X -6 Y 109 X -15 Y 109 X -13 Y 110 X -10 Y 109 X -45 Y 110 X -22 Y 109 X -28 Y 110 X -58 Y 109 X 13 Y 109 X -139 Y 766 X s 0.999 0.999 0.999 c black 0.999 0.999 0.999 c 319 584 m 136 Y 110 X -41 Y 109 X -49 Y 109 X -43 Y 110 X -3
 Y 1422 X f black 0.999 0.999 0.999 c black 319 720 m 110 X -41 Y 109 X -49 Y 109 X -43 Y 110 X -3 Y 1422 X s 1 1 1 c black 319 720 m 110 X -41 Y 109 X -49 Y 109 X -43 Y 110 X -3 Y 1422 X s 0 0 0.4 c black 0 0 0.4 c 319 584 m 136 Y 110 X -41 Y 109 X
 -49 Y 109 X -43 Y 110 X -3 Y 1422 X f black 0 0 0.4 c black 319 720 m 110 X -41 Y 109 X -49 Y 109 X -43 Y 110 X -3 Y 1422 X s 1 0 0 c 6 lw 1 1 1 c black 1 0 0 c 319 1089 m 110 X -14 Y 109 X -14 Y 109 X -16 Y 110 X -11 Y 109 X -26 Y 110 X -48 Y 109 X
 -54 Y 110 X -61 Y 109 X -35 Y 109 X -41 Y 110 X -119 Y 109 X -30 Y 110 X -4 Y 109 X -32 Y 328 X s black 3 lw 1 0 0 c 1 lw << /PatternType 1 /PaintType 2 /TilingType 1 /BBox [ 0 0 100 100 ] /XStep 100 /YStep 100 /PaintProc { begin gsave 0 100 m 100 0
 l s gr end } >> [ 0.24 0 0 0.24 0 0 ] makepattern /P05 exch def /cs {[/Pattern /DeviceRGB] setcolorspace} def /FA {f [/DeviceRGB] setcolorspace} def cs 1 0 0 P05 setcolor 319 584 m 508 Y 110 X -14 Y 109 X -14 Y 109 X -16 Y 110 X -11 Y 109 X -26 Y
 110 X -48 Y 109 X -51 Y 110 X -59 Y 109 X -22 Y 109 X -43 Y 110 X -109 Y 109 X -46 Y 110 X 4 Y 109 X -53 Y -109 X 20 Y -110 X -11 Y -109 X 149 Y -110 X 36 Y -109 X 58 Y -109 X 62 Y -110 X 58 Y -109 X 48 Y -110 X 27 Y -109 X 10 Y -110 X 17 Y -109 X
 14 Y -109 X 14 Y -110 X -502 Y FA 6 lw 1 1 1 c 15 lw 1249 866 m s 1249 866 m cl s 1359 819 m 11 Y s 1359 830 m cl s 1359 779 m -29 Y s 1359 750 m cl s 1468 819 m 11 Y s 1468 830 m cl s 1468 779 m -29 Y s 1468 750 m cl s 1578 819 m 11 Y s 1578 830 m
 cl s 1578 779 m -29 Y s 1578 750 m cl s black 1 1 1 c 3 lw /w 43 def /w2 {w 2 div} def /w3 {w 3 div} def 374 1076 483 1072 593 1064 702 1053 812 1035 921 991 1030 940 1140 901 1249 887 1359 799 1468 799 1578 799 12 { m20} R 15 lw black 6 lw 1 1 1 c
 black 3 lw /w 33 def /w2 {w 2 div} def /w3 {w 3 div} def 374 1076 m20 6 lw 3 lw 483 1072 m20 6 lw 3 lw 593 1064 m20 6 lw 3 lw 702 1053 m20 6 lw 3 lw 812 1035 m20 6 lw 3 lw 921 991 m20 6 lw 3 lw 1030 940 m20 6 lw 1140 882 m 5 Y s 1140 914 m 1 Y s 3
 lw 1140 901 m20 6 lw 1249 865 m 8 Y s 1249 900 m 3 Y s 3 lw 1249 887 m20 6 lw 1359 745 m 41 Y s 1359 813 m 15 Y s 3 lw 1359 799 m20 6 lw 1468 745 m 41 Y s 1468 813 m 15 Y s 3 lw 1468 799 m20 6 lw 1578 745 m 41 Y s 1578 813 m 15 Y s 3 lw 1578 799 m20
 6 lw 1140 914 m 1 Y s 1140 915 m cl s 1140 887 m -5 Y s 1140 882 m cl s 1249 900 m 3 Y s 1249 903 m cl s 1249 873 m -7 Y s 1249 866 m cl s 1359 813 m 17 Y s 1359 830 m cl s 1359 786 m -36 Y s 1359 750 m cl s 1468 813 m 17 Y s 1468 830 m cl s 1468
 786 m -36 Y s 1468 750 m cl s 1578 813 m 17 Y s 1578 830 m cl s 1578 786 m -36 Y s 1578 750 m cl s 3 lw 374 1076 483 1072 593 1064 702 1053 812 1035 921 991 1030 940 1140 901 1249 887 1359 799 1468 799 1578 799 12 { m20} R 6 lw 3 lw 319 584 m 1860 X
 s 538 584 m cl s 593 584 m cl s 647 584 m cl s 702 584 m cl s 757 584 m cl s 812 584 m cl s 866 584 m cl s 921 584 m cl s 976 584 m cl s 1030 584 m cl s 1085 584 m cl s 1140 584 m cl s 1195 584 m cl s 1249 584 m cl s 1304 584 m cl s 1359 584 m cl s
 1413 584 m cl s 1468 584 m cl s 1523 584 m cl s 1578 584 m cl s 1632 584 m cl s 1687 584 m cl s 1742 584 m cl s 1796 584 m cl s 1851 584 m cl s 1906 584 m cl s 1961 584 m cl s 2015 584 m cl s 2070 584 m cl s 2125 584 m cl s 2179 584 m cl s 538 584 m
 cl s 483 584 m cl s 429 584 m cl s 374 584 m cl s 319 1729 m 1860 X s 538 1729 m cl s 593 1729 m cl s 647 1729 m cl s 702 1729 m cl s 757 1729 m cl s 812 1729 m cl s 866 1729 m cl s 921 1729 m cl s 976 1729 m cl s 1030 1729 m cl s 1085 1729 m cl s
 1140 1729 m cl s 1195 1729 m cl s 1249 1729 m cl s 1304 1729 m cl s 1359 1729 m cl s 1413 1729 m cl s 1468 1729 m cl s 1523 1729 m cl s 1578 1729 m cl s 1632 1729 m cl s 1687 1729 m cl s 1742 1729 m cl s 1796 1729 m cl s 1851 1729 m cl s 1906 1729 m
 cl s 1961 1729 m cl s 2015 1729 m cl s 2070 1729 m cl s 2125 1729 m cl s 2179 1729 m cl s 538 1729 m cl s 483 1729 m cl s 429 1729 m cl s 374 1729 m cl s 319 584 m 1145 Y s 341 628 m -22 X s 341 654 m -22 X s 341 672 m -22 X s 341 686 m -22 X s 341
 697 m -22 X s 341 707 m -22 X s 341 716 m -22 X s 341 723 m -22 X s 363 730 m -44 X s 341 774 m -22 X s 341 799 m -22 X s 341 817 m -22 X s 341 831 m -22 X s 341 843 m -22 X s 341 853 m -22 X s 341 861 m -22 X s 341 868 m -22 X s 363 875 m -44 X s
 341 919 m -22 X s 341 945 m -22 X s 341 963 m -22 X s 341 977 m -22 X s 341 988 m -22 X s 341 998 m -22 X s 341 1006 m -22 X s 341 1014 m -22 X s 363 1021 m -44 X s 341 1064 m -22 X s 341 1090 m -22 X s 341 1108 m -22 X s 341 1122 m -22 X s 341 1134
 m -22 X s 341 1143 m -22 X s 341 1152 m -22 X s 341 1159 m -22 X s 363 1166 m -44 X s 341 1210 m -22 X s 341 1235 m -22 X s 341 1254 m -22 X s 341 1268 m -22 X s 341 1279 m -22 X s 341 1289 m -22 X s 341 1297 m -22 X s 341 1305 m -22 X s 363 1311 m
 -44 X s 341 1355 m -22 X s 341 1381 m -22 X s 341 1399 m -22 X s 341 1413 m -22 X s 341 1425 m -22 X s 341 1434 m -22 X s 341 1443 m -22 X s 341 1450 m -22 X s 363 1457 m -44 X s 341 1501 m -22 X s 341 1526 m -22 X s 341 1544 m -22 X s 341 1558 m
 -22 X s 341 1570 m -22 X s 341 1580 m -22 X s 341 1588 m -22 X s 341 1596 m -22 X s 363 1602 m -44 X s 341 1646 m -22 X s 341 1672 m -22 X s 341 1690 m -22 X s 341 1704 m -22 X s 341 1715 m -22 X s 341 1725 m -22 X s 2179 584 m 1145 Y s 2157 628 m
 22 X s 2157 654 m 22 X s 2157 672 m 22 X s 2157 686 m 22 X s 2157 697 m 22 X s 2157 707 m 22 X s 2157 716 m 22 X s 2157 723 m 22 X s 2136 730 m 43 X s 2157 774 m 22 X s 2157 799 m 22 X s 2157 817 m 22 X s 2157 831 m 22 X s 2157 843 m 22 X s 2157 853
 m 22 X s 2157 861 m 22 X s 2157 868 m 22 X s 2136 875 m 43 X s 2157 919 m 22 X s 2157 945 m 22 X s 2157 963 m 22 X s 2157 977 m 22 X s 2157 988 m 22 X s 2157 998 m 22 X s 2157 1006 m 22 X s 2157 1014 m 22 X s 2136 1021 m 43 X s 2157 1064 m 22 X s
 2157 1090 m 22 X s 2157 1108 m 22 X s 2157 1122 m 22 X s 2157 1134 m 22 X s 2157 1143 m 22 X s 2157 1152 m 22 X s 2157 1159 m 22 X s 2136 1166 m 43 X s 2157 1210 m 22 X s 2157 1235 m 22 X s 2157 1254 m 22 X s 2157 1268 m 22 X s 2157 1279 m 22 X s
 2157 1289 m 22 X s 2157 1297 m 22 X s 2157 1305 m 22 X s 2136 1311 m 43 X s 2157 1355 m 22 X s 2157 1381 m 22 X s 2157 1399 m 22 X s 2157 1413 m 22 X s 2157 1425 m 22 X s 2157 1434 m 22 X s 2157 1443 m 22 X s 2157 1450 m 22 X s 2136 1457 m 43 X s
 2157 1501 m 22 X s 2157 1526 m 22 X s 2157 1544 m 22 X s 2157 1558 m 22 X s 2157 1570 m 22 X s 2157 1580 m 22 X s 2157 1588 m 22 X s 2157 1596 m 22 X s 2136 1602 m 43 X s 2157 1646 m 22 X s 2157 1672 m 22 X s 2157 1690 m 22 X s 2157 1704 m 22 X s
 2157 1715 m 22 X s 2157 1725 m 22 X s
 gsave  2263 1770 2 313 C 406.765 1447.41 t 0 r /Helvetica findfont 64.4212 sf 0 0 m (VR0LmetSig for MB\255C) show NC gr 
 gsave  2263 1770 2 313 C 1464.36 1630.45 t 0 r /Helvetica findfont 64.4212 sf 0 0 m (SM Total) show NC gr  1 1 1 c 1338 1616 m 107 X 64 Y -107 X f 1 0 0 c 6 lw 1338 1648 m 107 X s black
 gsave  2263 1770 2 313 C 1464.36 1538.93 t 0 r /Helvetica findfont 64.4212 sf 0 0 m (Data) show NC gr  1391 1529 m 55 Y s 3 lw 1391 1557 m20 6 lw
 gsave  2263 1770 2 313 C 1464.36 1447.41 t 0 r /Helvetica findfont 64.4212 sf 0 0 m (W+jets) show NC gr  0.4 0.6 1 c 3 lw 1338 1434 m 107 X 64 Y -107 X f 6 lw black 3 lw 1338 1498 m 107 X s 1338 1434 m 107 X s 1445 1434 m 64 Y s 1338 1434 m 64 Y s
 gsave  2263 1770 2 313 C 1498.25 1355.88 t 0 r /Helvetica findfont 64.4212 sf 0 0 m (\(+EW\) & single top) show NC gr 
 gsave  2263 1770 2 313 C 1481.3 1355.88 t 0 r /Helvetica findfont 64.4212 sf 0 0 m (t) show NC gr  1481 1407 m 17 X s
 gsave  2263 1770 2 313 C 1464.36 1355.88 t 0 r /Helvetica findfont 64.4212 sf 0 0 m (t) show NC gr  0.6 1 0.6 c 1338 1343 m 107 X 63 Y -107 X f black 1338 1406 m 107 X s 1338 1343 m 107 X s 1445 1343 m 63 Y s 1338 1343 m 63 Y s
 gsave  2263 1770 2 313 C 1464.36 1264.36 t 0 r /Helvetica findfont 64.4212 sf 0 0 m (Z+jets) show NC gr  1 0.8 0.4 c 1338 1252 m 107 X 63 Y -107 X f black 1338 1315 m 107 X s 1338 1252 m 107 X s 1445 1252 m 63 Y s 1338 1252 m 63 Y s
 gsave  2263 1770 2 313 C 1464.36 1172.84 t 0 r /Helvetica findfont 64.4212 sf 0 0 m (Diboson) show NC gr  1 0.4 0.6 c 1338 1161 m 107 X 63 Y -107 X f black 1338 1224 m 107 X s 1338 1161 m 107 X s 1445 1161 m 63 Y s 1338 1161 m 63 Y s
 gsave  2263 1770 2 313 C 1464.36 1081.32 t 0 r /Helvetica findfont 64.4212 sf 0 0 m (Multi\255jet) show NC gr  0 0 0.4 c 1338 1070 m 107 X 63 Y -107 X f black 1338 1133 m 107 X s 1338 1070 m 107 X s 1445 1070 m 63 Y s 1338 1070 m 63 Y s
 gsave  2263 1770 2 313 C 911.832 1566.05 t 0 r /Helvetica findfont 44.0776 sf 0 0 m (\2551) show NC gr 
 gsave  2263 1770 2 313 C 471.17 1535.54 t 0 r /Helvetica findfont 64.4212 sf 0 0 m (=13TeV, 139 fb) show NC gr 
 gsave  2263 1770 2 313 C 440.662 1535.54 t 0 r /Helvetica findfont 64.4212 sf 0 0 m (s) show NC gr  6 lw 420 1573 m 7 -41 d s 3 lw 427 1532 m 7 61 d s 434 1593 m 37 X s 1 1 1 c 2254 561 2 2 bf black 1 1 1 c black 1860 358 318 187 bl 1 1 1 c black
 1860 358 318 187 bl 6 lw 1 1 1 c black 3 lw 373 335 m20 6 lw 3 lw 482 359 m20 6 lw 3 lw 591 375 m20 6 lw 3 lw 701 389 m20 6 lw 3 lw 810 370 m20 6 lw 3 lw 920 329 m20 6 lw 3 lw 1029 323 m20 6 lw 3 lw 1139 354 m20 6 lw 3 lw 1248 516 m20 6 lw 3 lw 1358
 340 m20 6 lw 3 lw 1467 464 m20 6 lw 3 lw 318 187 m 1860 X s
 gsave  2254 561 2 2 C 2105.01 64.4045 t 0 r /Helvetica findfont 50.9797 sf 0 0 m (1/2) show NC gr 
 gsave  2254 561 2 2 C 1888.07 23.728 t 0 r /Helvetica findfont 78.1689 sf 0 0 m ( [GeV]) show NC gr 
 gsave  2254 561 2 2 C 1857.56 3.38971 t 0 r /Helvetica findfont 50.9797 sf 0 0 m (T) show NC gr 
 gsave  2254 561 2 2 C 1806.72 23.728 t 0 r /Helvetica findfont 78.1689 sf 0 0 m (H) show NC gr  6 lw 1773 81 m 10 -78 d s 3 lw 1783 3 m 14 99 d s 1797 102 m 91 X s
 gsave  2254 561 2 2 C 1735.53 23.728 t 0 r /Helvetica findfont 78.1689 sf 0 0 m (/) show NC gr 
 gsave  2254 561 2 2 C 1630.45 61.0148 t 0 r /Helvetica findfont 50.9797 sf 0 0 m (miss) show NC gr 
 gsave  2254 561 2 2 C 1630.45 3.38971 t 0 r /Helvetica findfont 50.9797 sf 0 0 m (T) show NC gr 
 gsave  2254 561 2 2 C 1579.61 23.728 t 0 r /Helvetica findfont 78.1689 sf 0 0 m (E) show NC gr  537 201 m -14 Y s 591 194 m -7 Y s 646 194 m -7 Y s 701 194 m -7 Y s 756 194 m -7 Y s 810 201 m -14 Y s 865 194 m -7 Y s 920 194 m -7 Y s 975 194 m -7 Y
 s 1029 194 m -7 Y s 1084 201 m -14 Y s 1139 194 m -7 Y s 1193 194 m -7 Y s 1248 194 m -7 Y s 1303 194 m -7 Y s 1358 201 m -14 Y s 1412 194 m -7 Y s 1467 194 m -7 Y s 1522 194 m -7 Y s 1576 194 m -7 Y s 1631 201 m -14 Y s 1686 194 m -7 Y s 1741 194 m
 -7 Y s 1795 194 m -7 Y s 1850 194 m -7 Y s 1905 201 m -14 Y s 1959 194 m -7 Y s 2014 194 m -7 Y s 2069 194 m -7 Y s 2124 194 m -7 Y s 2178 201 m -14 Y s 537 201 m -14 Y s 482 194 m -7 Y s 427 194 m -7 Y s 373 194 m -7 Y s 318 194 m -7 Y s
 gsave  2254 561 2 2 C 491.508 118.64 t 0 r /Helvetica findfont 78.1689 sf 0 0 m (20) show NC gr 
 gsave  2254 561 2 2 C 766.075 118.64 t 0 r /Helvetica findfont 78.1689 sf 0 0 m (25) show NC gr 
 gsave  2254 561 2 2 C 1037.25 118.64 t 0 r /Helvetica findfont 78.1689 sf 0 0 m (30) show NC gr 
 gsave  2254 561 2 2 C 1311.82 118.64 t 0 r /Helvetica findfont 78.1689 sf 0 0 m (35) show NC gr 
 gsave  2254 561 2 2 C 1586.38 118.64 t 0 r /Helvetica findfont 78.1689 sf 0 0 m (40) show NC gr 
 gsave  2254 561 2 2 C 1857.56 118.64 t 0 r /Helvetica findfont 78.1689 sf 0 0 m (45) show NC gr 
 gsave  2254 561 2 2 C 2132.13 118.64 t 0 r /Helvetica findfont 78.1689 sf 0 0 m (50) show NC gr  318 545 m 1860 X s 537 531 m 14 Y s 591 538 m 7 Y s 646 538 m 7 Y s 701 538 m 7 Y s 756 538 m 7 Y s 810 531 m 14 Y s 865 538 m 7 Y s 920 538 m 7 Y s 975
 538 m 7 Y s 1029 538 m 7 Y s 1084 531 m 14 Y s 1139 538 m 7 Y s 1193 538 m 7 Y s 1248 538 m 7 Y s 1303 538 m 7 Y s 1358 531 m 14 Y s 1412 538 m 7 Y s 1467 538 m 7 Y s 1522 538 m 7 Y s 1576 538 m 7 Y s 1631 531 m 14 Y s 1686 538 m 7 Y s 1741 538 m 7
 Y s 1795 538 m 7 Y s 1850 538 m 7 Y s 1905 531 m 14 Y s 1959 538 m 7 Y s 2014 538 m 7 Y s 2069 538 m 7 Y s 2124 538 m 7 Y s 2178 531 m 14 Y s 537 531 m 14 Y s 482 538 m 7 Y s 427 538 m 7 Y s 373 538 m 7 Y s 318 538 m 7 Y s 318 187 m 358 Y s
 gsave  2254 561 2 2 C 166.096 284.736 t 90 r /Helvetica findfont 67.9729 sf 0 0 m (Data/SM) show NC gr  361 203 m -43 X s 339 220 m -21 X s 339 236 m -21 X s 339 252 m -21 X s 339 268 m -21 X s 361 285 m -43 X s 339 301 m -21 X s 339 317 m -21 X s
 339 334 m -21 X s 339 350 m -21 X s 361 366 m -43 X s 339 382 m -21 X s 339 399 m -21 X s 339 415 m -21 X s 339 431 m -21 X s 361 447 m -43 X s 339 464 m -21 X s 339 480 m -21 X s 339 496 m -21 X s 339 512 m -21 X s 361 529 m -43 X s 361 203 m -43 X
 s 339 187 m -21 X s 361 529 m -43 X s
 gsave  2254 561 2 2 C 261.008 183.044 t 0 r /Helvetica findfont 57.777 sf 0 0 m (0) show NC gr 
 gsave  2254 561 2 2 C 213.552 261.008 t 0 r /Helvetica findfont 57.777 sf 0 0 m (0.5) show NC gr 
 gsave  2254 561 2 2 C 271.177 342.361 t 0 r /Helvetica findfont 57.777 sf 0 0 m (1) show NC gr 
 gsave  2254 561 2 2 C 213.552 423.714 t 0 r /Helvetica findfont 57.777 sf 0 0 m (1.5) show NC gr 
 gsave  2254 561 2 2 C 261.008 505.067 t 0 r /Helvetica findfont 57.777 sf 0 0 m (2) show NC gr  2178 187 m 358 Y s 2135 203 m 43 X s 2157 220 m 21 X s 2157 236 m 21 X s 2157 252 m 21 X s 2157 268 m 21 X s 2135 285 m 43 X s 2157 301 m 21 X s 2157 317
 m 21 X s 2157 334 m 21 X s 2157 350 m 21 X s 2135 366 m 43 X s 2157 382 m 21 X s 2157 399 m 21 X s 2157 415 m 21 X s 2157 431 m 21 X s 2135 447 m 43 X s 2157 464 m 21 X s 2157 480 m 21 X s 2157 496 m 21 X s 2157 512 m 21 X s 2135 529 m 43 X s 2135
 203 m 43 X s 2157 187 m 21 X s 2135 529 m 43 X s 9 lw 701 403 m s 701 403 m cl s 701 375 m s 701 375 m cl s 810 383 m 2 Y s 810 385 m cl s 810 356 m -1 Y s 810 355 m cl s 920 342 m 2 Y s 920 344 m cl s 920 315 m -2 Y s 920 313 m cl s 1029 337 m 9 Y
 s 1029 346 m cl s 1029 309 m -8 Y s 1029 301 m cl s 1139 368 m 26 Y s 1139 394 m cl s 1139 341 m -25 Y s 1139 316 m cl s 1248 530 m 15 Y s 1248 545 m cl s 1248 503 m -75 Y s 1248 428 m cl s 1358 354 m 73 Y s 1358 427 m cl s 1358 327 m -61 Y s 1358
 266 m cl s 1467 477 m 68 Y s 1467 545 m cl s 1467 450 m -128 Y s 1467 322 m cl s 3 lw 373 335 482 359 591 375 701 389 810 370 920 329 1029 323 1139 354 1248 516 1358 340 1467 464 11 { m20} R 9 lw 1 0 0 c 6 lw black 3 lw 1 0 0 c 2178 227 m -24 -24 d
 s 2178 255 m -52 -52 d s 2178 284 m -81 -81 d s 2178 312 m -109 -109 d s 2178 341 m -112 -112 d s 2178 369 m -141 -140 d s 2178 398 m -169 -169 d s 2178 427 m -198 -198 d s 2178 455 m -219 -218 d s 2178 484 m -219 -218 d s 2178 512 m -221 -220 d s
 2167 529 m -238 -237 d s 2138 529 m -238 -237 d s 2109 529 m -238 -237 d s 2081 529 m -12 -11 d s 2054 503 m -204 -204 d s 2025 503 m -204 -204 d s 1997 503 m -38 -37 d s 1933 440 m -140 -141 d s 1968 503 m -9 -9 d s 1905 440 m -141 -141 d s 1876
 440 m -135 -135 d s 1840 433 m -103 -103 d s 1811 433 m -103 -103 d s 1783 433 m -103 -103 d s 1631 282 m -12 -12 d s 1754 433 m -13 -14 d s 1723 402 m -72 -72 d s 1631 310 m -40 -40 d s 1695 402 m -133 -132 d s 1666 402 m -133 -132 d s 1637 402 m
 -115 -115 d s 1631 425 m -116 -116 d s 1631 453 m -145 -144 d s 1612 462 m -154 -153 d s 1583 462 m -154 -153 d s 1554 462 m -32 -32 d s 1515 423 m -123 -122 d s 1526 462 m -4 -4 d s 1486 423 m -122 -122 d s 1458 423 m -123 -122 d s 1429 423 m -123
 -122 d s 1408 431 m -105 -105 d s 1380 431 m -88 -87 d s 1351 431 m -88 -87 d s 1322 431 m -19 -19 d s 1279 388 m -45 -44 d s 1251 388 m -45 -44 d s 1222 388 m -41 -40 d s 1189 384 m -37 -36 d s 1160 384 m -36 -36 d s 1132 384 m -37 -36 d s 1103 384
 m -28 -28 d s 1066 376 m -20 -20 d s 1037 376 m -19 -20 d s 1008 376 m -19 -20 d s 980 376 m -19 -19 d s 950 375 m -18 -18 d s 922 375 m -18 -18 d s 893 375 m -18 -18 d s 863 374 m -16 -16 d s 834 374 m -15 -16 d s 806 374 m -16 -16 d s 777 374 m
 -16 -16 d s 748 374 m -16 -16 d s 720 374 m -16 -16 d s 691 374 m -16 -16 d s 662 374 m -16 -16 d s 633 374 m -15 -16 d s 605 374 m -16 -16 d s 576 374 m -15 -16 d s 547 374 m -15 -15 d s 518 373 m -14 -14 d s 489 373 m -14 -14 d s 461 373 m -15 -14
 d s 318 231 m s 432 373 m -14 -14 d s 318 259 m s 403 373 m -14 -14 d s 318 288 m s 374 373 m -13 -14 d s 318 317 m s 346 373 m -14 -14 d s 318 345 m s 6 lw 0 0 1 c 9 lw 1576 496 m 30 Y s 3 lw 1565 526 m 11 19 d 11 -19 d f 9 lw 1565 526 m 11 19 d 11
 -19 d -22 X cl s black[ 4 8] 0 sd 3 lw 318 447 m 1860 X s 318 285 m 1860 X s 1 0 0 c[  12 12 ] 0 sd 6 lw 318 366 m 1860 X s
 gr  gr showpage
end
%%EOF
