%!PS-Adobe-2.0 EPSF-2.0
%%BoundingBox:  0 0 567 521
%%Title: Distributions/metsqrtmeffInc_met_distrSR_MB-SSd_beforeFit_forThesis.eps: canvas
%%Creator: ROOT Version 6.04/16
%%CreationDate: Tue May 19 22:06:47 2020
%%DocumentNeededResources: ProcSet (FontSetInit)
%%EndComments
%%BeginProlog
80 dict begin
/s {stroke} def /l {lineto} def /m {moveto} def /t {translate} def
/r {rotate} def /rl {roll}  def /R {repeat} def
/d {rlineto} def /rm {rmoveto} def /gr {grestore} def /f {eofill} def
/c {setrgbcolor} def /black {0 setgray} def /sd {setdash} def
/cl {closepath} def /sf {scalefont setfont} def /lw {setlinewidth} def
/box {m dup 0 exch d exch 0 d 0 exch neg d cl} def
/NC{systemdict begin initclip end}def/C{NC box clip newpath}def
/bl {box s} def /bf {gsave box gsave f grestore 1 lw [] 0 sd s grestore} def /Y { 0 exch d} def /X { 0 d} def 
/K {{pop pop 0 moveto} exch kshow} bind def
/ita {/ang 15 def gsave [1 0 ang dup sin exch cos div 1 0 0] concat} def 
/mp {newpath /y exch def /x exch def} def
/side {[w .77 mul w .23 mul] .385 w mul sd w 0 l currentpoint t -144 r} def
/mr {mp x y w2 0 360 arc} def /m24 {mr s} def /m20 {mr f} def
/mb {mp x y w2 add m w2 neg 0 d 0 w neg d w 0 d 0 w d cl} def
/mt {mp x y w2 add m w2 neg w neg d w 0 d cl} def
/m21 {mb f} def /m25 {mb s} def /m22 {mt f} def /m26{mt s} def
/m23 {mp x y w2 sub m w2 w d w neg 0 d cl f} def
/m27 {mp x y w2 add m w3 neg w2 neg d w3 w2 neg d w3 w2 d cl s} def
/m28 {mp x w2 sub y w2 sub w3 add m w3 0 d  0 w3 neg d w3 0 d 0 w3 d w3 0 d  0 w3 d w3 neg 0 d 0 w3 d w3 neg 0 d 0 w3 neg d w3 neg 0 d cl s } def
/m29 {mp gsave x w2 sub y w2 add w3 sub m currentpoint t 4 {side} repeat cl fill gr} def
/m30 {mp gsave x w2 sub y w2 add w3 sub m currentpoint t 4 {side} repeat cl s gr} def
/m31 {mp x y w2 sub m 0 w d x w2 sub y m w 0 d x w2 sub y w2 add m w w neg d x w2 sub y w2 sub m w w d s} def
/m32 {mp x y w2 sub m w2 w d w neg 0 d cl s} def
/m33 {mp x y w2 add m w3 neg w2 neg d w3 w2 neg d w3 w2 d cl f} def
/m34 {mp x w2 sub y w2 sub w3 add m w3 0 d  0 w3 neg d w3 0 d 0 w3 d w3 0 d  0 w3 d w3 neg 0 d 0 w3 d w3 neg 0 d 0 w3 neg d w3 neg 0 d cl f } def
/m2 {mp x y w2 sub m 0 w d x w2 sub y m w 0 d s} def
/m5 {mp x w2 sub y w2 sub m w w d x w2 sub y w2 add m w w neg d s} def
%%IncludeResource: ProcSet (FontSetInit)
%%IncludeResource: font Times-Roman
%%IncludeResource: font Times-Italic
%%IncludeResource: font Times-Bold
%%IncludeResource: font Times-BoldItalic
%%IncludeResource: font Helvetica
%%IncludeResource: font Helvetica-Oblique
%%IncludeResource: font Helvetica-Bold
%%IncludeResource: font Helvetica-BoldOblique
%%IncludeResource: font Courier
%%IncludeResource: font Courier-Oblique
%%IncludeResource: font Courier-Bold
%%IncludeResource: font Courier-BoldOblique
%%IncludeResource: font Symbol
%%IncludeResource: font ZapfDingbats
/reEncode {exch findfont dup length dict begin {1 index /FID eq  {pop pop} {def} ifelse } forall /Encoding exch def currentdict end dup /FontName get exch definefont pop } def [/Times-Bold /Times-Italic /Times-BoldItalic /Helvetica /Helvetica-Oblique
 /Helvetica-Bold /Helvetica-BoldOblique /Courier /Courier-Oblique /Courier-Bold /Courier-BoldOblique /Times-Roman /AvantGarde-Book /AvantGarde-BookOblique /AvantGarde-Demi /AvantGarde-DemiOblique /Bookman-Demi /Bookman-DemiItalic /Bookman-Light
 /Bookman-LightItalic /Helvetica-Narrow /Helvetica-Narrow-Bold /Helvetica-Narrow-BoldOblique /Helvetica-Narrow-Oblique /NewCenturySchlbk-Roman /NewCenturySchlbk-Bold /NewCenturySchlbk-BoldItalic /NewCenturySchlbk-Italic /Palatino-Bold
 /Palatino-BoldItalic /Palatino-Italic /Palatino-Roman ] {ISOLatin1Encoding reEncode } forall
%%EndProlog
%%BeginSetup
%%EndSetup
newpath  gsave  .25 .25 scale  gsave  0 0 t black[  ] 0 sd 3 lw 1 1 1 c 2268 2085 0 0 bf black 1 1 1 c 2263 1770 2 313 bf black 1 1 1 c black 1860 1145 319 584 bl 1 1 1 c black 1860 1145 319 584 bl 6 lw 1 1 1 c black 3 lw /w 33 def /w2 {w 2 div} def
 /w3 {w 3 div} def 366 1247 m20 6 lw 3 lw 459 1243 m20 6 lw 3 lw 552 1226 m20 6 lw 3 lw 645 1210 m20 6 lw 3 lw 738 1191 m20 6 lw 3 lw 831 1181 m20 6 lw 3 lw 924 1160 m20 6 lw 3 lw 1017 1138 m20 6 lw 3 lw 1110 1102 m20 6 lw 3 lw 1203 1060 m20 6 lw 3
 lw 1296 1025 m20 6 lw 3 lw 1389 970 m20 6 lw 3 lw 1482 932 m20 6 lw 1575 845 m 8 Y s 1575 880 m 2 Y s 3 lw 1575 866 m20 6 lw 1668 764 m 28 Y s 1668 819 m 11 Y s 3 lw 1668 806 m20 6 lw 1761 764 m 28 Y s 1761 819 m 11 Y s 3 lw 1761 806 m20 6 lw 1947
 584 m 125 Y s 1947 736 m 28 Y s 3 lw 1947 722 m20 6 lw 2133 584 m 125 Y s 2133 736 m 28 Y s 3 lw 2133 722 m20 6 lw 3 lw 319 584 m 1860 X s
 gsave  2263 1770 2 313 C 2101.62 396.596 t 0 r /Helvetica findfont 54.2494 sf 0 0 m (1/2) show NC gr 
 gsave  2263 1770 2 313 C 1874.51 355.92 t 0 r /Helvetica findfont 81.3741 sf 0 0 m ( [GeV]) show NC gr 
 gsave  2263 1770 2 313 C 1840.61 332.192 t 0 r /Helvetica findfont 54.2494 sf 0 0 m (T) show NC gr 
 gsave  2263 1770 2 313 C 1786.38 355.92 t 0 r /Helvetica findfont 81.3741 sf 0 0 m (H) show NC gr  6 lw 1749 417 m 14 -85 d s 3 lw 1763 332 m 13 105 d s 1776 437 m 99 X s
 gsave  2263 1770 2 313 C 1711.8 355.92 t 0 r /Helvetica findfont 81.3741 sf 0 0 m (/) show NC gr 
 gsave  2263 1770 2 313 C 1599.94 396.596 t 0 r /Helvetica findfont 54.2494 sf 0 0 m (miss) show NC gr 
 gsave  2263 1770 2 313 C 1599.94 332.192 t 0 r /Helvetica findfont 54.2494 sf 0 0 m (T) show NC gr 
 gsave  2263 1770 2 313 C 1549.1 355.92 t 0 r /Helvetica findfont 81.3741 sf 0 0 m (E) show NC gr  319 584 m cl s 366 584 m cl s 412 584 m cl s 459 584 m cl s 505 584 m cl s 552 584 m cl s 598 584 m cl s 645 584 m cl s 691 584 m cl s 738 584 m cl s
 784 584 m cl s 831 584 m cl s 877 584 m cl s 924 584 m cl s 970 584 m cl s 1017 584 m cl s 1063 584 m cl s 1110 584 m cl s 1156 584 m cl s 1203 584 m cl s 1249 584 m cl s 1296 584 m cl s 1342 584 m cl s 1389 584 m cl s 1435 584 m cl s 1482 584 m cl
 s 1528 584 m cl s 1575 584 m cl s 1621 584 m cl s 1668 584 m cl s 1714 584 m cl s 1761 584 m cl s 1807 584 m cl s 1854 584 m cl s 1900 584 m cl s 1947 584 m cl s 1993 584 m cl s 2040 584 m cl s 2086 584 m cl s 2133 584 m cl s 2179 584 m cl s 319
 1729 m 1860 X s 319 1729 m cl s 366 1729 m cl s 412 1729 m cl s 459 1729 m cl s 505 1729 m cl s 552 1729 m cl s 598 1729 m cl s 645 1729 m cl s 691 1729 m cl s 738 1729 m cl s 784 1729 m cl s 831 1729 m cl s 877 1729 m cl s 924 1729 m cl s 970 1729
 m cl s 1017 1729 m cl s 1063 1729 m cl s 1110 1729 m cl s 1156 1729 m cl s 1203 1729 m cl s 1249 1729 m cl s 1296 1729 m cl s 1342 1729 m cl s 1389 1729 m cl s 1435 1729 m cl s 1482 1729 m cl s 1528 1729 m cl s 1575 1729 m cl s 1621 1729 m cl s 1668
 1729 m cl s 1714 1729 m cl s 1761 1729 m cl s 1807 1729 m cl s 1854 1729 m cl s 1900 1729 m cl s 1947 1729 m cl s 1993 1729 m cl s 2040 1729 m cl s 2086 1729 m cl s 2133 1729 m cl s 2179 1729 m cl s 319 584 m 1145 Y s
 gsave  2263 1770 2 313 C 125.419 1654.18 t 90 r /Helvetica findfont 54.2494 sf 0 0 m (1/2) show NC gr 
 gsave  2263 1770 2 313 C 166.096 1064.37 t 90 r /Helvetica findfont 81.3741 sf 0 0 m (Events / 2 [GeV]) show NC gr  341 626 m -22 X s 341 650 m -22 X s 341 667 m -22 X s 341 681 m -22 X s 341 692 m -22 X s 341 701 m -22 X s 341 709 m -22 X s 341 716
 m -22 X s 363 722 m -44 X s
 gsave  2263 1770 2 313 C 300.555 695.36 t 0 r  -36 0 t /Helvetica findfont 64.4212 sf 0 0 m (1) show NC gr  341 764 m -22 X s 341 788 m -22 X s 341 806 m -22 X s 341 819 m -22 X s 341 830 m -22 X s 341 839 m -22 X s 341 847 m -22 X s 341 854 m -22 X
 s 363 861 m -44 X s
 gsave  2263 1770 2 313 C 300.555 833.528 t 0 r  -73 0 t /Helvetica findfont 64.4212 sf 0 0 m (10) show NC gr  341 902 m -22 X s 341 927 m -22 X s 341 944 m -22 X s 341 957 m -22 X s 341 968 m -22 X s 341 977 m -22 X s 341 985 m -22 X s 341 992 m -22
 X s 363 999 m -44 X s
 gsave  2263 1770 2 313 C 274.567 996.575 t 0 r /Helvetica findfont 44.0776 sf 0 0 m (2) show NC gr 
 gsave  2263 1770 2 313 C 203.383 969.457 t 0 r /Helvetica findfont 64.4212 sf 0 0 m (10) show NC gr  341 1040 m -22 X s 341 1065 m -22 X s 341 1082 m -22 X s 341 1095 m -22 X s 341 1106 m -22 X s 341 1116 m -22 X s 341 1124 m -22 X s 341 1131 m -22
 X s 363 1137 m -44 X s
 gsave  2263 1770 2 313 C 274.567 1138.94 t 0 r /Helvetica findfont 44.0776 sf 0 0 m (3) show NC gr 
 gsave  2263 1770 2 313 C 203.383 1108.44 t 0 r /Helvetica findfont 64.4212 sf 0 0 m (10) show NC gr  341 1179 m -22 X s 341 1203 m -22 X s 341 1220 m -22 X s 341 1234 m -22 X s 341 1244 m -22 X s 341 1254 m -22 X s 341 1262 m -22 X s 341 1269 m -22
 X s 363 1275 m -44 X s
 gsave  2263 1770 2 313 C 274.567 1274.53 t 0 r /Helvetica findfont 44.0776 sf 0 0 m (4) show NC gr 
 gsave  2263 1770 2 313 C 203.383 1247.41 t 0 r /Helvetica findfont 64.4212 sf 0 0 m (10) show NC gr  341 1317 m -22 X s 341 1341 m -22 X s 341 1358 m -22 X s 341 1372 m -22 X s 341 1383 m -22 X s 341 1392 m -22 X s 341 1400 m -22 X s 341 1407 m -22
 X s 363 1413 m -44 X s
 gsave  2263 1770 2 313 C 274.567 1413.51 t 0 r /Helvetica findfont 44.0776 sf 0 0 m (5) show NC gr 
 gsave  2263 1770 2 313 C 203.383 1383 t 0 r /Helvetica findfont 64.4212 sf 0 0 m (10) show NC gr  341 1455 m -22 X s 341 1479 m -22 X s 341 1497 m -22 X s 341 1510 m -22 X s 341 1521 m -22 X s 341 1530 m -22 X s 341 1538 m -22 X s 341 1545 m -22 X s
 363 1551 m -44 X s
 gsave  2263 1770 2 313 C 274.567 1552.49 t 0 r /Helvetica findfont 44.0776 sf 0 0 m (6) show NC gr 
 gsave  2263 1770 2 313 C 203.383 1521.98 t 0 r /Helvetica findfont 64.4212 sf 0 0 m (10) show NC gr  341 1593 m -22 X s 341 1617 m -22 X s 341 1635 m -22 X s 341 1648 m -22 X s 341 1659 m -22 X s 341 1668 m -22 X s 341 1676 m -22 X s 341 1683 m -22
 X s 363 1690 m -44 X s
 gsave  2263 1770 2 313 C 274.567 1688.08 t 0 r /Helvetica findfont 44.0776 sf 0 0 m (7) show NC gr 
 gsave  2263 1770 2 313 C 203.383 1660.96 t 0 r /Helvetica findfont 64.4212 sf 0 0 m (10) show NC gr  2179 584 m 1145 Y s 2157 626 m 22 X s 2157 650 m 22 X s 2157 667 m 22 X s 2157 681 m 22 X s 2157 692 m 22 X s 2157 701 m 22 X s 2157 709 m 22 X s
 2157 716 m 22 X s 2136 722 m 43 X s 2157 764 m 22 X s 2157 788 m 22 X s 2157 806 m 22 X s 2157 819 m 22 X s 2157 830 m 22 X s 2157 839 m 22 X s 2157 847 m 22 X s 2157 854 m 22 X s 2136 861 m 43 X s 2157 902 m 22 X s 2157 927 m 22 X s 2157 944 m 22 X
 s 2157 957 m 22 X s 2157 968 m 22 X s 2157 977 m 22 X s 2157 985 m 22 X s 2157 992 m 22 X s 2136 999 m 43 X s 2157 1040 m 22 X s 2157 1065 m 22 X s 2157 1082 m 22 X s 2157 1095 m 22 X s 2157 1106 m 22 X s 2157 1116 m 22 X s 2157 1124 m 22 X s 2157
 1131 m 22 X s 2136 1137 m 43 X s 2157 1179 m 22 X s 2157 1203 m 22 X s 2157 1220 m 22 X s 2157 1234 m 22 X s 2157 1244 m 22 X s 2157 1254 m 22 X s 2157 1262 m 22 X s 2157 1269 m 22 X s 2136 1275 m 43 X s 2157 1317 m 22 X s 2157 1341 m 22 X s 2157
 1358 m 22 X s 2157 1372 m 22 X s 2157 1383 m 22 X s 2157 1392 m 22 X s 2157 1400 m 22 X s 2157 1407 m 22 X s 2136 1413 m 43 X s 2157 1455 m 22 X s 2157 1479 m 22 X s 2157 1497 m 22 X s 2157 1510 m 22 X s 2157 1521 m 22 X s 2157 1530 m 22 X s 2157
 1538 m 22 X s 2157 1545 m 22 X s 2136 1551 m 43 X s 2157 1593 m 22 X s 2157 1617 m 22 X s 2157 1635 m 22 X s 2157 1648 m 22 X s 2157 1659 m 22 X s 2157 1668 m 22 X s 2157 1676 m 22 X s 2157 1683 m 22 X s 2136 1690 m 43 X s 0.4 0.6 1 c black 0.4 0.6
 1 c 319 584 m 664 Y 93 X -3 Y 93 X -18 Y 93 X -15 Y 93 X -17 Y 93 X -16 Y 93 X -19 Y 93 X -25 Y 93 X -34 Y 93 X -39 Y 93 X -43 Y 93 X -43 Y 93 X -46 Y 93 X -46 Y 93 X -35 Y 93 X -71 Y 93 X -52 Y 93 X -21 Y 93 X -100 Y 93 X 19 Y 93 X -40 Y f black
 0.4 0.6 1 c black 319 1248 m 93 X -3 Y 93 X -18 Y 93 X -15 Y 93 X -17 Y 93 X -16 Y 93 X -19 Y 93 X -25 Y 93 X -34 Y 93 X -39 Y 93 X -43 Y 93 X -43 Y 93 X -46 Y 93 X -46 Y 93 X -35 Y 93 X -71 Y 93 X -52 Y 93 X -21 Y 93 X -100 Y 93 X 19 Y 93 X s 0.999
 0.999 0.999 c black 0.999 0.999 0.999 c 319 584 m 642 Y 93 X -3 Y 93 X -16 Y 93 X -14 Y 93 X -15 Y 93 X -16 Y 93 X -18 Y 93 X -24 Y 93 X -32 Y 93 X -38 Y 93 X -44 Y 93 X -42 Y 93 X -43 Y 93 X -45 Y 93 X -34 Y 93 X -72 Y 93 X -67 Y 93 X -50 Y 93 X
 -69 Y 93 X 37 Y 93 X -37 Y f black 0.999 0.999 0.999 c black 319 1226 m 93 X -3 Y 93 X -16 Y 93 X -14 Y 93 X -15 Y 93 X -16 Y 93 X -18 Y 93 X -24 Y 93 X -32 Y 93 X -38 Y 93 X -44 Y 93 X -42 Y 93 X -43 Y 93 X -45 Y 93 X -34 Y 93 X -72 Y 93 X -67 Y 93
 X -50 Y 93 X -69 Y 93 X 37 Y 93 X s 1 1 1 c black 319 1226 m 93 X -3 Y 93 X -16 Y 93 X -14 Y 93 X -15 Y 93 X -16 Y 93 X -18 Y 93 X -24 Y 93 X -32 Y 93 X -38 Y 93 X -44 Y 93 X -42 Y 93 X -43 Y 93 X -45 Y 93 X -34 Y 93 X -72 Y 93 X -67 Y 93 X -50 Y 93
 X -69 Y 93 X 37 Y 93 X s 0.6 1 0.6 c black 0.6 1 0.6 c 319 584 m 642 Y 93 X -3 Y 93 X -16 Y 93 X -14 Y 93 X -15 Y 93 X -16 Y 93 X -18 Y 93 X -24 Y 93 X -32 Y 93 X -38 Y 93 X -44 Y 93 X -42 Y 93 X -43 Y 93 X -45 Y 93 X -34 Y 93 X -72 Y 93 X -67 Y 93
 X -50 Y 93 X -69 Y 93 X 37 Y 93 X -37 Y f black 0.6 1 0.6 c black 319 1226 m 93 X -3 Y 93 X -16 Y 93 X -14 Y 93 X -15 Y 93 X -16 Y 93 X -18 Y 93 X -24 Y 93 X -32 Y 93 X -38 Y 93 X -44 Y 93 X -42 Y 93 X -43 Y 93 X -45 Y 93 X -34 Y 93 X -72 Y 93 X -67
 Y 93 X -50 Y 93 X -69 Y 93 X 37 Y 93 X s 0.999 0.999 0.999 c black 0.999 0.999 0.999 c 319 584 m 630 Y 93 X -1 Y 93 X -16 Y 93 X -13 Y 93 X -14 Y 93 X -14 Y 93 X -16 Y 93 X -22 Y 93 X -32 Y 93 X -38 Y 93 X -44 Y 93 X -41 Y 93 X -45 Y 93 X -42 Y 93 X
 -37 Y 93 X -69 Y 93 X -67 Y 93 X -50 Y 93 X -69 Y 93 X 37 Y 93 X -37 Y f black 0.999 0.999 0.999 c black 319 1214 m 93 X -1 Y 93 X -16 Y 93 X -13 Y 93 X -14 Y 93 X -14 Y 93 X -16 Y 93 X -22 Y 93 X -32 Y 93 X -38 Y 93 X -44 Y 93 X -41 Y 93 X -45 Y 93
 X -42 Y 93 X -37 Y 93 X -69 Y 93 X -67 Y 93 X -50 Y 93 X -69 Y 93 X 37 Y 93 X s 1 1 1 c black 319 1214 m 93 X -1 Y 93 X -16 Y 93 X -13 Y 93 X -14 Y 93 X -14 Y 93 X -16 Y 93 X -22 Y 93 X -32 Y 93 X -38 Y 93 X -44 Y 93 X -41 Y 93 X -45 Y 93 X -42 Y 93
 X -37 Y 93 X -69 Y 93 X -67 Y 93 X -50 Y 93 X -69 Y 93 X 37 Y 93 X s 1 0.8 0.4 c black 1 0.8 0.4 c 319 584 m 630 Y 93 X -1 Y 93 X -16 Y 93 X -13 Y 93 X -14 Y 93 X -14 Y 93 X -16 Y 93 X -22 Y 93 X -32 Y 93 X -38 Y 93 X -44 Y 93 X -41 Y 93 X -45 Y 93
 X -42 Y 93 X -37 Y 93 X -69 Y 93 X -67 Y 93 X -50 Y 93 X -69 Y 93 X 37 Y 93 X -37 Y f black 1 0.8 0.4 c black 319 1214 m 93 X -1 Y 93 X -16 Y 93 X -13 Y 93 X -14 Y 93 X -14 Y 93 X -16 Y 93 X -22 Y 93 X -32 Y 93 X -38 Y 93 X -44 Y 93 X -41 Y 93 X -45
 Y 93 X -42 Y 93 X -37 Y 93 X -69 Y 93 X -67 Y 93 X -50 Y 93 X -69 Y 93 X 37 Y 93 X s 0.999 0.999 0.999 c black 0.999 0.999 0.999 c 319 584 m 478 Y 93 X -3 Y 93 X -13 Y 93 X -9 Y 93 X -15 Y 93 X -19 Y 93 X -13 Y 93 X -28 Y 93 X -30 Y 93 X -34 Y 93 X
 -45 Y 93 X -40 Y 93 X -27 Y 93 X -51 Y 93 X -54 Y 93 X -97 Y 372 X 18 Y 93 X -18 Y f black 0.999 0.999 0.999 c black 319 1062 m 93 X -3 Y 93 X -13 Y 93 X -9 Y 93 X -15 Y 93 X -19 Y 93 X -13 Y 93 X -28 Y 93 X -30 Y 93 X -34 Y 93 X -45 Y 93 X -40 Y 93
 X -27 Y 93 X -51 Y 93 X -54 Y 93 X -97 Y 372 X 18 Y 93 X s 1 1 1 c black 319 1062 m 93 X -3 Y 93 X -13 Y 93 X -9 Y 93 X -15 Y 93 X -19 Y 93 X -13 Y 93 X -28 Y 93 X -30 Y 93 X -34 Y 93 X -45 Y 93 X -40 Y 93 X -27 Y 93 X -51 Y 93 X -54 Y 93 X -97 Y
 372 X 18 Y 93 X s 1 0.4 0.6 c black 1 0.4 0.6 c 319 584 m 478 Y 93 X -3 Y 93 X -13 Y 93 X -9 Y 93 X -15 Y 93 X -19 Y 93 X -13 Y 93 X -28 Y 93 X -30 Y 93 X -34 Y 93 X -45 Y 93 X -40 Y 93 X -27 Y 93 X -51 Y 93 X -54 Y 93 X -97 Y 372 X 18 Y 93 X -18 Y
 f black 1 0.4 0.6 c black 319 1062 m 93 X -3 Y 93 X -13 Y 93 X -9 Y 93 X -15 Y 93 X -19 Y 93 X -13 Y 93 X -28 Y 93 X -30 Y 93 X -34 Y 93 X -45 Y 93 X -40 Y 93 X -27 Y 93 X -51 Y 93 X -54 Y 93 X -97 Y 372 X 18 Y 93 X s 0.999 0.999 0.999 c black 0.999
 0.999 0.999 c 319 584 m 328 Y 93 X -48 Y 93 X -60 Y 93 X -23 Y 93 X -34 Y 93 X -37 Y 93 X -48 Y 93 X -58 Y 93 X -20 Y 1116 X f black 0.999 0.999 0.999 c black 319 912 m 93 X -48 Y 93 X -60 Y 93 X -23 Y 93 X -34 Y 93 X -37 Y 93 X -48 Y 93 X -58 Y 93
 X -20 Y 1116 X s 1 1 1 c black 319 912 m 93 X -48 Y 93 X -60 Y 93 X -23 Y 93 X -34 Y 93 X -37 Y 93 X -48 Y 93 X -58 Y 93 X -20 Y 1116 X s 0 0 0.4 c black 0 0 0.4 c 319 584 m 328 Y 93 X -48 Y 93 X -60 Y 93 X -23 Y 93 X -34 Y 93 X -37 Y 93 X -48 Y 93
 X -58 Y 93 X -20 Y 1116 X f black 0 0 0.4 c black 319 912 m 93 X -48 Y 93 X -60 Y 93 X -23 Y 93 X -34 Y 93 X -37 Y 93 X -48 Y 93 X -58 Y 93 X -20 Y 1116 X s 1 0 0 c 6 lw 1 1 1 c black 1 0 0 c 319 1248 m 93 X -3 Y 93 X -18 Y 93 X -15 Y 93 X -17 Y 93
 X -16 Y 93 X -19 Y 93 X -25 Y 93 X -34 Y 93 X -39 Y 93 X -43 Y 93 X -43 Y 93 X -46 Y 93 X -46 Y 93 X -35 Y 93 X -71 Y 93 X -52 Y 93 X -21 Y 93 X -100 Y 93 X 19 Y 93 X s black 3 lw 1 0 0 c 1 lw << /PatternType 1 /PaintType 2 /TilingType 1 /BBox [ 0 0
 100 100 ] /XStep 100 /YStep 100 /PaintProc { begin gsave 0 100 m 100 0 l s gr end } >> [ 0.24 0 0 0.24 0 0 ] makepattern /P05 exch def /cs {[/Pattern /DeviceRGB] setcolorspace} def /FA {f [/DeviceRGB] setcolorspace} def cs 1 0 0 P05 setcolor 319 584
 m 667 Y 93 X -3 Y 93 X -18 Y 93 X -15 Y 93 X -16 Y 93 X -16 Y 93 X -20 Y 93 X -25 Y 93 X -34 Y 93 X -39 Y 93 X -43 Y 93 X -43 Y 93 X -44 Y 93 X -45 Y 93 X -32 Y 93 X -72 Y 93 X -51 Y 93 X -9 Y 93 X -102 Y 93 X 28 Y 93 X -68 Y -186 X 86 Y -93 X 45 Y
 -93 X 53 Y -93 X 71 Y -93 X 39 Y -93 X 47 Y -93 X 47 Y -93 X 44 Y -93 X 43 Y -93 X 39 Y -93 X 34 Y -93 X 25 Y -93 X 19 Y -93 X 16 Y -93 X 16 Y -93 X 16 Y -93 X 17 Y -93 X 4 Y -93 X -661 Y FA 6 lw 1 1 1 c 15 lw 1575 846 m -1 Y s 1575 845 m cl s 1668
 826 m 5 Y s 1668 831 m cl s 1668 785 m -18 Y s 1668 767 m cl s 1761 826 m 5 Y s 1761 831 m cl s 1761 785 m -18 Y s 1761 767 m cl s 1947 743 m 29 Y s 1947 772 m cl s 1947 702 m -84 Y s 1947 618 m cl s 2133 743 m 29 Y s 2133 772 m cl s 2133 702 m -84
 Y s 2133 618 m cl s black 1 1 1 c 3 lw /w 43 def /w2 {w 2 div} def /w3 {w 3 div} def 366 1247 459 1243 552 1226 645 1210 738 1191 831 1181 924 1160 1017 1138 1110 1102 1203 1060 1296 1025 1389 970 1482 932 1575 866 1668 806 1761 806 16 { m20} R 15
 lw 3 lw 1947 722 m20 15 lw 3 lw 2133 722 m20 15 lw black 6 lw 1 1 1 c black 3 lw /w 33 def /w2 {w 2 div} def /w3 {w 3 div} def 366 1247 m20 6 lw 3 lw 459 1243 m20 6 lw 3 lw 552 1226 m20 6 lw 3 lw 645 1210 m20 6 lw 3 lw 738 1191 m20 6 lw 3 lw 831
 1181 m20 6 lw 3 lw 924 1160 m20 6 lw 3 lw 1017 1138 m20 6 lw 3 lw 1110 1102 m20 6 lw 3 lw 1203 1060 m20 6 lw 3 lw 1296 1025 m20 6 lw 3 lw 1389 970 m20 6 lw 3 lw 1482 932 m20 6 lw 1575 845 m 8 Y s 1575 880 m 2 Y s 3 lw 1575 866 m20 6 lw 1668 764 m 28
 Y s 1668 819 m 11 Y s 3 lw 1668 806 m20 6 lw 1761 764 m 28 Y s 1761 819 m 11 Y s 3 lw 1761 806 m20 6 lw 1947 584 m 125 Y s 1947 736 m 28 Y s 3 lw 1947 722 m20 6 lw 2133 584 m 125 Y s 2133 736 m 28 Y s 3 lw 2133 722 m20 6 lw 1575 880 m 2 Y s 1575 882
 m cl s 1575 853 m -8 Y s 1575 845 m cl s 1668 819 m 12 Y s 1668 831 m cl s 1668 792 m -25 Y s 1668 767 m cl s 1761 819 m 12 Y s 1761 831 m cl s 1761 792 m -25 Y s 1761 767 m cl s 1947 736 m 36 Y s 1947 772 m cl s 1947 709 m -91 Y s 1947 618 m cl s
 2133 736 m 36 Y s 2133 772 m cl s 2133 709 m -91 Y s 2133 618 m cl s 3 lw 366 1247 459 1243 552 1226 645 1210 738 1191 831 1181 924 1160 1017 1138 1110 1102 1203 1060 1296 1025 1389 970 1482 932 1575 866 1668 806 1761 806 16 { m20} R 6 lw 3 lw 1947
 722 m20 6 lw 3 lw 2133 722 m20 6 lw 3 lw 319 584 m 1860 X s 319 584 m cl s 366 584 m cl s 412 584 m cl s 459 584 m cl s 505 584 m cl s 552 584 m cl s 598 584 m cl s 645 584 m cl s 691 584 m cl s 738 584 m cl s 784 584 m cl s 831 584 m cl s 877 584 m
 cl s 924 584 m cl s 970 584 m cl s 1017 584 m cl s 1063 584 m cl s 1110 584 m cl s 1156 584 m cl s 1203 584 m cl s 1249 584 m cl s 1296 584 m cl s 1342 584 m cl s 1389 584 m cl s 1435 584 m cl s 1482 584 m cl s 1528 584 m cl s 1575 584 m cl s 1621
 584 m cl s 1668 584 m cl s 1714 584 m cl s 1761 584 m cl s 1807 584 m cl s 1854 584 m cl s 1900 584 m cl s 1947 584 m cl s 1993 584 m cl s 2040 584 m cl s 2086 584 m cl s 2133 584 m cl s 2179 584 m cl s 319 1729 m 1860 X s 319 1729 m cl s 366 1729 m
 cl s 412 1729 m cl s 459 1729 m cl s 505 1729 m cl s 552 1729 m cl s 598 1729 m cl s 645 1729 m cl s 691 1729 m cl s 738 1729 m cl s 784 1729 m cl s 831 1729 m cl s 877 1729 m cl s 924 1729 m cl s 970 1729 m cl s 1017 1729 m cl s 1063 1729 m cl s
 1110 1729 m cl s 1156 1729 m cl s 1203 1729 m cl s 1249 1729 m cl s 1296 1729 m cl s 1342 1729 m cl s 1389 1729 m cl s 1435 1729 m cl s 1482 1729 m cl s 1528 1729 m cl s 1575 1729 m cl s 1621 1729 m cl s 1668 1729 m cl s 1714 1729 m cl s 1761 1729 m
 cl s 1807 1729 m cl s 1854 1729 m cl s 1900 1729 m cl s 1947 1729 m cl s 1993 1729 m cl s 2040 1729 m cl s 2086 1729 m cl s 2133 1729 m cl s 2179 1729 m cl s 319 584 m 1145 Y s 341 626 m -22 X s 341 650 m -22 X s 341 667 m -22 X s 341 681 m -22 X s
 341 692 m -22 X s 341 701 m -22 X s 341 709 m -22 X s 341 716 m -22 X s 363 722 m -44 X s 341 764 m -22 X s 341 788 m -22 X s 341 806 m -22 X s 341 819 m -22 X s 341 830 m -22 X s 341 839 m -22 X s 341 847 m -22 X s 341 854 m -22 X s 363 861 m -44 X
 s 341 902 m -22 X s 341 927 m -22 X s 341 944 m -22 X s 341 957 m -22 X s 341 968 m -22 X s 341 977 m -22 X s 341 985 m -22 X s 341 992 m -22 X s 363 999 m -44 X s 341 1040 m -22 X s 341 1065 m -22 X s 341 1082 m -22 X s 341 1095 m -22 X s 341 1106
 m -22 X s 341 1116 m -22 X s 341 1124 m -22 X s 341 1131 m -22 X s 363 1137 m -44 X s 341 1179 m -22 X s 341 1203 m -22 X s 341 1220 m -22 X s 341 1234 m -22 X s 341 1244 m -22 X s 341 1254 m -22 X s 341 1262 m -22 X s 341 1269 m -22 X s 363 1275 m
 -44 X s 341 1317 m -22 X s 341 1341 m -22 X s 341 1358 m -22 X s 341 1372 m -22 X s 341 1383 m -22 X s 341 1392 m -22 X s 341 1400 m -22 X s 341 1407 m -22 X s 363 1413 m -44 X s 341 1455 m -22 X s 341 1479 m -22 X s 341 1497 m -22 X s 341 1510 m
 -22 X s 341 1521 m -22 X s 341 1530 m -22 X s 341 1538 m -22 X s 341 1545 m -22 X s 363 1551 m -44 X s 341 1593 m -22 X s 341 1617 m -22 X s 341 1635 m -22 X s 341 1648 m -22 X s 341 1659 m -22 X s 341 1668 m -22 X s 341 1676 m -22 X s 341 1683 m
 -22 X s 363 1690 m -44 X s 2179 584 m 1145 Y s 2157 626 m 22 X s 2157 650 m 22 X s 2157 667 m 22 X s 2157 681 m 22 X s 2157 692 m 22 X s 2157 701 m 22 X s 2157 709 m 22 X s 2157 716 m 22 X s 2136 722 m 43 X s 2157 764 m 22 X s 2157 788 m 22 X s 2157
 806 m 22 X s 2157 819 m 22 X s 2157 830 m 22 X s 2157 839 m 22 X s 2157 847 m 22 X s 2157 854 m 22 X s 2136 861 m 43 X s 2157 902 m 22 X s 2157 927 m 22 X s 2157 944 m 22 X s 2157 957 m 22 X s 2157 968 m 22 X s 2157 977 m 22 X s 2157 985 m 22 X s
 2157 992 m 22 X s 2136 999 m 43 X s 2157 1040 m 22 X s 2157 1065 m 22 X s 2157 1082 m 22 X s 2157 1095 m 22 X s 2157 1106 m 22 X s 2157 1116 m 22 X s 2157 1124 m 22 X s 2157 1131 m 22 X s 2136 1137 m 43 X s 2157 1179 m 22 X s 2157 1203 m 22 X s 2157
 1220 m 22 X s 2157 1234 m 22 X s 2157 1244 m 22 X s 2157 1254 m 22 X s 2157 1262 m 22 X s 2157 1269 m 22 X s 2136 1275 m 43 X s 2157 1317 m 22 X s 2157 1341 m 22 X s 2157 1358 m 22 X s 2157 1372 m 22 X s 2157 1383 m 22 X s 2157 1392 m 22 X s 2157
 1400 m 22 X s 2157 1407 m 22 X s 2136 1413 m 43 X s 2157 1455 m 22 X s 2157 1479 m 22 X s 2157 1497 m 22 X s 2157 1510 m 22 X s 2157 1521 m 22 X s 2157 1530 m 22 X s 2157 1538 m 22 X s 2157 1545 m 22 X s 2136 1551 m 43 X s 2157 1593 m 22 X s 2157
 1617 m 22 X s 2157 1635 m 22 X s 2157 1648 m 22 X s 2157 1659 m 22 X s 2157 1668 m 22 X s 2157 1676 m 22 X s 2157 1683 m 22 X s 2136 1690 m 43 X s
 gsave  2263 1770 2 313 C 406.765 1447.41 t 0 r /Helvetica findfont 64.4212 sf 0 0 m (SR for MB\255SSd) show NC gr 
 gsave  2263 1770 2 313 C 1464.36 1630.45 t 0 r /Helvetica findfont 64.4212 sf 0 0 m (SM Total) show NC gr  1 1 1 c 1338 1616 m 107 X 64 Y -107 X f 1 0 0 c 6 lw 1338 1648 m 107 X s black
 gsave  2263 1770 2 313 C 1464.36 1538.93 t 0 r /Helvetica findfont 64.4212 sf 0 0 m (Data) show NC gr  1391 1529 m 55 Y s 3 lw 1391 1557 m20 6 lw
 gsave  2263 1770 2 313 C 1464.36 1447.41 t 0 r /Helvetica findfont 64.4212 sf 0 0 m (W+jets) show NC gr  0.4 0.6 1 c 3 lw 1338 1434 m 107 X 64 Y -107 X f 6 lw black 3 lw 1338 1498 m 107 X s 1338 1434 m 107 X s 1445 1434 m 64 Y s 1338 1434 m 64 Y s
 gsave  2263 1770 2 313 C 1498.25 1355.88 t 0 r /Helvetica findfont 64.4212 sf 0 0 m (\(+EW\) & single top) show NC gr 
 gsave  2263 1770 2 313 C 1481.3 1355.88 t 0 r /Helvetica findfont 64.4212 sf 0 0 m (t) show NC gr  1481 1407 m 17 X s
 gsave  2263 1770 2 313 C 1464.36 1355.88 t 0 r /Helvetica findfont 64.4212 sf 0 0 m (t) show NC gr  0.6 1 0.6 c 1338 1343 m 107 X 63 Y -107 X f black 1338 1406 m 107 X s 1338 1343 m 107 X s 1445 1343 m 63 Y s 1338 1343 m 63 Y s
 gsave  2263 1770 2 313 C 1464.36 1264.36 t 0 r /Helvetica findfont 64.4212 sf 0 0 m (Z+jets) show NC gr  1 0.8 0.4 c 1338 1252 m 107 X 63 Y -107 X f black 1338 1315 m 107 X s 1338 1252 m 107 X s 1445 1252 m 63 Y s 1338 1252 m 63 Y s
 gsave  2263 1770 2 313 C 1464.36 1172.84 t 0 r /Helvetica findfont 64.4212 sf 0 0 m (Diboson) show NC gr  1 0.4 0.6 c 1338 1161 m 107 X 63 Y -107 X f black 1338 1224 m 107 X s 1338 1161 m 107 X s 1445 1161 m 63 Y s 1338 1161 m 63 Y s
 gsave  2263 1770 2 313 C 1464.36 1081.32 t 0 r /Helvetica findfont 64.4212 sf 0 0 m (Multi\255jet) show NC gr  0 0 0.4 c 1338 1070 m 107 X 63 Y -107 X f black 1338 1133 m 107 X s 1338 1070 m 107 X s 1445 1070 m 63 Y s 1338 1070 m 63 Y s
 gsave  2263 1770 2 313 C 911.832 1566.05 t 0 r /Helvetica findfont 44.0776 sf 0 0 m (\2551) show NC gr 
 gsave  2263 1770 2 313 C 471.17 1535.54 t 0 r /Helvetica findfont 64.4212 sf 0 0 m (=13TeV, 139 fb) show NC gr 
 gsave  2263 1770 2 313 C 440.662 1535.54 t 0 r /Helvetica findfont 64.4212 sf 0 0 m (s) show NC gr  6 lw 420 1573 m 7 -41 d s 3 lw 427 1532 m 7 61 d s 434 1593 m 37 X s 1 1 1 c 2254 561 2 2 bf black 1 1 1 c black 1860 358 318 187 bl 1 1 1 c black
 1860 358 318 187 bl 6 lw 1 1 1 c black 3 lw 364 363 m20 6 lw 3 lw 457 362 m20 6 lw 3 lw 550 362 m20 6 lw 3 lw 643 362 m20 6 lw 3 lw 736 356 m20 6 lw 3 lw 829 371 m20 6 lw 3 lw 923 367 m20 6 lw 3 lw 1016 373 m20 6 lw 3 lw 1109 369 m20 6 lw 3 lw 1202
 359 m20 6 lw 3 lw 1295 385 m20 6 lw 3 lw 1388 352 m20 6 lw 3 lw 1481 372 m20 6 lw 3 lw 1574 325 m20 6 lw 3 lw 1667 282 m20 6 lw 3 lw 1760 461 m20 6 lw 3 lw 1946 422 m20 6 lw 3 lw 318 187 m 1860 X s
 gsave  2254 561 2 2 C 2105.01 64.4045 t 0 r /Helvetica findfont 50.9797 sf 0 0 m (1/2) show NC gr 
 gsave  2254 561 2 2 C 1888.07 23.728 t 0 r /Helvetica findfont 78.1689 sf 0 0 m ( [GeV]) show NC gr 
 gsave  2254 561 2 2 C 1857.56 3.38971 t 0 r /Helvetica findfont 50.9797 sf 0 0 m (T) show NC gr 
 gsave  2254 561 2 2 C 1806.72 23.728 t 0 r /Helvetica findfont 78.1689 sf 0 0 m (H) show NC gr  6 lw 1773 81 m 10 -78 d s 3 lw 1783 3 m 14 99 d s 1797 102 m 91 X s
 gsave  2254 561 2 2 C 1735.53 23.728 t 0 r /Helvetica findfont 78.1689 sf 0 0 m (/) show NC gr 
 gsave  2254 561 2 2 C 1630.45 61.0148 t 0 r /Helvetica findfont 50.9797 sf 0 0 m (miss) show NC gr 
 gsave  2254 561 2 2 C 1630.45 3.38971 t 0 r /Helvetica findfont 50.9797 sf 0 0 m (T) show NC gr 
 gsave  2254 561 2 2 C 1579.61 23.728 t 0 r /Helvetica findfont 78.1689 sf 0 0 m (E) show NC gr  318 201 m -14 Y s 364 194 m -7 Y s 411 194 m -7 Y s 457 194 m -7 Y s 504 194 m -7 Y s 550 201 m -14 Y s 597 194 m -7 Y s 643 194 m -7 Y s 690 194 m -7 Y
 s 736 194 m -7 Y s 783 201 m -14 Y s 829 194 m -7 Y s 876 194 m -7 Y s 923 194 m -7 Y s 969 194 m -7 Y s 1016 201 m -14 Y s 1062 194 m -7 Y s 1109 194 m -7 Y s 1155 194 m -7 Y s 1202 194 m -7 Y s 1248 201 m -14 Y s 1295 194 m -7 Y s 1341 194 m -7 Y
 s 1388 194 m -7 Y s 1434 194 m -7 Y s 1481 201 m -14 Y s 1527 194 m -7 Y s 1574 194 m -7 Y s 1620 194 m -7 Y s 1667 194 m -7 Y s 1713 201 m -14 Y s 1760 194 m -7 Y s 1806 194 m -7 Y s 1853 194 m -7 Y s 1899 194 m -7 Y s 1946 201 m -14 Y s 1992 194 m
 -7 Y s 2039 194 m -7 Y s 2085 194 m -7 Y s 2132 194 m -7 Y s 2178 201 m -14 Y s
 gsave  2254 561 2 2 C 271.177 118.64 t 0 r /Helvetica findfont 78.1689 sf 0 0 m (10) show NC gr 
 gsave  2254 561 2 2 C 505.067 118.64 t 0 r /Helvetica findfont 78.1689 sf 0 0 m (15) show NC gr 
 gsave  2254 561 2 2 C 735.567 118.64 t 0 r /Helvetica findfont 78.1689 sf 0 0 m (20) show NC gr 
 gsave  2254 561 2 2 C 969.457 118.64 t 0 r /Helvetica findfont 78.1689 sf 0 0 m (25) show NC gr 
 gsave  2254 561 2 2 C 1203.35 118.64 t 0 r /Helvetica findfont 78.1689 sf 0 0 m (30) show NC gr 
 gsave  2254 561 2 2 C 1433.85 118.64 t 0 r /Helvetica findfont 78.1689 sf 0 0 m (35) show NC gr 
 gsave  2254 561 2 2 C 1667.74 118.64 t 0 r /Helvetica findfont 78.1689 sf 0 0 m (40) show NC gr 
 gsave  2254 561 2 2 C 1901.63 118.64 t 0 r /Helvetica findfont 78.1689 sf 0 0 m (45) show NC gr 
 gsave  2254 561 2 2 C 2132.13 118.64 t 0 r /Helvetica findfont 78.1689 sf 0 0 m (50) show NC gr  318 545 m 1860 X s 318 531 m 14 Y s 364 538 m 7 Y s 411 538 m 7 Y s 457 538 m 7 Y s 504 538 m 7 Y s 550 531 m 14 Y s 597 538 m 7 Y s 643 538 m 7 Y s 690
 538 m 7 Y s 736 538 m 7 Y s 783 531 m 14 Y s 829 538 m 7 Y s 876 538 m 7 Y s 923 538 m 7 Y s 969 538 m 7 Y s 1016 531 m 14 Y s 1062 538 m 7 Y s 1109 538 m 7 Y s 1155 538 m 7 Y s 1202 538 m 7 Y s 1248 531 m 14 Y s 1295 538 m 7 Y s 1341 538 m 7 Y s
 1388 538 m 7 Y s 1434 538 m 7 Y s 1481 531 m 14 Y s 1527 538 m 7 Y s 1574 538 m 7 Y s 1620 538 m 7 Y s 1667 538 m 7 Y s 1713 531 m 14 Y s 1760 538 m 7 Y s 1806 538 m 7 Y s 1853 538 m 7 Y s 1899 538 m 7 Y s 1946 531 m 14 Y s 1992 538 m 7 Y s 2039 538
 m 7 Y s 2085 538 m 7 Y s 2132 538 m 7 Y s 2178 531 m 14 Y s 318 187 m 358 Y s
 gsave  2254 561 2 2 C 166.096 284.736 t 90 r /Helvetica findfont 67.9729 sf 0 0 m (Data/SM) show NC gr  361 203 m -43 X s 339 220 m -21 X s 339 236 m -21 X s 339 252 m -21 X s 339 268 m -21 X s 361 285 m -43 X s 339 301 m -21 X s 339 317 m -21 X s
 339 334 m -21 X s 339 350 m -21 X s 361 366 m -43 X s 339 382 m -21 X s 339 399 m -21 X s 339 415 m -21 X s 339 431 m -21 X s 361 447 m -43 X s 339 464 m -21 X s 339 480 m -21 X s 339 496 m -21 X s 339 512 m -21 X s 361 529 m -43 X s 361 203 m -43 X
 s 339 187 m -21 X s 361 529 m -43 X s
 gsave  2254 561 2 2 C 261.008 183.044 t 0 r /Helvetica findfont 57.777 sf 0 0 m (0) show NC gr 
 gsave  2254 561 2 2 C 213.552 261.008 t 0 r /Helvetica findfont 57.777 sf 0 0 m (0.5) show NC gr 
 gsave  2254 561 2 2 C 271.177 342.361 t 0 r /Helvetica findfont 57.777 sf 0 0 m (1) show NC gr 
 gsave  2254 561 2 2 C 213.552 423.714 t 0 r /Helvetica findfont 57.777 sf 0 0 m (1.5) show NC gr 
 gsave  2254 561 2 2 C 261.008 505.067 t 0 r /Helvetica findfont 57.777 sf 0 0 m (2) show NC gr  2178 187 m 358 Y s 2135 203 m 43 X s 2157 220 m 21 X s 2157 236 m 21 X s 2157 252 m 21 X s 2157 268 m 21 X s 2135 285 m 43 X s 2157 301 m 21 X s 2157 317
 m 21 X s 2157 334 m 21 X s 2157 350 m 21 X s 2135 366 m 43 X s 2157 382 m 21 X s 2157 399 m 21 X s 2157 415 m 21 X s 2157 431 m 21 X s 2135 447 m 43 X s 2157 464 m 21 X s 2157 480 m 21 X s 2157 496 m 21 X s 2157 512 m 21 X s 2135 529 m 43 X s 2135
 203 m 43 X s 2157 187 m 21 X s 2135 529 m 43 X s 9 lw 1295 398 m 1 Y s 1295 399 m cl s 1295 371 m -1 Y s 1295 370 m cl s 1388 365 m 6 Y s 1388 371 m cl s 1388 338 m -5 Y s 1388 333 m cl s 1481 386 m 16 Y s 1481 402 m cl s 1481 359 m -16 Y s 1481 343
 m cl s 1574 338 m 24 Y s 1574 362 m cl s 1574 311 m -22 Y s 1574 289 m cl s 1667 296 m 28 Y s 1667 324 m cl s 1667 268 m -23 Y s 1667 245 m cl s 1760 475 m 70 Y s 1760 545 m cl s 1760 448 m -110 Y s 1760 338 m cl s 1946 436 m 109 Y s 1946 545 m cl s
 1946 409 m -167 Y s 1946 242 m cl s 2132 545 m -196 Y s 2132 349 m cl s 3 lw 364 363 457 362 550 362 643 362 736 356 829 371 923 367 1016 373 1109 369 1202 359 1295 385 1388 352 1481 372 1574 325 1667 282 1760 461 16 { m20} R 9 lw 3 lw 1946 422 m20
 9 lw 1 0 0 c 6 lw black 3 lw 1 0 0 c 2178 284 m -12 -13 d s 2178 312 m -41 -41 d s 2178 341 m -69 -70 d s 2178 369 m -93 -92 d s 2178 398 m -93 -93 d s 2178 427 m -120 -121 d s 2178 455 m -149 -149 d s 2155 461 m -155 -155 d s 1992 298 m -3 -3 d s
 2126 461 m -166 -166 d s 2098 461 m -13 -13 d s 2063 426 m -132 -131 d s 2034 426 m -131 -131 d s 2005 426 m -106 -106 d s 1988 437 m -99 -98 d s 1960 437 m -99 -98 d s 1931 437 m -32 -31 d s 1887 393 m -55 -54 d s 1902 437 m -3 -3 d s 1858 393 m
 -52 -52 d s 1829 393 m -52 -52 d s 1798 391 m -49 -50 d s 1769 391 m -49 -50 d s 1741 391 m -50 -50 d s 1712 391 m -50 -50 d s 1683 391 m -49 -50 d s 1655 391 m -42 -41 d s 1626 391 m -6 -6 d s 1617 382 m -32 -32 d s 1589 382 m -33 -32 d s 1560 382
 m -33 -32 d s 1531 382 m -30 -30 d s 1500 380 m -28 -28 d s 1472 380 m -28 -28 d s 1443 380 m -24 -24 d s 1410 376 m -20 -20 d s 1382 376 m -20 -20 d s 1353 376 m -19 -19 d s 1323 375 m -18 -18 d s 1294 375 m -17 -18 d s 1266 375 m -18 -18 d s 1236
 374 m -16 -16 d s 1208 374 m -17 -16 d s 1179 374 m -17 -16 d s 1150 374 m -16 -16 d s 1121 374 m -15 -16 d s 1092 374 m -15 -16 d s 1064 374 m -16 -15 d s 1035 374 m -15 -15 d s 1006 374 m -15 -15 d s 977 374 m -15 -16 d s 950 374 m -17 -16 d s 921
 374 m -17 -16 d s 892 374 m -17 -17 d s 864 375 m -18 -18 d s 836 375 m -19 -18 d s 807 375 m -18 -18 d s 779 376 m -19 -19 d s 750 376 m -19 -19 d s 721 376 m -19 -19 d s 693 376 m -19 -19 d s 664 375 m -19 -18 d s 635 375 m -19 -18 d s 606 375 m
 -18 -18 d s 577 375 m -18 -18 d s 549 375 m -19 -18 d s 520 375 m -18 -18 d s 491 375 m -18 -18 d s 462 375 m -17 -18 d s 318 231 m s 434 375 m -18 -18 d s 318 259 m s 405 374 m -17 -16 d s 318 288 m s 376 374 m -17 -16 d s 318 317 m s 347 374 m -17
 -16 d s 318 345 m s 319 374 m -1 X s 6 lw black[ 4 8] 0 sd 3 lw 318 447 m 1860 X s 318 285 m 1860 X s 1 0 0 c[  12 12 ] 0 sd 6 lw 318 366 m 1860 X s
 gr  gr showpage
end
%%EOF
