%!PS-Adobe-2.0 EPSF-2.0
%%BoundingBox:  0 0 567 521
%%Title: Distributions/metsqrtmeffInc_met_distrCRY_MB-GGd_beforeFit_forThesis.eps: canvas
%%Creator: ROOT Version 6.04/16
%%CreationDate: Tue May 19 22:06:02 2020
%%DocumentNeededResources: ProcSet (FontSetInit)
%%EndComments
%%BeginProlog
80 dict begin
/s {stroke} def /l {lineto} def /m {moveto} def /t {translate} def
/r {rotate} def /rl {roll}  def /R {repeat} def
/d {rlineto} def /rm {rmoveto} def /gr {grestore} def /f {eofill} def
/c {setrgbcolor} def /black {0 setgray} def /sd {setdash} def
/cl {closepath} def /sf {scalefont setfont} def /lw {setlinewidth} def
/box {m dup 0 exch d exch 0 d 0 exch neg d cl} def
/NC{systemdict begin initclip end}def/C{NC box clip newpath}def
/bl {box s} def /bf {gsave box gsave f grestore 1 lw [] 0 sd s grestore} def /Y { 0 exch d} def /X { 0 d} def 
/K {{pop pop 0 moveto} exch kshow} bind def
/ita {/ang 15 def gsave [1 0 ang dup sin exch cos div 1 0 0] concat} def 
/mp {newpath /y exch def /x exch def} def
/side {[w .77 mul w .23 mul] .385 w mul sd w 0 l currentpoint t -144 r} def
/mr {mp x y w2 0 360 arc} def /m24 {mr s} def /m20 {mr f} def
/mb {mp x y w2 add m w2 neg 0 d 0 w neg d w 0 d 0 w d cl} def
/mt {mp x y w2 add m w2 neg w neg d w 0 d cl} def
/m21 {mb f} def /m25 {mb s} def /m22 {mt f} def /m26{mt s} def
/m23 {mp x y w2 sub m w2 w d w neg 0 d cl f} def
/m27 {mp x y w2 add m w3 neg w2 neg d w3 w2 neg d w3 w2 d cl s} def
/m28 {mp x w2 sub y w2 sub w3 add m w3 0 d  0 w3 neg d w3 0 d 0 w3 d w3 0 d  0 w3 d w3 neg 0 d 0 w3 d w3 neg 0 d 0 w3 neg d w3 neg 0 d cl s } def
/m29 {mp gsave x w2 sub y w2 add w3 sub m currentpoint t 4 {side} repeat cl fill gr} def
/m30 {mp gsave x w2 sub y w2 add w3 sub m currentpoint t 4 {side} repeat cl s gr} def
/m31 {mp x y w2 sub m 0 w d x w2 sub y m w 0 d x w2 sub y w2 add m w w neg d x w2 sub y w2 sub m w w d s} def
/m32 {mp x y w2 sub m w2 w d w neg 0 d cl s} def
/m33 {mp x y w2 add m w3 neg w2 neg d w3 w2 neg d w3 w2 d cl f} def
/m34 {mp x w2 sub y w2 sub w3 add m w3 0 d  0 w3 neg d w3 0 d 0 w3 d w3 0 d  0 w3 d w3 neg 0 d 0 w3 d w3 neg 0 d 0 w3 neg d w3 neg 0 d cl f } def
/m2 {mp x y w2 sub m 0 w d x w2 sub y m w 0 d s} def
/m5 {mp x w2 sub y w2 sub m w w d x w2 sub y w2 add m w w neg d s} def
%%IncludeResource: ProcSet (FontSetInit)
%%IncludeResource: font Times-Roman
%%IncludeResource: font Times-Italic
%%IncludeResource: font Times-Bold
%%IncludeResource: font Times-BoldItalic
%%IncludeResource: font Helvetica
%%IncludeResource: font Helvetica-Oblique
%%IncludeResource: font Helvetica-Bold
%%IncludeResource: font Helvetica-BoldOblique
%%IncludeResource: font Courier
%%IncludeResource: font Courier-Oblique
%%IncludeResource: font Courier-Bold
%%IncludeResource: font Courier-BoldOblique
%%IncludeResource: font Symbol
%%IncludeResource: font ZapfDingbats
/reEncode {exch findfont dup length dict begin {1 index /FID eq  {pop pop} {def} ifelse } forall /Encoding exch def currentdict end dup /FontName get exch definefont pop } def [/Times-Bold /Times-Italic /Times-BoldItalic /Helvetica /Helvetica-Oblique
 /Helvetica-Bold /Helvetica-BoldOblique /Courier /Courier-Oblique /Courier-Bold /Courier-BoldOblique /Times-Roman /AvantGarde-Book /AvantGarde-BookOblique /AvantGarde-Demi /AvantGarde-DemiOblique /Bookman-Demi /Bookman-DemiItalic /Bookman-Light
 /Bookman-LightItalic /Helvetica-Narrow /Helvetica-Narrow-Bold /Helvetica-Narrow-BoldOblique /Helvetica-Narrow-Oblique /NewCenturySchlbk-Roman /NewCenturySchlbk-Bold /NewCenturySchlbk-BoldItalic /NewCenturySchlbk-Italic /Palatino-Bold
 /Palatino-BoldItalic /Palatino-Italic /Palatino-Roman ] {ISOLatin1Encoding reEncode } forall
%%EndProlog
%%BeginSetup
%%EndSetup
newpath  gsave  .25 .25 scale  gsave  0 0 t black[  ] 0 sd 3 lw 1 1 1 c 2268 2085 0 0 bf black 1 1 1 c 2263 1770 2 313 bf black 1 1 1 c black 1860 1145 319 584 bl 1 1 1 c black 1860 1145 319 584 bl 6 lw 1 1 1 c black 3 lw /w 33 def /w2 {w 2 div} def
 /w3 {w 3 div} def 391 1208 m20 6 lw 3 lw 534 1192 m20 6 lw 3 lw 677 1170 m20 6 lw 3 lw 820 1142 m20 6 lw 3 lw 963 1116 m20 6 lw 3 lw 1106 1095 m20 6 lw 3 lw 1249 1062 m20 6 lw 3 lw 1392 1045 m20 6 lw 3 lw 1535 1015 m20 6 lw 3 lw 1679 988 m20 6 lw
 1822 928 m 1 Y s 3 lw 1822 942 m20 6 lw 1965 890 m 5 Y s 1965 922 m 1 Y s 3 lw 1965 909 m20 6 lw 2108 836 m 15 Y s 2108 878 m 6 Y s 3 lw 2108 864 m20 6 lw 3 lw 319 584 m 1860 X s
 gsave  2263 1770 2 313 C 2101.62 396.596 t 0 r /Helvetica findfont 54.2494 sf 0 0 m (1/2) show NC gr 
 gsave  2263 1770 2 313 C 1874.51 355.92 t 0 r /Helvetica findfont 81.3741 sf 0 0 m ( [GeV]) show NC gr 
 gsave  2263 1770 2 313 C 1840.61 332.192 t 0 r /Helvetica findfont 54.2494 sf 0 0 m (T) show NC gr 
 gsave  2263 1770 2 313 C 1786.38 355.92 t 0 r /Helvetica findfont 81.3741 sf 0 0 m (H) show NC gr  6 lw 1749 417 m 14 -85 d s 3 lw 1763 332 m 13 105 d s 1776 437 m 99 X s
 gsave  2263 1770 2 313 C 1711.8 355.92 t 0 r /Helvetica findfont 81.3741 sf 0 0 m (/) show NC gr 
 gsave  2263 1770 2 313 C 1599.94 396.596 t 0 r /Helvetica findfont 54.2494 sf 0 0 m (miss) show NC gr 
 gsave  2263 1770 2 313 C 1599.94 332.192 t 0 r /Helvetica findfont 54.2494 sf 0 0 m (T) show NC gr 
 gsave  2263 1770 2 313 C 1549.1 355.92 t 0 r /Helvetica findfont 81.3741 sf 0 0 m (E) show NC gr  319 584 m cl s 391 584 m cl s 462 584 m cl s 534 584 m cl s 605 584 m cl s 677 584 m cl s 748 584 m cl s 820 584 m cl s 892 584 m cl s 963 584 m cl s
 1035 584 m cl s 1106 584 m cl s 1178 584 m cl s 1249 584 m cl s 1321 584 m cl s 1392 584 m cl s 1464 584 m cl s 1535 584 m cl s 1607 584 m cl s 1679 584 m cl s 1750 584 m cl s 1822 584 m cl s 1893 584 m cl s 1965 584 m cl s 2036 584 m cl s 2108 584
 m cl s 2108 584 m cl s 2179 584 m cl s 319 1729 m 1860 X s 319 1729 m cl s 391 1729 m cl s 462 1729 m cl s 534 1729 m cl s 605 1729 m cl s 677 1729 m cl s 748 1729 m cl s 820 1729 m cl s 892 1729 m cl s 963 1729 m cl s 1035 1729 m cl s 1106 1729 m
 cl s 1178 1729 m cl s 1249 1729 m cl s 1321 1729 m cl s 1392 1729 m cl s 1464 1729 m cl s 1535 1729 m cl s 1607 1729 m cl s 1679 1729 m cl s 1750 1729 m cl s 1822 1729 m cl s 1893 1729 m cl s 1965 1729 m cl s 2036 1729 m cl s 2108 1729 m cl s 2108
 1729 m cl s 2179 1729 m cl s 319 584 m 1145 Y s
 gsave  2263 1770 2 313 C 125.419 1654.18 t 90 r /Helvetica findfont 54.2494 sf 0 0 m (1/2) show NC gr 
 gsave  2263 1770 2 313 C 166.096 1064.37 t 90 r /Helvetica findfont 81.3741 sf 0 0 m (Events / 2 [GeV]) show NC gr  341 629 m -22 X s 341 655 m -22 X s 341 673 m -22 X s 341 687 m -22 X s 341 699 m -22 X s 341 709 m -22 X s 341 717 m -22 X s 341 725
 m -22 X s 363 731 m -44 X s
 gsave  2263 1770 2 313 C 300.555 704.348 t 0 r  -36 0 t /Helvetica findfont 64.4212 sf 0 0 m (1) show NC gr  341 776 m -22 X s 341 802 m -22 X s 341 820 m -22 X s 341 834 m -22 X s 341 846 m -22 X s 341 856 m -22 X s 341 864 m -22 X s 341 872 m -22
 X s 363 879 m -44 X s
 gsave  2263 1770 2 313 C 300.555 851.504 t 0 r  -73 0 t /Helvetica findfont 64.4212 sf 0 0 m (10) show NC gr  341 923 m -22 X s 341 949 m -22 X s 341 967 m -22 X s 341 981 m -22 X s 341 993 m -22 X s 341 1003 m -22 X s 341 1012 m -22 X s 341 1019 m
 -22 X s 363 1026 m -44 X s
 gsave  2263 1770 2 313 C 274.567 1023.69 t 0 r /Helvetica findfont 44.0776 sf 0 0 m (2) show NC gr 
 gsave  2263 1770 2 313 C 203.383 996.575 t 0 r /Helvetica findfont 64.4212 sf 0 0 m (10) show NC gr  341 1070 m -22 X s 341 1096 m -22 X s 341 1114 m -22 X s 341 1129 m -22 X s 341 1140 m -22 X s 341 1150 m -22 X s 341 1159 m -22 X s 341 1166 m -22
 X s 363 1173 m -44 X s
 gsave  2263 1770 2 313 C 274.567 1176.23 t 0 r /Helvetica findfont 44.0776 sf 0 0 m (3) show NC gr 
 gsave  2263 1770 2 313 C 203.383 1145.72 t 0 r /Helvetica findfont 64.4212 sf 0 0 m (10) show NC gr  341 1217 m -22 X s 341 1243 m -22 X s 341 1262 m -22 X s 341 1276 m -22 X s 341 1287 m -22 X s 341 1297 m -22 X s 341 1306 m -22 X s 341 1313 m -22
 X s 363 1320 m -44 X s
 gsave  2263 1770 2 313 C 274.567 1318.6 t 0 r /Helvetica findfont 44.0776 sf 0 0 m (4) show NC gr 
 gsave  2263 1770 2 313 C 203.383 1291.48 t 0 r /Helvetica findfont 64.4212 sf 0 0 m (10) show NC gr  341 1364 m -22 X s 341 1390 m -22 X s 341 1409 m -22 X s 341 1423 m -22 X s 341 1435 m -22 X s 341 1444 m -22 X s 341 1453 m -22 X s 341 1461 m -22
 X s 363 1467 m -44 X s
 gsave  2263 1770 2 313 C 274.567 1467.74 t 0 r /Helvetica findfont 44.0776 sf 0 0 m (5) show NC gr 
 gsave  2263 1770 2 313 C 203.383 1437.24 t 0 r /Helvetica findfont 64.4212 sf 0 0 m (10) show NC gr  341 1512 m -22 X s 341 1537 m -22 X s 341 1556 m -22 X s 341 1570 m -22 X s 341 1582 m -22 X s 341 1592 m -22 X s 341 1600 m -22 X s 341 1608 m -22
 X s 363 1614 m -44 X s
 gsave  2263 1770 2 313 C 274.567 1616.89 t 0 r /Helvetica findfont 44.0776 sf 0 0 m (6) show NC gr 
 gsave  2263 1770 2 313 C 203.383 1586.38 t 0 r /Helvetica findfont 64.4212 sf 0 0 m (10) show NC gr  341 1659 m -22 X s 341 1685 m -22 X s 341 1703 m -22 X s 341 1717 m -22 X s 2179 584 m 1145 Y s 2157 629 m 22 X s 2157 655 m 22 X s 2157 673 m 22 X
 s 2157 687 m 22 X s 2157 699 m 22 X s 2157 709 m 22 X s 2157 717 m 22 X s 2157 725 m 22 X s 2136 731 m 43 X s 2157 776 m 22 X s 2157 802 m 22 X s 2157 820 m 22 X s 2157 834 m 22 X s 2157 846 m 22 X s 2157 856 m 22 X s 2157 864 m 22 X s 2157 872 m 22
 X s 2136 879 m 43 X s 2157 923 m 22 X s 2157 949 m 22 X s 2157 967 m 22 X s 2157 981 m 22 X s 2157 993 m 22 X s 2157 1003 m 22 X s 2157 1012 m 22 X s 2157 1019 m 22 X s 2136 1026 m 43 X s 2157 1070 m 22 X s 2157 1096 m 22 X s 2157 1114 m 22 X s 2157
 1129 m 22 X s 2157 1140 m 22 X s 2157 1150 m 22 X s 2157 1159 m 22 X s 2157 1166 m 22 X s 2136 1173 m 43 X s 2157 1217 m 22 X s 2157 1243 m 22 X s 2157 1262 m 22 X s 2157 1276 m 22 X s 2157 1287 m 22 X s 2157 1297 m 22 X s 2157 1306 m 22 X s 2157
 1313 m 22 X s 2136 1320 m 43 X s 2157 1364 m 22 X s 2157 1390 m 22 X s 2157 1409 m 22 X s 2157 1423 m 22 X s 2157 1435 m 22 X s 2157 1444 m 22 X s 2157 1453 m 22 X s 2157 1461 m 22 X s 2136 1467 m 43 X s 2157 1512 m 22 X s 2157 1537 m 22 X s 2157
 1556 m 22 X s 2157 1570 m 22 X s 2157 1582 m 22 X s 2157 1592 m 22 X s 2157 1600 m 22 X s 2157 1608 m 22 X s 2136 1614 m 43 X s 2157 1659 m 22 X s 2157 1685 m 22 X s 2157 1703 m 22 X s 2157 1717 m 22 X s 1 1 0 c black 1 1 0 c 319 584 m 633 Y 143 X
 -14 Y 143 X -26 Y 143 X -26 Y 144 X -23 Y 143 X -30 Y 143 X -27 Y 143 X -24 Y 143 X -35 Y 143 X -38 Y 143 X -37 Y 143 X -43 Y 143 X -3 Y 143 X -307 Y f black 1 1 0 c black 319 1217 m 143 X -14 Y 143 X -26 Y 143 X -26 Y 144 X -23 Y 143 X -30 Y 143 X
 -27 Y 143 X -24 Y 143 X -35 Y 143 X -38 Y 143 X -37 Y 143 X -43 Y 143 X -3 Y 143 X s 0.999 0.999 0.999 c black 0.999 0.999 0.999 c 319 584 m 353 Y 143 X -2 Y 143 X -32 Y 143 X -9 Y 144 X -36 Y 143 X -42 Y 143 X -33 Y 143 X 7 Y 143 X -100 Y 143 X 33
 Y 143 X -28 Y 143 X -34 Y 143 X -77 Y 143 X f black 0.999 0.999 0.999 c black 319 937 m 143 X -2 Y 143 X -32 Y 143 X -9 Y 144 X -36 Y 143 X -42 Y 143 X -33 Y 143 X 7 Y 143 X -100 Y 143 X 33 Y 143 X -28 Y 143 X -34 Y 143 X -77 Y 143 X s 1 1 1 c black
 319 937 m 143 X -2 Y 143 X -32 Y 143 X -9 Y 144 X -36 Y 143 X -42 Y 143 X -33 Y 143 X 7 Y 143 X -100 Y 143 X 33 Y 143 X -28 Y 143 X -34 Y 143 X -77 Y 143 X s 0.4 0.6 1 c black 0.4 0.6 1 c 319 584 m 353 Y 143 X -2 Y 143 X -32 Y 143 X -9 Y 144 X -36 Y
 143 X -42 Y 143 X -33 Y 143 X 7 Y 143 X -100 Y 143 X 33 Y 143 X -28 Y 143 X -34 Y 143 X -77 Y 143 X f black 0.4 0.6 1 c black 319 937 m 143 X -2 Y 143 X -32 Y 143 X -9 Y 144 X -36 Y 143 X -42 Y 143 X -33 Y 143 X 7 Y 143 X -100 Y 143 X 33 Y 143 X -28
 Y 143 X -34 Y 143 X -77 Y 143 X s 0.999 0.999 0.999 c black 0.999 0.999 0.999 c 319 584 m 338 Y 143 X -3 Y 143 X -33 Y 143 X -11 Y 144 X -34 Y 143 X -44 Y 143 X -31 Y 143 X -2 Y 143 X -167 Y 143 X 116 Y 143 X -39 Y 143 X -24 Y 143 X -66 Y 143 X f
 black 0.999 0.999 0.999 c black 319 922 m 143 X -3 Y 143 X -33 Y 143 X -11 Y 144 X -34 Y 143 X -44 Y 143 X -31 Y 143 X -2 Y 143 X -167 Y 143 X 116 Y 143 X -39 Y 143 X -24 Y 143 X -66 Y 143 X s 1 1 1 c black 319 922 m 143 X -3 Y 143 X -33 Y 143 X -11
 Y 144 X -34 Y 143 X -44 Y 143 X -31 Y 143 X -2 Y 143 X -167 Y 143 X 116 Y 143 X -39 Y 143 X -24 Y 143 X -66 Y 143 X s 0.6 1 0.6 c black 0.6 1 0.6 c 319 584 m 338 Y 143 X -3 Y 143 X -33 Y 143 X -11 Y 144 X -34 Y 143 X -44 Y 143 X -31 Y 143 X -2 Y 143
 X -167 Y 143 X 116 Y 143 X -39 Y 143 X -24 Y 143 X -66 Y 143 X f black 0.6 1 0.6 c black 319 922 m 143 X -3 Y 143 X -33 Y 143 X -11 Y 144 X -34 Y 143 X -44 Y 143 X -31 Y 143 X -2 Y 143 X -167 Y 143 X 116 Y 143 X -39 Y 143 X -24 Y 143 X -66 Y 143 X s
 0.999 0.999 0.999 c black 0.999 0.999 0.999 c 319 584 m 144 Y 143 X -46 Y 143 X -29 Y 143 X 31 Y 144 X 23 Y 143 X -123 Y 143 X 67 Y 143 X -67 Y 429 X 21 Y 143 X -21 Y 286 X f black 0.999 0.999 0.999 c black 319 728 m 143 X -46 Y 143 X -29 Y 143 X 31
 Y 144 X 23 Y 143 X -123 Y 143 X 67 Y 143 X -67 Y 429 X 21 Y 143 X -21 Y 286 X s 1 1 1 c black 319 728 m 143 X -46 Y 143 X -29 Y 143 X 31 Y 144 X 23 Y 143 X -123 Y 143 X 67 Y 143 X -67 Y 429 X 21 Y 143 X -21 Y 286 X s 1 0.4 0.6 c black 1 0.4 0.6 c
 319 584 m 144 Y 143 X -46 Y 143 X -29 Y 143 X 31 Y 144 X 23 Y 143 X -123 Y 143 X 67 Y 143 X -67 Y 429 X 21 Y 143 X -21 Y 286 X f black 1 0.4 0.6 c black 319 728 m 143 X -46 Y 143 X -29 Y 143 X 31 Y 144 X 23 Y 143 X -123 Y 143 X 67 Y 143 X -67 Y 429
 X 21 Y 143 X -21 Y 286 X s 1 0 0 c 6 lw 1 1 1 c black 1 0 0 c 319 1217 m 143 X -14 Y 143 X -26 Y 143 X -26 Y 144 X -23 Y 143 X -30 Y 143 X -27 Y 143 X -24 Y 143 X -35 Y 143 X -38 Y 143 X -37 Y 143 X -43 Y 143 X -3 Y 143 X s black 3 lw 1 0 0 c 1 lw
 << /PatternType 1 /PaintType 2 /TilingType 1 /BBox [ 0 0 100 100 ] /XStep 100 /YStep 100 /PaintProc { begin gsave 0 100 m 100 0 l s gr end } >> [ 0.24 0 0 0.24 0 0 ] makepattern /P05 exch def /cs {[/Pattern /DeviceRGB] setcolorspace} def /FA {f
 [/DeviceRGB] setcolorspace} def cs 1 0 0 P05 setcolor 319 584 m 634 Y 143 X -14 Y 143 X -26 Y 143 X -26 Y 144 X -22 Y 143 X -30 Y 143 X -27 Y 143 X -24 Y 143 X -34 Y 143 X -38 Y 143 X -37 Y 143 X -43 Y 143 X -1 Y 143 X -9 Y -143 X 3 Y -143 X 43 Y
 -143 X 37 Y -143 X 39 Y -143 X 35 Y -143 X 25 Y -143 X 27 Y -143 X 30 Y -143 X 23 Y -144 X 26 Y -143 X 26 Y -143 X 15 Y -143 X -632 Y FA 6 lw 1 1 1 c 15 lw 2108 844 m -7 Y s 2108 837 m cl s black 1 1 1 c 3 lw /w 43 def /w2 {w 2 div} def /w3 {w 3
 div} def 391 1208 534 1192 677 1170 820 1142 963 1116 1106 1095 1249 1062 1392 1045 1535 1015 1679 988 1822 942 1965 909 2108 864 13 { m20} R 15 lw black 6 lw 1 1 1 c black 3 lw /w 33 def /w2 {w 2 div} def /w3 {w 3 div} def 391 1208 m20 6 lw 3 lw
 534 1192 m20 6 lw 3 lw 677 1170 m20 6 lw 3 lw 820 1142 m20 6 lw 3 lw 963 1116 m20 6 lw 3 lw 1106 1095 m20 6 lw 3 lw 1249 1062 m20 6 lw 3 lw 1392 1045 m20 6 lw 3 lw 1535 1015 m20 6 lw 3 lw 1679 988 m20 6 lw 1822 928 m 1 Y s 3 lw 1822 942 m20 6 lw
 1965 890 m 5 Y s 1965 922 m 1 Y s 3 lw 1965 909 m20 6 lw 2108 836 m 15 Y s 2108 878 m 6 Y s 3 lw 2108 864 m20 6 lw 1965 922 m 1 Y s 1965 923 m cl s 1965 895 m -4 Y s 1965 891 m cl s 2108 878 m 6 Y s 2108 884 m cl s 2108 851 m -14 Y s 2108 837 m cl s
 3 lw 391 1208 534 1192 677 1170 820 1142 963 1116 1106 1095 1249 1062 1392 1045 1535 1015 1679 988 1822 942 1965 909 2108 864 13 { m20} R 6 lw 3 lw 319 584 m 1860 X s 319 584 m cl s 391 584 m cl s 462 584 m cl s 534 584 m cl s 605 584 m cl s 677 584
 m cl s 748 584 m cl s 820 584 m cl s 892 584 m cl s 963 584 m cl s 1035 584 m cl s 1106 584 m cl s 1178 584 m cl s 1249 584 m cl s 1321 584 m cl s 1392 584 m cl s 1464 584 m cl s 1535 584 m cl s 1607 584 m cl s 1679 584 m cl s 1750 584 m cl s 1822
 584 m cl s 1893 584 m cl s 1965 584 m cl s 2036 584 m cl s 2108 584 m cl s 2108 584 m cl s 2179 584 m cl s 319 1729 m 1860 X s 319 1729 m cl s 391 1729 m cl s 462 1729 m cl s 534 1729 m cl s 605 1729 m cl s 677 1729 m cl s 748 1729 m cl s 820 1729 m
 cl s 892 1729 m cl s 963 1729 m cl s 1035 1729 m cl s 1106 1729 m cl s 1178 1729 m cl s 1249 1729 m cl s 1321 1729 m cl s 1392 1729 m cl s 1464 1729 m cl s 1535 1729 m cl s 1607 1729 m cl s 1679 1729 m cl s 1750 1729 m cl s 1822 1729 m cl s 1893
 1729 m cl s 1965 1729 m cl s 2036 1729 m cl s 2108 1729 m cl s 2108 1729 m cl s 2179 1729 m cl s 319 584 m 1145 Y s 341 629 m -22 X s 341 655 m -22 X s 341 673 m -22 X s 341 687 m -22 X s 341 699 m -22 X s 341 709 m -22 X s 341 717 m -22 X s 341 725
 m -22 X s 363 731 m -44 X s 341 776 m -22 X s 341 802 m -22 X s 341 820 m -22 X s 341 834 m -22 X s 341 846 m -22 X s 341 856 m -22 X s 341 864 m -22 X s 341 872 m -22 X s 363 879 m -44 X s 341 923 m -22 X s 341 949 m -22 X s 341 967 m -22 X s 341
 981 m -22 X s 341 993 m -22 X s 341 1003 m -22 X s 341 1012 m -22 X s 341 1019 m -22 X s 363 1026 m -44 X s 341 1070 m -22 X s 341 1096 m -22 X s 341 1114 m -22 X s 341 1129 m -22 X s 341 1140 m -22 X s 341 1150 m -22 X s 341 1159 m -22 X s 341 1166
 m -22 X s 363 1173 m -44 X s 341 1217 m -22 X s 341 1243 m -22 X s 341 1262 m -22 X s 341 1276 m -22 X s 341 1287 m -22 X s 341 1297 m -22 X s 341 1306 m -22 X s 341 1313 m -22 X s 363 1320 m -44 X s 341 1364 m -22 X s 341 1390 m -22 X s 341 1409 m
 -22 X s 341 1423 m -22 X s 341 1435 m -22 X s 341 1444 m -22 X s 341 1453 m -22 X s 341 1461 m -22 X s 363 1467 m -44 X s 341 1512 m -22 X s 341 1537 m -22 X s 341 1556 m -22 X s 341 1570 m -22 X s 341 1582 m -22 X s 341 1592 m -22 X s 341 1600 m
 -22 X s 341 1608 m -22 X s 363 1614 m -44 X s 341 1659 m -22 X s 341 1685 m -22 X s 341 1703 m -22 X s 341 1717 m -22 X s 2179 584 m 1145 Y s 2157 629 m 22 X s 2157 655 m 22 X s 2157 673 m 22 X s 2157 687 m 22 X s 2157 699 m 22 X s 2157 709 m 22 X s
 2157 717 m 22 X s 2157 725 m 22 X s 2136 731 m 43 X s 2157 776 m 22 X s 2157 802 m 22 X s 2157 820 m 22 X s 2157 834 m 22 X s 2157 846 m 22 X s 2157 856 m 22 X s 2157 864 m 22 X s 2157 872 m 22 X s 2136 879 m 43 X s 2157 923 m 22 X s 2157 949 m 22 X
 s 2157 967 m 22 X s 2157 981 m 22 X s 2157 993 m 22 X s 2157 1003 m 22 X s 2157 1012 m 22 X s 2157 1019 m 22 X s 2136 1026 m 43 X s 2157 1070 m 22 X s 2157 1096 m 22 X s 2157 1114 m 22 X s 2157 1129 m 22 X s 2157 1140 m 22 X s 2157 1150 m 22 X s
 2157 1159 m 22 X s 2157 1166 m 22 X s 2136 1173 m 43 X s 2157 1217 m 22 X s 2157 1243 m 22 X s 2157 1262 m 22 X s 2157 1276 m 22 X s 2157 1287 m 22 X s 2157 1297 m 22 X s 2157 1306 m 22 X s 2157 1313 m 22 X s 2136 1320 m 43 X s 2157 1364 m 22 X s
 2157 1390 m 22 X s 2157 1409 m 22 X s 2157 1423 m 22 X s 2157 1435 m 22 X s 2157 1444 m 22 X s 2157 1453 m 22 X s 2157 1461 m 22 X s 2136 1467 m 43 X s 2157 1512 m 22 X s 2157 1537 m 22 X s 2157 1556 m 22 X s 2157 1570 m 22 X s 2157 1582 m 22 X s
 2157 1592 m 22 X s 2157 1600 m 22 X s 2157 1608 m 22 X s 2136 1614 m 43 X s 2157 1659 m 22 X s 2157 1685 m 22 X s 2157 1703 m 22 X s 2157 1717 m 22 X s
 gsave  2263 1770 2 313 C 406.765 1447.41 t 0 r /Helvetica findfont 64.4212 sf 0 0 m (CRY for MB\255GGd) show NC gr 
 gsave  2263 1770 2 313 C 1464.36 1616.89 t 0 r /Helvetica findfont 64.4212 sf 0 0 m (SM Total) show NC gr  1 1 1 c 1338 1603 m 107 X 74 Y -107 X f 1 0 0 c 6 lw 1338 1640 m 107 X s black
 gsave  2263 1770 2 313 C 1464.36 1511.81 t 0 r /Helvetica findfont 64.4212 sf 0 0 m (Data) show NC gr  1391 1502 m 64 Y s 3 lw 1391 1534 m20 6 lw
 gsave  2263 1770 2 313 C 1464.36 1406.73 t 0 r /Helvetica findfont 64.4212 sf 0 0 m (GAMMAjets) show NC gr  1 1 0 c 3 lw 1338 1391 m 107 X 74 Y -107 X f 6 lw black 3 lw 1338 1465 m 107 X s 1338 1391 m 107 X s 1445 1391 m 74 Y s 1338 1391 m 74 Y s
 gsave  2263 1770 2 313 C 1464.36 1298.26 t 0 r /Helvetica findfont 64.4212 sf 0 0 m (W+jets) show NC gr  0.4 0.6 1 c 1338 1284 m 107 X 75 Y -107 X f black 1338 1359 m 107 X s 1338 1284 m 107 X s 1445 1284 m 75 Y s 1338 1284 m 75 Y s
 gsave  2263 1770 2 313 C 1498.25 1193.18 t 0 r /Helvetica findfont 64.4212 sf 0 0 m (\(+EW\) & single top) show NC gr 
 gsave  2263 1770 2 313 C 1481.3 1193.18 t 0 r /Helvetica findfont 64.4212 sf 0 0 m (t) show NC gr  1481 1244 m 17 X s
 gsave  2263 1770 2 313 C 1464.36 1193.18 t 0 r /Helvetica findfont 64.4212 sf 0 0 m (t) show NC gr  0.6 1 0.6 c 1338 1178 m 107 X 75 Y -107 X f black 1338 1253 m 107 X s 1338 1178 m 107 X s 1445 1178 m 75 Y s 1338 1178 m 75 Y s
 gsave  2263 1770 2 313 C 1464.36 1088.1 t 0 r /Helvetica findfont 64.4212 sf 0 0 m (Diboson) show NC gr  1 0.4 0.6 c 1338 1072 m 107 X 74 Y -107 X f black 1338 1146 m 107 X s 1338 1072 m 107 X s 1445 1072 m 74 Y s 1338 1072 m 74 Y s
 gsave  2263 1770 2 313 C 911.832 1566.05 t 0 r /Helvetica findfont 44.0776 sf 0 0 m (\2551) show NC gr 
 gsave  2263 1770 2 313 C 471.17 1535.54 t 0 r /Helvetica findfont 64.4212 sf 0 0 m (=13TeV, 139 fb) show NC gr 
 gsave  2263 1770 2 313 C 440.662 1535.54 t 0 r /Helvetica findfont 64.4212 sf 0 0 m (s) show NC gr  6 lw 420 1573 m 7 -41 d s 3 lw 427 1532 m 7 61 d s 434 1593 m 37 X s 1 1 1 c 2254 561 2 2 bf black 1 1 1 c black 1860 358 318 187 bl 1 1 1 c black
 1860 358 318 187 bl 6 lw 1 1 1 c black 3 lw 389 345 m20 6 lw 3 lw 533 342 m20 6 lw 3 lw 676 351 m20 6 lw 3 lw 819 346 m20 6 lw 3 lw 962 339 m20 6 lw 3 lw 1105 359 m20 6 lw 3 lw 1248 345 m20 6 lw 3 lw 1391 363 m20 6 lw 3 lw 1534 372 m20 6 lw 3 lw
 1677 406 m20 6 lw 3 lw 1821 381 m20 6 lw 3 lw 1964 409 m20 6 lw 3 lw 2107 310 m20 6 lw 3 lw 318 187 m 1860 X s
 gsave  2254 561 2 2 C 2105.01 64.4045 t 0 r /Helvetica findfont 50.9797 sf 0 0 m (1/2) show NC gr 
 gsave  2254 561 2 2 C 1888.07 23.728 t 0 r /Helvetica findfont 78.1689 sf 0 0 m ( [GeV]) show NC gr 
 gsave  2254 561 2 2 C 1857.56 3.38971 t 0 r /Helvetica findfont 50.9797 sf 0 0 m (T) show NC gr 
 gsave  2254 561 2 2 C 1806.72 23.728 t 0 r /Helvetica findfont 78.1689 sf 0 0 m (H) show NC gr  6 lw 1773 81 m 10 -78 d s 3 lw 1783 3 m 14 99 d s 1797 102 m 91 X s
 gsave  2254 561 2 2 C 1735.53 23.728 t 0 r /Helvetica findfont 78.1689 sf 0 0 m (/) show NC gr 
 gsave  2254 561 2 2 C 1630.45 61.0148 t 0 r /Helvetica findfont 50.9797 sf 0 0 m (miss) show NC gr 
 gsave  2254 561 2 2 C 1630.45 3.38971 t 0 r /Helvetica findfont 50.9797 sf 0 0 m (T) show NC gr 
 gsave  2254 561 2 2 C 1579.61 23.728 t 0 r /Helvetica findfont 78.1689 sf 0 0 m (E) show NC gr  318 201 m -14 Y s 389 194 m -7 Y s 461 194 m -7 Y s 533 194 m -7 Y s 604 194 m -7 Y s 676 201 m -14 Y s 747 194 m -7 Y s 819 194 m -7 Y s 890 194 m -7 Y
 s 962 194 m -7 Y s 1033 201 m -14 Y s 1105 194 m -7 Y s 1177 194 m -7 Y s 1248 194 m -7 Y s 1320 194 m -7 Y s 1391 201 m -14 Y s 1463 194 m -7 Y s 1534 194 m -7 Y s 1606 194 m -7 Y s 1677 194 m -7 Y s 1749 201 m -14 Y s 1821 194 m -7 Y s 1892 194 m
 -7 Y s 1964 194 m -7 Y s 2035 194 m -7 Y s 2107 201 m -14 Y s 2107 201 m -14 Y s 2178 194 m -7 Y s
 gsave  2254 561 2 2 C 271.177 118.64 t 0 r /Helvetica findfont 78.1689 sf 0 0 m (10) show NC gr 
 gsave  2254 561 2 2 C 630.486 118.64 t 0 r /Helvetica findfont 78.1689 sf 0 0 m (15) show NC gr 
 gsave  2254 561 2 2 C 986.406 118.64 t 0 r /Helvetica findfont 78.1689 sf 0 0 m (20) show NC gr 
 gsave  2254 561 2 2 C 1345.72 118.64 t 0 r /Helvetica findfont 78.1689 sf 0 0 m (25) show NC gr 
 gsave  2254 561 2 2 C 1701.63 118.64 t 0 r /Helvetica findfont 78.1689 sf 0 0 m (30) show NC gr 
 gsave  2254 561 2 2 C 2060.94 118.64 t 0 r /Helvetica findfont 78.1689 sf 0 0 m (35) show NC gr  318 545 m 1860 X s 318 531 m 14 Y s 389 538 m 7 Y s 461 538 m 7 Y s 533 538 m 7 Y s 604 538 m 7 Y s 676 531 m 14 Y s 747 538 m 7 Y s 819 538 m 7 Y s 890
 538 m 7 Y s 962 538 m 7 Y s 1033 531 m 14 Y s 1105 538 m 7 Y s 1177 538 m 7 Y s 1248 538 m 7 Y s 1320 538 m 7 Y s 1391 531 m 14 Y s 1463 538 m 7 Y s 1534 538 m 7 Y s 1606 538 m 7 Y s 1677 538 m 7 Y s 1749 531 m 14 Y s 1821 538 m 7 Y s 1892 538 m 7 Y
 s 1964 538 m 7 Y s 2035 538 m 7 Y s 2107 531 m 14 Y s 2107 531 m 14 Y s 2178 538 m 7 Y s 318 187 m 358 Y s
 gsave  2254 561 2 2 C 166.096 284.736 t 90 r /Helvetica findfont 67.9729 sf 0 0 m (Data/SM) show NC gr  361 203 m -43 X s 339 220 m -21 X s 339 236 m -21 X s 339 252 m -21 X s 339 268 m -21 X s 361 285 m -43 X s 339 301 m -21 X s 339 317 m -21 X s
 339 334 m -21 X s 339 350 m -21 X s 361 366 m -43 X s 339 382 m -21 X s 339 399 m -21 X s 339 415 m -21 X s 339 431 m -21 X s 361 447 m -43 X s 339 464 m -21 X s 339 480 m -21 X s 339 496 m -21 X s 339 512 m -21 X s 361 529 m -43 X s 361 203 m -43 X
 s 339 187 m -21 X s 361 529 m -43 X s
 gsave  2254 561 2 2 C 261.008 183.044 t 0 r /Helvetica findfont 57.777 sf 0 0 m (0) show NC gr 
 gsave  2254 561 2 2 C 213.552 261.008 t 0 r /Helvetica findfont 57.777 sf 0 0 m (0.5) show NC gr 
 gsave  2254 561 2 2 C 271.177 342.361 t 0 r /Helvetica findfont 57.777 sf 0 0 m (1) show NC gr 
 gsave  2254 561 2 2 C 213.552 423.714 t 0 r /Helvetica findfont 57.777 sf 0 0 m (1.5) show NC gr 
 gsave  2254 561 2 2 C 261.008 505.067 t 0 r /Helvetica findfont 57.777 sf 0 0 m (2) show NC gr  2178 187 m 358 Y s 2135 203 m 43 X s 2157 220 m 21 X s 2157 236 m 21 X s 2157 252 m 21 X s 2157 268 m 21 X s 2135 285 m 43 X s 2157 301 m 21 X s 2157 317
 m 21 X s 2157 334 m 21 X s 2157 350 m 21 X s 2135 366 m 43 X s 2157 382 m 21 X s 2157 399 m 21 X s 2157 415 m 21 X s 2157 431 m 21 X s 2135 447 m 43 X s 2157 464 m 21 X s 2157 480 m 21 X s 2157 496 m 21 X s 2157 512 m 21 X s 2135 529 m 43 X s 2135
 203 m 43 X s 2157 187 m 21 X s 2135 529 m 43 X s 9 lw 1391 376 m s 1391 376 m cl s 1534 386 m 5 Y s 1534 391 m cl s 1534 359 m -5 Y s 1534 354 m cl s 1677 419 m 14 Y s 1677 433 m cl s 1677 392 m -13 Y s 1677 379 m cl s 1821 394 m 21 Y s 1821 415 m
 cl s 1821 367 m -20 Y s 1821 347 m cl s 1964 423 m 39 Y s 1964 462 m cl s 1964 396 m -37 Y s 1964 359 m cl s 2107 323 m 26 Y s 2107 349 m cl s 2107 296 m -23 Y s 2107 273 m cl s 3 lw 389 345 533 342 676 351 819 346 962 339 1105 359 1248 345 1391 363
 1534 372 1677 406 1821 381 1964 409 2107 310 13 { m20} R 9 lw 1 0 0 c 6 lw black 3 lw 1 0 0 c 2178 369 m -14 -14 d s 2158 377 m -23 -22 d s 2129 377 m -23 -22 d s 2100 377 m -22 -22 d s 2071 377 m -22 -22 d s 2043 377 m -21 -20 d s 2012 375 m -19
 -18 d s 1984 375 m -19 -18 d s 1955 375 m -19 -18 d s 1926 375 m -19 -18 d s 1897 375 m -19 -19 d s 1869 376 m -20 -20 d s 1841 376 m -20 -20 d s 1812 376 m -20 -20 d s 1783 376 m -20 -20 d s 1755 376 m -19 -19 d s 1725 375 m -18 -18 d s 1696 375 m
 -17 -18 d s 1667 375 m -17 -18 d s 1638 375 m -17 -18 d s 1610 375 m -16 -16 d s 1580 373 m -15 -14 d s 1551 373 m -14 -14 d s 1522 373 m -14 -14 d s 1493 373 m -14 -14 d s 1465 373 m -14 -14 d s 1436 373 m -14 -14 d s 1407 373 m -14 -14 d s 1378
 373 m -13 -14 d s 1350 373 m -14 -14 d s 1321 373 m -1 -2 d s 1320 371 m -11 -10 d s 1291 371 m -11 -10 d s 1262 371 m -10 -10 d s 1233 371 m -10 -10 d s 1205 371 m -11 -10 d s 1175 370 m -9 -8 d s 1146 370 m -8 -8 d s 1118 370 m -9 -8 d s 1089 370
 m -9 -8 d s 1060 370 m -8 -8 d s 1032 370 m -9 -8 d s 1003 370 m -9 -8 d s 974 370 m -8 -8 d s 946 370 m -9 -8 d s 917 370 m -9 -8 d s 888 370 m -8 -8 d s 859 370 m -8 -8 d s 831 370 m -9 -8 d s 802 370 m -8 -8 d s 773 370 m -8 -8 d s 744 370 m -8
 -8 d s 716 370 m -8 -8 d s 687 370 m -8 -8 d s 658 370 m -8 -8 d s 630 370 m -8 -8 d s 601 370 m -8 -8 d s 572 370 m -7 -8 d s 543 370 m -7 -8 d s 514 370 m -7 -8 d s 486 370 m -7 -8 d s 457 370 m -7 -8 d s 318 231 m s 428 370 m -7 -8 d s 318 259 m
 s 400 370 m -7 -8 d s 318 288 m s 371 370 m -7 -8 d s 318 317 m s 342 370 m -7 -8 d s 318 345 m s 6 lw black[ 4 8] 0 sd 3 lw 318 447 m 1860 X s 318 285 m 1860 X s 1 0 0 c[  12 12 ] 0 sd 6 lw 318 366 m 1860 X s
 gr  gr showpage
end
%%EOF
