%!PS-Adobe-2.0 EPSF-2.0
%%BoundingBox:  0 0 567 521
%%Title: Distributions/metsqrtmeffInc_met_distrSR_MB-GGd_afterFit_forThesis.eps: canvas
%%Creator: ROOT Version 6.04/16
%%CreationDate: Tue May 19 22:06:51 2020
%%DocumentNeededResources: ProcSet (FontSetInit)
%%EndComments
%%BeginProlog
80 dict begin
/s {stroke} def /l {lineto} def /m {moveto} def /t {translate} def
/r {rotate} def /rl {roll}  def /R {repeat} def
/d {rlineto} def /rm {rmoveto} def /gr {grestore} def /f {eofill} def
/c {setrgbcolor} def /black {0 setgray} def /sd {setdash} def
/cl {closepath} def /sf {scalefont setfont} def /lw {setlinewidth} def
/box {m dup 0 exch d exch 0 d 0 exch neg d cl} def
/NC{systemdict begin initclip end}def/C{NC box clip newpath}def
/bl {box s} def /bf {gsave box gsave f grestore 1 lw [] 0 sd s grestore} def /Y { 0 exch d} def /X { 0 d} def 
/K {{pop pop 0 moveto} exch kshow} bind def
/ita {/ang 15 def gsave [1 0 ang dup sin exch cos div 1 0 0] concat} def 
/mp {newpath /y exch def /x exch def} def
/side {[w .77 mul w .23 mul] .385 w mul sd w 0 l currentpoint t -144 r} def
/mr {mp x y w2 0 360 arc} def /m24 {mr s} def /m20 {mr f} def
/mb {mp x y w2 add m w2 neg 0 d 0 w neg d w 0 d 0 w d cl} def
/mt {mp x y w2 add m w2 neg w neg d w 0 d cl} def
/m21 {mb f} def /m25 {mb s} def /m22 {mt f} def /m26{mt s} def
/m23 {mp x y w2 sub m w2 w d w neg 0 d cl f} def
/m27 {mp x y w2 add m w3 neg w2 neg d w3 w2 neg d w3 w2 d cl s} def
/m28 {mp x w2 sub y w2 sub w3 add m w3 0 d  0 w3 neg d w3 0 d 0 w3 d w3 0 d  0 w3 d w3 neg 0 d 0 w3 d w3 neg 0 d 0 w3 neg d w3 neg 0 d cl s } def
/m29 {mp gsave x w2 sub y w2 add w3 sub m currentpoint t 4 {side} repeat cl fill gr} def
/m30 {mp gsave x w2 sub y w2 add w3 sub m currentpoint t 4 {side} repeat cl s gr} def
/m31 {mp x y w2 sub m 0 w d x w2 sub y m w 0 d x w2 sub y w2 add m w w neg d x w2 sub y w2 sub m w w d s} def
/m32 {mp x y w2 sub m w2 w d w neg 0 d cl s} def
/m33 {mp x y w2 add m w3 neg w2 neg d w3 w2 neg d w3 w2 d cl f} def
/m34 {mp x w2 sub y w2 sub w3 add m w3 0 d  0 w3 neg d w3 0 d 0 w3 d w3 0 d  0 w3 d w3 neg 0 d 0 w3 d w3 neg 0 d 0 w3 neg d w3 neg 0 d cl f } def
/m2 {mp x y w2 sub m 0 w d x w2 sub y m w 0 d s} def
/m5 {mp x w2 sub y w2 sub m w w d x w2 sub y w2 add m w w neg d s} def
%%IncludeResource: ProcSet (FontSetInit)
%%IncludeResource: font Times-Roman
%%IncludeResource: font Times-Italic
%%IncludeResource: font Times-Bold
%%IncludeResource: font Times-BoldItalic
%%IncludeResource: font Helvetica
%%IncludeResource: font Helvetica-Oblique
%%IncludeResource: font Helvetica-Bold
%%IncludeResource: font Helvetica-BoldOblique
%%IncludeResource: font Courier
%%IncludeResource: font Courier-Oblique
%%IncludeResource: font Courier-Bold
%%IncludeResource: font Courier-BoldOblique
%%IncludeResource: font Symbol
%%IncludeResource: font ZapfDingbats
/reEncode {exch findfont dup length dict begin {1 index /FID eq  {pop pop} {def} ifelse } forall /Encoding exch def currentdict end dup /FontName get exch definefont pop } def [/Times-Bold /Times-Italic /Times-BoldItalic /Helvetica /Helvetica-Oblique
 /Helvetica-Bold /Helvetica-BoldOblique /Courier /Courier-Oblique /Courier-Bold /Courier-BoldOblique /Times-Roman /AvantGarde-Book /AvantGarde-BookOblique /AvantGarde-Demi /AvantGarde-DemiOblique /Bookman-Demi /Bookman-DemiItalic /Bookman-Light
 /Bookman-LightItalic /Helvetica-Narrow /Helvetica-Narrow-Bold /Helvetica-Narrow-BoldOblique /Helvetica-Narrow-Oblique /NewCenturySchlbk-Roman /NewCenturySchlbk-Bold /NewCenturySchlbk-BoldItalic /NewCenturySchlbk-Italic /Palatino-Bold
 /Palatino-BoldItalic /Palatino-Italic /Palatino-Roman ] {ISOLatin1Encoding reEncode } forall
%%EndProlog
%%BeginSetup
%%EndSetup
newpath  gsave  .25 .25 scale  gsave  0 0 t black[  ] 0 sd 3 lw 1 1 1 c 2268 2085 0 0 bf black 1 1 1 c 2263 1770 2 313 bf black 1 1 1 c black 1860 1145 319 584 bl 1 1 1 c black 1860 1145 319 584 bl 6 lw 1 1 1 c black 3 lw /w 33 def /w2 {w 2 div} def
 /w3 {w 3 div} def 391 1182 m20 6 lw 3 lw 534 1172 m20 6 lw 3 lw 677 1131 m20 6 lw 3 lw 820 1100 m20 6 lw 3 lw 963 1051 m20 6 lw 3 lw 1106 1026 m20 6 lw 3 lw 1249 1011 m20 6 lw 1392 947 m 1 Y s 3 lw 1392 962 m20 6 lw 1535 871 m 12 Y s 1535 910 m 5 Y
 s 3 lw 1535 897 m20 6 lw 1679 840 m 19 Y s 1679 886 m 8 Y s 3 lw 1679 872 m20 6 lw 1822 788 m 33 Y s 1822 848 m 14 Y s 3 lw 1822 835 m20 6 lw 2108 704 m 70 Y s 2108 801 m 23 Y s 3 lw 2108 788 m20 6 lw 3 lw 319 584 m 1860 X s
 gsave  2263 1770 2 313 C 2101.62 396.596 t 0 r /Helvetica findfont 54.2494 sf 0 0 m (1/2) show NC gr 
 gsave  2263 1770 2 313 C 1874.51 355.92 t 0 r /Helvetica findfont 81.3741 sf 0 0 m ( [GeV]) show NC gr 
 gsave  2263 1770 2 313 C 1840.61 332.192 t 0 r /Helvetica findfont 54.2494 sf 0 0 m (T) show NC gr 
 gsave  2263 1770 2 313 C 1786.38 355.92 t 0 r /Helvetica findfont 81.3741 sf 0 0 m (H) show NC gr  6 lw 1749 417 m 14 -85 d s 3 lw 1763 332 m 13 105 d s 1776 437 m 99 X s
 gsave  2263 1770 2 313 C 1711.8 355.92 t 0 r /Helvetica findfont 81.3741 sf 0 0 m (/) show NC gr 
 gsave  2263 1770 2 313 C 1599.94 396.596 t 0 r /Helvetica findfont 54.2494 sf 0 0 m (miss) show NC gr 
 gsave  2263 1770 2 313 C 1599.94 332.192 t 0 r /Helvetica findfont 54.2494 sf 0 0 m (T) show NC gr 
 gsave  2263 1770 2 313 C 1549.1 355.92 t 0 r /Helvetica findfont 81.3741 sf 0 0 m (E) show NC gr  319 584 m cl s 391 584 m cl s 462 584 m cl s 534 584 m cl s 605 584 m cl s 677 584 m cl s 748 584 m cl s 820 584 m cl s 892 584 m cl s 963 584 m cl s
 1035 584 m cl s 1106 584 m cl s 1178 584 m cl s 1249 584 m cl s 1321 584 m cl s 1392 584 m cl s 1464 584 m cl s 1535 584 m cl s 1607 584 m cl s 1679 584 m cl s 1750 584 m cl s 1822 584 m cl s 1893 584 m cl s 1965 584 m cl s 2036 584 m cl s 2108 584
 m cl s 2108 584 m cl s 2179 584 m cl s 319 1729 m 1860 X s 319 1729 m cl s 391 1729 m cl s 462 1729 m cl s 534 1729 m cl s 605 1729 m cl s 677 1729 m cl s 748 1729 m cl s 820 1729 m cl s 892 1729 m cl s 963 1729 m cl s 1035 1729 m cl s 1106 1729 m
 cl s 1178 1729 m cl s 1249 1729 m cl s 1321 1729 m cl s 1392 1729 m cl s 1464 1729 m cl s 1535 1729 m cl s 1607 1729 m cl s 1679 1729 m cl s 1750 1729 m cl s 1822 1729 m cl s 1893 1729 m cl s 1965 1729 m cl s 2036 1729 m cl s 2108 1729 m cl s 2108
 1729 m cl s 2179 1729 m cl s 319 584 m 1145 Y s
 gsave  2263 1770 2 313 C 125.419 1654.18 t 90 r /Helvetica findfont 54.2494 sf 0 0 m (1/2) show NC gr 
 gsave  2263 1770 2 313 C 166.096 1064.37 t 90 r /Helvetica findfont 81.3741 sf 0 0 m (Events / 2 [GeV]) show NC gr  341 631 m -22 X s 341 659 m -22 X s 341 678 m -22 X s 341 693 m -22 X s 341 706 m -22 X s 341 716 m -22 X s 341 725 m -22 X s 341 733
 m -22 X s 363 740 m -44 X s
 gsave  2263 1770 2 313 C 300.555 713.381 t 0 r  -36 0 t /Helvetica findfont 64.4212 sf 0 0 m (1) show NC gr  341 788 m -22 X s 341 815 m -22 X s 341 835 m -22 X s 341 850 m -22 X s 341 862 m -22 X s 341 872 m -22 X s 341 882 m -22 X s 341 890 m -22
 X s 363 897 m -44 X s
 gsave  2263 1770 2 313 C 300.555 869.57 t 0 r  -73 0 t /Helvetica findfont 64.4212 sf 0 0 m (10) show NC gr  341 944 m -22 X s 341 971 m -22 X s 341 991 m -22 X s 341 1006 m -22 X s 341 1018 m -22 X s 341 1029 m -22 X s 341 1038 m -22 X s 341 1046 m
 -22 X s 363 1053 m -44 X s
 gsave  2263 1770 2 313 C 274.567 1050.81 t 0 r /Helvetica findfont 44.0776 sf 0 0 m (2) show NC gr 
 gsave  2263 1770 2 313 C 203.383 1023.69 t 0 r /Helvetica findfont 64.4212 sf 0 0 m (10) show NC gr  341 1100 m -22 X s 341 1127 m -22 X s 341 1147 m -22 X s 341 1162 m -22 X s 341 1174 m -22 X s 341 1185 m -22 X s 341 1194 m -22 X s 341 1202 m -22
 X s 363 1209 m -44 X s
 gsave  2263 1770 2 313 C 274.567 1210.13 t 0 r /Helvetica findfont 44.0776 sf 0 0 m (3) show NC gr 
 gsave  2263 1770 2 313 C 203.383 1179.62 t 0 r /Helvetica findfont 64.4212 sf 0 0 m (10) show NC gr  341 1256 m -22 X s 341 1284 m -22 X s 341 1303 m -22 X s 341 1318 m -22 X s 341 1331 m -22 X s 341 1341 m -22 X s 341 1350 m -22 X s 341 1358 m -22
 X s 363 1365 m -44 X s
 gsave  2263 1770 2 313 C 274.567 1362.66 t 0 r /Helvetica findfont 44.0776 sf 0 0 m (4) show NC gr 
 gsave  2263 1770 2 313 C 203.383 1335.55 t 0 r /Helvetica findfont 64.4212 sf 0 0 m (10) show NC gr  341 1412 m -22 X s 341 1440 m -22 X s 341 1459 m -22 X s 341 1474 m -22 X s 341 1487 m -22 X s 341 1497 m -22 X s 341 1506 m -22 X s 341 1514 m -22
 X s 363 1521 m -44 X s
 gsave  2263 1770 2 313 C 274.567 1521.98 t 0 r /Helvetica findfont 44.0776 sf 0 0 m (5) show NC gr 
 gsave  2263 1770 2 313 C 203.383 1491.47 t 0 r /Helvetica findfont 64.4212 sf 0 0 m (10) show NC gr  341 1568 m -22 X s 341 1596 m -22 X s 341 1615 m -22 X s 341 1631 m -22 X s 341 1643 m -22 X s 341 1653 m -22 X s 341 1662 m -22 X s 341 1670 m -22
 X s 363 1678 m -44 X s
 gsave  2263 1770 2 313 C 274.567 1677.91 t 0 r /Helvetica findfont 44.0776 sf 0 0 m (6) show NC gr 
 gsave  2263 1770 2 313 C 203.383 1647.4 t 0 r /Helvetica findfont 64.4212 sf 0 0 m (10) show NC gr  341 1725 m -22 X s 2179 584 m 1145 Y s 2157 631 m 22 X s 2157 659 m 22 X s 2157 678 m 22 X s 2157 693 m 22 X s 2157 706 m 22 X s 2157 716 m 22 X s
 2157 725 m 22 X s 2157 733 m 22 X s 2136 740 m 43 X s 2157 788 m 22 X s 2157 815 m 22 X s 2157 835 m 22 X s 2157 850 m 22 X s 2157 862 m 22 X s 2157 872 m 22 X s 2157 882 m 22 X s 2157 890 m 22 X s 2136 897 m 43 X s 2157 944 m 22 X s 2157 971 m 22 X
 s 2157 991 m 22 X s 2157 1006 m 22 X s 2157 1018 m 22 X s 2157 1029 m 22 X s 2157 1038 m 22 X s 2157 1046 m 22 X s 2136 1053 m 43 X s 2157 1100 m 22 X s 2157 1127 m 22 X s 2157 1147 m 22 X s 2157 1162 m 22 X s 2157 1174 m 22 X s 2157 1185 m 22 X s
 2157 1194 m 22 X s 2157 1202 m 22 X s 2136 1209 m 43 X s 2157 1256 m 22 X s 2157 1284 m 22 X s 2157 1303 m 22 X s 2157 1318 m 22 X s 2157 1331 m 22 X s 2157 1341 m 22 X s 2157 1350 m 22 X s 2157 1358 m 22 X s 2136 1365 m 43 X s 2157 1412 m 22 X s
 2157 1440 m 22 X s 2157 1459 m 22 X s 2157 1474 m 22 X s 2157 1487 m 22 X s 2157 1497 m 22 X s 2157 1506 m 22 X s 2157 1514 m 22 X s 2136 1521 m 43 X s 2157 1568 m 22 X s 2157 1596 m 22 X s 2157 1615 m 22 X s 2157 1631 m 22 X s 2157 1643 m 22 X s
 2157 1653 m 22 X s 2157 1662 m 22 X s 2157 1670 m 22 X s 2136 1678 m 43 X s 2157 1725 m 22 X s 0.4 0.6 1 c black 0.4 0.6 1 c 319 584 m 602 Y 143 X -22 Y 143 X -33 Y 143 X -34 Y 144 X -33 Y 143 X -28 Y 143 X -42 Y 143 X -37 Y 143 X -35 Y 143 X -46 Y
 143 X -61 Y 143 X -49 Y 143 X -36 Y 143 X -146 Y f black 0.4 0.6 1 c black 319 1186 m 143 X -22 Y 143 X -33 Y 143 X -34 Y 144 X -33 Y 143 X -28 Y 143 X -42 Y 143 X -37 Y 143 X -35 Y 143 X -46 Y 143 X -61 Y 143 X -49 Y 143 X -36 Y 143 X s 0.999 0.999
 0.999 c black 0.999 0.999 0.999 c 319 584 m 583 Y 143 X -21 Y 143 X -34 Y 143 X -33 Y 144 X -33 Y 143 X -27 Y 143 X -40 Y 143 X -42 Y 143 X -26 Y 143 X -48 Y 143 X -65 Y 143 X -39 Y 143 X -47 Y 143 X -128 Y f black 0.999 0.999 0.999 c black 319 1167
 m 143 X -21 Y 143 X -34 Y 143 X -33 Y 144 X -33 Y 143 X -27 Y 143 X -40 Y 143 X -42 Y 143 X -26 Y 143 X -48 Y 143 X -65 Y 143 X -39 Y 143 X -47 Y 143 X s 1 1 1 c black 319 1167 m 143 X -21 Y 143 X -34 Y 143 X -33 Y 144 X -33 Y 143 X -27 Y 143 X -40
 Y 143 X -42 Y 143 X -26 Y 143 X -48 Y 143 X -65 Y 143 X -39 Y 143 X -47 Y 143 X s 0.6 1 0.6 c black 0.6 1 0.6 c 319 584 m 583 Y 143 X -21 Y 143 X -34 Y 143 X -33 Y 144 X -33 Y 143 X -27 Y 143 X -40 Y 143 X -42 Y 143 X -26 Y 143 X -48 Y 143 X -65 Y
 143 X -39 Y 143 X -47 Y 143 X -128 Y f black 0.6 1 0.6 c black 319 1167 m 143 X -21 Y 143 X -34 Y 143 X -33 Y 144 X -33 Y 143 X -27 Y 143 X -40 Y 143 X -42 Y 143 X -26 Y 143 X -48 Y 143 X -65 Y 143 X -39 Y 143 X -47 Y 143 X s 0.999 0.999 0.999 c
 black 0.999 0.999 0.999 c 319 584 m 544 Y 143 X -11 Y 143 X -29 Y 143 X -27 Y 144 X -27 Y 143 X -26 Y 143 X -35 Y 143 X -41 Y 143 X -25 Y 143 X -46 Y 143 X -63 Y 143 X -40 Y 143 X -46 Y 143 X -128 Y f black 0.999 0.999 0.999 c black 319 1128 m 143 X
 -11 Y 143 X -29 Y 143 X -27 Y 144 X -27 Y 143 X -26 Y 143 X -35 Y 143 X -41 Y 143 X -25 Y 143 X -46 Y 143 X -63 Y 143 X -40 Y 143 X -46 Y 143 X s 1 1 1 c black 319 1128 m 143 X -11 Y 143 X -29 Y 143 X -27 Y 144 X -27 Y 143 X -26 Y 143 X -35 Y 143 X
 -41 Y 143 X -25 Y 143 X -46 Y 143 X -63 Y 143 X -40 Y 143 X -46 Y 143 X s 1 0.8 0.4 c black 1 0.8 0.4 c 319 584 m 544 Y 143 X -11 Y 143 X -29 Y 143 X -27 Y 144 X -27 Y 143 X -26 Y 143 X -35 Y 143 X -41 Y 143 X -25 Y 143 X -46 Y 143 X -63 Y 143 X -40
 Y 143 X -46 Y 143 X -128 Y f black 1 0.8 0.4 c black 319 1128 m 143 X -11 Y 143 X -29 Y 143 X -27 Y 144 X -27 Y 143 X -26 Y 143 X -35 Y 143 X -41 Y 143 X -25 Y 143 X -46 Y 143 X -63 Y 143 X -40 Y 143 X -46 Y 143 X s 0.999 0.999 0.999 c black 0.999
 0.999 0.999 c 319 584 m 407 Y 143 X -11 Y 143 X -39 Y 143 X -16 Y 144 X -22 Y 143 X -42 Y 143 X -27 Y 143 X -61 Y 143 X -7 Y 143 X -79 Y 143 X -3 Y 143 X -72 Y 143 X -10 Y 143 X -18 Y f black 0.999 0.999 0.999 c black 319 991 m 143 X -11 Y 143 X -39
 Y 143 X -16 Y 144 X -22 Y 143 X -42 Y 143 X -27 Y 143 X -61 Y 143 X -7 Y 143 X -79 Y 143 X -3 Y 143 X -72 Y 143 X -10 Y 143 X s 1 1 1 c black 319 991 m 143 X -11 Y 143 X -39 Y 143 X -16 Y 144 X -22 Y 143 X -42 Y 143 X -27 Y 143 X -61 Y 143 X -7 Y
 143 X -79 Y 143 X -3 Y 143 X -72 Y 143 X -10 Y 143 X s 1 0.4 0.6 c black 1 0.4 0.6 c 319 584 m 407 Y 143 X -11 Y 143 X -39 Y 143 X -16 Y 144 X -22 Y 143 X -42 Y 143 X -27 Y 143 X -61 Y 143 X -7 Y 143 X -79 Y 143 X -3 Y 143 X -72 Y 143 X -10 Y 143 X
 -18 Y f black 1 0.4 0.6 c black 319 991 m 143 X -11 Y 143 X -39 Y 143 X -16 Y 144 X -22 Y 143 X -42 Y 143 X -27 Y 143 X -61 Y 143 X -7 Y 143 X -79 Y 143 X -3 Y 143 X -72 Y 143 X -10 Y 143 X s 0.999 0.999 0.999 c black 0.999 0.999 0.999 c 319 584 m
 242 Y 143 X -95 Y 143 X -49 Y 143 X -98 Y 1431 X f black 0.999 0.999 0.999 c black 319 826 m 143 X -95 Y 143 X -49 Y 143 X -98 Y 1431 X s 1 1 1 c black 319 826 m 143 X -95 Y 143 X -49 Y 143 X -98 Y 1431 X s 0 0 0.4 c black 0 0 0.4 c 319 584 m 242 Y
 143 X -95 Y 143 X -49 Y 143 X -98 Y 1431 X f black 0 0 0.4 c black 319 826 m 143 X -95 Y 143 X -49 Y 143 X -98 Y 1431 X s 1 0 0 c 6 lw 1 1 1 c black 1 0 0 c 319 1186 m 143 X -22 Y 143 X -33 Y 143 X -34 Y 144 X -33 Y 143 X -28 Y 143 X -42 Y 143 X -37
 Y 143 X -35 Y 143 X -46 Y 143 X -61 Y 143 X -49 Y 143 X -36 Y 143 X s black 3 lw 1 0 0 c 1 lw << /PatternType 1 /PaintType 2 /TilingType 1 /BBox [ 0 0 100 100 ] /XStep 100 /YStep 100 /PaintProc { begin gsave 0 100 m 100 0 l s gr end } >> [ 0.24 0 0
 0.24 0 0 ] makepattern /P05 exch def /cs {[/Pattern /DeviceRGB] setcolorspace} def /FA {f [/DeviceRGB] setcolorspace} def cs 1 0 0 P05 setcolor 319 584 m 604 Y 143 X -21 Y 143 X -33 Y 143 X -33 Y 144 X -34 Y 143 X -27 Y 143 X -39 Y 143 X -38 Y 143 X
 -34 Y 143 X -46 Y 143 X -59 Y 143 X -46 Y 143 X -36 Y 143 X -26 Y -143 X 35 Y -143 X 54 Y -143 X 63 Y -143 X 47 Y -143 X 35 Y -143 X 37 Y -143 X 44 Y -143 X 28 Y -143 X 34 Y -144 X 34 Y -143 X 34 Y -143 X 21 Y -143 X -598 Y FA 6 lw 1 1 1 c 15 lw
 1535 876 m -4 Y s 1535 872 m cl s 1679 893 m 2 Y s 1679 895 m cl s 1679 852 m -11 Y s 1679 841 m cl s 1822 855 m 9 Y s 1822 864 m cl s 1822 814 m -23 Y s 1822 791 m cl s 2108 808 m 20 Y s 2108 828 m cl s 2108 767 m -50 Y s 2108 717 m cl s black 1 1
 1 c 3 lw /w 43 def /w2 {w 2 div} def /w3 {w 3 div} def 391 1182 534 1172 677 1131 820 1100 963 1051 1106 1026 1249 1011 1392 962 1535 897 1679 872 1822 835 11 { m20} R 15 lw 3 lw 2108 788 m20 15 lw black 6 lw 1 1 1 c black 3 lw /w 33 def /w2 {w 2
 div} def /w3 {w 3 div} def 391 1182 m20 6 lw 3 lw 534 1172 m20 6 lw 3 lw 677 1131 m20 6 lw 3 lw 820 1100 m20 6 lw 3 lw 963 1051 m20 6 lw 3 lw 1106 1026 m20 6 lw 3 lw 1249 1011 m20 6 lw 1392 947 m 1 Y s 3 lw 1392 962 m20 6 lw 1535 871 m 12 Y s 1535
 910 m 5 Y s 3 lw 1535 897 m20 6 lw 1679 840 m 19 Y s 1679 886 m 8 Y s 3 lw 1679 872 m20 6 lw 1822 788 m 33 Y s 1822 848 m 14 Y s 3 lw 1822 835 m20 6 lw 2108 704 m 70 Y s 2108 801 m 23 Y s 3 lw 2108 788 m20 6 lw 1392 948 m -1 Y s 1392 947 m cl s 1535
 910 m 6 Y s 1535 916 m cl s 1535 883 m -11 Y s 1535 872 m cl s 1679 886 m 9 Y s 1679 895 m cl s 1679 859 m -18 Y s 1679 841 m cl s 1822 848 m 16 Y s 1822 864 m cl s 1822 821 m -30 Y s 1822 791 m cl s 2108 801 m 27 Y s 2108 828 m cl s 2108 774 m -57
 Y s 2108 717 m cl s 3 lw 391 1182 534 1172 677 1131 820 1100 963 1051 1106 1026 1249 1011 1392 962 1535 897 1679 872 1822 835 11 { m20} R 6 lw 3 lw 2108 788 m20 6 lw 3 lw 319 584 m 1860 X s 319 584 m cl s 391 584 m cl s 462 584 m cl s 534 584 m cl s
 605 584 m cl s 677 584 m cl s 748 584 m cl s 820 584 m cl s 892 584 m cl s 963 584 m cl s 1035 584 m cl s 1106 584 m cl s 1178 584 m cl s 1249 584 m cl s 1321 584 m cl s 1392 584 m cl s 1464 584 m cl s 1535 584 m cl s 1607 584 m cl s 1679 584 m cl s
 1750 584 m cl s 1822 584 m cl s 1893 584 m cl s 1965 584 m cl s 2036 584 m cl s 2108 584 m cl s 2108 584 m cl s 2179 584 m cl s 319 1729 m 1860 X s 319 1729 m cl s 391 1729 m cl s 462 1729 m cl s 534 1729 m cl s 605 1729 m cl s 677 1729 m cl s 748
 1729 m cl s 820 1729 m cl s 892 1729 m cl s 963 1729 m cl s 1035 1729 m cl s 1106 1729 m cl s 1178 1729 m cl s 1249 1729 m cl s 1321 1729 m cl s 1392 1729 m cl s 1464 1729 m cl s 1535 1729 m cl s 1607 1729 m cl s 1679 1729 m cl s 1750 1729 m cl s
 1822 1729 m cl s 1893 1729 m cl s 1965 1729 m cl s 2036 1729 m cl s 2108 1729 m cl s 2108 1729 m cl s 2179 1729 m cl s 319 584 m 1145 Y s 341 631 m -22 X s 341 659 m -22 X s 341 678 m -22 X s 341 693 m -22 X s 341 706 m -22 X s 341 716 m -22 X s 341
 725 m -22 X s 341 733 m -22 X s 363 740 m -44 X s 341 788 m -22 X s 341 815 m -22 X s 341 835 m -22 X s 341 850 m -22 X s 341 862 m -22 X s 341 872 m -22 X s 341 882 m -22 X s 341 890 m -22 X s 363 897 m -44 X s 341 944 m -22 X s 341 971 m -22 X s
 341 991 m -22 X s 341 1006 m -22 X s 341 1018 m -22 X s 341 1029 m -22 X s 341 1038 m -22 X s 341 1046 m -22 X s 363 1053 m -44 X s 341 1100 m -22 X s 341 1127 m -22 X s 341 1147 m -22 X s 341 1162 m -22 X s 341 1174 m -22 X s 341 1185 m -22 X s 341
 1194 m -22 X s 341 1202 m -22 X s 363 1209 m -44 X s 341 1256 m -22 X s 341 1284 m -22 X s 341 1303 m -22 X s 341 1318 m -22 X s 341 1331 m -22 X s 341 1341 m -22 X s 341 1350 m -22 X s 341 1358 m -22 X s 363 1365 m -44 X s 341 1412 m -22 X s 341
 1440 m -22 X s 341 1459 m -22 X s 341 1474 m -22 X s 341 1487 m -22 X s 341 1497 m -22 X s 341 1506 m -22 X s 341 1514 m -22 X s 363 1521 m -44 X s 341 1568 m -22 X s 341 1596 m -22 X s 341 1615 m -22 X s 341 1631 m -22 X s 341 1643 m -22 X s 341
 1653 m -22 X s 341 1662 m -22 X s 341 1670 m -22 X s 363 1678 m -44 X s 341 1725 m -22 X s 2179 584 m 1145 Y s 2157 631 m 22 X s 2157 659 m 22 X s 2157 678 m 22 X s 2157 693 m 22 X s 2157 706 m 22 X s 2157 716 m 22 X s 2157 725 m 22 X s 2157 733 m
 22 X s 2136 740 m 43 X s 2157 788 m 22 X s 2157 815 m 22 X s 2157 835 m 22 X s 2157 850 m 22 X s 2157 862 m 22 X s 2157 872 m 22 X s 2157 882 m 22 X s 2157 890 m 22 X s 2136 897 m 43 X s 2157 944 m 22 X s 2157 971 m 22 X s 2157 991 m 22 X s 2157
 1006 m 22 X s 2157 1018 m 22 X s 2157 1029 m 22 X s 2157 1038 m 22 X s 2157 1046 m 22 X s 2136 1053 m 43 X s 2157 1100 m 22 X s 2157 1127 m 22 X s 2157 1147 m 22 X s 2157 1162 m 22 X s 2157 1174 m 22 X s 2157 1185 m 22 X s 2157 1194 m 22 X s 2157
 1202 m 22 X s 2136 1209 m 43 X s 2157 1256 m 22 X s 2157 1284 m 22 X s 2157 1303 m 22 X s 2157 1318 m 22 X s 2157 1331 m 22 X s 2157 1341 m 22 X s 2157 1350 m 22 X s 2157 1358 m 22 X s 2136 1365 m 43 X s 2157 1412 m 22 X s 2157 1440 m 22 X s 2157
 1459 m 22 X s 2157 1474 m 22 X s 2157 1487 m 22 X s 2157 1497 m 22 X s 2157 1506 m 22 X s 2157 1514 m 22 X s 2136 1521 m 43 X s 2157 1568 m 22 X s 2157 1596 m 22 X s 2157 1615 m 22 X s 2157 1631 m 22 X s 2157 1643 m 22 X s 2157 1653 m 22 X s 2157
 1662 m 22 X s 2157 1670 m 22 X s 2136 1678 m 43 X s 2157 1725 m 22 X s
 gsave  2263 1770 2 313 C 406.765 1447.41 t 0 r /Helvetica findfont 64.4212 sf 0 0 m (SR for MB\255GGd) show NC gr 
 gsave  2263 1770 2 313 C 1464.36 1630.45 t 0 r /Helvetica findfont 64.4212 sf 0 0 m (SM Total) show NC gr  1 1 1 c 1338 1616 m 107 X 64 Y -107 X f 1 0 0 c 6 lw 1338 1648 m 107 X s black
 gsave  2263 1770 2 313 C 1464.36 1538.93 t 0 r /Helvetica findfont 64.4212 sf 0 0 m (Data) show NC gr  1391 1529 m 55 Y s 3 lw 1391 1557 m20 6 lw
 gsave  2263 1770 2 313 C 1464.36 1447.41 t 0 r /Helvetica findfont 64.4212 sf 0 0 m (W+jets) show NC gr  0.4 0.6 1 c 3 lw 1338 1434 m 107 X 64 Y -107 X f 6 lw black 3 lw 1338 1498 m 107 X s 1338 1434 m 107 X s 1445 1434 m 64 Y s 1338 1434 m 64 Y s
 gsave  2263 1770 2 313 C 1498.25 1355.88 t 0 r /Helvetica findfont 64.4212 sf 0 0 m (\(+EW\) & single top) show NC gr 
 gsave  2263 1770 2 313 C 1481.3 1355.88 t 0 r /Helvetica findfont 64.4212 sf 0 0 m (t) show NC gr  1481 1407 m 17 X s
 gsave  2263 1770 2 313 C 1464.36 1355.88 t 0 r /Helvetica findfont 64.4212 sf 0 0 m (t) show NC gr  0.6 1 0.6 c 1338 1343 m 107 X 63 Y -107 X f black 1338 1406 m 107 X s 1338 1343 m 107 X s 1445 1343 m 63 Y s 1338 1343 m 63 Y s
 gsave  2263 1770 2 313 C 1464.36 1264.36 t 0 r /Helvetica findfont 64.4212 sf 0 0 m (Z+jets) show NC gr  1 0.8 0.4 c 1338 1252 m 107 X 63 Y -107 X f black 1338 1315 m 107 X s 1338 1252 m 107 X s 1445 1252 m 63 Y s 1338 1252 m 63 Y s
 gsave  2263 1770 2 313 C 1464.36 1172.84 t 0 r /Helvetica findfont 64.4212 sf 0 0 m (Diboson) show NC gr  1 0.4 0.6 c 1338 1161 m 107 X 63 Y -107 X f black 1338 1224 m 107 X s 1338 1161 m 107 X s 1445 1161 m 63 Y s 1338 1161 m 63 Y s
 gsave  2263 1770 2 313 C 1464.36 1081.32 t 0 r /Helvetica findfont 64.4212 sf 0 0 m (Multi\255jet) show NC gr  0 0 0.4 c 1338 1070 m 107 X 63 Y -107 X f black 1338 1133 m 107 X s 1338 1070 m 107 X s 1445 1070 m 63 Y s 1338 1070 m 63 Y s
 gsave  2263 1770 2 313 C 911.832 1566.05 t 0 r /Helvetica findfont 44.0776 sf 0 0 m (\2551) show NC gr 
 gsave  2263 1770 2 313 C 471.17 1535.54 t 0 r /Helvetica findfont 64.4212 sf 0 0 m (=13TeV, 139 fb) show NC gr 
 gsave  2263 1770 2 313 C 440.662 1535.54 t 0 r /Helvetica findfont 64.4212 sf 0 0 m (s) show NC gr  6 lw 420 1573 m 7 -41 d s 3 lw 427 1532 m 7 61 d s 434 1593 m 37 X s 1 1 1 c 2254 561 2 2 bf black 1 1 1 c black 1860 358 318 187 bl 1 1 1 c black
 1860 358 318 187 bl 6 lw 1 1 1 c black 3 lw 389 358 m20 6 lw 3 lw 533 387 m20 6 lw 3 lw 676 367 m20 6 lw 3 lw 819 373 m20 6 lw 3 lw 962 338 m20 6 lw 3 lw 1105 344 m20 6 lw 3 lw 1248 412 m20 6 lw 3 lw 1391 378 m20 6 lw 3 lw 1534 315 m20 6 lw 3 lw
 1677 359 m20 6 lw 3 lw 1821 420 m20 6 lw 3 lw 318 187 m 1860 X s
 gsave  2254 561 2 2 C 2105.01 64.4045 t 0 r /Helvetica findfont 50.9797 sf 0 0 m (1/2) show NC gr 
 gsave  2254 561 2 2 C 1888.07 23.728 t 0 r /Helvetica findfont 78.1689 sf 0 0 m ( [GeV]) show NC gr 
 gsave  2254 561 2 2 C 1857.56 3.38971 t 0 r /Helvetica findfont 50.9797 sf 0 0 m (T) show NC gr 
 gsave  2254 561 2 2 C 1806.72 23.728 t 0 r /Helvetica findfont 78.1689 sf 0 0 m (H) show NC gr  6 lw 1773 81 m 10 -78 d s 3 lw 1783 3 m 14 99 d s 1797 102 m 91 X s
 gsave  2254 561 2 2 C 1735.53 23.728 t 0 r /Helvetica findfont 78.1689 sf 0 0 m (/) show NC gr 
 gsave  2254 561 2 2 C 1630.45 61.0148 t 0 r /Helvetica findfont 50.9797 sf 0 0 m (miss) show NC gr 
 gsave  2254 561 2 2 C 1630.45 3.38971 t 0 r /Helvetica findfont 50.9797 sf 0 0 m (T) show NC gr 
 gsave  2254 561 2 2 C 1579.61 23.728 t 0 r /Helvetica findfont 78.1689 sf 0 0 m (E) show NC gr  318 201 m -14 Y s 389 194 m -7 Y s 461 194 m -7 Y s 533 194 m -7 Y s 604 194 m -7 Y s 676 201 m -14 Y s 747 194 m -7 Y s 819 194 m -7 Y s 890 194 m -7 Y
 s 962 194 m -7 Y s 1033 201 m -14 Y s 1105 194 m -7 Y s 1177 194 m -7 Y s 1248 194 m -7 Y s 1320 194 m -7 Y s 1391 201 m -14 Y s 1463 194 m -7 Y s 1534 194 m -7 Y s 1606 194 m -7 Y s 1677 194 m -7 Y s 1749 201 m -14 Y s 1821 194 m -7 Y s 1892 194 m
 -7 Y s 1964 194 m -7 Y s 2035 194 m -7 Y s 2107 201 m -14 Y s 2107 201 m -14 Y s 2178 194 m -7 Y s
 gsave  2254 561 2 2 C 271.177 118.64 t 0 r /Helvetica findfont 78.1689 sf 0 0 m (10) show NC gr 
 gsave  2254 561 2 2 C 630.486 118.64 t 0 r /Helvetica findfont 78.1689 sf 0 0 m (15) show NC gr 
 gsave  2254 561 2 2 C 986.406 118.64 t 0 r /Helvetica findfont 78.1689 sf 0 0 m (20) show NC gr 
 gsave  2254 561 2 2 C 1345.72 118.64 t 0 r /Helvetica findfont 78.1689 sf 0 0 m (25) show NC gr 
 gsave  2254 561 2 2 C 1701.63 118.64 t 0 r /Helvetica findfont 78.1689 sf 0 0 m (30) show NC gr 
 gsave  2254 561 2 2 C 2060.94 118.64 t 0 r /Helvetica findfont 78.1689 sf 0 0 m (35) show NC gr  318 545 m 1860 X s 318 531 m 14 Y s 389 538 m 7 Y s 461 538 m 7 Y s 533 538 m 7 Y s 604 538 m 7 Y s 676 531 m 14 Y s 747 538 m 7 Y s 819 538 m 7 Y s 890
 538 m 7 Y s 962 538 m 7 Y s 1033 531 m 14 Y s 1105 538 m 7 Y s 1177 538 m 7 Y s 1248 538 m 7 Y s 1320 538 m 7 Y s 1391 531 m 14 Y s 1463 538 m 7 Y s 1534 538 m 7 Y s 1606 538 m 7 Y s 1677 538 m 7 Y s 1749 531 m 14 Y s 1821 538 m 7 Y s 1892 538 m 7 Y
 s 1964 538 m 7 Y s 2035 538 m 7 Y s 2107 531 m 14 Y s 2107 531 m 14 Y s 2178 538 m 7 Y s 318 187 m 358 Y s
 gsave  2254 561 2 2 C 166.096 284.736 t 90 r /Helvetica findfont 67.9729 sf 0 0 m (Data/SM) show NC gr  361 203 m -43 X s 339 220 m -21 X s 339 236 m -21 X s 339 252 m -21 X s 339 268 m -21 X s 361 285 m -43 X s 339 301 m -21 X s 339 317 m -21 X s
 339 334 m -21 X s 339 350 m -21 X s 361 366 m -43 X s 339 382 m -21 X s 339 399 m -21 X s 339 415 m -21 X s 339 431 m -21 X s 361 447 m -43 X s 339 464 m -21 X s 339 480 m -21 X s 339 496 m -21 X s 339 512 m -21 X s 361 529 m -43 X s 361 203 m -43 X
 s 339 187 m -21 X s 361 529 m -43 X s
 gsave  2254 561 2 2 C 261.008 183.044 t 0 r /Helvetica findfont 57.777 sf 0 0 m (0) show NC gr 
 gsave  2254 561 2 2 C 213.552 261.008 t 0 r /Helvetica findfont 57.777 sf 0 0 m (0.5) show NC gr 
 gsave  2254 561 2 2 C 271.177 342.361 t 0 r /Helvetica findfont 57.777 sf 0 0 m (1) show NC gr 
 gsave  2254 561 2 2 C 213.552 423.714 t 0 r /Helvetica findfont 57.777 sf 0 0 m (1.5) show NC gr 
 gsave  2254 561 2 2 C 261.008 505.067 t 0 r /Helvetica findfont 57.777 sf 0 0 m (2) show NC gr  2178 187 m 358 Y s 2135 203 m 43 X s 2157 220 m 21 X s 2157 236 m 21 X s 2157 252 m 21 X s 2157 268 m 21 X s 2135 285 m 43 X s 2157 301 m 21 X s 2157 317
 m 21 X s 2157 334 m 21 X s 2157 350 m 21 X s 2135 366 m 43 X s 2157 382 m 21 X s 2157 399 m 21 X s 2157 415 m 21 X s 2157 431 m 21 X s 2135 447 m 43 X s 2157 464 m 21 X s 2157 480 m 21 X s 2157 496 m 21 X s 2157 512 m 21 X s 2135 529 m 43 X s 2135
 203 m 43 X s 2157 187 m 21 X s 2135 529 m 43 X s 9 lw 962 352 m s 962 352 m cl s 962 325 m s 962 325 m cl s 1105 358 m 3 Y s 1105 361 m cl s 1105 331 m -4 Y s 1105 327 m cl s 1248 426 m 14 Y s 1248 440 m cl s 1248 399 m -15 Y s 1248 384 m cl s 1391
 392 m 21 Y s 1391 413 m cl s 1391 365 m -21 Y s 1391 344 m cl s 1534 329 m 22 Y s 1534 351 m cl s 1534 302 m -21 Y s 1534 281 m cl s 1677 372 m 48 Y s 1677 420 m cl s 1677 345 m -43 Y s 1677 302 m cl s 1821 434 m 103 Y s 1821 537 m cl s 1821 407 m
 -90 Y s 1821 317 m cl s 2107 545 m -207 Y s 2107 338 m cl s 3 lw 389 358 533 387 676 367 819 373 962 338 1105 344 1248 412 1391 378 1534 315 1677 359 1821 420 11 { m20} R 9 lw 1 0 0 c 6 lw black 3 lw 1 0 0 c 2178 341 m -5 -5 d s 2178 369 m -34 -33 d
 s 2177 397 m -61 -61 d s 2148 397 m -61 -61 d s 2119 397 m -61 -61 d s 2091 397 m -63 -63 d s 2062 397 m -63 -63 d s 2035 398 m -65 -64 d s 2006 398 m -64 -64 d s 1978 398 m -65 -64 d s 1949 398 m -57 -56 d s 1920 398 m -55 -55 d s 1882 389 m -46
 -46 d s 1854 389 m -46 -46 d s 1825 389 m -46 -46 d s 1796 389 m -46 -46 d s 1768 389 m -42 -41 d s 1734 384 m -37 -36 d s 1706 384 m -37 -36 d s 1677 384 m -37 -36 d s 1648 384 m -37 -36 d s 1620 384 m -36 -35 d s 1590 383 m -35 -34 d s 1561 383 m
 -35 -34 d s 1532 383 m -34 -34 d s 1504 383 m -35 -34 d s 1475 383 m -33 -33 d s 1445 382 m -32 -32 d s 1416 382 m -32 -32 d s 1387 382 m -31 -32 d s 1359 382 m -32 -32 d s 1330 382 m -33 -33 d s 1303 383 m -35 -34 d s 1274 383 m -34 -34 d s 1245
 383 m -34 -34 d s 1217 383 m -35 -34 d s 1188 383 m -28 -27 d s 1152 376 m -20 -20 d s 1124 376 m -21 -20 d s 1095 376 m -21 -20 d s 1066 376 m -20 -20 d s 1038 376 m -20 -20 d s 1008 376 m -19 -20 d s 980 376 m -20 -20 d s 951 376 m -19 -20 d s 922
 376 m -19 -20 d s 893 376 m -19 -19 d s 865 376 m -19 -19 d s 836 376 m -19 -19 d s 807 376 m -19 -19 d s 779 376 m -19 -19 d s 750 376 m -18 -18 d s 720 374 m -16 -16 d s 691 374 m -16 -16 d s 663 374 m -17 -16 d s 634 374 m -17 -16 d s 605 374 m
 -16 -16 d s 576 374 m -15 -16 d s 547 374 m -15 -16 d s 519 374 m -16 -16 d s 490 374 m -15 -16 d s 461 374 m -1 Y s 461 373 m -15 -14 d s 318 231 m s 432 373 m -14 -14 d s 318 259 m s 403 373 m -14 -14 d s 318 288 m s 375 373 m -15 -14 d s 318 317
 m s 346 373 m -14 -14 d s 318 345 m s 6 lw black[ 4 8] 0 sd 3 lw 318 447 m 1860 X s 318 285 m 1860 X s 1 0 0 c[  12 12 ] 0 sd 6 lw 318 366 m 1860 X s
 gr  gr showpage
end
%%EOF
