%!PS-Adobe-2.0 EPSF-2.0
%%BoundingBox:  0 0 567 521
%%Title: Distributions/metsqrtmeffInc_met_distrSR_MB-C_beforeFit_forThesis.eps: canvas
%%Creator: ROOT Version 6.04/16
%%CreationDate: Tue May 19 22:06:43 2020
%%DocumentNeededResources: ProcSet (FontSetInit)
%%EndComments
%%BeginProlog
80 dict begin
/s {stroke} def /l {lineto} def /m {moveto} def /t {translate} def
/r {rotate} def /rl {roll}  def /R {repeat} def
/d {rlineto} def /rm {rmoveto} def /gr {grestore} def /f {eofill} def
/c {setrgbcolor} def /black {0 setgray} def /sd {setdash} def
/cl {closepath} def /sf {scalefont setfont} def /lw {setlinewidth} def
/box {m dup 0 exch d exch 0 d 0 exch neg d cl} def
/NC{systemdict begin initclip end}def/C{NC box clip newpath}def
/bl {box s} def /bf {gsave box gsave f grestore 1 lw [] 0 sd s grestore} def /Y { 0 exch d} def /X { 0 d} def 
/K {{pop pop 0 moveto} exch kshow} bind def
/ita {/ang 15 def gsave [1 0 ang dup sin exch cos div 1 0 0] concat} def 
/mp {newpath /y exch def /x exch def} def
/side {[w .77 mul w .23 mul] .385 w mul sd w 0 l currentpoint t -144 r} def
/mr {mp x y w2 0 360 arc} def /m24 {mr s} def /m20 {mr f} def
/mb {mp x y w2 add m w2 neg 0 d 0 w neg d w 0 d 0 w d cl} def
/mt {mp x y w2 add m w2 neg w neg d w 0 d cl} def
/m21 {mb f} def /m25 {mb s} def /m22 {mt f} def /m26{mt s} def
/m23 {mp x y w2 sub m w2 w d w neg 0 d cl f} def
/m27 {mp x y w2 add m w3 neg w2 neg d w3 w2 neg d w3 w2 d cl s} def
/m28 {mp x w2 sub y w2 sub w3 add m w3 0 d  0 w3 neg d w3 0 d 0 w3 d w3 0 d  0 w3 d w3 neg 0 d 0 w3 d w3 neg 0 d 0 w3 neg d w3 neg 0 d cl s } def
/m29 {mp gsave x w2 sub y w2 add w3 sub m currentpoint t 4 {side} repeat cl fill gr} def
/m30 {mp gsave x w2 sub y w2 add w3 sub m currentpoint t 4 {side} repeat cl s gr} def
/m31 {mp x y w2 sub m 0 w d x w2 sub y m w 0 d x w2 sub y w2 add m w w neg d x w2 sub y w2 sub m w w d s} def
/m32 {mp x y w2 sub m w2 w d w neg 0 d cl s} def
/m33 {mp x y w2 add m w3 neg w2 neg d w3 w2 neg d w3 w2 d cl f} def
/m34 {mp x w2 sub y w2 sub w3 add m w3 0 d  0 w3 neg d w3 0 d 0 w3 d w3 0 d  0 w3 d w3 neg 0 d 0 w3 d w3 neg 0 d 0 w3 neg d w3 neg 0 d cl f } def
/m2 {mp x y w2 sub m 0 w d x w2 sub y m w 0 d s} def
/m5 {mp x w2 sub y w2 sub m w w d x w2 sub y w2 add m w w neg d s} def
%%IncludeResource: ProcSet (FontSetInit)
%%IncludeResource: font Times-Roman
%%IncludeResource: font Times-Italic
%%IncludeResource: font Times-Bold
%%IncludeResource: font Times-BoldItalic
%%IncludeResource: font Helvetica
%%IncludeResource: font Helvetica-Oblique
%%IncludeResource: font Helvetica-Bold
%%IncludeResource: font Helvetica-BoldOblique
%%IncludeResource: font Courier
%%IncludeResource: font Courier-Oblique
%%IncludeResource: font Courier-Bold
%%IncludeResource: font Courier-BoldOblique
%%IncludeResource: font Symbol
%%IncludeResource: font ZapfDingbats
/reEncode {exch findfont dup length dict begin {1 index /FID eq  {pop pop} {def} ifelse } forall /Encoding exch def currentdict end dup /FontName get exch definefont pop } def [/Times-Bold /Times-Italic /Times-BoldItalic /Helvetica /Helvetica-Oblique
 /Helvetica-Bold /Helvetica-BoldOblique /Courier /Courier-Oblique /Courier-Bold /Courier-BoldOblique /Times-Roman /AvantGarde-Book /AvantGarde-BookOblique /AvantGarde-Demi /AvantGarde-DemiOblique /Bookman-Demi /Bookman-DemiItalic /Bookman-Light
 /Bookman-LightItalic /Helvetica-Narrow /Helvetica-Narrow-Bold /Helvetica-Narrow-BoldOblique /Helvetica-Narrow-Oblique /NewCenturySchlbk-Roman /NewCenturySchlbk-Bold /NewCenturySchlbk-BoldItalic /NewCenturySchlbk-Italic /Palatino-Bold
 /Palatino-BoldItalic /Palatino-Italic /Palatino-Roman ] {ISOLatin1Encoding reEncode } forall
%%EndProlog
%%BeginSetup
%%EndSetup
newpath  gsave  .25 .25 scale  gsave  0 0 t black[  ] 0 sd 3 lw 1 1 1 c 2268 2085 0 0 bf black 1 1 1 c 2263 1770 2 313 bf black 1 1 1 c black 1860 1145 319 584 bl 1 1 1 c black 1860 1145 319 584 bl 6 lw 1 1 1 c black 3 lw /w 33 def /w2 {w 2 div} def
 /w3 {w 3 div} def 374 1107 m20 6 lw 3 lw 483 1104 m20 6 lw 3 lw 593 1101 m20 6 lw 3 lw 702 1100 m20 6 lw 3 lw 812 1107 m20 6 lw 3 lw 921 1109 m20 6 lw 3 lw 1030 1115 m20 6 lw 3 lw 1140 1090 m20 6 lw 3 lw 1249 1048 m20 6 lw 3 lw 1359 995 m20 6 lw 3
 lw 1468 934 m20 6 lw 1578 874 m 4 Y s 3 lw 1578 892 m20 6 lw 1687 865 m 5 Y s 1687 897 m 1 Y s 3 lw 1687 884 m20 6 lw 1796 584 m 126 Y s 1796 737 m 29 Y s 3 lw 1796 724 m20 6 lw 1906 584 m 126 Y s 1906 737 m 29 Y s 3 lw 1906 724 m20 6 lw 2125 691 m
 61 Y s 2125 779 m 19 Y s 3 lw 2125 766 m20 6 lw 3 lw 319 584 m 1860 X s
 gsave  2263 1770 2 313 C 2101.62 396.596 t 0 r /Helvetica findfont 54.2494 sf 0 0 m (1/2) show NC gr 
 gsave  2263 1770 2 313 C 1874.51 355.92 t 0 r /Helvetica findfont 81.3741 sf 0 0 m ( [GeV]) show NC gr 
 gsave  2263 1770 2 313 C 1840.61 332.192 t 0 r /Helvetica findfont 54.2494 sf 0 0 m (T) show NC gr 
 gsave  2263 1770 2 313 C 1786.38 355.92 t 0 r /Helvetica findfont 81.3741 sf 0 0 m (H) show NC gr  6 lw 1749 417 m 14 -85 d s 3 lw 1763 332 m 13 105 d s 1776 437 m 99 X s
 gsave  2263 1770 2 313 C 1711.8 355.92 t 0 r /Helvetica findfont 81.3741 sf 0 0 m (/) show NC gr 
 gsave  2263 1770 2 313 C 1599.94 396.596 t 0 r /Helvetica findfont 54.2494 sf 0 0 m (miss) show NC gr 
 gsave  2263 1770 2 313 C 1599.94 332.192 t 0 r /Helvetica findfont 54.2494 sf 0 0 m (T) show NC gr 
 gsave  2263 1770 2 313 C 1549.1 355.92 t 0 r /Helvetica findfont 81.3741 sf 0 0 m (E) show NC gr  538 584 m cl s 593 584 m cl s 647 584 m cl s 702 584 m cl s 757 584 m cl s 812 584 m cl s 866 584 m cl s 921 584 m cl s 976 584 m cl s 1030 584 m cl s
 1085 584 m cl s 1140 584 m cl s 1195 584 m cl s 1249 584 m cl s 1304 584 m cl s 1359 584 m cl s 1413 584 m cl s 1468 584 m cl s 1523 584 m cl s 1578 584 m cl s 1632 584 m cl s 1687 584 m cl s 1742 584 m cl s 1796 584 m cl s 1851 584 m cl s 1906 584
 m cl s 1961 584 m cl s 2015 584 m cl s 2070 584 m cl s 2125 584 m cl s 2179 584 m cl s 538 584 m cl s 483 584 m cl s 429 584 m cl s 374 584 m cl s 319 1729 m 1860 X s 538 1729 m cl s 593 1729 m cl s 647 1729 m cl s 702 1729 m cl s 757 1729 m cl s
 812 1729 m cl s 866 1729 m cl s 921 1729 m cl s 976 1729 m cl s 1030 1729 m cl s 1085 1729 m cl s 1140 1729 m cl s 1195 1729 m cl s 1249 1729 m cl s 1304 1729 m cl s 1359 1729 m cl s 1413 1729 m cl s 1468 1729 m cl s 1523 1729 m cl s 1578 1729 m cl
 s 1632 1729 m cl s 1687 1729 m cl s 1742 1729 m cl s 1796 1729 m cl s 1851 1729 m cl s 1906 1729 m cl s 1961 1729 m cl s 2015 1729 m cl s 2070 1729 m cl s 2125 1729 m cl s 2179 1729 m cl s 538 1729 m cl s 483 1729 m cl s 429 1729 m cl s 374 1729 m
 cl s 319 584 m 1145 Y s
 gsave  2263 1770 2 313 C 125.419 1654.18 t 90 r /Helvetica findfont 54.2494 sf 0 0 m (1/2) show NC gr 
 gsave  2263 1770 2 313 C 166.096 1064.37 t 90 r /Helvetica findfont 81.3741 sf 0 0 m (Events / 2 [GeV]) show NC gr  341 626 m -22 X s 341 651 m -22 X s 341 668 m -22 X s 341 682 m -22 X s 341 693 m -22 X s 341 702 m -22 X s 341 710 m -22 X s 341 717
 m -22 X s 363 724 m -44 X s
 gsave  2263 1770 2 313 C 300.555 696.671 t 0 r  -36 0 t /Helvetica findfont 64.4212 sf 0 0 m (1) show NC gr  341 766 m -22 X s 341 790 m -22 X s 341 808 m -22 X s 341 821 m -22 X s 341 832 m -22 X s 341 842 m -22 X s 341 850 m -22 X s 341 857 m -22
 X s 363 863 m -44 X s
 gsave  2263 1770 2 313 C 300.555 836.149 t 0 r  -73 0 t /Helvetica findfont 64.4212 sf 0 0 m (10) show NC gr  341 905 m -22 X s 341 930 m -22 X s 341 947 m -22 X s 341 961 m -22 X s 341 972 m -22 X s 341 981 m -22 X s 341 989 m -22 X s 341 996 m -22
 X s 363 1003 m -44 X s
 gsave  2263 1770 2 313 C 274.567 999.965 t 0 r /Helvetica findfont 44.0776 sf 0 0 m (2) show NC gr 
 gsave  2263 1770 2 313 C 203.383 972.847 t 0 r /Helvetica findfont 64.4212 sf 0 0 m (10) show NC gr  341 1045 m -22 X s 341 1069 m -22 X s 341 1087 m -22 X s 341 1100 m -22 X s 341 1111 m -22 X s 341 1121 m -22 X s 341 1129 m -22 X s 341 1136 m -22
 X s 363 1142 m -44 X s
 gsave  2263 1770 2 313 C 274.567 1142.33 t 0 r /Helvetica findfont 44.0776 sf 0 0 m (3) show NC gr 
 gsave  2263 1770 2 313 C 203.383 1111.83 t 0 r /Helvetica findfont 64.4212 sf 0 0 m (10) show NC gr  341 1184 m -22 X s 341 1209 m -22 X s 341 1226 m -22 X s 341 1240 m -22 X s 341 1251 m -22 X s 341 1260 m -22 X s 341 1268 m -22 X s 341 1275 m -22
 X s 363 1282 m -44 X s
 gsave  2263 1770 2 313 C 274.567 1281.31 t 0 r /Helvetica findfont 44.0776 sf 0 0 m (4) show NC gr 
 gsave  2263 1770 2 313 C 203.383 1254.19 t 0 r /Helvetica findfont 64.4212 sf 0 0 m (10) show NC gr  341 1324 m -22 X s 341 1348 m -22 X s 341 1366 m -22 X s 341 1379 m -22 X s 341 1390 m -22 X s 341 1400 m -22 X s 341 1408 m -22 X s 341 1415 m -22
 X s 363 1421 m -44 X s
 gsave  2263 1770 2 313 C 274.567 1423.68 t 0 r /Helvetica findfont 44.0776 sf 0 0 m (5) show NC gr 
 gsave  2263 1770 2 313 C 203.383 1393.17 t 0 r /Helvetica findfont 64.4212 sf 0 0 m (10) show NC gr  341 1463 m -22 X s 341 1488 m -22 X s 341 1505 m -22 X s 341 1519 m -22 X s 341 1530 m -22 X s 341 1539 m -22 X s 341 1547 m -22 X s 341 1554 m -22
 X s 363 1561 m -44 X s
 gsave  2263 1770 2 313 C 274.567 1562.66 t 0 r /Helvetica findfont 44.0776 sf 0 0 m (6) show NC gr 
 gsave  2263 1770 2 313 C 203.383 1532.15 t 0 r /Helvetica findfont 64.4212 sf 0 0 m (10) show NC gr  341 1603 m -22 X s 341 1627 m -22 X s 341 1645 m -22 X s 341 1658 m -22 X s 341 1669 m -22 X s 341 1679 m -22 X s 341 1687 m -22 X s 341 1694 m -22
 X s 363 1700 m -44 X s
 gsave  2263 1770 2 313 C 274.567 1698.25 t 0 r /Helvetica findfont 44.0776 sf 0 0 m (7) show NC gr 
 gsave  2263 1770 2 313 C 203.383 1671.13 t 0 r /Helvetica findfont 64.4212 sf 0 0 m (10) show NC gr  2179 584 m 1145 Y s 2157 626 m 22 X s 2157 651 m 22 X s 2157 668 m 22 X s 2157 682 m 22 X s 2157 693 m 22 X s 2157 702 m 22 X s 2157 710 m 22 X s
 2157 717 m 22 X s 2136 724 m 43 X s 2157 766 m 22 X s 2157 790 m 22 X s 2157 808 m 22 X s 2157 821 m 22 X s 2157 832 m 22 X s 2157 842 m 22 X s 2157 850 m 22 X s 2157 857 m 22 X s 2136 863 m 43 X s 2157 905 m 22 X s 2157 930 m 22 X s 2157 947 m 22 X
 s 2157 961 m 22 X s 2157 972 m 22 X s 2157 981 m 22 X s 2157 989 m 22 X s 2157 996 m 22 X s 2136 1003 m 43 X s 2157 1045 m 22 X s 2157 1069 m 22 X s 2157 1087 m 22 X s 2157 1100 m 22 X s 2157 1111 m 22 X s 2157 1121 m 22 X s 2157 1129 m 22 X s 2157
 1136 m 22 X s 2136 1142 m 43 X s 2157 1184 m 22 X s 2157 1209 m 22 X s 2157 1226 m 22 X s 2157 1240 m 22 X s 2157 1251 m 22 X s 2157 1260 m 22 X s 2157 1268 m 22 X s 2157 1275 m 22 X s 2136 1282 m 43 X s 2157 1324 m 22 X s 2157 1348 m 22 X s 2157
 1366 m 22 X s 2157 1379 m 22 X s 2157 1390 m 22 X s 2157 1400 m 22 X s 2157 1408 m 22 X s 2157 1415 m 22 X s 2136 1421 m 43 X s 2157 1463 m 22 X s 2157 1488 m 22 X s 2157 1505 m 22 X s 2157 1519 m 22 X s 2157 1530 m 22 X s 2157 1539 m 22 X s 2157
 1547 m 22 X s 2157 1554 m 22 X s 2136 1561 m 43 X s 2157 1603 m 22 X s 2157 1627 m 22 X s 2157 1645 m 22 X s 2157 1658 m 22 X s 2157 1669 m 22 X s 2157 1679 m 22 X s 2157 1687 m 22 X s 2157 1694 m 22 X s 2136 1700 m 43 X s 0.4 0.6 1 c black 0.4 0.6
 1 c 319 584 m 529 Y 110 X -7 Y 109 X -4 Y 109 X -4 Y 110 X 4 Y 109 X 7 Y 110 X 6 Y 109 X -35 Y 110 X -43 Y 109 X -44 Y 109 X -46 Y 110 X -64 Y 109 X -59 Y 110 X -35 Y 109 X -44 Y 110 X -54 Y 109 X -27 Y 109 X -80 Y f black 0.4 0.6 1 c black 319 1113
 m 110 X -7 Y 109 X -4 Y 109 X -4 Y 110 X 4 Y 109 X 7 Y 110 X 6 Y 109 X -35 Y 110 X -43 Y 109 X -44 Y 109 X -46 Y 110 X -64 Y 109 X -59 Y 110 X -35 Y 109 X -44 Y 110 X -54 Y 109 X -27 Y 109 X s 0.999 0.999 0.999 c black 0.999 0.999 0.999 c 319 584 m
 509 Y 110 X -5 Y 109 X -4 Y 109 X -2 Y 110 X 3 Y 109 X 7 Y 110 X 9 Y 109 X -32 Y 110 X -43 Y 109 X -43 Y 109 X -45 Y 110 X -69 Y 109 X -55 Y 110 X -40 Y 109 X -55 Y 110 X -36 Y 109 X -20 Y 109 X -79 Y f black 0.999 0.999 0.999 c black 319 1093 m 110
 X -5 Y 109 X -4 Y 109 X -2 Y 110 X 3 Y 109 X 7 Y 110 X 9 Y 109 X -32 Y 110 X -43 Y 109 X -43 Y 109 X -45 Y 110 X -69 Y 109 X -55 Y 110 X -40 Y 109 X -55 Y 110 X -36 Y 109 X -20 Y 109 X s 1 1 1 c black 319 1093 m 110 X -5 Y 109 X -4 Y 109 X -2 Y 110
 X 3 Y 109 X 7 Y 110 X 9 Y 109 X -32 Y 110 X -43 Y 109 X -43 Y 109 X -45 Y 110 X -69 Y 109 X -55 Y 110 X -40 Y 109 X -55 Y 110 X -36 Y 109 X -20 Y 109 X s 0.6 1 0.6 c black 0.6 1 0.6 c 319 584 m 509 Y 110 X -5 Y 109 X -4 Y 109 X -2 Y 110 X 3 Y 109 X
 7 Y 110 X 9 Y 109 X -32 Y 110 X -43 Y 109 X -43 Y 109 X -45 Y 110 X -69 Y 109 X -55 Y 110 X -40 Y 109 X -55 Y 110 X -36 Y 109 X -20 Y 109 X -79 Y f black 0.6 1 0.6 c black 319 1093 m 110 X -5 Y 109 X -4 Y 109 X -2 Y 110 X 3 Y 109 X 7 Y 110 X 9 Y 109
 X -32 Y 110 X -43 Y 109 X -43 Y 109 X -45 Y 110 X -69 Y 109 X -55 Y 110 X -40 Y 109 X -55 Y 110 X -36 Y 109 X -20 Y 109 X s 0.999 0.999 0.999 c black 0.999 0.999 0.999 c 319 584 m 501 Y 110 X -4 Y 109 X -2 Y 109 X -2 Y 110 X 5 Y 109 X 8 Y 110 X 9 Y
 109 X -32 Y 110 X -42 Y 109 X -44 Y 109 X -44 Y 110 X -73 Y 109 X -50 Y 110 X -40 Y 109 X -55 Y 110 X -36 Y 109 X -21 Y 109 X -78 Y f black 0.999 0.999 0.999 c black 319 1085 m 110 X -4 Y 109 X -2 Y 109 X -2 Y 110 X 5 Y 109 X 8 Y 110 X 9 Y 109 X -32
 Y 110 X -42 Y 109 X -44 Y 109 X -44 Y 110 X -73 Y 109 X -50 Y 110 X -40 Y 109 X -55 Y 110 X -36 Y 109 X -21 Y 109 X s 1 1 1 c black 319 1085 m 110 X -4 Y 109 X -2 Y 109 X -2 Y 110 X 5 Y 109 X 8 Y 110 X 9 Y 109 X -32 Y 110 X -42 Y 109 X -44 Y 109 X
 -44 Y 110 X -73 Y 109 X -50 Y 110 X -40 Y 109 X -55 Y 110 X -36 Y 109 X -21 Y 109 X s 1 0.8 0.4 c black 1 0.8 0.4 c 319 584 m 501 Y 110 X -4 Y 109 X -2 Y 109 X -2 Y 110 X 5 Y 109 X 8 Y 110 X 9 Y 109 X -32 Y 110 X -42 Y 109 X -44 Y 109 X -44 Y 110 X
 -73 Y 109 X -50 Y 110 X -40 Y 109 X -55 Y 110 X -36 Y 109 X -21 Y 109 X -78 Y f black 1 0.8 0.4 c black 319 1085 m 110 X -4 Y 109 X -2 Y 109 X -2 Y 110 X 5 Y 109 X 8 Y 110 X 9 Y 109 X -32 Y 110 X -42 Y 109 X -44 Y 109 X -44 Y 110 X -73 Y 109 X -50 Y
 110 X -40 Y 109 X -55 Y 110 X -36 Y 109 X -21 Y 109 X s 0.999 0.999 0.999 c black 0.999 0.999 0.999 c 319 584 m 354 Y 110 X -2 Y 218 X 1 Y 110 X 2 Y 109 X 7 Y 110 X -3 Y 109 X -35 Y 110 X -39 Y 109 X -38 Y 109 X -36 Y 110 X -24 Y 109 X -97 Y 110 X
 -90 Y 328 X 21 Y 109 X -21 Y f black 0.999 0.999 0.999 c black 319 938 m 110 X -2 Y 218 X 1 Y 110 X 2 Y 109 X 7 Y 110 X -3 Y 109 X -35 Y 110 X -39 Y 109 X -38 Y 109 X -36 Y 110 X -24 Y 109 X -97 Y 110 X -90 Y 328 X 21 Y 109 X s 1 1 1 c black 319 938
 m 110 X -2 Y 218 X 1 Y 110 X 2 Y 109 X 7 Y 110 X -3 Y 109 X -35 Y 110 X -39 Y 109 X -38 Y 109 X -36 Y 110 X -24 Y 109 X -97 Y 110 X -90 Y 328 X 21 Y 109 X s 1 0.4 0.6 c black 1 0.4 0.6 c 319 584 m 354 Y 110 X -2 Y 218 X 1 Y 110 X 2 Y 109 X 7 Y 110 X
 -3 Y 109 X -35 Y 110 X -39 Y 109 X -38 Y 109 X -36 Y 110 X -24 Y 109 X -97 Y 110 X -90 Y 328 X 21 Y 109 X -21 Y f black 1 0.4 0.6 c black 319 938 m 110 X -2 Y 218 X 1 Y 110 X 2 Y 109 X 7 Y 110 X -3 Y 109 X -35 Y 110 X -39 Y 109 X -38 Y 109 X -36 Y
 110 X -24 Y 109 X -97 Y 110 X -90 Y 328 X 21 Y 109 X s 0.999 0.999 0.999 c black 0.999 0.999 0.999 c 319 584 m 43 Y 110 X -10 Y 109 X -23 Y 109 X -10 Y 329 X 37 Y 109 X -37 Y 1094 X f black 0.999 0.999 0.999 c black 319 627 m 110 X -10 Y 109 X -23 Y
 109 X -10 Y 329 X 37 Y 109 X -37 Y 1094 X s 1 1 1 c black 319 627 m 110 X -10 Y 109 X -23 Y 109 X -10 Y 329 X 37 Y 109 X -37 Y 1094 X s 0 0 0.4 c black 0 0 0.4 c 319 584 m 43 Y 110 X -10 Y 109 X -23 Y 109 X -10 Y 329 X 37 Y 109 X -37 Y 1094 X f
 black 0 0 0.4 c black 319 627 m 110 X -10 Y 109 X -23 Y 109 X -10 Y 329 X 37 Y 109 X -37 Y 1094 X s 1 0 0 c 6 lw 1 1 1 c black 1 0 0 c 319 1113 m 110 X -7 Y 109 X -4 Y 109 X -4 Y 110 X 4 Y 109 X 7 Y 110 X 6 Y 109 X -35 Y 110 X -43 Y 109 X -44 Y 109
 X -46 Y 110 X -64 Y 109 X -59 Y 110 X -35 Y 109 X -44 Y 110 X -54 Y 109 X -27 Y 109 X s black 3 lw 1 0 0 c 1 lw << /PatternType 1 /PaintType 2 /TilingType 1 /BBox [ 0 0 100 100 ] /XStep 100 /YStep 100 /PaintProc { begin gsave 0 100 m 100 0 l s gr
 end } >> [ 0.24 0 0 0.24 0 0 ] makepattern /P05 exch def /cs {[/Pattern /DeviceRGB] setcolorspace} def /FA {f [/DeviceRGB] setcolorspace} def cs 1 0 0 P05 setcolor 319 584 m 532 Y 110 X -7 Y 109 X -4 Y 109 X -3 Y 110 X 3 Y 109 X 7 Y 110 X 6 Y 109 X
 -34 Y 110 X -43 Y 109 X -44 Y 109 X -46 Y 110 X -48 Y 109 X -66 Y 110 X -42 Y 109 X -37 Y 110 X -50 Y 109 X -27 Y 109 X -42 Y -109 X 28 Y -109 X 62 Y -110 X 52 Y -109 X 26 Y -110 X 45 Y -109 X 90 Y -110 X 47 Y -109 X 44 Y -109 X 44 Y -110 X 34 Y
 -109 X -6 Y -110 X -6 Y -109 X -4 Y -110 X 3 Y -109 X 4 Y -109 X 7 Y -110 X -525 Y FA 6 lw 1 1 1 c 15 lw 1796 744 m 30 Y s 1796 774 m cl s 1796 703 m -85 Y s 1796 618 m cl s 1906 744 m 30 Y s 1906 774 m cl s 1906 703 m -85 Y s 1906 618 m cl s 2125
 786 m 16 Y s 2125 802 m cl s 2125 745 m -42 Y s 2125 703 m cl s black 1 1 1 c 3 lw /w 43 def /w2 {w 2 div} def /w3 {w 3 div} def 374 1107 483 1104 593 1101 702 1100 812 1107 921 1109 1030 1115 1140 1090 1249 1048 1359 995 1468 934 1578 892 1687 884
 1796 724 1906 724 15 { m20} R 15 lw 3 lw 2125 766 m20 15 lw black 6 lw 1 1 1 c black 3 lw /w 33 def /w2 {w 2 div} def /w3 {w 3 div} def 374 1107 m20 6 lw 3 lw 483 1104 m20 6 lw 3 lw 593 1101 m20 6 lw 3 lw 702 1100 m20 6 lw 3 lw 812 1107 m20 6 lw 3
 lw 921 1109 m20 6 lw 3 lw 1030 1115 m20 6 lw 3 lw 1140 1090 m20 6 lw 3 lw 1249 1048 m20 6 lw 3 lw 1359 995 m20 6 lw 3 lw 1468 934 m20 6 lw 1578 874 m 4 Y s 3 lw 1578 892 m20 6 lw 1687 865 m 5 Y s 1687 897 m 1 Y s 3 lw 1687 884 m20 6 lw 1796 584 m
 126 Y s 1796 737 m 29 Y s 3 lw 1796 724 m20 6 lw 1906 584 m 126 Y s 1906 737 m 29 Y s 3 lw 1906 724 m20 6 lw 2125 691 m 61 Y s 2125 779 m 19 Y s 3 lw 2125 766 m20 6 lw 1578 905 m s 1578 905 m cl s 1578 878 m -3 Y s 1578 875 m cl s 1687 897 m 1 Y s
 1687 898 m cl s 1687 870 m -5 Y s 1687 865 m cl s 1796 737 m 37 Y s 1796 774 m cl s 1796 710 m -92 Y s 1796 618 m cl s 1906 737 m 37 Y s 1906 774 m cl s 1906 710 m -92 Y s 1906 618 m cl s 2125 779 m 23 Y s 2125 802 m cl s 2125 752 m -49 Y s 2125 703
 m cl s 3 lw 374 1107 483 1104 593 1101 702 1100 812 1107 921 1109 1030 1115 1140 1090 1249 1048 1359 995 1468 934 1578 892 1687 884 1796 724 1906 724 15 { m20} R 6 lw 3 lw 2125 766 m20 6 lw 3 lw 319 584 m 1860 X s 538 584 m cl s 593 584 m cl s 647
 584 m cl s 702 584 m cl s 757 584 m cl s 812 584 m cl s 866 584 m cl s 921 584 m cl s 976 584 m cl s 1030 584 m cl s 1085 584 m cl s 1140 584 m cl s 1195 584 m cl s 1249 584 m cl s 1304 584 m cl s 1359 584 m cl s 1413 584 m cl s 1468 584 m cl s 1523
 584 m cl s 1578 584 m cl s 1632 584 m cl s 1687 584 m cl s 1742 584 m cl s 1796 584 m cl s 1851 584 m cl s 1906 584 m cl s 1961 584 m cl s 2015 584 m cl s 2070 584 m cl s 2125 584 m cl s 2179 584 m cl s 538 584 m cl s 483 584 m cl s 429 584 m cl s
 374 584 m cl s 319 1729 m 1860 X s 538 1729 m cl s 593 1729 m cl s 647 1729 m cl s 702 1729 m cl s 757 1729 m cl s 812 1729 m cl s 866 1729 m cl s 921 1729 m cl s 976 1729 m cl s 1030 1729 m cl s 1085 1729 m cl s 1140 1729 m cl s 1195 1729 m cl s
 1249 1729 m cl s 1304 1729 m cl s 1359 1729 m cl s 1413 1729 m cl s 1468 1729 m cl s 1523 1729 m cl s 1578 1729 m cl s 1632 1729 m cl s 1687 1729 m cl s 1742 1729 m cl s 1796 1729 m cl s 1851 1729 m cl s 1906 1729 m cl s 1961 1729 m cl s 2015 1729 m
 cl s 2070 1729 m cl s 2125 1729 m cl s 2179 1729 m cl s 538 1729 m cl s 483 1729 m cl s 429 1729 m cl s 374 1729 m cl s 319 584 m 1145 Y s 341 626 m -22 X s 341 651 m -22 X s 341 668 m -22 X s 341 682 m -22 X s 341 693 m -22 X s 341 702 m -22 X s
 341 710 m -22 X s 341 717 m -22 X s 363 724 m -44 X s 341 766 m -22 X s 341 790 m -22 X s 341 808 m -22 X s 341 821 m -22 X s 341 832 m -22 X s 341 842 m -22 X s 341 850 m -22 X s 341 857 m -22 X s 363 863 m -44 X s 341 905 m -22 X s 341 930 m -22 X
 s 341 947 m -22 X s 341 961 m -22 X s 341 972 m -22 X s 341 981 m -22 X s 341 989 m -22 X s 341 996 m -22 X s 363 1003 m -44 X s 341 1045 m -22 X s 341 1069 m -22 X s 341 1087 m -22 X s 341 1100 m -22 X s 341 1111 m -22 X s 341 1121 m -22 X s 341
 1129 m -22 X s 341 1136 m -22 X s 363 1142 m -44 X s 341 1184 m -22 X s 341 1209 m -22 X s 341 1226 m -22 X s 341 1240 m -22 X s 341 1251 m -22 X s 341 1260 m -22 X s 341 1268 m -22 X s 341 1275 m -22 X s 363 1282 m -44 X s 341 1324 m -22 X s 341
 1348 m -22 X s 341 1366 m -22 X s 341 1379 m -22 X s 341 1390 m -22 X s 341 1400 m -22 X s 341 1408 m -22 X s 341 1415 m -22 X s 363 1421 m -44 X s 341 1463 m -22 X s 341 1488 m -22 X s 341 1505 m -22 X s 341 1519 m -22 X s 341 1530 m -22 X s 341
 1539 m -22 X s 341 1547 m -22 X s 341 1554 m -22 X s 363 1561 m -44 X s 341 1603 m -22 X s 341 1627 m -22 X s 341 1645 m -22 X s 341 1658 m -22 X s 341 1669 m -22 X s 341 1679 m -22 X s 341 1687 m -22 X s 341 1694 m -22 X s 363 1700 m -44 X s 2179
 584 m 1145 Y s 2157 626 m 22 X s 2157 651 m 22 X s 2157 668 m 22 X s 2157 682 m 22 X s 2157 693 m 22 X s 2157 702 m 22 X s 2157 710 m 22 X s 2157 717 m 22 X s 2136 724 m 43 X s 2157 766 m 22 X s 2157 790 m 22 X s 2157 808 m 22 X s 2157 821 m 22 X s
 2157 832 m 22 X s 2157 842 m 22 X s 2157 850 m 22 X s 2157 857 m 22 X s 2136 863 m 43 X s 2157 905 m 22 X s 2157 930 m 22 X s 2157 947 m 22 X s 2157 961 m 22 X s 2157 972 m 22 X s 2157 981 m 22 X s 2157 989 m 22 X s 2157 996 m 22 X s 2136 1003 m 43
 X s 2157 1045 m 22 X s 2157 1069 m 22 X s 2157 1087 m 22 X s 2157 1100 m 22 X s 2157 1111 m 22 X s 2157 1121 m 22 X s 2157 1129 m 22 X s 2157 1136 m 22 X s 2136 1142 m 43 X s 2157 1184 m 22 X s 2157 1209 m 22 X s 2157 1226 m 22 X s 2157 1240 m 22 X
 s 2157 1251 m 22 X s 2157 1260 m 22 X s 2157 1268 m 22 X s 2157 1275 m 22 X s 2136 1282 m 43 X s 2157 1324 m 22 X s 2157 1348 m 22 X s 2157 1366 m 22 X s 2157 1379 m 22 X s 2157 1390 m 22 X s 2157 1400 m 22 X s 2157 1408 m 22 X s 2157 1415 m 22 X s
 2136 1421 m 43 X s 2157 1463 m 22 X s 2157 1488 m 22 X s 2157 1505 m 22 X s 2157 1519 m 22 X s 2157 1530 m 22 X s 2157 1539 m 22 X s 2157 1547 m 22 X s 2157 1554 m 22 X s 2136 1561 m 43 X s 2157 1603 m 22 X s 2157 1627 m 22 X s 2157 1645 m 22 X s
 2157 1658 m 22 X s 2157 1669 m 22 X s 2157 1679 m 22 X s 2157 1687 m 22 X s 2157 1694 m 22 X s 2136 1700 m 43 X s
 gsave  2263 1770 2 313 C 406.765 1447.41 t 0 r /Helvetica findfont 64.4212 sf 0 0 m (SR for MB\255C) show NC gr 
 gsave  2263 1770 2 313 C 1464.36 1630.45 t 0 r /Helvetica findfont 64.4212 sf 0 0 m (SM Total) show NC gr  1 1 1 c 1338 1616 m 107 X 64 Y -107 X f 1 0 0 c 6 lw 1338 1648 m 107 X s black
 gsave  2263 1770 2 313 C 1464.36 1538.93 t 0 r /Helvetica findfont 64.4212 sf 0 0 m (Data) show NC gr  1391 1529 m 55 Y s 3 lw 1391 1557 m20 6 lw
 gsave  2263 1770 2 313 C 1464.36 1447.41 t 0 r /Helvetica findfont 64.4212 sf 0 0 m (W+jets) show NC gr  0.4 0.6 1 c 3 lw 1338 1434 m 107 X 64 Y -107 X f 6 lw black 3 lw 1338 1498 m 107 X s 1338 1434 m 107 X s 1445 1434 m 64 Y s 1338 1434 m 64 Y s
 gsave  2263 1770 2 313 C 1498.25 1355.88 t 0 r /Helvetica findfont 64.4212 sf 0 0 m (\(+EW\) & single top) show NC gr 
 gsave  2263 1770 2 313 C 1481.3 1355.88 t 0 r /Helvetica findfont 64.4212 sf 0 0 m (t) show NC gr  1481 1407 m 17 X s
 gsave  2263 1770 2 313 C 1464.36 1355.88 t 0 r /Helvetica findfont 64.4212 sf 0 0 m (t) show NC gr  0.6 1 0.6 c 1338 1343 m 107 X 63 Y -107 X f black 1338 1406 m 107 X s 1338 1343 m 107 X s 1445 1343 m 63 Y s 1338 1343 m 63 Y s
 gsave  2263 1770 2 313 C 1464.36 1264.36 t 0 r /Helvetica findfont 64.4212 sf 0 0 m (Z+jets) show NC gr  1 0.8 0.4 c 1338 1252 m 107 X 63 Y -107 X f black 1338 1315 m 107 X s 1338 1252 m 107 X s 1445 1252 m 63 Y s 1338 1252 m 63 Y s
 gsave  2263 1770 2 313 C 1464.36 1172.84 t 0 r /Helvetica findfont 64.4212 sf 0 0 m (Diboson) show NC gr  1 0.4 0.6 c 1338 1161 m 107 X 63 Y -107 X f black 1338 1224 m 107 X s 1338 1161 m 107 X s 1445 1161 m 63 Y s 1338 1161 m 63 Y s
 gsave  2263 1770 2 313 C 1464.36 1081.32 t 0 r /Helvetica findfont 64.4212 sf 0 0 m (Multi\255jet) show NC gr  0 0 0.4 c 1338 1070 m 107 X 63 Y -107 X f black 1338 1133 m 107 X s 1338 1070 m 107 X s 1445 1070 m 63 Y s 1338 1070 m 63 Y s
 gsave  2263 1770 2 313 C 911.832 1566.05 t 0 r /Helvetica findfont 44.0776 sf 0 0 m (\2551) show NC gr 
 gsave  2263 1770 2 313 C 471.17 1535.54 t 0 r /Helvetica findfont 64.4212 sf 0 0 m (=13TeV, 139 fb) show NC gr 
 gsave  2263 1770 2 313 C 440.662 1535.54 t 0 r /Helvetica findfont 64.4212 sf 0 0 m (s) show NC gr  6 lw 420 1573 m 7 -41 d s 3 lw 427 1532 m 7 61 d s 434 1593 m 37 X s 1 1 1 c 2254 561 2 2 bf black 1 1 1 c black 1860 358 318 187 bl 1 1 1 c black
 1860 358 318 187 bl 6 lw 1 1 1 c black 3 lw 373 351 m20 6 lw 3 lw 482 362 m20 6 lw 3 lw 591 363 m20 6 lw 3 lw 701 370 m20 6 lw 3 lw 810 379 m20 6 lw 3 lw 920 367 m20 6 lw 3 lw 1029 368 m20 6 lw 3 lw 1139 394 m20 6 lw 3 lw 1248 396 m20 6 lw 3 lw 1358
 372 m20 6 lw 3 lw 1467 334 m20 6 lw 3 lw 1576 391 m20 6 lw 3 lw 1795 259 m20 6 lw 3 lw 1905 318 m20 6 lw 3 lw 318 187 m 1860 X s
 gsave  2254 561 2 2 C 2105.01 64.4045 t 0 r /Helvetica findfont 50.9797 sf 0 0 m (1/2) show NC gr 
 gsave  2254 561 2 2 C 1888.07 23.728 t 0 r /Helvetica findfont 78.1689 sf 0 0 m ( [GeV]) show NC gr 
 gsave  2254 561 2 2 C 1857.56 3.38971 t 0 r /Helvetica findfont 50.9797 sf 0 0 m (T) show NC gr 
 gsave  2254 561 2 2 C 1806.72 23.728 t 0 r /Helvetica findfont 78.1689 sf 0 0 m (H) show NC gr  6 lw 1773 81 m 10 -78 d s 3 lw 1783 3 m 14 99 d s 1797 102 m 91 X s
 gsave  2254 561 2 2 C 1735.53 23.728 t 0 r /Helvetica findfont 78.1689 sf 0 0 m (/) show NC gr 
 gsave  2254 561 2 2 C 1630.45 61.0148 t 0 r /Helvetica findfont 50.9797 sf 0 0 m (miss) show NC gr 
 gsave  2254 561 2 2 C 1630.45 3.38971 t 0 r /Helvetica findfont 50.9797 sf 0 0 m (T) show NC gr 
 gsave  2254 561 2 2 C 1579.61 23.728 t 0 r /Helvetica findfont 78.1689 sf 0 0 m (E) show NC gr  537 201 m -14 Y s 591 194 m -7 Y s 646 194 m -7 Y s 701 194 m -7 Y s 756 194 m -7 Y s 810 201 m -14 Y s 865 194 m -7 Y s 920 194 m -7 Y s 975 194 m -7 Y
 s 1029 194 m -7 Y s 1084 201 m -14 Y s 1139 194 m -7 Y s 1193 194 m -7 Y s 1248 194 m -7 Y s 1303 194 m -7 Y s 1358 201 m -14 Y s 1412 194 m -7 Y s 1467 194 m -7 Y s 1522 194 m -7 Y s 1576 194 m -7 Y s 1631 201 m -14 Y s 1686 194 m -7 Y s 1741 194 m
 -7 Y s 1795 194 m -7 Y s 1850 194 m -7 Y s 1905 201 m -14 Y s 1959 194 m -7 Y s 2014 194 m -7 Y s 2069 194 m -7 Y s 2124 194 m -7 Y s 2178 201 m -14 Y s 537 201 m -14 Y s 482 194 m -7 Y s 427 194 m -7 Y s 373 194 m -7 Y s 318 194 m -7 Y s
 gsave  2254 561 2 2 C 491.508 118.64 t 0 r /Helvetica findfont 78.1689 sf 0 0 m (20) show NC gr 
 gsave  2254 561 2 2 C 766.075 118.64 t 0 r /Helvetica findfont 78.1689 sf 0 0 m (25) show NC gr 
 gsave  2254 561 2 2 C 1037.25 118.64 t 0 r /Helvetica findfont 78.1689 sf 0 0 m (30) show NC gr 
 gsave  2254 561 2 2 C 1311.82 118.64 t 0 r /Helvetica findfont 78.1689 sf 0 0 m (35) show NC gr 
 gsave  2254 561 2 2 C 1586.38 118.64 t 0 r /Helvetica findfont 78.1689 sf 0 0 m (40) show NC gr 
 gsave  2254 561 2 2 C 1857.56 118.64 t 0 r /Helvetica findfont 78.1689 sf 0 0 m (45) show NC gr 
 gsave  2254 561 2 2 C 2132.13 118.64 t 0 r /Helvetica findfont 78.1689 sf 0 0 m (50) show NC gr  318 545 m 1860 X s 537 531 m 14 Y s 591 538 m 7 Y s 646 538 m 7 Y s 701 538 m 7 Y s 756 538 m 7 Y s 810 531 m 14 Y s 865 538 m 7 Y s 920 538 m 7 Y s 975
 538 m 7 Y s 1029 538 m 7 Y s 1084 531 m 14 Y s 1139 538 m 7 Y s 1193 538 m 7 Y s 1248 538 m 7 Y s 1303 538 m 7 Y s 1358 531 m 14 Y s 1412 538 m 7 Y s 1467 538 m 7 Y s 1522 538 m 7 Y s 1576 538 m 7 Y s 1631 531 m 14 Y s 1686 538 m 7 Y s 1741 538 m 7
 Y s 1795 538 m 7 Y s 1850 538 m 7 Y s 1905 531 m 14 Y s 1959 538 m 7 Y s 2014 538 m 7 Y s 2069 538 m 7 Y s 2124 538 m 7 Y s 2178 531 m 14 Y s 537 531 m 14 Y s 482 538 m 7 Y s 427 538 m 7 Y s 373 538 m 7 Y s 318 538 m 7 Y s 318 187 m 358 Y s
 gsave  2254 561 2 2 C 166.096 284.736 t 90 r /Helvetica findfont 67.9729 sf 0 0 m (Data/SM) show NC gr  361 203 m -43 X s 339 220 m -21 X s 339 236 m -21 X s 339 252 m -21 X s 339 268 m -21 X s 361 285 m -43 X s 339 301 m -21 X s 339 317 m -21 X s
 339 334 m -21 X s 339 350 m -21 X s 361 366 m -43 X s 339 382 m -21 X s 339 399 m -21 X s 339 415 m -21 X s 339 431 m -21 X s 361 447 m -43 X s 339 464 m -21 X s 339 480 m -21 X s 339 496 m -21 X s 339 512 m -21 X s 361 529 m -43 X s 361 203 m -43 X
 s 339 187 m -21 X s 361 529 m -43 X s
 gsave  2254 561 2 2 C 261.008 183.044 t 0 r /Helvetica findfont 57.777 sf 0 0 m (0) show NC gr 
 gsave  2254 561 2 2 C 213.552 261.008 t 0 r /Helvetica findfont 57.777 sf 0 0 m (0.5) show NC gr 
 gsave  2254 561 2 2 C 271.177 342.361 t 0 r /Helvetica findfont 57.777 sf 0 0 m (1) show NC gr 
 gsave  2254 561 2 2 C 213.552 423.714 t 0 r /Helvetica findfont 57.777 sf 0 0 m (1.5) show NC gr 
 gsave  2254 561 2 2 C 261.008 505.067 t 0 r /Helvetica findfont 57.777 sf 0 0 m (2) show NC gr  2178 187 m 358 Y s 2135 203 m 43 X s 2157 220 m 21 X s 2157 236 m 21 X s 2157 252 m 21 X s 2157 268 m 21 X s 2135 285 m 43 X s 2157 301 m 21 X s 2157 317
 m 21 X s 2157 334 m 21 X s 2157 350 m 21 X s 2135 366 m 43 X s 2157 382 m 21 X s 2157 399 m 21 X s 2157 415 m 21 X s 2157 431 m 21 X s 2135 447 m 43 X s 2157 464 m 21 X s 2157 480 m 21 X s 2157 496 m 21 X s 2157 512 m 21 X s 2135 529 m 43 X s 2135
 203 m 43 X s 2157 187 m 21 X s 2135 529 m 43 X s 9 lw 1358 385 m 5 Y s 1358 390 m cl s 1358 358 m -4 Y s 1358 354 m cl s 1467 348 m 10 Y s 1467 358 m cl s 1467 321 m -10 Y s 1467 311 m cl s 1576 405 m 34 Y s 1576 439 m cl s 1576 378 m -33 Y s 1576
 345 m cl s 1686 545 m -19 Y s 1686 526 m cl s 1795 273 m 58 Y s 1795 331 m cl s 1795 246 m -33 Y s 1795 213 m cl s 1905 331 m 134 Y s 1905 465 m cl s 1905 304 m -81 Y s 1905 223 m cl s 2124 545 m -30 Y s 2124 515 m cl s 3 lw 373 351 482 362 591 363
 701 370 810 379 920 367 1029 368 1139 394 1248 396 1358 372 1467 334 1576 391 12 { m20} R 9 lw 3 lw 1795 259 1905 318 2 { m20} R 9 lw 1 0 0 c 6 lw black 3 lw 1 0 0 c 2178 312 m s 2178 341 m -29 -29 d s 2178 369 m -58 -57 d s 2178 398 m -86 -86 d s
 2172 420 m -107 -107 d s 2143 420 m -107 -107 d s 2115 420 m -108 -107 d s 2086 420 m -107 -107 d s 2056 419 m -97 -96 d s 2027 419 m -91 -91 d s 1998 419 m -90 -91 d s 1969 419 m -10 -10 d s 1954 404 m -75 -76 d s 1926 404 m -76 -76 d s 1897 404 m
 -57 -57 d s 1868 404 m -18 -19 d s 1850 385 m -38 -38 d s 1821 385 m -38 -38 d s 1792 385 m -38 -38 d s 1741 333 m -7 -6 d s 1764 385 m -59 -58 d s 1741 391 m -65 -64 d s 1727 406 m -79 -79 d s 1631 310 m -9 -9 d s 1698 406 m -104 -105 d s 1669 406
 m -104 -105 d s 1641 406 m -105 -105 d s 1631 425 m -109 -110 d s 1609 431 m -87 -87 d s 1580 431 m -78 -78 d s 1551 431 m -29 -30 d s 1499 379 m -25 -26 d s 1523 431 m -1 -1 d s 1470 379 m -25 -26 d s 1442 379 m -26 -26 d s 1413 379 m -1 -1 d s
 1411 377 m -22 -22 d s 1383 377 m -22 -22 d s 1354 377 m -22 -22 d s 1325 377 m -22 -22 d s 1296 376 m -21 -20 d s 1267 376 m -20 -20 d s 1238 376 m -20 -20 d s 1210 376 m -20 -19 d s 1180 375 m -19 -18 d s 1152 375 m -19 -18 d s 1123 375 m -19 -18
 d s 1094 375 m -18 -18 d s 1065 375 m -18 -18 d s 1036 375 m -18 -18 d s 1008 375 m -18 -18 d s 979 375 m -18 -18 d s 950 375 m -18 -18 d s 921 375 m -17 -18 d s 893 375 m -18 -18 d s 864 375 m -18 -18 d s 835 375 m -17 -18 d s 807 375 m -18 -18 d s
 778 375 m -18 -18 d s 750 375 m -19 -18 d s 721 375 m -19 -18 d s 692 375 m -18 -18 d s 664 375 m -19 -18 d s 635 376 m -19 -19 d s 606 376 m -19 -19 d s 578 376 m -19 -19 d s 549 376 m -19 -19 d s 520 375 m -19 -18 d s 492 375 m -19 -18 d s 463 375
 m -19 -18 d s 318 231 m s 434 375 m -18 -18 d s 318 259 m s 405 375 m -18 -18 d s 318 288 m s 377 375 m -19 -18 d s 318 317 m s 348 375 m -18 -18 d s 318 345 m s 319 375 m -1 -1 d s 6 lw 0 0 1 c 9 lw 1686 496 m 30 Y s 3 lw 1675 526 m 11 19 d 11 -19
 d f 9 lw 1675 526 m 11 19 d 11 -19 d -22 X cl s black[ 4 8] 0 sd 3 lw 318 447 m 1860 X s 318 285 m 1860 X s 1 0 0 c[  12 12 ] 0 sd 6 lw 318 366 m 1860 X s
 gr  gr showpage
end
%%EOF
