%!PS-Adobe-2.0 EPSF-2.0
%%BoundingBox:  0 0 567 521
%%Title: Distributions/metsqrtmeffInc_met_distrVR0LmetSig_MB-GGd_beforeFit_forThesis.eps: canvas
%%Creator: ROOT Version 6.04/16
%%CreationDate: Tue May 19 22:06:36 2020
%%DocumentNeededResources: ProcSet (FontSetInit)
%%EndComments
%%BeginProlog
80 dict begin
/s {stroke} def /l {lineto} def /m {moveto} def /t {translate} def
/r {rotate} def /rl {roll}  def /R {repeat} def
/d {rlineto} def /rm {rmoveto} def /gr {grestore} def /f {eofill} def
/c {setrgbcolor} def /black {0 setgray} def /sd {setdash} def
/cl {closepath} def /sf {scalefont setfont} def /lw {setlinewidth} def
/box {m dup 0 exch d exch 0 d 0 exch neg d cl} def
/NC{systemdict begin initclip end}def/C{NC box clip newpath}def
/bl {box s} def /bf {gsave box gsave f grestore 1 lw [] 0 sd s grestore} def /Y { 0 exch d} def /X { 0 d} def 
/K {{pop pop 0 moveto} exch kshow} bind def
/ita {/ang 15 def gsave [1 0 ang dup sin exch cos div 1 0 0] concat} def 
/mp {newpath /y exch def /x exch def} def
/side {[w .77 mul w .23 mul] .385 w mul sd w 0 l currentpoint t -144 r} def
/mr {mp x y w2 0 360 arc} def /m24 {mr s} def /m20 {mr f} def
/mb {mp x y w2 add m w2 neg 0 d 0 w neg d w 0 d 0 w d cl} def
/mt {mp x y w2 add m w2 neg w neg d w 0 d cl} def
/m21 {mb f} def /m25 {mb s} def /m22 {mt f} def /m26{mt s} def
/m23 {mp x y w2 sub m w2 w d w neg 0 d cl f} def
/m27 {mp x y w2 add m w3 neg w2 neg d w3 w2 neg d w3 w2 d cl s} def
/m28 {mp x w2 sub y w2 sub w3 add m w3 0 d  0 w3 neg d w3 0 d 0 w3 d w3 0 d  0 w3 d w3 neg 0 d 0 w3 d w3 neg 0 d 0 w3 neg d w3 neg 0 d cl s } def
/m29 {mp gsave x w2 sub y w2 add w3 sub m currentpoint t 4 {side} repeat cl fill gr} def
/m30 {mp gsave x w2 sub y w2 add w3 sub m currentpoint t 4 {side} repeat cl s gr} def
/m31 {mp x y w2 sub m 0 w d x w2 sub y m w 0 d x w2 sub y w2 add m w w neg d x w2 sub y w2 sub m w w d s} def
/m32 {mp x y w2 sub m w2 w d w neg 0 d cl s} def
/m33 {mp x y w2 add m w3 neg w2 neg d w3 w2 neg d w3 w2 d cl f} def
/m34 {mp x w2 sub y w2 sub w3 add m w3 0 d  0 w3 neg d w3 0 d 0 w3 d w3 0 d  0 w3 d w3 neg 0 d 0 w3 d w3 neg 0 d 0 w3 neg d w3 neg 0 d cl f } def
/m2 {mp x y w2 sub m 0 w d x w2 sub y m w 0 d s} def
/m5 {mp x w2 sub y w2 sub m w w d x w2 sub y w2 add m w w neg d s} def
%%IncludeResource: ProcSet (FontSetInit)
%%IncludeResource: font Times-Roman
%%IncludeResource: font Times-Italic
%%IncludeResource: font Times-Bold
%%IncludeResource: font Times-BoldItalic
%%IncludeResource: font Helvetica
%%IncludeResource: font Helvetica-Oblique
%%IncludeResource: font Helvetica-Bold
%%IncludeResource: font Helvetica-BoldOblique
%%IncludeResource: font Courier
%%IncludeResource: font Courier-Oblique
%%IncludeResource: font Courier-Bold
%%IncludeResource: font Courier-BoldOblique
%%IncludeResource: font Symbol
%%IncludeResource: font ZapfDingbats
/reEncode {exch findfont dup length dict begin {1 index /FID eq  {pop pop} {def} ifelse } forall /Encoding exch def currentdict end dup /FontName get exch definefont pop } def [/Times-Bold /Times-Italic /Times-BoldItalic /Helvetica /Helvetica-Oblique
 /Helvetica-Bold /Helvetica-BoldOblique /Courier /Courier-Oblique /Courier-Bold /Courier-BoldOblique /Times-Roman /AvantGarde-Book /AvantGarde-BookOblique /AvantGarde-Demi /AvantGarde-DemiOblique /Bookman-Demi /Bookman-DemiItalic /Bookman-Light
 /Bookman-LightItalic /Helvetica-Narrow /Helvetica-Narrow-Bold /Helvetica-Narrow-BoldOblique /Helvetica-Narrow-Oblique /NewCenturySchlbk-Roman /NewCenturySchlbk-Bold /NewCenturySchlbk-BoldItalic /NewCenturySchlbk-Italic /Palatino-Bold
 /Palatino-BoldItalic /Palatino-Italic /Palatino-Roman ] {ISOLatin1Encoding reEncode } forall
%%EndProlog
%%BeginSetup
%%EndSetup
newpath  gsave  .25 .25 scale  gsave  0 0 t black[  ] 0 sd 3 lw 1 1 1 c 2268 2085 0 0 bf black 1 1 1 c 2263 1770 2 313 bf black 1 1 1 c black 1860 1145 319 584 bl 1 1 1 c black 1860 1145 319 584 bl 6 lw 1 1 1 c black 3 lw /w 33 def /w2 {w 2 div} def
 /w3 {w 3 div} def 391 1179 m20 6 lw 3 lw 534 1143 m20 6 lw 3 lw 677 1089 m20 6 lw 3 lw 820 1042 m20 6 lw 3 lw 963 986 m20 6 lw 1106 870 m 12 Y s 1106 909 m 5 Y s 3 lw 1106 895 m20 6 lw 1249 809 m 26 Y s 1249 862 m 12 Y s 3 lw 1249 849 m20 6 lw 1392
 704 m 69 Y s 1392 800 m 23 Y s 3 lw 1392 787 m20 6 lw 1535 704 m 69 Y s 1535 800 m 23 Y s 3 lw 1535 787 m20 6 lw 3 lw 319 584 m 1860 X s
 gsave  2263 1770 2 313 C 2101.62 396.596 t 0 r /Helvetica findfont 54.2494 sf 0 0 m (1/2) show NC gr 
 gsave  2263 1770 2 313 C 1874.51 355.92 t 0 r /Helvetica findfont 81.3741 sf 0 0 m ( [GeV]) show NC gr 
 gsave  2263 1770 2 313 C 1840.61 332.192 t 0 r /Helvetica findfont 54.2494 sf 0 0 m (T) show NC gr 
 gsave  2263 1770 2 313 C 1786.38 355.92 t 0 r /Helvetica findfont 81.3741 sf 0 0 m (H) show NC gr  6 lw 1749 417 m 14 -85 d s 3 lw 1763 332 m 13 105 d s 1776 437 m 99 X s
 gsave  2263 1770 2 313 C 1711.8 355.92 t 0 r /Helvetica findfont 81.3741 sf 0 0 m (/) show NC gr 
 gsave  2263 1770 2 313 C 1599.94 396.596 t 0 r /Helvetica findfont 54.2494 sf 0 0 m (miss) show NC gr 
 gsave  2263 1770 2 313 C 1599.94 332.192 t 0 r /Helvetica findfont 54.2494 sf 0 0 m (T) show NC gr 
 gsave  2263 1770 2 313 C 1549.1 355.92 t 0 r /Helvetica findfont 81.3741 sf 0 0 m (E) show NC gr  319 584 m cl s 391 584 m cl s 462 584 m cl s 534 584 m cl s 605 584 m cl s 677 584 m cl s 748 584 m cl s 820 584 m cl s 892 584 m cl s 963 584 m cl s
 1035 584 m cl s 1106 584 m cl s 1178 584 m cl s 1249 584 m cl s 1321 584 m cl s 1392 584 m cl s 1464 584 m cl s 1535 584 m cl s 1607 584 m cl s 1679 584 m cl s 1750 584 m cl s 1822 584 m cl s 1893 584 m cl s 1965 584 m cl s 2036 584 m cl s 2108 584
 m cl s 2108 584 m cl s 2179 584 m cl s 319 1729 m 1860 X s 319 1729 m cl s 391 1729 m cl s 462 1729 m cl s 534 1729 m cl s 605 1729 m cl s 677 1729 m cl s 748 1729 m cl s 820 1729 m cl s 892 1729 m cl s 963 1729 m cl s 1035 1729 m cl s 1106 1729 m
 cl s 1178 1729 m cl s 1249 1729 m cl s 1321 1729 m cl s 1392 1729 m cl s 1464 1729 m cl s 1535 1729 m cl s 1607 1729 m cl s 1679 1729 m cl s 1750 1729 m cl s 1822 1729 m cl s 1893 1729 m cl s 1965 1729 m cl s 2036 1729 m cl s 2108 1729 m cl s 2108
 1729 m cl s 2179 1729 m cl s 319 584 m 1145 Y s
 gsave  2263 1770 2 313 C 125.419 1654.18 t 90 r /Helvetica findfont 54.2494 sf 0 0 m (1/2) show NC gr 
 gsave  2263 1770 2 313 C 166.096 1064.37 t 90 r /Helvetica findfont 81.3741 sf 0 0 m (Events / 2 [GeV]) show NC gr  341 631 m -22 X s 341 659 m -22 X s 341 678 m -22 X s 341 693 m -22 X s 341 705 m -22 X s 341 716 m -22 X s 341 725 m -22 X s 341 733
 m -22 X s 363 740 m -44 X s
 gsave  2263 1770 2 313 C 300.555 712.783 t 0 r  -36 0 t /Helvetica findfont 64.4212 sf 0 0 m (1) show NC gr  341 787 m -22 X s 341 814 m -22 X s 341 834 m -22 X s 341 849 m -22 X s 341 861 m -22 X s 341 871 m -22 X s 341 880 m -22 X s 341 888 m -22
 X s 363 895 m -44 X s
 gsave  2263 1770 2 313 C 300.555 868.374 t 0 r  -73 0 t /Helvetica findfont 64.4212 sf 0 0 m (10) show NC gr  341 942 m -22 X s 341 970 m -22 X s 341 989 m -22 X s 341 1004 m -22 X s 341 1017 m -22 X s 341 1027 m -22 X s 341 1036 m -22 X s 341 1044
 m -22 X s 363 1051 m -44 X s
 gsave  2263 1770 2 313 C 274.567 1050.81 t 0 r /Helvetica findfont 44.0776 sf 0 0 m (2) show NC gr 
 gsave  2263 1770 2 313 C 203.383 1023.69 t 0 r /Helvetica findfont 64.4212 sf 0 0 m (10) show NC gr  341 1098 m -22 X s 341 1125 m -22 X s 341 1145 m -22 X s 341 1160 m -22 X s 341 1172 m -22 X s 341 1183 m -22 X s 341 1192 m -22 X s 341 1200 m -22
 X s 363 1207 m -44 X s
 gsave  2263 1770 2 313 C 274.567 1206.74 t 0 r /Helvetica findfont 44.0776 sf 0 0 m (3) show NC gr 
 gsave  2263 1770 2 313 C 203.383 1176.23 t 0 r /Helvetica findfont 64.4212 sf 0 0 m (10) show NC gr  341 1254 m -22 X s 341 1281 m -22 X s 341 1300 m -22 X s 341 1315 m -22 X s 341 1328 m -22 X s 341 1338 m -22 X s 341 1347 m -22 X s 341 1355 m -22
 X s 363 1362 m -44 X s
 gsave  2263 1770 2 313 C 274.567 1359.27 t 0 r /Helvetica findfont 44.0776 sf 0 0 m (4) show NC gr 
 gsave  2263 1770 2 313 C 203.383 1332.16 t 0 r /Helvetica findfont 64.4212 sf 0 0 m (10) show NC gr  341 1409 m -22 X s 341 1437 m -22 X s 341 1456 m -22 X s 341 1471 m -22 X s 341 1483 m -22 X s 341 1494 m -22 X s 341 1503 m -22 X s 341 1511 m -22
 X s 363 1518 m -44 X s
 gsave  2263 1770 2 313 C 274.567 1518.59 t 0 r /Helvetica findfont 44.0776 sf 0 0 m (5) show NC gr 
 gsave  2263 1770 2 313 C 203.383 1488.08 t 0 r /Helvetica findfont 64.4212 sf 0 0 m (10) show NC gr  341 1565 m -22 X s 341 1592 m -22 X s 341 1612 m -22 X s 341 1627 m -22 X s 341 1639 m -22 X s 341 1649 m -22 X s 341 1658 m -22 X s 341 1666 m -22
 X s 363 1673 m -44 X s
 gsave  2263 1770 2 313 C 274.567 1674.52 t 0 r /Helvetica findfont 44.0776 sf 0 0 m (6) show NC gr 
 gsave  2263 1770 2 313 C 203.383 1644.01 t 0 r /Helvetica findfont 64.4212 sf 0 0 m (10) show NC gr  341 1720 m -22 X s 2179 584 m 1145 Y s 2157 631 m 22 X s 2157 659 m 22 X s 2157 678 m 22 X s 2157 693 m 22 X s 2157 705 m 22 X s 2157 716 m 22 X s
 2157 725 m 22 X s 2157 733 m 22 X s 2136 740 m 43 X s 2157 787 m 22 X s 2157 814 m 22 X s 2157 834 m 22 X s 2157 849 m 22 X s 2157 861 m 22 X s 2157 871 m 22 X s 2157 880 m 22 X s 2157 888 m 22 X s 2136 895 m 43 X s 2157 942 m 22 X s 2157 970 m 22 X
 s 2157 989 m 22 X s 2157 1004 m 22 X s 2157 1017 m 22 X s 2157 1027 m 22 X s 2157 1036 m 22 X s 2157 1044 m 22 X s 2136 1051 m 43 X s 2157 1098 m 22 X s 2157 1125 m 22 X s 2157 1145 m 22 X s 2157 1160 m 22 X s 2157 1172 m 22 X s 2157 1183 m 22 X s
 2157 1192 m 22 X s 2157 1200 m 22 X s 2136 1207 m 43 X s 2157 1254 m 22 X s 2157 1281 m 22 X s 2157 1300 m 22 X s 2157 1315 m 22 X s 2157 1328 m 22 X s 2157 1338 m 22 X s 2157 1347 m 22 X s 2157 1355 m 22 X s 2136 1362 m 43 X s 2157 1409 m 22 X s
 2157 1437 m 22 X s 2157 1456 m 22 X s 2157 1471 m 22 X s 2157 1483 m 22 X s 2157 1494 m 22 X s 2157 1503 m 22 X s 2157 1511 m 22 X s 2136 1518 m 43 X s 2157 1565 m 22 X s 2157 1592 m 22 X s 2157 1612 m 22 X s 2157 1627 m 22 X s 2157 1639 m 22 X s
 2157 1649 m 22 X s 2157 1658 m 22 X s 2157 1666 m 22 X s 2136 1673 m 43 X s 2157 1720 m 22 X s 0.4 0.6 1 c black 0.4 0.6 1 c 319 584 m 604 Y 143 X -35 Y 143 X -49 Y 143 X -56 Y 144 X -48 Y 143 X -61 Y 143 X -56 Y 143 X -62 Y 143 X -56 Y 143 X -57 Y
 143 X -55 Y 143 X -69 Y 286 X f black 0.4 0.6 1 c black 319 1188 m 143 X -35 Y 143 X -49 Y 143 X -56 Y 144 X -48 Y 143 X -61 Y 143 X -56 Y 143 X -62 Y 143 X -56 Y 143 X -57 Y 143 X -55 Y 143 X -69 Y 286 X s 0.999 0.999 0.999 c black 0.999 0.999
 0.999 c 319 584 m 586 Y 143 X -35 Y 143 X -50 Y 143 X -55 Y 144 X -52 Y 143 X -62 Y 143 X -46 Y 143 X -72 Y 143 X -47 Y 143 X -62 Y 143 X -70 Y 143 X -35 Y 286 X f black 0.999 0.999 0.999 c black 319 1170 m 143 X -35 Y 143 X -50 Y 143 X -55 Y 144 X
 -52 Y 143 X -62 Y 143 X -46 Y 143 X -72 Y 143 X -47 Y 143 X -62 Y 143 X -70 Y 143 X -35 Y 286 X s 1 1 1 c black 319 1170 m 143 X -35 Y 143 X -50 Y 143 X -55 Y 144 X -52 Y 143 X -62 Y 143 X -46 Y 143 X -72 Y 143 X -47 Y 143 X -62 Y 143 X -70 Y 143 X
 -35 Y 286 X s 0.6 1 0.6 c black 0.6 1 0.6 c 319 584 m 586 Y 143 X -35 Y 143 X -50 Y 143 X -55 Y 144 X -52 Y 143 X -62 Y 143 X -46 Y 143 X -72 Y 143 X -47 Y 143 X -62 Y 143 X -70 Y 143 X -35 Y 286 X f black 0.6 1 0.6 c black 319 1170 m 143 X -35 Y
 143 X -50 Y 143 X -55 Y 144 X -52 Y 143 X -62 Y 143 X -46 Y 143 X -72 Y 143 X -47 Y 143 X -62 Y 143 X -70 Y 143 X -35 Y 286 X s 0.999 0.999 0.999 c black 0.999 0.999 0.999 c 319 584 m 505 Y 143 X -31 Y 143 X -44 Y 143 X -46 Y 144 X -33 Y 143 X -54 Y
 143 X -47 Y 143 X -70 Y 143 X -53 Y 143 X -49 Y 143 X -55 Y 143 X -23 Y 286 X f black 0.999 0.999 0.999 c black 319 1089 m 143 X -31 Y 143 X -44 Y 143 X -46 Y 144 X -33 Y 143 X -54 Y 143 X -47 Y 143 X -70 Y 143 X -53 Y 143 X -49 Y 143 X -55 Y 143 X
 -23 Y 286 X s 1 1 1 c black 319 1089 m 143 X -31 Y 143 X -44 Y 143 X -46 Y 144 X -33 Y 143 X -54 Y 143 X -47 Y 143 X -70 Y 143 X -53 Y 143 X -49 Y 143 X -55 Y 143 X -23 Y 286 X s 1 0.8 0.4 c black 1 0.8 0.4 c 319 584 m 505 Y 143 X -31 Y 143 X -44 Y
 143 X -46 Y 144 X -33 Y 143 X -54 Y 143 X -47 Y 143 X -70 Y 143 X -53 Y 143 X -49 Y 143 X -55 Y 143 X -23 Y 286 X f black 1 0.8 0.4 c black 319 1089 m 143 X -31 Y 143 X -44 Y 143 X -46 Y 144 X -33 Y 143 X -54 Y 143 X -47 Y 143 X -70 Y 143 X -53 Y
 143 X -49 Y 143 X -55 Y 143 X -23 Y 286 X s 0.999 0.999 0.999 c black 0.999 0.999 0.999 c 319 584 m 413 Y 143 X -58 Y 143 X -59 Y 143 X -40 Y 144 X -42 Y 143 X -67 Y 143 X -1 Y 143 X -144 Y 143 X -2 Y 715 X f black 0.999 0.999 0.999 c black 319 997
 m 143 X -58 Y 143 X -59 Y 143 X -40 Y 144 X -42 Y 143 X -67 Y 143 X -1 Y 143 X -144 Y 143 X -2 Y 715 X s 1 1 1 c black 319 997 m 143 X -58 Y 143 X -59 Y 143 X -40 Y 144 X -42 Y 143 X -67 Y 143 X -1 Y 143 X -144 Y 143 X -2 Y 715 X s 1 0.4 0.6 c black
 1 0.4 0.6 c 319 584 m 413 Y 143 X -58 Y 143 X -59 Y 143 X -40 Y 144 X -42 Y 143 X -67 Y 143 X -1 Y 143 X -144 Y 143 X -2 Y 715 X f black 1 0.4 0.6 c black 319 997 m 143 X -58 Y 143 X -59 Y 143 X -40 Y 144 X -42 Y 143 X -67 Y 143 X -1 Y 143 X -144 Y
 143 X -2 Y 715 X s 0.999 0.999 0.999 c black 0.999 0.999 0.999 c 319 584 m 367 Y 143 X -124 Y 143 X -132 Y 143 X -111 Y 1431 X f black 0.999 0.999 0.999 c black 319 951 m 143 X -124 Y 143 X -132 Y 143 X -111 Y 1431 X s 1 1 1 c black 319 951 m 143 X
 -124 Y 143 X -132 Y 143 X -111 Y 1431 X s 0 0 0.4 c black 0 0 0.4 c 319 584 m 367 Y 143 X -124 Y 143 X -132 Y 143 X -111 Y 1431 X f black 0 0 0.4 c black 319 951 m 143 X -124 Y 143 X -132 Y 143 X -111 Y 1431 X s 1 0 0 c 6 lw 1 1 1 c black 1 0 0 c
 319 1188 m 143 X -35 Y 143 X -49 Y 143 X -56 Y 144 X -48 Y 143 X -61 Y 143 X -56 Y 143 X -62 Y 143 X -56 Y 143 X -57 Y 143 X -55 Y 143 X -69 Y 286 X s black 3 lw 1 0 0 c 1 lw << /PatternType 1 /PaintType 2 /TilingType 1 /BBox [ 0 0 100 100 ] /XStep
 100 /YStep 100 /PaintProc { begin gsave 0 100 m 100 0 l s gr end } >> [ 0.24 0 0 0.24 0 0 ] makepattern /P05 exch def /cs {[/Pattern /DeviceRGB] setcolorspace} def /FA {f [/DeviceRGB] setcolorspace} def cs 1 0 0 P05 setcolor 319 584 m 607 Y 143 X
 -35 Y 143 X -49 Y 143 X -52 Y 144 X -49 Y 143 X -61 Y 143 X -43 Y 143 X -68 Y 143 X -48 Y 143 X -65 Y 143 X -38 Y 143 X -95 Y 143 X 20 Y 143 X -24 Y -286 X 11 Y -143 X 95 Y -143 X 44 Y -143 X 70 Y -143 X 52 Y -143 X 76 Y -143 X 61 Y -143 X 49 Y -144
 X 59 Y -143 X 49 Y -143 X 34 Y -143 X -600 Y FA 6 lw 1 1 1 c 15 lw 1106 875 m -5 Y s 1106 870 m cl s 1249 869 m 6 Y s 1249 875 m cl s 1249 828 m -17 Y s 1249 811 m cl s 1392 807 m 20 Y s 1392 827 m cl s 1392 766 m -49 Y s 1392 717 m cl s 1535 807 m
 20 Y s 1535 827 m cl s 1535 766 m -49 Y s 1535 717 m cl s black 1 1 1 c 3 lw /w 43 def /w2 {w 2 div} def /w3 {w 3 div} def 391 1179 534 1143 677 1089 820 1042 963 986 1106 895 1249 849 1392 787 1535 787 9 { m20} R 15 lw black 6 lw 1 1 1 c black 3 lw
 /w 33 def /w2 {w 2 div} def /w3 {w 3 div} def 391 1179 m20 6 lw 3 lw 534 1143 m20 6 lw 3 lw 677 1089 m20 6 lw 3 lw 820 1042 m20 6 lw 3 lw 963 986 m20 6 lw 1106 870 m 12 Y s 1106 909 m 5 Y s 3 lw 1106 895 m20 6 lw 1249 809 m 26 Y s 1249 862 m 12 Y s
 3 lw 1249 849 m20 6 lw 1392 704 m 69 Y s 1392 800 m 23 Y s 3 lw 1392 787 m20 6 lw 1535 704 m 69 Y s 1535 800 m 23 Y s 3 lw 1535 787 m20 6 lw 1106 909 m 5 Y s 1106 914 m cl s 1106 882 m -12 Y s 1106 870 m cl s 1249 862 m 13 Y s 1249 875 m cl s 1249
 835 m -24 Y s 1249 811 m cl s 1392 800 m 27 Y s 1392 827 m cl s 1392 773 m -56 Y s 1392 717 m cl s 1535 800 m 27 Y s 1535 827 m cl s 1535 773 m -56 Y s 1535 717 m cl s 3 lw 391 1179 534 1143 677 1089 820 1042 963 986 1106 895 1249 849 1392 787 1535
 787 9 { m20} R 6 lw 3 lw 319 584 m 1860 X s 319 584 m cl s 391 584 m cl s 462 584 m cl s 534 584 m cl s 605 584 m cl s 677 584 m cl s 748 584 m cl s 820 584 m cl s 892 584 m cl s 963 584 m cl s 1035 584 m cl s 1106 584 m cl s 1178 584 m cl s 1249
 584 m cl s 1321 584 m cl s 1392 584 m cl s 1464 584 m cl s 1535 584 m cl s 1607 584 m cl s 1679 584 m cl s 1750 584 m cl s 1822 584 m cl s 1893 584 m cl s 1965 584 m cl s 2036 584 m cl s 2108 584 m cl s 2108 584 m cl s 2179 584 m cl s 319 1729 m
 1860 X s 319 1729 m cl s 391 1729 m cl s 462 1729 m cl s 534 1729 m cl s 605 1729 m cl s 677 1729 m cl s 748 1729 m cl s 820 1729 m cl s 892 1729 m cl s 963 1729 m cl s 1035 1729 m cl s 1106 1729 m cl s 1178 1729 m cl s 1249 1729 m cl s 1321 1729 m
 cl s 1392 1729 m cl s 1464 1729 m cl s 1535 1729 m cl s 1607 1729 m cl s 1679 1729 m cl s 1750 1729 m cl s 1822 1729 m cl s 1893 1729 m cl s 1965 1729 m cl s 2036 1729 m cl s 2108 1729 m cl s 2108 1729 m cl s 2179 1729 m cl s 319 584 m 1145 Y s 341
 631 m -22 X s 341 659 m -22 X s 341 678 m -22 X s 341 693 m -22 X s 341 705 m -22 X s 341 716 m -22 X s 341 725 m -22 X s 341 733 m -22 X s 363 740 m -44 X s 341 787 m -22 X s 341 814 m -22 X s 341 834 m -22 X s 341 849 m -22 X s 341 861 m -22 X s
 341 871 m -22 X s 341 880 m -22 X s 341 888 m -22 X s 363 895 m -44 X s 341 942 m -22 X s 341 970 m -22 X s 341 989 m -22 X s 341 1004 m -22 X s 341 1017 m -22 X s 341 1027 m -22 X s 341 1036 m -22 X s 341 1044 m -22 X s 363 1051 m -44 X s 341 1098
 m -22 X s 341 1125 m -22 X s 341 1145 m -22 X s 341 1160 m -22 X s 341 1172 m -22 X s 341 1183 m -22 X s 341 1192 m -22 X s 341 1200 m -22 X s 363 1207 m -44 X s 341 1254 m -22 X s 341 1281 m -22 X s 341 1300 m -22 X s 341 1315 m -22 X s 341 1328 m
 -22 X s 341 1338 m -22 X s 341 1347 m -22 X s 341 1355 m -22 X s 363 1362 m -44 X s 341 1409 m -22 X s 341 1437 m -22 X s 341 1456 m -22 X s 341 1471 m -22 X s 341 1483 m -22 X s 341 1494 m -22 X s 341 1503 m -22 X s 341 1511 m -22 X s 363 1518 m
 -44 X s 341 1565 m -22 X s 341 1592 m -22 X s 341 1612 m -22 X s 341 1627 m -22 X s 341 1639 m -22 X s 341 1649 m -22 X s 341 1658 m -22 X s 341 1666 m -22 X s 363 1673 m -44 X s 341 1720 m -22 X s 2179 584 m 1145 Y s 2157 631 m 22 X s 2157 659 m 22
 X s 2157 678 m 22 X s 2157 693 m 22 X s 2157 705 m 22 X s 2157 716 m 22 X s 2157 725 m 22 X s 2157 733 m 22 X s 2136 740 m 43 X s 2157 787 m 22 X s 2157 814 m 22 X s 2157 834 m 22 X s 2157 849 m 22 X s 2157 861 m 22 X s 2157 871 m 22 X s 2157 880 m
 22 X s 2157 888 m 22 X s 2136 895 m 43 X s 2157 942 m 22 X s 2157 970 m 22 X s 2157 989 m 22 X s 2157 1004 m 22 X s 2157 1017 m 22 X s 2157 1027 m 22 X s 2157 1036 m 22 X s 2157 1044 m 22 X s 2136 1051 m 43 X s 2157 1098 m 22 X s 2157 1125 m 22 X s
 2157 1145 m 22 X s 2157 1160 m 22 X s 2157 1172 m 22 X s 2157 1183 m 22 X s 2157 1192 m 22 X s 2157 1200 m 22 X s 2136 1207 m 43 X s 2157 1254 m 22 X s 2157 1281 m 22 X s 2157 1300 m 22 X s 2157 1315 m 22 X s 2157 1328 m 22 X s 2157 1338 m 22 X s
 2157 1347 m 22 X s 2157 1355 m 22 X s 2136 1362 m 43 X s 2157 1409 m 22 X s 2157 1437 m 22 X s 2157 1456 m 22 X s 2157 1471 m 22 X s 2157 1483 m 22 X s 2157 1494 m 22 X s 2157 1503 m 22 X s 2157 1511 m 22 X s 2136 1518 m 43 X s 2157 1565 m 22 X s
 2157 1592 m 22 X s 2157 1612 m 22 X s 2157 1627 m 22 X s 2157 1639 m 22 X s 2157 1649 m 22 X s 2157 1658 m 22 X s 2157 1666 m 22 X s 2136 1673 m 43 X s 2157 1720 m 22 X s
 gsave  2263 1770 2 313 C 406.765 1447.41 t 0 r /Helvetica findfont 64.4212 sf 0 0 m (VR0LmetSig for MB\255GGd) show NC gr 
 gsave  2263 1770 2 313 C 1464.36 1630.45 t 0 r /Helvetica findfont 64.4212 sf 0 0 m (SM Total) show NC gr  1 1 1 c 1338 1616 m 107 X 64 Y -107 X f 1 0 0 c 6 lw 1338 1648 m 107 X s black
 gsave  2263 1770 2 313 C 1464.36 1538.93 t 0 r /Helvetica findfont 64.4212 sf 0 0 m (Data) show NC gr  1391 1529 m 55 Y s 3 lw 1391 1557 m20 6 lw
 gsave  2263 1770 2 313 C 1464.36 1447.41 t 0 r /Helvetica findfont 64.4212 sf 0 0 m (W+jets) show NC gr  0.4 0.6 1 c 3 lw 1338 1434 m 107 X 64 Y -107 X f 6 lw black 3 lw 1338 1498 m 107 X s 1338 1434 m 107 X s 1445 1434 m 64 Y s 1338 1434 m 64 Y s
 gsave  2263 1770 2 313 C 1498.25 1355.88 t 0 r /Helvetica findfont 64.4212 sf 0 0 m (\(+EW\) & single top) show NC gr 
 gsave  2263 1770 2 313 C 1481.3 1355.88 t 0 r /Helvetica findfont 64.4212 sf 0 0 m (t) show NC gr  1481 1407 m 17 X s
 gsave  2263 1770 2 313 C 1464.36 1355.88 t 0 r /Helvetica findfont 64.4212 sf 0 0 m (t) show NC gr  0.6 1 0.6 c 1338 1343 m 107 X 63 Y -107 X f black 1338 1406 m 107 X s 1338 1343 m 107 X s 1445 1343 m 63 Y s 1338 1343 m 63 Y s
 gsave  2263 1770 2 313 C 1464.36 1264.36 t 0 r /Helvetica findfont 64.4212 sf 0 0 m (Z+jets) show NC gr  1 0.8 0.4 c 1338 1252 m 107 X 63 Y -107 X f black 1338 1315 m 107 X s 1338 1252 m 107 X s 1445 1252 m 63 Y s 1338 1252 m 63 Y s
 gsave  2263 1770 2 313 C 1464.36 1172.84 t 0 r /Helvetica findfont 64.4212 sf 0 0 m (Diboson) show NC gr  1 0.4 0.6 c 1338 1161 m 107 X 63 Y -107 X f black 1338 1224 m 107 X s 1338 1161 m 107 X s 1445 1161 m 63 Y s 1338 1161 m 63 Y s
 gsave  2263 1770 2 313 C 1464.36 1081.32 t 0 r /Helvetica findfont 64.4212 sf 0 0 m (Multi\255jet) show NC gr  0 0 0.4 c 1338 1070 m 107 X 63 Y -107 X f black 1338 1133 m 107 X s 1338 1070 m 107 X s 1445 1070 m 63 Y s 1338 1070 m 63 Y s
 gsave  2263 1770 2 313 C 911.832 1566.05 t 0 r /Helvetica findfont 44.0776 sf 0 0 m (\2551) show NC gr 
 gsave  2263 1770 2 313 C 471.17 1535.54 t 0 r /Helvetica findfont 64.4212 sf 0 0 m (=13TeV, 139 fb) show NC gr 
 gsave  2263 1770 2 313 C 440.662 1535.54 t 0 r /Helvetica findfont 64.4212 sf 0 0 m (s) show NC gr  6 lw 420 1573 m 7 -41 d s 3 lw 427 1532 m 7 61 d s 434 1593 m 37 X s 1 1 1 c 2254 561 2 2 bf black 1 1 1 c black 1860 358 318 187 bl 1 1 1 c black
 1860 358 318 187 bl 6 lw 1 1 1 c black 3 lw 389 347 m20 6 lw 3 lw 533 343 m20 6 lw 3 lw 676 334 m20 6 lw 3 lw 819 351 m20 6 lw 3 lw 962 336 m20 6 lw 3 lw 1105 289 m20 6 lw 3 lw 1248 301 m20 6 lw 3 lw 1391 302 m20 6 lw 3 lw 1534 428 m20 6 lw 3 lw 318
 187 m 1860 X s
 gsave  2254 561 2 2 C 2105.01 64.4045 t 0 r /Helvetica findfont 50.9797 sf 0 0 m (1/2) show NC gr 
 gsave  2254 561 2 2 C 1888.07 23.728 t 0 r /Helvetica findfont 78.1689 sf 0 0 m ( [GeV]) show NC gr 
 gsave  2254 561 2 2 C 1857.56 3.38971 t 0 r /Helvetica findfont 50.9797 sf 0 0 m (T) show NC gr 
 gsave  2254 561 2 2 C 1806.72 23.728 t 0 r /Helvetica findfont 78.1689 sf 0 0 m (H) show NC gr  6 lw 1773 81 m 10 -78 d s 3 lw 1783 3 m 14 99 d s 1797 102 m 91 X s
 gsave  2254 561 2 2 C 1735.53 23.728 t 0 r /Helvetica findfont 78.1689 sf 0 0 m (/) show NC gr 
 gsave  2254 561 2 2 C 1630.45 61.0148 t 0 r /Helvetica findfont 50.9797 sf 0 0 m (miss) show NC gr 
 gsave  2254 561 2 2 C 1630.45 3.38971 t 0 r /Helvetica findfont 50.9797 sf 0 0 m (T) show NC gr 
 gsave  2254 561 2 2 C 1579.61 23.728 t 0 r /Helvetica findfont 78.1689 sf 0 0 m (E) show NC gr  318 201 m -14 Y s 389 194 m -7 Y s 461 194 m -7 Y s 533 194 m -7 Y s 604 194 m -7 Y s 676 201 m -14 Y s 747 194 m -7 Y s 819 194 m -7 Y s 890 194 m -7 Y
 s 962 194 m -7 Y s 1033 201 m -14 Y s 1105 194 m -7 Y s 1177 194 m -7 Y s 1248 194 m -7 Y s 1320 194 m -7 Y s 1391 201 m -14 Y s 1463 194 m -7 Y s 1534 194 m -7 Y s 1606 194 m -7 Y s 1677 194 m -7 Y s 1749 201 m -14 Y s 1821 194 m -7 Y s 1892 194 m
 -7 Y s 1964 194 m -7 Y s 2035 194 m -7 Y s 2107 201 m -14 Y s 2107 201 m -14 Y s 2178 194 m -7 Y s
 gsave  2254 561 2 2 C 271.177 118.64 t 0 r /Helvetica findfont 78.1689 sf 0 0 m (10) show NC gr 
 gsave  2254 561 2 2 C 630.486 118.64 t 0 r /Helvetica findfont 78.1689 sf 0 0 m (15) show NC gr 
 gsave  2254 561 2 2 C 986.406 118.64 t 0 r /Helvetica findfont 78.1689 sf 0 0 m (20) show NC gr 
 gsave  2254 561 2 2 C 1345.72 118.64 t 0 r /Helvetica findfont 78.1689 sf 0 0 m (25) show NC gr 
 gsave  2254 561 2 2 C 1701.63 118.64 t 0 r /Helvetica findfont 78.1689 sf 0 0 m (30) show NC gr 
 gsave  2254 561 2 2 C 2060.94 118.64 t 0 r /Helvetica findfont 78.1689 sf 0 0 m (35) show NC gr  318 545 m 1860 X s 318 531 m 14 Y s 389 538 m 7 Y s 461 538 m 7 Y s 533 538 m 7 Y s 604 538 m 7 Y s 676 531 m 14 Y s 747 538 m 7 Y s 819 538 m 7 Y s 890
 538 m 7 Y s 962 538 m 7 Y s 1033 531 m 14 Y s 1105 538 m 7 Y s 1177 538 m 7 Y s 1248 538 m 7 Y s 1320 538 m 7 Y s 1391 531 m 14 Y s 1463 538 m 7 Y s 1534 538 m 7 Y s 1606 538 m 7 Y s 1677 538 m 7 Y s 1749 531 m 14 Y s 1821 538 m 7 Y s 1892 538 m 7 Y
 s 1964 538 m 7 Y s 2035 538 m 7 Y s 2107 531 m 14 Y s 2107 531 m 14 Y s 2178 538 m 7 Y s 318 187 m 358 Y s
 gsave  2254 561 2 2 C 166.096 284.736 t 90 r /Helvetica findfont 67.9729 sf 0 0 m (Data/SM) show NC gr  361 203 m -43 X s 339 220 m -21 X s 339 236 m -21 X s 339 252 m -21 X s 339 268 m -21 X s 361 285 m -43 X s 339 301 m -21 X s 339 317 m -21 X s
 339 334 m -21 X s 339 350 m -21 X s 361 366 m -43 X s 339 382 m -21 X s 339 399 m -21 X s 339 415 m -21 X s 339 431 m -21 X s 361 447 m -43 X s 339 464 m -21 X s 339 480 m -21 X s 339 496 m -21 X s 339 512 m -21 X s 361 529 m -43 X s 361 203 m -43 X
 s 339 187 m -21 X s 361 529 m -43 X s
 gsave  2254 561 2 2 C 261.008 183.044 t 0 r /Helvetica findfont 57.777 sf 0 0 m (0) show NC gr 
 gsave  2254 561 2 2 C 213.552 261.008 t 0 r /Helvetica findfont 57.777 sf 0 0 m (0.5) show NC gr 
 gsave  2254 561 2 2 C 271.177 342.361 t 0 r /Helvetica findfont 57.777 sf 0 0 m (1) show NC gr 
 gsave  2254 561 2 2 C 213.552 423.714 t 0 r /Helvetica findfont 57.777 sf 0 0 m (1.5) show NC gr 
 gsave  2254 561 2 2 C 261.008 505.067 t 0 r /Helvetica findfont 57.777 sf 0 0 m (2) show NC gr  2178 187 m 358 Y s 2135 203 m 43 X s 2157 220 m 21 X s 2157 236 m 21 X s 2157 252 m 21 X s 2157 268 m 21 X s 2135 285 m 43 X s 2157 301 m 21 X s 2157 317
 m 21 X s 2157 334 m 21 X s 2157 350 m 21 X s 2135 366 m 43 X s 2157 382 m 21 X s 2157 399 m 21 X s 2157 415 m 21 X s 2157 431 m 21 X s 2135 447 m 43 X s 2157 464 m 21 X s 2157 480 m 21 X s 2157 496 m 21 X s 2157 512 m 21 X s 2135 529 m 43 X s 2135
 203 m 43 X s 2157 187 m 21 X s 2135 529 m 43 X s 9 lw 819 364 m 2 Y s 819 366 m cl s 819 337 m -2 Y s 819 335 m cl s 962 349 m 8 Y s 962 357 m cl s 962 322 m -8 Y s 962 314 m cl s 1105 303 m 14 Y s 1105 317 m cl s 1105 276 m -13 Y s 1105 263 m cl s
 1248 315 m 33 Y s 1248 348 m cl s 1248 288 m -29 Y s 1248 259 m cl s 1391 315 m 67 Y s 1391 382 m cl s 1391 288 m -50 Y s 1391 238 m cl s 1534 441 m 104 Y s 1534 545 m cl s 1534 414 m -131 Y s 1534 283 m cl s 3 lw 389 347 533 343 676 334 819 351 962
 336 1105 289 1248 301 1391 302 1534 428 9 { m20} R 9 lw 1 0 0 c 6 lw black 3 lw 1 0 0 c 2178 284 m -1 -2 d s 2178 312 m -30 -30 d s 2178 341 m -58 -59 d s 2178 369 m -87 -87 d s 2178 398 m -116 -116 d s 2178 427 m -143 -143 d s 2173 450 m -144 -144
 d s 2144 450 m -144 -144 d s 2115 450 m -143 -144 d s 2087 450 m -144 -144 d s 2058 450 m -23 -23 d s 2034 426 m -120 -120 d s 1892 284 m -12 -12 d s 2005 426 m -154 -154 d s 1977 426 m -154 -154 d s 1948 426 m -154 -154 d s 1919 426 m -154 -154 d s
 1892 427 m -143 -142 d s 1892 456 m -143 -143 d s 1867 460 m -131 -131 d s 1839 460 m -131 -131 d s 1810 460 m -131 -131 d s 1781 460 m -32 -32 d s 1724 403 m -74 -74 d s 1753 460 m -4 -4 d s 1695 403 m -73 -74 d s 1606 314 m -7 -7 d s 1667 403 m
 -97 -96 d s 1638 403 m -96 -96 d s 1609 403 m -96 -96 d s 1603 425 m -119 -118 d s 1575 425 m -112 -111 d s 1546 425 m -95 -94 d s 1517 425 m -95 -94 d s 1489 425 m -95 -94 d s 1436 401 m -71 -70 d s 1407 401 m -71 -70 d s 1320 314 m -3 -2 d s 1378
 401 m -89 -89 d s 1350 401 m -90 -89 d s 1321 401 m -90 -89 d s 1311 420 m -108 -108 d s 1282 420 m -105 -105 d s 1254 420 m -77 -77 d s 1225 420 m -70 -70 d s 1196 420 m -19 -20 d s 1158 382 m -32 -32 d s 1129 382 m -32 -32 d s 1101 382 m -32 -32 d
 s 1072 382 m -32 -32 d s 1043 382 m -32 -32 d s 1015 382 m -33 -32 d s 986 382 m -32 -32 d s 958 382 m -33 -32 d s 929 382 m -33 -32 d s 900 382 m -31 -31 d s 871 381 m -31 -30 d s 842 381 m -31 -30 d s 813 381 m -31 -30 d s 784 381 m -30 -30 d s
 756 381 m -23 -23 d s 719 374 m -15 -16 d s 691 374 m -16 -16 d s 662 374 m -15 -16 d s 633 374 m -15 -16 d s 605 374 m -15 -15 d s 576 373 m -15 -14 d s 547 373 m -15 -14 d s 518 373 m -14 -14 d s 490 373 m -15 -14 d s 461 373 m -16 -15 d s 318 231
 m s 433 374 m -17 -16 d s 318 259 m s 405 374 m -17 -16 d s 318 288 m s 376 374 m -17 -16 d s 318 317 m s 347 374 m -17 -16 d s 318 345 m s 318 374 m s 6 lw black[ 4 8] 0 sd 3 lw 318 447 m 1860 X s 318 285 m 1860 X s 1 0 0 c[  12 12 ] 0 sd 6 lw 318
 366 m 1860 X s
 gr  gr showpage
end
%%EOF
