%!PS-Adobe-2.0 EPSF-2.0
%%BoundingBox:  0 0 567 521
%%Title: Distributions/metsqrtmeffInc_met_distrCRY_MB-SSd_beforeFit_forThesis.eps: canvas
%%Creator: ROOT Version 6.04/16
%%CreationDate: Tue May 19 22:05:58 2020
%%DocumentNeededResources: ProcSet (FontSetInit)
%%EndComments
%%BeginProlog
80 dict begin
/s {stroke} def /l {lineto} def /m {moveto} def /t {translate} def
/r {rotate} def /rl {roll}  def /R {repeat} def
/d {rlineto} def /rm {rmoveto} def /gr {grestore} def /f {eofill} def
/c {setrgbcolor} def /black {0 setgray} def /sd {setdash} def
/cl {closepath} def /sf {scalefont setfont} def /lw {setlinewidth} def
/box {m dup 0 exch d exch 0 d 0 exch neg d cl} def
/NC{systemdict begin initclip end}def/C{NC box clip newpath}def
/bl {box s} def /bf {gsave box gsave f grestore 1 lw [] 0 sd s grestore} def /Y { 0 exch d} def /X { 0 d} def 
/K {{pop pop 0 moveto} exch kshow} bind def
/ita {/ang 15 def gsave [1 0 ang dup sin exch cos div 1 0 0] concat} def 
/mp {newpath /y exch def /x exch def} def
/side {[w .77 mul w .23 mul] .385 w mul sd w 0 l currentpoint t -144 r} def
/mr {mp x y w2 0 360 arc} def /m24 {mr s} def /m20 {mr f} def
/mb {mp x y w2 add m w2 neg 0 d 0 w neg d w 0 d 0 w d cl} def
/mt {mp x y w2 add m w2 neg w neg d w 0 d cl} def
/m21 {mb f} def /m25 {mb s} def /m22 {mt f} def /m26{mt s} def
/m23 {mp x y w2 sub m w2 w d w neg 0 d cl f} def
/m27 {mp x y w2 add m w3 neg w2 neg d w3 w2 neg d w3 w2 d cl s} def
/m28 {mp x w2 sub y w2 sub w3 add m w3 0 d  0 w3 neg d w3 0 d 0 w3 d w3 0 d  0 w3 d w3 neg 0 d 0 w3 d w3 neg 0 d 0 w3 neg d w3 neg 0 d cl s } def
/m29 {mp gsave x w2 sub y w2 add w3 sub m currentpoint t 4 {side} repeat cl fill gr} def
/m30 {mp gsave x w2 sub y w2 add w3 sub m currentpoint t 4 {side} repeat cl s gr} def
/m31 {mp x y w2 sub m 0 w d x w2 sub y m w 0 d x w2 sub y w2 add m w w neg d x w2 sub y w2 sub m w w d s} def
/m32 {mp x y w2 sub m w2 w d w neg 0 d cl s} def
/m33 {mp x y w2 add m w3 neg w2 neg d w3 w2 neg d w3 w2 d cl f} def
/m34 {mp x w2 sub y w2 sub w3 add m w3 0 d  0 w3 neg d w3 0 d 0 w3 d w3 0 d  0 w3 d w3 neg 0 d 0 w3 d w3 neg 0 d 0 w3 neg d w3 neg 0 d cl f } def
/m2 {mp x y w2 sub m 0 w d x w2 sub y m w 0 d s} def
/m5 {mp x w2 sub y w2 sub m w w d x w2 sub y w2 add m w w neg d s} def
%%IncludeResource: ProcSet (FontSetInit)
%%IncludeResource: font Times-Roman
%%IncludeResource: font Times-Italic
%%IncludeResource: font Times-Bold
%%IncludeResource: font Times-BoldItalic
%%IncludeResource: font Helvetica
%%IncludeResource: font Helvetica-Oblique
%%IncludeResource: font Helvetica-Bold
%%IncludeResource: font Helvetica-BoldOblique
%%IncludeResource: font Courier
%%IncludeResource: font Courier-Oblique
%%IncludeResource: font Courier-Bold
%%IncludeResource: font Courier-BoldOblique
%%IncludeResource: font Symbol
%%IncludeResource: font ZapfDingbats
/reEncode {exch findfont dup length dict begin {1 index /FID eq  {pop pop} {def} ifelse } forall /Encoding exch def currentdict end dup /FontName get exch definefont pop } def [/Times-Bold /Times-Italic /Times-BoldItalic /Helvetica /Helvetica-Oblique
 /Helvetica-Bold /Helvetica-BoldOblique /Courier /Courier-Oblique /Courier-Bold /Courier-BoldOblique /Times-Roman /AvantGarde-Book /AvantGarde-BookOblique /AvantGarde-Demi /AvantGarde-DemiOblique /Bookman-Demi /Bookman-DemiItalic /Bookman-Light
 /Bookman-LightItalic /Helvetica-Narrow /Helvetica-Narrow-Bold /Helvetica-Narrow-BoldOblique /Helvetica-Narrow-Oblique /NewCenturySchlbk-Roman /NewCenturySchlbk-Bold /NewCenturySchlbk-BoldItalic /NewCenturySchlbk-Italic /Palatino-Bold
 /Palatino-BoldItalic /Palatino-Italic /Palatino-Roman ] {ISOLatin1Encoding reEncode } forall
%%EndProlog
%%BeginSetup
%%EndSetup
newpath  gsave  .25 .25 scale  gsave  0 0 t black[  ] 0 sd 3 lw 1 1 1 c 2268 2085 0 0 bf black 1 1 1 c 2263 1770 2 313 bf black 1 1 1 c black 1860 1145 319 584 bl 1 1 1 c black 1860 1145 319 584 bl 6 lw 1 1 1 c black 3 lw /w 33 def /w2 {w 2 div} def
 /w3 {w 3 div} def 366 1259 m20 6 lw 3 lw 459 1258 m20 6 lw 3 lw 552 1244 m20 6 lw 3 lw 645 1230 m20 6 lw 3 lw 738 1218 m20 6 lw 3 lw 831 1207 m20 6 lw 3 lw 924 1191 m20 6 lw 3 lw 1017 1170 m20 6 lw 3 lw 1110 1138 m20 6 lw 3 lw 1203 1106 m20 6 lw 3
 lw 1296 1069 m20 6 lw 3 lw 1389 1015 m20 6 lw 3 lw 1482 967 m20 6 lw 3 lw 1575 916 m20 6 lw 1668 869 m 3 Y s 3 lw 1668 885 m20 6 lw 1761 793 m 18 Y s 1761 838 m 6 Y s 3 lw 1761 824 m20 6 lw 1854 688 m 58 Y s 1854 773 m 18 Y s 3 lw 1854 760 m20 6 lw
 1947 584 m 122 Y s 1947 733 m 27 Y s 3 lw 1947 719 m20 6 lw 2040 688 m 58 Y s 2040 773 m 18 Y s 3 lw 2040 760 m20 6 lw 2133 584 m 122 Y s 2133 733 m 27 Y s 3 lw 2133 719 m20 6 lw 3 lw 319 584 m 1860 X s
 gsave  2263 1770 2 313 C 2101.62 396.596 t 0 r /Helvetica findfont 54.2494 sf 0 0 m (1/2) show NC gr 
 gsave  2263 1770 2 313 C 1874.51 355.92 t 0 r /Helvetica findfont 81.3741 sf 0 0 m ( [GeV]) show NC gr 
 gsave  2263 1770 2 313 C 1840.61 332.192 t 0 r /Helvetica findfont 54.2494 sf 0 0 m (T) show NC gr 
 gsave  2263 1770 2 313 C 1786.38 355.92 t 0 r /Helvetica findfont 81.3741 sf 0 0 m (H) show NC gr  6 lw 1749 417 m 14 -85 d s 3 lw 1763 332 m 13 105 d s 1776 437 m 99 X s
 gsave  2263 1770 2 313 C 1711.8 355.92 t 0 r /Helvetica findfont 81.3741 sf 0 0 m (/) show NC gr 
 gsave  2263 1770 2 313 C 1599.94 396.596 t 0 r /Helvetica findfont 54.2494 sf 0 0 m (miss) show NC gr 
 gsave  2263 1770 2 313 C 1599.94 332.192 t 0 r /Helvetica findfont 54.2494 sf 0 0 m (T) show NC gr 
 gsave  2263 1770 2 313 C 1549.1 355.92 t 0 r /Helvetica findfont 81.3741 sf 0 0 m (E) show NC gr  319 584 m cl s 366 584 m cl s 412 584 m cl s 459 584 m cl s 505 584 m cl s 552 584 m cl s 598 584 m cl s 645 584 m cl s 691 584 m cl s 738 584 m cl s
 784 584 m cl s 831 584 m cl s 877 584 m cl s 924 584 m cl s 970 584 m cl s 1017 584 m cl s 1063 584 m cl s 1110 584 m cl s 1156 584 m cl s 1203 584 m cl s 1249 584 m cl s 1296 584 m cl s 1342 584 m cl s 1389 584 m cl s 1435 584 m cl s 1482 584 m cl
 s 1528 584 m cl s 1575 584 m cl s 1621 584 m cl s 1668 584 m cl s 1714 584 m cl s 1761 584 m cl s 1807 584 m cl s 1854 584 m cl s 1900 584 m cl s 1947 584 m cl s 1993 584 m cl s 2040 584 m cl s 2086 584 m cl s 2133 584 m cl s 2179 584 m cl s 319
 1729 m 1860 X s 319 1729 m cl s 366 1729 m cl s 412 1729 m cl s 459 1729 m cl s 505 1729 m cl s 552 1729 m cl s 598 1729 m cl s 645 1729 m cl s 691 1729 m cl s 738 1729 m cl s 784 1729 m cl s 831 1729 m cl s 877 1729 m cl s 924 1729 m cl s 970 1729
 m cl s 1017 1729 m cl s 1063 1729 m cl s 1110 1729 m cl s 1156 1729 m cl s 1203 1729 m cl s 1249 1729 m cl s 1296 1729 m cl s 1342 1729 m cl s 1389 1729 m cl s 1435 1729 m cl s 1482 1729 m cl s 1528 1729 m cl s 1575 1729 m cl s 1621 1729 m cl s 1668
 1729 m cl s 1714 1729 m cl s 1761 1729 m cl s 1807 1729 m cl s 1854 1729 m cl s 1900 1729 m cl s 1947 1729 m cl s 1993 1729 m cl s 2040 1729 m cl s 2086 1729 m cl s 2133 1729 m cl s 2179 1729 m cl s 319 584 m 1145 Y s
 gsave  2263 1770 2 313 C 125.419 1654.18 t 90 r /Helvetica findfont 54.2494 sf 0 0 m (1/2) show NC gr 
 gsave  2263 1770 2 313 C 166.096 1064.37 t 90 r /Helvetica findfont 81.3741 sf 0 0 m (Events / 2 [GeV]) show NC gr  341 625 m -22 X s 341 649 m -22 X s 341 666 m -22 X s 341 679 m -22 X s 341 689 m -22 X s 341 698 m -22 X s 341 706 m -22 X s 341 713
 m -22 X s 363 719 m -44 X s
 gsave  2263 1770 2 313 C 300.555 692.092 t 0 r  -36 0 t /Helvetica findfont 64.4212 sf 0 0 m (1) show NC gr  341 760 m -22 X s 341 784 m -22 X s 341 800 m -22 X s 341 814 m -22 X s 341 824 m -22 X s 341 833 m -22 X s 341 841 m -22 X s 341 848 m -22
 X s 363 854 m -44 X s
 gsave  2263 1770 2 313 C 300.555 826.991 t 0 r  -73 0 t /Helvetica findfont 64.4212 sf 0 0 m (10) show NC gr  341 895 m -22 X s 341 918 m -22 X s 341 935 m -22 X s 341 948 m -22 X s 341 959 m -22 X s 341 968 m -22 X s 341 976 m -22 X s 341 983 m -22
 X s 363 989 m -44 X s
 gsave  2263 1770 2 313 C 274.567 986.406 t 0 r /Helvetica findfont 44.0776 sf 0 0 m (2) show NC gr 
 gsave  2263 1770 2 313 C 203.383 959.288 t 0 r /Helvetica findfont 64.4212 sf 0 0 m (10) show NC gr  341 1030 m -22 X s 341 1053 m -22 X s 341 1070 m -22 X s 341 1083 m -22 X s 341 1094 m -22 X s 341 1103 m -22 X s 341 1111 m -22 X s 341 1118 m -22
 X s 363 1124 m -44 X s
 gsave  2263 1770 2 313 C 274.567 1125.38 t 0 r /Helvetica findfont 44.0776 sf 0 0 m (3) show NC gr 
 gsave  2263 1770 2 313 C 203.383 1094.88 t 0 r /Helvetica findfont 64.4212 sf 0 0 m (10) show NC gr  341 1165 m -22 X s 341 1188 m -22 X s 341 1205 m -22 X s 341 1218 m -22 X s 341 1229 m -22 X s 341 1238 m -22 X s 341 1246 m -22 X s 341 1253 m -22
 X s 363 1259 m -44 X s
 gsave  2263 1770 2 313 C 274.567 1257.58 t 0 r /Helvetica findfont 44.0776 sf 0 0 m (4) show NC gr 
 gsave  2263 1770 2 313 C 203.383 1230.47 t 0 r /Helvetica findfont 64.4212 sf 0 0 m (10) show NC gr  341 1299 m -22 X s 341 1323 m -22 X s 341 1340 m -22 X s 341 1353 m -22 X s 341 1364 m -22 X s 341 1373 m -22 X s 341 1381 m -22 X s 341 1388 m -22
 X s 363 1394 m -44 X s
 gsave  2263 1770 2 313 C 274.567 1396.56 t 0 r /Helvetica findfont 44.0776 sf 0 0 m (5) show NC gr 
 gsave  2263 1770 2 313 C 203.383 1366.05 t 0 r /Helvetica findfont 64.4212 sf 0 0 m (10) show NC gr  341 1434 m -22 X s 341 1458 m -22 X s 341 1475 m -22 X s 341 1488 m -22 X s 341 1499 m -22 X s 341 1508 m -22 X s 341 1516 m -22 X s 341 1522 m -22
 X s 363 1529 m -44 X s
 gsave  2263 1770 2 313 C 274.567 1528.76 t 0 r /Helvetica findfont 44.0776 sf 0 0 m (6) show NC gr 
 gsave  2263 1770 2 313 C 203.383 1498.25 t 0 r /Helvetica findfont 64.4212 sf 0 0 m (10) show NC gr  341 1569 m -22 X s 341 1593 m -22 X s 341 1610 m -22 X s 341 1623 m -22 X s 341 1634 m -22 X s 341 1643 m -22 X s 341 1650 m -22 X s 341 1657 m -22
 X s 363 1664 m -44 X s
 gsave  2263 1770 2 313 C 274.567 1660.96 t 0 r /Helvetica findfont 44.0776 sf 0 0 m (7) show NC gr 
 gsave  2263 1770 2 313 C 203.383 1633.84 t 0 r /Helvetica findfont 64.4212 sf 0 0 m (10) show NC gr  341 1704 m -22 X s 341 1728 m -22 X s 2179 584 m 1145 Y s 2157 625 m 22 X s 2157 649 m 22 X s 2157 666 m 22 X s 2157 679 m 22 X s 2157 689 m 22 X s
 2157 698 m 22 X s 2157 706 m 22 X s 2157 713 m 22 X s 2136 719 m 43 X s 2157 760 m 22 X s 2157 784 m 22 X s 2157 800 m 22 X s 2157 814 m 22 X s 2157 824 m 22 X s 2157 833 m 22 X s 2157 841 m 22 X s 2157 848 m 22 X s 2136 854 m 43 X s 2157 895 m 22 X
 s 2157 918 m 22 X s 2157 935 m 22 X s 2157 948 m 22 X s 2157 959 m 22 X s 2157 968 m 22 X s 2157 976 m 22 X s 2157 983 m 22 X s 2136 989 m 43 X s 2157 1030 m 22 X s 2157 1053 m 22 X s 2157 1070 m 22 X s 2157 1083 m 22 X s 2157 1094 m 22 X s 2157
 1103 m 22 X s 2157 1111 m 22 X s 2157 1118 m 22 X s 2136 1124 m 43 X s 2157 1165 m 22 X s 2157 1188 m 22 X s 2157 1205 m 22 X s 2157 1218 m 22 X s 2157 1229 m 22 X s 2157 1238 m 22 X s 2157 1246 m 22 X s 2157 1253 m 22 X s 2136 1259 m 43 X s 2157
 1299 m 22 X s 2157 1323 m 22 X s 2157 1340 m 22 X s 2157 1353 m 22 X s 2157 1364 m 22 X s 2157 1373 m 22 X s 2157 1381 m 22 X s 2157 1388 m 22 X s 2136 1394 m 43 X s 2157 1434 m 22 X s 2157 1458 m 22 X s 2157 1475 m 22 X s 2157 1488 m 22 X s 2157
 1499 m 22 X s 2157 1508 m 22 X s 2157 1516 m 22 X s 2157 1522 m 22 X s 2136 1529 m 43 X s 2157 1569 m 22 X s 2157 1593 m 22 X s 2157 1610 m 22 X s 2157 1623 m 22 X s 2157 1634 m 22 X s 2157 1643 m 22 X s 2157 1650 m 22 X s 2157 1657 m 22 X s 2136
 1664 m 43 X s 2157 1704 m 22 X s 2157 1728 m 22 X s 1 1 0 c black 1 1 0 c 319 584 m 676 Y 93 X -1 Y 93 X -15 Y 93 X -13 Y 93 X -12 Y 93 X -15 Y 93 X -15 Y 93 X -22 Y 93 X -30 Y 93 X -36 Y 93 X -42 Y 93 X -33 Y 93 X -49 Y 93 X -44 Y 93 X -46 Y 93 X
 -47 Y 93 X -51 Y 93 X -33 Y 93 X -63 Y 93 X 2 Y 93 X -111 Y f black 1 1 0 c black 319 1260 m 93 X -1 Y 93 X -15 Y 93 X -13 Y 93 X -12 Y 93 X -15 Y 93 X -15 Y 93 X -22 Y 93 X -30 Y 93 X -36 Y 93 X -42 Y 93 X -33 Y 93 X -49 Y 93 X -44 Y 93 X -46 Y 93
 X -47 Y 93 X -51 Y 93 X -33 Y 93 X -63 Y 93 X 2 Y 93 X s 0.999 0.999 0.999 c black 0.999 0.999 0.999 c 319 584 m 378 Y 93 X 8 Y 93 X -7 Y 93 X -1 Y 93 X -14 Y 93 X -14 Y 93 X -24 Y 93 X -33 Y 93 X -30 Y 93 X -28 Y 93 X -46 Y 93 X -36 Y 93 X -97 Y 93
 X 61 Y 93 X -82 Y 93 X -21 Y 93 X -14 Y 372 X f black 0.999 0.999 0.999 c black 319 962 m 93 X 8 Y 93 X -7 Y 93 X -1 Y 93 X -14 Y 93 X -14 Y 93 X -24 Y 93 X -33 Y 93 X -30 Y 93 X -28 Y 93 X -46 Y 93 X -36 Y 93 X -97 Y 93 X 61 Y 93 X -82 Y 93 X -21 Y
 93 X -14 Y 372 X s 1 1 1 c black 319 962 m 93 X 8 Y 93 X -7 Y 93 X -1 Y 93 X -14 Y 93 X -14 Y 93 X -24 Y 93 X -33 Y 93 X -30 Y 93 X -28 Y 93 X -46 Y 93 X -36 Y 93 X -97 Y 93 X 61 Y 93 X -82 Y 93 X -21 Y 93 X -14 Y 372 X s 0.4 0.6 1 c black 0.4 0.6 1
 c 319 584 m 378 Y 93 X 8 Y 93 X -7 Y 93 X -1 Y 93 X -14 Y 93 X -14 Y 93 X -24 Y 93 X -33 Y 93 X -30 Y 93 X -28 Y 93 X -46 Y 93 X -36 Y 93 X -97 Y 93 X 61 Y 93 X -82 Y 93 X -21 Y 93 X -14 Y 372 X f black 0.4 0.6 1 c black 319 962 m 93 X 8 Y 93 X -7 Y
 93 X -1 Y 93 X -14 Y 93 X -14 Y 93 X -24 Y 93 X -33 Y 93 X -30 Y 93 X -28 Y 93 X -46 Y 93 X -36 Y 93 X -97 Y 93 X 61 Y 93 X -82 Y 93 X -21 Y 93 X -14 Y 372 X s 0.999 0.999 0.999 c black 0.999 0.999 0.999 c 319 584 m 351 Y 93 X 10 Y 93 X -8 Y 93 X 2
 Y 93 X -11 Y 93 X -22 Y 93 X -35 Y 93 X -32 Y 93 X -30 Y 93 X -24 Y 93 X -50 Y 93 X -39 Y 93 X -112 Y 93 X 115 Y 93 X -115 Y 93 X 14 Y 93 X -14 Y 372 X f black 0.999 0.999 0.999 c black 319 935 m 93 X 10 Y 93 X -8 Y 93 X 2 Y 93 X -11 Y 93 X -22 Y 93
 X -35 Y 93 X -32 Y 93 X -30 Y 93 X -24 Y 93 X -50 Y 93 X -39 Y 93 X -112 Y 93 X 115 Y 93 X -115 Y 93 X 14 Y 93 X -14 Y 372 X s 1 1 1 c black 319 935 m 93 X 10 Y 93 X -8 Y 93 X 2 Y 93 X -11 Y 93 X -22 Y 93 X -35 Y 93 X -32 Y 93 X -30 Y 93 X -24 Y 93
 X -50 Y 93 X -39 Y 93 X -112 Y 93 X 115 Y 93 X -115 Y 93 X 14 Y 93 X -14 Y 372 X s 0.6 1 0.6 c black 0.6 1 0.6 c 319 584 m 351 Y 93 X 10 Y 93 X -8 Y 93 X 2 Y 93 X -11 Y 93 X -22 Y 93 X -35 Y 93 X -32 Y 93 X -30 Y 93 X -24 Y 93 X -50 Y 93 X -39 Y 93
 X -112 Y 93 X 115 Y 93 X -115 Y 93 X 14 Y 93 X -14 Y 372 X f black 0.6 1 0.6 c black 319 935 m 93 X 10 Y 93 X -8 Y 93 X 2 Y 93 X -11 Y 93 X -22 Y 93 X -35 Y 93 X -32 Y 93 X -30 Y 93 X -24 Y 93 X -50 Y 93 X -39 Y 93 X -112 Y 93 X 115 Y 93 X -115 Y 93
 X 14 Y 93 X -14 Y 372 X s 0.999 0.999 0.999 c black 0.999 0.999 0.999 c 319 584 m 204 Y 93 X 1 Y 93 X -7 Y 93 X 16 Y 93 X -6 Y 93 X -29 Y 93 X -1 Y 93 X -32 Y 93 X -17 Y 93 X -63 Y 93 X 31 Y 93 X -97 Y 372 X 14 Y 93 X -14 Y 372 X f black 0.999 0.999
 0.999 c black 319 788 m 93 X 1 Y 93 X -7 Y 93 X 16 Y 93 X -6 Y 93 X -29 Y 93 X -1 Y 93 X -32 Y 93 X -17 Y 93 X -63 Y 93 X 31 Y 93 X -97 Y 372 X 14 Y 93 X -14 Y 372 X s 1 1 1 c black 319 788 m 93 X 1 Y 93 X -7 Y 93 X 16 Y 93 X -6 Y 93 X -29 Y 93 X -1
 Y 93 X -32 Y 93 X -17 Y 93 X -63 Y 93 X 31 Y 93 X -97 Y 372 X 14 Y 93 X -14 Y 372 X s 1 0.4 0.6 c black 1 0.4 0.6 c 319 584 m 204 Y 93 X 1 Y 93 X -7 Y 93 X 16 Y 93 X -6 Y 93 X -29 Y 93 X -1 Y 93 X -32 Y 93 X -17 Y 93 X -63 Y 93 X 31 Y 93 X -97 Y 372
 X 14 Y 93 X -14 Y 372 X f black 1 0.4 0.6 c black 319 788 m 93 X 1 Y 93 X -7 Y 93 X 16 Y 93 X -6 Y 93 X -29 Y 93 X -1 Y 93 X -32 Y 93 X -17 Y 93 X -63 Y 93 X 31 Y 93 X -97 Y 372 X 14 Y 93 X -14 Y 372 X s 1 0 0 c 6 lw 1 1 1 c black 1 0 0 c 319 1260 m
 93 X -1 Y 93 X -15 Y 93 X -13 Y 93 X -12 Y 93 X -15 Y 93 X -15 Y 93 X -22 Y 93 X -29 Y 93 X -37 Y 93 X -42 Y 93 X -33 Y 93 X -49 Y 93 X -44 Y 93 X -46 Y 93 X -47 Y 93 X -51 Y 93 X -33 Y 93 X -63 Y 93 X 2 Y 93 X s black 3 lw 1 0 0 c 1 lw <<
 /PatternType 1 /PaintType 2 /TilingType 1 /BBox [ 0 0 100 100 ] /XStep 100 /YStep 100 /PaintProc { begin gsave 0 100 m 100 0 l s gr end } >> [ 0.24 0 0 0.24 0 0 ] makepattern /P05 exch def /cs {[/Pattern /DeviceRGB] setcolorspace} def /FA {f
 [/DeviceRGB] setcolorspace} def cs 1 0 0 P05 setcolor 319 584 m 678 Y 93 X -1 Y 93 X -15 Y 93 X -13 Y 93 X -12 Y 93 X -14 Y 93 X -16 Y 93 X -23 Y 93 X -29 Y 93 X -36 Y 93 X -42 Y 93 X -28 Y 93 X -53 Y 93 X -45 Y 93 X -45 Y 93 X -47 Y 93 X -49 Y 93 X
 -29 Y 93 X -65 Y 93 X 3 Y 93 X -17 Y -93 X -2 Y -93 X 61 Y -93 X 40 Y -93 X 51 Y -93 X 48 Y -93 X 46 Y -93 X 45 Y -93 X 43 Y -93 X 39 Y -93 X 42 Y -93 X 37 Y -93 X 29 Y -93 X 22 Y -93 X 15 Y -93 X 14 Y -93 X 12 Y -93 X 14 Y -93 X 15 Y -93 X 1 Y -93
 X -674 Y FA 6 lw 1 1 1 c 15 lw 1761 845 m s 1761 845 m cl s 1761 804 m -9 Y s 1761 795 m cl s 1854 780 m 15 Y s 1854 795 m cl s 1854 739 m -40 Y s 1854 699 m cl s 1947 740 m 28 Y s 1947 768 m cl s 1947 699 m -82 Y s 1947 617 m cl s 2040 780 m 15 Y s
 2040 795 m cl s 2040 739 m -40 Y s 2040 699 m cl s 2133 740 m 28 Y s 2133 768 m cl s 2133 699 m -82 Y s 2133 617 m cl s black 1 1 1 c 3 lw /w 43 def /w2 {w 2 div} def /w3 {w 3 div} def 366 1259 459 1258 552 1244 645 1230 738 1218 831 1207 924 1191
 1017 1170 1110 1138 1203 1106 1296 1069 1389 1015 1482 967 1575 916 1668 885 1761 824 1854 760 1947 719 2040 760 2133 719 20 { m20} R 15 lw black 6 lw 1 1 1 c black 3 lw /w 33 def /w2 {w 2 div} def /w3 {w 3 div} def 366 1259 m20 6 lw 3 lw 459 1258
 m20 6 lw 3 lw 552 1244 m20 6 lw 3 lw 645 1230 m20 6 lw 3 lw 738 1218 m20 6 lw 3 lw 831 1207 m20 6 lw 3 lw 924 1191 m20 6 lw 3 lw 1017 1170 m20 6 lw 3 lw 1110 1138 m20 6 lw 3 lw 1203 1106 m20 6 lw 3 lw 1296 1069 m20 6 lw 3 lw 1389 1015 m20 6 lw 3 lw
 1482 967 m20 6 lw 3 lw 1575 916 m20 6 lw 1668 869 m 3 Y s 3 lw 1668 885 m20 6 lw 1761 793 m 18 Y s 1761 838 m 6 Y s 3 lw 1761 824 m20 6 lw 1854 688 m 58 Y s 1854 773 m 18 Y s 3 lw 1854 760 m20 6 lw 1947 584 m 122 Y s 1947 733 m 27 Y s 3 lw 1947 719
 m20 6 lw 2040 688 m 58 Y s 2040 773 m 18 Y s 3 lw 2040 760 m20 6 lw 2133 584 m 122 Y s 2133 733 m 27 Y s 3 lw 2133 719 m20 6 lw 1668 872 m -3 Y s 1668 869 m cl s 1761 838 m 7 Y s 1761 845 m cl s 1761 811 m -16 Y s 1761 795 m cl s 1854 773 m 22 Y s
 1854 795 m cl s 1854 746 m -47 Y s 1854 699 m cl s 1947 733 m 35 Y s 1947 768 m cl s 1947 706 m -89 Y s 1947 617 m cl s 2040 773 m 22 Y s 2040 795 m cl s 2040 746 m -47 Y s 2040 699 m cl s 2133 733 m 35 Y s 2133 768 m cl s 2133 706 m -89 Y s 2133
 617 m cl s 3 lw 366 1259 459 1258 552 1244 645 1230 738 1218 831 1207 924 1191 1017 1170 1110 1138 1203 1106 1296 1069 1389 1015 1482 967 1575 916 1668 885 1761 824 1854 760 1947 719 2040 760 2133 719 20 { m20} R 6 lw 3 lw 319 584 m 1860 X s 319 584
 m cl s 366 584 m cl s 412 584 m cl s 459 584 m cl s 505 584 m cl s 552 584 m cl s 598 584 m cl s 645 584 m cl s 691 584 m cl s 738 584 m cl s 784 584 m cl s 831 584 m cl s 877 584 m cl s 924 584 m cl s 970 584 m cl s 1017 584 m cl s 1063 584 m cl s
 1110 584 m cl s 1156 584 m cl s 1203 584 m cl s 1249 584 m cl s 1296 584 m cl s 1342 584 m cl s 1389 584 m cl s 1435 584 m cl s 1482 584 m cl s 1528 584 m cl s 1575 584 m cl s 1621 584 m cl s 1668 584 m cl s 1714 584 m cl s 1761 584 m cl s 1807 584
 m cl s 1854 584 m cl s 1900 584 m cl s 1947 584 m cl s 1993 584 m cl s 2040 584 m cl s 2086 584 m cl s 2133 584 m cl s 2179 584 m cl s 319 1729 m 1860 X s 319 1729 m cl s 366 1729 m cl s 412 1729 m cl s 459 1729 m cl s 505 1729 m cl s 552 1729 m cl
 s 598 1729 m cl s 645 1729 m cl s 691 1729 m cl s 738 1729 m cl s 784 1729 m cl s 831 1729 m cl s 877 1729 m cl s 924 1729 m cl s 970 1729 m cl s 1017 1729 m cl s 1063 1729 m cl s 1110 1729 m cl s 1156 1729 m cl s 1203 1729 m cl s 1249 1729 m cl s
 1296 1729 m cl s 1342 1729 m cl s 1389 1729 m cl s 1435 1729 m cl s 1482 1729 m cl s 1528 1729 m cl s 1575 1729 m cl s 1621 1729 m cl s 1668 1729 m cl s 1714 1729 m cl s 1761 1729 m cl s 1807 1729 m cl s 1854 1729 m cl s 1900 1729 m cl s 1947 1729 m
 cl s 1993 1729 m cl s 2040 1729 m cl s 2086 1729 m cl s 2133 1729 m cl s 2179 1729 m cl s 319 584 m 1145 Y s 341 625 m -22 X s 341 649 m -22 X s 341 666 m -22 X s 341 679 m -22 X s 341 689 m -22 X s 341 698 m -22 X s 341 706 m -22 X s 341 713 m -22
 X s 363 719 m -44 X s 341 760 m -22 X s 341 784 m -22 X s 341 800 m -22 X s 341 814 m -22 X s 341 824 m -22 X s 341 833 m -22 X s 341 841 m -22 X s 341 848 m -22 X s 363 854 m -44 X s 341 895 m -22 X s 341 918 m -22 X s 341 935 m -22 X s 341 948 m
 -22 X s 341 959 m -22 X s 341 968 m -22 X s 341 976 m -22 X s 341 983 m -22 X s 363 989 m -44 X s 341 1030 m -22 X s 341 1053 m -22 X s 341 1070 m -22 X s 341 1083 m -22 X s 341 1094 m -22 X s 341 1103 m -22 X s 341 1111 m -22 X s 341 1118 m -22 X s
 363 1124 m -44 X s 341 1165 m -22 X s 341 1188 m -22 X s 341 1205 m -22 X s 341 1218 m -22 X s 341 1229 m -22 X s 341 1238 m -22 X s 341 1246 m -22 X s 341 1253 m -22 X s 363 1259 m -44 X s 341 1299 m -22 X s 341 1323 m -22 X s 341 1340 m -22 X s
 341 1353 m -22 X s 341 1364 m -22 X s 341 1373 m -22 X s 341 1381 m -22 X s 341 1388 m -22 X s 363 1394 m -44 X s 341 1434 m -22 X s 341 1458 m -22 X s 341 1475 m -22 X s 341 1488 m -22 X s 341 1499 m -22 X s 341 1508 m -22 X s 341 1516 m -22 X s
 341 1522 m -22 X s 363 1529 m -44 X s 341 1569 m -22 X s 341 1593 m -22 X s 341 1610 m -22 X s 341 1623 m -22 X s 341 1634 m -22 X s 341 1643 m -22 X s 341 1650 m -22 X s 341 1657 m -22 X s 363 1664 m -44 X s 341 1704 m -22 X s 341 1728 m -22 X s
 2179 584 m 1145 Y s 2157 625 m 22 X s 2157 649 m 22 X s 2157 666 m 22 X s 2157 679 m 22 X s 2157 689 m 22 X s 2157 698 m 22 X s 2157 706 m 22 X s 2157 713 m 22 X s 2136 719 m 43 X s 2157 760 m 22 X s 2157 784 m 22 X s 2157 800 m 22 X s 2157 814 m 22
 X s 2157 824 m 22 X s 2157 833 m 22 X s 2157 841 m 22 X s 2157 848 m 22 X s 2136 854 m 43 X s 2157 895 m 22 X s 2157 918 m 22 X s 2157 935 m 22 X s 2157 948 m 22 X s 2157 959 m 22 X s 2157 968 m 22 X s 2157 976 m 22 X s 2157 983 m 22 X s 2136 989 m
 43 X s 2157 1030 m 22 X s 2157 1053 m 22 X s 2157 1070 m 22 X s 2157 1083 m 22 X s 2157 1094 m 22 X s 2157 1103 m 22 X s 2157 1111 m 22 X s 2157 1118 m 22 X s 2136 1124 m 43 X s 2157 1165 m 22 X s 2157 1188 m 22 X s 2157 1205 m 22 X s 2157 1218 m 22
 X s 2157 1229 m 22 X s 2157 1238 m 22 X s 2157 1246 m 22 X s 2157 1253 m 22 X s 2136 1259 m 43 X s 2157 1299 m 22 X s 2157 1323 m 22 X s 2157 1340 m 22 X s 2157 1353 m 22 X s 2157 1364 m 22 X s 2157 1373 m 22 X s 2157 1381 m 22 X s 2157 1388 m 22 X
 s 2136 1394 m 43 X s 2157 1434 m 22 X s 2157 1458 m 22 X s 2157 1475 m 22 X s 2157 1488 m 22 X s 2157 1499 m 22 X s 2157 1508 m 22 X s 2157 1516 m 22 X s 2157 1522 m 22 X s 2136 1529 m 43 X s 2157 1569 m 22 X s 2157 1593 m 22 X s 2157 1610 m 22 X s
 2157 1623 m 22 X s 2157 1634 m 22 X s 2157 1643 m 22 X s 2157 1650 m 22 X s 2157 1657 m 22 X s 2136 1664 m 43 X s 2157 1704 m 22 X s 2157 1728 m 22 X s
 gsave  2263 1770 2 313 C 406.765 1447.41 t 0 r /Helvetica findfont 64.4212 sf 0 0 m (CRY for MB\255SSd) show NC gr 
 gsave  2263 1770 2 313 C 1464.36 1616.89 t 0 r /Helvetica findfont 64.4212 sf 0 0 m (SM Total) show NC gr  1 1 1 c 1338 1603 m 107 X 74 Y -107 X f 1 0 0 c 6 lw 1338 1640 m 107 X s black
 gsave  2263 1770 2 313 C 1464.36 1511.81 t 0 r /Helvetica findfont 64.4212 sf 0 0 m (Data) show NC gr  1391 1502 m 64 Y s 3 lw 1391 1534 m20 6 lw
 gsave  2263 1770 2 313 C 1464.36 1406.73 t 0 r /Helvetica findfont 64.4212 sf 0 0 m (GAMMAjets) show NC gr  1 1 0 c 3 lw 1338 1391 m 107 X 74 Y -107 X f 6 lw black 3 lw 1338 1465 m 107 X s 1338 1391 m 107 X s 1445 1391 m 74 Y s 1338 1391 m 74 Y s
 gsave  2263 1770 2 313 C 1464.36 1298.26 t 0 r /Helvetica findfont 64.4212 sf 0 0 m (W+jets) show NC gr  0.4 0.6 1 c 1338 1284 m 107 X 75 Y -107 X f black 1338 1359 m 107 X s 1338 1284 m 107 X s 1445 1284 m 75 Y s 1338 1284 m 75 Y s
 gsave  2263 1770 2 313 C 1498.25 1193.18 t 0 r /Helvetica findfont 64.4212 sf 0 0 m (\(+EW\) & single top) show NC gr 
 gsave  2263 1770 2 313 C 1481.3 1193.18 t 0 r /Helvetica findfont 64.4212 sf 0 0 m (t) show NC gr  1481 1244 m 17 X s
 gsave  2263 1770 2 313 C 1464.36 1193.18 t 0 r /Helvetica findfont 64.4212 sf 0 0 m (t) show NC gr  0.6 1 0.6 c 1338 1178 m 107 X 75 Y -107 X f black 1338 1253 m 107 X s 1338 1178 m 107 X s 1445 1178 m 75 Y s 1338 1178 m 75 Y s
 gsave  2263 1770 2 313 C 1464.36 1088.1 t 0 r /Helvetica findfont 64.4212 sf 0 0 m (Diboson) show NC gr  1 0.4 0.6 c 1338 1072 m 107 X 74 Y -107 X f black 1338 1146 m 107 X s 1338 1072 m 107 X s 1445 1072 m 74 Y s 1338 1072 m 74 Y s
 gsave  2263 1770 2 313 C 911.832 1566.05 t 0 r /Helvetica findfont 44.0776 sf 0 0 m (\2551) show NC gr 
 gsave  2263 1770 2 313 C 471.17 1535.54 t 0 r /Helvetica findfont 64.4212 sf 0 0 m (=13TeV, 139 fb) show NC gr 
 gsave  2263 1770 2 313 C 440.662 1535.54 t 0 r /Helvetica findfont 64.4212 sf 0 0 m (s) show NC gr  6 lw 420 1573 m 7 -41 d s 3 lw 427 1532 m 7 61 d s 434 1593 m 37 X s 1 1 1 c 2254 561 2 2 bf black 1 1 1 c black 1860 358 318 187 bl 1 1 1 c black
 1860 358 318 187 bl 6 lw 1 1 1 c black 3 lw 364 366 m20 6 lw 3 lw 457 364 m20 6 lw 3 lw 550 364 m20 6 lw 3 lw 643 366 m20 6 lw 3 lw 736 365 m20 6 lw 3 lw 829 373 m20 6 lw 3 lw 923 371 m20 6 lw 3 lw 1016 374 m20 6 lw 3 lw 1109 368 m20 6 lw 3 lw 1202
 380 m20 6 lw 3 lw 1295 396 m20 6 lw 3 lw 1388 339 m20 6 lw 3 lw 1481 340 m20 6 lw 3 lw 1574 327 m20 6 lw 3 lw 1667 360 m20 6 lw 3 lw 1760 328 m20 6 lw 3 lw 1853 302 m20 6 lw 3 lw 1946 290 m20 6 lw 3 lw 2132 448 m20 6 lw 3 lw 318 187 m 1860 X s
 gsave  2254 561 2 2 C 2105.01 64.4045 t 0 r /Helvetica findfont 50.9797 sf 0 0 m (1/2) show NC gr 
 gsave  2254 561 2 2 C 1888.07 23.728 t 0 r /Helvetica findfont 78.1689 sf 0 0 m ( [GeV]) show NC gr 
 gsave  2254 561 2 2 C 1857.56 3.38971 t 0 r /Helvetica findfont 50.9797 sf 0 0 m (T) show NC gr 
 gsave  2254 561 2 2 C 1806.72 23.728 t 0 r /Helvetica findfont 78.1689 sf 0 0 m (H) show NC gr  6 lw 1773 81 m 10 -78 d s 3 lw 1783 3 m 14 99 d s 1797 102 m 91 X s
 gsave  2254 561 2 2 C 1735.53 23.728 t 0 r /Helvetica findfont 78.1689 sf 0 0 m (/) show NC gr 
 gsave  2254 561 2 2 C 1630.45 61.0148 t 0 r /Helvetica findfont 50.9797 sf 0 0 m (miss) show NC gr 
 gsave  2254 561 2 2 C 1630.45 3.38971 t 0 r /Helvetica findfont 50.9797 sf 0 0 m (T) show NC gr 
 gsave  2254 561 2 2 C 1579.61 23.728 t 0 r /Helvetica findfont 78.1689 sf 0 0 m (E) show NC gr  318 201 m -14 Y s 364 194 m -7 Y s 411 194 m -7 Y s 457 194 m -7 Y s 504 194 m -7 Y s 550 201 m -14 Y s 597 194 m -7 Y s 643 194 m -7 Y s 690 194 m -7 Y
 s 736 194 m -7 Y s 783 201 m -14 Y s 829 194 m -7 Y s 876 194 m -7 Y s 923 194 m -7 Y s 969 194 m -7 Y s 1016 201 m -14 Y s 1062 194 m -7 Y s 1109 194 m -7 Y s 1155 194 m -7 Y s 1202 194 m -7 Y s 1248 201 m -14 Y s 1295 194 m -7 Y s 1341 194 m -7 Y
 s 1388 194 m -7 Y s 1434 194 m -7 Y s 1481 201 m -14 Y s 1527 194 m -7 Y s 1574 194 m -7 Y s 1620 194 m -7 Y s 1667 194 m -7 Y s 1713 201 m -14 Y s 1760 194 m -7 Y s 1806 194 m -7 Y s 1853 194 m -7 Y s 1899 194 m -7 Y s 1946 201 m -14 Y s 1992 194 m
 -7 Y s 2039 194 m -7 Y s 2085 194 m -7 Y s 2132 194 m -7 Y s 2178 201 m -14 Y s
 gsave  2254 561 2 2 C 271.177 118.64 t 0 r /Helvetica findfont 78.1689 sf 0 0 m (10) show NC gr 
 gsave  2254 561 2 2 C 505.067 118.64 t 0 r /Helvetica findfont 78.1689 sf 0 0 m (15) show NC gr 
 gsave  2254 561 2 2 C 735.567 118.64 t 0 r /Helvetica findfont 78.1689 sf 0 0 m (20) show NC gr 
 gsave  2254 561 2 2 C 969.457 118.64 t 0 r /Helvetica findfont 78.1689 sf 0 0 m (25) show NC gr 
 gsave  2254 561 2 2 C 1203.35 118.64 t 0 r /Helvetica findfont 78.1689 sf 0 0 m (30) show NC gr 
 gsave  2254 561 2 2 C 1433.85 118.64 t 0 r /Helvetica findfont 78.1689 sf 0 0 m (35) show NC gr 
 gsave  2254 561 2 2 C 1667.74 118.64 t 0 r /Helvetica findfont 78.1689 sf 0 0 m (40) show NC gr 
 gsave  2254 561 2 2 C 1901.63 118.64 t 0 r /Helvetica findfont 78.1689 sf 0 0 m (45) show NC gr 
 gsave  2254 561 2 2 C 2132.13 118.64 t 0 r /Helvetica findfont 78.1689 sf 0 0 m (50) show NC gr  318 545 m 1860 X s 318 531 m 14 Y s 364 538 m 7 Y s 411 538 m 7 Y s 457 538 m 7 Y s 504 538 m 7 Y s 550 531 m 14 Y s 597 538 m 7 Y s 643 538 m 7 Y s 690
 538 m 7 Y s 736 538 m 7 Y s 783 531 m 14 Y s 829 538 m 7 Y s 876 538 m 7 Y s 923 538 m 7 Y s 969 538 m 7 Y s 1016 531 m 14 Y s 1062 538 m 7 Y s 1109 538 m 7 Y s 1155 538 m 7 Y s 1202 538 m 7 Y s 1248 531 m 14 Y s 1295 538 m 7 Y s 1341 538 m 7 Y s
 1388 538 m 7 Y s 1434 538 m 7 Y s 1481 531 m 14 Y s 1527 538 m 7 Y s 1574 538 m 7 Y s 1620 538 m 7 Y s 1667 538 m 7 Y s 1713 531 m 14 Y s 1760 538 m 7 Y s 1806 538 m 7 Y s 1853 538 m 7 Y s 1899 538 m 7 Y s 1946 531 m 14 Y s 1992 538 m 7 Y s 2039 538
 m 7 Y s 2085 538 m 7 Y s 2132 538 m 7 Y s 2178 531 m 14 Y s 318 187 m 358 Y s
 gsave  2254 561 2 2 C 166.096 284.736 t 90 r /Helvetica findfont 67.9729 sf 0 0 m (Data/SM) show NC gr  361 203 m -43 X s 339 220 m -21 X s 339 236 m -21 X s 339 252 m -21 X s 339 268 m -21 X s 361 285 m -43 X s 339 301 m -21 X s 339 317 m -21 X s
 339 334 m -21 X s 339 350 m -21 X s 361 366 m -43 X s 339 382 m -21 X s 339 399 m -21 X s 339 415 m -21 X s 339 431 m -21 X s 361 447 m -43 X s 339 464 m -21 X s 339 480 m -21 X s 339 496 m -21 X s 339 512 m -21 X s 361 529 m -43 X s 361 203 m -43 X
 s 339 187 m -21 X s 361 529 m -43 X s
 gsave  2254 561 2 2 C 261.008 183.044 t 0 r /Helvetica findfont 57.777 sf 0 0 m (0) show NC gr 
 gsave  2254 561 2 2 C 213.552 261.008 t 0 r /Helvetica findfont 57.777 sf 0 0 m (0.5) show NC gr 
 gsave  2254 561 2 2 C 271.177 342.361 t 0 r /Helvetica findfont 57.777 sf 0 0 m (1) show NC gr 
 gsave  2254 561 2 2 C 213.552 423.714 t 0 r /Helvetica findfont 57.777 sf 0 0 m (1.5) show NC gr 
 gsave  2254 561 2 2 C 261.008 505.067 t 0 r /Helvetica findfont 57.777 sf 0 0 m (2) show NC gr  2178 187 m 358 Y s 2135 203 m 43 X s 2157 220 m 21 X s 2157 236 m 21 X s 2157 252 m 21 X s 2157 268 m 21 X s 2135 285 m 43 X s 2157 301 m 21 X s 2157 317
 m 21 X s 2157 334 m 21 X s 2157 350 m 21 X s 2135 366 m 43 X s 2157 382 m 21 X s 2157 399 m 21 X s 2157 415 m 21 X s 2157 431 m 21 X s 2135 447 m 43 X s 2157 464 m 21 X s 2157 480 m 21 X s 2157 496 m 21 X s 2157 512 m 21 X s 2135 529 m 43 X s 2135
 203 m 43 X s 2157 187 m 21 X s 2135 529 m 43 X s 9 lw 1481 354 m 3 Y s 1481 357 m cl s 1481 327 m -3 Y s 1481 324 m cl s 1574 340 m 10 Y s 1574 350 m cl s 1574 313 m -9 Y s 1574 304 m cl s 1667 374 m 24 Y s 1667 398 m cl s 1667 346 m -23 Y s 1667
 323 m cl s 1760 342 m 39 Y s 1760 381 m cl s 1760 315 m -36 Y s 1760 279 m cl s 1853 315 m 67 Y s 1853 382 m cl s 1853 288 m -50 Y s 1853 238 m cl s 1946 304 m 98 Y s 1946 402 m cl s 1946 277 m -58 Y s 1946 219 m cl s 2039 545 m -160 Y s 2039 385 m
 cl s 2132 461 m 84 Y s 2132 545 m cl s 2132 434 m -188 Y s 2132 246 m cl s 3 lw 364 366 457 364 550 364 643 366 736 365 829 373 923 371 1016 374 1109 368 1202 380 1295 396 1388 339 1481 340 1574 327 1667 360 1760 328 1853 302 1946 290 18 { m20} R 9
 lw 3 lw 2132 448 m20 9 lw 1 0 0 c 6 lw black 3 lw 1 0 0 c 2178 369 m -27 -27 d s 2170 390 m -48 -48 d s 2141 390 m -47 -48 d s 2113 390 m -47 -47 d s 2083 389 m -46 -46 d s 2054 389 m -45 -46 d s 2025 389 m -50 -50 d s 1997 389 m -50 -50 d s 1973
 393 m -55 -54 d s 1944 393 m -45 -44 d s 1915 393 m -40 -40 d s 1872 379 m -25 -26 d s 1843 379 m -25 -26 d s 1815 379 m -23 -23 d s 1783 376 m -20 -20 d s 1755 376 m -20 -20 d s 1726 376 m -19 -19 d s 1696 375 m -18 -18 d s 1667 375 m -17 -18 d s
 1639 375 m -18 -18 d s 1609 374 m -16 -16 d s 1580 374 m -15 -16 d s 1552 374 m -16 -16 d s 1523 374 m -16 -16 d s 1494 374 m -15 -16 d s 1465 374 m -15 -16 d s 1437 374 m -28 -28 d s 1420 386 m -40 -40 d s 1392 386 m -40 -40 d s 1363 386 m -25 -25
 d s 1319 371 m -10 -10 d s 1291 371 m -10 -10 d s 1262 371 m -10 -10 d s 1234 371 m -11 -10 d s 1205 371 m -11 -10 d s 1176 371 m -11 -10 d s 1147 371 m -10 -10 d s 1118 371 m -10 -10 d s 1090 371 m -10 -10 d s 1060 370 m -8 -8 d s 1032 370 m -9 -8
 d s 1003 370 m -9 -8 d s 974 370 m -10 -9 d s 947 371 m -11 -10 d s 918 371 m -11 -10 d s 889 371 m -11 -10 d s 862 373 m -14 -14 d s 833 373 m -13 -14 d s 805 373 m -14 -14 d s 776 373 m -14 -14 d s 748 373 m -15 -14 d s 719 373 m -15 -14 d s 690
 373 m s 690 373 m -14 -14 d s 661 373 m -14 -14 d s 633 373 m -14 -14 d s 604 373 m -13 -13 d s 575 372 m -13 -12 d s 546 372 m -13 -12 d s 517 372 m -13 -12 d s 488 372 m -12 -12 d s 459 372 m -11 -12 d s 318 231 m s 431 372 m -12 -12 d s 318 259 m
 s 402 372 m -11 -12 d s 318 288 m s 373 372 m -11 -12 d s 318 317 m s 344 372 m -11 -12 d s 318 345 m s 6 lw black[ 4 8] 0 sd 3 lw 318 447 m 1860 X s 318 285 m 1860 X s 1 0 0 c[  12 12 ] 0 sd 6 lw 318 366 m 1860 X s
 gr  gr showpage
end
%%EOF
