%!PS-Adobe-2.0 EPSF-2.0
%%BoundingBox:  0 0 567 521
%%Title: Distributions/metsqrtmeffInc_met_distrVR0LmetSig_MB-GGo_afterFit_forThesis.eps: canvas
%%Creator: ROOT Version 6.04/16
%%CreationDate: Tue May 19 22:06:40 2020
%%DocumentNeededResources: ProcSet (FontSetInit)
%%EndComments
%%BeginProlog
80 dict begin
/s {stroke} def /l {lineto} def /m {moveto} def /t {translate} def
/r {rotate} def /rl {roll}  def /R {repeat} def
/d {rlineto} def /rm {rmoveto} def /gr {grestore} def /f {eofill} def
/c {setrgbcolor} def /black {0 setgray} def /sd {setdash} def
/cl {closepath} def /sf {scalefont setfont} def /lw {setlinewidth} def
/box {m dup 0 exch d exch 0 d 0 exch neg d cl} def
/NC{systemdict begin initclip end}def/C{NC box clip newpath}def
/bl {box s} def /bf {gsave box gsave f grestore 1 lw [] 0 sd s grestore} def /Y { 0 exch d} def /X { 0 d} def 
/K {{pop pop 0 moveto} exch kshow} bind def
/ita {/ang 15 def gsave [1 0 ang dup sin exch cos div 1 0 0] concat} def 
/mp {newpath /y exch def /x exch def} def
/side {[w .77 mul w .23 mul] .385 w mul sd w 0 l currentpoint t -144 r} def
/mr {mp x y w2 0 360 arc} def /m24 {mr s} def /m20 {mr f} def
/mb {mp x y w2 add m w2 neg 0 d 0 w neg d w 0 d 0 w d cl} def
/mt {mp x y w2 add m w2 neg w neg d w 0 d cl} def
/m21 {mb f} def /m25 {mb s} def /m22 {mt f} def /m26{mt s} def
/m23 {mp x y w2 sub m w2 w d w neg 0 d cl f} def
/m27 {mp x y w2 add m w3 neg w2 neg d w3 w2 neg d w3 w2 d cl s} def
/m28 {mp x w2 sub y w2 sub w3 add m w3 0 d  0 w3 neg d w3 0 d 0 w3 d w3 0 d  0 w3 d w3 neg 0 d 0 w3 d w3 neg 0 d 0 w3 neg d w3 neg 0 d cl s } def
/m29 {mp gsave x w2 sub y w2 add w3 sub m currentpoint t 4 {side} repeat cl fill gr} def
/m30 {mp gsave x w2 sub y w2 add w3 sub m currentpoint t 4 {side} repeat cl s gr} def
/m31 {mp x y w2 sub m 0 w d x w2 sub y m w 0 d x w2 sub y w2 add m w w neg d x w2 sub y w2 sub m w w d s} def
/m32 {mp x y w2 sub m w2 w d w neg 0 d cl s} def
/m33 {mp x y w2 add m w3 neg w2 neg d w3 w2 neg d w3 w2 d cl f} def
/m34 {mp x w2 sub y w2 sub w3 add m w3 0 d  0 w3 neg d w3 0 d 0 w3 d w3 0 d  0 w3 d w3 neg 0 d 0 w3 d w3 neg 0 d 0 w3 neg d w3 neg 0 d cl f } def
/m2 {mp x y w2 sub m 0 w d x w2 sub y m w 0 d s} def
/m5 {mp x w2 sub y w2 sub m w w d x w2 sub y w2 add m w w neg d s} def
%%IncludeResource: ProcSet (FontSetInit)
%%IncludeResource: font Times-Roman
%%IncludeResource: font Times-Italic
%%IncludeResource: font Times-Bold
%%IncludeResource: font Times-BoldItalic
%%IncludeResource: font Helvetica
%%IncludeResource: font Helvetica-Oblique
%%IncludeResource: font Helvetica-Bold
%%IncludeResource: font Helvetica-BoldOblique
%%IncludeResource: font Courier
%%IncludeResource: font Courier-Oblique
%%IncludeResource: font Courier-Bold
%%IncludeResource: font Courier-BoldOblique
%%IncludeResource: font Symbol
%%IncludeResource: font ZapfDingbats
/reEncode {exch findfont dup length dict begin {1 index /FID eq  {pop pop} {def} ifelse } forall /Encoding exch def currentdict end dup /FontName get exch definefont pop } def [/Times-Bold /Times-Italic /Times-BoldItalic /Helvetica /Helvetica-Oblique
 /Helvetica-Bold /Helvetica-BoldOblique /Courier /Courier-Oblique /Courier-Bold /Courier-BoldOblique /Times-Roman /AvantGarde-Book /AvantGarde-BookOblique /AvantGarde-Demi /AvantGarde-DemiOblique /Bookman-Demi /Bookman-DemiItalic /Bookman-Light
 /Bookman-LightItalic /Helvetica-Narrow /Helvetica-Narrow-Bold /Helvetica-Narrow-BoldOblique /Helvetica-Narrow-Oblique /NewCenturySchlbk-Roman /NewCenturySchlbk-Bold /NewCenturySchlbk-BoldItalic /NewCenturySchlbk-Italic /Palatino-Bold
 /Palatino-BoldItalic /Palatino-Italic /Palatino-Roman ] {ISOLatin1Encoding reEncode } forall
%%EndProlog
%%BeginSetup
%%EndSetup
newpath  gsave  .25 .25 scale  gsave  0 0 t black[  ] 0 sd 3 lw 1 1 1 c 2268 2085 0 0 bf black 1 1 1 c 2263 1770 2 313 bf black 1 1 1 c black 1860 1145 319 584 bl 1 1 1 c black 1860 1145 319 584 bl 6 lw 1 1 1 c black 3 lw /w 33 def /w2 {w 2 div} def
 /w3 {w 3 div} def 412 1104 m20 6 lw 598 1014 m 2 Y s 3 lw 598 1029 m20 6 lw 784 923 m 15 Y s 784 965 m 7 Y s 3 lw 784 951 m20 6 lw 970 843 m 33 Y s 970 903 m 15 Y s 3 lw 970 890 m20 6 lw 1156 722 m 82 Y s 1156 832 m 28 Y s 3 lw 1156 818 m20 6 lw
 1342 584 m 166 Y s 1342 778 m 40 Y s 3 lw 1342 764 m20 6 lw 1528 584 m 166 Y s 1528 778 m 40 Y s 3 lw 1528 764 m20 6 lw 1714 584 m 166 Y s 1714 778 m 40 Y s 3 lw 1714 764 m20 6 lw 3 lw 319 584 m 1860 X s
 gsave  2263 1770 2 313 C 2101.62 396.596 t 0 r /Helvetica findfont 54.2494 sf 0 0 m (1/2) show NC gr 
 gsave  2263 1770 2 313 C 1874.51 355.92 t 0 r /Helvetica findfont 81.3741 sf 0 0 m ( [GeV]) show NC gr 
 gsave  2263 1770 2 313 C 1840.61 332.192 t 0 r /Helvetica findfont 54.2494 sf 0 0 m (T) show NC gr 
 gsave  2263 1770 2 313 C 1786.38 355.92 t 0 r /Helvetica findfont 81.3741 sf 0 0 m (H) show NC gr  6 lw 1749 417 m 14 -85 d s 3 lw 1763 332 m 13 105 d s 1776 437 m 99 X s
 gsave  2263 1770 2 313 C 1711.8 355.92 t 0 r /Helvetica findfont 81.3741 sf 0 0 m (/) show NC gr 
 gsave  2263 1770 2 313 C 1599.94 396.596 t 0 r /Helvetica findfont 54.2494 sf 0 0 m (miss) show NC gr 
 gsave  2263 1770 2 313 C 1599.94 332.192 t 0 r /Helvetica findfont 54.2494 sf 0 0 m (T) show NC gr 
 gsave  2263 1770 2 313 C 1549.1 355.92 t 0 r /Helvetica findfont 81.3741 sf 0 0 m (E) show NC gr  319 584 m cl s 366 584 m cl s 412 584 m cl s 459 584 m cl s 505 584 m cl s 552 584 m cl s 598 584 m cl s 645 584 m cl s 691 584 m cl s 738 584 m cl s
 784 584 m cl s 831 584 m cl s 877 584 m cl s 924 584 m cl s 970 584 m cl s 1017 584 m cl s 1063 584 m cl s 1110 584 m cl s 1156 584 m cl s 1203 584 m cl s 1249 584 m cl s 1296 584 m cl s 1342 584 m cl s 1389 584 m cl s 1435 584 m cl s 1482 584 m cl
 s 1528 584 m cl s 1575 584 m cl s 1621 584 m cl s 1668 584 m cl s 1714 584 m cl s 1761 584 m cl s 1807 584 m cl s 1854 584 m cl s 1900 584 m cl s 1947 584 m cl s 1993 584 m cl s 2040 584 m cl s 2086 584 m cl s 2133 584 m cl s 2179 584 m cl s 319
 1729 m 1860 X s 319 1729 m cl s 366 1729 m cl s 412 1729 m cl s 459 1729 m cl s 505 1729 m cl s 552 1729 m cl s 598 1729 m cl s 645 1729 m cl s 691 1729 m cl s 738 1729 m cl s 784 1729 m cl s 831 1729 m cl s 877 1729 m cl s 924 1729 m cl s 970 1729
 m cl s 1017 1729 m cl s 1063 1729 m cl s 1110 1729 m cl s 1156 1729 m cl s 1203 1729 m cl s 1249 1729 m cl s 1296 1729 m cl s 1342 1729 m cl s 1389 1729 m cl s 1435 1729 m cl s 1482 1729 m cl s 1528 1729 m cl s 1575 1729 m cl s 1621 1729 m cl s 1668
 1729 m cl s 1714 1729 m cl s 1761 1729 m cl s 1807 1729 m cl s 1854 1729 m cl s 1900 1729 m cl s 1947 1729 m cl s 1993 1729 m cl s 2040 1729 m cl s 2086 1729 m cl s 2133 1729 m cl s 2179 1729 m cl s 319 584 m 1145 Y s
 gsave  2263 1770 2 313 C 125.419 1654.18 t 90 r /Helvetica findfont 54.2494 sf 0 0 m (1/2) show NC gr 
 gsave  2263 1770 2 313 C 166.096 1064.37 t 90 r /Helvetica findfont 81.3741 sf 0 0 m (Events / 2 [GeV]) show NC gr  341 638 m -22 X s 341 670 m -22 X s 341 692 m -22 X s 341 710 m -22 X s 341 724 m -22 X s 341 736 m -22 X s 341 747 m -22 X s 341 756
 m -22 X s 363 764 m -44 X s
 gsave  2263 1770 2 313 C 300.555 736.853 t 0 r  -36 0 t /Helvetica findfont 64.4212 sf 0 0 m (1) show NC gr  341 818 m -22 X s 341 850 m -22 X s 341 872 m -22 X s 341 890 m -22 X s 341 904 m -22 X s 341 916 m -22 X s 341 926 m -22 X s 341 935 m -22
 X s 363 944 m -44 X s
 gsave  2263 1770 2 313 C 300.555 916.514 t 0 r  -73 0 t /Helvetica findfont 64.4212 sf 0 0 m (10) show NC gr  341 998 m -22 X s 341 1029 m -22 X s 341 1052 m -22 X s 341 1069 m -22 X s 341 1083 m -22 X s 341 1095 m -22 X s 341 1106 m -22 X s 341
 1115 m -22 X s 363 1123 m -44 X s
 gsave  2263 1770 2 313 C 274.567 1121.99 t 0 r /Helvetica findfont 44.0776 sf 0 0 m (2) show NC gr 
 gsave  2263 1770 2 313 C 203.383 1094.88 t 0 r /Helvetica findfont 64.4212 sf 0 0 m (10) show NC gr  341 1177 m -22 X s 341 1209 m -22 X s 341 1231 m -22 X s 341 1249 m -22 X s 341 1263 m -22 X s 341 1275 m -22 X s 341 1286 m -22 X s 341 1295 m -22
 X s 363 1303 m -44 X s
 gsave  2263 1770 2 313 C 274.567 1305.04 t 0 r /Helvetica findfont 44.0776 sf 0 0 m (3) show NC gr 
 gsave  2263 1770 2 313 C 203.383 1274.53 t 0 r /Helvetica findfont 64.4212 sf 0 0 m (10) show NC gr  341 1357 m -22 X s 341 1389 m -22 X s 341 1411 m -22 X s 341 1429 m -22 X s 341 1443 m -22 X s 341 1455 m -22 X s 341 1465 m -22 X s 341 1474 m -22
 X s 363 1483 m -44 X s
 gsave  2263 1770 2 313 C 274.567 1481.3 t 0 r /Helvetica findfont 44.0776 sf 0 0 m (4) show NC gr 
 gsave  2263 1770 2 313 C 203.383 1454.19 t 0 r /Helvetica findfont 64.4212 sf 0 0 m (10) show NC gr  341 1537 m -22 X s 341 1568 m -22 X s 341 1591 m -22 X s 341 1608 m -22 X s 341 1622 m -22 X s 341 1634 m -22 X s 341 1645 m -22 X s 341 1654 m -22
 X s 363 1662 m -44 X s
 gsave  2263 1770 2 313 C 274.567 1664.35 t 0 r /Helvetica findfont 44.0776 sf 0 0 m (5) show NC gr 
 gsave  2263 1770 2 313 C 203.383 1633.84 t 0 r /Helvetica findfont 64.4212 sf 0 0 m (10) show NC gr  341 1716 m -22 X s 2179 584 m 1145 Y s 2157 638 m 22 X s 2157 670 m 22 X s 2157 692 m 22 X s 2157 710 m 22 X s 2157 724 m 22 X s 2157 736 m 22 X s
 2157 747 m 22 X s 2157 756 m 22 X s 2136 764 m 43 X s 2157 818 m 22 X s 2157 850 m 22 X s 2157 872 m 22 X s 2157 890 m 22 X s 2157 904 m 22 X s 2157 916 m 22 X s 2157 926 m 22 X s 2157 935 m 22 X s 2136 944 m 43 X s 2157 998 m 22 X s 2157 1029 m 22
 X s 2157 1052 m 22 X s 2157 1069 m 22 X s 2157 1083 m 22 X s 2157 1095 m 22 X s 2157 1106 m 22 X s 2157 1115 m 22 X s 2136 1123 m 43 X s 2157 1177 m 22 X s 2157 1209 m 22 X s 2157 1231 m 22 X s 2157 1249 m 22 X s 2157 1263 m 22 X s 2157 1275 m 22 X
 s 2157 1286 m 22 X s 2157 1295 m 22 X s 2136 1303 m 43 X s 2157 1357 m 22 X s 2157 1389 m 22 X s 2157 1411 m 22 X s 2157 1429 m 22 X s 2157 1443 m 22 X s 2157 1455 m 22 X s 2157 1465 m 22 X s 2157 1474 m 22 X s 2136 1483 m 43 X s 2157 1537 m 22 X s
 2157 1568 m 22 X s 2157 1591 m 22 X s 2157 1608 m 22 X s 2157 1622 m 22 X s 2157 1634 m 22 X s 2157 1645 m 22 X s 2157 1654 m 22 X s 2136 1662 m 43 X s 2157 1716 m 22 X s 0.4 0.6 1 c black 0.4 0.6 1 c 319 584 m 507 Y 186 X -57 Y 186 X -66 Y 186 X
 -76 Y 186 X -54 Y 186 X -63 Y 186 X -97 Y 186 X -71 Y 186 X -23 Y 186 X 14 Y 186 X -14 Y f black 0.4 0.6 1 c black 319 1091 m 186 X -57 Y 186 X -66 Y 186 X -76 Y 186 X -54 Y 186 X -63 Y 186 X -97 Y 186 X -71 Y 186 X -23 Y 186 X 14 Y 186 X s 0.999
 0.999 0.999 c black 0.999 0.999 0.999 c 319 584 m 495 Y 186 X -55 Y 186 X -69 Y 186 X -79 Y 186 X -72 Y 186 X -64 Y 186 X -74 Y 186 X -70 Y 186 X -12 Y 372 X f black 0.999 0.999 0.999 c black 319 1079 m 186 X -55 Y 186 X -69 Y 186 X -79 Y 186 X -72
 Y 186 X -64 Y 186 X -74 Y 186 X -70 Y 186 X -12 Y 372 X s 1 1 1 c black 319 1079 m 186 X -55 Y 186 X -69 Y 186 X -79 Y 186 X -72 Y 186 X -64 Y 186 X -74 Y 186 X -70 Y 186 X -12 Y 372 X s 0.6 1 0.6 c black 0.6 1 0.6 c 319 584 m 495 Y 186 X -55 Y 186
 X -69 Y 186 X -79 Y 186 X -72 Y 186 X -64 Y 186 X -74 Y 186 X -70 Y 186 X -12 Y 372 X f black 0.6 1 0.6 c black 319 1079 m 186 X -55 Y 186 X -69 Y 186 X -79 Y 186 X -72 Y 186 X -64 Y 186 X -74 Y 186 X -70 Y 186 X -12 Y 372 X s 0.999 0.999 0.999 c
 black 0.999 0.999 0.999 c 319 584 m 362 Y 186 X -47 Y 186 X -62 Y 186 X -49 Y 186 X -90 Y 186 X -11 Y 186 X -43 Y 186 X -60 Y 558 X f black 0.999 0.999 0.999 c black 319 946 m 186 X -47 Y 186 X -62 Y 186 X -49 Y 186 X -90 Y 186 X -11 Y 186 X -43 Y
 186 X -60 Y 558 X s 1 1 1 c black 319 946 m 186 X -47 Y 186 X -62 Y 186 X -49 Y 186 X -90 Y 186 X -11 Y 186 X -43 Y 186 X -60 Y 558 X s 1 0.8 0.4 c black 1 0.8 0.4 c 319 584 m 362 Y 186 X -47 Y 186 X -62 Y 186 X -49 Y 186 X -90 Y 186 X -11 Y 186 X
 -43 Y 186 X -60 Y 558 X f black 1 0.8 0.4 c black 319 946 m 186 X -47 Y 186 X -62 Y 186 X -49 Y 186 X -90 Y 186 X -11 Y 186 X -43 Y 186 X -60 Y 558 X s 0.999 0.999 0.999 c black 0.999 0.999 0.999 c 319 584 m 293 Y 186 X -52 Y 186 X -73 Y 186 X -52 Y
 186 X -116 Y 372 X 18 Y 186 X -18 Y 558 X f black 0.999 0.999 0.999 c black 319 877 m 186 X -52 Y 186 X -73 Y 186 X -52 Y 186 X -116 Y 372 X 18 Y 186 X -18 Y 558 X s 1 1 1 c black 319 877 m 186 X -52 Y 186 X -73 Y 186 X -52 Y 186 X -116 Y 372 X 18 Y
 186 X -18 Y 558 X s 1 0.4 0.6 c black 1 0.4 0.6 c 319 584 m 293 Y 186 X -52 Y 186 X -73 Y 186 X -52 Y 186 X -116 Y 372 X 18 Y 186 X -18 Y 558 X f black 1 0.4 0.6 c black 319 877 m 186 X -52 Y 186 X -73 Y 186 X -52 Y 186 X -116 Y 372 X 18 Y 186 X -18
 Y 558 X s 0.999 0.999 0.999 c black 0.999 0.999 0.999 c 319 584 m 226 Y 186 X -122 Y 186 X -104 Y 1488 X f black 0.999 0.999 0.999 c black 319 810 m 186 X -122 Y 186 X -104 Y 1488 X s 1 1 1 c black 319 810 m 186 X -122 Y 186 X -104 Y 1488 X s 0 0
 0.4 c black 0 0 0.4 c 319 584 m 226 Y 186 X -122 Y 186 X -104 Y 1488 X f black 0 0 0.4 c black 319 810 m 186 X -122 Y 186 X -104 Y 1488 X s 1 0 0 c 6 lw 1 1 1 c black 1 0 0 c 319 1091 m 186 X -57 Y 186 X -66 Y 186 X -76 Y 186 X -54 Y 186 X -63 Y 186
 X -97 Y 186 X -71 Y 186 X -23 Y 186 X 14 Y 186 X s black 3 lw 1 0 0 c 1 lw << /PatternType 1 /PaintType 2 /TilingType 1 /BBox [ 0 0 100 100 ] /XStep 100 /YStep 100 /PaintProc { begin gsave 0 100 m 100 0 l s gr end } >> [ 0.24 0 0 0.24 0 0 ]
 makepattern /P05 exch def /cs {[/Pattern /DeviceRGB] setcolorspace} def /FA {f [/DeviceRGB] setcolorspace} def cs 1 0 0 P05 setcolor 319 584 m 512 Y 186 X -56 Y 186 X -67 Y 186 X -75 Y 186 X -48 Y 186 X -63 Y 186 X -91 Y 186 X -72 Y 186 X -40 Y 186
 X 54 Y 186 X -54 Y -372 X 1 Y -186 X 70 Y -186 X 105 Y -186 X 63 Y -186 X 62 Y -186 X 77 Y -186 X 66 Y -186 X 57 Y -186 X -501 Y FA 6 lw 1 1 1 c 15 lw 784 971 m 1 Y s 784 972 m cl s 784 931 m -7 Y s 784 924 m cl s 970 910 m 10 Y s 970 920 m cl s 970
 869 m -23 Y s 970 846 m cl s 1156 838 m 26 Y s 1156 864 m cl s 1156 798 m -61 Y s 1156 737 m cl s 1342 784 m 45 Y s 1342 829 m cl s 1342 744 m -116 Y s 1342 628 m cl s 1528 784 m 45 Y s 1528 829 m cl s 1528 744 m -116 Y s 1528 628 m cl s 1714 784 m
 45 Y s 1714 829 m cl s 1714 744 m -116 Y s 1714 628 m cl s black 1 1 1 c 3 lw /w 43 def /w2 {w 2 div} def /w3 {w 3 div} def 412 1104 598 1029 784 951 970 890 1156 818 1342 764 1528 764 1714 764 8 { m20} R 15 lw black 6 lw 1 1 1 c black 3 lw /w 33
 def /w2 {w 2 div} def /w3 {w 3 div} def 412 1104 m20 6 lw 598 1014 m 2 Y s 3 lw 598 1029 m20 6 lw 784 923 m 15 Y s 784 965 m 7 Y s 3 lw 784 951 m20 6 lw 970 843 m 33 Y s 970 903 m 15 Y s 3 lw 970 890 m20 6 lw 1156 722 m 82 Y s 1156 832 m 28 Y s 3 lw
 1156 818 m20 6 lw 1342 584 m 166 Y s 1342 778 m 40 Y s 3 lw 1342 764 m20 6 lw 1528 584 m 166 Y s 1528 778 m 40 Y s 3 lw 1528 764 m20 6 lw 1714 584 m 166 Y s 1714 778 m 40 Y s 3 lw 1714 764 m20 6 lw 598 1016 m -2 Y s 598 1014 m cl s 784 965 m 7 Y s
 784 972 m cl s 784 938 m -14 Y s 784 924 m cl s 970 903 m 17 Y s 970 920 m cl s 970 876 m -30 Y s 970 846 m cl s 1156 832 m 32 Y s 1156 864 m cl s 1156 804 m -67 Y s 1156 737 m cl s 1342 778 m 51 Y s 1342 829 m cl s 1342 750 m -122 Y s 1342 628 m cl
 s 1528 778 m 51 Y s 1528 829 m cl s 1528 750 m -122 Y s 1528 628 m cl s 1714 778 m 51 Y s 1714 829 m cl s 1714 750 m -122 Y s 1714 628 m cl s 3 lw 412 1104 598 1029 784 951 970 890 1156 818 1342 764 1528 764 1714 764 8 { m20} R 6 lw 3 lw 319 584 m
 1860 X s 319 584 m cl s 366 584 m cl s 412 584 m cl s 459 584 m cl s 505 584 m cl s 552 584 m cl s 598 584 m cl s 645 584 m cl s 691 584 m cl s 738 584 m cl s 784 584 m cl s 831 584 m cl s 877 584 m cl s 924 584 m cl s 970 584 m cl s 1017 584 m cl s
 1063 584 m cl s 1110 584 m cl s 1156 584 m cl s 1203 584 m cl s 1249 584 m cl s 1296 584 m cl s 1342 584 m cl s 1389 584 m cl s 1435 584 m cl s 1482 584 m cl s 1528 584 m cl s 1575 584 m cl s 1621 584 m cl s 1668 584 m cl s 1714 584 m cl s 1761 584
 m cl s 1807 584 m cl s 1854 584 m cl s 1900 584 m cl s 1947 584 m cl s 1993 584 m cl s 2040 584 m cl s 2086 584 m cl s 2133 584 m cl s 2179 584 m cl s 319 1729 m 1860 X s 319 1729 m cl s 366 1729 m cl s 412 1729 m cl s 459 1729 m cl s 505 1729 m cl
 s 552 1729 m cl s 598 1729 m cl s 645 1729 m cl s 691 1729 m cl s 738 1729 m cl s 784 1729 m cl s 831 1729 m cl s 877 1729 m cl s 924 1729 m cl s 970 1729 m cl s 1017 1729 m cl s 1063 1729 m cl s 1110 1729 m cl s 1156 1729 m cl s 1203 1729 m cl s
 1249 1729 m cl s 1296 1729 m cl s 1342 1729 m cl s 1389 1729 m cl s 1435 1729 m cl s 1482 1729 m cl s 1528 1729 m cl s 1575 1729 m cl s 1621 1729 m cl s 1668 1729 m cl s 1714 1729 m cl s 1761 1729 m cl s 1807 1729 m cl s 1854 1729 m cl s 1900 1729 m
 cl s 1947 1729 m cl s 1993 1729 m cl s 2040 1729 m cl s 2086 1729 m cl s 2133 1729 m cl s 2179 1729 m cl s 319 584 m 1145 Y s 341 638 m -22 X s 341 670 m -22 X s 341 692 m -22 X s 341 710 m -22 X s 341 724 m -22 X s 341 736 m -22 X s 341 747 m -22 X
 s 341 756 m -22 X s 363 764 m -44 X s 341 818 m -22 X s 341 850 m -22 X s 341 872 m -22 X s 341 890 m -22 X s 341 904 m -22 X s 341 916 m -22 X s 341 926 m -22 X s 341 935 m -22 X s 363 944 m -44 X s 341 998 m -22 X s 341 1029 m -22 X s 341 1052 m
 -22 X s 341 1069 m -22 X s 341 1083 m -22 X s 341 1095 m -22 X s 341 1106 m -22 X s 341 1115 m -22 X s 363 1123 m -44 X s 341 1177 m -22 X s 341 1209 m -22 X s 341 1231 m -22 X s 341 1249 m -22 X s 341 1263 m -22 X s 341 1275 m -22 X s 341 1286 m
 -22 X s 341 1295 m -22 X s 363 1303 m -44 X s 341 1357 m -22 X s 341 1389 m -22 X s 341 1411 m -22 X s 341 1429 m -22 X s 341 1443 m -22 X s 341 1455 m -22 X s 341 1465 m -22 X s 341 1474 m -22 X s 363 1483 m -44 X s 341 1537 m -22 X s 341 1568 m
 -22 X s 341 1591 m -22 X s 341 1608 m -22 X s 341 1622 m -22 X s 341 1634 m -22 X s 341 1645 m -22 X s 341 1654 m -22 X s 363 1662 m -44 X s 341 1716 m -22 X s 2179 584 m 1145 Y s 2157 638 m 22 X s 2157 670 m 22 X s 2157 692 m 22 X s 2157 710 m 22 X
 s 2157 724 m 22 X s 2157 736 m 22 X s 2157 747 m 22 X s 2157 756 m 22 X s 2136 764 m 43 X s 2157 818 m 22 X s 2157 850 m 22 X s 2157 872 m 22 X s 2157 890 m 22 X s 2157 904 m 22 X s 2157 916 m 22 X s 2157 926 m 22 X s 2157 935 m 22 X s 2136 944 m 43
 X s 2157 998 m 22 X s 2157 1029 m 22 X s 2157 1052 m 22 X s 2157 1069 m 22 X s 2157 1083 m 22 X s 2157 1095 m 22 X s 2157 1106 m 22 X s 2157 1115 m 22 X s 2136 1123 m 43 X s 2157 1177 m 22 X s 2157 1209 m 22 X s 2157 1231 m 22 X s 2157 1249 m 22 X s
 2157 1263 m 22 X s 2157 1275 m 22 X s 2157 1286 m 22 X s 2157 1295 m 22 X s 2136 1303 m 43 X s 2157 1357 m 22 X s 2157 1389 m 22 X s 2157 1411 m 22 X s 2157 1429 m 22 X s 2157 1443 m 22 X s 2157 1455 m 22 X s 2157 1465 m 22 X s 2157 1474 m 22 X s
 2136 1483 m 43 X s 2157 1537 m 22 X s 2157 1568 m 22 X s 2157 1591 m 22 X s 2157 1608 m 22 X s 2157 1622 m 22 X s 2157 1634 m 22 X s 2157 1645 m 22 X s 2157 1654 m 22 X s 2136 1662 m 43 X s 2157 1716 m 22 X s
 gsave  2263 1770 2 313 C 406.765 1447.41 t 0 r /Helvetica findfont 64.4212 sf 0 0 m (VR0LmetSig for MB\255GGo) show NC gr 
 gsave  2263 1770 2 313 C 1464.36 1630.45 t 0 r /Helvetica findfont 64.4212 sf 0 0 m (SM Total) show NC gr  1 1 1 c 1338 1616 m 107 X 64 Y -107 X f 1 0 0 c 6 lw 1338 1648 m 107 X s black
 gsave  2263 1770 2 313 C 1464.36 1538.93 t 0 r /Helvetica findfont 64.4212 sf 0 0 m (Data) show NC gr  1391 1529 m 55 Y s 3 lw 1391 1557 m20 6 lw
 gsave  2263 1770 2 313 C 1464.36 1447.41 t 0 r /Helvetica findfont 64.4212 sf 0 0 m (W+jets) show NC gr  0.4 0.6 1 c 3 lw 1338 1434 m 107 X 64 Y -107 X f 6 lw black 3 lw 1338 1498 m 107 X s 1338 1434 m 107 X s 1445 1434 m 64 Y s 1338 1434 m 64 Y s
 gsave  2263 1770 2 313 C 1498.25 1355.88 t 0 r /Helvetica findfont 64.4212 sf 0 0 m (\(+EW\) & single top) show NC gr 
 gsave  2263 1770 2 313 C 1481.3 1355.88 t 0 r /Helvetica findfont 64.4212 sf 0 0 m (t) show NC gr  1481 1407 m 17 X s
 gsave  2263 1770 2 313 C 1464.36 1355.88 t 0 r /Helvetica findfont 64.4212 sf 0 0 m (t) show NC gr  0.6 1 0.6 c 1338 1343 m 107 X 63 Y -107 X f black 1338 1406 m 107 X s 1338 1343 m 107 X s 1445 1343 m 63 Y s 1338 1343 m 63 Y s
 gsave  2263 1770 2 313 C 1464.36 1264.36 t 0 r /Helvetica findfont 64.4212 sf 0 0 m (Z+jets) show NC gr  1 0.8 0.4 c 1338 1252 m 107 X 63 Y -107 X f black 1338 1315 m 107 X s 1338 1252 m 107 X s 1445 1252 m 63 Y s 1338 1252 m 63 Y s
 gsave  2263 1770 2 313 C 1464.36 1172.84 t 0 r /Helvetica findfont 64.4212 sf 0 0 m (Diboson) show NC gr  1 0.4 0.6 c 1338 1161 m 107 X 63 Y -107 X f black 1338 1224 m 107 X s 1338 1161 m 107 X s 1445 1161 m 63 Y s 1338 1161 m 63 Y s
 gsave  2263 1770 2 313 C 1464.36 1081.32 t 0 r /Helvetica findfont 64.4212 sf 0 0 m (Multi\255jet) show NC gr  0 0 0.4 c 1338 1070 m 107 X 63 Y -107 X f black 1338 1133 m 107 X s 1338 1070 m 107 X s 1445 1070 m 63 Y s 1338 1070 m 63 Y s
 gsave  2263 1770 2 313 C 911.832 1566.05 t 0 r /Helvetica findfont 44.0776 sf 0 0 m (\2551) show NC gr 
 gsave  2263 1770 2 313 C 471.17 1535.54 t 0 r /Helvetica findfont 64.4212 sf 0 0 m (=13TeV, 139 fb) show NC gr 
 gsave  2263 1770 2 313 C 440.662 1535.54 t 0 r /Helvetica findfont 64.4212 sf 0 0 m (s) show NC gr  6 lw 420 1573 m 7 -41 d s 3 lw 427 1532 m 7 61 d s 434 1593 m 37 X s 1 1 1 c 2254 561 2 2 bf black 1 1 1 c black 1860 358 318 187 bl 1 1 1 c black
 1860 358 318 187 bl 6 lw 1 1 1 c black 3 lw 411 396 m20 6 lw 3 lw 597 356 m20 6 lw 3 lw 783 334 m20 6 lw 3 lw 969 361 m20 6 lw 3 lw 1155 329 m20 6 lw 3 lw 1341 345 m20 6 lw 3 lw 318 187 m 1860 X s
 gsave  2254 561 2 2 C 2105.01 64.4045 t 0 r /Helvetica findfont 50.9797 sf 0 0 m (1/2) show NC gr 
 gsave  2254 561 2 2 C 1888.07 23.728 t 0 r /Helvetica findfont 78.1689 sf 0 0 m ( [GeV]) show NC gr 
 gsave  2254 561 2 2 C 1857.56 3.38971 t 0 r /Helvetica findfont 50.9797 sf 0 0 m (T) show NC gr 
 gsave  2254 561 2 2 C 1806.72 23.728 t 0 r /Helvetica findfont 78.1689 sf 0 0 m (H) show NC gr  6 lw 1773 81 m 10 -78 d s 3 lw 1783 3 m 14 99 d s 1797 102 m 91 X s
 gsave  2254 561 2 2 C 1735.53 23.728 t 0 r /Helvetica findfont 78.1689 sf 0 0 m (/) show NC gr 
 gsave  2254 561 2 2 C 1630.45 61.0148 t 0 r /Helvetica findfont 50.9797 sf 0 0 m (miss) show NC gr 
 gsave  2254 561 2 2 C 1630.45 3.38971 t 0 r /Helvetica findfont 50.9797 sf 0 0 m (T) show NC gr 
 gsave  2254 561 2 2 C 1579.61 23.728 t 0 r /Helvetica findfont 78.1689 sf 0 0 m (E) show NC gr  318 201 m -14 Y s 364 194 m -7 Y s 411 194 m -7 Y s 457 194 m -7 Y s 504 201 m -14 Y s 550 194 m -7 Y s 597 194 m -7 Y s 643 194 m -7 Y s 690 201 m -14 Y
 s 736 194 m -7 Y s 783 194 m -7 Y s 829 194 m -7 Y s 876 201 m -14 Y s 923 194 m -7 Y s 969 194 m -7 Y s 1016 194 m -7 Y s 1062 201 m -14 Y s 1109 194 m -7 Y s 1155 194 m -7 Y s 1202 194 m -7 Y s 1248 201 m -14 Y s 1295 194 m -7 Y s 1341 194 m -7 Y
 s 1388 194 m -7 Y s 1434 201 m -14 Y s 1481 194 m -7 Y s 1527 194 m -7 Y s 1574 194 m -7 Y s 1620 201 m -14 Y s 1667 194 m -7 Y s 1713 194 m -7 Y s 1760 194 m -7 Y s 1806 201 m -14 Y s 1853 194 m -7 Y s 1899 194 m -7 Y s 1946 194 m -7 Y s 1992 201 m
 -14 Y s 2039 194 m -7 Y s 2085 194 m -7 Y s 2132 194 m -7 Y s 2178 201 m -14 Y s
 gsave  2254 561 2 2 C 271.177 118.64 t 0 r /Helvetica findfont 78.1689 sf 0 0 m (10) show NC gr 
 gsave  2254 561 2 2 C 457.611 118.64 t 0 r /Helvetica findfont 78.1689 sf 0 0 m (12) show NC gr 
 gsave  2254 561 2 2 C 644.045 118.64 t 0 r /Helvetica findfont 78.1689 sf 0 0 m (14) show NC gr 
 gsave  2254 561 2 2 C 830.479 118.64 t 0 r /Helvetica findfont 78.1689 sf 0 0 m (16) show NC gr 
 gsave  2254 561 2 2 C 1016.91 118.64 t 0 r /Helvetica findfont 78.1689 sf 0 0 m (18) show NC gr 
 gsave  2254 561 2 2 C 1203.35 118.64 t 0 r /Helvetica findfont 78.1689 sf 0 0 m (20) show NC gr 
 gsave  2254 561 2 2 C 1389.78 118.64 t 0 r /Helvetica findfont 78.1689 sf 0 0 m (22) show NC gr 
 gsave  2254 561 2 2 C 1572.83 118.64 t 0 r /Helvetica findfont 78.1689 sf 0 0 m (24) show NC gr 
 gsave  2254 561 2 2 C 1759.26 118.64 t 0 r /Helvetica findfont 78.1689 sf 0 0 m (26) show NC gr 
 gsave  2254 561 2 2 C 1945.69 118.64 t 0 r /Helvetica findfont 78.1689 sf 0 0 m (28) show NC gr 
 gsave  2254 561 2 2 C 2132.13 118.64 t 0 r /Helvetica findfont 78.1689 sf 0 0 m (30) show NC gr  318 545 m 1860 X s 318 531 m 14 Y s 364 538 m 7 Y s 411 538 m 7 Y s 457 538 m 7 Y s 504 531 m 14 Y s 550 538 m 7 Y s 597 538 m 7 Y s 643 538 m 7 Y s 690
 531 m 14 Y s 736 538 m 7 Y s 783 538 m 7 Y s 829 538 m 7 Y s 876 531 m 14 Y s 923 538 m 7 Y s 969 538 m 7 Y s 1016 538 m 7 Y s 1062 531 m 14 Y s 1109 538 m 7 Y s 1155 538 m 7 Y s 1202 538 m 7 Y s 1248 531 m 14 Y s 1295 538 m 7 Y s 1341 538 m 7 Y s
 1388 538 m 7 Y s 1434 531 m 14 Y s 1481 538 m 7 Y s 1527 538 m 7 Y s 1574 538 m 7 Y s 1620 531 m 14 Y s 1667 538 m 7 Y s 1713 538 m 7 Y s 1760 538 m 7 Y s 1806 531 m 14 Y s 1853 538 m 7 Y s 1899 538 m 7 Y s 1946 538 m 7 Y s 1992 531 m 14 Y s 2039
 538 m 7 Y s 2085 538 m 7 Y s 2132 538 m 7 Y s 2178 531 m 14 Y s 318 187 m 358 Y s
 gsave  2254 561 2 2 C 166.096 284.736 t 90 r /Helvetica findfont 67.9729 sf 0 0 m (Data/SM) show NC gr  361 203 m -43 X s 339 220 m -21 X s 339 236 m -21 X s 339 252 m -21 X s 339 268 m -21 X s 361 285 m -43 X s 339 301 m -21 X s 339 317 m -21 X s
 339 334 m -21 X s 339 350 m -21 X s 361 366 m -43 X s 339 382 m -21 X s 339 399 m -21 X s 339 415 m -21 X s 339 431 m -21 X s 361 447 m -43 X s 339 464 m -21 X s 339 480 m -21 X s 339 496 m -21 X s 339 512 m -21 X s 361 529 m -43 X s 361 203 m -43 X
 s 339 187 m -21 X s 361 529 m -43 X s
 gsave  2254 561 2 2 C 261.008 183.044 t 0 r /Helvetica findfont 57.777 sf 0 0 m (0) show NC gr 
 gsave  2254 561 2 2 C 213.552 261.008 t 0 r /Helvetica findfont 57.777 sf 0 0 m (0.5) show NC gr 
 gsave  2254 561 2 2 C 271.177 342.361 t 0 r /Helvetica findfont 57.777 sf 0 0 m (1) show NC gr 
 gsave  2254 561 2 2 C 213.552 423.714 t 0 r /Helvetica findfont 57.777 sf 0 0 m (1.5) show NC gr 
 gsave  2254 561 2 2 C 261.008 505.067 t 0 r /Helvetica findfont 57.777 sf 0 0 m (2) show NC gr  2178 187 m 358 Y s 2135 203 m 43 X s 2157 220 m 21 X s 2157 236 m 21 X s 2157 252 m 21 X s 2157 268 m 21 X s 2135 285 m 43 X s 2157 301 m 21 X s 2157 317
 m 21 X s 2157 334 m 21 X s 2157 350 m 21 X s 2135 366 m 43 X s 2157 382 m 21 X s 2157 399 m 21 X s 2157 415 m 21 X s 2157 431 m 21 X s 2135 447 m 43 X s 2157 464 m 21 X s 2157 480 m 21 X s 2157 496 m 21 X s 2157 512 m 21 X s 2135 529 m 43 X s 2135
 203 m 43 X s 2157 187 m 21 X s 2135 529 m 43 X s 9 lw 411 409 m 8 Y s 411 417 m cl s 411 382 m -8 Y s 411 374 m cl s 597 370 m 14 Y s 597 384 m cl s 597 343 m -15 Y s 597 328 m cl s 783 348 m 27 Y s 783 375 m cl s 783 321 m -25 Y s 783 296 m cl s
 969 375 m 61 Y s 969 436 m cl s 969 348 m -55 Y s 969 293 m cl s 1155 343 m 89 Y s 1155 432 m cl s 1155 316 m -68 Y s 1155 248 m cl s 1341 358 m 169 Y s 1341 527 m cl s 1341 331 m -103 Y s 1341 228 m cl s 1527 545 m -256 Y s 1527 289 m cl s 1713 545
 m -129 Y s 1713 416 m cl s 3 lw 411 396 597 356 783 334 969 361 1155 329 1341 345 6 { m20} R 9 lw 1 0 0 c 6 lw black 3 lw 1 0 0 c 2178 284 m -28 -28 d s 2178 312 m -56 -56 d s 2178 341 m -85 -85 d s 2178 369 m -114 -113 d s 2178 398 m -142 -142 d s
 2178 427 m -171 -171 d s 2178 455 m -186 -185 d s 2171 476 m -179 -178 d s 2142 476 m -166 -165 d s 2113 476 m -166 -165 d s 2085 476 m -166 -165 d s 2056 476 m -166 -165 d s 2027 476 m -35 -35 d s 1972 421 m -111 -110 d s 1999 476 m -7 -6 d s 1943
 421 m -110 -110 d s 1915 421 m -109 -108 d s 1886 421 m -96 -95 d s 1857 421 m -95 -95 d s 1829 421 m -96 -95 d s 1785 406 m -81 -80 d s 1756 406 m -80 -80 d s 1727 406 m -80 -80 d s 1699 406 m -82 -82 d s 1670 406 m -82 -82 d s 1641 406 m -82 -82 d
 s 1614 408 m -83 -84 d s 1586 408 m -84 -84 d s 1557 408 m -84 -84 d s 1528 408 m -83 -84 d s 1499 408 m -70 -70 d s 1471 408 m -71 -70 d s 1442 408 m -8 -8 d s 1429 394 m -57 -56 d s 1400 394 m -57 -56 d s 1371 394 m -57 -56 d s 1343 394 m -57 -56
 d s 1314 394 m -57 -56 d s 1285 394 m -56 -56 d s 1257 394 m -57 -56 d s 1227 394 m -55 -56 d s 1199 394 m -56 -56 d s 1170 394 m -56 -56 d s 1141 394 m -55 -56 d s 1113 394 m -51 -51 d s 1084 394 m -43 -42 d s 1042 381 m -29 -29 d s 1013 381 m -29
 -29 d s 985 381 m -30 -29 d s 956 381 m -29 -29 d s 927 381 m -29 -29 d s 898 381 m -26 -27 d s 867 378 m -24 -24 d s 838 378 m -23 -24 d s 810 378 m -24 -24 d s 781 378 m -24 -24 d s 752 378 m -23 -24 d s 723 378 m -23 -24 d s 695 378 m -24 -24 d s
 667 379 m -25 -25 d s 638 379 m -25 -25 d s 610 379 m -26 -25 d s 581 379 m -25 -25 d s 552 379 m -25 -25 d s 523 379 m -23 -24 d s 493 377 m -22 -22 d s 465 377 m -22 -22 d s 318 231 m s 436 377 m -22 -22 d s 318 259 m s 407 377 m -22 -22 d s 318
 288 m s 378 377 m -22 -22 d s 318 317 m s 350 377 m -22 -22 d s 318 345 m s 321 377 m -3 -3 d s 6 lw black[ 4 8] 0 sd 3 lw 318 447 m 1860 X s 318 285 m 1860 X s 1 0 0 c[  12 12 ] 0 sd 6 lw 318 366 m 1860 X s
 gr  gr showpage
end
%%EOF
