%!PS-Adobe-2.0 EPSF-2.0
%%BoundingBox:  0 0 567 521
%%Title: Distributions/metsqrtmeffInc_met_distrVR0LmetSig_MB-SSd_afterFit_forThesis.eps: canvas
%%Creator: ROOT Version 6.04/16
%%CreationDate: Tue May 19 22:06:32 2020
%%DocumentNeededResources: ProcSet (FontSetInit)
%%EndComments
%%BeginProlog
80 dict begin
/s {stroke} def /l {lineto} def /m {moveto} def /t {translate} def
/r {rotate} def /rl {roll}  def /R {repeat} def
/d {rlineto} def /rm {rmoveto} def /gr {grestore} def /f {eofill} def
/c {setrgbcolor} def /black {0 setgray} def /sd {setdash} def
/cl {closepath} def /sf {scalefont setfont} def /lw {setlinewidth} def
/box {m dup 0 exch d exch 0 d 0 exch neg d cl} def
/NC{systemdict begin initclip end}def/C{NC box clip newpath}def
/bl {box s} def /bf {gsave box gsave f grestore 1 lw [] 0 sd s grestore} def /Y { 0 exch d} def /X { 0 d} def 
/K {{pop pop 0 moveto} exch kshow} bind def
/ita {/ang 15 def gsave [1 0 ang dup sin exch cos div 1 0 0] concat} def 
/mp {newpath /y exch def /x exch def} def
/side {[w .77 mul w .23 mul] .385 w mul sd w 0 l currentpoint t -144 r} def
/mr {mp x y w2 0 360 arc} def /m24 {mr s} def /m20 {mr f} def
/mb {mp x y w2 add m w2 neg 0 d 0 w neg d w 0 d 0 w d cl} def
/mt {mp x y w2 add m w2 neg w neg d w 0 d cl} def
/m21 {mb f} def /m25 {mb s} def /m22 {mt f} def /m26{mt s} def
/m23 {mp x y w2 sub m w2 w d w neg 0 d cl f} def
/m27 {mp x y w2 add m w3 neg w2 neg d w3 w2 neg d w3 w2 d cl s} def
/m28 {mp x w2 sub y w2 sub w3 add m w3 0 d  0 w3 neg d w3 0 d 0 w3 d w3 0 d  0 w3 d w3 neg 0 d 0 w3 d w3 neg 0 d 0 w3 neg d w3 neg 0 d cl s } def
/m29 {mp gsave x w2 sub y w2 add w3 sub m currentpoint t 4 {side} repeat cl fill gr} def
/m30 {mp gsave x w2 sub y w2 add w3 sub m currentpoint t 4 {side} repeat cl s gr} def
/m31 {mp x y w2 sub m 0 w d x w2 sub y m w 0 d x w2 sub y w2 add m w w neg d x w2 sub y w2 sub m w w d s} def
/m32 {mp x y w2 sub m w2 w d w neg 0 d cl s} def
/m33 {mp x y w2 add m w3 neg w2 neg d w3 w2 neg d w3 w2 d cl f} def
/m34 {mp x w2 sub y w2 sub w3 add m w3 0 d  0 w3 neg d w3 0 d 0 w3 d w3 0 d  0 w3 d w3 neg 0 d 0 w3 d w3 neg 0 d 0 w3 neg d w3 neg 0 d cl f } def
/m2 {mp x y w2 sub m 0 w d x w2 sub y m w 0 d s} def
/m5 {mp x w2 sub y w2 sub m w w d x w2 sub y w2 add m w w neg d s} def
%%IncludeResource: ProcSet (FontSetInit)
%%IncludeResource: font Times-Roman
%%IncludeResource: font Times-Italic
%%IncludeResource: font Times-Bold
%%IncludeResource: font Times-BoldItalic
%%IncludeResource: font Helvetica
%%IncludeResource: font Helvetica-Oblique
%%IncludeResource: font Helvetica-Bold
%%IncludeResource: font Helvetica-BoldOblique
%%IncludeResource: font Courier
%%IncludeResource: font Courier-Oblique
%%IncludeResource: font Courier-Bold
%%IncludeResource: font Courier-BoldOblique
%%IncludeResource: font Symbol
%%IncludeResource: font ZapfDingbats
/reEncode {exch findfont dup length dict begin {1 index /FID eq  {pop pop} {def} ifelse } forall /Encoding exch def currentdict end dup /FontName get exch definefont pop } def [/Times-Bold /Times-Italic /Times-BoldItalic /Helvetica /Helvetica-Oblique
 /Helvetica-Bold /Helvetica-BoldOblique /Courier /Courier-Oblique /Courier-Bold /Courier-BoldOblique /Times-Roman /AvantGarde-Book /AvantGarde-BookOblique /AvantGarde-Demi /AvantGarde-DemiOblique /Bookman-Demi /Bookman-DemiItalic /Bookman-Light
 /Bookman-LightItalic /Helvetica-Narrow /Helvetica-Narrow-Bold /Helvetica-Narrow-BoldOblique /Helvetica-Narrow-Oblique /NewCenturySchlbk-Roman /NewCenturySchlbk-Bold /NewCenturySchlbk-BoldItalic /NewCenturySchlbk-Italic /Palatino-Bold
 /Palatino-BoldItalic /Palatino-Italic /Palatino-Roman ] {ISOLatin1Encoding reEncode } forall
%%EndProlog
%%BeginSetup
%%EndSetup
newpath  gsave  .25 .25 scale  gsave  0 0 t black[  ] 0 sd 3 lw 1 1 1 c 2268 2085 0 0 bf black 1 1 1 c 2263 1770 2 313 bf black 1 1 1 c black 1860 1145 319 584 bl 1 1 1 c black 1860 1145 319 584 bl 6 lw 1 1 1 c black 3 lw /w 33 def /w2 {w 2 div} def
 /w3 {w 3 div} def 366 1234 m20 6 lw 3 lw 459 1211 m20 6 lw 3 lw 552 1176 m20 6 lw 3 lw 645 1138 m20 6 lw 3 lw 738 1098 m20 6 lw 3 lw 831 1042 m20 6 lw 3 lw 924 997 m20 6 lw 3 lw 1017 959 m20 6 lw 3 lw 1110 926 m20 6 lw 1203 816 m 16 Y s 1203 859 m 6
 Y s 3 lw 1203 845 m20 6 lw 1296 816 m 16 Y s 1296 859 m 6 Y s 3 lw 1296 845 m20 6 lw 1389 693 m 62 Y s 1389 782 m 19 Y s 3 lw 1389 768 m20 6 lw 1482 584 m 128 Y s 1482 739 m 29 Y s 3 lw 1482 726 m20 6 lw 1668 584 m 128 Y s 1668 739 m 29 Y s 3 lw
 1668 726 m20 6 lw 3 lw 319 584 m 1860 X s
 gsave  2263 1770 2 313 C 2101.62 396.596 t 0 r /Helvetica findfont 54.2494 sf 0 0 m (1/2) show NC gr 
 gsave  2263 1770 2 313 C 1874.51 355.92 t 0 r /Helvetica findfont 81.3741 sf 0 0 m ( [GeV]) show NC gr 
 gsave  2263 1770 2 313 C 1840.61 332.192 t 0 r /Helvetica findfont 54.2494 sf 0 0 m (T) show NC gr 
 gsave  2263 1770 2 313 C 1786.38 355.92 t 0 r /Helvetica findfont 81.3741 sf 0 0 m (H) show NC gr  6 lw 1749 417 m 14 -85 d s 3 lw 1763 332 m 13 105 d s 1776 437 m 99 X s
 gsave  2263 1770 2 313 C 1711.8 355.92 t 0 r /Helvetica findfont 81.3741 sf 0 0 m (/) show NC gr 
 gsave  2263 1770 2 313 C 1599.94 396.596 t 0 r /Helvetica findfont 54.2494 sf 0 0 m (miss) show NC gr 
 gsave  2263 1770 2 313 C 1599.94 332.192 t 0 r /Helvetica findfont 54.2494 sf 0 0 m (T) show NC gr 
 gsave  2263 1770 2 313 C 1549.1 355.92 t 0 r /Helvetica findfont 81.3741 sf 0 0 m (E) show NC gr  319 584 m cl s 366 584 m cl s 412 584 m cl s 459 584 m cl s 505 584 m cl s 552 584 m cl s 598 584 m cl s 645 584 m cl s 691 584 m cl s 738 584 m cl s
 784 584 m cl s 831 584 m cl s 877 584 m cl s 924 584 m cl s 970 584 m cl s 1017 584 m cl s 1063 584 m cl s 1110 584 m cl s 1156 584 m cl s 1203 584 m cl s 1249 584 m cl s 1296 584 m cl s 1342 584 m cl s 1389 584 m cl s 1435 584 m cl s 1482 584 m cl
 s 1528 584 m cl s 1575 584 m cl s 1621 584 m cl s 1668 584 m cl s 1714 584 m cl s 1761 584 m cl s 1807 584 m cl s 1854 584 m cl s 1900 584 m cl s 1947 584 m cl s 1993 584 m cl s 2040 584 m cl s 2086 584 m cl s 2133 584 m cl s 2179 584 m cl s 319
 1729 m 1860 X s 319 1729 m cl s 366 1729 m cl s 412 1729 m cl s 459 1729 m cl s 505 1729 m cl s 552 1729 m cl s 598 1729 m cl s 645 1729 m cl s 691 1729 m cl s 738 1729 m cl s 784 1729 m cl s 831 1729 m cl s 877 1729 m cl s 924 1729 m cl s 970 1729
 m cl s 1017 1729 m cl s 1063 1729 m cl s 1110 1729 m cl s 1156 1729 m cl s 1203 1729 m cl s 1249 1729 m cl s 1296 1729 m cl s 1342 1729 m cl s 1389 1729 m cl s 1435 1729 m cl s 1482 1729 m cl s 1528 1729 m cl s 1575 1729 m cl s 1621 1729 m cl s 1668
 1729 m cl s 1714 1729 m cl s 1761 1729 m cl s 1807 1729 m cl s 1854 1729 m cl s 1900 1729 m cl s 1947 1729 m cl s 1993 1729 m cl s 2040 1729 m cl s 2086 1729 m cl s 2133 1729 m cl s 2179 1729 m cl s 319 584 m 1145 Y s
 gsave  2263 1770 2 313 C 125.419 1654.18 t 90 r /Helvetica findfont 54.2494 sf 0 0 m (1/2) show NC gr 
 gsave  2263 1770 2 313 C 166.096 1064.37 t 90 r /Helvetica findfont 81.3741 sf 0 0 m (Events / 2 [GeV]) show NC gr  341 627 m -22 X s 341 652 m -22 X s 341 669 m -22 X s 341 683 m -22 X s 341 694 m -22 X s 341 704 m -22 X s 341 712 m -22 X s 341 719
 m -22 X s 363 726 m -44 X s
 gsave  2263 1770 2 313 C 300.555 698.582 t 0 r  -36 0 t /Helvetica findfont 64.4212 sf 0 0 m (1) show NC gr  341 768 m -22 X s 341 793 m -22 X s 341 811 m -22 X s 341 825 m -22 X s 341 836 m -22 X s 341 845 m -22 X s 341 853 m -22 X s 341 861 m -22
 X s 363 867 m -44 X s
 gsave  2263 1770 2 313 C 300.555 839.972 t 0 r  -73 0 t /Helvetica findfont 64.4212 sf 0 0 m (10) show NC gr  341 910 m -22 X s 341 935 m -22 X s 341 952 m -22 X s 341 966 m -22 X s 341 977 m -22 X s 341 987 m -22 X s 341 995 m -22 X s 341 1002 m
 -22 X s 363 1008 m -44 X s
 gsave  2263 1770 2 313 C 274.567 1006.74 t 0 r /Helvetica findfont 44.0776 sf 0 0 m (2) show NC gr 
 gsave  2263 1770 2 313 C 203.383 979.626 t 0 r /Helvetica findfont 64.4212 sf 0 0 m (10) show NC gr  341 1051 m -22 X s 341 1076 m -22 X s 341 1094 m -22 X s 341 1107 m -22 X s 341 1119 m -22 X s 341 1128 m -22 X s 341 1136 m -22 X s 341 1143 m -22
 X s 363 1150 m -44 X s
 gsave  2263 1770 2 313 C 274.567 1152.5 t 0 r /Helvetica findfont 44.0776 sf 0 0 m (3) show NC gr 
 gsave  2263 1770 2 313 C 203.383 1121.99 t 0 r /Helvetica findfont 64.4212 sf 0 0 m (10) show NC gr  341 1192 m -22 X s 341 1217 m -22 X s 341 1235 m -22 X s 341 1249 m -22 X s 341 1260 m -22 X s 341 1269 m -22 X s 341 1278 m -22 X s 341 1285 m -22
 X s 363 1291 m -44 X s
 gsave  2263 1770 2 313 C 274.567 1288.09 t 0 r /Helvetica findfont 44.0776 sf 0 0 m (4) show NC gr 
 gsave  2263 1770 2 313 C 203.383 1260.97 t 0 r /Helvetica findfont 64.4212 sf 0 0 m (10) show NC gr  341 1334 m -22 X s 341 1359 m -22 X s 341 1376 m -22 X s 341 1390 m -22 X s 341 1401 m -22 X s 341 1411 m -22 X s 341 1419 m -22 X s 341 1426 m -22
 X s 363 1433 m -44 X s
 gsave  2263 1770 2 313 C 274.567 1433.85 t 0 r /Helvetica findfont 44.0776 sf 0 0 m (5) show NC gr 
 gsave  2263 1770 2 313 C 203.383 1403.34 t 0 r /Helvetica findfont 64.4212 sf 0 0 m (10) show NC gr  341 1475 m -22 X s 341 1500 m -22 X s 341 1518 m -22 X s 341 1531 m -22 X s 341 1543 m -22 X s 341 1552 m -22 X s 341 1560 m -22 X s 341 1568 m -22
 X s 363 1574 m -44 X s
 gsave  2263 1770 2 313 C 274.567 1576.22 t 0 r /Helvetica findfont 44.0776 sf 0 0 m (6) show NC gr 
 gsave  2263 1770 2 313 C 203.383 1545.71 t 0 r /Helvetica findfont 64.4212 sf 0 0 m (10) show NC gr  341 1617 m -22 X s 341 1641 m -22 X s 341 1659 m -22 X s 341 1673 m -22 X s 341 1684 m -22 X s 341 1694 m -22 X s 341 1702 m -22 X s 341 1709 m -22
 X s 363 1715 m -44 X s
 gsave  2263 1770 2 313 C 274.567 1715.19 t 0 r /Helvetica findfont 44.0776 sf 0 0 m (7) show NC gr 
 gsave  2263 1770 2 313 C 203.383 1688.08 t 0 r /Helvetica findfont 64.4212 sf 0 0 m (10) show NC gr  2179 584 m 1145 Y s 2157 627 m 22 X s 2157 652 m 22 X s 2157 669 m 22 X s 2157 683 m 22 X s 2157 694 m 22 X s 2157 704 m 22 X s 2157 712 m 22 X s
 2157 719 m 22 X s 2136 726 m 43 X s 2157 768 m 22 X s 2157 793 m 22 X s 2157 811 m 22 X s 2157 825 m 22 X s 2157 836 m 22 X s 2157 845 m 22 X s 2157 853 m 22 X s 2157 861 m 22 X s 2136 867 m 43 X s 2157 910 m 22 X s 2157 935 m 22 X s 2157 952 m 22 X
 s 2157 966 m 22 X s 2157 977 m 22 X s 2157 987 m 22 X s 2157 995 m 22 X s 2157 1002 m 22 X s 2136 1008 m 43 X s 2157 1051 m 22 X s 2157 1076 m 22 X s 2157 1094 m 22 X s 2157 1107 m 22 X s 2157 1119 m 22 X s 2157 1128 m 22 X s 2157 1136 m 22 X s 2157
 1143 m 22 X s 2136 1150 m 43 X s 2157 1192 m 22 X s 2157 1217 m 22 X s 2157 1235 m 22 X s 2157 1249 m 22 X s 2157 1260 m 22 X s 2157 1269 m 22 X s 2157 1278 m 22 X s 2157 1285 m 22 X s 2136 1291 m 43 X s 2157 1334 m 22 X s 2157 1359 m 22 X s 2157
 1376 m 22 X s 2157 1390 m 22 X s 2157 1401 m 22 X s 2157 1411 m 22 X s 2157 1419 m 22 X s 2157 1426 m 22 X s 2136 1433 m 43 X s 2157 1475 m 22 X s 2157 1500 m 22 X s 2157 1518 m 22 X s 2157 1531 m 22 X s 2157 1543 m 22 X s 2157 1552 m 22 X s 2157
 1560 m 22 X s 2157 1568 m 22 X s 2136 1574 m 43 X s 2157 1617 m 22 X s 2157 1641 m 22 X s 2157 1659 m 22 X s 2157 1673 m 22 X s 2157 1684 m 22 X s 2157 1694 m 22 X s 2157 1702 m 22 X s 2157 1709 m 22 X s 2136 1715 m 43 X s 0.4 0.6 1 c black 0.4 0.6
 1 c 319 584 m 653 Y 93 X -23 Y 93 X -37 Y 93 X -38 Y 93 X -43 Y 93 X -45 Y 93 X -47 Y 93 X -47 Y 93 X -58 Y 93 X -42 Y 93 X -28 Y 93 X -65 Y 93 X -22 Y 93 X -63 Y 93 X -39 Y 93 X -56 Y 465 X f black 0.4 0.6 1 c black 319 1237 m 93 X -23 Y 93 X -37 Y
 93 X -38 Y 93 X -43 Y 93 X -45 Y 93 X -47 Y 93 X -47 Y 93 X -58 Y 93 X -42 Y 93 X -28 Y 93 X -65 Y 93 X -22 Y 93 X -63 Y 93 X -39 Y 93 X -56 Y 465 X s 0.999 0.999 0.999 c black 0.999 0.999 0.999 c 319 584 m 634 Y 93 X -22 Y 93 X -35 Y 93 X -38 Y 93
 X -44 Y 93 X -45 Y 93 X -45 Y 93 X -46 Y 93 X -59 Y 93 X -42 Y 93 X -24 Y 93 X -65 Y 93 X -15 Y 93 X -74 Y 93 X -27 Y 93 X -53 Y 465 X f black 0.999 0.999 0.999 c black 319 1218 m 93 X -22 Y 93 X -35 Y 93 X -38 Y 93 X -44 Y 93 X -45 Y 93 X -45 Y 93
 X -46 Y 93 X -59 Y 93 X -42 Y 93 X -24 Y 93 X -65 Y 93 X -15 Y 93 X -74 Y 93 X -27 Y 93 X -53 Y 465 X s 1 1 1 c black 319 1218 m 93 X -22 Y 93 X -35 Y 93 X -38 Y 93 X -44 Y 93 X -45 Y 93 X -45 Y 93 X -46 Y 93 X -59 Y 93 X -42 Y 93 X -24 Y 93 X -65 Y
 93 X -15 Y 93 X -74 Y 93 X -27 Y 93 X -53 Y 465 X s 0.6 1 0.6 c black 0.6 1 0.6 c 319 584 m 634 Y 93 X -22 Y 93 X -35 Y 93 X -38 Y 93 X -44 Y 93 X -45 Y 93 X -45 Y 93 X -46 Y 93 X -59 Y 93 X -42 Y 93 X -24 Y 93 X -65 Y 93 X -15 Y 93 X -74 Y 93 X -27
 Y 93 X -53 Y 465 X f black 0.6 1 0.6 c black 319 1218 m 93 X -22 Y 93 X -35 Y 93 X -38 Y 93 X -44 Y 93 X -45 Y 93 X -45 Y 93 X -46 Y 93 X -59 Y 93 X -42 Y 93 X -24 Y 93 X -65 Y 93 X -15 Y 93 X -74 Y 93 X -27 Y 93 X -53 Y 465 X s 0.999 0.999 0.999 c
 black 0.999 0.999 0.999 c 319 584 m 606 Y 93 X -24 Y 93 X -32 Y 93 X -35 Y 93 X -37 Y 93 X -38 Y 93 X -44 Y 93 X -42 Y 93 X -58 Y 93 X -39 Y 93 X -23 Y 93 X -65 Y 93 X -15 Y 93 X -74 Y 93 X -27 Y 93 X -53 Y 465 X f black 0.999 0.999 0.999 c black
 319 1190 m 93 X -24 Y 93 X -32 Y 93 X -35 Y 93 X -37 Y 93 X -38 Y 93 X -44 Y 93 X -42 Y 93 X -58 Y 93 X -39 Y 93 X -23 Y 93 X -65 Y 93 X -15 Y 93 X -74 Y 93 X -27 Y 93 X -53 Y 465 X s 1 1 1 c black 319 1190 m 93 X -24 Y 93 X -32 Y 93 X -35 Y 93 X
 -37 Y 93 X -38 Y 93 X -44 Y 93 X -42 Y 93 X -58 Y 93 X -39 Y 93 X -23 Y 93 X -65 Y 93 X -15 Y 93 X -74 Y 93 X -27 Y 93 X -53 Y 465 X s 1 0.8 0.4 c black 1 0.8 0.4 c 319 584 m 606 Y 93 X -24 Y 93 X -32 Y 93 X -35 Y 93 X -37 Y 93 X -38 Y 93 X -44 Y 93
 X -42 Y 93 X -58 Y 93 X -39 Y 93 X -23 Y 93 X -65 Y 93 X -15 Y 93 X -74 Y 93 X -27 Y 93 X -53 Y 465 X f black 1 0.8 0.4 c black 319 1190 m 93 X -24 Y 93 X -32 Y 93 X -35 Y 93 X -37 Y 93 X -38 Y 93 X -44 Y 93 X -42 Y 93 X -58 Y 93 X -39 Y 93 X -23 Y
 93 X -65 Y 93 X -15 Y 93 X -74 Y 93 X -27 Y 93 X -53 Y 465 X s 0.999 0.999 0.999 c black 0.999 0.999 0.999 c 319 584 m 473 Y 93 X -34 Y 93 X -30 Y 93 X -35 Y 93 X -35 Y 93 X -39 Y 93 X -50 Y 93 X -20 Y 93 X -48 Y 93 X -49 Y 93 X -93 Y 93 X 27 Y 93 X
 -67 Y 744 X f black 0.999 0.999 0.999 c black 319 1057 m 93 X -34 Y 93 X -30 Y 93 X -35 Y 93 X -35 Y 93 X -39 Y 93 X -50 Y 93 X -20 Y 93 X -48 Y 93 X -49 Y 93 X -93 Y 93 X 27 Y 93 X -67 Y 744 X s 1 1 1 c black 319 1057 m 93 X -34 Y 93 X -30 Y 93 X
 -35 Y 93 X -35 Y 93 X -39 Y 93 X -50 Y 93 X -20 Y 93 X -48 Y 93 X -49 Y 93 X -93 Y 93 X 27 Y 93 X -67 Y 744 X s 1 0.4 0.6 c black 1 0.4 0.6 c 319 584 m 473 Y 93 X -34 Y 93 X -30 Y 93 X -35 Y 93 X -35 Y 93 X -39 Y 93 X -50 Y 93 X -20 Y 93 X -48 Y 93
 X -49 Y 93 X -93 Y 93 X 27 Y 93 X -67 Y 744 X f black 1 0.4 0.6 c black 319 1057 m 93 X -34 Y 93 X -30 Y 93 X -35 Y 93 X -35 Y 93 X -39 Y 93 X -50 Y 93 X -20 Y 93 X -48 Y 93 X -49 Y 93 X -93 Y 93 X 27 Y 93 X -67 Y 744 X s 0.999 0.999 0.999 c black
 0.999 0.999 0.999 c 319 584 m 404 Y 93 X -101 Y 93 X -98 Y 93 X -78 Y 93 X -61 Y 93 X -66 Y 1395 X f black 0.999 0.999 0.999 c black 319 988 m 93 X -101 Y 93 X -98 Y 93 X -78 Y 93 X -61 Y 93 X -66 Y 1395 X s 1 1 1 c black 319 988 m 93 X -101 Y 93 X
 -98 Y 93 X -78 Y 93 X -61 Y 93 X -66 Y 1395 X s 0 0 0.4 c black 0 0 0.4 c 319 584 m 404 Y 93 X -101 Y 93 X -98 Y 93 X -78 Y 93 X -61 Y 93 X -66 Y 1395 X f black 0 0 0.4 c black 319 988 m 93 X -101 Y 93 X -98 Y 93 X -78 Y 93 X -61 Y 93 X -66 Y 1395 X
 s 1 0 0 c 6 lw 1 1 1 c black 1 0 0 c 319 1237 m 93 X -23 Y 93 X -37 Y 93 X -38 Y 93 X -43 Y 93 X -45 Y 93 X -47 Y 93 X -47 Y 93 X -58 Y 93 X -42 Y 93 X -28 Y 93 X -65 Y 93 X -22 Y 93 X -63 Y 93 X -39 Y 93 X -56 Y 465 X s black 3 lw 1 0 0 c 1 lw <<
 /PatternType 1 /PaintType 2 /TilingType 1 /BBox [ 0 0 100 100 ] /XStep 100 /YStep 100 /PaintProc { begin gsave 0 100 m 100 0 l s gr end } >> [ 0.24 0 0 0.24 0 0 ] makepattern /P05 exch def /cs {[/Pattern /DeviceRGB] setcolorspace} def /FA {f
 [/DeviceRGB] setcolorspace} def cs 1 0 0 P05 setcolor 319 584 m 655 Y 93 X -23 Y 93 X -36 Y 93 X -38 Y 93 X -44 Y 93 X -45 Y 93 X -45 Y 93 X -48 Y 93 X -42 Y 93 X -56 Y 93 X -23 Y 93 X -67 Y 93 X -7 Y 93 X -66 Y 93 X -31 Y 93 X -84 Y 2 Y -93 X 65 Y
 -93 X 53 Y -93 X 50 Y -93 X 62 Y -93 X 35 Y -93 X 19 Y -93 X 83 Y -93 X 48 Y -93 X 47 Y -93 X 45 Y -93 X 44 Y -93 X 38 Y -93 X 37 Y -93 X 23 Y -93 X -651 Y FA 6 lw 1 1 1 c 15 lw 1203 866 m s 1203 866 m cl s 1203 825 m -8 Y s 1203 817 m cl s 1296 866
 m s 1296 866 m cl s 1296 825 m -8 Y s 1296 817 m cl s 1389 789 m 16 Y s 1389 805 m cl s 1389 748 m -43 Y s 1389 705 m cl s 1482 746 m 31 Y s 1482 777 m cl s 1482 705 m -87 Y s 1482 618 m cl s 1668 746 m 31 Y s 1668 777 m cl s 1668 705 m -87 Y s 1668
 618 m cl s black 1 1 1 c 3 lw /w 43 def /w2 {w 2 div} def /w3 {w 3 div} def 366 1234 459 1211 552 1176 645 1138 738 1098 831 1042 924 997 1017 959 1110 926 1203 845 1296 845 1389 768 1482 726 13 { m20} R 15 lw 3 lw 1668 726 m20 15 lw black 6 lw 1 1
 1 c black 3 lw /w 33 def /w2 {w 2 div} def /w3 {w 3 div} def 366 1234 m20 6 lw 3 lw 459 1211 m20 6 lw 3 lw 552 1176 m20 6 lw 3 lw 645 1138 m20 6 lw 3 lw 738 1098 m20 6 lw 3 lw 831 1042 m20 6 lw 3 lw 924 997 m20 6 lw 3 lw 1017 959 m20 6 lw 3 lw 1110
 926 m20 6 lw 1203 816 m 16 Y s 1203 859 m 6 Y s 3 lw 1203 845 m20 6 lw 1296 816 m 16 Y s 1296 859 m 6 Y s 3 lw 1296 845 m20 6 lw 1389 693 m 62 Y s 1389 782 m 19 Y s 3 lw 1389 768 m20 6 lw 1482 584 m 128 Y s 1482 739 m 29 Y s 3 lw 1482 726 m20 6 lw
 1668 584 m 128 Y s 1668 739 m 29 Y s 3 lw 1668 726 m20 6 lw 1203 859 m 7 Y s 1203 866 m cl s 1203 832 m -15 Y s 1203 817 m cl s 1296 859 m 7 Y s 1296 866 m cl s 1296 832 m -15 Y s 1296 817 m cl s 1389 782 m 23 Y s 1389 805 m cl s 1389 755 m -50 Y s
 1389 705 m cl s 1482 739 m 38 Y s 1482 777 m cl s 1482 712 m -94 Y s 1482 618 m cl s 1668 739 m 38 Y s 1668 777 m cl s 1668 712 m -94 Y s 1668 618 m cl s 3 lw 366 1234 459 1211 552 1176 645 1138 738 1098 831 1042 924 997 1017 959 1110 926 1203 845
 1296 845 1389 768 1482 726 13 { m20} R 6 lw 3 lw 1668 726 m20 6 lw 3 lw 319 584 m 1860 X s 319 584 m cl s 366 584 m cl s 412 584 m cl s 459 584 m cl s 505 584 m cl s 552 584 m cl s 598 584 m cl s 645 584 m cl s 691 584 m cl s 738 584 m cl s 784 584
 m cl s 831 584 m cl s 877 584 m cl s 924 584 m cl s 970 584 m cl s 1017 584 m cl s 1063 584 m cl s 1110 584 m cl s 1156 584 m cl s 1203 584 m cl s 1249 584 m cl s 1296 584 m cl s 1342 584 m cl s 1389 584 m cl s 1435 584 m cl s 1482 584 m cl s 1528
 584 m cl s 1575 584 m cl s 1621 584 m cl s 1668 584 m cl s 1714 584 m cl s 1761 584 m cl s 1807 584 m cl s 1854 584 m cl s 1900 584 m cl s 1947 584 m cl s 1993 584 m cl s 2040 584 m cl s 2086 584 m cl s 2133 584 m cl s 2179 584 m cl s 319 1729 m
 1860 X s 319 1729 m cl s 366 1729 m cl s 412 1729 m cl s 459 1729 m cl s 505 1729 m cl s 552 1729 m cl s 598 1729 m cl s 645 1729 m cl s 691 1729 m cl s 738 1729 m cl s 784 1729 m cl s 831 1729 m cl s 877 1729 m cl s 924 1729 m cl s 970 1729 m cl s
 1017 1729 m cl s 1063 1729 m cl s 1110 1729 m cl s 1156 1729 m cl s 1203 1729 m cl s 1249 1729 m cl s 1296 1729 m cl s 1342 1729 m cl s 1389 1729 m cl s 1435 1729 m cl s 1482 1729 m cl s 1528 1729 m cl s 1575 1729 m cl s 1621 1729 m cl s 1668 1729 m
 cl s 1714 1729 m cl s 1761 1729 m cl s 1807 1729 m cl s 1854 1729 m cl s 1900 1729 m cl s 1947 1729 m cl s 1993 1729 m cl s 2040 1729 m cl s 2086 1729 m cl s 2133 1729 m cl s 2179 1729 m cl s 319 584 m 1145 Y s 341 627 m -22 X s 341 652 m -22 X s
 341 669 m -22 X s 341 683 m -22 X s 341 694 m -22 X s 341 704 m -22 X s 341 712 m -22 X s 341 719 m -22 X s 363 726 m -44 X s 341 768 m -22 X s 341 793 m -22 X s 341 811 m -22 X s 341 825 m -22 X s 341 836 m -22 X s 341 845 m -22 X s 341 853 m -22 X
 s 341 861 m -22 X s 363 867 m -44 X s 341 910 m -22 X s 341 935 m -22 X s 341 952 m -22 X s 341 966 m -22 X s 341 977 m -22 X s 341 987 m -22 X s 341 995 m -22 X s 341 1002 m -22 X s 363 1008 m -44 X s 341 1051 m -22 X s 341 1076 m -22 X s 341 1094
 m -22 X s 341 1107 m -22 X s 341 1119 m -22 X s 341 1128 m -22 X s 341 1136 m -22 X s 341 1143 m -22 X s 363 1150 m -44 X s 341 1192 m -22 X s 341 1217 m -22 X s 341 1235 m -22 X s 341 1249 m -22 X s 341 1260 m -22 X s 341 1269 m -22 X s 341 1278 m
 -22 X s 341 1285 m -22 X s 363 1291 m -44 X s 341 1334 m -22 X s 341 1359 m -22 X s 341 1376 m -22 X s 341 1390 m -22 X s 341 1401 m -22 X s 341 1411 m -22 X s 341 1419 m -22 X s 341 1426 m -22 X s 363 1433 m -44 X s 341 1475 m -22 X s 341 1500 m
 -22 X s 341 1518 m -22 X s 341 1531 m -22 X s 341 1543 m -22 X s 341 1552 m -22 X s 341 1560 m -22 X s 341 1568 m -22 X s 363 1574 m -44 X s 341 1617 m -22 X s 341 1641 m -22 X s 341 1659 m -22 X s 341 1673 m -22 X s 341 1684 m -22 X s 341 1694 m
 -22 X s 341 1702 m -22 X s 341 1709 m -22 X s 363 1715 m -44 X s 2179 584 m 1145 Y s 2157 627 m 22 X s 2157 652 m 22 X s 2157 669 m 22 X s 2157 683 m 22 X s 2157 694 m 22 X s 2157 704 m 22 X s 2157 712 m 22 X s 2157 719 m 22 X s 2136 726 m 43 X s
 2157 768 m 22 X s 2157 793 m 22 X s 2157 811 m 22 X s 2157 825 m 22 X s 2157 836 m 22 X s 2157 845 m 22 X s 2157 853 m 22 X s 2157 861 m 22 X s 2136 867 m 43 X s 2157 910 m 22 X s 2157 935 m 22 X s 2157 952 m 22 X s 2157 966 m 22 X s 2157 977 m 22 X
 s 2157 987 m 22 X s 2157 995 m 22 X s 2157 1002 m 22 X s 2136 1008 m 43 X s 2157 1051 m 22 X s 2157 1076 m 22 X s 2157 1094 m 22 X s 2157 1107 m 22 X s 2157 1119 m 22 X s 2157 1128 m 22 X s 2157 1136 m 22 X s 2157 1143 m 22 X s 2136 1150 m 43 X s
 2157 1192 m 22 X s 2157 1217 m 22 X s 2157 1235 m 22 X s 2157 1249 m 22 X s 2157 1260 m 22 X s 2157 1269 m 22 X s 2157 1278 m 22 X s 2157 1285 m 22 X s 2136 1291 m 43 X s 2157 1334 m 22 X s 2157 1359 m 22 X s 2157 1376 m 22 X s 2157 1390 m 22 X s
 2157 1401 m 22 X s 2157 1411 m 22 X s 2157 1419 m 22 X s 2157 1426 m 22 X s 2136 1433 m 43 X s 2157 1475 m 22 X s 2157 1500 m 22 X s 2157 1518 m 22 X s 2157 1531 m 22 X s 2157 1543 m 22 X s 2157 1552 m 22 X s 2157 1560 m 22 X s 2157 1568 m 22 X s
 2136 1574 m 43 X s 2157 1617 m 22 X s 2157 1641 m 22 X s 2157 1659 m 22 X s 2157 1673 m 22 X s 2157 1684 m 22 X s 2157 1694 m 22 X s 2157 1702 m 22 X s 2157 1709 m 22 X s 2136 1715 m 43 X s
 gsave  2263 1770 2 313 C 406.765 1447.41 t 0 r /Helvetica findfont 64.4212 sf 0 0 m (VR0LmetSig for MB\255SSd) show NC gr 
 gsave  2263 1770 2 313 C 1464.36 1630.45 t 0 r /Helvetica findfont 64.4212 sf 0 0 m (SM Total) show NC gr  1 1 1 c 1338 1616 m 107 X 64 Y -107 X f 1 0 0 c 6 lw 1338 1648 m 107 X s black
 gsave  2263 1770 2 313 C 1464.36 1538.93 t 0 r /Helvetica findfont 64.4212 sf 0 0 m (Data) show NC gr  1391 1529 m 55 Y s 3 lw 1391 1557 m20 6 lw
 gsave  2263 1770 2 313 C 1464.36 1447.41 t 0 r /Helvetica findfont 64.4212 sf 0 0 m (W+jets) show NC gr  0.4 0.6 1 c 3 lw 1338 1434 m 107 X 64 Y -107 X f 6 lw black 3 lw 1338 1498 m 107 X s 1338 1434 m 107 X s 1445 1434 m 64 Y s 1338 1434 m 64 Y s
 gsave  2263 1770 2 313 C 1498.25 1355.88 t 0 r /Helvetica findfont 64.4212 sf 0 0 m (\(+EW\) & single top) show NC gr 
 gsave  2263 1770 2 313 C 1481.3 1355.88 t 0 r /Helvetica findfont 64.4212 sf 0 0 m (t) show NC gr  1481 1407 m 17 X s
 gsave  2263 1770 2 313 C 1464.36 1355.88 t 0 r /Helvetica findfont 64.4212 sf 0 0 m (t) show NC gr  0.6 1 0.6 c 1338 1343 m 107 X 63 Y -107 X f black 1338 1406 m 107 X s 1338 1343 m 107 X s 1445 1343 m 63 Y s 1338 1343 m 63 Y s
 gsave  2263 1770 2 313 C 1464.36 1264.36 t 0 r /Helvetica findfont 64.4212 sf 0 0 m (Z+jets) show NC gr  1 0.8 0.4 c 1338 1252 m 107 X 63 Y -107 X f black 1338 1315 m 107 X s 1338 1252 m 107 X s 1445 1252 m 63 Y s 1338 1252 m 63 Y s
 gsave  2263 1770 2 313 C 1464.36 1172.84 t 0 r /Helvetica findfont 64.4212 sf 0 0 m (Diboson) show NC gr  1 0.4 0.6 c 1338 1161 m 107 X 63 Y -107 X f black 1338 1224 m 107 X s 1338 1161 m 107 X s 1445 1161 m 63 Y s 1338 1161 m 63 Y s
 gsave  2263 1770 2 313 C 1464.36 1081.32 t 0 r /Helvetica findfont 64.4212 sf 0 0 m (Multi\255jet) show NC gr  0 0 0.4 c 1338 1070 m 107 X 63 Y -107 X f black 1338 1133 m 107 X s 1338 1070 m 107 X s 1445 1070 m 63 Y s 1338 1070 m 63 Y s
 gsave  2263 1770 2 313 C 911.832 1566.05 t 0 r /Helvetica findfont 44.0776 sf 0 0 m (\2551) show NC gr 
 gsave  2263 1770 2 313 C 471.17 1535.54 t 0 r /Helvetica findfont 64.4212 sf 0 0 m (=13TeV, 139 fb) show NC gr 
 gsave  2263 1770 2 313 C 440.662 1535.54 t 0 r /Helvetica findfont 64.4212 sf 0 0 m (s) show NC gr  6 lw 420 1573 m 7 -41 d s 3 lw 427 1532 m 7 61 d s 434 1593 m 37 X s 1 1 1 c 2254 561 2 2 bf black 1 1 1 c black 1860 358 318 187 bl 1 1 1 c black
 1860 358 318 187 bl 6 lw 1 1 1 c black 3 lw 364 359 m20 6 lw 3 lw 457 357 m20 6 lw 3 lw 550 363 m20 6 lw 3 lw 643 362 m20 6 lw 3 lw 736 372 m20 6 lw 3 lw 829 344 m20 6 lw 3 lw 923 348 m20 6 lw 3 lw 1016 373 m20 6 lw 3 lw 1109 456 m20 6 lw 3 lw 1202
 338 m20 6 lw 3 lw 1295 415 m20 6 lw 3 lw 1388 379 m20 6 lw 3 lw 1481 329 m20 6 lw 3 lw 318 187 m 1860 X s
 gsave  2254 561 2 2 C 2105.01 64.4045 t 0 r /Helvetica findfont 50.9797 sf 0 0 m (1/2) show NC gr 
 gsave  2254 561 2 2 C 1888.07 23.728 t 0 r /Helvetica findfont 78.1689 sf 0 0 m ( [GeV]) show NC gr 
 gsave  2254 561 2 2 C 1857.56 3.38971 t 0 r /Helvetica findfont 50.9797 sf 0 0 m (T) show NC gr 
 gsave  2254 561 2 2 C 1806.72 23.728 t 0 r /Helvetica findfont 78.1689 sf 0 0 m (H) show NC gr  6 lw 1773 81 m 10 -78 d s 3 lw 1783 3 m 14 99 d s 1797 102 m 91 X s
 gsave  2254 561 2 2 C 1735.53 23.728 t 0 r /Helvetica findfont 78.1689 sf 0 0 m (/) show NC gr 
 gsave  2254 561 2 2 C 1630.45 61.0148 t 0 r /Helvetica findfont 50.9797 sf 0 0 m (miss) show NC gr 
 gsave  2254 561 2 2 C 1630.45 3.38971 t 0 r /Helvetica findfont 50.9797 sf 0 0 m (T) show NC gr 
 gsave  2254 561 2 2 C 1579.61 23.728 t 0 r /Helvetica findfont 78.1689 sf 0 0 m (E) show NC gr  318 201 m -14 Y s 364 194 m -7 Y s 411 194 m -7 Y s 457 194 m -7 Y s 504 194 m -7 Y s 550 201 m -14 Y s 597 194 m -7 Y s 643 194 m -7 Y s 690 194 m -7 Y
 s 736 194 m -7 Y s 783 201 m -14 Y s 829 194 m -7 Y s 876 194 m -7 Y s 923 194 m -7 Y s 969 194 m -7 Y s 1016 201 m -14 Y s 1062 194 m -7 Y s 1109 194 m -7 Y s 1155 194 m -7 Y s 1202 194 m -7 Y s 1248 201 m -14 Y s 1295 194 m -7 Y s 1341 194 m -7 Y
 s 1388 194 m -7 Y s 1434 194 m -7 Y s 1481 201 m -14 Y s 1527 194 m -7 Y s 1574 194 m -7 Y s 1620 194 m -7 Y s 1667 194 m -7 Y s 1713 201 m -14 Y s 1760 194 m -7 Y s 1806 194 m -7 Y s 1853 194 m -7 Y s 1899 194 m -7 Y s 1946 201 m -14 Y s 1992 194 m
 -7 Y s 2039 194 m -7 Y s 2085 194 m -7 Y s 2132 194 m -7 Y s 2178 201 m -14 Y s
 gsave  2254 561 2 2 C 271.177 118.64 t 0 r /Helvetica findfont 78.1689 sf 0 0 m (10) show NC gr 
 gsave  2254 561 2 2 C 505.067 118.64 t 0 r /Helvetica findfont 78.1689 sf 0 0 m (15) show NC gr 
 gsave  2254 561 2 2 C 735.567 118.64 t 0 r /Helvetica findfont 78.1689 sf 0 0 m (20) show NC gr 
 gsave  2254 561 2 2 C 969.457 118.64 t 0 r /Helvetica findfont 78.1689 sf 0 0 m (25) show NC gr 
 gsave  2254 561 2 2 C 1203.35 118.64 t 0 r /Helvetica findfont 78.1689 sf 0 0 m (30) show NC gr 
 gsave  2254 561 2 2 C 1433.85 118.64 t 0 r /Helvetica findfont 78.1689 sf 0 0 m (35) show NC gr 
 gsave  2254 561 2 2 C 1667.74 118.64 t 0 r /Helvetica findfont 78.1689 sf 0 0 m (40) show NC gr 
 gsave  2254 561 2 2 C 1901.63 118.64 t 0 r /Helvetica findfont 78.1689 sf 0 0 m (45) show NC gr 
 gsave  2254 561 2 2 C 2132.13 118.64 t 0 r /Helvetica findfont 78.1689 sf 0 0 m (50) show NC gr  318 545 m 1860 X s 318 531 m 14 Y s 364 538 m 7 Y s 411 538 m 7 Y s 457 538 m 7 Y s 504 538 m 7 Y s 550 531 m 14 Y s 597 538 m 7 Y s 643 538 m 7 Y s 690
 538 m 7 Y s 736 538 m 7 Y s 783 531 m 14 Y s 829 538 m 7 Y s 876 538 m 7 Y s 923 538 m 7 Y s 969 538 m 7 Y s 1016 531 m 14 Y s 1062 538 m 7 Y s 1109 538 m 7 Y s 1155 538 m 7 Y s 1202 538 m 7 Y s 1248 531 m 14 Y s 1295 538 m 7 Y s 1341 538 m 7 Y s
 1388 538 m 7 Y s 1434 538 m 7 Y s 1481 531 m 14 Y s 1527 538 m 7 Y s 1574 538 m 7 Y s 1620 538 m 7 Y s 1667 538 m 7 Y s 1713 531 m 14 Y s 1760 538 m 7 Y s 1806 538 m 7 Y s 1853 538 m 7 Y s 1899 538 m 7 Y s 1946 531 m 14 Y s 1992 538 m 7 Y s 2039 538
 m 7 Y s 2085 538 m 7 Y s 2132 538 m 7 Y s 2178 531 m 14 Y s 318 187 m 358 Y s
 gsave  2254 561 2 2 C 166.096 284.736 t 90 r /Helvetica findfont 67.9729 sf 0 0 m (Data/SM) show NC gr  361 203 m -43 X s 339 220 m -21 X s 339 236 m -21 X s 339 252 m -21 X s 339 268 m -21 X s 361 285 m -43 X s 339 301 m -21 X s 339 317 m -21 X s
 339 334 m -21 X s 339 350 m -21 X s 361 366 m -43 X s 339 382 m -21 X s 339 399 m -21 X s 339 415 m -21 X s 339 431 m -21 X s 361 447 m -43 X s 339 464 m -21 X s 339 480 m -21 X s 339 496 m -21 X s 339 512 m -21 X s 361 529 m -43 X s 361 203 m -43 X
 s 339 187 m -21 X s 361 529 m -43 X s
 gsave  2254 561 2 2 C 261.008 183.044 t 0 r /Helvetica findfont 57.777 sf 0 0 m (0) show NC gr 
 gsave  2254 561 2 2 C 213.552 261.008 t 0 r /Helvetica findfont 57.777 sf 0 0 m (0.5) show NC gr 
 gsave  2254 561 2 2 C 271.177 342.361 t 0 r /Helvetica findfont 57.777 sf 0 0 m (1) show NC gr 
 gsave  2254 561 2 2 C 213.552 423.714 t 0 r /Helvetica findfont 57.777 sf 0 0 m (1.5) show NC gr 
 gsave  2254 561 2 2 C 261.008 505.067 t 0 r /Helvetica findfont 57.777 sf 0 0 m (2) show NC gr  2178 187 m 358 Y s 2135 203 m 43 X s 2157 220 m 21 X s 2157 236 m 21 X s 2157 252 m 21 X s 2157 268 m 21 X s 2135 285 m 43 X s 2157 301 m 21 X s 2157 317
 m 21 X s 2157 334 m 21 X s 2157 350 m 21 X s 2135 366 m 43 X s 2157 382 m 21 X s 2157 399 m 21 X s 2157 415 m 21 X s 2157 431 m 21 X s 2135 447 m 43 X s 2157 464 m 21 X s 2157 480 m 21 X s 2157 496 m 21 X s 2157 512 m 21 X s 2135 529 m 43 X s 2135
 203 m 43 X s 2157 187 m 21 X s 2135 529 m 43 X s 9 lw 923 361 m 3 Y s 923 364 m cl s 923 334 m -2 Y s 923 332 m cl s 1016 387 m 11 Y s 1016 398 m cl s 1016 359 m -11 Y s 1016 348 m cl s 1109 470 m 36 Y s 1109 506 m cl s 1109 443 m -36 Y s 1109 407 m
 cl s 1202 351 m 40 Y s 1202 391 m cl s 1202 324 m -36 Y s 1202 288 m cl s 1295 429 m 69 Y s 1295 498 m cl s 1295 402 m -65 Y s 1295 337 m cl s 1388 393 m 129 Y s 1388 522 m cl s 1388 365 m -99 Y s 1388 266 m cl s 1481 342 m 148 Y s 1481 490 m cl s
 1481 315 m -90 Y s 1481 225 m cl s 1667 545 m -227 Y s 1667 318 m cl s 3 lw 364 359 457 357 550 363 643 362 736 372 829 344 923 348 1016 373 1109 456 1202 338 1295 415 1388 379 1481 329 13 { m20} R 9 lw 1 0 0 c 6 lw black 3 lw 1 0 0 c 2178 312 m -17
 -17 d s 2178 341 m -46 -46 d s 2178 369 m -75 -74 d s 2178 398 m -100 -100 d s 2178 427 m -129 -129 d s 2160 437 m -139 -139 d s 2132 437 m -151 -150 d s 2103 437 m -151 -150 d s 2071 434 m -147 -147 d s 2042 434 m -143 -143 d s 2014 434 m -131 -130
 d s 1992 441 m -138 -137 d s 1967 445 m -141 -141 d s 1939 445 m -150 -149 d s 1910 445 m -11 -11 d s 1893 428 m -132 -132 d s 1864 428 m -132 -132 d s 1713 278 m -6 -7 d s 1836 428 m -158 -157 d s 1807 428 m -158 -157 d s 1786 436 m -165 -165 d s
 1757 436 m -137 -137 d s 1728 436 m -130 -130 d s 1713 449 m -144 -143 d s 1696 461 m -156 -155 d s 1527 292 m s 1668 461 m -170 -169 d s 1639 461 m -19 -19 d s 1604 426 m -135 -134 d s 1576 426 m -135 -134 d s 1547 426 m -113 -112 d s 1527 435 m
 -93 -92 d s 1503 440 m -97 -97 d s 1475 440 m -41 -40 d s 1423 389 m -45 -46 d s 1446 440 m -12 -12 d s 1394 389 m -45 -46 d s 1366 389 m -53 -53 d s 1341 393 m -57 -57 d s 1316 396 m -61 -60 d s 1287 396 m -44 -44 d s 1258 396 m -10 -10 d s 1242
 380 m -28 -28 d s 1214 380 m -29 -28 d s 1155 322 m -16 -16 d s 1185 380 m -28 -28 d s 1155 350 m -45 -44 d s 1156 380 m -74 -74 d s 1155 408 m -93 -93 d s 1145 426 m -83 -83 d s 1116 426 m -70 -70 d s 1088 426 m -26 -25 d s 1037 376 m -19 -20 d s
 1008 376 m -19 -20 d s 980 376 m -19 -19 d s 951 375 m -19 -18 d s 922 375 m -19 -18 d s 893 375 m -17 -17 d s 862 373 m -14 -14 d s 834 373 m -15 -14 d s 805 373 m -14 -14 d s 776 373 m -13 -14 d s 747 373 m -13 -14 d s 718 373 m -13 -14 d s 689
 372 m -12 -12 d s 660 372 m -12 -12 d s 632 372 m -12 -12 d s 603 372 m -12 -12 d s 575 372 m -13 -12 d s 546 372 m -13 -12 d s 517 372 m -12 -12 d s 488 372 m -12 -12 d s 459 372 m -11 -12 d s 318 231 m s 431 372 m -12 -12 d s 318 259 m s 402 372 m
 -12 -12 d s 318 288 m s 374 372 m -13 -12 d s 318 317 m s 345 372 m -13 -12 d s 318 345 m s 6 lw black[ 4 8] 0 sd 3 lw 318 447 m 1860 X s 318 285 m 1860 X s 1 0 0 c[  12 12 ] 0 sd 6 lw 318 366 m 1860 X s
 gr  gr showpage
end
%%EOF
