%!PS-Adobe-2.0 EPSF-2.0
%%BoundingBox:  0 0 567 521
%%Title: Distributions/metsqrtmeffInc_met_distrCRY_MB-GGo_afterFit_forThesis.eps: canvas
%%Creator: ROOT Version 6.04/16
%%CreationDate: Tue May 19 22:06:09 2020
%%DocumentNeededResources: ProcSet (FontSetInit)
%%EndComments
%%BeginProlog
80 dict begin
/s {stroke} def /l {lineto} def /m {moveto} def /t {translate} def
/r {rotate} def /rl {roll}  def /R {repeat} def
/d {rlineto} def /rm {rmoveto} def /gr {grestore} def /f {eofill} def
/c {setrgbcolor} def /black {0 setgray} def /sd {setdash} def
/cl {closepath} def /sf {scalefont setfont} def /lw {setlinewidth} def
/box {m dup 0 exch d exch 0 d 0 exch neg d cl} def
/NC{systemdict begin initclip end}def/C{NC box clip newpath}def
/bl {box s} def /bf {gsave box gsave f grestore 1 lw [] 0 sd s grestore} def /Y { 0 exch d} def /X { 0 d} def 
/K {{pop pop 0 moveto} exch kshow} bind def
/ita {/ang 15 def gsave [1 0 ang dup sin exch cos div 1 0 0] concat} def 
/mp {newpath /y exch def /x exch def} def
/side {[w .77 mul w .23 mul] .385 w mul sd w 0 l currentpoint t -144 r} def
/mr {mp x y w2 0 360 arc} def /m24 {mr s} def /m20 {mr f} def
/mb {mp x y w2 add m w2 neg 0 d 0 w neg d w 0 d 0 w d cl} def
/mt {mp x y w2 add m w2 neg w neg d w 0 d cl} def
/m21 {mb f} def /m25 {mb s} def /m22 {mt f} def /m26{mt s} def
/m23 {mp x y w2 sub m w2 w d w neg 0 d cl f} def
/m27 {mp x y w2 add m w3 neg w2 neg d w3 w2 neg d w3 w2 d cl s} def
/m28 {mp x w2 sub y w2 sub w3 add m w3 0 d  0 w3 neg d w3 0 d 0 w3 d w3 0 d  0 w3 d w3 neg 0 d 0 w3 d w3 neg 0 d 0 w3 neg d w3 neg 0 d cl s } def
/m29 {mp gsave x w2 sub y w2 add w3 sub m currentpoint t 4 {side} repeat cl fill gr} def
/m30 {mp gsave x w2 sub y w2 add w3 sub m currentpoint t 4 {side} repeat cl s gr} def
/m31 {mp x y w2 sub m 0 w d x w2 sub y m w 0 d x w2 sub y w2 add m w w neg d x w2 sub y w2 sub m w w d s} def
/m32 {mp x y w2 sub m w2 w d w neg 0 d cl s} def
/m33 {mp x y w2 add m w3 neg w2 neg d w3 w2 neg d w3 w2 d cl f} def
/m34 {mp x w2 sub y w2 sub w3 add m w3 0 d  0 w3 neg d w3 0 d 0 w3 d w3 0 d  0 w3 d w3 neg 0 d 0 w3 d w3 neg 0 d 0 w3 neg d w3 neg 0 d cl f } def
/m2 {mp x y w2 sub m 0 w d x w2 sub y m w 0 d s} def
/m5 {mp x w2 sub y w2 sub m w w d x w2 sub y w2 add m w w neg d s} def
%%IncludeResource: ProcSet (FontSetInit)
%%IncludeResource: font Times-Roman
%%IncludeResource: font Times-Italic
%%IncludeResource: font Times-Bold
%%IncludeResource: font Times-BoldItalic
%%IncludeResource: font Helvetica
%%IncludeResource: font Helvetica-Oblique
%%IncludeResource: font Helvetica-Bold
%%IncludeResource: font Helvetica-BoldOblique
%%IncludeResource: font Courier
%%IncludeResource: font Courier-Oblique
%%IncludeResource: font Courier-Bold
%%IncludeResource: font Courier-BoldOblique
%%IncludeResource: font Symbol
%%IncludeResource: font ZapfDingbats
/reEncode {exch findfont dup length dict begin {1 index /FID eq  {pop pop} {def} ifelse } forall /Encoding exch def currentdict end dup /FontName get exch definefont pop } def [/Times-Bold /Times-Italic /Times-BoldItalic /Helvetica /Helvetica-Oblique
 /Helvetica-Bold /Helvetica-BoldOblique /Courier /Courier-Oblique /Courier-Bold /Courier-BoldOblique /Times-Roman /AvantGarde-Book /AvantGarde-BookOblique /AvantGarde-Demi /AvantGarde-DemiOblique /Bookman-Demi /Bookman-DemiItalic /Bookman-Light
 /Bookman-LightItalic /Helvetica-Narrow /Helvetica-Narrow-Bold /Helvetica-Narrow-BoldOblique /Helvetica-Narrow-Oblique /NewCenturySchlbk-Roman /NewCenturySchlbk-Bold /NewCenturySchlbk-BoldItalic /NewCenturySchlbk-Italic /Palatino-Bold
 /Palatino-BoldItalic /Palatino-Italic /Palatino-Roman ] {ISOLatin1Encoding reEncode } forall
%%EndProlog
%%BeginSetup
%%EndSetup
newpath  gsave  .25 .25 scale  gsave  0 0 t black[  ] 0 sd 3 lw 1 1 1 c 2268 2085 0 0 bf black 1 1 1 c 2263 1770 2 313 bf black 1 1 1 c black 1860 1145 319 584 bl 1 1 1 c black 1860 1145 319 584 bl 6 lw 1 1 1 c black 3 lw /w 33 def /w2 {w 2 div} def
 /w3 {w 3 div} def 412 1117 m20 6 lw 3 lw 598 1089 m20 6 lw 3 lw 784 1040 m20 6 lw 970 1001 m 3 Y s 3 lw 970 1017 m20 6 lw 1156 960 m 7 Y s 1156 994 m 3 Y s 3 lw 1156 981 m20 6 lw 1342 938 m 10 Y s 1342 975 m 5 Y s 3 lw 1342 962 m20 6 lw 1528 838 m
 31 Y s 1528 897 m 14 Y s 3 lw 1528 883 m20 6 lw 1714 778 m 52 Y s 1714 858 m 21 Y s 3 lw 1714 844 m20 6 lw 1900 719 m 80 Y s 1900 827 m 27 Y s 3 lw 1900 813 m20 6 lw 2086 916 m 14 Y s 2086 957 m 6 Y s 3 lw 2086 943 m20 6 lw 3 lw 319 584 m 1860 X s
 gsave  2263 1770 2 313 C 2101.62 396.596 t 0 r /Helvetica findfont 54.2494 sf 0 0 m (1/2) show NC gr 
 gsave  2263 1770 2 313 C 1874.51 355.92 t 0 r /Helvetica findfont 81.3741 sf 0 0 m ( [GeV]) show NC gr 
 gsave  2263 1770 2 313 C 1840.61 332.192 t 0 r /Helvetica findfont 54.2494 sf 0 0 m (T) show NC gr 
 gsave  2263 1770 2 313 C 1786.38 355.92 t 0 r /Helvetica findfont 81.3741 sf 0 0 m (H) show NC gr  6 lw 1749 417 m 14 -85 d s 3 lw 1763 332 m 13 105 d s 1776 437 m 99 X s
 gsave  2263 1770 2 313 C 1711.8 355.92 t 0 r /Helvetica findfont 81.3741 sf 0 0 m (/) show NC gr 
 gsave  2263 1770 2 313 C 1599.94 396.596 t 0 r /Helvetica findfont 54.2494 sf 0 0 m (miss) show NC gr 
 gsave  2263 1770 2 313 C 1599.94 332.192 t 0 r /Helvetica findfont 54.2494 sf 0 0 m (T) show NC gr 
 gsave  2263 1770 2 313 C 1549.1 355.92 t 0 r /Helvetica findfont 81.3741 sf 0 0 m (E) show NC gr  319 584 m cl s 366 584 m cl s 412 584 m cl s 459 584 m cl s 505 584 m cl s 552 584 m cl s 598 584 m cl s 645 584 m cl s 691 584 m cl s 738 584 m cl s
 784 584 m cl s 831 584 m cl s 877 584 m cl s 924 584 m cl s 970 584 m cl s 1017 584 m cl s 1063 584 m cl s 1110 584 m cl s 1156 584 m cl s 1203 584 m cl s 1249 584 m cl s 1296 584 m cl s 1342 584 m cl s 1389 584 m cl s 1435 584 m cl s 1482 584 m cl
 s 1528 584 m cl s 1575 584 m cl s 1621 584 m cl s 1668 584 m cl s 1714 584 m cl s 1761 584 m cl s 1807 584 m cl s 1854 584 m cl s 1900 584 m cl s 1947 584 m cl s 1993 584 m cl s 2040 584 m cl s 2086 584 m cl s 2133 584 m cl s 2179 584 m cl s 319
 1729 m 1860 X s 319 1729 m cl s 366 1729 m cl s 412 1729 m cl s 459 1729 m cl s 505 1729 m cl s 552 1729 m cl s 598 1729 m cl s 645 1729 m cl s 691 1729 m cl s 738 1729 m cl s 784 1729 m cl s 831 1729 m cl s 877 1729 m cl s 924 1729 m cl s 970 1729
 m cl s 1017 1729 m cl s 1063 1729 m cl s 1110 1729 m cl s 1156 1729 m cl s 1203 1729 m cl s 1249 1729 m cl s 1296 1729 m cl s 1342 1729 m cl s 1389 1729 m cl s 1435 1729 m cl s 1482 1729 m cl s 1528 1729 m cl s 1575 1729 m cl s 1621 1729 m cl s 1668
 1729 m cl s 1714 1729 m cl s 1761 1729 m cl s 1807 1729 m cl s 1854 1729 m cl s 1900 1729 m cl s 1947 1729 m cl s 1993 1729 m cl s 2040 1729 m cl s 2086 1729 m cl s 2133 1729 m cl s 2179 1729 m cl s 319 584 m 1145 Y s
 gsave  2263 1770 2 313 C 125.419 1654.18 t 90 r /Helvetica findfont 54.2494 sf 0 0 m (1/2) show NC gr 
 gsave  2263 1770 2 313 C 166.096 1064.37 t 90 r /Helvetica findfont 81.3741 sf 0 0 m (Events / 2 [GeV]) show NC gr  341 637 m -22 X s 341 668 m -22 X s 341 690 m -22 X s 341 707 m -22 X s 341 721 m -22 X s 341 733 m -22 X s 341 743 m -22 X s 341 752
 m -22 X s 363 760 m -44 X s
 gsave  2263 1770 2 313 C 300.555 732.97 t 0 r  -36 0 t /Helvetica findfont 64.4212 sf 0 0 m (1) show NC gr  341 813 m -22 X s 341 844 m -22 X s 341 866 m -22 X s 341 883 m -22 X s 341 897 m -22 X s 341 909 m -22 X s 341 919 m -22 X s 341 928 m -22 X
 s 363 936 m -44 X s
 gsave  2263 1770 2 313 C 300.555 908.749 t 0 r  -73 0 t /Helvetica findfont 64.4212 sf 0 0 m (10) show NC gr  341 989 m -22 X s 341 1020 m -22 X s 341 1042 m -22 X s 341 1059 m -22 X s 341 1073 m -22 X s 341 1084 m -22 X s 341 1095 m -22 X s 341
 1104 m -22 X s 363 1112 m -44 X s
 gsave  2263 1770 2 313 C 274.567 1108.44 t 0 r /Helvetica findfont 44.0776 sf 0 0 m (2) show NC gr 
 gsave  2263 1770 2 313 C 203.383 1081.32 t 0 r /Helvetica findfont 64.4212 sf 0 0 m (10) show NC gr  341 1165 m -22 X s 341 1196 m -22 X s 341 1217 m -22 X s 341 1235 m -22 X s 341 1248 m -22 X s 341 1260 m -22 X s 341 1270 m -22 X s 341 1279 m -22
 X s 363 1287 m -44 X s
 gsave  2263 1770 2 313 C 274.567 1288.09 t 0 r /Helvetica findfont 44.0776 sf 0 0 m (3) show NC gr 
 gsave  2263 1770 2 313 C 203.383 1257.58 t 0 r /Helvetica findfont 64.4212 sf 0 0 m (10) show NC gr  341 1340 m -22 X s 341 1371 m -22 X s 341 1393 m -22 X s 341 1410 m -22 X s 341 1424 m -22 X s 341 1436 m -22 X s 341 1446 m -22 X s 341 1455 m -22
 X s 363 1463 m -44 X s
 gsave  2263 1770 2 313 C 274.567 1460.97 t 0 r /Helvetica findfont 44.0776 sf 0 0 m (4) show NC gr 
 gsave  2263 1770 2 313 C 203.383 1433.85 t 0 r /Helvetica findfont 64.4212 sf 0 0 m (10) show NC gr  341 1516 m -22 X s 341 1547 m -22 X s 341 1569 m -22 X s 341 1586 m -22 X s 341 1600 m -22 X s 341 1612 m -22 X s 341 1622 m -22 X s 341 1631 m -22
 X s 363 1639 m -44 X s
 gsave  2263 1770 2 313 C 274.567 1640.62 t 0 r /Helvetica findfont 44.0776 sf 0 0 m (5) show NC gr 
 gsave  2263 1770 2 313 C 203.383 1610.11 t 0 r /Helvetica findfont 64.4212 sf 0 0 m (10) show NC gr  341 1692 m -22 X s 341 1723 m -22 X s 2179 584 m 1145 Y s 2157 637 m 22 X s 2157 668 m 22 X s 2157 690 m 22 X s 2157 707 m 22 X s 2157 721 m 22 X s
 2157 733 m 22 X s 2157 743 m 22 X s 2157 752 m 22 X s 2136 760 m 43 X s 2157 813 m 22 X s 2157 844 m 22 X s 2157 866 m 22 X s 2157 883 m 22 X s 2157 897 m 22 X s 2157 909 m 22 X s 2157 919 m 22 X s 2157 928 m 22 X s 2136 936 m 43 X s 2157 989 m 22 X
 s 2157 1020 m 22 X s 2157 1042 m 22 X s 2157 1059 m 22 X s 2157 1073 m 22 X s 2157 1084 m 22 X s 2157 1095 m 22 X s 2157 1104 m 22 X s 2136 1112 m 43 X s 2157 1165 m 22 X s 2157 1196 m 22 X s 2157 1217 m 22 X s 2157 1235 m 22 X s 2157 1248 m 22 X s
 2157 1260 m 22 X s 2157 1270 m 22 X s 2157 1279 m 22 X s 2136 1287 m 43 X s 2157 1340 m 22 X s 2157 1371 m 22 X s 2157 1393 m 22 X s 2157 1410 m 22 X s 2157 1424 m 22 X s 2157 1436 m 22 X s 2157 1446 m 22 X s 2157 1455 m 22 X s 2136 1463 m 43 X s
 2157 1516 m 22 X s 2157 1547 m 22 X s 2157 1569 m 22 X s 2157 1586 m 22 X s 2157 1600 m 22 X s 2157 1612 m 22 X s 2157 1622 m 22 X s 2157 1631 m 22 X s 2136 1639 m 43 X s 2157 1692 m 22 X s 2157 1723 m 22 X s 1 1 0 c black 1 1 0 c 319 584 m 533 Y
 186 X -32 Y 186 X -35 Y 186 X -35 Y 186 X -31 Y 186 X -42 Y 186 X -21 Y 186 X -54 Y 186 X -28 Y 186 X 3 Y 186 X -258 Y f black 1 1 0 c black 319 1117 m 186 X -32 Y 186 X -35 Y 186 X -35 Y 186 X -31 Y 186 X -42 Y 186 X -21 Y 186 X -54 Y 186 X -28 Y
 186 X 3 Y 186 X s 0.999 0.999 0.999 c black 0.999 0.999 0.999 c 319 584 m 253 Y 186 X -36 Y 186 X -41 Y 186 X -48 Y 186 X -12 Y 186 X -30 Y 186 X -86 Y 744 X f black 0.999 0.999 0.999 c black 319 837 m 186 X -36 Y 186 X -41 Y 186 X -48 Y 186 X -12 Y
 186 X -30 Y 186 X -86 Y 744 X s 1 1 1 c black 319 837 m 186 X -36 Y 186 X -41 Y 186 X -48 Y 186 X -12 Y 186 X -30 Y 186 X -86 Y 744 X s 0.4 0.6 1 c black 0.4 0.6 1 c 319 584 m 253 Y 186 X -36 Y 186 X -41 Y 186 X -48 Y 186 X -12 Y 186 X -30 Y 186 X
 -86 Y 744 X f black 0.4 0.6 1 c black 319 837 m 186 X -36 Y 186 X -41 Y 186 X -48 Y 186 X -12 Y 186 X -30 Y 186 X -86 Y 744 X s 0.999 0.999 0.999 c black 0.999 0.999 0.999 c 319 584 m 246 Y 186 X -42 Y 186 X -40 Y 186 X -62 Y 186 X 14 Y 186 X -36 Y
 186 X -80 Y 744 X f black 0.999 0.999 0.999 c black 319 830 m 186 X -42 Y 186 X -40 Y 186 X -62 Y 186 X 14 Y 186 X -36 Y 186 X -80 Y 744 X s 1 1 1 c black 319 830 m 186 X -42 Y 186 X -40 Y 186 X -62 Y 186 X 14 Y 186 X -36 Y 186 X -80 Y 744 X s 0.6 1
 0.6 c black 0.6 1 0.6 c 319 584 m 246 Y 186 X -42 Y 186 X -40 Y 186 X -62 Y 186 X 14 Y 186 X -36 Y 186 X -80 Y 744 X f black 0.6 1 0.6 c black 319 830 m 186 X -42 Y 186 X -40 Y 186 X -62 Y 186 X 14 Y 186 X -36 Y 186 X -80 Y 744 X s 0.999 0.999 0.999
 c black 0.999 0.999 0.999 c 319 584 m 372 X 9 Y 186 X -9 Y 186 X 79 Y 186 X -79 Y 930 X f black 0.999 0.999 0.999 c black 319 584 m 372 X 9 Y 186 X -9 Y 186 X 79 Y 186 X -79 Y 930 X s 1 1 1 c black 319 584 m 372 X 9 Y 186 X -9 Y 186 X 79 Y 186 X -79
 Y 930 X s 1 0.4 0.6 c black 1 0.4 0.6 c 319 584 m 372 X 9 Y 186 X -9 Y 186 X 79 Y 186 X -79 Y 930 X f black 1 0.4 0.6 c black 319 584 m 372 X 9 Y 186 X -9 Y 186 X 79 Y 186 X -79 Y 930 X s 1 0 0 c 6 lw 1 1 1 c black 1 0 0 c 319 1117 m 186 X -32 Y 186
 X -35 Y 186 X -35 Y 186 X -31 Y 186 X -42 Y 186 X -21 Y 186 X -54 Y 186 X -28 Y 186 X 3 Y 186 X s black 3 lw 1 0 0 c 1 lw << /PatternType 1 /PaintType 2 /TilingType 1 /BBox [ 0 0 100 100 ] /XStep 100 /YStep 100 /PaintProc { begin gsave 0 100 m 100 0
 l s gr end } >> [ 0.24 0 0 0.24 0 0 ] makepattern /P05 exch def /cs {[/Pattern /DeviceRGB] setcolorspace} def /FA {f [/DeviceRGB] setcolorspace} def cs 1 0 0 P05 setcolor 319 584 m 541 Y 186 X -32 Y 186 X -34 Y 186 X -35 Y 186 X -29 Y 186 X -44 Y
 186 X -14 Y 186 X -59 Y 186 X -28 Y 372 X -17 Y -186 X -6 Y -186 X 28 Y -186 X 46 Y -186 X 31 Y -186 X 37 Y -186 X 36 Y -186 X 35 Y -186 X 36 Y -186 X 32 Y -186 X -524 Y FA 6 lw 1 1 1 c 15 lw 1342 941 m -3 Y s 1342 938 m cl s 1528 903 m 10 Y s 1528
 913 m cl s 1528 863 m -23 Y s 1528 840 m cl s 1714 864 m 17 Y s 1714 881 m cl s 1714 824 m -40 Y s 1714 784 m cl s 1900 833 m 25 Y s 1900 858 m cl s 1900 793 m -59 Y s 1900 734 m cl s 2086 963 m 1 Y s 2086 964 m cl s 2086 923 m -7 Y s 2086 916 m cl
 s black 1 1 1 c 3 lw /w 43 def /w2 {w 2 div} def /w3 {w 3 div} def 412 1117 598 1089 784 1040 970 1017 1156 981 1342 962 1528 883 1714 844 1900 813 2086 943 10 { m20} R 15 lw black 6 lw 1 1 1 c black 3 lw /w 33 def /w2 {w 2 div} def /w3 {w 3 div}
 def 412 1117 m20 6 lw 3 lw 598 1089 m20 6 lw 3 lw 784 1040 m20 6 lw 970 1001 m 3 Y s 3 lw 970 1017 m20 6 lw 1156 960 m 7 Y s 1156 994 m 3 Y s 3 lw 1156 981 m20 6 lw 1342 938 m 10 Y s 1342 975 m 5 Y s 3 lw 1342 962 m20 6 lw 1528 838 m 31 Y s 1528 897
 m 14 Y s 3 lw 1528 883 m20 6 lw 1714 778 m 52 Y s 1714 858 m 21 Y s 3 lw 1714 844 m20 6 lw 1900 719 m 80 Y s 1900 827 m 27 Y s 3 lw 1900 813 m20 6 lw 2086 916 m 14 Y s 2086 957 m 6 Y s 3 lw 2086 943 m20 6 lw 970 1004 m -2 Y s 970 1002 m cl s 1156
 994 m 3 Y s 1156 997 m cl s 1156 967 m -6 Y s 1156 961 m cl s 1342 975 m 5 Y s 1342 980 m cl s 1342 948 m -10 Y s 1342 938 m cl s 1528 897 m 16 Y s 1528 913 m cl s 1528 869 m -29 Y s 1528 840 m cl s 1714 858 m 23 Y s 1714 881 m cl s 1714 830 m -46 Y
 s 1714 784 m cl s 1900 827 m 31 Y s 1900 858 m cl s 1900 799 m -65 Y s 1900 734 m cl s 2086 957 m 7 Y s 2086 964 m cl s 2086 930 m -14 Y s 2086 916 m cl s 3 lw 412 1117 598 1089 784 1040 970 1017 1156 981 1342 962 1528 883 1714 844 1900 813 2086 943
 10 { m20} R 6 lw 3 lw 319 584 m 1860 X s 319 584 m cl s 366 584 m cl s 412 584 m cl s 459 584 m cl s 505 584 m cl s 552 584 m cl s 598 584 m cl s 645 584 m cl s 691 584 m cl s 738 584 m cl s 784 584 m cl s 831 584 m cl s 877 584 m cl s 924 584 m cl
 s 970 584 m cl s 1017 584 m cl s 1063 584 m cl s 1110 584 m cl s 1156 584 m cl s 1203 584 m cl s 1249 584 m cl s 1296 584 m cl s 1342 584 m cl s 1389 584 m cl s 1435 584 m cl s 1482 584 m cl s 1528 584 m cl s 1575 584 m cl s 1621 584 m cl s 1668 584
 m cl s 1714 584 m cl s 1761 584 m cl s 1807 584 m cl s 1854 584 m cl s 1900 584 m cl s 1947 584 m cl s 1993 584 m cl s 2040 584 m cl s 2086 584 m cl s 2133 584 m cl s 2179 584 m cl s 319 1729 m 1860 X s 319 1729 m cl s 366 1729 m cl s 412 1729 m cl
 s 459 1729 m cl s 505 1729 m cl s 552 1729 m cl s 598 1729 m cl s 645 1729 m cl s 691 1729 m cl s 738 1729 m cl s 784 1729 m cl s 831 1729 m cl s 877 1729 m cl s 924 1729 m cl s 970 1729 m cl s 1017 1729 m cl s 1063 1729 m cl s 1110 1729 m cl s 1156
 1729 m cl s 1203 1729 m cl s 1249 1729 m cl s 1296 1729 m cl s 1342 1729 m cl s 1389 1729 m cl s 1435 1729 m cl s 1482 1729 m cl s 1528 1729 m cl s 1575 1729 m cl s 1621 1729 m cl s 1668 1729 m cl s 1714 1729 m cl s 1761 1729 m cl s 1807 1729 m cl s
 1854 1729 m cl s 1900 1729 m cl s 1947 1729 m cl s 1993 1729 m cl s 2040 1729 m cl s 2086 1729 m cl s 2133 1729 m cl s 2179 1729 m cl s 319 584 m 1145 Y s 341 637 m -22 X s 341 668 m -22 X s 341 690 m -22 X s 341 707 m -22 X s 341 721 m -22 X s 341
 733 m -22 X s 341 743 m -22 X s 341 752 m -22 X s 363 760 m -44 X s 341 813 m -22 X s 341 844 m -22 X s 341 866 m -22 X s 341 883 m -22 X s 341 897 m -22 X s 341 909 m -22 X s 341 919 m -22 X s 341 928 m -22 X s 363 936 m -44 X s 341 989 m -22 X s
 341 1020 m -22 X s 341 1042 m -22 X s 341 1059 m -22 X s 341 1073 m -22 X s 341 1084 m -22 X s 341 1095 m -22 X s 341 1104 m -22 X s 363 1112 m -44 X s 341 1165 m -22 X s 341 1196 m -22 X s 341 1217 m -22 X s 341 1235 m -22 X s 341 1248 m -22 X s
 341 1260 m -22 X s 341 1270 m -22 X s 341 1279 m -22 X s 363 1287 m -44 X s 341 1340 m -22 X s 341 1371 m -22 X s 341 1393 m -22 X s 341 1410 m -22 X s 341 1424 m -22 X s 341 1436 m -22 X s 341 1446 m -22 X s 341 1455 m -22 X s 363 1463 m -44 X s
 341 1516 m -22 X s 341 1547 m -22 X s 341 1569 m -22 X s 341 1586 m -22 X s 341 1600 m -22 X s 341 1612 m -22 X s 341 1622 m -22 X s 341 1631 m -22 X s 363 1639 m -44 X s 341 1692 m -22 X s 341 1723 m -22 X s 2179 584 m 1145 Y s 2157 637 m 22 X s
 2157 668 m 22 X s 2157 690 m 22 X s 2157 707 m 22 X s 2157 721 m 22 X s 2157 733 m 22 X s 2157 743 m 22 X s 2157 752 m 22 X s 2136 760 m 43 X s 2157 813 m 22 X s 2157 844 m 22 X s 2157 866 m 22 X s 2157 883 m 22 X s 2157 897 m 22 X s 2157 909 m 22 X
 s 2157 919 m 22 X s 2157 928 m 22 X s 2136 936 m 43 X s 2157 989 m 22 X s 2157 1020 m 22 X s 2157 1042 m 22 X s 2157 1059 m 22 X s 2157 1073 m 22 X s 2157 1084 m 22 X s 2157 1095 m 22 X s 2157 1104 m 22 X s 2136 1112 m 43 X s 2157 1165 m 22 X s 2157
 1196 m 22 X s 2157 1217 m 22 X s 2157 1235 m 22 X s 2157 1248 m 22 X s 2157 1260 m 22 X s 2157 1270 m 22 X s 2157 1279 m 22 X s 2136 1287 m 43 X s 2157 1340 m 22 X s 2157 1371 m 22 X s 2157 1393 m 22 X s 2157 1410 m 22 X s 2157 1424 m 22 X s 2157
 1436 m 22 X s 2157 1446 m 22 X s 2157 1455 m 22 X s 2136 1463 m 43 X s 2157 1516 m 22 X s 2157 1547 m 22 X s 2157 1569 m 22 X s 2157 1586 m 22 X s 2157 1600 m 22 X s 2157 1612 m 22 X s 2157 1622 m 22 X s 2157 1631 m 22 X s 2136 1639 m 43 X s 2157
 1692 m 22 X s 2157 1723 m 22 X s
 gsave  2263 1770 2 313 C 406.765 1447.41 t 0 r /Helvetica findfont 64.4212 sf 0 0 m (CRY for MB\255GGo) show NC gr 
 gsave  2263 1770 2 313 C 1464.36 1616.89 t 0 r /Helvetica findfont 64.4212 sf 0 0 m (SM Total) show NC gr  1 1 1 c 1338 1603 m 107 X 74 Y -107 X f 1 0 0 c 6 lw 1338 1640 m 107 X s black
 gsave  2263 1770 2 313 C 1464.36 1511.81 t 0 r /Helvetica findfont 64.4212 sf 0 0 m (Data) show NC gr  1391 1502 m 64 Y s 3 lw 1391 1534 m20 6 lw
 gsave  2263 1770 2 313 C 1464.36 1406.73 t 0 r /Helvetica findfont 64.4212 sf 0 0 m (GAMMAjets) show NC gr  1 1 0 c 3 lw 1338 1391 m 107 X 74 Y -107 X f 6 lw black 3 lw 1338 1465 m 107 X s 1338 1391 m 107 X s 1445 1391 m 74 Y s 1338 1391 m 74 Y s
 gsave  2263 1770 2 313 C 1464.36 1298.26 t 0 r /Helvetica findfont 64.4212 sf 0 0 m (W+jets) show NC gr  0.4 0.6 1 c 1338 1284 m 107 X 75 Y -107 X f black 1338 1359 m 107 X s 1338 1284 m 107 X s 1445 1284 m 75 Y s 1338 1284 m 75 Y s
 gsave  2263 1770 2 313 C 1498.25 1193.18 t 0 r /Helvetica findfont 64.4212 sf 0 0 m (\(+EW\) & single top) show NC gr 
 gsave  2263 1770 2 313 C 1481.3 1193.18 t 0 r /Helvetica findfont 64.4212 sf 0 0 m (t) show NC gr  1481 1244 m 17 X s
 gsave  2263 1770 2 313 C 1464.36 1193.18 t 0 r /Helvetica findfont 64.4212 sf 0 0 m (t) show NC gr  0.6 1 0.6 c 1338 1178 m 107 X 75 Y -107 X f black 1338 1253 m 107 X s 1338 1178 m 107 X s 1445 1178 m 75 Y s 1338 1178 m 75 Y s
 gsave  2263 1770 2 313 C 1464.36 1088.1 t 0 r /Helvetica findfont 64.4212 sf 0 0 m (Diboson) show NC gr  1 0.4 0.6 c 1338 1072 m 107 X 74 Y -107 X f black 1338 1146 m 107 X s 1338 1072 m 107 X s 1445 1072 m 74 Y s 1338 1072 m 74 Y s
 gsave  2263 1770 2 313 C 911.832 1566.05 t 0 r /Helvetica findfont 44.0776 sf 0 0 m (\2551) show NC gr 
 gsave  2263 1770 2 313 C 471.17 1535.54 t 0 r /Helvetica findfont 64.4212 sf 0 0 m (=13TeV, 139 fb) show NC gr 
 gsave  2263 1770 2 313 C 440.662 1535.54 t 0 r /Helvetica findfont 64.4212 sf 0 0 m (s) show NC gr  6 lw 420 1573 m 7 -41 d s 3 lw 427 1532 m 7 61 d s 434 1593 m 37 X s 1 1 1 c 2254 561 2 2 bf black 1 1 1 c black 1860 358 318 187 bl 1 1 1 c black
 1860 358 318 187 bl 6 lw 1 1 1 c black 3 lw 411 365 m20 6 lw 3 lw 597 374 m20 6 lw 3 lw 783 345 m20 6 lw 3 lw 969 371 m20 6 lw 3 lw 1155 360 m20 6 lw 3 lw 1341 413 m20 6 lw 3 lw 1527 302 m20 6 lw 3 lw 1713 323 m20 6 lw 3 lw 1899 319 m20 6 lw 3 lw
 318 187 m 1860 X s
 gsave  2254 561 2 2 C 2105.01 64.4045 t 0 r /Helvetica findfont 50.9797 sf 0 0 m (1/2) show NC gr 
 gsave  2254 561 2 2 C 1888.07 23.728 t 0 r /Helvetica findfont 78.1689 sf 0 0 m ( [GeV]) show NC gr 
 gsave  2254 561 2 2 C 1857.56 3.38971 t 0 r /Helvetica findfont 50.9797 sf 0 0 m (T) show NC gr 
 gsave  2254 561 2 2 C 1806.72 23.728 t 0 r /Helvetica findfont 78.1689 sf 0 0 m (H) show NC gr  6 lw 1773 81 m 10 -78 d s 3 lw 1783 3 m 14 99 d s 1797 102 m 91 X s
 gsave  2254 561 2 2 C 1735.53 23.728 t 0 r /Helvetica findfont 78.1689 sf 0 0 m (/) show NC gr 
 gsave  2254 561 2 2 C 1630.45 61.0148 t 0 r /Helvetica findfont 50.9797 sf 0 0 m (miss) show NC gr 
 gsave  2254 561 2 2 C 1630.45 3.38971 t 0 r /Helvetica findfont 50.9797 sf 0 0 m (T) show NC gr 
 gsave  2254 561 2 2 C 1579.61 23.728 t 0 r /Helvetica findfont 78.1689 sf 0 0 m (E) show NC gr  318 201 m -14 Y s 364 194 m -7 Y s 411 194 m -7 Y s 457 194 m -7 Y s 504 201 m -14 Y s 550 194 m -7 Y s 597 194 m -7 Y s 643 194 m -7 Y s 690 201 m -14 Y
 s 736 194 m -7 Y s 783 194 m -7 Y s 829 194 m -7 Y s 876 201 m -14 Y s 923 194 m -7 Y s 969 194 m -7 Y s 1016 194 m -7 Y s 1062 201 m -14 Y s 1109 194 m -7 Y s 1155 194 m -7 Y s 1202 194 m -7 Y s 1248 201 m -14 Y s 1295 194 m -7 Y s 1341 194 m -7 Y
 s 1388 194 m -7 Y s 1434 201 m -14 Y s 1481 194 m -7 Y s 1527 194 m -7 Y s 1574 194 m -7 Y s 1620 201 m -14 Y s 1667 194 m -7 Y s 1713 194 m -7 Y s 1760 194 m -7 Y s 1806 201 m -14 Y s 1853 194 m -7 Y s 1899 194 m -7 Y s 1946 194 m -7 Y s 1992 201 m
 -14 Y s 2039 194 m -7 Y s 2085 194 m -7 Y s 2132 194 m -7 Y s 2178 201 m -14 Y s
 gsave  2254 561 2 2 C 271.177 118.64 t 0 r /Helvetica findfont 78.1689 sf 0 0 m (10) show NC gr 
 gsave  2254 561 2 2 C 457.611 118.64 t 0 r /Helvetica findfont 78.1689 sf 0 0 m (12) show NC gr 
 gsave  2254 561 2 2 C 644.045 118.64 t 0 r /Helvetica findfont 78.1689 sf 0 0 m (14) show NC gr 
 gsave  2254 561 2 2 C 830.479 118.64 t 0 r /Helvetica findfont 78.1689 sf 0 0 m (16) show NC gr 
 gsave  2254 561 2 2 C 1016.91 118.64 t 0 r /Helvetica findfont 78.1689 sf 0 0 m (18) show NC gr 
 gsave  2254 561 2 2 C 1203.35 118.64 t 0 r /Helvetica findfont 78.1689 sf 0 0 m (20) show NC gr 
 gsave  2254 561 2 2 C 1389.78 118.64 t 0 r /Helvetica findfont 78.1689 sf 0 0 m (22) show NC gr 
 gsave  2254 561 2 2 C 1572.83 118.64 t 0 r /Helvetica findfont 78.1689 sf 0 0 m (24) show NC gr 
 gsave  2254 561 2 2 C 1759.26 118.64 t 0 r /Helvetica findfont 78.1689 sf 0 0 m (26) show NC gr 
 gsave  2254 561 2 2 C 1945.69 118.64 t 0 r /Helvetica findfont 78.1689 sf 0 0 m (28) show NC gr 
 gsave  2254 561 2 2 C 2132.13 118.64 t 0 r /Helvetica findfont 78.1689 sf 0 0 m (30) show NC gr  318 545 m 1860 X s 318 531 m 14 Y s 364 538 m 7 Y s 411 538 m 7 Y s 457 538 m 7 Y s 504 531 m 14 Y s 550 538 m 7 Y s 597 538 m 7 Y s 643 538 m 7 Y s 690
 531 m 14 Y s 736 538 m 7 Y s 783 538 m 7 Y s 829 538 m 7 Y s 876 531 m 14 Y s 923 538 m 7 Y s 969 538 m 7 Y s 1016 538 m 7 Y s 1062 531 m 14 Y s 1109 538 m 7 Y s 1155 538 m 7 Y s 1202 538 m 7 Y s 1248 531 m 14 Y s 1295 538 m 7 Y s 1341 538 m 7 Y s
 1388 538 m 7 Y s 1434 531 m 14 Y s 1481 538 m 7 Y s 1527 538 m 7 Y s 1574 538 m 7 Y s 1620 531 m 14 Y s 1667 538 m 7 Y s 1713 538 m 7 Y s 1760 538 m 7 Y s 1806 531 m 14 Y s 1853 538 m 7 Y s 1899 538 m 7 Y s 1946 538 m 7 Y s 1992 531 m 14 Y s 2039
 538 m 7 Y s 2085 538 m 7 Y s 2132 538 m 7 Y s 2178 531 m 14 Y s 318 187 m 358 Y s
 gsave  2254 561 2 2 C 166.096 284.736 t 90 r /Helvetica findfont 67.9729 sf 0 0 m (Data/SM) show NC gr  361 203 m -43 X s 339 220 m -21 X s 339 236 m -21 X s 339 252 m -21 X s 339 268 m -21 X s 361 285 m -43 X s 339 301 m -21 X s 339 317 m -21 X s
 339 334 m -21 X s 339 350 m -21 X s 361 366 m -43 X s 339 382 m -21 X s 339 399 m -21 X s 339 415 m -21 X s 339 431 m -21 X s 361 447 m -43 X s 339 464 m -21 X s 339 480 m -21 X s 339 496 m -21 X s 339 512 m -21 X s 361 529 m -43 X s 361 203 m -43 X
 s 339 187 m -21 X s 361 529 m -43 X s
 gsave  2254 561 2 2 C 261.008 183.044 t 0 r /Helvetica findfont 57.777 sf 0 0 m (0) show NC gr 
 gsave  2254 561 2 2 C 213.552 261.008 t 0 r /Helvetica findfont 57.777 sf 0 0 m (0.5) show NC gr 
 gsave  2254 561 2 2 C 271.177 342.361 t 0 r /Helvetica findfont 57.777 sf 0 0 m (1) show NC gr 
 gsave  2254 561 2 2 C 213.552 423.714 t 0 r /Helvetica findfont 57.777 sf 0 0 m (1.5) show NC gr 
 gsave  2254 561 2 2 C 261.008 505.067 t 0 r /Helvetica findfont 57.777 sf 0 0 m (2) show NC gr  2178 187 m 358 Y s 2135 203 m 43 X s 2157 220 m 21 X s 2157 236 m 21 X s 2157 252 m 21 X s 2157 268 m 21 X s 2135 285 m 43 X s 2157 301 m 21 X s 2157 317
 m 21 X s 2157 334 m 21 X s 2157 350 m 21 X s 2135 366 m 43 X s 2157 382 m 21 X s 2157 399 m 21 X s 2157 415 m 21 X s 2157 431 m 21 X s 2135 447 m 43 X s 2157 464 m 21 X s 2157 480 m 21 X s 2157 496 m 21 X s 2157 512 m 21 X s 2135 529 m 43 X s 2135
 203 m 43 X s 2157 187 m 21 X s 2135 529 m 43 X s 9 lw 411 378 m 2 Y s 411 380 m cl s 411 351 m -2 Y s 411 349 m cl s 597 388 m 6 Y s 597 394 m cl s 597 361 m -7 Y s 597 354 m cl s 783 358 m 10 Y s 783 368 m cl s 783 331 m -9 Y s 783 322 m cl s 969
 384 m 18 Y s 969 402 m cl s 969 357 m -17 Y s 969 340 m cl s 1155 374 m 24 Y s 1155 398 m cl s 1155 347 m -23 Y s 1155 324 m cl s 1341 427 m 43 Y s 1341 470 m cl s 1341 399 m -41 Y s 1341 358 m cl s 1527 316 m 33 Y s 1527 349 m cl s 1527 289 m -29 Y
 s 1527 260 m cl s 1713 337 m 62 Y s 1713 399 m cl s 1713 310 m -52 Y s 1713 258 m cl s 1899 332 m 81 Y s 1899 413 m cl s 1899 305 m -60 Y s 1899 245 m cl s 3 lw 411 365 597 374 783 345 969 371 1155 360 1341 413 1527 302 1713 323 1899 319 9 { m20} R
 9 lw 1 0 0 c 6 lw black 3 lw 1 0 0 c 2178 369 m -22 -22 d s 2165 385 m -37 -38 d s 2136 385 m -37 -38 d s 2108 385 m -38 -38 d s 2079 385 m -37 -38 d s 2050 385 m -37 -38 d s 2021 385 m -42 -43 d s 1993 385 m -43 -43 d s 1970 390 m -49 -48 d s 1941
 390 m -48 -48 d s 1912 390 m -48 -48 d s 1884 390 m -49 -48 d s 1855 390 m -49 -48 d s 1826 390 m -48 -48 d s 1798 390 m -49 -48 d s 1769 390 m -49 -48 d s 1740 390 m -48 -48 d s 1712 390 m -49 -48 d s 1683 390 m -49 -48 d s 1654 390 m -61 -61 d s
 1625 390 m -61 -61 d s 1610 403 m -75 -74 d s 1581 403 m -75 -74 d s 1552 403 m -74 -74 d s 1524 403 m -75 -74 d s 1495 403 m -61 -60 d s 1466 403 m -57 -57 d s 1438 403 m -4 -3 d s 1421 386 m -41 -40 d s 1392 386 m -41 -40 d s 1363 386 m -40 -40 d
 s 1335 386 m -41 -40 d s 1306 386 m -41 -40 d s 1277 386 m -48 -48 d s 1248 386 m -47 -48 d s 1227 394 m -55 -56 d s 1198 394 m -55 -56 d s 1170 394 m -56 -56 d s 1141 394 m -55 -56 d s 1112 394 m -50 -51 d s 1084 394 m -48 -48 d s 1047 386 m -40
 -40 d s 1019 386 m -40 -40 d s 990 386 m -40 -40 d s 961 386 m -40 -40 d s 932 386 m -39 -40 d s 904 386 m -40 -40 d s 875 386 m -40 -40 d s 847 386 m -41 -40 d s 818 386 m -40 -40 d s 789 386 m -40 -40 d s 761 386 m -41 -40 d s 732 386 m -41 -40 d
 s 703 386 m -39 -39 d s 673 385 m -37 -38 d s 644 385 m -37 -38 d s 616 385 m -38 -38 d s 587 385 m -37 -38 d s 558 385 m -37 -38 d s 530 385 m -37 -37 d s 500 384 m -36 -36 d s 472 384 m -37 -36 d s 318 231 m s 443 384 m -36 -36 d s 318 259 m s 414
 384 m -36 -36 d s 318 288 m s 386 384 m -37 -36 d s 318 317 m s 357 384 m -36 -36 d s 318 345 m s 328 384 m -10 -10 d s 6 lw 0 0 1 c 9 lw 2085 496 m 30 Y s 3 lw 2074 526 m 11 19 d 11 -19 d f 9 lw 2074 526 m 11 19 d 11 -19 d -22 X cl s black[ 4 8] 0
 sd 3 lw 318 447 m 1860 X s 318 285 m 1860 X s 1 0 0 c[  12 12 ] 0 sd 6 lw 318 366 m 1860 X s
 gr  gr showpage
end
%%EOF
