%!PS-Adobe-2.0 EPSF-2.0
%%BoundingBox:  0 0 567 521
%%Title: Distributions/metsqrtmeffInc_met_distrCRW_MB-GGo_afterFit_forThesis.eps: canvas
%%Creator: ROOT Version 6.04/16
%%CreationDate: Tue May 19 22:05:55 2020
%%DocumentNeededResources: ProcSet (FontSetInit)
%%EndComments
%%BeginProlog
80 dict begin
/s {stroke} def /l {lineto} def /m {moveto} def /t {translate} def
/r {rotate} def /rl {roll}  def /R {repeat} def
/d {rlineto} def /rm {rmoveto} def /gr {grestore} def /f {eofill} def
/c {setrgbcolor} def /black {0 setgray} def /sd {setdash} def
/cl {closepath} def /sf {scalefont setfont} def /lw {setlinewidth} def
/box {m dup 0 exch d exch 0 d 0 exch neg d cl} def
/NC{systemdict begin initclip end}def/C{NC box clip newpath}def
/bl {box s} def /bf {gsave box gsave f grestore 1 lw [] 0 sd s grestore} def /Y { 0 exch d} def /X { 0 d} def 
/K {{pop pop 0 moveto} exch kshow} bind def
/ita {/ang 15 def gsave [1 0 ang dup sin exch cos div 1 0 0] concat} def 
/mp {newpath /y exch def /x exch def} def
/side {[w .77 mul w .23 mul] .385 w mul sd w 0 l currentpoint t -144 r} def
/mr {mp x y w2 0 360 arc} def /m24 {mr s} def /m20 {mr f} def
/mb {mp x y w2 add m w2 neg 0 d 0 w neg d w 0 d 0 w d cl} def
/mt {mp x y w2 add m w2 neg w neg d w 0 d cl} def
/m21 {mb f} def /m25 {mb s} def /m22 {mt f} def /m26{mt s} def
/m23 {mp x y w2 sub m w2 w d w neg 0 d cl f} def
/m27 {mp x y w2 add m w3 neg w2 neg d w3 w2 neg d w3 w2 d cl s} def
/m28 {mp x w2 sub y w2 sub w3 add m w3 0 d  0 w3 neg d w3 0 d 0 w3 d w3 0 d  0 w3 d w3 neg 0 d 0 w3 d w3 neg 0 d 0 w3 neg d w3 neg 0 d cl s } def
/m29 {mp gsave x w2 sub y w2 add w3 sub m currentpoint t 4 {side} repeat cl fill gr} def
/m30 {mp gsave x w2 sub y w2 add w3 sub m currentpoint t 4 {side} repeat cl s gr} def
/m31 {mp x y w2 sub m 0 w d x w2 sub y m w 0 d x w2 sub y w2 add m w w neg d x w2 sub y w2 sub m w w d s} def
/m32 {mp x y w2 sub m w2 w d w neg 0 d cl s} def
/m33 {mp x y w2 add m w3 neg w2 neg d w3 w2 neg d w3 w2 d cl f} def
/m34 {mp x w2 sub y w2 sub w3 add m w3 0 d  0 w3 neg d w3 0 d 0 w3 d w3 0 d  0 w3 d w3 neg 0 d 0 w3 d w3 neg 0 d 0 w3 neg d w3 neg 0 d cl f } def
/m2 {mp x y w2 sub m 0 w d x w2 sub y m w 0 d s} def
/m5 {mp x w2 sub y w2 sub m w w d x w2 sub y w2 add m w w neg d s} def
%%IncludeResource: ProcSet (FontSetInit)
%%IncludeResource: font Times-Roman
%%IncludeResource: font Times-Italic
%%IncludeResource: font Times-Bold
%%IncludeResource: font Times-BoldItalic
%%IncludeResource: font Helvetica
%%IncludeResource: font Helvetica-Oblique
%%IncludeResource: font Helvetica-Bold
%%IncludeResource: font Helvetica-BoldOblique
%%IncludeResource: font Courier
%%IncludeResource: font Courier-Oblique
%%IncludeResource: font Courier-Bold
%%IncludeResource: font Courier-BoldOblique
%%IncludeResource: font Symbol
%%IncludeResource: font ZapfDingbats
/reEncode {exch findfont dup length dict begin {1 index /FID eq  {pop pop} {def} ifelse } forall /Encoding exch def currentdict end dup /FontName get exch definefont pop } def [/Times-Bold /Times-Italic /Times-BoldItalic /Helvetica /Helvetica-Oblique
 /Helvetica-Bold /Helvetica-BoldOblique /Courier /Courier-Oblique /Courier-Bold /Courier-BoldOblique /Times-Roman /AvantGarde-Book /AvantGarde-BookOblique /AvantGarde-Demi /AvantGarde-DemiOblique /Bookman-Demi /Bookman-DemiItalic /Bookman-Light
 /Bookman-LightItalic /Helvetica-Narrow /Helvetica-Narrow-Bold /Helvetica-Narrow-BoldOblique /Helvetica-Narrow-Oblique /NewCenturySchlbk-Roman /NewCenturySchlbk-Bold /NewCenturySchlbk-BoldItalic /NewCenturySchlbk-Italic /Palatino-Bold
 /Palatino-BoldItalic /Palatino-Italic /Palatino-Roman ] {ISOLatin1Encoding reEncode } forall
%%EndProlog
%%BeginSetup
%%EndSetup
newpath  gsave  .25 .25 scale  gsave  0 0 t black[  ] 0 sd 3 lw 1 1 1 c 2268 2085 0 0 bf black 1 1 1 c 2263 1770 2 313 bf black 1 1 1 c black 1860 1145 319 584 bl 1 1 1 c black 1860 1145 319 584 bl 6 lw 1 1 1 c black 3 lw /w 33 def /w2 {w 2 div} def
 /w3 {w 3 div} def 412 1120 m20 6 lw 3 lw 598 1054 m20 6 lw 784 984 m 4 Y s 784 1015 m s 3 lw 784 1001 m20 6 lw 970 984 m 4 Y s 970 1015 m s 3 lw 970 1001 m20 6 lw 1156 871 m 23 Y s 1156 921 m 11 Y s 3 lw 1156 907 m20 6 lw 1342 884 m 20 Y s 1342 931
 m 10 Y s 3 lw 1342 918 m20 6 lw 1528 719 m 80 Y s 1528 826 m 27 Y s 3 lw 1528 812 m20 6 lw 1714 812 m 39 Y s 1714 878 m 18 Y s 3 lw 1714 865 m20 6 lw 1900 584 m 162 Y s 1900 773 m 39 Y s 3 lw 1900 759 m20 6 lw 2086 584 m 162 Y s 2086 773 m 39 Y s 3
 lw 2086 759 m20 6 lw 3 lw 319 584 m 1860 X s
 gsave  2263 1770 2 313 C 2101.62 396.596 t 0 r /Helvetica findfont 54.2494 sf 0 0 m (1/2) show NC gr 
 gsave  2263 1770 2 313 C 1874.51 355.92 t 0 r /Helvetica findfont 81.3741 sf 0 0 m ( [GeV]) show NC gr 
 gsave  2263 1770 2 313 C 1840.61 332.192 t 0 r /Helvetica findfont 54.2494 sf 0 0 m (T) show NC gr 
 gsave  2263 1770 2 313 C 1786.38 355.92 t 0 r /Helvetica findfont 81.3741 sf 0 0 m (H) show NC gr  6 lw 1749 417 m 14 -85 d s 3 lw 1763 332 m 13 105 d s 1776 437 m 99 X s
 gsave  2263 1770 2 313 C 1711.8 355.92 t 0 r /Helvetica findfont 81.3741 sf 0 0 m (/) show NC gr 
 gsave  2263 1770 2 313 C 1599.94 396.596 t 0 r /Helvetica findfont 54.2494 sf 0 0 m (miss) show NC gr 
 gsave  2263 1770 2 313 C 1599.94 332.192 t 0 r /Helvetica findfont 54.2494 sf 0 0 m (T) show NC gr 
 gsave  2263 1770 2 313 C 1549.1 355.92 t 0 r /Helvetica findfont 81.3741 sf 0 0 m (E) show NC gr  319 584 m cl s 366 584 m cl s 412 584 m cl s 459 584 m cl s 505 584 m cl s 552 584 m cl s 598 584 m cl s 645 584 m cl s 691 584 m cl s 738 584 m cl s
 784 584 m cl s 831 584 m cl s 877 584 m cl s 924 584 m cl s 970 584 m cl s 1017 584 m cl s 1063 584 m cl s 1110 584 m cl s 1156 584 m cl s 1203 584 m cl s 1249 584 m cl s 1296 584 m cl s 1342 584 m cl s 1389 584 m cl s 1435 584 m cl s 1482 584 m cl
 s 1528 584 m cl s 1575 584 m cl s 1621 584 m cl s 1668 584 m cl s 1714 584 m cl s 1761 584 m cl s 1807 584 m cl s 1854 584 m cl s 1900 584 m cl s 1947 584 m cl s 1993 584 m cl s 2040 584 m cl s 2086 584 m cl s 2133 584 m cl s 2179 584 m cl s 319
 1729 m 1860 X s 319 1729 m cl s 366 1729 m cl s 412 1729 m cl s 459 1729 m cl s 505 1729 m cl s 552 1729 m cl s 598 1729 m cl s 645 1729 m cl s 691 1729 m cl s 738 1729 m cl s 784 1729 m cl s 831 1729 m cl s 877 1729 m cl s 924 1729 m cl s 970 1729
 m cl s 1017 1729 m cl s 1063 1729 m cl s 1110 1729 m cl s 1156 1729 m cl s 1203 1729 m cl s 1249 1729 m cl s 1296 1729 m cl s 1342 1729 m cl s 1389 1729 m cl s 1435 1729 m cl s 1482 1729 m cl s 1528 1729 m cl s 1575 1729 m cl s 1621 1729 m cl s 1668
 1729 m cl s 1714 1729 m cl s 1761 1729 m cl s 1807 1729 m cl s 1854 1729 m cl s 1900 1729 m cl s 1947 1729 m cl s 1993 1729 m cl s 2040 1729 m cl s 2086 1729 m cl s 2133 1729 m cl s 2179 1729 m cl s 319 584 m 1145 Y s
 gsave  2263 1770 2 313 C 125.419 1654.18 t 90 r /Helvetica findfont 54.2494 sf 0 0 m (1/2) show NC gr 
 gsave  2263 1770 2 313 C 166.096 1064.37 t 90 r /Helvetica findfont 81.3741 sf 0 0 m (Events / 2 [GeV]) show NC gr  341 637 m -22 X s 341 668 m -22 X s 341 690 m -22 X s 341 707 m -22 X s 341 721 m -22 X s 341 732 m -22 X s 341 742 m -22 X s 341 751
 m -22 X s 363 759 m -44 X s
 gsave  2263 1770 2 313 C 300.555 732.321 t 0 r  -36 0 t /Helvetica findfont 64.4212 sf 0 0 m (1) show NC gr  341 812 m -22 X s 341 843 m -22 X s 341 865 m -22 X s 341 882 m -22 X s 341 896 m -22 X s 341 907 m -22 X s 341 918 m -22 X s 341 927 m -22
 X s 363 935 m -44 X s
 gsave  2263 1770 2 313 C 300.555 907.451 t 0 r  -73 0 t /Helvetica findfont 64.4212 sf 0 0 m (10) show NC gr  341 987 m -22 X s 341 1018 m -22 X s 341 1040 m -22 X s 341 1057 m -22 X s 341 1071 m -22 X s 341 1083 m -22 X s 341 1093 m -22 X s 341
 1102 m -22 X s 363 1110 m -44 X s
 gsave  2263 1770 2 313 C 274.567 1108.44 t 0 r /Helvetica findfont 44.0776 sf 0 0 m (2) show NC gr 
 gsave  2263 1770 2 313 C 203.383 1081.32 t 0 r /Helvetica findfont 64.4212 sf 0 0 m (10) show NC gr  341 1162 m -22 X s 341 1193 m -22 X s 341 1215 m -22 X s 341 1232 m -22 X s 341 1246 m -22 X s 341 1258 m -22 X s 341 1268 m -22 X s 341 1277 m -22
 X s 363 1285 m -44 X s
 gsave  2263 1770 2 313 C 274.567 1288.09 t 0 r /Helvetica findfont 44.0776 sf 0 0 m (3) show NC gr 
 gsave  2263 1770 2 313 C 203.383 1257.58 t 0 r /Helvetica findfont 64.4212 sf 0 0 m (10) show NC gr  341 1338 m -22 X s 341 1368 m -22 X s 341 1390 m -22 X s 341 1407 m -22 X s 341 1421 m -22 X s 341 1433 m -22 X s 341 1443 m -22 X s 341 1452 m -22
 X s 363 1460 m -44 X s
 gsave  2263 1770 2 313 C 274.567 1457.58 t 0 r /Helvetica findfont 44.0776 sf 0 0 m (4) show NC gr 
 gsave  2263 1770 2 313 C 203.383 1430.46 t 0 r /Helvetica findfont 64.4212 sf 0 0 m (10) show NC gr  341 1513 m -22 X s 341 1544 m -22 X s 341 1565 m -22 X s 341 1582 m -22 X s 341 1596 m -22 X s 341 1608 m -22 X s 341 1618 m -22 X s 341 1627 m -22
 X s 363 1635 m -44 X s
 gsave  2263 1770 2 313 C 274.567 1637.23 t 0 r /Helvetica findfont 44.0776 sf 0 0 m (5) show NC gr 
 gsave  2263 1770 2 313 C 203.383 1606.72 t 0 r /Helvetica findfont 64.4212 sf 0 0 m (10) show NC gr  341 1688 m -22 X s 341 1719 m -22 X s 2179 584 m 1145 Y s 2157 637 m 22 X s 2157 668 m 22 X s 2157 690 m 22 X s 2157 707 m 22 X s 2157 721 m 22 X s
 2157 732 m 22 X s 2157 742 m 22 X s 2157 751 m 22 X s 2136 759 m 43 X s 2157 812 m 22 X s 2157 843 m 22 X s 2157 865 m 22 X s 2157 882 m 22 X s 2157 896 m 22 X s 2157 907 m 22 X s 2157 918 m 22 X s 2157 927 m 22 X s 2136 935 m 43 X s 2157 987 m 22 X
 s 2157 1018 m 22 X s 2157 1040 m 22 X s 2157 1057 m 22 X s 2157 1071 m 22 X s 2157 1083 m 22 X s 2157 1093 m 22 X s 2157 1102 m 22 X s 2136 1110 m 43 X s 2157 1162 m 22 X s 2157 1193 m 22 X s 2157 1215 m 22 X s 2157 1232 m 22 X s 2157 1246 m 22 X s
 2157 1258 m 22 X s 2157 1268 m 22 X s 2157 1277 m 22 X s 2136 1285 m 43 X s 2157 1338 m 22 X s 2157 1368 m 22 X s 2157 1390 m 22 X s 2157 1407 m 22 X s 2157 1421 m 22 X s 2157 1433 m 22 X s 2157 1443 m 22 X s 2157 1452 m 22 X s 2136 1460 m 43 X s
 2157 1513 m 22 X s 2157 1544 m 22 X s 2157 1565 m 22 X s 2157 1582 m 22 X s 2157 1596 m 22 X s 2157 1608 m 22 X s 2157 1618 m 22 X s 2157 1627 m 22 X s 2136 1635 m 43 X s 2157 1688 m 22 X s 2157 1719 m 22 X s 0.4 0.6 1 c black 0.4 0.6 1 c 319 584 m
 531 Y 186 X -45 Y 186 X -49 Y 186 X -42 Y 186 X -50 Y 186 X -56 Y 186 X -43 Y 186 X -45 Y 186 X -40 Y 186 X -7 Y 186 X -154 Y f black 0.4 0.6 1 c black 319 1115 m 186 X -45 Y 186 X -49 Y 186 X -42 Y 186 X -50 Y 186 X -56 Y 186 X -43 Y 186 X -45 Y
 186 X -40 Y 186 X -7 Y 186 X s 0.999 0.999 0.999 c black 0.999 0.999 0.999 c 319 584 m 450 Y 186 X -49 Y 186 X -65 Y 186 X -60 Y 186 X -58 Y 186 X -45 Y 186 X -50 Y 186 X -100 Y 186 X 6 Y 186 X 33 Y 186 X -62 Y f black 0.999 0.999 0.999 c black 319
 1034 m 186 X -49 Y 186 X -65 Y 186 X -60 Y 186 X -58 Y 186 X -45 Y 186 X -50 Y 186 X -100 Y 186 X 6 Y 186 X 33 Y 186 X s 1 1 1 c black 319 1034 m 186 X -49 Y 186 X -65 Y 186 X -60 Y 186 X -58 Y 186 X -45 Y 186 X -50 Y 186 X -100 Y 186 X 6 Y 186 X 33
 Y 186 X s 0.6 1 0.6 c black 0.6 1 0.6 c 319 584 m 450 Y 186 X -49 Y 186 X -65 Y 186 X -60 Y 186 X -58 Y 186 X -45 Y 186 X -50 Y 186 X -100 Y 186 X 6 Y 186 X 33 Y 186 X -62 Y f black 0.6 1 0.6 c black 319 1034 m 186 X -49 Y 186 X -65 Y 186 X -60 Y
 186 X -58 Y 186 X -45 Y 186 X -50 Y 186 X -100 Y 186 X 6 Y 186 X 33 Y 186 X s 0.999 0.999 0.999 c black 0.999 0.999 0.999 c 319 584 m 346 Y 186 X -39 Y 186 X -50 Y 186 X -40 Y 186 X -53 Y 186 X -17 Y 186 X -36 Y 186 X -100 Y 186 X -11 Y 372 X f
 black 0.999 0.999 0.999 c black 319 930 m 186 X -39 Y 186 X -50 Y 186 X -40 Y 186 X -53 Y 186 X -17 Y 186 X -36 Y 186 X -100 Y 186 X -11 Y 372 X s 1 1 1 c black 319 930 m 186 X -39 Y 186 X -50 Y 186 X -40 Y 186 X -53 Y 186 X -17 Y 186 X -36 Y 186 X
 -100 Y 186 X -11 Y 372 X s 1 0.8 0.4 c black 1 0.8 0.4 c 319 584 m 346 Y 186 X -39 Y 186 X -50 Y 186 X -40 Y 186 X -53 Y 186 X -17 Y 186 X -36 Y 186 X -100 Y 186 X -11 Y 372 X f black 1 0.8 0.4 c black 319 930 m 186 X -39 Y 186 X -50 Y 186 X -40 Y
 186 X -53 Y 186 X -17 Y 186 X -36 Y 186 X -100 Y 186 X -11 Y 372 X s 0.999 0.999 0.999 c black 0.999 0.999 0.999 c 319 584 m 341 Y 186 X -38 Y 186 X -51 Y 186 X -37 Y 186 X -54 Y 186 X -15 Y 186 X -36 Y 186 X -99 Y 186 X -11 Y 372 X f black 0.999
 0.999 0.999 c black 319 925 m 186 X -38 Y 186 X -51 Y 186 X -37 Y 186 X -54 Y 186 X -15 Y 186 X -36 Y 186 X -99 Y 186 X -11 Y 372 X s 1 1 1 c black 319 925 m 186 X -38 Y 186 X -51 Y 186 X -37 Y 186 X -54 Y 186 X -15 Y 186 X -36 Y 186 X -99 Y 186 X
 -11 Y 372 X s 1 0.4 0.6 c black 1 0.4 0.6 c 319 584 m 341 Y 186 X -38 Y 186 X -51 Y 186 X -37 Y 186 X -54 Y 186 X -15 Y 186 X -36 Y 186 X -99 Y 186 X -11 Y 372 X f black 1 0.4 0.6 c black 319 925 m 186 X -38 Y 186 X -51 Y 186 X -37 Y 186 X -54 Y 186
 X -15 Y 186 X -36 Y 186 X -99 Y 186 X -11 Y 372 X s 1 0 0 c 6 lw 1 1 1 c black 1 0 0 c 319 1115 m 186 X -45 Y 186 X -49 Y 186 X -42 Y 186 X -50 Y 186 X -56 Y 186 X -43 Y 186 X -45 Y 186 X -40 Y 186 X -7 Y 186 X s black 3 lw 1 0 0 c 1 lw <<
 /PatternType 1 /PaintType 2 /TilingType 1 /BBox [ 0 0 100 100 ] /XStep 100 /YStep 100 /PaintProc { begin gsave 0 100 m 100 0 l s gr end } >> [ 0.24 0 0 0.24 0 0 ] makepattern /P05 exch def /cs {[/Pattern /DeviceRGB] setcolorspace} def /FA {f
 [/DeviceRGB] setcolorspace} def cs 1 0 0 P05 setcolor 319 584 m 536 Y 186 X -45 Y 186 X -48 Y 186 X -42 Y 186 X -48 Y 186 X -56 Y 186 X -40 Y 186 X -46 Y 186 X -31 Y 186 X -5 Y 186 X -50 Y -186 X 10 Y -186 X 53 Y -186 X 44 Y -186 X 48 Y -186 X 57 Y
 -186 X 50 Y -186 X 43 Y -186 X 50 Y -186 X 46 Y -186 X -526 Y FA 6 lw 1 1 1 c 15 lw 1156 928 m 5 Y s 1156 933 m cl s 1156 887 m -14 Y s 1156 873 m cl s 1342 938 m 3 Y s 1342 941 m cl s 1342 897 m -12 Y s 1342 885 m cl s 1528 832 m 25 Y s 1528 857 m
 cl s 1528 792 m -58 Y s 1528 734 m cl s 1714 885 m 13 Y s 1714 898 m cl s 1714 845 m -29 Y s 1714 816 m cl s 1900 780 m 42 Y s 1900 822 m cl s 1900 739 m -112 Y s 1900 627 m cl s 2086 780 m 42 Y s 2086 822 m cl s 2086 739 m -112 Y s 2086 627 m cl s
 black 1 1 1 c 3 lw /w 43 def /w2 {w 2 div} def /w3 {w 3 div} def 412 1120 598 1054 784 1001 970 1001 1156 907 1342 918 1528 812 1714 865 1900 759 2086 759 10 { m20} R 15 lw black 6 lw 1 1 1 c black 3 lw /w 33 def /w2 {w 2 div} def /w3 {w 3 div} def
 412 1120 m20 6 lw 3 lw 598 1054 m20 6 lw 784 984 m 4 Y s 784 1015 m s 3 lw 784 1001 m20 6 lw 970 984 m 4 Y s 970 1015 m s 3 lw 970 1001 m20 6 lw 1156 871 m 23 Y s 1156 921 m 11 Y s 3 lw 1156 907 m20 6 lw 1342 884 m 20 Y s 1342 931 m 10 Y s 3 lw 1342
 918 m20 6 lw 1528 719 m 80 Y s 1528 826 m 27 Y s 3 lw 1528 812 m20 6 lw 1714 812 m 39 Y s 1714 878 m 18 Y s 3 lw 1714 865 m20 6 lw 1900 584 m 162 Y s 1900 773 m 39 Y s 3 lw 1900 759 m20 6 lw 2086 584 m 162 Y s 2086 773 m 39 Y s 3 lw 2086 759 m20 6
 lw 784 1015 m s 784 1015 m cl s 784 988 m -4 Y s 784 984 m cl s 970 1015 m s 970 1015 m cl s 970 988 m -4 Y s 970 984 m cl s 1156 921 m 12 Y s 1156 933 m cl s 1156 894 m -21 Y s 1156 873 m cl s 1342 931 m 10 Y s 1342 941 m cl s 1342 904 m -19 Y s
 1342 885 m cl s 1528 826 m 31 Y s 1528 857 m cl s 1528 799 m -65 Y s 1528 734 m cl s 1714 878 m 20 Y s 1714 898 m cl s 1714 851 m -35 Y s 1714 816 m cl s 1900 773 m 49 Y s 1900 822 m cl s 1900 746 m -119 Y s 1900 627 m cl s 2086 773 m 49 Y s 2086
 822 m cl s 2086 746 m -119 Y s 2086 627 m cl s 3 lw 412 1120 598 1054 784 1001 970 1001 1156 907 1342 918 1528 812 1714 865 1900 759 2086 759 10 { m20} R 6 lw 3 lw 319 584 m 1860 X s 319 584 m cl s 366 584 m cl s 412 584 m cl s 459 584 m cl s 505
 584 m cl s 552 584 m cl s 598 584 m cl s 645 584 m cl s 691 584 m cl s 738 584 m cl s 784 584 m cl s 831 584 m cl s 877 584 m cl s 924 584 m cl s 970 584 m cl s 1017 584 m cl s 1063 584 m cl s 1110 584 m cl s 1156 584 m cl s 1203 584 m cl s 1249 584
 m cl s 1296 584 m cl s 1342 584 m cl s 1389 584 m cl s 1435 584 m cl s 1482 584 m cl s 1528 584 m cl s 1575 584 m cl s 1621 584 m cl s 1668 584 m cl s 1714 584 m cl s 1761 584 m cl s 1807 584 m cl s 1854 584 m cl s 1900 584 m cl s 1947 584 m cl s
 1993 584 m cl s 2040 584 m cl s 2086 584 m cl s 2133 584 m cl s 2179 584 m cl s 319 1729 m 1860 X s 319 1729 m cl s 366 1729 m cl s 412 1729 m cl s 459 1729 m cl s 505 1729 m cl s 552 1729 m cl s 598 1729 m cl s 645 1729 m cl s 691 1729 m cl s 738
 1729 m cl s 784 1729 m cl s 831 1729 m cl s 877 1729 m cl s 924 1729 m cl s 970 1729 m cl s 1017 1729 m cl s 1063 1729 m cl s 1110 1729 m cl s 1156 1729 m cl s 1203 1729 m cl s 1249 1729 m cl s 1296 1729 m cl s 1342 1729 m cl s 1389 1729 m cl s 1435
 1729 m cl s 1482 1729 m cl s 1528 1729 m cl s 1575 1729 m cl s 1621 1729 m cl s 1668 1729 m cl s 1714 1729 m cl s 1761 1729 m cl s 1807 1729 m cl s 1854 1729 m cl s 1900 1729 m cl s 1947 1729 m cl s 1993 1729 m cl s 2040 1729 m cl s 2086 1729 m cl s
 2133 1729 m cl s 2179 1729 m cl s 319 584 m 1145 Y s 341 637 m -22 X s 341 668 m -22 X s 341 690 m -22 X s 341 707 m -22 X s 341 721 m -22 X s 341 732 m -22 X s 341 742 m -22 X s 341 751 m -22 X s 363 759 m -44 X s 341 812 m -22 X s 341 843 m -22 X
 s 341 865 m -22 X s 341 882 m -22 X s 341 896 m -22 X s 341 907 m -22 X s 341 918 m -22 X s 341 927 m -22 X s 363 935 m -44 X s 341 987 m -22 X s 341 1018 m -22 X s 341 1040 m -22 X s 341 1057 m -22 X s 341 1071 m -22 X s 341 1083 m -22 X s 341 1093
 m -22 X s 341 1102 m -22 X s 363 1110 m -44 X s 341 1162 m -22 X s 341 1193 m -22 X s 341 1215 m -22 X s 341 1232 m -22 X s 341 1246 m -22 X s 341 1258 m -22 X s 341 1268 m -22 X s 341 1277 m -22 X s 363 1285 m -44 X s 341 1338 m -22 X s 341 1368 m
 -22 X s 341 1390 m -22 X s 341 1407 m -22 X s 341 1421 m -22 X s 341 1433 m -22 X s 341 1443 m -22 X s 341 1452 m -22 X s 363 1460 m -44 X s 341 1513 m -22 X s 341 1544 m -22 X s 341 1565 m -22 X s 341 1582 m -22 X s 341 1596 m -22 X s 341 1608 m
 -22 X s 341 1618 m -22 X s 341 1627 m -22 X s 363 1635 m -44 X s 341 1688 m -22 X s 341 1719 m -22 X s 2179 584 m 1145 Y s 2157 637 m 22 X s 2157 668 m 22 X s 2157 690 m 22 X s 2157 707 m 22 X s 2157 721 m 22 X s 2157 732 m 22 X s 2157 742 m 22 X s
 2157 751 m 22 X s 2136 759 m 43 X s 2157 812 m 22 X s 2157 843 m 22 X s 2157 865 m 22 X s 2157 882 m 22 X s 2157 896 m 22 X s 2157 907 m 22 X s 2157 918 m 22 X s 2157 927 m 22 X s 2136 935 m 43 X s 2157 987 m 22 X s 2157 1018 m 22 X s 2157 1040 m 22
 X s 2157 1057 m 22 X s 2157 1071 m 22 X s 2157 1083 m 22 X s 2157 1093 m 22 X s 2157 1102 m 22 X s 2136 1110 m 43 X s 2157 1162 m 22 X s 2157 1193 m 22 X s 2157 1215 m 22 X s 2157 1232 m 22 X s 2157 1246 m 22 X s 2157 1258 m 22 X s 2157 1268 m 22 X
 s 2157 1277 m 22 X s 2136 1285 m 43 X s 2157 1338 m 22 X s 2157 1368 m 22 X s 2157 1390 m 22 X s 2157 1407 m 22 X s 2157 1421 m 22 X s 2157 1433 m 22 X s 2157 1443 m 22 X s 2157 1452 m 22 X s 2136 1460 m 43 X s 2157 1513 m 22 X s 2157 1544 m 22 X s
 2157 1565 m 22 X s 2157 1582 m 22 X s 2157 1596 m 22 X s 2157 1608 m 22 X s 2157 1618 m 22 X s 2157 1627 m 22 X s 2136 1635 m 43 X s 2157 1688 m 22 X s 2157 1719 m 22 X s
 gsave  2263 1770 2 313 C 406.765 1447.41 t 0 r /Helvetica findfont 64.4212 sf 0 0 m (CRW for MB\255GGo) show NC gr 
 gsave  2263 1770 2 313 C 1464.36 1616.89 t 0 r /Helvetica findfont 64.4212 sf 0 0 m (SM Total) show NC gr  1 1 1 c 1338 1603 m 107 X 74 Y -107 X f 1 0 0 c 6 lw 1338 1640 m 107 X s black
 gsave  2263 1770 2 313 C 1464.36 1511.81 t 0 r /Helvetica findfont 64.4212 sf 0 0 m (Data) show NC gr  1391 1502 m 64 Y s 3 lw 1391 1534 m20 6 lw
 gsave  2263 1770 2 313 C 1464.36 1406.73 t 0 r /Helvetica findfont 64.4212 sf 0 0 m (W+jets) show NC gr  0.4 0.6 1 c 3 lw 1338 1391 m 107 X 74 Y -107 X f 6 lw black 3 lw 1338 1465 m 107 X s 1338 1391 m 107 X s 1445 1391 m 74 Y s 1338 1391 m 74 Y s
 gsave  2263 1770 2 313 C 1498.25 1298.26 t 0 r /Helvetica findfont 64.4212 sf 0 0 m (\(+EW\) & single top) show NC gr 
 gsave  2263 1770 2 313 C 1481.3 1298.26 t 0 r /Helvetica findfont 64.4212 sf 0 0 m (t) show NC gr  1481 1349 m 17 X s
 gsave  2263 1770 2 313 C 1464.36 1298.26 t 0 r /Helvetica findfont 64.4212 sf 0 0 m (t) show NC gr  0.6 1 0.6 c 1338 1284 m 107 X 75 Y -107 X f black 1338 1359 m 107 X s 1338 1284 m 107 X s 1445 1284 m 75 Y s 1338 1284 m 75 Y s
 gsave  2263 1770 2 313 C 1464.36 1193.18 t 0 r /Helvetica findfont 64.4212 sf 0 0 m (Z+jets) show NC gr  1 0.8 0.4 c 1338 1178 m 107 X 75 Y -107 X f black 1338 1253 m 107 X s 1338 1178 m 107 X s 1445 1178 m 75 Y s 1338 1178 m 75 Y s
 gsave  2263 1770 2 313 C 1464.36 1088.1 t 0 r /Helvetica findfont 64.4212 sf 0 0 m (Diboson) show NC gr  1 0.4 0.6 c 1338 1072 m 107 X 74 Y -107 X f black 1338 1146 m 107 X s 1338 1072 m 107 X s 1445 1072 m 74 Y s 1338 1072 m 74 Y s
 gsave  2263 1770 2 313 C 911.832 1566.05 t 0 r /Helvetica findfont 44.0776 sf 0 0 m (\2551) show NC gr 
 gsave  2263 1770 2 313 C 471.17 1535.54 t 0 r /Helvetica findfont 64.4212 sf 0 0 m (=13TeV, 139 fb) show NC gr 
 gsave  2263 1770 2 313 C 440.662 1535.54 t 0 r /Helvetica findfont 64.4212 sf 0 0 m (s) show NC gr  6 lw 420 1573 m 7 -41 d s 3 lw 427 1532 m 7 61 d s 434 1593 m 37 X s 1 1 1 c 2254 561 2 2 bf black 1 1 1 c black 1860 358 318 187 bl 1 1 1 c black
 1860 358 318 187 bl 6 lw 1 1 1 c black 3 lw 411 375 m20 6 lw 3 lw 597 335 m20 6 lw 3 lw 783 329 m20 6 lw 3 lw 969 422 m20 6 lw 3 lw 1155 326 m20 6 lw 3 lw 1341 496 m20 6 lw 3 lw 1527 332 m20 6 lw 3 lw 1899 401 m20 6 lw 3 lw 2085 418 m20 6 lw 3 lw
 318 187 m 1860 X s
 gsave  2254 561 2 2 C 2105.01 64.4045 t 0 r /Helvetica findfont 50.9797 sf 0 0 m (1/2) show NC gr 
 gsave  2254 561 2 2 C 1888.07 23.728 t 0 r /Helvetica findfont 78.1689 sf 0 0 m ( [GeV]) show NC gr 
 gsave  2254 561 2 2 C 1857.56 3.38971 t 0 r /Helvetica findfont 50.9797 sf 0 0 m (T) show NC gr 
 gsave  2254 561 2 2 C 1806.72 23.728 t 0 r /Helvetica findfont 78.1689 sf 0 0 m (H) show NC gr  6 lw 1773 81 m 10 -78 d s 3 lw 1783 3 m 14 99 d s 1797 102 m 91 X s
 gsave  2254 561 2 2 C 1735.53 23.728 t 0 r /Helvetica findfont 78.1689 sf 0 0 m (/) show NC gr 
 gsave  2254 561 2 2 C 1630.45 61.0148 t 0 r /Helvetica findfont 50.9797 sf 0 0 m (miss) show NC gr 
 gsave  2254 561 2 2 C 1630.45 3.38971 t 0 r /Helvetica findfont 50.9797 sf 0 0 m (T) show NC gr 
 gsave  2254 561 2 2 C 1579.61 23.728 t 0 r /Helvetica findfont 78.1689 sf 0 0 m (E) show NC gr  318 201 m -14 Y s 364 194 m -7 Y s 411 194 m -7 Y s 457 194 m -7 Y s 504 201 m -14 Y s 550 194 m -7 Y s 597 194 m -7 Y s 643 194 m -7 Y s 690 201 m -14 Y
 s 736 194 m -7 Y s 783 194 m -7 Y s 829 194 m -7 Y s 876 201 m -14 Y s 923 194 m -7 Y s 969 194 m -7 Y s 1016 194 m -7 Y s 1062 201 m -14 Y s 1109 194 m -7 Y s 1155 194 m -7 Y s 1202 194 m -7 Y s 1248 201 m -14 Y s 1295 194 m -7 Y s 1341 194 m -7 Y
 s 1388 194 m -7 Y s 1434 201 m -14 Y s 1481 194 m -7 Y s 1527 194 m -7 Y s 1574 194 m -7 Y s 1620 201 m -14 Y s 1667 194 m -7 Y s 1713 194 m -7 Y s 1760 194 m -7 Y s 1806 201 m -14 Y s 1853 194 m -7 Y s 1899 194 m -7 Y s 1946 194 m -7 Y s 1992 201 m
 -14 Y s 2039 194 m -7 Y s 2085 194 m -7 Y s 2132 194 m -7 Y s 2178 201 m -14 Y s
 gsave  2254 561 2 2 C 271.177 118.64 t 0 r /Helvetica findfont 78.1689 sf 0 0 m (10) show NC gr 
 gsave  2254 561 2 2 C 457.611 118.64 t 0 r /Helvetica findfont 78.1689 sf 0 0 m (12) show NC gr 
 gsave  2254 561 2 2 C 644.045 118.64 t 0 r /Helvetica findfont 78.1689 sf 0 0 m (14) show NC gr 
 gsave  2254 561 2 2 C 830.479 118.64 t 0 r /Helvetica findfont 78.1689 sf 0 0 m (16) show NC gr 
 gsave  2254 561 2 2 C 1016.91 118.64 t 0 r /Helvetica findfont 78.1689 sf 0 0 m (18) show NC gr 
 gsave  2254 561 2 2 C 1203.35 118.64 t 0 r /Helvetica findfont 78.1689 sf 0 0 m (20) show NC gr 
 gsave  2254 561 2 2 C 1389.78 118.64 t 0 r /Helvetica findfont 78.1689 sf 0 0 m (22) show NC gr 
 gsave  2254 561 2 2 C 1572.83 118.64 t 0 r /Helvetica findfont 78.1689 sf 0 0 m (24) show NC gr 
 gsave  2254 561 2 2 C 1759.26 118.64 t 0 r /Helvetica findfont 78.1689 sf 0 0 m (26) show NC gr 
 gsave  2254 561 2 2 C 1945.69 118.64 t 0 r /Helvetica findfont 78.1689 sf 0 0 m (28) show NC gr 
 gsave  2254 561 2 2 C 2132.13 118.64 t 0 r /Helvetica findfont 78.1689 sf 0 0 m (30) show NC gr  318 545 m 1860 X s 318 531 m 14 Y s 364 538 m 7 Y s 411 538 m 7 Y s 457 538 m 7 Y s 504 531 m 14 Y s 550 538 m 7 Y s 597 538 m 7 Y s 643 538 m 7 Y s 690
 531 m 14 Y s 736 538 m 7 Y s 783 538 m 7 Y s 829 538 m 7 Y s 876 531 m 14 Y s 923 538 m 7 Y s 969 538 m 7 Y s 1016 538 m 7 Y s 1062 531 m 14 Y s 1109 538 m 7 Y s 1155 538 m 7 Y s 1202 538 m 7 Y s 1248 531 m 14 Y s 1295 538 m 7 Y s 1341 538 m 7 Y s
 1388 538 m 7 Y s 1434 531 m 14 Y s 1481 538 m 7 Y s 1527 538 m 7 Y s 1574 538 m 7 Y s 1620 531 m 14 Y s 1667 538 m 7 Y s 1713 538 m 7 Y s 1760 538 m 7 Y s 1806 531 m 14 Y s 1853 538 m 7 Y s 1899 538 m 7 Y s 1946 538 m 7 Y s 1992 531 m 14 Y s 2039
 538 m 7 Y s 2085 538 m 7 Y s 2132 538 m 7 Y s 2178 531 m 14 Y s 318 187 m 358 Y s
 gsave  2254 561 2 2 C 166.096 284.736 t 90 r /Helvetica findfont 67.9729 sf 0 0 m (Data/SM) show NC gr  361 203 m -43 X s 339 220 m -21 X s 339 236 m -21 X s 339 252 m -21 X s 339 268 m -21 X s 361 285 m -43 X s 339 301 m -21 X s 339 317 m -21 X s
 339 334 m -21 X s 339 350 m -21 X s 361 366 m -43 X s 339 382 m -21 X s 339 399 m -21 X s 339 415 m -21 X s 339 431 m -21 X s 361 447 m -43 X s 339 464 m -21 X s 339 480 m -21 X s 339 496 m -21 X s 339 512 m -21 X s 361 529 m -43 X s 361 203 m -43 X
 s 339 187 m -21 X s 361 529 m -43 X s
 gsave  2254 561 2 2 C 261.008 183.044 t 0 r /Helvetica findfont 57.777 sf 0 0 m (0) show NC gr 
 gsave  2254 561 2 2 C 213.552 261.008 t 0 r /Helvetica findfont 57.777 sf 0 0 m (0.5) show NC gr 
 gsave  2254 561 2 2 C 271.177 342.361 t 0 r /Helvetica findfont 57.777 sf 0 0 m (1) show NC gr 
 gsave  2254 561 2 2 C 213.552 423.714 t 0 r /Helvetica findfont 57.777 sf 0 0 m (1.5) show NC gr 
 gsave  2254 561 2 2 C 261.008 505.067 t 0 r /Helvetica findfont 57.777 sf 0 0 m (2) show NC gr  2178 187 m 358 Y s 2135 203 m 43 X s 2157 220 m 21 X s 2157 236 m 21 X s 2157 252 m 21 X s 2157 268 m 21 X s 2135 285 m 43 X s 2157 301 m 21 X s 2157 317
 m 21 X s 2157 334 m 21 X s 2157 350 m 21 X s 2135 366 m 43 X s 2157 382 m 21 X s 2157 399 m 21 X s 2157 415 m 21 X s 2157 431 m 21 X s 2135 447 m 43 X s 2157 464 m 21 X s 2157 480 m 21 X s 2157 496 m 21 X s 2157 512 m 21 X s 2135 529 m 43 X s 2135
 203 m 43 X s 2157 187 m 21 X s 2135 529 m 43 X s 9 lw 411 389 m 2 Y s 411 391 m cl s 411 362 m -3 Y s 411 359 m cl s 597 349 m 6 Y s 597 355 m cl s 597 322 m -5 Y s 597 317 m cl s 783 343 m 12 Y s 783 355 m cl s 783 315 m -11 Y s 783 304 m cl s 969
 436 m 31 Y s 969 467 m cl s 969 409 m -31 Y s 969 378 m cl s 1155 339 m 35 Y s 1155 374 m cl s 1155 312 m -31 Y s 1155 281 m cl s 1341 510 m 35 Y s 1341 545 m cl s 1341 483 m -88 Y s 1341 395 m cl s 1527 346 m 91 Y s 1527 437 m cl s 1527 318 m -69 Y
 s 1527 249 m cl s 1713 545 m -97 Y s 1713 448 m cl s 1899 415 m 130 Y s 1899 545 m cl s 1899 388 m -150 Y s 1899 238 m cl s 2085 432 m 113 Y s 2085 545 m cl s 2085 404 m -163 Y s 2085 241 m cl s 3 lw 411 375 597 335 783 329 969 422 1155 326 1341 496
 1527 332 7 { m20} R 9 lw 3 lw 1899 401 2085 418 2 { m20} R 9 lw 1 0 0 c 6 lw black 3 lw 1 0 0 c 2178 341 m -26 -27 d s 2178 369 m -55 -55 d s 2178 398 m -84 -84 d s 2170 418 m -104 -104 d s 2141 418 m -104 -104 d s 2112 418 m -104 -104 d s 2084 418
 m -99 -98 d s 2055 418 m -98 -98 d s 2026 418 m -98 -98 d s 1997 418 m -5 -5 d s 1992 412 m -93 -92 d s 1963 412 m -93 -92 d s 1934 412 m -92 -92 d s 1906 412 m -93 -92 d s 1877 412 m -71 -71 d s 1848 412 m -71 -71 d s 1820 412 m -14 -13 d s 1798
 391 m -50 -50 d s 1770 391 m -50 -50 d s 1741 391 m -50 -50 d s 1712 391 m -50 -50 d s 1684 391 m -51 -50 d s 1655 391 m -52 -51 d s 1626 391 m -51 -51 d s 1599 393 m -53 -53 d s 1570 393 m -53 -53 d s 1542 393 m -54 -53 d s 1513 393 m -53 -53 d s
 1484 393 m -50 -50 d s 1456 393 m -45 -45 d s 1419 384 m -37 -36 d s 1390 384 m -37 -36 d s 1361 384 m -37 -36 d s 1333 384 m -37 -36 d s 1304 384 m -37 -36 d s 1275 384 m -36 -35 d s 1246 384 m -35 -35 d s 1217 384 m -35 -35 d s 1188 384 m -35 -35
 d s 1160 384 m -35 -35 d s 1131 384 m -35 -35 d s 1102 384 m -35 -35 d s 1074 384 m -34 -33 d s 1043 381 m -31 -30 d s 1014 381 m -31 -30 d s 985 381 m -31 -30 d s 957 381 m -31 -30 d s 928 381 m -31 -30 d s 899 381 m -29 -28 d s 869 379 m -27 -26 d
 s 840 379 m -27 -26 d s 811 379 m -27 -26 d s 783 379 m -27 -26 d s 754 379 m -27 -26 d s 725 379 m -27 -26 d s 696 379 m -25 -25 d s 667 378 m -25 -24 d s 638 378 m -25 -24 d s 609 378 m -24 -24 d s 580 378 m -24 -24 d s 552 378 m -25 -24 d s 523
 378 m -23 -23 d s 494 377 m -23 -22 d s 465 377 m -23 -22 d s 318 231 m s 436 377 m -22 -22 d s 318 259 m s 407 377 m -22 -22 d s 318 288 m s 379 377 m -23 -22 d s 318 317 m s 350 377 m -23 -22 d s 318 345 m s 321 377 m -3 -3 d s 6 lw black[ 4 8] 0
 sd 3 lw 318 447 m 1860 X s 318 285 m 1860 X s 1 0 0 c[  12 12 ] 0 sd 6 lw 318 366 m 1860 X s
 gr  gr showpage
end
%%EOF
