%!PS-Adobe-2.0 EPSF-2.0
%%BoundingBox:  0 0 567 521
%%Title: Distributions/metsqrtmeffInc_met_distrCRW_MB-C_beforeFit_forThesis.eps: canvas
%%Creator: ROOT Version 6.04/16
%%CreationDate: Tue May 19 22:05:51 2020
%%DocumentNeededResources: ProcSet (FontSetInit)
%%EndComments
%%BeginProlog
80 dict begin
/s {stroke} def /l {lineto} def /m {moveto} def /t {translate} def
/r {rotate} def /rl {roll}  def /R {repeat} def
/d {rlineto} def /rm {rmoveto} def /gr {grestore} def /f {eofill} def
/c {setrgbcolor} def /black {0 setgray} def /sd {setdash} def
/cl {closepath} def /sf {scalefont setfont} def /lw {setlinewidth} def
/box {m dup 0 exch d exch 0 d 0 exch neg d cl} def
/NC{systemdict begin initclip end}def/C{NC box clip newpath}def
/bl {box s} def /bf {gsave box gsave f grestore 1 lw [] 0 sd s grestore} def /Y { 0 exch d} def /X { 0 d} def 
/K {{pop pop 0 moveto} exch kshow} bind def
/ita {/ang 15 def gsave [1 0 ang dup sin exch cos div 1 0 0] concat} def 
/mp {newpath /y exch def /x exch def} def
/side {[w .77 mul w .23 mul] .385 w mul sd w 0 l currentpoint t -144 r} def
/mr {mp x y w2 0 360 arc} def /m24 {mr s} def /m20 {mr f} def
/mb {mp x y w2 add m w2 neg 0 d 0 w neg d w 0 d 0 w d cl} def
/mt {mp x y w2 add m w2 neg w neg d w 0 d cl} def
/m21 {mb f} def /m25 {mb s} def /m22 {mt f} def /m26{mt s} def
/m23 {mp x y w2 sub m w2 w d w neg 0 d cl f} def
/m27 {mp x y w2 add m w3 neg w2 neg d w3 w2 neg d w3 w2 d cl s} def
/m28 {mp x w2 sub y w2 sub w3 add m w3 0 d  0 w3 neg d w3 0 d 0 w3 d w3 0 d  0 w3 d w3 neg 0 d 0 w3 d w3 neg 0 d 0 w3 neg d w3 neg 0 d cl s } def
/m29 {mp gsave x w2 sub y w2 add w3 sub m currentpoint t 4 {side} repeat cl fill gr} def
/m30 {mp gsave x w2 sub y w2 add w3 sub m currentpoint t 4 {side} repeat cl s gr} def
/m31 {mp x y w2 sub m 0 w d x w2 sub y m w 0 d x w2 sub y w2 add m w w neg d x w2 sub y w2 sub m w w d s} def
/m32 {mp x y w2 sub m w2 w d w neg 0 d cl s} def
/m33 {mp x y w2 add m w3 neg w2 neg d w3 w2 neg d w3 w2 d cl f} def
/m34 {mp x w2 sub y w2 sub w3 add m w3 0 d  0 w3 neg d w3 0 d 0 w3 d w3 0 d  0 w3 d w3 neg 0 d 0 w3 d w3 neg 0 d 0 w3 neg d w3 neg 0 d cl f } def
/m2 {mp x y w2 sub m 0 w d x w2 sub y m w 0 d s} def
/m5 {mp x w2 sub y w2 sub m w w d x w2 sub y w2 add m w w neg d s} def
%%IncludeResource: ProcSet (FontSetInit)
%%IncludeResource: font Times-Roman
%%IncludeResource: font Times-Italic
%%IncludeResource: font Times-Bold
%%IncludeResource: font Times-BoldItalic
%%IncludeResource: font Helvetica
%%IncludeResource: font Helvetica-Oblique
%%IncludeResource: font Helvetica-Bold
%%IncludeResource: font Helvetica-BoldOblique
%%IncludeResource: font Courier
%%IncludeResource: font Courier-Oblique
%%IncludeResource: font Courier-Bold
%%IncludeResource: font Courier-BoldOblique
%%IncludeResource: font Symbol
%%IncludeResource: font ZapfDingbats
/reEncode {exch findfont dup length dict begin {1 index /FID eq  {pop pop} {def} ifelse } forall /Encoding exch def currentdict end dup /FontName get exch definefont pop } def [/Times-Bold /Times-Italic /Times-BoldItalic /Helvetica /Helvetica-Oblique
 /Helvetica-Bold /Helvetica-BoldOblique /Courier /Courier-Oblique /Courier-Bold /Courier-BoldOblique /Times-Roman /AvantGarde-Book /AvantGarde-BookOblique /AvantGarde-Demi /AvantGarde-DemiOblique /Bookman-Demi /Bookman-DemiItalic /Bookman-Light
 /Bookman-LightItalic /Helvetica-Narrow /Helvetica-Narrow-Bold /Helvetica-Narrow-BoldOblique /Helvetica-Narrow-Oblique /NewCenturySchlbk-Roman /NewCenturySchlbk-Bold /NewCenturySchlbk-BoldItalic /NewCenturySchlbk-Italic /Palatino-Bold
 /Palatino-BoldItalic /Palatino-Italic /Palatino-Roman ] {ISOLatin1Encoding reEncode } forall
%%EndProlog
%%BeginSetup
%%EndSetup
newpath  gsave  .25 .25 scale  gsave  0 0 t black[  ] 0 sd 3 lw 1 1 1 c 2268 2085 0 0 bf black 1 1 1 c 2263 1770 2 313 bf black 1 1 1 c black 1860 1145 319 584 bl 1 1 1 c black 1860 1145 319 584 bl 6 lw 1 1 1 c black 3 lw /w 33 def /w2 {w 2 div} def
 /w3 {w 3 div} def 374 1161 m20 6 lw 3 lw 483 1058 m20 6 lw 3 lw 593 1052 m20 6 lw 3 lw 702 1050 m20 6 lw 3 lw 812 1021 m20 6 lw 3 lw 921 1010 m20 6 lw 3 lw 1030 989 m20 6 lw 3 lw 1140 926 m20 6 lw 3 lw 1249 896 m20 6 lw 1359 845 m 3 Y s 3 lw 1359
 861 m20 6 lw 1468 830 m 6 Y s 1468 863 m s 3 lw 1468 849 m20 6 lw 2125 584 m 114 Y s 2125 725 m 25 Y s 3 lw 2125 712 m20 6 lw 3 lw 319 584 m 1860 X s
 gsave  2263 1770 2 313 C 2101.62 396.596 t 0 r /Helvetica findfont 54.2494 sf 0 0 m (1/2) show NC gr 
 gsave  2263 1770 2 313 C 1874.51 355.92 t 0 r /Helvetica findfont 81.3741 sf 0 0 m ( [GeV]) show NC gr 
 gsave  2263 1770 2 313 C 1840.61 332.192 t 0 r /Helvetica findfont 54.2494 sf 0 0 m (T) show NC gr 
 gsave  2263 1770 2 313 C 1786.38 355.92 t 0 r /Helvetica findfont 81.3741 sf 0 0 m (H) show NC gr  6 lw 1749 417 m 14 -85 d s 3 lw 1763 332 m 13 105 d s 1776 437 m 99 X s
 gsave  2263 1770 2 313 C 1711.8 355.92 t 0 r /Helvetica findfont 81.3741 sf 0 0 m (/) show NC gr 
 gsave  2263 1770 2 313 C 1599.94 396.596 t 0 r /Helvetica findfont 54.2494 sf 0 0 m (miss) show NC gr 
 gsave  2263 1770 2 313 C 1599.94 332.192 t 0 r /Helvetica findfont 54.2494 sf 0 0 m (T) show NC gr 
 gsave  2263 1770 2 313 C 1549.1 355.92 t 0 r /Helvetica findfont 81.3741 sf 0 0 m (E) show NC gr  538 584 m cl s 593 584 m cl s 647 584 m cl s 702 584 m cl s 757 584 m cl s 812 584 m cl s 866 584 m cl s 921 584 m cl s 976 584 m cl s 1030 584 m cl s
 1085 584 m cl s 1140 584 m cl s 1195 584 m cl s 1249 584 m cl s 1304 584 m cl s 1359 584 m cl s 1413 584 m cl s 1468 584 m cl s 1523 584 m cl s 1578 584 m cl s 1632 584 m cl s 1687 584 m cl s 1742 584 m cl s 1796 584 m cl s 1851 584 m cl s 1906 584
 m cl s 1961 584 m cl s 2015 584 m cl s 2070 584 m cl s 2125 584 m cl s 2179 584 m cl s 538 584 m cl s 483 584 m cl s 429 584 m cl s 374 584 m cl s 319 1729 m 1860 X s 538 1729 m cl s 593 1729 m cl s 647 1729 m cl s 702 1729 m cl s 757 1729 m cl s
 812 1729 m cl s 866 1729 m cl s 921 1729 m cl s 976 1729 m cl s 1030 1729 m cl s 1085 1729 m cl s 1140 1729 m cl s 1195 1729 m cl s 1249 1729 m cl s 1304 1729 m cl s 1359 1729 m cl s 1413 1729 m cl s 1468 1729 m cl s 1523 1729 m cl s 1578 1729 m cl
 s 1632 1729 m cl s 1687 1729 m cl s 1742 1729 m cl s 1796 1729 m cl s 1851 1729 m cl s 1906 1729 m cl s 1961 1729 m cl s 2015 1729 m cl s 2070 1729 m cl s 2125 1729 m cl s 2179 1729 m cl s 538 1729 m cl s 483 1729 m cl s 429 1729 m cl s 374 1729 m
 cl s 319 584 m 1145 Y s
 gsave  2263 1770 2 313 C 125.419 1654.18 t 90 r /Helvetica findfont 54.2494 sf 0 0 m (1/2) show NC gr 
 gsave  2263 1770 2 313 C 166.096 1064.37 t 90 r /Helvetica findfont 81.3741 sf 0 0 m (Events / 2 [GeV]) show NC gr  341 623 m -22 X s 341 645 m -22 X s 341 661 m -22 X s 341 673 m -22 X s 341 683 m -22 X s 341 692 m -22 X s 341 699 m -22 X s 341 706
 m -22 X s 363 712 m -44 X s
 gsave  2263 1770 2 313 C 300.555 684.568 t 0 r  -36 0 t /Helvetica findfont 64.4212 sf 0 0 m (1) show NC gr  341 750 m -22 X s 341 772 m -22 X s 341 788 m -22 X s 341 801 m -22 X s 341 811 m -22 X s 341 819 m -22 X s 341 827 m -22 X s 341 833 m -22
 X s 363 839 m -44 X s
 gsave  2263 1770 2 313 C 300.555 811.945 t 0 r  -73 0 t /Helvetica findfont 64.4212 sf 0 0 m (10) show NC gr  341 877 m -22 X s 341 900 m -22 X s 341 916 m -22 X s 341 928 m -22 X s 341 938 m -22 X s 341 947 m -22 X s 341 954 m -22 X s 341 961 m -22
 X s 363 966 m -44 X s
 gsave  2263 1770 2 313 C 274.567 966.068 t 0 r /Helvetica findfont 44.0776 sf 0 0 m (2) show NC gr 
 gsave  2263 1770 2 313 C 203.383 938.95 t 0 r /Helvetica findfont 64.4212 sf 0 0 m (10) show NC gr  341 1005 m -22 X s 341 1027 m -22 X s 341 1043 m -22 X s 341 1055 m -22 X s 341 1066 m -22 X s 341 1074 m -22 X s 341 1081 m -22 X s 341 1088 m -22 X
 s 363 1094 m -44 X s
 gsave  2263 1770 2 313 C 274.567 1094.88 t 0 r /Helvetica findfont 44.0776 sf 0 0 m (3) show NC gr 
 gsave  2263 1770 2 313 C 203.383 1064.37 t 0 r /Helvetica findfont 64.4212 sf 0 0 m (10) show NC gr  341 1132 m -22 X s 341 1155 m -22 X s 341 1171 m -22 X s 341 1183 m -22 X s 341 1193 m -22 X s 341 1201 m -22 X s 341 1209 m -22 X s 341 1215 m -22
 X s 363 1221 m -44 X s
 gsave  2263 1770 2 313 C 274.567 1220.3 t 0 r /Helvetica findfont 44.0776 sf 0 0 m (4) show NC gr 
 gsave  2263 1770 2 313 C 203.383 1193.18 t 0 r /Helvetica findfont 64.4212 sf 0 0 m (10) show NC gr  341 1260 m -22 X s 341 1282 m -22 X s 341 1298 m -22 X s 341 1310 m -22 X s 341 1320 m -22 X s 341 1329 m -22 X s 341 1336 m -22 X s 341 1343 m -22
 X s 363 1349 m -44 X s
 gsave  2263 1770 2 313 C 274.567 1349.1 t 0 r /Helvetica findfont 44.0776 sf 0 0 m (5) show NC gr 
 gsave  2263 1770 2 313 C 203.383 1318.6 t 0 r /Helvetica findfont 64.4212 sf 0 0 m (10) show NC gr  341 1387 m -22 X s 341 1409 m -22 X s 341 1425 m -22 X s 341 1438 m -22 X s 341 1448 m -22 X s 341 1456 m -22 X s 341 1464 m -22 X s 341 1470 m -22 X
 s 363 1476 m -44 X s
 gsave  2263 1770 2 313 C 274.567 1477.91 t 0 r /Helvetica findfont 44.0776 sf 0 0 m (6) show NC gr 
 gsave  2263 1770 2 313 C 203.383 1447.41 t 0 r /Helvetica findfont 64.4212 sf 0 0 m (10) show NC gr  341 1514 m -22 X s 341 1537 m -22 X s 341 1553 m -22 X s 341 1565 m -22 X s 341 1575 m -22 X s 341 1584 m -22 X s 341 1591 m -22 X s 341 1597 m -22
 X s 363 1603 m -44 X s
 gsave  2263 1770 2 313 C 274.567 1599.94 t 0 r /Helvetica findfont 44.0776 sf 0 0 m (7) show NC gr 
 gsave  2263 1770 2 313 C 203.383 1572.83 t 0 r /Helvetica findfont 64.4212 sf 0 0 m (10) show NC gr  341 1642 m -22 X s 341 1664 m -22 X s 341 1680 m -22 X s 341 1692 m -22 X s 341 1702 m -22 X s 341 1711 m -22 X s 341 1718 m -22 X s 341 1725 m -22
 X s 2179 584 m 1145 Y s 2157 623 m 22 X s 2157 645 m 22 X s 2157 661 m 22 X s 2157 673 m 22 X s 2157 683 m 22 X s 2157 692 m 22 X s 2157 699 m 22 X s 2157 706 m 22 X s 2136 712 m 43 X s 2157 750 m 22 X s 2157 772 m 22 X s 2157 788 m 22 X s 2157 801
 m 22 X s 2157 811 m 22 X s 2157 819 m 22 X s 2157 827 m 22 X s 2157 833 m 22 X s 2136 839 m 43 X s 2157 877 m 22 X s 2157 900 m 22 X s 2157 916 m 22 X s 2157 928 m 22 X s 2157 938 m 22 X s 2157 947 m 22 X s 2157 954 m 22 X s 2157 961 m 22 X s 2136
 966 m 43 X s 2157 1005 m 22 X s 2157 1027 m 22 X s 2157 1043 m 22 X s 2157 1055 m 22 X s 2157 1066 m 22 X s 2157 1074 m 22 X s 2157 1081 m 22 X s 2157 1088 m 22 X s 2136 1094 m 43 X s 2157 1132 m 22 X s 2157 1155 m 22 X s 2157 1171 m 22 X s 2157
 1183 m 22 X s 2157 1193 m 22 X s 2157 1201 m 22 X s 2157 1209 m 22 X s 2157 1215 m 22 X s 2136 1221 m 43 X s 2157 1260 m 22 X s 2157 1282 m 22 X s 2157 1298 m 22 X s 2157 1310 m 22 X s 2157 1320 m 22 X s 2157 1329 m 22 X s 2157 1336 m 22 X s 2157
 1343 m 22 X s 2136 1349 m 43 X s 2157 1387 m 22 X s 2157 1409 m 22 X s 2157 1425 m 22 X s 2157 1438 m 22 X s 2157 1448 m 22 X s 2157 1456 m 22 X s 2157 1464 m 22 X s 2157 1470 m 22 X s 2136 1476 m 43 X s 2157 1514 m 22 X s 2157 1537 m 22 X s 2157
 1553 m 22 X s 2157 1565 m 22 X s 2157 1575 m 22 X s 2157 1584 m 22 X s 2157 1591 m 22 X s 2157 1597 m 22 X s 2136 1603 m 43 X s 2157 1642 m 22 X s 2157 1664 m 22 X s 2157 1680 m 22 X s 2157 1692 m 22 X s 2157 1702 m 22 X s 2157 1711 m 22 X s 2157
 1718 m 22 X s 2157 1725 m 22 X s 0.4 0.6 1 c black 0.4 0.6 1 c 319 584 m 584 Y 110 X -105 Y 109 X -17 Y 219 X -7 Y 109 X -27 Y 110 X -34 Y 109 X -39 Y 110 X -49 Y 109 X -43 Y 109 X -46 Y 110 X -74 Y 109 X -27 Y 110 X -73 Y 109 X -43 Y 328 X f black
 0.4 0.6 1 c black 319 1168 m 110 X -105 Y 109 X -17 Y 219 X -7 Y 109 X -27 Y 110 X -34 Y 109 X -39 Y 110 X -49 Y 109 X -43 Y 109 X -46 Y 110 X -74 Y 109 X -27 Y 110 X -73 Y 109 X -43 Y 328 X s 0.999 0.999 0.999 c black 0.999 0.999 0.999 c 319 584 m
 485 Y 110 X -120 Y 109 X -10 Y 109 X -18 Y 110 X -11 Y 109 X -26 Y 110 X -31 Y 109 X -42 Y 110 X -31 Y 109 X -134 Y 109 X 35 Y 110 X -78 Y 109 X -19 Y 547 X f black 0.999 0.999 0.999 c black 319 1069 m 110 X -120 Y 109 X -10 Y 109 X -18 Y 110 X -11
 Y 109 X -26 Y 110 X -31 Y 109 X -42 Y 110 X -31 Y 109 X -134 Y 109 X 35 Y 110 X -78 Y 109 X -19 Y 547 X s 1 1 1 c black 319 1069 m 110 X -120 Y 109 X -10 Y 109 X -18 Y 110 X -11 Y 109 X -26 Y 110 X -31 Y 109 X -42 Y 110 X -31 Y 109 X -134 Y 109 X 35
 Y 110 X -78 Y 109 X -19 Y 547 X s 0.6 1 0.6 c black 0.6 1 0.6 c 319 584 m 485 Y 110 X -120 Y 109 X -10 Y 109 X -18 Y 110 X -11 Y 109 X -26 Y 110 X -31 Y 109 X -42 Y 110 X -31 Y 109 X -134 Y 109 X 35 Y 110 X -78 Y 109 X -19 Y 547 X f black 0.6 1 0.6
 c black 319 1069 m 110 X -120 Y 109 X -10 Y 109 X -18 Y 110 X -11 Y 109 X -26 Y 110 X -31 Y 109 X -42 Y 110 X -31 Y 109 X -134 Y 109 X 35 Y 110 X -78 Y 109 X -19 Y 547 X s 0.999 0.999 0.999 c black 0.999 0.999 0.999 c 319 584 m 431 Y 110 X -109 Y
 218 X -12 Y 110 X -7 Y 109 X -22 Y 110 X -33 Y 109 X -31 Y 110 X -42 Y 109 X -128 Y 109 X -47 Y 110 X 19 Y 109 X -19 Y 547 X f black 0.999 0.999 0.999 c black 319 1015 m 110 X -109 Y 218 X -12 Y 110 X -7 Y 109 X -22 Y 110 X -33 Y 109 X -31 Y 110 X
 -42 Y 109 X -128 Y 109 X -47 Y 110 X 19 Y 109 X -19 Y 547 X s 1 1 1 c black 319 1015 m 110 X -109 Y 218 X -12 Y 110 X -7 Y 109 X -22 Y 110 X -33 Y 109 X -31 Y 110 X -42 Y 109 X -128 Y 109 X -47 Y 110 X 19 Y 109 X -19 Y 547 X s 1 0.8 0.4 c black 1
 0.8 0.4 c 319 584 m 431 Y 110 X -109 Y 218 X -12 Y 110 X -7 Y 109 X -22 Y 110 X -33 Y 109 X -31 Y 110 X -42 Y 109 X -128 Y 109 X -47 Y 110 X 19 Y 109 X -19 Y 547 X f black 1 0.8 0.4 c black 319 1015 m 110 X -109 Y 218 X -12 Y 110 X -7 Y 109 X -22 Y
 110 X -33 Y 109 X -31 Y 110 X -42 Y 109 X -128 Y 109 X -47 Y 110 X 19 Y 109 X -19 Y 547 X s 0.999 0.999 0.999 c black 0.999 0.999 0.999 c 319 584 m 424 Y 110 X -108 Y 109 X 1 Y 109 X -13 Y 110 X -5 Y 109 X -21 Y 110 X -36 Y 109 X -30 Y 110 X -40 Y
 109 X -144 Y 109 X -28 Y 110 X 19 Y 109 X -19 Y 547 X f black 0.999 0.999 0.999 c black 319 1008 m 110 X -108 Y 109 X 1 Y 109 X -13 Y 110 X -5 Y 109 X -21 Y 110 X -36 Y 109 X -30 Y 110 X -40 Y 109 X -144 Y 109 X -28 Y 110 X 19 Y 109 X -19 Y 547 X s
 1 1 1 c black 319 1008 m 110 X -108 Y 109 X 1 Y 109 X -13 Y 110 X -5 Y 109 X -21 Y 110 X -36 Y 109 X -30 Y 110 X -40 Y 109 X -144 Y 109 X -28 Y 110 X 19 Y 109 X -19 Y 547 X s 1 0.4 0.6 c black 1 0.4 0.6 c 319 584 m 424 Y 110 X -108 Y 109 X 1 Y 109 X
 -13 Y 110 X -5 Y 109 X -21 Y 110 X -36 Y 109 X -30 Y 110 X -40 Y 109 X -144 Y 109 X -28 Y 110 X 19 Y 109 X -19 Y 547 X f black 1 0.4 0.6 c black 319 1008 m 110 X -108 Y 109 X 1 Y 109 X -13 Y 110 X -5 Y 109 X -21 Y 110 X -36 Y 109 X -30 Y 110 X -40 Y
 109 X -144 Y 109 X -28 Y 110 X 19 Y 109 X -19 Y 547 X s 1 0 0 c 6 lw 1 1 1 c black 1 0 0 c 319 1168 m 110 X -105 Y 109 X -17 Y 219 X -7 Y 109 X -27 Y 110 X -34 Y 109 X -39 Y 110 X -49 Y 109 X -43 Y 109 X -46 Y 110 X -74 Y 109 X -27 Y 110 X -73 Y 109
 X -43 Y 328 X s black 3 lw 1 0 0 c 1 lw << /PatternType 1 /PaintType 2 /TilingType 1 /BBox [ 0 0 100 100 ] /XStep 100 /YStep 100 /PaintProc { begin gsave 0 100 m 100 0 l s gr end } >> [ 0.24 0 0 0.24 0 0 ] makepattern /P05 exch def /cs {[/Pattern
 /DeviceRGB] setcolorspace} def /FA {f [/DeviceRGB] setcolorspace} def cs 1 0 0 P05 setcolor 319 584 m 586 Y 110 X -106 Y 109 X -14 Y 109 X -3 Y 110 X -5 Y 109 X -28 Y 110 X -33 Y 109 X -39 Y 110 X -48 Y 109 X -44 Y 109 X -41 Y 110 X -66 Y 109 X -34
 Y 110 X -58 Y 109 X -58 Y 110 X -9 Y -219 X 104 Y -110 X 18 Y -109 X 86 Y -110 X 52 Y -109 X 41 Y -109 X 50 Y -110 X 40 Y -109 X 34 Y -110 X 26 Y -109 X 10 Y -110 X -2 Y -109 X 18 Y -109 X 106 Y -110 X -583 Y FA 6 lw 1 1 1 c 15 lw 2125 732 m 25 Y s
 2125 757 m cl s 2125 691 m -76 Y s 2125 615 m cl s black 1 1 1 c 3 lw /w 43 def /w2 {w 2 div} def /w3 {w 3 div} def 374 1161 483 1058 593 1052 702 1050 812 1021 921 1010 1030 989 1140 926 1249 896 1359 861 1468 849 11 { m20} R 15 lw 3 lw 2125 712
 m20 15 lw black 6 lw 1 1 1 c black 3 lw /w 33 def /w2 {w 2 div} def /w3 {w 3 div} def 374 1161 m20 6 lw 3 lw 483 1058 m20 6 lw 3 lw 593 1052 m20 6 lw 3 lw 702 1050 m20 6 lw 3 lw 812 1021 m20 6 lw 3 lw 921 1010 m20 6 lw 3 lw 1030 989 m20 6 lw 3 lw
 1140 926 m20 6 lw 3 lw 1249 896 m20 6 lw 1359 845 m 3 Y s 3 lw 1359 861 m20 6 lw 1468 830 m 6 Y s 1468 863 m s 3 lw 1468 849 m20 6 lw 2125 584 m 114 Y s 2125 725 m 25 Y s 3 lw 2125 712 m20 6 lw 1359 848 m -3 Y s 1359 845 m cl s 1468 863 m s 1468 863
 m cl s 1468 836 m -5 Y s 1468 831 m cl s 2125 725 m 32 Y s 2125 757 m cl s 2125 698 m -83 Y s 2125 615 m cl s 3 lw 374 1161 483 1058 593 1052 702 1050 812 1021 921 1010 1030 989 1140 926 1249 896 1359 861 1468 849 11 { m20} R 6 lw 3 lw 2125 712 m20
 6 lw 3 lw 319 584 m 1860 X s 538 584 m cl s 593 584 m cl s 647 584 m cl s 702 584 m cl s 757 584 m cl s 812 584 m cl s 866 584 m cl s 921 584 m cl s 976 584 m cl s 1030 584 m cl s 1085 584 m cl s 1140 584 m cl s 1195 584 m cl s 1249 584 m cl s 1304
 584 m cl s 1359 584 m cl s 1413 584 m cl s 1468 584 m cl s 1523 584 m cl s 1578 584 m cl s 1632 584 m cl s 1687 584 m cl s 1742 584 m cl s 1796 584 m cl s 1851 584 m cl s 1906 584 m cl s 1961 584 m cl s 2015 584 m cl s 2070 584 m cl s 2125 584 m cl
 s 2179 584 m cl s 538 584 m cl s 483 584 m cl s 429 584 m cl s 374 584 m cl s 319 1729 m 1860 X s 538 1729 m cl s 593 1729 m cl s 647 1729 m cl s 702 1729 m cl s 757 1729 m cl s 812 1729 m cl s 866 1729 m cl s 921 1729 m cl s 976 1729 m cl s 1030
 1729 m cl s 1085 1729 m cl s 1140 1729 m cl s 1195 1729 m cl s 1249 1729 m cl s 1304 1729 m cl s 1359 1729 m cl s 1413 1729 m cl s 1468 1729 m cl s 1523 1729 m cl s 1578 1729 m cl s 1632 1729 m cl s 1687 1729 m cl s 1742 1729 m cl s 1796 1729 m cl s
 1851 1729 m cl s 1906 1729 m cl s 1961 1729 m cl s 2015 1729 m cl s 2070 1729 m cl s 2125 1729 m cl s 2179 1729 m cl s 538 1729 m cl s 483 1729 m cl s 429 1729 m cl s 374 1729 m cl s 319 584 m 1145 Y s 341 623 m -22 X s 341 645 m -22 X s 341 661 m
 -22 X s 341 673 m -22 X s 341 683 m -22 X s 341 692 m -22 X s 341 699 m -22 X s 341 706 m -22 X s 363 712 m -44 X s 341 750 m -22 X s 341 772 m -22 X s 341 788 m -22 X s 341 801 m -22 X s 341 811 m -22 X s 341 819 m -22 X s 341 827 m -22 X s 341 833
 m -22 X s 363 839 m -44 X s 341 877 m -22 X s 341 900 m -22 X s 341 916 m -22 X s 341 928 m -22 X s 341 938 m -22 X s 341 947 m -22 X s 341 954 m -22 X s 341 961 m -22 X s 363 966 m -44 X s 341 1005 m -22 X s 341 1027 m -22 X s 341 1043 m -22 X s
 341 1055 m -22 X s 341 1066 m -22 X s 341 1074 m -22 X s 341 1081 m -22 X s 341 1088 m -22 X s 363 1094 m -44 X s 341 1132 m -22 X s 341 1155 m -22 X s 341 1171 m -22 X s 341 1183 m -22 X s 341 1193 m -22 X s 341 1201 m -22 X s 341 1209 m -22 X s
 341 1215 m -22 X s 363 1221 m -44 X s 341 1260 m -22 X s 341 1282 m -22 X s 341 1298 m -22 X s 341 1310 m -22 X s 341 1320 m -22 X s 341 1329 m -22 X s 341 1336 m -22 X s 341 1343 m -22 X s 363 1349 m -44 X s 341 1387 m -22 X s 341 1409 m -22 X s
 341 1425 m -22 X s 341 1438 m -22 X s 341 1448 m -22 X s 341 1456 m -22 X s 341 1464 m -22 X s 341 1470 m -22 X s 363 1476 m -44 X s 341 1514 m -22 X s 341 1537 m -22 X s 341 1553 m -22 X s 341 1565 m -22 X s 341 1575 m -22 X s 341 1584 m -22 X s
 341 1591 m -22 X s 341 1597 m -22 X s 363 1603 m -44 X s 341 1642 m -22 X s 341 1664 m -22 X s 341 1680 m -22 X s 341 1692 m -22 X s 341 1702 m -22 X s 341 1711 m -22 X s 341 1718 m -22 X s 341 1725 m -22 X s 2179 584 m 1145 Y s 2157 623 m 22 X s
 2157 645 m 22 X s 2157 661 m 22 X s 2157 673 m 22 X s 2157 683 m 22 X s 2157 692 m 22 X s 2157 699 m 22 X s 2157 706 m 22 X s 2136 712 m 43 X s 2157 750 m 22 X s 2157 772 m 22 X s 2157 788 m 22 X s 2157 801 m 22 X s 2157 811 m 22 X s 2157 819 m 22 X
 s 2157 827 m 22 X s 2157 833 m 22 X s 2136 839 m 43 X s 2157 877 m 22 X s 2157 900 m 22 X s 2157 916 m 22 X s 2157 928 m 22 X s 2157 938 m 22 X s 2157 947 m 22 X s 2157 954 m 22 X s 2157 961 m 22 X s 2136 966 m 43 X s 2157 1005 m 22 X s 2157 1027 m
 22 X s 2157 1043 m 22 X s 2157 1055 m 22 X s 2157 1066 m 22 X s 2157 1074 m 22 X s 2157 1081 m 22 X s 2157 1088 m 22 X s 2136 1094 m 43 X s 2157 1132 m 22 X s 2157 1155 m 22 X s 2157 1171 m 22 X s 2157 1183 m 22 X s 2157 1193 m 22 X s 2157 1201 m 22
 X s 2157 1209 m 22 X s 2157 1215 m 22 X s 2136 1221 m 43 X s 2157 1260 m 22 X s 2157 1282 m 22 X s 2157 1298 m 22 X s 2157 1310 m 22 X s 2157 1320 m 22 X s 2157 1329 m 22 X s 2157 1336 m 22 X s 2157 1343 m 22 X s 2136 1349 m 43 X s 2157 1387 m 22 X
 s 2157 1409 m 22 X s 2157 1425 m 22 X s 2157 1438 m 22 X s 2157 1448 m 22 X s 2157 1456 m 22 X s 2157 1464 m 22 X s 2157 1470 m 22 X s 2136 1476 m 43 X s 2157 1514 m 22 X s 2157 1537 m 22 X s 2157 1553 m 22 X s 2157 1565 m 22 X s 2157 1575 m 22 X s
 2157 1584 m 22 X s 2157 1591 m 22 X s 2157 1597 m 22 X s 2136 1603 m 43 X s 2157 1642 m 22 X s 2157 1664 m 22 X s 2157 1680 m 22 X s 2157 1692 m 22 X s 2157 1702 m 22 X s 2157 1711 m 22 X s 2157 1718 m 22 X s 2157 1725 m 22 X s
 gsave  2263 1770 2 313 C 406.765 1447.41 t 0 r /Helvetica findfont 64.4212 sf 0 0 m (CRW for MB\255C) show NC gr 
 gsave  2263 1770 2 313 C 1464.36 1616.89 t 0 r /Helvetica findfont 64.4212 sf 0 0 m (SM Total) show NC gr  1 1 1 c 1338 1603 m 107 X 74 Y -107 X f 1 0 0 c 6 lw 1338 1640 m 107 X s black
 gsave  2263 1770 2 313 C 1464.36 1511.81 t 0 r /Helvetica findfont 64.4212 sf 0 0 m (Data) show NC gr  1391 1502 m 64 Y s 3 lw 1391 1534 m20 6 lw
 gsave  2263 1770 2 313 C 1464.36 1406.73 t 0 r /Helvetica findfont 64.4212 sf 0 0 m (W+jets) show NC gr  0.4 0.6 1 c 3 lw 1338 1391 m 107 X 74 Y -107 X f 6 lw black 3 lw 1338 1465 m 107 X s 1338 1391 m 107 X s 1445 1391 m 74 Y s 1338 1391 m 74 Y s
 gsave  2263 1770 2 313 C 1498.25 1298.26 t 0 r /Helvetica findfont 64.4212 sf 0 0 m (\(+EW\) & single top) show NC gr 
 gsave  2263 1770 2 313 C 1481.3 1298.26 t 0 r /Helvetica findfont 64.4212 sf 0 0 m (t) show NC gr  1481 1349 m 17 X s
 gsave  2263 1770 2 313 C 1464.36 1298.26 t 0 r /Helvetica findfont 64.4212 sf 0 0 m (t) show NC gr  0.6 1 0.6 c 1338 1284 m 107 X 75 Y -107 X f black 1338 1359 m 107 X s 1338 1284 m 107 X s 1445 1284 m 75 Y s 1338 1284 m 75 Y s
 gsave  2263 1770 2 313 C 1464.36 1193.18 t 0 r /Helvetica findfont 64.4212 sf 0 0 m (Z+jets) show NC gr  1 0.8 0.4 c 1338 1178 m 107 X 75 Y -107 X f black 1338 1253 m 107 X s 1338 1178 m 107 X s 1445 1178 m 75 Y s 1338 1178 m 75 Y s
 gsave  2263 1770 2 313 C 1464.36 1088.1 t 0 r /Helvetica findfont 64.4212 sf 0 0 m (Diboson) show NC gr  1 0.4 0.6 c 1338 1072 m 107 X 74 Y -107 X f black 1338 1146 m 107 X s 1338 1072 m 107 X s 1445 1072 m 74 Y s 1338 1072 m 74 Y s
 gsave  2263 1770 2 313 C 911.832 1566.05 t 0 r /Helvetica findfont 44.0776 sf 0 0 m (\2551) show NC gr 
 gsave  2263 1770 2 313 C 471.17 1535.54 t 0 r /Helvetica findfont 64.4212 sf 0 0 m (=13TeV, 139 fb) show NC gr 
 gsave  2263 1770 2 313 C 440.662 1535.54 t 0 r /Helvetica findfont 64.4212 sf 0 0 m (s) show NC gr  6 lw 420 1573 m 7 -41 d s 3 lw 427 1532 m 7 61 d s 434 1593 m 37 X s 1 1 1 c 2254 561 2 2 bf black 1 1 1 c black 1860 358 318 187 bl 1 1 1 c black
 1860 358 318 187 bl 6 lw 1 1 1 c black 3 lw 373 346 m20 6 lw 3 lw 482 353 m20 6 lw 3 lw 591 383 m20 6 lw 3 lw 701 379 m20 6 lw 3 lw 810 322 m20 6 lw 3 lw 920 361 m20 6 lw 3 lw 1029 400 m20 6 lw 3 lw 1139 332 m20 6 lw 3 lw 1248 386 m20 6 lw 3 lw 1358
 414 m20 6 lw 3 lw 318 187 m 1860 X s
 gsave  2254 561 2 2 C 2105.01 64.4045 t 0 r /Helvetica findfont 50.9797 sf 0 0 m (1/2) show NC gr 
 gsave  2254 561 2 2 C 1888.07 23.728 t 0 r /Helvetica findfont 78.1689 sf 0 0 m ( [GeV]) show NC gr 
 gsave  2254 561 2 2 C 1857.56 3.38971 t 0 r /Helvetica findfont 50.9797 sf 0 0 m (T) show NC gr 
 gsave  2254 561 2 2 C 1806.72 23.728 t 0 r /Helvetica findfont 78.1689 sf 0 0 m (H) show NC gr  6 lw 1773 81 m 10 -78 d s 3 lw 1783 3 m 14 99 d s 1797 102 m 91 X s
 gsave  2254 561 2 2 C 1735.53 23.728 t 0 r /Helvetica findfont 78.1689 sf 0 0 m (/) show NC gr 
 gsave  2254 561 2 2 C 1630.45 61.0148 t 0 r /Helvetica findfont 50.9797 sf 0 0 m (miss) show NC gr 
 gsave  2254 561 2 2 C 1630.45 3.38971 t 0 r /Helvetica findfont 50.9797 sf 0 0 m (T) show NC gr 
 gsave  2254 561 2 2 C 1579.61 23.728 t 0 r /Helvetica findfont 78.1689 sf 0 0 m (E) show NC gr  537 201 m -14 Y s 591 194 m -7 Y s 646 194 m -7 Y s 701 194 m -7 Y s 756 194 m -7 Y s 810 201 m -14 Y s 865 194 m -7 Y s 920 194 m -7 Y s 975 194 m -7 Y
 s 1029 194 m -7 Y s 1084 201 m -14 Y s 1139 194 m -7 Y s 1193 194 m -7 Y s 1248 194 m -7 Y s 1303 194 m -7 Y s 1358 201 m -14 Y s 1412 194 m -7 Y s 1467 194 m -7 Y s 1522 194 m -7 Y s 1576 194 m -7 Y s 1631 201 m -14 Y s 1686 194 m -7 Y s 1741 194 m
 -7 Y s 1795 194 m -7 Y s 1850 194 m -7 Y s 1905 201 m -14 Y s 1959 194 m -7 Y s 2014 194 m -7 Y s 2069 194 m -7 Y s 2124 194 m -7 Y s 2178 201 m -14 Y s 537 201 m -14 Y s 482 194 m -7 Y s 427 194 m -7 Y s 373 194 m -7 Y s 318 194 m -7 Y s
 gsave  2254 561 2 2 C 491.508 118.64 t 0 r /Helvetica findfont 78.1689 sf 0 0 m (20) show NC gr 
 gsave  2254 561 2 2 C 766.075 118.64 t 0 r /Helvetica findfont 78.1689 sf 0 0 m (25) show NC gr 
 gsave  2254 561 2 2 C 1037.25 118.64 t 0 r /Helvetica findfont 78.1689 sf 0 0 m (30) show NC gr 
 gsave  2254 561 2 2 C 1311.82 118.64 t 0 r /Helvetica findfont 78.1689 sf 0 0 m (35) show NC gr 
 gsave  2254 561 2 2 C 1586.38 118.64 t 0 r /Helvetica findfont 78.1689 sf 0 0 m (40) show NC gr 
 gsave  2254 561 2 2 C 1857.56 118.64 t 0 r /Helvetica findfont 78.1689 sf 0 0 m (45) show NC gr 
 gsave  2254 561 2 2 C 2132.13 118.64 t 0 r /Helvetica findfont 78.1689 sf 0 0 m (50) show NC gr  318 545 m 1860 X s 537 531 m 14 Y s 591 538 m 7 Y s 646 538 m 7 Y s 701 538 m 7 Y s 756 538 m 7 Y s 810 531 m 14 Y s 865 538 m 7 Y s 920 538 m 7 Y s 975
 538 m 7 Y s 1029 538 m 7 Y s 1084 531 m 14 Y s 1139 538 m 7 Y s 1193 538 m 7 Y s 1248 538 m 7 Y s 1303 538 m 7 Y s 1358 531 m 14 Y s 1412 538 m 7 Y s 1467 538 m 7 Y s 1522 538 m 7 Y s 1576 538 m 7 Y s 1631 531 m 14 Y s 1686 538 m 7 Y s 1741 538 m 7
 Y s 1795 538 m 7 Y s 1850 538 m 7 Y s 1905 531 m 14 Y s 1959 538 m 7 Y s 2014 538 m 7 Y s 2069 538 m 7 Y s 2124 538 m 7 Y s 2178 531 m 14 Y s 537 531 m 14 Y s 482 538 m 7 Y s 427 538 m 7 Y s 373 538 m 7 Y s 318 538 m 7 Y s 318 187 m 358 Y s
 gsave  2254 561 2 2 C 166.096 284.736 t 90 r /Helvetica findfont 67.9729 sf 0 0 m (Data/SM) show NC gr  361 203 m -43 X s 339 220 m -21 X s 339 236 m -21 X s 339 252 m -21 X s 339 268 m -21 X s 361 285 m -43 X s 339 301 m -21 X s 339 317 m -21 X s
 339 334 m -21 X s 339 350 m -21 X s 361 366 m -43 X s 339 382 m -21 X s 339 399 m -21 X s 339 415 m -21 X s 339 431 m -21 X s 361 447 m -43 X s 339 464 m -21 X s 339 480 m -21 X s 339 496 m -21 X s 339 512 m -21 X s 361 529 m -43 X s 361 203 m -43 X
 s 339 187 m -21 X s 361 529 m -43 X s
 gsave  2254 561 2 2 C 261.008 183.044 t 0 r /Helvetica findfont 57.777 sf 0 0 m (0) show NC gr 
 gsave  2254 561 2 2 C 213.552 261.008 t 0 r /Helvetica findfont 57.777 sf 0 0 m (0.5) show NC gr 
 gsave  2254 561 2 2 C 271.177 342.361 t 0 r /Helvetica findfont 57.777 sf 0 0 m (1) show NC gr 
 gsave  2254 561 2 2 C 213.552 423.714 t 0 r /Helvetica findfont 57.777 sf 0 0 m (1.5) show NC gr 
 gsave  2254 561 2 2 C 261.008 505.067 t 0 r /Helvetica findfont 57.777 sf 0 0 m (2) show NC gr  2178 187 m 358 Y s 2135 203 m 43 X s 2157 220 m 21 X s 2157 236 m 21 X s 2157 252 m 21 X s 2157 268 m 21 X s 2135 285 m 43 X s 2157 301 m 21 X s 2157 317
 m 21 X s 2157 334 m 21 X s 2157 350 m 21 X s 2135 366 m 43 X s 2157 382 m 21 X s 2157 399 m 21 X s 2157 415 m 21 X s 2157 431 m 21 X s 2135 447 m 43 X s 2157 464 m 21 X s 2157 480 m 21 X s 2157 496 m 21 X s 2157 512 m 21 X s 2135 529 m 43 X s 2135
 203 m 43 X s 2157 187 m 21 X s 2135 529 m 43 X s 9 lw 1029 413 m 3 Y s 1029 416 m cl s 1029 386 m -2 Y s 1029 384 m cl s 1139 346 m 5 Y s 1139 351 m cl s 1139 319 m -5 Y s 1139 314 m cl s 1248 400 m 21 Y s 1248 421 m cl s 1248 372 m -20 Y s 1248 352
 m cl s 1358 428 m 41 Y s 1358 469 m cl s 1358 401 m -40 Y s 1358 361 m cl s 1467 545 m -63 Y s 1467 482 m cl s 3 lw 373 346 482 353 591 383 701 379 810 322 920 361 1029 400 1139 332 1248 386 1358 414 10 { m20} R 9 lw 1 0 0 c 6 lw black 3 lw 1 0 0 c
 2155 203 m cl s 2127 203 m cl s 2098 203 m cl s 2069 203 m cl s 2069 232 m s 2069 260 m -6 -5 d s 2069 289 m -35 -34 d s 2069 318 m -63 -63 d s 2069 346 m -92 -91 d s 1959 237 m -22 -22 d s 2069 375 m -161 -160 d s 2069 403 m -189 -188 d s 2069 432
 m -218 -217 d s 2069 461 m -219 -219 d s 2057 478 m -207 -207 d s 2029 478 m -202 -201 d s 2000 478 m -201 -201 d s 1971 478 m -201 -201 d s 1959 494 m -218 -217 d s 1954 517 m -213 -212 d s 1925 517 m -184 -184 d s 1896 517 m -46 -46 d s 1834 455 m
 -120 -119 d s 1868 517 m -18 -17 d s 1805 455 m -119 -119 d s 1776 455 m -35 -36 d s 1717 396 m -60 -60 d s 1748 455 m -7 -7 d s 1689 396 m -83 -83 d s 1660 396 m -83 -83 d s 1631 396 m -83 -83 d s 1625 419 m -103 -104 d s 1597 419 m -78 -78 d s
 1568 419 m -78 -78 d s 1539 419 m -17 -18 d s 1512 391 m -51 -50 d s 1483 391 m -51 -50 d s 1454 391 m -42 -42 d s 1425 391 m -13 -13 d s 1410 376 m -20 -20 d s 1381 376 m -19 -20 d s 1353 376 m -20 -20 d s 1324 376 m -20 -20 d s 1303 355 m -3 -3 d
 s 1300 380 m -29 -28 d s 1271 380 m -29 -28 d s 1243 380 m -29 -28 d s 1214 380 m -24 -24 d s 1181 376 m -20 -20 d s 1152 376 m -20 -20 d s 1123 376 m -20 -20 d s 1095 376 m -19 -19 d s 1065 375 m -18 -18 d s 1036 375 m -17 -18 d s 1007 375 m -17
 -18 d s 979 375 m -16 -16 d s 949 373 m -15 -14 d s 920 373 m -15 -14 d s 891 373 m -14 -14 d s 865 376 m -20 -20 d s 836 376 m -19 -20 d s 808 376 m -20 -20 d s 779 376 m -20 -20 d s 744 370 m -7 -8 d s 715 370 m -7 -8 d s 687 370 m -8 -8 d s 658
 370 m -7 -8 d s 646 358 m -3 -3 d s 637 377 m -23 -22 d s 608 377 m -22 -22 d s 580 377 m -23 -22 d s 551 377 m -15 -15 d s 515 370 m -8 -8 d s 486 370 m -8 -8 d s 457 370 m -7 -8 d s 318 231 m s 429 370 m -8 -8 d s 318 259 m s 400 370 m -8 -8 d s
 318 288 m s 371 370 m -7 -8 d s 318 317 m s 343 370 m -8 -8 d s 318 345 m s 6 lw 0 0 1 c 9 lw 1467 496 m 30 Y s 3 lw 1456 526 m 11 19 d 11 -19 d f 9 lw 1456 526 m 11 19 d 11 -19 d -22 X cl s 2124 496 m 30 Y s 3 lw 2113 526 m 11 19 d 11 -19 d f 9 lw
 2113 526 m 11 19 d 11 -19 d -22 X cl s black[ 4 8] 0 sd 3 lw 318 447 m 1860 X s 318 285 m 1860 X s 1 0 0 c[  12 12 ] 0 sd 6 lw 318 366 m 1860 X s
 gr  gr showpage
end
%%EOF
