%!PS-Adobe-2.0 EPSF-2.0
%%BoundingBox:  0 0 567 521
%%Title: Distributions/metsqrtmeffInc_met_distrCRT_MB-GGo_beforeFit_forThesis.eps: canvas
%%Creator: ROOT Version 6.04/16
%%CreationDate: Tue May 19 22:05:40 2020
%%DocumentNeededResources: ProcSet (FontSetInit)
%%EndComments
%%BeginProlog
80 dict begin
/s {stroke} def /l {lineto} def /m {moveto} def /t {translate} def
/r {rotate} def /rl {roll}  def /R {repeat} def
/d {rlineto} def /rm {rmoveto} def /gr {grestore} def /f {eofill} def
/c {setrgbcolor} def /black {0 setgray} def /sd {setdash} def
/cl {closepath} def /sf {scalefont setfont} def /lw {setlinewidth} def
/box {m dup 0 exch d exch 0 d 0 exch neg d cl} def
/NC{systemdict begin initclip end}def/C{NC box clip newpath}def
/bl {box s} def /bf {gsave box gsave f grestore 1 lw [] 0 sd s grestore} def /Y { 0 exch d} def /X { 0 d} def 
/K {{pop pop 0 moveto} exch kshow} bind def
/ita {/ang 15 def gsave [1 0 ang dup sin exch cos div 1 0 0] concat} def 
/mp {newpath /y exch def /x exch def} def
/side {[w .77 mul w .23 mul] .385 w mul sd w 0 l currentpoint t -144 r} def
/mr {mp x y w2 0 360 arc} def /m24 {mr s} def /m20 {mr f} def
/mb {mp x y w2 add m w2 neg 0 d 0 w neg d w 0 d 0 w d cl} def
/mt {mp x y w2 add m w2 neg w neg d w 0 d cl} def
/m21 {mb f} def /m25 {mb s} def /m22 {mt f} def /m26{mt s} def
/m23 {mp x y w2 sub m w2 w d w neg 0 d cl f} def
/m27 {mp x y w2 add m w3 neg w2 neg d w3 w2 neg d w3 w2 d cl s} def
/m28 {mp x w2 sub y w2 sub w3 add m w3 0 d  0 w3 neg d w3 0 d 0 w3 d w3 0 d  0 w3 d w3 neg 0 d 0 w3 d w3 neg 0 d 0 w3 neg d w3 neg 0 d cl s } def
/m29 {mp gsave x w2 sub y w2 add w3 sub m currentpoint t 4 {side} repeat cl fill gr} def
/m30 {mp gsave x w2 sub y w2 add w3 sub m currentpoint t 4 {side} repeat cl s gr} def
/m31 {mp x y w2 sub m 0 w d x w2 sub y m w 0 d x w2 sub y w2 add m w w neg d x w2 sub y w2 sub m w w d s} def
/m32 {mp x y w2 sub m w2 w d w neg 0 d cl s} def
/m33 {mp x y w2 add m w3 neg w2 neg d w3 w2 neg d w3 w2 d cl f} def
/m34 {mp x w2 sub y w2 sub w3 add m w3 0 d  0 w3 neg d w3 0 d 0 w3 d w3 0 d  0 w3 d w3 neg 0 d 0 w3 d w3 neg 0 d 0 w3 neg d w3 neg 0 d cl f } def
/m2 {mp x y w2 sub m 0 w d x w2 sub y m w 0 d s} def
/m5 {mp x w2 sub y w2 sub m w w d x w2 sub y w2 add m w w neg d s} def
%%IncludeResource: ProcSet (FontSetInit)
%%IncludeResource: font Times-Roman
%%IncludeResource: font Times-Italic
%%IncludeResource: font Times-Bold
%%IncludeResource: font Times-BoldItalic
%%IncludeResource: font Helvetica
%%IncludeResource: font Helvetica-Oblique
%%IncludeResource: font Helvetica-Bold
%%IncludeResource: font Helvetica-BoldOblique
%%IncludeResource: font Courier
%%IncludeResource: font Courier-Oblique
%%IncludeResource: font Courier-Bold
%%IncludeResource: font Courier-BoldOblique
%%IncludeResource: font Symbol
%%IncludeResource: font ZapfDingbats
/reEncode {exch findfont dup length dict begin {1 index /FID eq  {pop pop} {def} ifelse } forall /Encoding exch def currentdict end dup /FontName get exch definefont pop } def [/Times-Bold /Times-Italic /Times-BoldItalic /Helvetica /Helvetica-Oblique
 /Helvetica-Bold /Helvetica-BoldOblique /Courier /Courier-Oblique /Courier-Bold /Courier-BoldOblique /Times-Roman /AvantGarde-Book /AvantGarde-BookOblique /AvantGarde-Demi /AvantGarde-DemiOblique /Bookman-Demi /Bookman-DemiItalic /Bookman-Light
 /Bookman-LightItalic /Helvetica-Narrow /Helvetica-Narrow-Bold /Helvetica-Narrow-BoldOblique /Helvetica-Narrow-Oblique /NewCenturySchlbk-Roman /NewCenturySchlbk-Bold /NewCenturySchlbk-BoldItalic /NewCenturySchlbk-Italic /Palatino-Bold
 /Palatino-BoldItalic /Palatino-Italic /Palatino-Roman ] {ISOLatin1Encoding reEncode } forall
%%EndProlog
%%BeginSetup
%%EndSetup
newpath  gsave  .25 .25 scale  gsave  0 0 t black[  ] 0 sd 3 lw 1 1 1 c 2268 2085 0 0 bf black 1 1 1 c 2263 1770 2 313 bf black 1 1 1 c black 1860 1145 319 584 bl 1 1 1 c black 1860 1145 319 584 bl 6 lw 1 1 1 c black 3 lw /w 33 def /w2 {w 2 div} def
 /w3 {w 3 div} def 412 1147 m20 6 lw 3 lw 598 1092 m20 6 lw 3 lw 784 1039 m20 6 lw 970 941 m 4 Y s 970 972 m 1 Y s 3 lw 970 959 m20 6 lw 1156 796 m 35 Y s 1156 858 m 16 Y s 3 lw 1156 845 m20 6 lw 1342 819 m 28 Y s 1342 874 m 13 Y s 3 lw 1342 861 m20
 6 lw 1528 709 m 73 Y s 1528 810 m 24 Y s 3 lw 1528 796 m20 6 lw 1714 584 m 149 Y s 1714 761 m 35 Y s 3 lw 1714 747 m20 6 lw 2086 584 m 149 Y s 2086 761 m 35 Y s 3 lw 2086 747 m20 6 lw 3 lw 319 584 m 1860 X s
 gsave  2263 1770 2 313 C 2101.62 396.596 t 0 r /Helvetica findfont 54.2494 sf 0 0 m (1/2) show NC gr 
 gsave  2263 1770 2 313 C 1874.51 355.92 t 0 r /Helvetica findfont 81.3741 sf 0 0 m ( [GeV]) show NC gr 
 gsave  2263 1770 2 313 C 1840.61 332.192 t 0 r /Helvetica findfont 54.2494 sf 0 0 m (T) show NC gr 
 gsave  2263 1770 2 313 C 1786.38 355.92 t 0 r /Helvetica findfont 81.3741 sf 0 0 m (H) show NC gr  6 lw 1749 417 m 14 -85 d s 3 lw 1763 332 m 13 105 d s 1776 437 m 99 X s
 gsave  2263 1770 2 313 C 1711.8 355.92 t 0 r /Helvetica findfont 81.3741 sf 0 0 m (/) show NC gr 
 gsave  2263 1770 2 313 C 1599.94 396.596 t 0 r /Helvetica findfont 54.2494 sf 0 0 m (miss) show NC gr 
 gsave  2263 1770 2 313 C 1599.94 332.192 t 0 r /Helvetica findfont 54.2494 sf 0 0 m (T) show NC gr 
 gsave  2263 1770 2 313 C 1549.1 355.92 t 0 r /Helvetica findfont 81.3741 sf 0 0 m (E) show NC gr  319 584 m cl s 366 584 m cl s 412 584 m cl s 459 584 m cl s 505 584 m cl s 552 584 m cl s 598 584 m cl s 645 584 m cl s 691 584 m cl s 738 584 m cl s
 784 584 m cl s 831 584 m cl s 877 584 m cl s 924 584 m cl s 970 584 m cl s 1017 584 m cl s 1063 584 m cl s 1110 584 m cl s 1156 584 m cl s 1203 584 m cl s 1249 584 m cl s 1296 584 m cl s 1342 584 m cl s 1389 584 m cl s 1435 584 m cl s 1482 584 m cl
 s 1528 584 m cl s 1575 584 m cl s 1621 584 m cl s 1668 584 m cl s 1714 584 m cl s 1761 584 m cl s 1807 584 m cl s 1854 584 m cl s 1900 584 m cl s 1947 584 m cl s 1993 584 m cl s 2040 584 m cl s 2086 584 m cl s 2133 584 m cl s 2179 584 m cl s 319
 1729 m 1860 X s 319 1729 m cl s 366 1729 m cl s 412 1729 m cl s 459 1729 m cl s 505 1729 m cl s 552 1729 m cl s 598 1729 m cl s 645 1729 m cl s 691 1729 m cl s 738 1729 m cl s 784 1729 m cl s 831 1729 m cl s 877 1729 m cl s 924 1729 m cl s 970 1729
 m cl s 1017 1729 m cl s 1063 1729 m cl s 1110 1729 m cl s 1156 1729 m cl s 1203 1729 m cl s 1249 1729 m cl s 1296 1729 m cl s 1342 1729 m cl s 1389 1729 m cl s 1435 1729 m cl s 1482 1729 m cl s 1528 1729 m cl s 1575 1729 m cl s 1621 1729 m cl s 1668
 1729 m cl s 1714 1729 m cl s 1761 1729 m cl s 1807 1729 m cl s 1854 1729 m cl s 1900 1729 m cl s 1947 1729 m cl s 1993 1729 m cl s 2040 1729 m cl s 2086 1729 m cl s 2133 1729 m cl s 2179 1729 m cl s 319 584 m 1145 Y s
 gsave  2263 1770 2 313 C 125.419 1654.18 t 90 r /Helvetica findfont 54.2494 sf 0 0 m (1/2) show NC gr 
 gsave  2263 1770 2 313 C 166.096 1064.37 t 90 r /Helvetica findfont 81.3741 sf 0 0 m (Events / 2 [GeV]) show NC gr  341 633 m -22 X s 341 662 m -22 X s 341 682 m -22 X s 341 698 m -22 X s 341 711 m -22 X s 341 722 m -22 X s 341 731 m -22 X s 341 740
 m -22 X s 363 747 m -44 X s
 gsave  2263 1770 2 313 C 300.555 719.859 t 0 r  -36 0 t /Helvetica findfont 64.4212 sf 0 0 m (1) show NC gr  341 796 m -22 X s 341 825 m -22 X s 341 845 m -22 X s 341 861 m -22 X s 341 874 m -22 X s 341 884 m -22 X s 341 894 m -22 X s 341 902 m -22
 X s 363 910 m -44 X s
 gsave  2263 1770 2 313 C 300.555 882.527 t 0 r  -73 0 t /Helvetica findfont 64.4212 sf 0 0 m (10) show NC gr  341 959 m -22 X s 341 987 m -22 X s 341 1008 m -22 X s 341 1023 m -22 X s 341 1036 m -22 X s 341 1047 m -22 X s 341 1057 m -22 X s 341 1065
 m -22 X s 363 1072 m -44 X s
 gsave  2263 1770 2 313 C 274.567 1071.15 t 0 r /Helvetica findfont 44.0776 sf 0 0 m (2) show NC gr 
 gsave  2263 1770 2 313 C 203.383 1044.03 t 0 r /Helvetica findfont 64.4212 sf 0 0 m (10) show NC gr  341 1121 m -22 X s 341 1150 m -22 X s 341 1170 m -22 X s 341 1186 m -22 X s 341 1199 m -22 X s 341 1210 m -22 X s 341 1219 m -22 X s 341 1228 m -22
 X s 363 1235 m -44 X s
 gsave  2263 1770 2 313 C 274.567 1237.24 t 0 r /Helvetica findfont 44.0776 sf 0 0 m (3) show NC gr 
 gsave  2263 1770 2 313 C 203.383 1206.74 t 0 r /Helvetica findfont 64.4212 sf 0 0 m (10) show NC gr  341 1284 m -22 X s 341 1313 m -22 X s 341 1333 m -22 X s 341 1349 m -22 X s 341 1362 m -22 X s 341 1372 m -22 X s 341 1382 m -22 X s 341 1390 m -22
 X s 363 1398 m -44 X s
 gsave  2263 1770 2 313 C 274.567 1396.56 t 0 r /Helvetica findfont 44.0776 sf 0 0 m (4) show NC gr 
 gsave  2263 1770 2 313 C 203.383 1369.44 t 0 r /Helvetica findfont 64.4212 sf 0 0 m (10) show NC gr  341 1447 m -22 X s 341 1475 m -22 X s 341 1496 m -22 X s 341 1511 m -22 X s 341 1524 m -22 X s 341 1535 m -22 X s 341 1545 m -22 X s 341 1553 m -22
 X s 363 1560 m -44 X s
 gsave  2263 1770 2 313 C 274.567 1562.66 t 0 r /Helvetica findfont 44.0776 sf 0 0 m (5) show NC gr 
 gsave  2263 1770 2 313 C 203.383 1532.15 t 0 r /Helvetica findfont 64.4212 sf 0 0 m (10) show NC gr  341 1609 m -22 X s 341 1638 m -22 X s 341 1658 m -22 X s 341 1674 m -22 X s 341 1687 m -22 X s 341 1698 m -22 X s 341 1707 m -22 X s 341 1716 m -22
 X s 363 1723 m -44 X s
 gsave  2263 1770 2 313 C 274.567 1725.36 t 0 r /Helvetica findfont 44.0776 sf 0 0 m (6) show NC gr 
 gsave  2263 1770 2 313 C 203.383 1694.86 t 0 r /Helvetica findfont 64.4212 sf 0 0 m (10) show NC gr  2179 584 m 1145 Y s 2157 633 m 22 X s 2157 662 m 22 X s 2157 682 m 22 X s 2157 698 m 22 X s 2157 711 m 22 X s 2157 722 m 22 X s 2157 731 m 22 X s
 2157 740 m 22 X s 2136 747 m 43 X s 2157 796 m 22 X s 2157 825 m 22 X s 2157 845 m 22 X s 2157 861 m 22 X s 2157 874 m 22 X s 2157 884 m 22 X s 2157 894 m 22 X s 2157 902 m 22 X s 2136 910 m 43 X s 2157 959 m 22 X s 2157 987 m 22 X s 2157 1008 m 22
 X s 2157 1023 m 22 X s 2157 1036 m 22 X s 2157 1047 m 22 X s 2157 1057 m 22 X s 2157 1065 m 22 X s 2136 1072 m 43 X s 2157 1121 m 22 X s 2157 1150 m 22 X s 2157 1170 m 22 X s 2157 1186 m 22 X s 2157 1199 m 22 X s 2157 1210 m 22 X s 2157 1219 m 22 X
 s 2157 1228 m 22 X s 2136 1235 m 43 X s 2157 1284 m 22 X s 2157 1313 m 22 X s 2157 1333 m 22 X s 2157 1349 m 22 X s 2157 1362 m 22 X s 2157 1372 m 22 X s 2157 1382 m 22 X s 2157 1390 m 22 X s 2136 1398 m 43 X s 2157 1447 m 22 X s 2157 1475 m 22 X s
 2157 1496 m 22 X s 2157 1511 m 22 X s 2157 1524 m 22 X s 2157 1535 m 22 X s 2157 1545 m 22 X s 2157 1553 m 22 X s 2136 1560 m 43 X s 2157 1609 m 22 X s 2157 1638 m 22 X s 2157 1658 m 22 X s 2157 1674 m 22 X s 2157 1687 m 22 X s 2157 1698 m 22 X s
 2157 1707 m 22 X s 2157 1716 m 22 X s 2136 1723 m 43 X s 0.6 1 0.6 c black 0.6 1 0.6 c 319 584 m 579 Y 186 X -53 Y 186 X -56 Y 186 X -57 Y 186 X -54 Y 186 X -69 Y 186 X -47 Y 186 X -57 Y 186 X -63 Y 186 X -25 Y 186 X -98 Y f black 0.6 1 0.6 c black
 319 1163 m 186 X -53 Y 186 X -56 Y 186 X -57 Y 186 X -54 Y 186 X -69 Y 186 X -47 Y 186 X -57 Y 186 X -63 Y 186 X -25 Y 186 X s 0.999 0.999 0.999 c black 0.999 0.999 0.999 c 319 584 m 418 Y 186 X -44 Y 186 X -41 Y 186 X -38 Y 186 X -54 Y 186 X -23 Y
 186 X -64 Y 186 X -21 Y 186 X -28 Y 186 X -27 Y 186 X -78 Y f black 0.999 0.999 0.999 c black 319 1002 m 186 X -44 Y 186 X -41 Y 186 X -38 Y 186 X -54 Y 186 X -23 Y 186 X -64 Y 186 X -21 Y 186 X -28 Y 186 X -27 Y 186 X s 1 1 1 c black 319 1002 m 186
 X -44 Y 186 X -41 Y 186 X -38 Y 186 X -54 Y 186 X -23 Y 186 X -64 Y 186 X -21 Y 186 X -28 Y 186 X -27 Y 186 X s 0.4 0.6 1 c black 0.4 0.6 1 c 319 584 m 418 Y 186 X -44 Y 186 X -41 Y 186 X -38 Y 186 X -54 Y 186 X -23 Y 186 X -64 Y 186 X -21 Y 186 X
 -28 Y 186 X -27 Y 186 X -78 Y f black 0.4 0.6 1 c black 319 1002 m 186 X -44 Y 186 X -41 Y 186 X -38 Y 186 X -54 Y 186 X -23 Y 186 X -64 Y 186 X -21 Y 186 X -28 Y 186 X -27 Y 186 X s 0.999 0.999 0.999 c black 0.999 0.999 0.999 c 319 584 m 270 Y 186
 X -63 Y 186 X -27 Y 186 X -49 Y 186 X -83 Y 186 X 18 Y 186 X -66 Y 744 X f black 0.999 0.999 0.999 c black 319 854 m 186 X -63 Y 186 X -27 Y 186 X -49 Y 186 X -83 Y 186 X 18 Y 186 X -66 Y 744 X s 1 1 1 c black 319 854 m 186 X -63 Y 186 X -27 Y 186 X
 -49 Y 186 X -83 Y 186 X 18 Y 186 X -66 Y 744 X s 1 0.8 0.4 c black 1 0.8 0.4 c 319 584 m 270 Y 186 X -63 Y 186 X -27 Y 186 X -49 Y 186 X -83 Y 186 X 18 Y 186 X -66 Y 744 X f black 1 0.8 0.4 c black 319 854 m 186 X -63 Y 186 X -27 Y 186 X -49 Y 186 X
 -83 Y 186 X 18 Y 186 X -66 Y 744 X s 0.999 0.999 0.999 c black 0.999 0.999 0.999 c 319 584 m 263 Y 186 X -60 Y 186 X -26 Y 186 X -53 Y 186 X -92 Y 186 X 33 Y 186 X -65 Y 744 X f black 0.999 0.999 0.999 c black 319 847 m 186 X -60 Y 186 X -26 Y 186 X
 -53 Y 186 X -92 Y 186 X 33 Y 186 X -65 Y 744 X s 1 1 1 c black 319 847 m 186 X -60 Y 186 X -26 Y 186 X -53 Y 186 X -92 Y 186 X 33 Y 186 X -65 Y 744 X s 1 0.4 0.6 c black 1 0.4 0.6 c 319 584 m 263 Y 186 X -60 Y 186 X -26 Y 186 X -53 Y 186 X -92 Y 186
 X 33 Y 186 X -65 Y 744 X f black 1 0.4 0.6 c black 319 847 m 186 X -60 Y 186 X -26 Y 186 X -53 Y 186 X -92 Y 186 X 33 Y 186 X -65 Y 744 X s 1 0 0 c 6 lw 1 1 1 c black 1 0 0 c 319 1163 m 186 X -53 Y 186 X -56 Y 186 X -57 Y 186 X -54 Y 186 X -69 Y 186
 X -47 Y 186 X -57 Y 186 X -63 Y 186 X -25 Y 186 X s black 3 lw 1 0 0 c 1 lw << /PatternType 1 /PaintType 2 /TilingType 1 /BBox [ 0 0 100 100 ] /XStep 100 /YStep 100 /PaintProc { begin gsave 0 100 m 100 0 l s gr end } >> [ 0.24 0 0 0.24 0 0 ]
 makepattern /P05 exch def /cs {[/Pattern /DeviceRGB] setcolorspace} def /FA {f [/DeviceRGB] setcolorspace} def cs 1 0 0 P05 setcolor 319 584 m 581 Y 186 X -52 Y 186 X -55 Y 186 X -56 Y 186 X -51 Y 186 X -60 Y 186 X -51 Y 186 X -56 Y 186 X -66 Y 186
 X -15 Y 186 X -52 Y -186 X 42 Y -186 X 60 Y -186 X 58 Y -186 X 41 Y -186 X 83 Y -186 X 57 Y -186 X 58 Y -186 X 57 Y -186 X 54 Y -186 X -577 Y FA 6 lw 1 1 1 c 15 lw 1156 865 m 10 Y s 1156 875 m cl s 1156 825 m -26 Y s 1156 799 m cl s 1342 881 m 7 Y s
 1342 888 m cl s 1342 840 m -19 Y s 1342 821 m cl s 1528 816 m 22 Y s 1528 838 m cl s 1528 776 m -53 Y s 1528 723 m cl s 1714 767 m 38 Y s 1714 805 m cl s 1714 727 m -103 Y s 1714 624 m cl s 2086 767 m 38 Y s 2086 805 m cl s 2086 727 m -103 Y s 2086
 624 m cl s black 1 1 1 c 3 lw /w 43 def /w2 {w 2 div} def /w3 {w 3 div} def 412 1147 598 1092 784 1039 970 959 1156 845 1342 861 1528 796 1714 747 8 { m20} R 15 lw 3 lw 2086 747 m20 15 lw black 6 lw 1 1 1 c black 3 lw /w 33 def /w2 {w 2 div} def /w3
 {w 3 div} def 412 1147 m20 6 lw 3 lw 598 1092 m20 6 lw 3 lw 784 1039 m20 6 lw 970 941 m 4 Y s 970 972 m 1 Y s 3 lw 970 959 m20 6 lw 1156 796 m 35 Y s 1156 858 m 16 Y s 3 lw 1156 845 m20 6 lw 1342 819 m 28 Y s 1342 874 m 13 Y s 3 lw 1342 861 m20 6 lw
 1528 709 m 73 Y s 1528 810 m 24 Y s 3 lw 1528 796 m20 6 lw 1714 584 m 149 Y s 1714 761 m 35 Y s 3 lw 1714 747 m20 6 lw 2086 584 m 149 Y s 2086 761 m 35 Y s 3 lw 2086 747 m20 6 lw 970 972 m 1 Y s 970 973 m cl s 970 945 m -4 Y s 970 941 m cl s 1156
 858 m 17 Y s 1156 875 m cl s 1156 831 m -32 Y s 1156 799 m cl s 1342 874 m 14 Y s 1342 888 m cl s 1342 847 m -26 Y s 1342 821 m cl s 1528 810 m 28 Y s 1528 838 m cl s 1528 782 m -59 Y s 1528 723 m cl s 1714 761 m 44 Y s 1714 805 m cl s 1714 733 m
 -109 Y s 1714 624 m cl s 2086 761 m 44 Y s 2086 805 m cl s 2086 733 m -109 Y s 2086 624 m cl s 3 lw 412 1147 598 1092 784 1039 970 959 1156 845 1342 861 1528 796 1714 747 8 { m20} R 6 lw 3 lw 2086 747 m20 6 lw 3 lw 319 584 m 1860 X s 319 584 m cl s
 366 584 m cl s 412 584 m cl s 459 584 m cl s 505 584 m cl s 552 584 m cl s 598 584 m cl s 645 584 m cl s 691 584 m cl s 738 584 m cl s 784 584 m cl s 831 584 m cl s 877 584 m cl s 924 584 m cl s 970 584 m cl s 1017 584 m cl s 1063 584 m cl s 1110
 584 m cl s 1156 584 m cl s 1203 584 m cl s 1249 584 m cl s 1296 584 m cl s 1342 584 m cl s 1389 584 m cl s 1435 584 m cl s 1482 584 m cl s 1528 584 m cl s 1575 584 m cl s 1621 584 m cl s 1668 584 m cl s 1714 584 m cl s 1761 584 m cl s 1807 584 m cl
 s 1854 584 m cl s 1900 584 m cl s 1947 584 m cl s 1993 584 m cl s 2040 584 m cl s 2086 584 m cl s 2133 584 m cl s 2179 584 m cl s 319 1729 m 1860 X s 319 1729 m cl s 366 1729 m cl s 412 1729 m cl s 459 1729 m cl s 505 1729 m cl s 552 1729 m cl s 598
 1729 m cl s 645 1729 m cl s 691 1729 m cl s 738 1729 m cl s 784 1729 m cl s 831 1729 m cl s 877 1729 m cl s 924 1729 m cl s 970 1729 m cl s 1017 1729 m cl s 1063 1729 m cl s 1110 1729 m cl s 1156 1729 m cl s 1203 1729 m cl s 1249 1729 m cl s 1296
 1729 m cl s 1342 1729 m cl s 1389 1729 m cl s 1435 1729 m cl s 1482 1729 m cl s 1528 1729 m cl s 1575 1729 m cl s 1621 1729 m cl s 1668 1729 m cl s 1714 1729 m cl s 1761 1729 m cl s 1807 1729 m cl s 1854 1729 m cl s 1900 1729 m cl s 1947 1729 m cl s
 1993 1729 m cl s 2040 1729 m cl s 2086 1729 m cl s 2133 1729 m cl s 2179 1729 m cl s 319 584 m 1145 Y s 341 633 m -22 X s 341 662 m -22 X s 341 682 m -22 X s 341 698 m -22 X s 341 711 m -22 X s 341 722 m -22 X s 341 731 m -22 X s 341 740 m -22 X s
 363 747 m -44 X s 341 796 m -22 X s 341 825 m -22 X s 341 845 m -22 X s 341 861 m -22 X s 341 874 m -22 X s 341 884 m -22 X s 341 894 m -22 X s 341 902 m -22 X s 363 910 m -44 X s 341 959 m -22 X s 341 987 m -22 X s 341 1008 m -22 X s 341 1023 m -22
 X s 341 1036 m -22 X s 341 1047 m -22 X s 341 1057 m -22 X s 341 1065 m -22 X s 363 1072 m -44 X s 341 1121 m -22 X s 341 1150 m -22 X s 341 1170 m -22 X s 341 1186 m -22 X s 341 1199 m -22 X s 341 1210 m -22 X s 341 1219 m -22 X s 341 1228 m -22 X
 s 363 1235 m -44 X s 341 1284 m -22 X s 341 1313 m -22 X s 341 1333 m -22 X s 341 1349 m -22 X s 341 1362 m -22 X s 341 1372 m -22 X s 341 1382 m -22 X s 341 1390 m -22 X s 363 1398 m -44 X s 341 1447 m -22 X s 341 1475 m -22 X s 341 1496 m -22 X s
 341 1511 m -22 X s 341 1524 m -22 X s 341 1535 m -22 X s 341 1545 m -22 X s 341 1553 m -22 X s 363 1560 m -44 X s 341 1609 m -22 X s 341 1638 m -22 X s 341 1658 m -22 X s 341 1674 m -22 X s 341 1687 m -22 X s 341 1698 m -22 X s 341 1707 m -22 X s
 341 1716 m -22 X s 363 1723 m -44 X s 2179 584 m 1145 Y s 2157 633 m 22 X s 2157 662 m 22 X s 2157 682 m 22 X s 2157 698 m 22 X s 2157 711 m 22 X s 2157 722 m 22 X s 2157 731 m 22 X s 2157 740 m 22 X s 2136 747 m 43 X s 2157 796 m 22 X s 2157 825 m
 22 X s 2157 845 m 22 X s 2157 861 m 22 X s 2157 874 m 22 X s 2157 884 m 22 X s 2157 894 m 22 X s 2157 902 m 22 X s 2136 910 m 43 X s 2157 959 m 22 X s 2157 987 m 22 X s 2157 1008 m 22 X s 2157 1023 m 22 X s 2157 1036 m 22 X s 2157 1047 m 22 X s 2157
 1057 m 22 X s 2157 1065 m 22 X s 2136 1072 m 43 X s 2157 1121 m 22 X s 2157 1150 m 22 X s 2157 1170 m 22 X s 2157 1186 m 22 X s 2157 1199 m 22 X s 2157 1210 m 22 X s 2157 1219 m 22 X s 2157 1228 m 22 X s 2136 1235 m 43 X s 2157 1284 m 22 X s 2157
 1313 m 22 X s 2157 1333 m 22 X s 2157 1349 m 22 X s 2157 1362 m 22 X s 2157 1372 m 22 X s 2157 1382 m 22 X s 2157 1390 m 22 X s 2136 1398 m 43 X s 2157 1447 m 22 X s 2157 1475 m 22 X s 2157 1496 m 22 X s 2157 1511 m 22 X s 2157 1524 m 22 X s 2157
 1535 m 22 X s 2157 1545 m 22 X s 2157 1553 m 22 X s 2136 1560 m 43 X s 2157 1609 m 22 X s 2157 1638 m 22 X s 2157 1658 m 22 X s 2157 1674 m 22 X s 2157 1687 m 22 X s 2157 1698 m 22 X s 2157 1707 m 22 X s 2157 1716 m 22 X s 2136 1723 m 43 X s
 gsave  2263 1770 2 313 C 406.765 1447.41 t 0 r /Helvetica findfont 64.4212 sf 0 0 m (CRT for MB\255GGo) show NC gr 
 gsave  2263 1770 2 313 C 1464.36 1616.89 t 0 r /Helvetica findfont 64.4212 sf 0 0 m (SM Total) show NC gr  1 1 1 c 1338 1603 m 107 X 74 Y -107 X f 1 0 0 c 6 lw 1338 1640 m 107 X s black
 gsave  2263 1770 2 313 C 1464.36 1511.81 t 0 r /Helvetica findfont 64.4212 sf 0 0 m (Data) show NC gr  1391 1502 m 64 Y s 3 lw 1391 1534 m20 6 lw
 gsave  2263 1770 2 313 C 1498.25 1406.73 t 0 r /Helvetica findfont 64.4212 sf 0 0 m (\(+EW\) & single top) show NC gr 
 gsave  2263 1770 2 313 C 1481.3 1406.73 t 0 r /Helvetica findfont 64.4212 sf 0 0 m (t) show NC gr  3 lw 1481 1458 m 17 X s
 gsave  2263 1770 2 313 C 1464.36 1406.73 t 0 r /Helvetica findfont 64.4212 sf 0 0 m (t) show NC gr  0.6 1 0.6 c 1338 1391 m 107 X 74 Y -107 X f black 1338 1465 m 107 X s 1338 1391 m 107 X s 1445 1391 m 74 Y s 1338 1391 m 74 Y s
 gsave  2263 1770 2 313 C 1464.36 1298.26 t 0 r /Helvetica findfont 64.4212 sf 0 0 m (W+jets) show NC gr  0.4 0.6 1 c 1338 1284 m 107 X 75 Y -107 X f black 1338 1359 m 107 X s 1338 1284 m 107 X s 1445 1284 m 75 Y s 1338 1284 m 75 Y s
 gsave  2263 1770 2 313 C 1464.36 1193.18 t 0 r /Helvetica findfont 64.4212 sf 0 0 m (Z+jets) show NC gr  1 0.8 0.4 c 1338 1178 m 107 X 75 Y -107 X f black 1338 1253 m 107 X s 1338 1178 m 107 X s 1445 1178 m 75 Y s 1338 1178 m 75 Y s
 gsave  2263 1770 2 313 C 1464.36 1088.1 t 0 r /Helvetica findfont 64.4212 sf 0 0 m (Diboson) show NC gr  1 0.4 0.6 c 1338 1072 m 107 X 74 Y -107 X f black 1338 1146 m 107 X s 1338 1072 m 107 X s 1445 1072 m 74 Y s 1338 1072 m 74 Y s
 gsave  2263 1770 2 313 C 911.832 1566.05 t 0 r /Helvetica findfont 44.0776 sf 0 0 m (\2551) show NC gr 
 gsave  2263 1770 2 313 C 471.17 1535.54 t 0 r /Helvetica findfont 64.4212 sf 0 0 m (=13TeV, 139 fb) show NC gr 
 gsave  2263 1770 2 313 C 440.662 1535.54 t 0 r /Helvetica findfont 64.4212 sf 0 0 m (s) show NC gr  6 lw 420 1573 m 7 -41 d s 3 lw 427 1532 m 7 61 d s 434 1593 m 37 X s 1 1 1 c 2254 561 2 2 bf black 1 1 1 c black 1860 358 318 187 bl 1 1 1 c black
 1860 358 318 187 bl 6 lw 1 1 1 c black 3 lw 411 334 m20 6 lw 3 lw 597 329 m20 6 lw 3 lw 783 334 m20 6 lw 3 lw 969 298 m20 6 lw 3 lw 1155 244 m20 6 lw 3 lw 1341 337 m20 6 lw 3 lw 1527 308 m20 6 lw 3 lw 1713 321 m20 6 lw 3 lw 318 187 m 1860 X s
 gsave  2254 561 2 2 C 2105.01 64.4045 t 0 r /Helvetica findfont 50.9797 sf 0 0 m (1/2) show NC gr 
 gsave  2254 561 2 2 C 1888.07 23.728 t 0 r /Helvetica findfont 78.1689 sf 0 0 m ( [GeV]) show NC gr 
 gsave  2254 561 2 2 C 1857.56 3.38971 t 0 r /Helvetica findfont 50.9797 sf 0 0 m (T) show NC gr 
 gsave  2254 561 2 2 C 1806.72 23.728 t 0 r /Helvetica findfont 78.1689 sf 0 0 m (H) show NC gr  6 lw 1773 81 m 10 -78 d s 3 lw 1783 3 m 14 99 d s 1797 102 m 91 X s
 gsave  2254 561 2 2 C 1735.53 23.728 t 0 r /Helvetica findfont 78.1689 sf 0 0 m (/) show NC gr 
 gsave  2254 561 2 2 C 1630.45 61.0148 t 0 r /Helvetica findfont 50.9797 sf 0 0 m (miss) show NC gr 
 gsave  2254 561 2 2 C 1630.45 3.38971 t 0 r /Helvetica findfont 50.9797 sf 0 0 m (T) show NC gr 
 gsave  2254 561 2 2 C 1579.61 23.728 t 0 r /Helvetica findfont 78.1689 sf 0 0 m (E) show NC gr  318 201 m -14 Y s 364 194 m -7 Y s 411 194 m -7 Y s 457 194 m -7 Y s 504 201 m -14 Y s 550 194 m -7 Y s 597 194 m -7 Y s 643 194 m -7 Y s 690 201 m -14 Y
 s 736 194 m -7 Y s 783 194 m -7 Y s 829 194 m -7 Y s 876 201 m -14 Y s 923 194 m -7 Y s 969 194 m -7 Y s 1016 194 m -7 Y s 1062 201 m -14 Y s 1109 194 m -7 Y s 1155 194 m -7 Y s 1202 194 m -7 Y s 1248 201 m -14 Y s 1295 194 m -7 Y s 1341 194 m -7 Y
 s 1388 194 m -7 Y s 1434 201 m -14 Y s 1481 194 m -7 Y s 1527 194 m -7 Y s 1574 194 m -7 Y s 1620 201 m -14 Y s 1667 194 m -7 Y s 1713 194 m -7 Y s 1760 194 m -7 Y s 1806 201 m -14 Y s 1853 194 m -7 Y s 1899 194 m -7 Y s 1946 194 m -7 Y s 1992 201 m
 -14 Y s 2039 194 m -7 Y s 2085 194 m -7 Y s 2132 194 m -7 Y s 2178 201 m -14 Y s
 gsave  2254 561 2 2 C 271.177 118.64 t 0 r /Helvetica findfont 78.1689 sf 0 0 m (10) show NC gr 
 gsave  2254 561 2 2 C 457.611 118.64 t 0 r /Helvetica findfont 78.1689 sf 0 0 m (12) show NC gr 
 gsave  2254 561 2 2 C 644.045 118.64 t 0 r /Helvetica findfont 78.1689 sf 0 0 m (14) show NC gr 
 gsave  2254 561 2 2 C 830.479 118.64 t 0 r /Helvetica findfont 78.1689 sf 0 0 m (16) show NC gr 
 gsave  2254 561 2 2 C 1016.91 118.64 t 0 r /Helvetica findfont 78.1689 sf 0 0 m (18) show NC gr 
 gsave  2254 561 2 2 C 1203.35 118.64 t 0 r /Helvetica findfont 78.1689 sf 0 0 m (20) show NC gr 
 gsave  2254 561 2 2 C 1389.78 118.64 t 0 r /Helvetica findfont 78.1689 sf 0 0 m (22) show NC gr 
 gsave  2254 561 2 2 C 1572.83 118.64 t 0 r /Helvetica findfont 78.1689 sf 0 0 m (24) show NC gr 
 gsave  2254 561 2 2 C 1759.26 118.64 t 0 r /Helvetica findfont 78.1689 sf 0 0 m (26) show NC gr 
 gsave  2254 561 2 2 C 1945.69 118.64 t 0 r /Helvetica findfont 78.1689 sf 0 0 m (28) show NC gr 
 gsave  2254 561 2 2 C 2132.13 118.64 t 0 r /Helvetica findfont 78.1689 sf 0 0 m (30) show NC gr  318 545 m 1860 X s 318 531 m 14 Y s 364 538 m 7 Y s 411 538 m 7 Y s 457 538 m 7 Y s 504 531 m 14 Y s 550 538 m 7 Y s 597 538 m 7 Y s 643 538 m 7 Y s 690
 531 m 14 Y s 736 538 m 7 Y s 783 538 m 7 Y s 829 538 m 7 Y s 876 531 m 14 Y s 923 538 m 7 Y s 969 538 m 7 Y s 1016 538 m 7 Y s 1062 531 m 14 Y s 1109 538 m 7 Y s 1155 538 m 7 Y s 1202 538 m 7 Y s 1248 531 m 14 Y s 1295 538 m 7 Y s 1341 538 m 7 Y s
 1388 538 m 7 Y s 1434 531 m 14 Y s 1481 538 m 7 Y s 1527 538 m 7 Y s 1574 538 m 7 Y s 1620 531 m 14 Y s 1667 538 m 7 Y s 1713 538 m 7 Y s 1760 538 m 7 Y s 1806 531 m 14 Y s 1853 538 m 7 Y s 1899 538 m 7 Y s 1946 538 m 7 Y s 1992 531 m 14 Y s 2039
 538 m 7 Y s 2085 538 m 7 Y s 2132 538 m 7 Y s 2178 531 m 14 Y s 318 187 m 358 Y s
 gsave  2254 561 2 2 C 166.096 284.736 t 90 r /Helvetica findfont 67.9729 sf 0 0 m (Data/SM) show NC gr  361 203 m -43 X s 339 220 m -21 X s 339 236 m -21 X s 339 252 m -21 X s 339 268 m -21 X s 361 285 m -43 X s 339 301 m -21 X s 339 317 m -21 X s
 339 334 m -21 X s 339 350 m -21 X s 361 366 m -43 X s 339 382 m -21 X s 339 399 m -21 X s 339 415 m -21 X s 339 431 m -21 X s 361 447 m -43 X s 339 464 m -21 X s 339 480 m -21 X s 339 496 m -21 X s 339 512 m -21 X s 361 529 m -43 X s 361 203 m -43 X
 s 339 187 m -21 X s 361 529 m -43 X s
 gsave  2254 561 2 2 C 261.008 183.044 t 0 r /Helvetica findfont 57.777 sf 0 0 m (0) show NC gr 
 gsave  2254 561 2 2 C 213.552 261.008 t 0 r /Helvetica findfont 57.777 sf 0 0 m (0.5) show NC gr 
 gsave  2254 561 2 2 C 271.177 342.361 t 0 r /Helvetica findfont 57.777 sf 0 0 m (1) show NC gr 
 gsave  2254 561 2 2 C 213.552 423.714 t 0 r /Helvetica findfont 57.777 sf 0 0 m (1.5) show NC gr 
 gsave  2254 561 2 2 C 261.008 505.067 t 0 r /Helvetica findfont 57.777 sf 0 0 m (2) show NC gr  2178 187 m 358 Y s 2135 203 m 43 X s 2157 220 m 21 X s 2157 236 m 21 X s 2157 252 m 21 X s 2157 268 m 21 X s 2135 285 m 43 X s 2157 301 m 21 X s 2157 317
 m 21 X s 2157 334 m 21 X s 2157 350 m 21 X s 2135 366 m 43 X s 2157 382 m 21 X s 2157 399 m 21 X s 2157 415 m 21 X s 2157 431 m 21 X s 2135 447 m 43 X s 2157 464 m 21 X s 2157 480 m 21 X s 2157 496 m 21 X s 2157 512 m 21 X s 2135 529 m 43 X s 2135
 203 m 43 X s 2157 187 m 21 X s 2135 529 m 43 X s 9 lw 783 348 m 3 Y s 783 351 m cl s 783 321 m -3 Y s 783 318 m cl s 969 312 m 7 Y s 969 319 m cl s 969 284 m -7 Y s 969 277 m cl s 1155 257 m 9 Y s 1155 266 m cl s 1155 230 m -5 Y s 1155 225 m cl s
 1341 351 m 50 Y s 1341 401 m cl s 1341 324 m -44 Y s 1341 280 m cl s 1527 322 m 72 Y s 1527 394 m cl s 1527 295 m -54 Y s 1527 241 m cl s 1713 334 m 138 Y s 1713 472 m cl s 1713 307 m -83 Y s 1713 224 m cl s 2085 545 m -270 Y s 2085 275 m cl s 3 lw
 411 334 597 329 783 334 969 298 1155 244 1341 337 1527 308 1713 321 8 { m20} R 9 lw 1 0 0 c 6 lw black 3 lw 1 0 0 c 2178 312 m -2 -2 d s 2178 341 m -31 -31 d s 2178 369 m -60 -59 d s 2178 398 m -88 -88 d s 2174 422 m -113 -112 d s 2146 422 m -114
 -112 d s 2117 422 m -113 -112 d s 2088 422 m -96 -95 d s 2059 422 m -85 -85 d s 2031 422 m -86 -85 d s 2002 422 m -10 -9 d s 1975 395 m -59 -58 d s 1946 395 m -59 -58 d s 1917 395 m -58 -58 d s 1889 395 m -59 -58 d s 1860 395 m -65 -65 d s 1831 395
 m -65 -65 d s 1806 399 m -68 -69 d s 1780 402 m -71 -72 d s 1752 402 m -72 -72 d s 1723 402 m -71 -72 d s 1694 402 m -71 -72 d s 1665 402 m -68 -69 d s 1637 402 m -69 -69 d s 1605 399 m -65 -66 d s 1577 399 m -66 -66 d s 1548 399 m -66 -66 d s 1519
 399 m -65 -66 d s 1491 399 m -77 -77 d s 1462 399 m -77 -77 d s 1434 400 m -78 -78 d s 1415 410 m -87 -88 d s 1387 410 m -88 -88 d s 1358 410 m -88 -88 d s 1329 410 m -81 -81 d s 1301 410 m -62 -62 d s 1272 410 m -24 -24 d s 1246 384 m -36 -36 d s
 1218 384 m -37 -36 d s 1189 384 m -37 -36 d s 1160 384 m -36 -36 d s 1132 384 m -37 -36 d s 1103 384 m -37 -36 d s 1074 384 m -29 -29 d s 1038 377 m -22 -22 d s 1010 377 m -22 -22 d s 981 377 m -22 -22 d s 952 377 m -22 -22 d s 924 377 m -22 -22 d s
 895 377 m -20 -20 d s 864 375 m -18 -18 d s 835 375 m -17 -18 d s 807 375 m -18 -18 d s 778 375 m -18 -18 d s 749 375 m -18 -18 d s 721 375 m -18 -18 d s 692 375 m -16 -16 d s 661 373 m -14 -14 d s 633 373 m -14 -14 d s 604 373 m -14 -14 d s 575 373
 m -14 -14 d s 547 373 m -14 -14 d s 518 373 m -14 -14 d s 488 371 m -11 -10 d s 459 371 m -11 -10 d s 318 231 m s 430 371 m -11 -10 d s 318 259 m s 401 371 m -10 -10 d s 318 288 m s 373 371 m -11 -10 d s 318 317 m s 344 371 m -11 -10 d s 318 345 m s
 6 lw black[ 4 8] 0 sd 3 lw 318 447 m 1860 X s 318 285 m 1860 X s 1 0 0 c[  12 12 ] 0 sd 6 lw 318 366 m 1860 X s
 gr  gr showpage
end
%%EOF
