%!PS-Adobe-2.0 EPSF-2.0
%%BoundingBox:  0 0 567 521
%%Title: Distributions/metsqrtmeffInc_met_distrVR0LmetSig_MB-GGd_afterFit_forThesis.eps: canvas
%%Creator: ROOT Version 6.04/16
%%CreationDate: Tue May 19 22:06:36 2020
%%DocumentNeededResources: ProcSet (FontSetInit)
%%EndComments
%%BeginProlog
80 dict begin
/s {stroke} def /l {lineto} def /m {moveto} def /t {translate} def
/r {rotate} def /rl {roll}  def /R {repeat} def
/d {rlineto} def /rm {rmoveto} def /gr {grestore} def /f {eofill} def
/c {setrgbcolor} def /black {0 setgray} def /sd {setdash} def
/cl {closepath} def /sf {scalefont setfont} def /lw {setlinewidth} def
/box {m dup 0 exch d exch 0 d 0 exch neg d cl} def
/NC{systemdict begin initclip end}def/C{NC box clip newpath}def
/bl {box s} def /bf {gsave box gsave f grestore 1 lw [] 0 sd s grestore} def /Y { 0 exch d} def /X { 0 d} def 
/K {{pop pop 0 moveto} exch kshow} bind def
/ita {/ang 15 def gsave [1 0 ang dup sin exch cos div 1 0 0] concat} def 
/mp {newpath /y exch def /x exch def} def
/side {[w .77 mul w .23 mul] .385 w mul sd w 0 l currentpoint t -144 r} def
/mr {mp x y w2 0 360 arc} def /m24 {mr s} def /m20 {mr f} def
/mb {mp x y w2 add m w2 neg 0 d 0 w neg d w 0 d 0 w d cl} def
/mt {mp x y w2 add m w2 neg w neg d w 0 d cl} def
/m21 {mb f} def /m25 {mb s} def /m22 {mt f} def /m26{mt s} def
/m23 {mp x y w2 sub m w2 w d w neg 0 d cl f} def
/m27 {mp x y w2 add m w3 neg w2 neg d w3 w2 neg d w3 w2 d cl s} def
/m28 {mp x w2 sub y w2 sub w3 add m w3 0 d  0 w3 neg d w3 0 d 0 w3 d w3 0 d  0 w3 d w3 neg 0 d 0 w3 d w3 neg 0 d 0 w3 neg d w3 neg 0 d cl s } def
/m29 {mp gsave x w2 sub y w2 add w3 sub m currentpoint t 4 {side} repeat cl fill gr} def
/m30 {mp gsave x w2 sub y w2 add w3 sub m currentpoint t 4 {side} repeat cl s gr} def
/m31 {mp x y w2 sub m 0 w d x w2 sub y m w 0 d x w2 sub y w2 add m w w neg d x w2 sub y w2 sub m w w d s} def
/m32 {mp x y w2 sub m w2 w d w neg 0 d cl s} def
/m33 {mp x y w2 add m w3 neg w2 neg d w3 w2 neg d w3 w2 d cl f} def
/m34 {mp x w2 sub y w2 sub w3 add m w3 0 d  0 w3 neg d w3 0 d 0 w3 d w3 0 d  0 w3 d w3 neg 0 d 0 w3 d w3 neg 0 d 0 w3 neg d w3 neg 0 d cl f } def
/m2 {mp x y w2 sub m 0 w d x w2 sub y m w 0 d s} def
/m5 {mp x w2 sub y w2 sub m w w d x w2 sub y w2 add m w w neg d s} def
%%IncludeResource: ProcSet (FontSetInit)
%%IncludeResource: font Times-Roman
%%IncludeResource: font Times-Italic
%%IncludeResource: font Times-Bold
%%IncludeResource: font Times-BoldItalic
%%IncludeResource: font Helvetica
%%IncludeResource: font Helvetica-Oblique
%%IncludeResource: font Helvetica-Bold
%%IncludeResource: font Helvetica-BoldOblique
%%IncludeResource: font Courier
%%IncludeResource: font Courier-Oblique
%%IncludeResource: font Courier-Bold
%%IncludeResource: font Courier-BoldOblique
%%IncludeResource: font Symbol
%%IncludeResource: font ZapfDingbats
/reEncode {exch findfont dup length dict begin {1 index /FID eq  {pop pop} {def} ifelse } forall /Encoding exch def currentdict end dup /FontName get exch definefont pop } def [/Times-Bold /Times-Italic /Times-BoldItalic /Helvetica /Helvetica-Oblique
 /Helvetica-Bold /Helvetica-BoldOblique /Courier /Courier-Oblique /Courier-Bold /Courier-BoldOblique /Times-Roman /AvantGarde-Book /AvantGarde-BookOblique /AvantGarde-Demi /AvantGarde-DemiOblique /Bookman-Demi /Bookman-DemiItalic /Bookman-Light
 /Bookman-LightItalic /Helvetica-Narrow /Helvetica-Narrow-Bold /Helvetica-Narrow-BoldOblique /Helvetica-Narrow-Oblique /NewCenturySchlbk-Roman /NewCenturySchlbk-Bold /NewCenturySchlbk-BoldItalic /NewCenturySchlbk-Italic /Palatino-Bold
 /Palatino-BoldItalic /Palatino-Italic /Palatino-Roman ] {ISOLatin1Encoding reEncode } forall
%%EndProlog
%%BeginSetup
%%EndSetup
newpath  gsave  .25 .25 scale  gsave  0 0 t black[  ] 0 sd 3 lw 1 1 1 c 2268 2085 0 0 bf black 1 1 1 c 2263 1770 2 313 bf black 1 1 1 c black 1860 1145 319 584 bl 1 1 1 c black 1860 1145 319 584 bl 6 lw 1 1 1 c black 3 lw /w 33 def /w2 {w 2 div} def
 /w3 {w 3 div} def 391 1183 m20 6 lw 3 lw 534 1147 m20 6 lw 3 lw 677 1093 m20 6 lw 3 lw 820 1045 m20 6 lw 3 lw 963 988 m20 6 lw 1106 872 m 12 Y s 1106 911 m 5 Y s 3 lw 1106 898 m20 6 lw 1249 810 m 27 Y s 1249 864 m 12 Y s 3 lw 1249 850 m20 6 lw 1392
 705 m 70 Y s 1392 802 m 22 Y s 3 lw 1392 788 m20 6 lw 1535 705 m 70 Y s 1535 802 m 22 Y s 3 lw 1535 788 m20 6 lw 3 lw 319 584 m 1860 X s
 gsave  2263 1770 2 313 C 2101.62 396.596 t 0 r /Helvetica findfont 54.2494 sf 0 0 m (1/2) show NC gr 
 gsave  2263 1770 2 313 C 1874.51 355.92 t 0 r /Helvetica findfont 81.3741 sf 0 0 m ( [GeV]) show NC gr 
 gsave  2263 1770 2 313 C 1840.61 332.192 t 0 r /Helvetica findfont 54.2494 sf 0 0 m (T) show NC gr 
 gsave  2263 1770 2 313 C 1786.38 355.92 t 0 r /Helvetica findfont 81.3741 sf 0 0 m (H) show NC gr  6 lw 1749 417 m 14 -85 d s 3 lw 1763 332 m 13 105 d s 1776 437 m 99 X s
 gsave  2263 1770 2 313 C 1711.8 355.92 t 0 r /Helvetica findfont 81.3741 sf 0 0 m (/) show NC gr 
 gsave  2263 1770 2 313 C 1599.94 396.596 t 0 r /Helvetica findfont 54.2494 sf 0 0 m (miss) show NC gr 
 gsave  2263 1770 2 313 C 1599.94 332.192 t 0 r /Helvetica findfont 54.2494 sf 0 0 m (T) show NC gr 
 gsave  2263 1770 2 313 C 1549.1 355.92 t 0 r /Helvetica findfont 81.3741 sf 0 0 m (E) show NC gr  319 584 m cl s 391 584 m cl s 462 584 m cl s 534 584 m cl s 605 584 m cl s 677 584 m cl s 748 584 m cl s 820 584 m cl s 892 584 m cl s 963 584 m cl s
 1035 584 m cl s 1106 584 m cl s 1178 584 m cl s 1249 584 m cl s 1321 584 m cl s 1392 584 m cl s 1464 584 m cl s 1535 584 m cl s 1607 584 m cl s 1679 584 m cl s 1750 584 m cl s 1822 584 m cl s 1893 584 m cl s 1965 584 m cl s 2036 584 m cl s 2108 584
 m cl s 2108 584 m cl s 2179 584 m cl s 319 1729 m 1860 X s 319 1729 m cl s 391 1729 m cl s 462 1729 m cl s 534 1729 m cl s 605 1729 m cl s 677 1729 m cl s 748 1729 m cl s 820 1729 m cl s 892 1729 m cl s 963 1729 m cl s 1035 1729 m cl s 1106 1729 m
 cl s 1178 1729 m cl s 1249 1729 m cl s 1321 1729 m cl s 1392 1729 m cl s 1464 1729 m cl s 1535 1729 m cl s 1607 1729 m cl s 1679 1729 m cl s 1750 1729 m cl s 1822 1729 m cl s 1893 1729 m cl s 1965 1729 m cl s 2036 1729 m cl s 2108 1729 m cl s 2108
 1729 m cl s 2179 1729 m cl s 319 584 m 1145 Y s
 gsave  2263 1770 2 313 C 125.419 1654.18 t 90 r /Helvetica findfont 54.2494 sf 0 0 m (1/2) show NC gr 
 gsave  2263 1770 2 313 C 166.096 1064.37 t 90 r /Helvetica findfont 81.3741 sf 0 0 m (Events / 2 [GeV]) show NC gr  341 631 m -22 X s 341 659 m -22 X s 341 679 m -22 X s 341 694 m -22 X s 341 706 m -22 X s 341 717 m -22 X s 341 726 m -22 X s 341 734
 m -22 X s 363 741 m -44 X s
 gsave  2263 1770 2 313 C 300.555 713.82 t 0 r  -36 0 t /Helvetica findfont 64.4212 sf 0 0 m (1) show NC gr  341 788 m -22 X s 341 816 m -22 X s 341 835 m -22 X s 341 850 m -22 X s 341 863 m -22 X s 341 873 m -22 X s 341 882 m -22 X s 341 890 m -22 X
 s 363 898 m -44 X s
 gsave  2263 1770 2 313 C 300.555 870.449 t 0 r  -73 0 t /Helvetica findfont 64.4212 sf 0 0 m (10) show NC gr  341 945 m -22 X s 341 972 m -22 X s 341 992 m -22 X s 341 1007 m -22 X s 341 1019 m -22 X s 341 1030 m -22 X s 341 1039 m -22 X s 341 1047
 m -22 X s 363 1054 m -44 X s
 gsave  2263 1770 2 313 C 274.567 1050.81 t 0 r /Helvetica findfont 44.0776 sf 0 0 m (2) show NC gr 
 gsave  2263 1770 2 313 C 203.383 1023.69 t 0 r /Helvetica findfont 64.4212 sf 0 0 m (10) show NC gr  341 1101 m -22 X s 341 1129 m -22 X s 341 1148 m -22 X s 341 1164 m -22 X s 341 1176 m -22 X s 341 1187 m -22 X s 341 1196 m -22 X s 341 1204 m -22
 X s 363 1211 m -44 X s
 gsave  2263 1770 2 313 C 274.567 1213.52 t 0 r /Helvetica findfont 44.0776 sf 0 0 m (3) show NC gr 
 gsave  2263 1770 2 313 C 203.383 1183.01 t 0 r /Helvetica findfont 64.4212 sf 0 0 m (10) show NC gr  341 1258 m -22 X s 341 1286 m -22 X s 341 1305 m -22 X s 341 1320 m -22 X s 341 1333 m -22 X s 341 1343 m -22 X s 341 1352 m -22 X s 341 1360 m -22
 X s 363 1367 m -44 X s
 gsave  2263 1770 2 313 C 274.567 1366.05 t 0 r /Helvetica findfont 44.0776 sf 0 0 m (4) show NC gr 
 gsave  2263 1770 2 313 C 203.383 1338.94 t 0 r /Helvetica findfont 64.4212 sf 0 0 m (10) show NC gr  341 1415 m -22 X s 341 1442 m -22 X s 341 1462 m -22 X s 341 1477 m -22 X s 341 1489 m -22 X s 341 1500 m -22 X s 341 1509 m -22 X s 341 1517 m -22
 X s 363 1524 m -44 X s
 gsave  2263 1770 2 313 C 274.567 1525.37 t 0 r /Helvetica findfont 44.0776 sf 0 0 m (5) show NC gr 
 gsave  2263 1770 2 313 C 203.383 1494.86 t 0 r /Helvetica findfont 64.4212 sf 0 0 m (10) show NC gr  341 1571 m -22 X s 341 1599 m -22 X s 341 1618 m -22 X s 341 1634 m -22 X s 341 1646 m -22 X s 341 1656 m -22 X s 341 1666 m -22 X s 341 1674 m -22
 X s 363 1681 m -44 X s
 gsave  2263 1770 2 313 C 274.567 1681.3 t 0 r /Helvetica findfont 44.0776 sf 0 0 m (6) show NC gr 
 gsave  2263 1770 2 313 C 203.383 1650.79 t 0 r /Helvetica findfont 64.4212 sf 0 0 m (10) show NC gr  341 1728 m -22 X s 2179 584 m 1145 Y s 2157 631 m 22 X s 2157 659 m 22 X s 2157 679 m 22 X s 2157 694 m 22 X s 2157 706 m 22 X s 2157 717 m 22 X s
 2157 726 m 22 X s 2157 734 m 22 X s 2136 741 m 43 X s 2157 788 m 22 X s 2157 816 m 22 X s 2157 835 m 22 X s 2157 850 m 22 X s 2157 863 m 22 X s 2157 873 m 22 X s 2157 882 m 22 X s 2157 890 m 22 X s 2136 898 m 43 X s 2157 945 m 22 X s 2157 972 m 22 X
 s 2157 992 m 22 X s 2157 1007 m 22 X s 2157 1019 m 22 X s 2157 1030 m 22 X s 2157 1039 m 22 X s 2157 1047 m 22 X s 2136 1054 m 43 X s 2157 1101 m 22 X s 2157 1129 m 22 X s 2157 1148 m 22 X s 2157 1164 m 22 X s 2157 1176 m 22 X s 2157 1187 m 22 X s
 2157 1196 m 22 X s 2157 1204 m 22 X s 2136 1211 m 43 X s 2157 1258 m 22 X s 2157 1286 m 22 X s 2157 1305 m 22 X s 2157 1320 m 22 X s 2157 1333 m 22 X s 2157 1343 m 22 X s 2157 1352 m 22 X s 2157 1360 m 22 X s 2136 1367 m 43 X s 2157 1415 m 22 X s
 2157 1442 m 22 X s 2157 1462 m 22 X s 2157 1477 m 22 X s 2157 1489 m 22 X s 2157 1500 m 22 X s 2157 1509 m 22 X s 2157 1517 m 22 X s 2136 1524 m 43 X s 2157 1571 m 22 X s 2157 1599 m 22 X s 2157 1618 m 22 X s 2157 1634 m 22 X s 2157 1646 m 22 X s
 2157 1656 m 22 X s 2157 1666 m 22 X s 2157 1674 m 22 X s 2136 1681 m 43 X s 2157 1728 m 22 X s 0.4 0.6 1 c black 0.4 0.6 1 c 319 584 m 600 Y 143 X -35 Y 143 X -51 Y 143 X -57 Y 144 X -50 Y 143 X -61 Y 143 X -63 Y 143 X -65 Y 143 X -54 Y 143 X -58 Y
 143 X -56 Y 143 X -50 Y 286 X f black 0.4 0.6 1 c black 319 1184 m 143 X -35 Y 143 X -51 Y 143 X -57 Y 144 X -50 Y 143 X -61 Y 143 X -63 Y 143 X -65 Y 143 X -54 Y 143 X -58 Y 143 X -56 Y 143 X -50 Y 286 X s 0.999 0.999 0.999 c black 0.999 0.999
 0.999 c 319 584 m 583 Y 143 X -36 Y 143 X -52 Y 143 X -57 Y 144 X -53 Y 143 X -63 Y 143 X -52 Y 143 X -78 Y 143 X -44 Y 143 X -62 Y 143 X -73 Y 143 X -13 Y 286 X f black 0.999 0.999 0.999 c black 319 1167 m 143 X -36 Y 143 X -52 Y 143 X -57 Y 144 X
 -53 Y 143 X -63 Y 143 X -52 Y 143 X -78 Y 143 X -44 Y 143 X -62 Y 143 X -73 Y 143 X -13 Y 286 X s 1 1 1 c black 319 1167 m 143 X -36 Y 143 X -52 Y 143 X -57 Y 144 X -53 Y 143 X -63 Y 143 X -52 Y 143 X -78 Y 143 X -44 Y 143 X -62 Y 143 X -73 Y 143 X
 -13 Y 286 X s 0.6 1 0.6 c black 0.6 1 0.6 c 319 584 m 583 Y 143 X -36 Y 143 X -52 Y 143 X -57 Y 144 X -53 Y 143 X -63 Y 143 X -52 Y 143 X -78 Y 143 X -44 Y 143 X -62 Y 143 X -73 Y 143 X -13 Y 286 X f black 0.6 1 0.6 c black 319 1167 m 143 X -36 Y
 143 X -52 Y 143 X -57 Y 144 X -53 Y 143 X -63 Y 143 X -52 Y 143 X -78 Y 143 X -44 Y 143 X -62 Y 143 X -73 Y 143 X -13 Y 286 X s 0.999 0.999 0.999 c black 0.999 0.999 0.999 c 319 584 m 508 Y 143 X -34 Y 143 X -46 Y 143 X -46 Y 144 X -33 Y 143 X -55 Y
 143 X -49 Y 143 X -72 Y 143 X -55 Y 143 X -45 Y 143 X -65 Y 143 X -8 Y 286 X f black 0.999 0.999 0.999 c black 319 1092 m 143 X -34 Y 143 X -46 Y 143 X -46 Y 144 X -33 Y 143 X -55 Y 143 X -49 Y 143 X -72 Y 143 X -55 Y 143 X -45 Y 143 X -65 Y 143 X
 -8 Y 286 X s 1 1 1 c black 319 1092 m 143 X -34 Y 143 X -46 Y 143 X -46 Y 144 X -33 Y 143 X -55 Y 143 X -49 Y 143 X -72 Y 143 X -55 Y 143 X -45 Y 143 X -65 Y 143 X -8 Y 286 X s 1 0.8 0.4 c black 1 0.8 0.4 c 319 584 m 508 Y 143 X -34 Y 143 X -46 Y
 143 X -46 Y 144 X -33 Y 143 X -55 Y 143 X -49 Y 143 X -72 Y 143 X -55 Y 143 X -45 Y 143 X -65 Y 143 X -8 Y 286 X f black 1 0.8 0.4 c black 319 1092 m 143 X -34 Y 143 X -46 Y 143 X -46 Y 144 X -33 Y 143 X -55 Y 143 X -49 Y 143 X -72 Y 143 X -55 Y 143
 X -45 Y 143 X -65 Y 143 X -8 Y 286 X s 0.999 0.999 0.999 c black 0.999 0.999 0.999 c 319 584 m 429 Y 143 X -63 Y 143 X -62 Y 143 X -37 Y 144 X -38 Y 143 X -67 Y 143 X -13 Y 143 X -143 Y 143 X -6 Y 715 X f black 0.999 0.999 0.999 c black 319 1013 m
 143 X -63 Y 143 X -62 Y 143 X -37 Y 144 X -38 Y 143 X -67 Y 143 X -13 Y 143 X -143 Y 143 X -6 Y 715 X s 1 1 1 c black 319 1013 m 143 X -63 Y 143 X -62 Y 143 X -37 Y 144 X -38 Y 143 X -67 Y 143 X -13 Y 143 X -143 Y 143 X -6 Y 715 X s 1 0.4 0.6 c
 black 1 0.4 0.6 c 319 584 m 429 Y 143 X -63 Y 143 X -62 Y 143 X -37 Y 144 X -38 Y 143 X -67 Y 143 X -13 Y 143 X -143 Y 143 X -6 Y 715 X f black 1 0.4 0.6 c black 319 1013 m 143 X -63 Y 143 X -62 Y 143 X -37 Y 144 X -38 Y 143 X -67 Y 143 X -13 Y 143
 X -143 Y 143 X -6 Y 715 X s 0.999 0.999 0.999 c black 0.999 0.999 0.999 c 319 584 m 391 Y 143 X -121 Y 143 X -127 Y 143 X -112 Y 144 X -31 Y 1287 X f black 0.999 0.999 0.999 c black 319 975 m 143 X -121 Y 143 X -127 Y 143 X -112 Y 144 X -31 Y 1287 X
 s 1 1 1 c black 319 975 m 143 X -121 Y 143 X -127 Y 143 X -112 Y 144 X -31 Y 1287 X s 0 0 0.4 c black 0 0 0.4 c 319 584 m 391 Y 143 X -121 Y 143 X -127 Y 143 X -112 Y 144 X -31 Y 1287 X f black 0 0 0.4 c black 319 975 m 143 X -121 Y 143 X -127 Y 143
 X -112 Y 144 X -31 Y 1287 X s 1 0 0 c 6 lw 1 1 1 c black 1 0 0 c 319 1184 m 143 X -35 Y 143 X -51 Y 143 X -57 Y 144 X -50 Y 143 X -61 Y 143 X -63 Y 143 X -65 Y 143 X -54 Y 143 X -58 Y 143 X -56 Y 143 X -50 Y 286 X s black 3 lw 1 0 0 c 1 lw <<
 /PatternType 1 /PaintType 2 /TilingType 1 /BBox [ 0 0 100 100 ] /XStep 100 /YStep 100 /PaintProc { begin gsave 0 100 m 100 0 l s gr end } >> [ 0.24 0 0 0.24 0 0 ] makepattern /P05 exch def /cs {[/Pattern /DeviceRGB] setcolorspace} def /FA {f
 [/DeviceRGB] setcolorspace} def cs 1 0 0 P05 setcolor 319 584 m 604 Y 143 X -37 Y 143 X -50 Y 143 X -54 Y 144 X -50 Y 143 X -61 Y 143 X -55 Y 143 X -68 Y 143 X -46 Y 143 X -65 Y 143 X -51 Y 143 X -67 Y 143 X 18 Y 143 X -18 Y -286 X 28 Y -143 X 65 Y
 -143 X 46 Y -143 X 65 Y -143 X 62 Y -143 X 74 Y -143 X 61 Y -143 X 50 Y -144 X 60 Y -143 X 51 Y -143 X 34 Y -143 X -596 Y FA 6 lw 1 1 1 c 15 lw 1106 877 m -5 Y s 1106 872 m cl s 1249 871 m 6 Y s 1249 877 m cl s 1249 830 m -18 Y s 1249 812 m cl s
 1392 808 m 21 Y s 1392 829 m cl s 1392 768 m -50 Y s 1392 718 m cl s 1535 808 m 21 Y s 1535 829 m cl s 1535 768 m -50 Y s 1535 718 m cl s black 1 1 1 c 3 lw /w 43 def /w2 {w 2 div} def /w3 {w 3 div} def 391 1183 534 1147 677 1093 820 1045 963 988
 1106 898 1249 850 1392 788 1535 788 9 { m20} R 15 lw black 6 lw 1 1 1 c black 3 lw /w 33 def /w2 {w 2 div} def /w3 {w 3 div} def 391 1183 m20 6 lw 3 lw 534 1147 m20 6 lw 3 lw 677 1093 m20 6 lw 3 lw 820 1045 m20 6 lw 3 lw 963 988 m20 6 lw 1106 872 m
 12 Y s 1106 911 m 5 Y s 3 lw 1106 898 m20 6 lw 1249 810 m 27 Y s 1249 864 m 12 Y s 3 lw 1249 850 m20 6 lw 1392 705 m 70 Y s 1392 802 m 22 Y s 3 lw 1392 788 m20 6 lw 1535 705 m 70 Y s 1535 802 m 22 Y s 3 lw 1535 788 m20 6 lw 1106 911 m 6 Y s 1106 917
 m cl s 1106 884 m -12 Y s 1106 872 m cl s 1249 864 m 13 Y s 1249 877 m cl s 1249 837 m -25 Y s 1249 812 m cl s 1392 802 m 27 Y s 1392 829 m cl s 1392 775 m -57 Y s 1392 718 m cl s 1535 802 m 27 Y s 1535 829 m cl s 1535 775 m -57 Y s 1535 718 m cl s
 3 lw 391 1183 534 1147 677 1093 820 1045 963 988 1106 898 1249 850 1392 788 1535 788 9 { m20} R 6 lw 3 lw 319 584 m 1860 X s 319 584 m cl s 391 584 m cl s 462 584 m cl s 534 584 m cl s 605 584 m cl s 677 584 m cl s 748 584 m cl s 820 584 m cl s 892
 584 m cl s 963 584 m cl s 1035 584 m cl s 1106 584 m cl s 1178 584 m cl s 1249 584 m cl s 1321 584 m cl s 1392 584 m cl s 1464 584 m cl s 1535 584 m cl s 1607 584 m cl s 1679 584 m cl s 1750 584 m cl s 1822 584 m cl s 1893 584 m cl s 1965 584 m cl s
 2036 584 m cl s 2108 584 m cl s 2108 584 m cl s 2179 584 m cl s 319 1729 m 1860 X s 319 1729 m cl s 391 1729 m cl s 462 1729 m cl s 534 1729 m cl s 605 1729 m cl s 677 1729 m cl s 748 1729 m cl s 820 1729 m cl s 892 1729 m cl s 963 1729 m cl s 1035
 1729 m cl s 1106 1729 m cl s 1178 1729 m cl s 1249 1729 m cl s 1321 1729 m cl s 1392 1729 m cl s 1464 1729 m cl s 1535 1729 m cl s 1607 1729 m cl s 1679 1729 m cl s 1750 1729 m cl s 1822 1729 m cl s 1893 1729 m cl s 1965 1729 m cl s 2036 1729 m cl s
 2108 1729 m cl s 2108 1729 m cl s 2179 1729 m cl s 319 584 m 1145 Y s 341 631 m -22 X s 341 659 m -22 X s 341 679 m -22 X s 341 694 m -22 X s 341 706 m -22 X s 341 717 m -22 X s 341 726 m -22 X s 341 734 m -22 X s 363 741 m -44 X s 341 788 m -22 X s
 341 816 m -22 X s 341 835 m -22 X s 341 850 m -22 X s 341 863 m -22 X s 341 873 m -22 X s 341 882 m -22 X s 341 890 m -22 X s 363 898 m -44 X s 341 945 m -22 X s 341 972 m -22 X s 341 992 m -22 X s 341 1007 m -22 X s 341 1019 m -22 X s 341 1030 m
 -22 X s 341 1039 m -22 X s 341 1047 m -22 X s 363 1054 m -44 X s 341 1101 m -22 X s 341 1129 m -22 X s 341 1148 m -22 X s 341 1164 m -22 X s 341 1176 m -22 X s 341 1187 m -22 X s 341 1196 m -22 X s 341 1204 m -22 X s 363 1211 m -44 X s 341 1258 m
 -22 X s 341 1286 m -22 X s 341 1305 m -22 X s 341 1320 m -22 X s 341 1333 m -22 X s 341 1343 m -22 X s 341 1352 m -22 X s 341 1360 m -22 X s 363 1367 m -44 X s 341 1415 m -22 X s 341 1442 m -22 X s 341 1462 m -22 X s 341 1477 m -22 X s 341 1489 m
 -22 X s 341 1500 m -22 X s 341 1509 m -22 X s 341 1517 m -22 X s 363 1524 m -44 X s 341 1571 m -22 X s 341 1599 m -22 X s 341 1618 m -22 X s 341 1634 m -22 X s 341 1646 m -22 X s 341 1656 m -22 X s 341 1666 m -22 X s 341 1674 m -22 X s 363 1681 m
 -44 X s 341 1728 m -22 X s 2179 584 m 1145 Y s 2157 631 m 22 X s 2157 659 m 22 X s 2157 679 m 22 X s 2157 694 m 22 X s 2157 706 m 22 X s 2157 717 m 22 X s 2157 726 m 22 X s 2157 734 m 22 X s 2136 741 m 43 X s 2157 788 m 22 X s 2157 816 m 22 X s 2157
 835 m 22 X s 2157 850 m 22 X s 2157 863 m 22 X s 2157 873 m 22 X s 2157 882 m 22 X s 2157 890 m 22 X s 2136 898 m 43 X s 2157 945 m 22 X s 2157 972 m 22 X s 2157 992 m 22 X s 2157 1007 m 22 X s 2157 1019 m 22 X s 2157 1030 m 22 X s 2157 1039 m 22 X
 s 2157 1047 m 22 X s 2136 1054 m 43 X s 2157 1101 m 22 X s 2157 1129 m 22 X s 2157 1148 m 22 X s 2157 1164 m 22 X s 2157 1176 m 22 X s 2157 1187 m 22 X s 2157 1196 m 22 X s 2157 1204 m 22 X s 2136 1211 m 43 X s 2157 1258 m 22 X s 2157 1286 m 22 X s
 2157 1305 m 22 X s 2157 1320 m 22 X s 2157 1333 m 22 X s 2157 1343 m 22 X s 2157 1352 m 22 X s 2157 1360 m 22 X s 2136 1367 m 43 X s 2157 1415 m 22 X s 2157 1442 m 22 X s 2157 1462 m 22 X s 2157 1477 m 22 X s 2157 1489 m 22 X s 2157 1500 m 22 X s
 2157 1509 m 22 X s 2157 1517 m 22 X s 2136 1524 m 43 X s 2157 1571 m 22 X s 2157 1599 m 22 X s 2157 1618 m 22 X s 2157 1634 m 22 X s 2157 1646 m 22 X s 2157 1656 m 22 X s 2157 1666 m 22 X s 2157 1674 m 22 X s 2136 1681 m 43 X s 2157 1728 m 22 X s
 gsave  2263 1770 2 313 C 406.765 1447.41 t 0 r /Helvetica findfont 64.4212 sf 0 0 m (VR0LmetSig for MB\255GGd) show NC gr 
 gsave  2263 1770 2 313 C 1464.36 1630.45 t 0 r /Helvetica findfont 64.4212 sf 0 0 m (SM Total) show NC gr  1 1 1 c 1338 1616 m 107 X 64 Y -107 X f 1 0 0 c 6 lw 1338 1648 m 107 X s black
 gsave  2263 1770 2 313 C 1464.36 1538.93 t 0 r /Helvetica findfont 64.4212 sf 0 0 m (Data) show NC gr  1391 1529 m 55 Y s 3 lw 1391 1557 m20 6 lw
 gsave  2263 1770 2 313 C 1464.36 1447.41 t 0 r /Helvetica findfont 64.4212 sf 0 0 m (W+jets) show NC gr  0.4 0.6 1 c 3 lw 1338 1434 m 107 X 64 Y -107 X f 6 lw black 3 lw 1338 1498 m 107 X s 1338 1434 m 107 X s 1445 1434 m 64 Y s 1338 1434 m 64 Y s
 gsave  2263 1770 2 313 C 1498.25 1355.88 t 0 r /Helvetica findfont 64.4212 sf 0 0 m (\(+EW\) & single top) show NC gr 
 gsave  2263 1770 2 313 C 1481.3 1355.88 t 0 r /Helvetica findfont 64.4212 sf 0 0 m (t) show NC gr  1481 1407 m 17 X s
 gsave  2263 1770 2 313 C 1464.36 1355.88 t 0 r /Helvetica findfont 64.4212 sf 0 0 m (t) show NC gr  0.6 1 0.6 c 1338 1343 m 107 X 63 Y -107 X f black 1338 1406 m 107 X s 1338 1343 m 107 X s 1445 1343 m 63 Y s 1338 1343 m 63 Y s
 gsave  2263 1770 2 313 C 1464.36 1264.36 t 0 r /Helvetica findfont 64.4212 sf 0 0 m (Z+jets) show NC gr  1 0.8 0.4 c 1338 1252 m 107 X 63 Y -107 X f black 1338 1315 m 107 X s 1338 1252 m 107 X s 1445 1252 m 63 Y s 1338 1252 m 63 Y s
 gsave  2263 1770 2 313 C 1464.36 1172.84 t 0 r /Helvetica findfont 64.4212 sf 0 0 m (Diboson) show NC gr  1 0.4 0.6 c 1338 1161 m 107 X 63 Y -107 X f black 1338 1224 m 107 X s 1338 1161 m 107 X s 1445 1161 m 63 Y s 1338 1161 m 63 Y s
 gsave  2263 1770 2 313 C 1464.36 1081.32 t 0 r /Helvetica findfont 64.4212 sf 0 0 m (Multi\255jet) show NC gr  0 0 0.4 c 1338 1070 m 107 X 63 Y -107 X f black 1338 1133 m 107 X s 1338 1070 m 107 X s 1445 1070 m 63 Y s 1338 1070 m 63 Y s
 gsave  2263 1770 2 313 C 911.832 1566.05 t 0 r /Helvetica findfont 44.0776 sf 0 0 m (\2551) show NC gr 
 gsave  2263 1770 2 313 C 471.17 1535.54 t 0 r /Helvetica findfont 64.4212 sf 0 0 m (=13TeV, 139 fb) show NC gr 
 gsave  2263 1770 2 313 C 440.662 1535.54 t 0 r /Helvetica findfont 64.4212 sf 0 0 m (s) show NC gr  6 lw 420 1573 m 7 -41 d s 3 lw 427 1532 m 7 61 d s 434 1593 m 37 X s 1 1 1 c 2254 561 2 2 bf black 1 1 1 c black 1860 358 318 187 bl 1 1 1 c black
 1860 358 318 187 bl 6 lw 1 1 1 c black 3 lw 389 364 m20 6 lw 3 lw 533 362 m20 6 lw 3 lw 676 353 m20 6 lw 3 lw 819 375 m20 6 lw 3 lw 962 359 m20 6 lw 3 lw 1105 304 m20 6 lw 3 lw 1248 330 m20 6 lw 3 lw 1391 337 m20 6 lw 3 lw 1534 495 m20 6 lw 3 lw 318
 187 m 1860 X s
 gsave  2254 561 2 2 C 2105.01 64.4045 t 0 r /Helvetica findfont 50.9797 sf 0 0 m (1/2) show NC gr 
 gsave  2254 561 2 2 C 1888.07 23.728 t 0 r /Helvetica findfont 78.1689 sf 0 0 m ( [GeV]) show NC gr 
 gsave  2254 561 2 2 C 1857.56 3.38971 t 0 r /Helvetica findfont 50.9797 sf 0 0 m (T) show NC gr 
 gsave  2254 561 2 2 C 1806.72 23.728 t 0 r /Helvetica findfont 78.1689 sf 0 0 m (H) show NC gr  6 lw 1773 81 m 10 -78 d s 3 lw 1783 3 m 14 99 d s 1797 102 m 91 X s
 gsave  2254 561 2 2 C 1735.53 23.728 t 0 r /Helvetica findfont 78.1689 sf 0 0 m (/) show NC gr 
 gsave  2254 561 2 2 C 1630.45 61.0148 t 0 r /Helvetica findfont 50.9797 sf 0 0 m (miss) show NC gr 
 gsave  2254 561 2 2 C 1630.45 3.38971 t 0 r /Helvetica findfont 50.9797 sf 0 0 m (T) show NC gr 
 gsave  2254 561 2 2 C 1579.61 23.728 t 0 r /Helvetica findfont 78.1689 sf 0 0 m (E) show NC gr  318 201 m -14 Y s 389 194 m -7 Y s 461 194 m -7 Y s 533 194 m -7 Y s 604 194 m -7 Y s 676 201 m -14 Y s 747 194 m -7 Y s 819 194 m -7 Y s 890 194 m -7 Y
 s 962 194 m -7 Y s 1033 201 m -14 Y s 1105 194 m -7 Y s 1177 194 m -7 Y s 1248 194 m -7 Y s 1320 194 m -7 Y s 1391 201 m -14 Y s 1463 194 m -7 Y s 1534 194 m -7 Y s 1606 194 m -7 Y s 1677 194 m -7 Y s 1749 201 m -14 Y s 1821 194 m -7 Y s 1892 194 m
 -7 Y s 1964 194 m -7 Y s 2035 194 m -7 Y s 2107 201 m -14 Y s 2107 201 m -14 Y s 2178 194 m -7 Y s
 gsave  2254 561 2 2 C 271.177 118.64 t 0 r /Helvetica findfont 78.1689 sf 0 0 m (10) show NC gr 
 gsave  2254 561 2 2 C 630.486 118.64 t 0 r /Helvetica findfont 78.1689 sf 0 0 m (15) show NC gr 
 gsave  2254 561 2 2 C 986.406 118.64 t 0 r /Helvetica findfont 78.1689 sf 0 0 m (20) show NC gr 
 gsave  2254 561 2 2 C 1345.72 118.64 t 0 r /Helvetica findfont 78.1689 sf 0 0 m (25) show NC gr 
 gsave  2254 561 2 2 C 1701.63 118.64 t 0 r /Helvetica findfont 78.1689 sf 0 0 m (30) show NC gr 
 gsave  2254 561 2 2 C 2060.94 118.64 t 0 r /Helvetica findfont 78.1689 sf 0 0 m (35) show NC gr  318 545 m 1860 X s 318 531 m 14 Y s 389 538 m 7 Y s 461 538 m 7 Y s 533 538 m 7 Y s 604 538 m 7 Y s 676 531 m 14 Y s 747 538 m 7 Y s 819 538 m 7 Y s 890
 538 m 7 Y s 962 538 m 7 Y s 1033 531 m 14 Y s 1105 538 m 7 Y s 1177 538 m 7 Y s 1248 538 m 7 Y s 1320 538 m 7 Y s 1391 531 m 14 Y s 1463 538 m 7 Y s 1534 538 m 7 Y s 1606 538 m 7 Y s 1677 538 m 7 Y s 1749 531 m 14 Y s 1821 538 m 7 Y s 1892 538 m 7 Y
 s 1964 538 m 7 Y s 2035 538 m 7 Y s 2107 531 m 14 Y s 2107 531 m 14 Y s 2178 538 m 7 Y s 318 187 m 358 Y s
 gsave  2254 561 2 2 C 166.096 284.736 t 90 r /Helvetica findfont 67.9729 sf 0 0 m (Data/SM) show NC gr  361 203 m -43 X s 339 220 m -21 X s 339 236 m -21 X s 339 252 m -21 X s 339 268 m -21 X s 361 285 m -43 X s 339 301 m -21 X s 339 317 m -21 X s
 339 334 m -21 X s 339 350 m -21 X s 361 366 m -43 X s 339 382 m -21 X s 339 399 m -21 X s 339 415 m -21 X s 339 431 m -21 X s 361 447 m -43 X s 339 464 m -21 X s 339 480 m -21 X s 339 496 m -21 X s 339 512 m -21 X s 361 529 m -43 X s 361 203 m -43 X
 s 339 187 m -21 X s 361 529 m -43 X s
 gsave  2254 561 2 2 C 261.008 183.044 t 0 r /Helvetica findfont 57.777 sf 0 0 m (0) show NC gr 
 gsave  2254 561 2 2 C 213.552 261.008 t 0 r /Helvetica findfont 57.777 sf 0 0 m (0.5) show NC gr 
 gsave  2254 561 2 2 C 271.177 342.361 t 0 r /Helvetica findfont 57.777 sf 0 0 m (1) show NC gr 
 gsave  2254 561 2 2 C 213.552 423.714 t 0 r /Helvetica findfont 57.777 sf 0 0 m (1.5) show NC gr 
 gsave  2254 561 2 2 C 261.008 505.067 t 0 r /Helvetica findfont 57.777 sf 0 0 m (2) show NC gr  2178 187 m 358 Y s 2135 203 m 43 X s 2157 220 m 21 X s 2157 236 m 21 X s 2157 252 m 21 X s 2157 268 m 21 X s 2135 285 m 43 X s 2157 301 m 21 X s 2157 317
 m 21 X s 2157 334 m 21 X s 2157 350 m 21 X s 2135 366 m 43 X s 2157 382 m 21 X s 2157 399 m 21 X s 2157 415 m 21 X s 2157 431 m 21 X s 2135 447 m 43 X s 2157 464 m 21 X s 2157 480 m 21 X s 2157 496 m 21 X s 2157 512 m 21 X s 2135 529 m 43 X s 2135
 203 m 43 X s 2157 187 m 21 X s 2135 529 m 43 X s 9 lw 819 389 m 4 Y s 819 393 m cl s 819 361 m -4 Y s 819 357 m cl s 962 373 m 11 Y s 962 384 m cl s 962 345 m -11 Y s 962 334 m cl s 1105 317 m 19 Y s 1105 336 m cl s 1105 290 m -17 Y s 1105 273 m cl
 s 1248 344 m 46 Y s 1248 390 m cl s 1248 317 m -41 Y s 1248 276 m cl s 1391 350 m 95 Y s 1391 445 m cl s 1391 323 m -72 Y s 1391 251 m cl s 1534 509 m 36 Y s 1534 545 m cl s 1534 482 m -175 Y s 1534 307 m cl s 3 lw 389 364 533 362 676 353 819 375
 962 359 1105 304 1248 330 1391 337 1534 495 9 { m20} R 9 lw 1 0 0 c 6 lw black 3 lw 1 0 0 c 2178 312 m -24 -24 d s 2178 341 m -53 -53 d s 2178 369 m -82 -81 d s 2178 398 m -110 -110 d s 2178 427 m -139 -139 d s 2167 444 m -132 -131 d s 2139 444 m
 -131 -130 d s 2110 444 m -131 -130 d s 2081 444 m -131 -130 d s 2053 444 m -18 -17 d s 2027 418 m -105 -104 d s 1998 418 m -105 -104 d s 1969 418 m -98 -97 d s 1940 418 m -97 -97 d s 1912 418 m -98 -97 d s 1876 411 m -91 -90 d s 1847 411 m -90 -90 d
 s 1819 411 m -76 -75 d s 1790 411 m -76 -75 d s 1761 411 m -12 -12 d s 1746 396 m -60 -60 d s 1717 396 m -60 -60 d s 1689 396 m -61 -60 d s 1660 396 m -81 -80 d s 1631 396 m -81 -80 d s 1606 399 m -84 -83 d s 1594 416 m -101 -100 d s 1566 416 m -102
 -100 d s 1537 416 m -79 -79 d s 1508 416 m -79 -79 d s 1480 416 m -17 -16 d s 1458 395 m -58 -58 d s 1429 395 m -57 -58 d s 1400 395 m -57 -58 d s 1372 395 m -66 -66 d s 1343 395 m -66 -66 d s 1320 400 m -71 -71 d s 1294 403 m -74 -74 d s 1265 403 m
 -74 -74 d s 1236 403 m -59 -60 d s 1208 403 m -52 -52 d s 1179 403 m -2 -3 d s 1157 381 m -30 -30 d s 1128 381 m -29 -30 d s 1099 381 m -29 -30 d s 1071 381 m -30 -30 d s 1042 381 m -30 -30 d s 1014 381 m -30 -30 d s 985 381 m -30 -30 d s 956 381 m
 -30 -30 d s 928 381 m -30 -30 d s 899 381 m -29 -29 d s 869 380 m -28 -28 d s 841 380 m -29 -28 d s 812 380 m -28 -28 d s 783 380 m -28 -28 d s 755 380 m -22 -21 d s 719 373 m -14 -14 d s 690 373 m -14 -14 d s 661 373 m -14 -14 d s 633 373 m -14 -14
 d s 604 373 m -14 -14 d s 575 373 m -14 -14 d s 546 373 m -13 -14 d s 518 373 m -14 -14 d s 489 373 m -14 -14 d s 461 373 m -17 -17 d s 318 231 m s 434 376 m -19 -20 d s 318 259 m s 406 376 m -20 -20 d s 318 288 m s 377 376 m -19 -20 d s 318 317 m s
 348 376 m -19 -20 d s 318 345 m s 320 376 m -2 -2 d s 6 lw black[ 4 8] 0 sd 3 lw 318 447 m 1860 X s 318 285 m 1860 X s 1 0 0 c[  12 12 ] 0 sd 6 lw 318 366 m 1860 X s
 gr  gr showpage
end
%%EOF
