%!PS-Adobe-2.0 EPSF-2.0
%%BoundingBox:  0 0 567 521
%%Title: Distributions/metsqrtmeffInc_met_distrCRY_MB-GGd_afterFit_forThesis.eps: canvas
%%Creator: ROOT Version 6.04/16
%%CreationDate: Tue May 19 22:06:02 2020
%%DocumentNeededResources: ProcSet (FontSetInit)
%%EndComments
%%BeginProlog
80 dict begin
/s {stroke} def /l {lineto} def /m {moveto} def /t {translate} def
/r {rotate} def /rl {roll}  def /R {repeat} def
/d {rlineto} def /rm {rmoveto} def /gr {grestore} def /f {eofill} def
/c {setrgbcolor} def /black {0 setgray} def /sd {setdash} def
/cl {closepath} def /sf {scalefont setfont} def /lw {setlinewidth} def
/box {m dup 0 exch d exch 0 d 0 exch neg d cl} def
/NC{systemdict begin initclip end}def/C{NC box clip newpath}def
/bl {box s} def /bf {gsave box gsave f grestore 1 lw [] 0 sd s grestore} def /Y { 0 exch d} def /X { 0 d} def 
/K {{pop pop 0 moveto} exch kshow} bind def
/ita {/ang 15 def gsave [1 0 ang dup sin exch cos div 1 0 0] concat} def 
/mp {newpath /y exch def /x exch def} def
/side {[w .77 mul w .23 mul] .385 w mul sd w 0 l currentpoint t -144 r} def
/mr {mp x y w2 0 360 arc} def /m24 {mr s} def /m20 {mr f} def
/mb {mp x y w2 add m w2 neg 0 d 0 w neg d w 0 d 0 w d cl} def
/mt {mp x y w2 add m w2 neg w neg d w 0 d cl} def
/m21 {mb f} def /m25 {mb s} def /m22 {mt f} def /m26{mt s} def
/m23 {mp x y w2 sub m w2 w d w neg 0 d cl f} def
/m27 {mp x y w2 add m w3 neg w2 neg d w3 w2 neg d w3 w2 d cl s} def
/m28 {mp x w2 sub y w2 sub w3 add m w3 0 d  0 w3 neg d w3 0 d 0 w3 d w3 0 d  0 w3 d w3 neg 0 d 0 w3 d w3 neg 0 d 0 w3 neg d w3 neg 0 d cl s } def
/m29 {mp gsave x w2 sub y w2 add w3 sub m currentpoint t 4 {side} repeat cl fill gr} def
/m30 {mp gsave x w2 sub y w2 add w3 sub m currentpoint t 4 {side} repeat cl s gr} def
/m31 {mp x y w2 sub m 0 w d x w2 sub y m w 0 d x w2 sub y w2 add m w w neg d x w2 sub y w2 sub m w w d s} def
/m32 {mp x y w2 sub m w2 w d w neg 0 d cl s} def
/m33 {mp x y w2 add m w3 neg w2 neg d w3 w2 neg d w3 w2 d cl f} def
/m34 {mp x w2 sub y w2 sub w3 add m w3 0 d  0 w3 neg d w3 0 d 0 w3 d w3 0 d  0 w3 d w3 neg 0 d 0 w3 d w3 neg 0 d 0 w3 neg d w3 neg 0 d cl f } def
/m2 {mp x y w2 sub m 0 w d x w2 sub y m w 0 d s} def
/m5 {mp x w2 sub y w2 sub m w w d x w2 sub y w2 add m w w neg d s} def
%%IncludeResource: ProcSet (FontSetInit)
%%IncludeResource: font Times-Roman
%%IncludeResource: font Times-Italic
%%IncludeResource: font Times-Bold
%%IncludeResource: font Times-BoldItalic
%%IncludeResource: font Helvetica
%%IncludeResource: font Helvetica-Oblique
%%IncludeResource: font Helvetica-Bold
%%IncludeResource: font Helvetica-BoldOblique
%%IncludeResource: font Courier
%%IncludeResource: font Courier-Oblique
%%IncludeResource: font Courier-Bold
%%IncludeResource: font Courier-BoldOblique
%%IncludeResource: font Symbol
%%IncludeResource: font ZapfDingbats
/reEncode {exch findfont dup length dict begin {1 index /FID eq  {pop pop} {def} ifelse } forall /Encoding exch def currentdict end dup /FontName get exch definefont pop } def [/Times-Bold /Times-Italic /Times-BoldItalic /Helvetica /Helvetica-Oblique
 /Helvetica-Bold /Helvetica-BoldOblique /Courier /Courier-Oblique /Courier-Bold /Courier-BoldOblique /Times-Roman /AvantGarde-Book /AvantGarde-BookOblique /AvantGarde-Demi /AvantGarde-DemiOblique /Bookman-Demi /Bookman-DemiItalic /Bookman-Light
 /Bookman-LightItalic /Helvetica-Narrow /Helvetica-Narrow-Bold /Helvetica-Narrow-BoldOblique /Helvetica-Narrow-Oblique /NewCenturySchlbk-Roman /NewCenturySchlbk-Bold /NewCenturySchlbk-BoldItalic /NewCenturySchlbk-Italic /Palatino-Bold
 /Palatino-BoldItalic /Palatino-Italic /Palatino-Roman ] {ISOLatin1Encoding reEncode } forall
%%EndProlog
%%BeginSetup
%%EndSetup
newpath  gsave  .25 .25 scale  gsave  0 0 t black[  ] 0 sd 3 lw 1 1 1 c 2268 2085 0 0 bf black 1 1 1 c 2263 1770 2 313 bf black 1 1 1 c black 1860 1145 319 584 bl 1 1 1 c black 1860 1145 319 584 bl 6 lw 1 1 1 c black 3 lw /w 33 def /w2 {w 2 div} def
 /w3 {w 3 div} def 391 1212 m20 6 lw 3 lw 534 1197 m20 6 lw 3 lw 677 1175 m20 6 lw 3 lw 820 1146 m20 6 lw 3 lw 963 1120 m20 6 lw 3 lw 1106 1099 m20 6 lw 3 lw 1249 1066 m20 6 lw 3 lw 1392 1049 m20 6 lw 3 lw 1535 1018 m20 6 lw 3 lw 1679 990 m20 6 lw
 1822 931 m s 3 lw 1822 945 m20 6 lw 1965 892 m 5 Y s 1965 925 m s 3 lw 1965 911 m20 6 lw 2108 838 m 15 Y s 2108 880 m 6 Y s 3 lw 2108 866 m20 6 lw 3 lw 319 584 m 1860 X s
 gsave  2263 1770 2 313 C 2101.62 396.596 t 0 r /Helvetica findfont 54.2494 sf 0 0 m (1/2) show NC gr 
 gsave  2263 1770 2 313 C 1874.51 355.92 t 0 r /Helvetica findfont 81.3741 sf 0 0 m ( [GeV]) show NC gr 
 gsave  2263 1770 2 313 C 1840.61 332.192 t 0 r /Helvetica findfont 54.2494 sf 0 0 m (T) show NC gr 
 gsave  2263 1770 2 313 C 1786.38 355.92 t 0 r /Helvetica findfont 81.3741 sf 0 0 m (H) show NC gr  6 lw 1749 417 m 14 -85 d s 3 lw 1763 332 m 13 105 d s 1776 437 m 99 X s
 gsave  2263 1770 2 313 C 1711.8 355.92 t 0 r /Helvetica findfont 81.3741 sf 0 0 m (/) show NC gr 
 gsave  2263 1770 2 313 C 1599.94 396.596 t 0 r /Helvetica findfont 54.2494 sf 0 0 m (miss) show NC gr 
 gsave  2263 1770 2 313 C 1599.94 332.192 t 0 r /Helvetica findfont 54.2494 sf 0 0 m (T) show NC gr 
 gsave  2263 1770 2 313 C 1549.1 355.92 t 0 r /Helvetica findfont 81.3741 sf 0 0 m (E) show NC gr  319 584 m cl s 391 584 m cl s 462 584 m cl s 534 584 m cl s 605 584 m cl s 677 584 m cl s 748 584 m cl s 820 584 m cl s 892 584 m cl s 963 584 m cl s
 1035 584 m cl s 1106 584 m cl s 1178 584 m cl s 1249 584 m cl s 1321 584 m cl s 1392 584 m cl s 1464 584 m cl s 1535 584 m cl s 1607 584 m cl s 1679 584 m cl s 1750 584 m cl s 1822 584 m cl s 1893 584 m cl s 1965 584 m cl s 2036 584 m cl s 2108 584
 m cl s 2108 584 m cl s 2179 584 m cl s 319 1729 m 1860 X s 319 1729 m cl s 391 1729 m cl s 462 1729 m cl s 534 1729 m cl s 605 1729 m cl s 677 1729 m cl s 748 1729 m cl s 820 1729 m cl s 892 1729 m cl s 963 1729 m cl s 1035 1729 m cl s 1106 1729 m
 cl s 1178 1729 m cl s 1249 1729 m cl s 1321 1729 m cl s 1392 1729 m cl s 1464 1729 m cl s 1535 1729 m cl s 1607 1729 m cl s 1679 1729 m cl s 1750 1729 m cl s 1822 1729 m cl s 1893 1729 m cl s 1965 1729 m cl s 2036 1729 m cl s 2108 1729 m cl s 2108
 1729 m cl s 2179 1729 m cl s 319 584 m 1145 Y s
 gsave  2263 1770 2 313 C 125.419 1654.18 t 90 r /Helvetica findfont 54.2494 sf 0 0 m (1/2) show NC gr 
 gsave  2263 1770 2 313 C 166.096 1064.37 t 90 r /Helvetica findfont 81.3741 sf 0 0 m (Events / 2 [GeV]) show NC gr  341 629 m -22 X s 341 655 m -22 X s 341 674 m -22 X s 341 688 m -22 X s 341 700 m -22 X s 341 710 m -22 X s 341 718 m -22 X s 341 726
 m -22 X s 363 733 m -44 X s
 gsave  2263 1770 2 313 C 300.555 705.384 t 0 r  -36 0 t /Helvetica findfont 64.4212 sf 0 0 m (1) show NC gr  341 777 m -22 X s 341 803 m -22 X s 341 822 m -22 X s 341 836 m -22 X s 341 848 m -22 X s 341 858 m -22 X s 341 866 m -22 X s 341 874 m -22
 X s 363 881 m -44 X s
 gsave  2263 1770 2 313 C 300.555 853.576 t 0 r  -73 0 t /Helvetica findfont 64.4212 sf 0 0 m (10) show NC gr  341 925 m -22 X s 341 951 m -22 X s 341 970 m -22 X s 341 984 m -22 X s 341 996 m -22 X s 341 1006 m -22 X s 341 1015 m -22 X s 341 1022 m
 -22 X s 363 1029 m -44 X s
 gsave  2263 1770 2 313 C 274.567 1027.08 t 0 r /Helvetica findfont 44.0776 sf 0 0 m (2) show NC gr 
 gsave  2263 1770 2 313 C 203.383 999.965 t 0 r /Helvetica findfont 64.4212 sf 0 0 m (10) show NC gr  341 1073 m -22 X s 341 1100 m -22 X s 341 1118 m -22 X s 341 1132 m -22 X s 341 1144 m -22 X s 341 1154 m -22 X s 341 1163 m -22 X s 341 1170 m -22
 X s 363 1177 m -44 X s
 gsave  2263 1770 2 313 C 274.567 1179.62 t 0 r /Helvetica findfont 44.0776 sf 0 0 m (3) show NC gr 
 gsave  2263 1770 2 313 C 203.383 1149.11 t 0 r /Helvetica findfont 64.4212 sf 0 0 m (10) show NC gr  341 1222 m -22 X s 341 1248 m -22 X s 341 1266 m -22 X s 341 1281 m -22 X s 341 1292 m -22 X s 341 1302 m -22 X s 341 1311 m -22 X s 341 1318 m -22
 X s 363 1325 m -44 X s
 gsave  2263 1770 2 313 C 274.567 1321.99 t 0 r /Helvetica findfont 44.0776 sf 0 0 m (4) show NC gr 
 gsave  2263 1770 2 313 C 203.383 1294.87 t 0 r /Helvetica findfont 64.4212 sf 0 0 m (10) show NC gr  341 1370 m -22 X s 341 1396 m -22 X s 341 1414 m -22 X s 341 1429 m -22 X s 341 1441 m -22 X s 341 1451 m -22 X s 341 1459 m -22 X s 341 1467 m -22
 X s 363 1473 m -44 X s
 gsave  2263 1770 2 313 C 274.567 1474.52 t 0 r /Helvetica findfont 44.0776 sf 0 0 m (5) show NC gr 
 gsave  2263 1770 2 313 C 203.383 1444.02 t 0 r /Helvetica findfont 64.4212 sf 0 0 m (10) show NC gr  341 1518 m -22 X s 341 1544 m -22 X s 341 1563 m -22 X s 341 1577 m -22 X s 341 1589 m -22 X s 341 1599 m -22 X s 341 1607 m -22 X s 341 1615 m -22
 X s 363 1622 m -44 X s
 gsave  2263 1770 2 313 C 274.567 1623.67 t 0 r /Helvetica findfont 44.0776 sf 0 0 m (6) show NC gr 
 gsave  2263 1770 2 313 C 203.383 1593.16 t 0 r /Helvetica findfont 64.4212 sf 0 0 m (10) show NC gr  341 1666 m -22 X s 341 1692 m -22 X s 341 1711 m -22 X s 341 1725 m -22 X s 2179 584 m 1145 Y s 2157 629 m 22 X s 2157 655 m 22 X s 2157 674 m 22 X
 s 2157 688 m 22 X s 2157 700 m 22 X s 2157 710 m 22 X s 2157 718 m 22 X s 2157 726 m 22 X s 2136 733 m 43 X s 2157 777 m 22 X s 2157 803 m 22 X s 2157 822 m 22 X s 2157 836 m 22 X s 2157 848 m 22 X s 2157 858 m 22 X s 2157 866 m 22 X s 2157 874 m 22
 X s 2136 881 m 43 X s 2157 925 m 22 X s 2157 951 m 22 X s 2157 970 m 22 X s 2157 984 m 22 X s 2157 996 m 22 X s 2157 1006 m 22 X s 2157 1015 m 22 X s 2157 1022 m 22 X s 2136 1029 m 43 X s 2157 1073 m 22 X s 2157 1100 m 22 X s 2157 1118 m 22 X s 2157
 1132 m 22 X s 2157 1144 m 22 X s 2157 1154 m 22 X s 2157 1163 m 22 X s 2157 1170 m 22 X s 2136 1177 m 43 X s 2157 1222 m 22 X s 2157 1248 m 22 X s 2157 1266 m 22 X s 2157 1281 m 22 X s 2157 1292 m 22 X s 2157 1302 m 22 X s 2157 1311 m 22 X s 2157
 1318 m 22 X s 2136 1325 m 43 X s 2157 1370 m 22 X s 2157 1396 m 22 X s 2157 1414 m 22 X s 2157 1429 m 22 X s 2157 1441 m 22 X s 2157 1451 m 22 X s 2157 1459 m 22 X s 2157 1467 m 22 X s 2136 1473 m 43 X s 2157 1518 m 22 X s 2157 1544 m 22 X s 2157
 1563 m 22 X s 2157 1577 m 22 X s 2157 1589 m 22 X s 2157 1599 m 22 X s 2157 1607 m 22 X s 2157 1615 m 22 X s 2136 1622 m 43 X s 2157 1666 m 22 X s 2157 1692 m 22 X s 2157 1711 m 22 X s 2157 1725 m 22 X s 1 1 0 c black 1 1 0 c 319 584 m 629 Y 143 X
 -14 Y 143 X -26 Y 143 X -27 Y 144 X -23 Y 143 X -30 Y 143 X -27 Y 143 X -25 Y 143 X -35 Y 143 X -40 Y 143 X -37 Y 143 X -44 Y 143 X -2 Y 143 X -299 Y f black 1 1 0 c black 319 1213 m 143 X -14 Y 143 X -26 Y 143 X -27 Y 144 X -23 Y 143 X -30 Y 143 X
 -27 Y 143 X -25 Y 143 X -35 Y 143 X -40 Y 143 X -37 Y 143 X -44 Y 143 X -2 Y 143 X s 0.999 0.999 0.999 c black 0.999 0.999 0.999 c 319 584 m 348 Y 143 X -3 Y 143 X -32 Y 143 X -11 Y 144 X -35 Y 143 X -43 Y 143 X -32 Y 143 X -8 Y 143 X -91 Y 143 X 22
 Y 143 X -25 Y 143 X -28 Y 143 X -62 Y 143 X f black 0.999 0.999 0.999 c black 319 932 m 143 X -3 Y 143 X -32 Y 143 X -11 Y 144 X -35 Y 143 X -43 Y 143 X -32 Y 143 X -8 Y 143 X -91 Y 143 X 22 Y 143 X -25 Y 143 X -28 Y 143 X -62 Y 143 X s 1 1 1 c
 black 319 932 m 143 X -3 Y 143 X -32 Y 143 X -11 Y 144 X -35 Y 143 X -43 Y 143 X -32 Y 143 X -8 Y 143 X -91 Y 143 X 22 Y 143 X -25 Y 143 X -28 Y 143 X -62 Y 143 X s 0.4 0.6 1 c black 0.4 0.6 1 c 319 584 m 348 Y 143 X -3 Y 143 X -32 Y 143 X -11 Y 144
 X -35 Y 143 X -43 Y 143 X -32 Y 143 X -8 Y 143 X -91 Y 143 X 22 Y 143 X -25 Y 143 X -28 Y 143 X -62 Y 143 X f black 0.4 0.6 1 c black 319 932 m 143 X -3 Y 143 X -32 Y 143 X -11 Y 144 X -35 Y 143 X -43 Y 143 X -32 Y 143 X -8 Y 143 X -91 Y 143 X 22 Y
 143 X -25 Y 143 X -28 Y 143 X -62 Y 143 X s 0.999 0.999 0.999 c black 0.999 0.999 0.999 c 319 584 m 333 Y 143 X -3 Y 143 X -33 Y 143 X -15 Y 144 X -32 Y 143 X -45 Y 143 X -30 Y 143 X -26 Y 143 X -149 Y 143 X 103 Y 143 X -38 Y 143 X -15 Y 143 X -50 Y
 143 X f black 0.999 0.999 0.999 c black 319 917 m 143 X -3 Y 143 X -33 Y 143 X -15 Y 144 X -32 Y 143 X -45 Y 143 X -30 Y 143 X -26 Y 143 X -149 Y 143 X 103 Y 143 X -38 Y 143 X -15 Y 143 X -50 Y 143 X s 1 1 1 c black 319 917 m 143 X -3 Y 143 X -33 Y
 143 X -15 Y 144 X -32 Y 143 X -45 Y 143 X -30 Y 143 X -26 Y 143 X -149 Y 143 X 103 Y 143 X -38 Y 143 X -15 Y 143 X -50 Y 143 X s 0.6 1 0.6 c black 0.6 1 0.6 c 319 584 m 333 Y 143 X -3 Y 143 X -33 Y 143 X -15 Y 144 X -32 Y 143 X -45 Y 143 X -30 Y 143
 X -26 Y 143 X -149 Y 143 X 103 Y 143 X -38 Y 143 X -15 Y 143 X -50 Y 143 X f black 0.6 1 0.6 c black 319 917 m 143 X -3 Y 143 X -33 Y 143 X -15 Y 144 X -32 Y 143 X -45 Y 143 X -30 Y 143 X -26 Y 143 X -149 Y 143 X 103 Y 143 X -38 Y 143 X -15 Y 143 X
 -50 Y 143 X s 0.999 0.999 0.999 c black 0.999 0.999 0.999 c 319 584 m 137 Y 143 X -44 Y 143 X -22 Y 143 X 24 Y 144 X 33 Y 143 X -128 Y 143 X 76 Y 143 X -76 Y 429 X 31 Y 143 X -31 Y 286 X f black 0.999 0.999 0.999 c black 319 721 m 143 X -44 Y 143 X
 -22 Y 143 X 24 Y 144 X 33 Y 143 X -128 Y 143 X 76 Y 143 X -76 Y 429 X 31 Y 143 X -31 Y 286 X s 1 1 1 c black 319 721 m 143 X -44 Y 143 X -22 Y 143 X 24 Y 144 X 33 Y 143 X -128 Y 143 X 76 Y 143 X -76 Y 429 X 31 Y 143 X -31 Y 286 X s 1 0.4 0.6 c black
 1 0.4 0.6 c 319 584 m 137 Y 143 X -44 Y 143 X -22 Y 143 X 24 Y 144 X 33 Y 143 X -128 Y 143 X 76 Y 143 X -76 Y 429 X 31 Y 143 X -31 Y 286 X f black 1 0.4 0.6 c black 319 721 m 143 X -44 Y 143 X -22 Y 143 X 24 Y 144 X 33 Y 143 X -128 Y 143 X 76 Y 143
 X -76 Y 429 X 31 Y 143 X -31 Y 286 X s 1 0 0 c 6 lw 1 1 1 c black 1 0 0 c 319 1213 m 143 X -14 Y 143 X -26 Y 143 X -27 Y 144 X -23 Y 143 X -30 Y 143 X -27 Y 143 X -25 Y 143 X -35 Y 143 X -40 Y 143 X -37 Y 143 X -44 Y 143 X -2 Y 143 X s black 3 lw 1
 0 0 c 1 lw << /PatternType 1 /PaintType 2 /TilingType 1 /BBox [ 0 0 100 100 ] /XStep 100 /YStep 100 /PaintProc { begin gsave 0 100 m 100 0 l s gr end } >> [ 0.24 0 0 0.24 0 0 ] makepattern /P05 exch def /cs {[/Pattern /DeviceRGB] setcolorspace} def
 /FA {f [/DeviceRGB] setcolorspace} def cs 1 0 0 P05 setcolor 319 584 m 631 Y 143 X -14 Y 143 X -26 Y 143 X -27 Y 144 X -23 Y 143 X -30 Y 143 X -27 Y 143 X -25 Y 143 X -35 Y 143 X -39 Y 143 X -37 Y 143 X -44 Y 143 X -2 Y 143 X -7 Y -143 X 3 Y -143 X
 43 Y -143 X 38 Y -143 X 40 Y -143 X 35 Y -143 X 25 Y -143 X 28 Y -143 X 30 Y -143 X 24 Y -144 X 26 Y -143 X 26 Y -143 X 15 Y -143 X -628 Y FA 6 lw 1 1 1 c 15 lw 2108 846 m -7 Y s 2108 839 m cl s black 1 1 1 c 3 lw /w 43 def /w2 {w 2 div} def /w3 {w
 3 div} def 391 1212 534 1197 677 1175 820 1146 963 1120 1106 1099 1249 1066 1392 1049 1535 1018 1679 990 1822 945 1965 911 2108 866 13 { m20} R 15 lw black 6 lw 1 1 1 c black 3 lw /w 33 def /w2 {w 2 div} def /w3 {w 3 div} def 391 1212 m20 6 lw 3 lw
 534 1197 m20 6 lw 3 lw 677 1175 m20 6 lw 3 lw 820 1146 m20 6 lw 3 lw 963 1120 m20 6 lw 3 lw 1106 1099 m20 6 lw 3 lw 1249 1066 m20 6 lw 3 lw 1392 1049 m20 6 lw 3 lw 1535 1018 m20 6 lw 3 lw 1679 990 m20 6 lw 1822 931 m s 3 lw 1822 945 m20 6 lw 1965
 892 m 5 Y s 1965 925 m s 3 lw 1965 911 m20 6 lw 2108 838 m 15 Y s 2108 880 m 6 Y s 3 lw 2108 866 m20 6 lw 1822 931 m s 1822 931 m cl s 1965 925 m s 1965 925 m cl s 1965 897 m -4 Y s 1965 893 m cl s 2108 880 m 6 Y s 2108 886 m cl s 2108 853 m -14 Y s
 2108 839 m cl s 3 lw 391 1212 534 1197 677 1175 820 1146 963 1120 1106 1099 1249 1066 1392 1049 1535 1018 1679 990 1822 945 1965 911 2108 866 13 { m20} R 6 lw 3 lw 319 584 m 1860 X s 319 584 m cl s 391 584 m cl s 462 584 m cl s 534 584 m cl s 605
 584 m cl s 677 584 m cl s 748 584 m cl s 820 584 m cl s 892 584 m cl s 963 584 m cl s 1035 584 m cl s 1106 584 m cl s 1178 584 m cl s 1249 584 m cl s 1321 584 m cl s 1392 584 m cl s 1464 584 m cl s 1535 584 m cl s 1607 584 m cl s 1679 584 m cl s
 1750 584 m cl s 1822 584 m cl s 1893 584 m cl s 1965 584 m cl s 2036 584 m cl s 2108 584 m cl s 2108 584 m cl s 2179 584 m cl s 319 1729 m 1860 X s 319 1729 m cl s 391 1729 m cl s 462 1729 m cl s 534 1729 m cl s 605 1729 m cl s 677 1729 m cl s 748
 1729 m cl s 820 1729 m cl s 892 1729 m cl s 963 1729 m cl s 1035 1729 m cl s 1106 1729 m cl s 1178 1729 m cl s 1249 1729 m cl s 1321 1729 m cl s 1392 1729 m cl s 1464 1729 m cl s 1535 1729 m cl s 1607 1729 m cl s 1679 1729 m cl s 1750 1729 m cl s
 1822 1729 m cl s 1893 1729 m cl s 1965 1729 m cl s 2036 1729 m cl s 2108 1729 m cl s 2108 1729 m cl s 2179 1729 m cl s 319 584 m 1145 Y s 341 629 m -22 X s 341 655 m -22 X s 341 674 m -22 X s 341 688 m -22 X s 341 700 m -22 X s 341 710 m -22 X s 341
 718 m -22 X s 341 726 m -22 X s 363 733 m -44 X s 341 777 m -22 X s 341 803 m -22 X s 341 822 m -22 X s 341 836 m -22 X s 341 848 m -22 X s 341 858 m -22 X s 341 866 m -22 X s 341 874 m -22 X s 363 881 m -44 X s 341 925 m -22 X s 341 951 m -22 X s
 341 970 m -22 X s 341 984 m -22 X s 341 996 m -22 X s 341 1006 m -22 X s 341 1015 m -22 X s 341 1022 m -22 X s 363 1029 m -44 X s 341 1073 m -22 X s 341 1100 m -22 X s 341 1118 m -22 X s 341 1132 m -22 X s 341 1144 m -22 X s 341 1154 m -22 X s 341
 1163 m -22 X s 341 1170 m -22 X s 363 1177 m -44 X s 341 1222 m -22 X s 341 1248 m -22 X s 341 1266 m -22 X s 341 1281 m -22 X s 341 1292 m -22 X s 341 1302 m -22 X s 341 1311 m -22 X s 341 1318 m -22 X s 363 1325 m -44 X s 341 1370 m -22 X s 341
 1396 m -22 X s 341 1414 m -22 X s 341 1429 m -22 X s 341 1441 m -22 X s 341 1451 m -22 X s 341 1459 m -22 X s 341 1467 m -22 X s 363 1473 m -44 X s 341 1518 m -22 X s 341 1544 m -22 X s 341 1563 m -22 X s 341 1577 m -22 X s 341 1589 m -22 X s 341
 1599 m -22 X s 341 1607 m -22 X s 341 1615 m -22 X s 363 1622 m -44 X s 341 1666 m -22 X s 341 1692 m -22 X s 341 1711 m -22 X s 341 1725 m -22 X s 2179 584 m 1145 Y s 2157 629 m 22 X s 2157 655 m 22 X s 2157 674 m 22 X s 2157 688 m 22 X s 2157 700
 m 22 X s 2157 710 m 22 X s 2157 718 m 22 X s 2157 726 m 22 X s 2136 733 m 43 X s 2157 777 m 22 X s 2157 803 m 22 X s 2157 822 m 22 X s 2157 836 m 22 X s 2157 848 m 22 X s 2157 858 m 22 X s 2157 866 m 22 X s 2157 874 m 22 X s 2136 881 m 43 X s 2157
 925 m 22 X s 2157 951 m 22 X s 2157 970 m 22 X s 2157 984 m 22 X s 2157 996 m 22 X s 2157 1006 m 22 X s 2157 1015 m 22 X s 2157 1022 m 22 X s 2136 1029 m 43 X s 2157 1073 m 22 X s 2157 1100 m 22 X s 2157 1118 m 22 X s 2157 1132 m 22 X s 2157 1144 m
 22 X s 2157 1154 m 22 X s 2157 1163 m 22 X s 2157 1170 m 22 X s 2136 1177 m 43 X s 2157 1222 m 22 X s 2157 1248 m 22 X s 2157 1266 m 22 X s 2157 1281 m 22 X s 2157 1292 m 22 X s 2157 1302 m 22 X s 2157 1311 m 22 X s 2157 1318 m 22 X s 2136 1325 m 43
 X s 2157 1370 m 22 X s 2157 1396 m 22 X s 2157 1414 m 22 X s 2157 1429 m 22 X s 2157 1441 m 22 X s 2157 1451 m 22 X s 2157 1459 m 22 X s 2157 1467 m 22 X s 2136 1473 m 43 X s 2157 1518 m 22 X s 2157 1544 m 22 X s 2157 1563 m 22 X s 2157 1577 m 22 X
 s 2157 1589 m 22 X s 2157 1599 m 22 X s 2157 1607 m 22 X s 2157 1615 m 22 X s 2136 1622 m 43 X s 2157 1666 m 22 X s 2157 1692 m 22 X s 2157 1711 m 22 X s 2157 1725 m 22 X s
 gsave  2263 1770 2 313 C 406.765 1447.41 t 0 r /Helvetica findfont 64.4212 sf 0 0 m (CRY for MB\255GGd) show NC gr 
 gsave  2263 1770 2 313 C 1464.36 1616.89 t 0 r /Helvetica findfont 64.4212 sf 0 0 m (SM Total) show NC gr  1 1 1 c 1338 1603 m 107 X 74 Y -107 X f 1 0 0 c 6 lw 1338 1640 m 107 X s black
 gsave  2263 1770 2 313 C 1464.36 1511.81 t 0 r /Helvetica findfont 64.4212 sf 0 0 m (Data) show NC gr  1391 1502 m 64 Y s 3 lw 1391 1534 m20 6 lw
 gsave  2263 1770 2 313 C 1464.36 1406.73 t 0 r /Helvetica findfont 64.4212 sf 0 0 m (GAMMAjets) show NC gr  1 1 0 c 3 lw 1338 1391 m 107 X 74 Y -107 X f 6 lw black 3 lw 1338 1465 m 107 X s 1338 1391 m 107 X s 1445 1391 m 74 Y s 1338 1391 m 74 Y s
 gsave  2263 1770 2 313 C 1464.36 1298.26 t 0 r /Helvetica findfont 64.4212 sf 0 0 m (W+jets) show NC gr  0.4 0.6 1 c 1338 1284 m 107 X 75 Y -107 X f black 1338 1359 m 107 X s 1338 1284 m 107 X s 1445 1284 m 75 Y s 1338 1284 m 75 Y s
 gsave  2263 1770 2 313 C 1498.25 1193.18 t 0 r /Helvetica findfont 64.4212 sf 0 0 m (\(+EW\) & single top) show NC gr 
 gsave  2263 1770 2 313 C 1481.3 1193.18 t 0 r /Helvetica findfont 64.4212 sf 0 0 m (t) show NC gr  1481 1244 m 17 X s
 gsave  2263 1770 2 313 C 1464.36 1193.18 t 0 r /Helvetica findfont 64.4212 sf 0 0 m (t) show NC gr  0.6 1 0.6 c 1338 1178 m 107 X 75 Y -107 X f black 1338 1253 m 107 X s 1338 1178 m 107 X s 1445 1178 m 75 Y s 1338 1178 m 75 Y s
 gsave  2263 1770 2 313 C 1464.36 1088.1 t 0 r /Helvetica findfont 64.4212 sf 0 0 m (Diboson) show NC gr  1 0.4 0.6 c 1338 1072 m 107 X 74 Y -107 X f black 1338 1146 m 107 X s 1338 1072 m 107 X s 1445 1072 m 74 Y s 1338 1072 m 74 Y s
 gsave  2263 1770 2 313 C 911.832 1566.05 t 0 r /Helvetica findfont 44.0776 sf 0 0 m (\2551) show NC gr 
 gsave  2263 1770 2 313 C 471.17 1535.54 t 0 r /Helvetica findfont 64.4212 sf 0 0 m (=13TeV, 139 fb) show NC gr 
 gsave  2263 1770 2 313 C 440.662 1535.54 t 0 r /Helvetica findfont 64.4212 sf 0 0 m (s) show NC gr  6 lw 420 1573 m 7 -41 d s 3 lw 427 1532 m 7 61 d s 434 1593 m 37 X s 1 1 1 c 2254 561 2 2 bf black 1 1 1 c black 1860 358 318 187 bl 1 1 1 c black
 1860 358 318 187 bl 6 lw 1 1 1 c black 3 lw 389 364 m20 6 lw 3 lw 533 360 m20 6 lw 3 lw 676 371 m20 6 lw 3 lw 819 365 m20 6 lw 3 lw 962 358 m20 6 lw 3 lw 1105 381 m20 6 lw 3 lw 1248 366 m20 6 lw 3 lw 1391 387 m20 6 lw 3 lw 1534 399 m20 6 lw 3 lw
 1677 440 m20 6 lw 3 lw 1821 412 m20 6 lw 3 lw 1964 447 m20 6 lw 3 lw 2107 329 m20 6 lw 3 lw 318 187 m 1860 X s
 gsave  2254 561 2 2 C 2105.01 64.4045 t 0 r /Helvetica findfont 50.9797 sf 0 0 m (1/2) show NC gr 
 gsave  2254 561 2 2 C 1888.07 23.728 t 0 r /Helvetica findfont 78.1689 sf 0 0 m ( [GeV]) show NC gr 
 gsave  2254 561 2 2 C 1857.56 3.38971 t 0 r /Helvetica findfont 50.9797 sf 0 0 m (T) show NC gr 
 gsave  2254 561 2 2 C 1806.72 23.728 t 0 r /Helvetica findfont 78.1689 sf 0 0 m (H) show NC gr  6 lw 1773 81 m 10 -78 d s 3 lw 1783 3 m 14 99 d s 1797 102 m 91 X s
 gsave  2254 561 2 2 C 1735.53 23.728 t 0 r /Helvetica findfont 78.1689 sf 0 0 m (/) show NC gr 
 gsave  2254 561 2 2 C 1630.45 61.0148 t 0 r /Helvetica findfont 50.9797 sf 0 0 m (miss) show NC gr 
 gsave  2254 561 2 2 C 1630.45 3.38971 t 0 r /Helvetica findfont 50.9797 sf 0 0 m (T) show NC gr 
 gsave  2254 561 2 2 C 1579.61 23.728 t 0 r /Helvetica findfont 78.1689 sf 0 0 m (E) show NC gr  318 201 m -14 Y s 389 194 m -7 Y s 461 194 m -7 Y s 533 194 m -7 Y s 604 194 m -7 Y s 676 201 m -14 Y s 747 194 m -7 Y s 819 194 m -7 Y s 890 194 m -7 Y
 s 962 194 m -7 Y s 1033 201 m -14 Y s 1105 194 m -7 Y s 1177 194 m -7 Y s 1248 194 m -7 Y s 1320 194 m -7 Y s 1391 201 m -14 Y s 1463 194 m -7 Y s 1534 194 m -7 Y s 1606 194 m -7 Y s 1677 194 m -7 Y s 1749 201 m -14 Y s 1821 194 m -7 Y s 1892 194 m
 -7 Y s 1964 194 m -7 Y s 2035 194 m -7 Y s 2107 201 m -14 Y s 2107 201 m -14 Y s 2178 194 m -7 Y s
 gsave  2254 561 2 2 C 271.177 118.64 t 0 r /Helvetica findfont 78.1689 sf 0 0 m (10) show NC gr 
 gsave  2254 561 2 2 C 630.486 118.64 t 0 r /Helvetica findfont 78.1689 sf 0 0 m (15) show NC gr 
 gsave  2254 561 2 2 C 986.406 118.64 t 0 r /Helvetica findfont 78.1689 sf 0 0 m (20) show NC gr 
 gsave  2254 561 2 2 C 1345.72 118.64 t 0 r /Helvetica findfont 78.1689 sf 0 0 m (25) show NC gr 
 gsave  2254 561 2 2 C 1701.63 118.64 t 0 r /Helvetica findfont 78.1689 sf 0 0 m (30) show NC gr 
 gsave  2254 561 2 2 C 2060.94 118.64 t 0 r /Helvetica findfont 78.1689 sf 0 0 m (35) show NC gr  318 545 m 1860 X s 318 531 m 14 Y s 389 538 m 7 Y s 461 538 m 7 Y s 533 538 m 7 Y s 604 538 m 7 Y s 676 531 m 14 Y s 747 538 m 7 Y s 819 538 m 7 Y s 890
 538 m 7 Y s 962 538 m 7 Y s 1033 531 m 14 Y s 1105 538 m 7 Y s 1177 538 m 7 Y s 1248 538 m 7 Y s 1320 538 m 7 Y s 1391 531 m 14 Y s 1463 538 m 7 Y s 1534 538 m 7 Y s 1606 538 m 7 Y s 1677 538 m 7 Y s 1749 531 m 14 Y s 1821 538 m 7 Y s 1892 538 m 7 Y
 s 1964 538 m 7 Y s 2035 538 m 7 Y s 2107 531 m 14 Y s 2107 531 m 14 Y s 2178 538 m 7 Y s 318 187 m 358 Y s
 gsave  2254 561 2 2 C 166.096 284.736 t 90 r /Helvetica findfont 67.9729 sf 0 0 m (Data/SM) show NC gr  361 203 m -43 X s 339 220 m -21 X s 339 236 m -21 X s 339 252 m -21 X s 339 268 m -21 X s 361 285 m -43 X s 339 301 m -21 X s 339 317 m -21 X s
 339 334 m -21 X s 339 350 m -21 X s 361 366 m -43 X s 339 382 m -21 X s 339 399 m -21 X s 339 415 m -21 X s 339 431 m -21 X s 361 447 m -43 X s 339 464 m -21 X s 339 480 m -21 X s 339 496 m -21 X s 339 512 m -21 X s 361 529 m -43 X s 361 203 m -43 X
 s 339 187 m -21 X s 361 529 m -43 X s
 gsave  2254 561 2 2 C 261.008 183.044 t 0 r /Helvetica findfont 57.777 sf 0 0 m (0) show NC gr 
 gsave  2254 561 2 2 C 213.552 261.008 t 0 r /Helvetica findfont 57.777 sf 0 0 m (0.5) show NC gr 
 gsave  2254 561 2 2 C 271.177 342.361 t 0 r /Helvetica findfont 57.777 sf 0 0 m (1) show NC gr 
 gsave  2254 561 2 2 C 213.552 423.714 t 0 r /Helvetica findfont 57.777 sf 0 0 m (1.5) show NC gr 
 gsave  2254 561 2 2 C 261.008 505.067 t 0 r /Helvetica findfont 57.777 sf 0 0 m (2) show NC gr  2178 187 m 358 Y s 2135 203 m 43 X s 2157 220 m 21 X s 2157 236 m 21 X s 2157 252 m 21 X s 2157 268 m 21 X s 2135 285 m 43 X s 2157 301 m 21 X s 2157 317
 m 21 X s 2157 334 m 21 X s 2157 350 m 21 X s 2135 366 m 43 X s 2157 382 m 21 X s 2157 399 m 21 X s 2157 415 m 21 X s 2157 431 m 21 X s 2135 447 m 43 X s 2157 464 m 21 X s 2157 480 m 21 X s 2157 496 m 21 X s 2157 512 m 21 X s 2135 529 m 43 X s 2135
 203 m 43 X s 2157 187 m 21 X s 2135 529 m 43 X s 9 lw 1391 401 m 2 Y s 1391 403 m cl s 1391 374 m -2 Y s 1391 372 m cl s 1534 413 m 7 Y s 1534 420 m cl s 1534 386 m -8 Y s 1534 378 m cl s 1677 454 m 18 Y s 1677 472 m cl s 1677 427 m -18 Y s 1677 409
 m cl s 1821 426 m 27 Y s 1821 453 m cl s 1821 399 m -26 Y s 1821 373 m cl s 1964 461 m 48 Y s 1964 509 m cl s 1964 433 m -46 Y s 1964 387 m cl s 2107 343 m 32 Y s 2107 375 m cl s 2107 316 m -30 Y s 2107 286 m cl s 3 lw 389 364 533 360 676 371 819
 365 962 358 1105 381 1248 366 1391 387 1534 399 1677 440 1821 412 1964 447 2107 329 13 { m20} R 9 lw 1 0 0 c 6 lw black 3 lw 1 0 0 c 2178 369 m -12 -12 d s 2155 375 m -17 -18 d s 2126 375 m -17 -18 d s 2097 375 m -17 -18 d s 2069 375 m -17 -18 d s
 2040 375 m -16 -17 d s 2011 374 m -16 -16 d s 1982 374 m -16 -16 d s 1953 374 m -15 -16 d s 1924 374 m -15 -16 d s 1896 374 m -17 -17 d s 1868 375 m -18 -18 d s 1840 375 m -18 -18 d s 1811 375 m -18 -18 d s 1782 375 m -18 -18 d s 1754 375 m -17 -17
 d s 1724 374 m -16 -16 d s 1695 374 m -16 -16 d s 1667 374 m -16 -16 d s 1638 374 m -16 -16 d s 1609 374 m -15 -15 d s 1579 373 m -13 -14 d s 1551 373 m -14 -14 d s 1522 373 m -14 -14 d s 1493 373 m -13 -14 d s 1464 373 m -13 -14 d s 1436 373 m -14
 -14 d s 1407 373 m -14 -14 d s 1378 373 m -13 -14 d s 1350 373 m -14 -14 d s 1321 373 m -12 -12 d s 1291 372 m -11 -11 d s 1262 372 m -11 -11 d s 1234 372 m -11 -11 d s 1205 372 m -11 -11 d s 1176 371 m -10 -10 d s 1147 371 m -10 -10 d s 1118 371 m
 -9 -10 d s 1089 371 m -9 -10 d s 1061 371 m -10 -10 d s 1032 371 m -10 -10 d s 1004 371 m -10 -10 d s 975 371 m -10 -10 d s 946 371 m -10 -10 d s 918 371 m -10 -10 d s 889 371 m -10 -10 d s 860 371 m -10 -10 d s 831 371 m -9 -10 d s 803 371 m -10
 -10 d s 774 371 m -10 -10 d s 745 371 m -9 -10 d s 716 371 m -9 -10 d s 688 371 m -10 -10 d s 659 371 m -9 -10 d s 630 371 m -9 -10 d s 601 370 m -8 -8 d s 573 370 m -9 -8 d s 544 370 m -9 -8 d s 515 370 m -8 -8 d s 487 370 m -9 -8 d s 458 370 m -9
 -8 d s 318 231 m s 429 370 m -9 -8 d s 318 259 m s 401 370 m -9 -8 d s 318 288 m s 372 370 m -9 -8 d s 318 317 m s 343 370 m -9 -8 d s 318 345 m s 6 lw black[ 4 8] 0 sd 3 lw 318 447 m 1860 X s 318 285 m 1860 X s 1 0 0 c[  12 12 ] 0 sd 6 lw 318 366 m
 1860 X s
 gr  gr showpage
end
%%EOF
