%!PS-Adobe-2.0 EPSF-2.0
%%BoundingBox:  0 0 567 521
%%Title: Distributions/metsqrtmeffInc_met_distrCRT_MB-C_afterFit_forThesis.eps: canvas
%%Creator: ROOT Version 6.04/16
%%CreationDate: Tue May 19 22:05:36 2020
%%DocumentNeededResources: ProcSet (FontSetInit)
%%EndComments
%%BeginProlog
80 dict begin
/s {stroke} def /l {lineto} def /m {moveto} def /t {translate} def
/r {rotate} def /rl {roll}  def /R {repeat} def
/d {rlineto} def /rm {rmoveto} def /gr {grestore} def /f {eofill} def
/c {setrgbcolor} def /black {0 setgray} def /sd {setdash} def
/cl {closepath} def /sf {scalefont setfont} def /lw {setlinewidth} def
/box {m dup 0 exch d exch 0 d 0 exch neg d cl} def
/NC{systemdict begin initclip end}def/C{NC box clip newpath}def
/bl {box s} def /bf {gsave box gsave f grestore 1 lw [] 0 sd s grestore} def /Y { 0 exch d} def /X { 0 d} def 
/K {{pop pop 0 moveto} exch kshow} bind def
/ita {/ang 15 def gsave [1 0 ang dup sin exch cos div 1 0 0] concat} def 
/mp {newpath /y exch def /x exch def} def
/side {[w .77 mul w .23 mul] .385 w mul sd w 0 l currentpoint t -144 r} def
/mr {mp x y w2 0 360 arc} def /m24 {mr s} def /m20 {mr f} def
/mb {mp x y w2 add m w2 neg 0 d 0 w neg d w 0 d 0 w d cl} def
/mt {mp x y w2 add m w2 neg w neg d w 0 d cl} def
/m21 {mb f} def /m25 {mb s} def /m22 {mt f} def /m26{mt s} def
/m23 {mp x y w2 sub m w2 w d w neg 0 d cl f} def
/m27 {mp x y w2 add m w3 neg w2 neg d w3 w2 neg d w3 w2 d cl s} def
/m28 {mp x w2 sub y w2 sub w3 add m w3 0 d  0 w3 neg d w3 0 d 0 w3 d w3 0 d  0 w3 d w3 neg 0 d 0 w3 d w3 neg 0 d 0 w3 neg d w3 neg 0 d cl s } def
/m29 {mp gsave x w2 sub y w2 add w3 sub m currentpoint t 4 {side} repeat cl fill gr} def
/m30 {mp gsave x w2 sub y w2 add w3 sub m currentpoint t 4 {side} repeat cl s gr} def
/m31 {mp x y w2 sub m 0 w d x w2 sub y m w 0 d x w2 sub y w2 add m w w neg d x w2 sub y w2 sub m w w d s} def
/m32 {mp x y w2 sub m w2 w d w neg 0 d cl s} def
/m33 {mp x y w2 add m w3 neg w2 neg d w3 w2 neg d w3 w2 d cl f} def
/m34 {mp x w2 sub y w2 sub w3 add m w3 0 d  0 w3 neg d w3 0 d 0 w3 d w3 0 d  0 w3 d w3 neg 0 d 0 w3 d w3 neg 0 d 0 w3 neg d w3 neg 0 d cl f } def
/m2 {mp x y w2 sub m 0 w d x w2 sub y m w 0 d s} def
/m5 {mp x w2 sub y w2 sub m w w d x w2 sub y w2 add m w w neg d s} def
%%IncludeResource: ProcSet (FontSetInit)
%%IncludeResource: font Times-Roman
%%IncludeResource: font Times-Italic
%%IncludeResource: font Times-Bold
%%IncludeResource: font Times-BoldItalic
%%IncludeResource: font Helvetica
%%IncludeResource: font Helvetica-Oblique
%%IncludeResource: font Helvetica-Bold
%%IncludeResource: font Helvetica-BoldOblique
%%IncludeResource: font Courier
%%IncludeResource: font Courier-Oblique
%%IncludeResource: font Courier-Bold
%%IncludeResource: font Courier-BoldOblique
%%IncludeResource: font Symbol
%%IncludeResource: font ZapfDingbats
/reEncode {exch findfont dup length dict begin {1 index /FID eq  {pop pop} {def} ifelse } forall /Encoding exch def currentdict end dup /FontName get exch definefont pop } def [/Times-Bold /Times-Italic /Times-BoldItalic /Helvetica /Helvetica-Oblique
 /Helvetica-Bold /Helvetica-BoldOblique /Courier /Courier-Oblique /Courier-Bold /Courier-BoldOblique /Times-Roman /AvantGarde-Book /AvantGarde-BookOblique /AvantGarde-Demi /AvantGarde-DemiOblique /Bookman-Demi /Bookman-DemiItalic /Bookman-Light
 /Bookman-LightItalic /Helvetica-Narrow /Helvetica-Narrow-Bold /Helvetica-Narrow-BoldOblique /Helvetica-Narrow-Oblique /NewCenturySchlbk-Roman /NewCenturySchlbk-Bold /NewCenturySchlbk-BoldItalic /NewCenturySchlbk-Italic /Palatino-Bold
 /Palatino-BoldItalic /Palatino-Italic /Palatino-Roman ] {ISOLatin1Encoding reEncode } forall
%%EndProlog
%%BeginSetup
%%EndSetup
newpath  gsave  .25 .25 scale  gsave  0 0 t black[  ] 0 sd 3 lw 1 1 1 c 2268 2085 0 0 bf black 1 1 1 c 2263 1770 2 313 bf black 1 1 1 c black 1860 1145 319 584 bl 1 1 1 c black 1860 1145 319 584 bl 6 lw 1 1 1 c black 3 lw /w 33 def /w2 {w 2 div} def
 /w3 {w 3 div} def 374 1145 m20 6 lw 3 lw 483 1009 m20 6 lw 3 lw 593 992 m20 6 lw 3 lw 702 963 m20 6 lw 3 lw 812 935 m20 6 lw 3 lw 921 905 m20 6 lw 1030 834 m 8 Y s 1030 869 m 1 Y s 3 lw 1030 855 m20 6 lw 1140 776 m 20 Y s 1140 823 m 8 Y s 3 lw 1140
 810 m20 6 lw 1249 686 m 57 Y s 1249 770 m 18 Y s 3 lw 1249 757 m20 6 lw 1359 584 m 119 Y s 1359 731 m 26 Y s 3 lw 1359 717 m20 6 lw 3 lw 319 584 m 1860 X s
 gsave  2263 1770 2 313 C 2101.62 396.596 t 0 r /Helvetica findfont 54.2494 sf 0 0 m (1/2) show NC gr 
 gsave  2263 1770 2 313 C 1874.51 355.92 t 0 r /Helvetica findfont 81.3741 sf 0 0 m ( [GeV]) show NC gr 
 gsave  2263 1770 2 313 C 1840.61 332.192 t 0 r /Helvetica findfont 54.2494 sf 0 0 m (T) show NC gr 
 gsave  2263 1770 2 313 C 1786.38 355.92 t 0 r /Helvetica findfont 81.3741 sf 0 0 m (H) show NC gr  6 lw 1749 417 m 14 -85 d s 3 lw 1763 332 m 13 105 d s 1776 437 m 99 X s
 gsave  2263 1770 2 313 C 1711.8 355.92 t 0 r /Helvetica findfont 81.3741 sf 0 0 m (/) show NC gr 
 gsave  2263 1770 2 313 C 1599.94 396.596 t 0 r /Helvetica findfont 54.2494 sf 0 0 m (miss) show NC gr 
 gsave  2263 1770 2 313 C 1599.94 332.192 t 0 r /Helvetica findfont 54.2494 sf 0 0 m (T) show NC gr 
 gsave  2263 1770 2 313 C 1549.1 355.92 t 0 r /Helvetica findfont 81.3741 sf 0 0 m (E) show NC gr  538 584 m cl s 593 584 m cl s 647 584 m cl s 702 584 m cl s 757 584 m cl s 812 584 m cl s 866 584 m cl s 921 584 m cl s 976 584 m cl s 1030 584 m cl s
 1085 584 m cl s 1140 584 m cl s 1195 584 m cl s 1249 584 m cl s 1304 584 m cl s 1359 584 m cl s 1413 584 m cl s 1468 584 m cl s 1523 584 m cl s 1578 584 m cl s 1632 584 m cl s 1687 584 m cl s 1742 584 m cl s 1796 584 m cl s 1851 584 m cl s 1906 584
 m cl s 1961 584 m cl s 2015 584 m cl s 2070 584 m cl s 2125 584 m cl s 2179 584 m cl s 538 584 m cl s 483 584 m cl s 429 584 m cl s 374 584 m cl s 319 1729 m 1860 X s 538 1729 m cl s 593 1729 m cl s 647 1729 m cl s 702 1729 m cl s 757 1729 m cl s
 812 1729 m cl s 866 1729 m cl s 921 1729 m cl s 976 1729 m cl s 1030 1729 m cl s 1085 1729 m cl s 1140 1729 m cl s 1195 1729 m cl s 1249 1729 m cl s 1304 1729 m cl s 1359 1729 m cl s 1413 1729 m cl s 1468 1729 m cl s 1523 1729 m cl s 1578 1729 m cl
 s 1632 1729 m cl s 1687 1729 m cl s 1742 1729 m cl s 1796 1729 m cl s 1851 1729 m cl s 1906 1729 m cl s 1961 1729 m cl s 2015 1729 m cl s 2070 1729 m cl s 2125 1729 m cl s 2179 1729 m cl s 538 1729 m cl s 483 1729 m cl s 429 1729 m cl s 374 1729 m
 cl s 319 584 m 1145 Y s
 gsave  2263 1770 2 313 C 125.419 1654.18 t 90 r /Helvetica findfont 54.2494 sf 0 0 m (1/2) show NC gr 
 gsave  2263 1770 2 313 C 166.096 1064.37 t 90 r /Helvetica findfont 81.3741 sf 0 0 m (Events / 2 [GeV]) show NC gr  341 624 m -22 X s 341 648 m -22 X s 341 664 m -22 X s 341 677 m -22 X s 341 688 m -22 X s 341 696 m -22 X s 341 704 m -22 X s 341 711
 m -22 X s 363 717 m -44 X s
 gsave  2263 1770 2 313 C 300.555 689.836 t 0 r  -36 0 t /Helvetica findfont 64.4212 sf 0 0 m (1) show NC gr  341 757 m -22 X s 341 780 m -22 X s 341 797 m -22 X s 341 810 m -22 X s 341 820 m -22 X s 341 829 m -22 X s 341 837 m -22 X s 341 844 m -22
 X s 363 850 m -44 X s
 gsave  2263 1770 2 313 C 300.555 822.48 t 0 r  -73 0 t /Helvetica findfont 64.4212 sf 0 0 m (10) show NC gr  341 890 m -22 X s 341 913 m -22 X s 341 929 m -22 X s 341 942 m -22 X s 341 953 m -22 X s 341 962 m -22 X s 341 969 m -22 X s 341 976 m -22
 X s 363 982 m -44 X s
 gsave  2263 1770 2 313 C 274.567 979.626 t 0 r /Helvetica findfont 44.0776 sf 0 0 m (2) show NC gr 
 gsave  2263 1770 2 313 C 203.383 952.509 t 0 r /Helvetica findfont 64.4212 sf 0 0 m (10) show NC gr  341 1022 m -22 X s 341 1046 m -22 X s 341 1062 m -22 X s 341 1075 m -22 X s 341 1085 m -22 X s 341 1094 m -22 X s 341 1102 m -22 X s 341 1109 m -22
 X s 363 1115 m -44 X s
 gsave  2263 1770 2 313 C 274.567 1115.21 t 0 r /Helvetica findfont 44.0776 sf 0 0 m (3) show NC gr 
 gsave  2263 1770 2 313 C 203.383 1084.71 t 0 r /Helvetica findfont 64.4212 sf 0 0 m (10) show NC gr  341 1155 m -22 X s 341 1178 m -22 X s 341 1195 m -22 X s 341 1208 m -22 X s 341 1218 m -22 X s 341 1227 m -22 X s 341 1235 m -22 X s 341 1241 m -22
 X s 363 1248 m -44 X s
 gsave  2263 1770 2 313 C 274.567 1247.41 t 0 r /Helvetica findfont 44.0776 sf 0 0 m (4) show NC gr 
 gsave  2263 1770 2 313 C 203.383 1220.3 t 0 r /Helvetica findfont 64.4212 sf 0 0 m (10) show NC gr  341 1287 m -22 X s 341 1311 m -22 X s 341 1327 m -22 X s 341 1340 m -22 X s 341 1351 m -22 X s 341 1360 m -22 X s 341 1367 m -22 X s 341 1374 m -22 X
 s 363 1380 m -44 X s
 gsave  2263 1770 2 313 C 274.567 1383 t 0 r /Helvetica findfont 44.0776 sf 0 0 m (5) show NC gr 
 gsave  2263 1770 2 313 C 203.383 1352.49 t 0 r /Helvetica findfont 64.4212 sf 0 0 m (10) show NC gr  341 1420 m -22 X s 341 1443 m -22 X s 341 1460 m -22 X s 341 1473 m -22 X s 341 1483 m -22 X s 341 1492 m -22 X s 341 1500 m -22 X s 341 1507 m -22
 X s 363 1513 m -44 X s
 gsave  2263 1770 2 313 C 274.567 1515.2 t 0 r /Helvetica findfont 44.0776 sf 0 0 m (6) show NC gr 
 gsave  2263 1770 2 313 C 203.383 1484.69 t 0 r /Helvetica findfont 64.4212 sf 0 0 m (10) show NC gr  341 1553 m -22 X s 341 1576 m -22 X s 341 1593 m -22 X s 341 1606 m -22 X s 341 1616 m -22 X s 341 1625 m -22 X s 341 1633 m -22 X s 341 1639 m -22
 X s 363 1645 m -44 X s
 gsave  2263 1770 2 313 C 274.567 1644.01 t 0 r /Helvetica findfont 44.0776 sf 0 0 m (7) show NC gr 
 gsave  2263 1770 2 313 C 203.383 1616.89 t 0 r /Helvetica findfont 64.4212 sf 0 0 m (10) show NC gr  341 1685 m -22 X s 341 1709 m -22 X s 341 1725 m -22 X s 2179 584 m 1145 Y s 2157 624 m 22 X s 2157 648 m 22 X s 2157 664 m 22 X s 2157 677 m 22 X s
 2157 688 m 22 X s 2157 696 m 22 X s 2157 704 m 22 X s 2157 711 m 22 X s 2136 717 m 43 X s 2157 757 m 22 X s 2157 780 m 22 X s 2157 797 m 22 X s 2157 810 m 22 X s 2157 820 m 22 X s 2157 829 m 22 X s 2157 837 m 22 X s 2157 844 m 22 X s 2136 850 m 43 X
 s 2157 890 m 22 X s 2157 913 m 22 X s 2157 929 m 22 X s 2157 942 m 22 X s 2157 953 m 22 X s 2157 962 m 22 X s 2157 969 m 22 X s 2157 976 m 22 X s 2136 982 m 43 X s 2157 1022 m 22 X s 2157 1046 m 22 X s 2157 1062 m 22 X s 2157 1075 m 22 X s 2157 1085
 m 22 X s 2157 1094 m 22 X s 2157 1102 m 22 X s 2157 1109 m 22 X s 2136 1115 m 43 X s 2157 1155 m 22 X s 2157 1178 m 22 X s 2157 1195 m 22 X s 2157 1208 m 22 X s 2157 1218 m 22 X s 2157 1227 m 22 X s 2157 1235 m 22 X s 2157 1241 m 22 X s 2136 1248 m
 43 X s 2157 1287 m 22 X s 2157 1311 m 22 X s 2157 1327 m 22 X s 2157 1340 m 22 X s 2157 1351 m 22 X s 2157 1360 m 22 X s 2157 1367 m 22 X s 2157 1374 m 22 X s 2136 1380 m 43 X s 2157 1420 m 22 X s 2157 1443 m 22 X s 2157 1460 m 22 X s 2157 1473 m 22
 X s 2157 1483 m 22 X s 2157 1492 m 22 X s 2157 1500 m 22 X s 2157 1507 m 22 X s 2136 1513 m 43 X s 2157 1553 m 22 X s 2157 1576 m 22 X s 2157 1593 m 22 X s 2157 1606 m 22 X s 2157 1616 m 22 X s 2157 1625 m 22 X s 2157 1633 m 22 X s 2157 1639 m 22 X
 s 2136 1645 m 43 X s 2157 1685 m 22 X s 2157 1709 m 22 X s 2157 1725 m 22 X s 0.6 1 0.6 c black 0.6 1 0.6 c 319 584 m 560 Y 110 X -137 Y 109 X -19 Y 109 X -23 Y 110 X -18 Y 109 X -30 Y 110 X -31 Y 109 X -46 Y 110 X -54 Y 109 X -41 Y 109 X -35 Y 110
 X -75 Y 109 X -24 Y 110 X -27 Y 437 X f black 0.6 1 0.6 c black 319 1144 m 110 X -137 Y 109 X -19 Y 109 X -23 Y 110 X -18 Y 109 X -30 Y 110 X -31 Y 109 X -46 Y 110 X -54 Y 109 X -41 Y 109 X -35 Y 110 X -75 Y 109 X -24 Y 110 X -27 Y 437 X s 0.999
 0.999 0.999 c black 0.999 0.999 0.999 c 319 584 m 485 Y 110 X -115 Y 109 X -7 Y 109 X -16 Y 110 X -5 Y 109 X -23 Y 110 X -29 Y 109 X -39 Y 110 X -57 Y 109 X -36 Y 109 X -41 Y 110 X -66 Y 109 X -24 Y 110 X -27 Y 437 X f black 0.999 0.999 0.999 c
 black 319 1069 m 110 X -115 Y 109 X -7 Y 109 X -16 Y 110 X -5 Y 109 X -23 Y 110 X -29 Y 109 X -39 Y 110 X -57 Y 109 X -36 Y 109 X -41 Y 110 X -66 Y 109 X -24 Y 110 X -27 Y 437 X s 1 1 1 c black 319 1069 m 110 X -115 Y 109 X -7 Y 109 X -16 Y 110 X -5
 Y 109 X -23 Y 110 X -29 Y 109 X -39 Y 110 X -57 Y 109 X -36 Y 109 X -41 Y 110 X -66 Y 109 X -24 Y 110 X -27 Y 437 X s 0.4 0.6 1 c black 0.4 0.6 1 c 319 584 m 485 Y 110 X -115 Y 109 X -7 Y 109 X -16 Y 110 X -5 Y 109 X -23 Y 110 X -29 Y 109 X -39 Y
 110 X -57 Y 109 X -36 Y 109 X -41 Y 110 X -66 Y 109 X -24 Y 110 X -27 Y 437 X f black 0.4 0.6 1 c black 319 1069 m 110 X -115 Y 109 X -7 Y 109 X -16 Y 110 X -5 Y 109 X -23 Y 110 X -29 Y 109 X -39 Y 110 X -57 Y 109 X -36 Y 109 X -41 Y 110 X -66 Y 109
 X -24 Y 110 X -27 Y 437 X s 0.999 0.999 0.999 c black 0.999 0.999 0.999 c 319 584 m 360 Y 110 X -117 Y 109 X -8 Y 109 X -30 Y 110 X 15 Y 109 X -31 Y 110 X -19 Y 109 X -77 Y 110 X -9 Y 109 X 1 Y 109 X -68 Y 110 X -17 Y 656 X f black 0.999 0.999 0.999
 c black 319 944 m 110 X -117 Y 109 X -8 Y 109 X -30 Y 110 X 15 Y 109 X -31 Y 110 X -19 Y 109 X -77 Y 110 X -9 Y 109 X 1 Y 109 X -68 Y 110 X -17 Y 656 X s 1 1 1 c black 319 944 m 110 X -117 Y 109 X -8 Y 109 X -30 Y 110 X 15 Y 109 X -31 Y 110 X -19 Y
 109 X -77 Y 110 X -9 Y 109 X 1 Y 109 X -68 Y 110 X -17 Y 656 X s 1 0.8 0.4 c black 1 0.8 0.4 c 319 584 m 360 Y 110 X -117 Y 109 X -8 Y 109 X -30 Y 110 X 15 Y 109 X -31 Y 110 X -19 Y 109 X -77 Y 110 X -9 Y 109 X 1 Y 109 X -68 Y 110 X -17 Y 656 X f
 black 1 0.8 0.4 c black 319 944 m 110 X -117 Y 109 X -8 Y 109 X -30 Y 110 X 15 Y 109 X -31 Y 110 X -19 Y 109 X -77 Y 110 X -9 Y 109 X 1 Y 109 X -68 Y 110 X -17 Y 656 X s 0.999 0.999 0.999 c black 0.999 0.999 0.999 c 319 584 m 354 Y 110 X -115 Y 109
 X -7 Y 109 X -31 Y 110 X 15 Y 109 X -36 Y 110 X -11 Y 109 X -101 Y 110 X 13 Y 109 X 4 Y 109 X -72 Y 110 X -13 Y 656 X f black 0.999 0.999 0.999 c black 319 938 m 110 X -115 Y 109 X -7 Y 109 X -31 Y 110 X 15 Y 109 X -36 Y 110 X -11 Y 109 X -101 Y 110
 X 13 Y 109 X 4 Y 109 X -72 Y 110 X -13 Y 656 X s 1 1 1 c black 319 938 m 110 X -115 Y 109 X -7 Y 109 X -31 Y 110 X 15 Y 109 X -36 Y 110 X -11 Y 109 X -101 Y 110 X 13 Y 109 X 4 Y 109 X -72 Y 110 X -13 Y 656 X s 1 0.4 0.6 c black 1 0.4 0.6 c 319 584 m
 354 Y 110 X -115 Y 109 X -7 Y 109 X -31 Y 110 X 15 Y 109 X -36 Y 110 X -11 Y 109 X -101 Y 110 X 13 Y 109 X 4 Y 109 X -72 Y 110 X -13 Y 656 X f black 1 0.4 0.6 c black 319 938 m 110 X -115 Y 109 X -7 Y 109 X -31 Y 110 X 15 Y 109 X -36 Y 110 X -11 Y
 109 X -101 Y 110 X 13 Y 109 X 4 Y 109 X -72 Y 110 X -13 Y 656 X s 1 0 0 c 6 lw 1 1 1 c black 1 0 0 c 319 1144 m 110 X -137 Y 109 X -19 Y 109 X -23 Y 110 X -18 Y 109 X -30 Y 110 X -31 Y 109 X -46 Y 110 X -54 Y 109 X -41 Y 109 X -35 Y 110 X -75 Y 109
 X -24 Y 110 X -27 Y 437 X s black 3 lw 1 0 0 c 1 lw << /PatternType 1 /PaintType 2 /TilingType 1 /BBox [ 0 0 100 100 ] /XStep 100 /YStep 100 /PaintProc { begin gsave 0 100 m 100 0 l s gr end } >> [ 0.24 0 0 0.24 0 0 ] makepattern /P05 exch def /cs
 {[/Pattern /DeviceRGB] setcolorspace} def /FA {f [/DeviceRGB] setcolorspace} def cs 1 0 0 P05 setcolor 319 584 m 562 Y 110 X -137 Y 109 X -19 Y 109 X -22 Y 110 X -18 Y 109 X -30 Y 110 X -30 Y 109 X -44 Y 110 X -52 Y 109 X -36 Y 109 X -34 Y 110 X -72
 Y 109 X -25 Y 110 X -32 Y 109 X -11 Y -109 X 4 Y -110 X 24 Y -109 X 81 Y -110 X 35 Y -109 X 48 Y -109 X 57 Y -110 X 48 Y -109 X 33 Y -110 X 29 Y -109 X 20 Y -110 X 23 Y -109 X 19 Y -109 X 138 Y -110 X -559 Y FA 6 lw 1 1 1 c 15 lw 1140 830 m 2 Y s
 1140 832 m cl s 1140 789 m -12 Y s 1140 777 m cl s 1249 777 m 14 Y s 1249 791 m cl s 1249 737 m -40 Y s 1249 697 m cl s 1359 737 m 28 Y s 1359 765 m cl s 1359 697 m -81 Y s 1359 616 m cl s black 1 1 1 c 3 lw /w 43 def /w2 {w 2 div} def /w3 {w 3 div}
 def 374 1145 483 1009 593 992 702 963 812 935 921 905 1030 855 1140 810 1249 757 1359 717 10 { m20} R 15 lw black 6 lw 1 1 1 c black 3 lw /w 33 def /w2 {w 2 div} def /w3 {w 3 div} def 374 1145 m20 6 lw 3 lw 483 1009 m20 6 lw 3 lw 593 992 m20 6 lw 3
 lw 702 963 m20 6 lw 3 lw 812 935 m20 6 lw 3 lw 921 905 m20 6 lw 1030 834 m 8 Y s 1030 869 m 1 Y s 3 lw 1030 855 m20 6 lw 1140 776 m 20 Y s 1140 823 m 8 Y s 3 lw 1140 810 m20 6 lw 1249 686 m 57 Y s 1249 770 m 18 Y s 3 lw 1249 757 m20 6 lw 1359 584 m
 119 Y s 1359 731 m 26 Y s 3 lw 1359 717 m20 6 lw 1030 869 m 2 Y s 1030 871 m cl s 1030 842 m -7 Y s 1030 835 m cl s 1140 823 m 9 Y s 1140 832 m cl s 1140 796 m -19 Y s 1140 777 m cl s 1249 770 m 21 Y s 1249 791 m cl s 1249 743 m -46 Y s 1249 697 m
 cl s 1359 731 m 34 Y s 1359 765 m cl s 1359 703 m -87 Y s 1359 616 m cl s 3 lw 374 1145 483 1009 593 992 702 963 812 935 921 905 1030 855 1140 810 1249 757 1359 717 10 { m20} R 6 lw 3 lw 319 584 m 1860 X s 538 584 m cl s 593 584 m cl s 647 584 m cl
 s 702 584 m cl s 757 584 m cl s 812 584 m cl s 866 584 m cl s 921 584 m cl s 976 584 m cl s 1030 584 m cl s 1085 584 m cl s 1140 584 m cl s 1195 584 m cl s 1249 584 m cl s 1304 584 m cl s 1359 584 m cl s 1413 584 m cl s 1468 584 m cl s 1523 584 m cl
 s 1578 584 m cl s 1632 584 m cl s 1687 584 m cl s 1742 584 m cl s 1796 584 m cl s 1851 584 m cl s 1906 584 m cl s 1961 584 m cl s 2015 584 m cl s 2070 584 m cl s 2125 584 m cl s 2179 584 m cl s 538 584 m cl s 483 584 m cl s 429 584 m cl s 374 584 m
 cl s 319 1729 m 1860 X s 538 1729 m cl s 593 1729 m cl s 647 1729 m cl s 702 1729 m cl s 757 1729 m cl s 812 1729 m cl s 866 1729 m cl s 921 1729 m cl s 976 1729 m cl s 1030 1729 m cl s 1085 1729 m cl s 1140 1729 m cl s 1195 1729 m cl s 1249 1729 m
 cl s 1304 1729 m cl s 1359 1729 m cl s 1413 1729 m cl s 1468 1729 m cl s 1523 1729 m cl s 1578 1729 m cl s 1632 1729 m cl s 1687 1729 m cl s 1742 1729 m cl s 1796 1729 m cl s 1851 1729 m cl s 1906 1729 m cl s 1961 1729 m cl s 2015 1729 m cl s 2070
 1729 m cl s 2125 1729 m cl s 2179 1729 m cl s 538 1729 m cl s 483 1729 m cl s 429 1729 m cl s 374 1729 m cl s 319 584 m 1145 Y s 341 624 m -22 X s 341 648 m -22 X s 341 664 m -22 X s 341 677 m -22 X s 341 688 m -22 X s 341 696 m -22 X s 341 704 m
 -22 X s 341 711 m -22 X s 363 717 m -44 X s 341 757 m -22 X s 341 780 m -22 X s 341 797 m -22 X s 341 810 m -22 X s 341 820 m -22 X s 341 829 m -22 X s 341 837 m -22 X s 341 844 m -22 X s 363 850 m -44 X s 341 890 m -22 X s 341 913 m -22 X s 341 929
 m -22 X s 341 942 m -22 X s 341 953 m -22 X s 341 962 m -22 X s 341 969 m -22 X s 341 976 m -22 X s 363 982 m -44 X s 341 1022 m -22 X s 341 1046 m -22 X s 341 1062 m -22 X s 341 1075 m -22 X s 341 1085 m -22 X s 341 1094 m -22 X s 341 1102 m -22 X
 s 341 1109 m -22 X s 363 1115 m -44 X s 341 1155 m -22 X s 341 1178 m -22 X s 341 1195 m -22 X s 341 1208 m -22 X s 341 1218 m -22 X s 341 1227 m -22 X s 341 1235 m -22 X s 341 1241 m -22 X s 363 1248 m -44 X s 341 1287 m -22 X s 341 1311 m -22 X s
 341 1327 m -22 X s 341 1340 m -22 X s 341 1351 m -22 X s 341 1360 m -22 X s 341 1367 m -22 X s 341 1374 m -22 X s 363 1380 m -44 X s 341 1420 m -22 X s 341 1443 m -22 X s 341 1460 m -22 X s 341 1473 m -22 X s 341 1483 m -22 X s 341 1492 m -22 X s
 341 1500 m -22 X s 341 1507 m -22 X s 363 1513 m -44 X s 341 1553 m -22 X s 341 1576 m -22 X s 341 1593 m -22 X s 341 1606 m -22 X s 341 1616 m -22 X s 341 1625 m -22 X s 341 1633 m -22 X s 341 1639 m -22 X s 363 1645 m -44 X s 341 1685 m -22 X s
 341 1709 m -22 X s 341 1725 m -22 X s 2179 584 m 1145 Y s 2157 624 m 22 X s 2157 648 m 22 X s 2157 664 m 22 X s 2157 677 m 22 X s 2157 688 m 22 X s 2157 696 m 22 X s 2157 704 m 22 X s 2157 711 m 22 X s 2136 717 m 43 X s 2157 757 m 22 X s 2157 780 m
 22 X s 2157 797 m 22 X s 2157 810 m 22 X s 2157 820 m 22 X s 2157 829 m 22 X s 2157 837 m 22 X s 2157 844 m 22 X s 2136 850 m 43 X s 2157 890 m 22 X s 2157 913 m 22 X s 2157 929 m 22 X s 2157 942 m 22 X s 2157 953 m 22 X s 2157 962 m 22 X s 2157 969
 m 22 X s 2157 976 m 22 X s 2136 982 m 43 X s 2157 1022 m 22 X s 2157 1046 m 22 X s 2157 1062 m 22 X s 2157 1075 m 22 X s 2157 1085 m 22 X s 2157 1094 m 22 X s 2157 1102 m 22 X s 2157 1109 m 22 X s 2136 1115 m 43 X s 2157 1155 m 22 X s 2157 1178 m 22
 X s 2157 1195 m 22 X s 2157 1208 m 22 X s 2157 1218 m 22 X s 2157 1227 m 22 X s 2157 1235 m 22 X s 2157 1241 m 22 X s 2136 1248 m 43 X s 2157 1287 m 22 X s 2157 1311 m 22 X s 2157 1327 m 22 X s 2157 1340 m 22 X s 2157 1351 m 22 X s 2157 1360 m 22 X
 s 2157 1367 m 22 X s 2157 1374 m 22 X s 2136 1380 m 43 X s 2157 1420 m 22 X s 2157 1443 m 22 X s 2157 1460 m 22 X s 2157 1473 m 22 X s 2157 1483 m 22 X s 2157 1492 m 22 X s 2157 1500 m 22 X s 2157 1507 m 22 X s 2136 1513 m 43 X s 2157 1553 m 22 X s
 2157 1576 m 22 X s 2157 1593 m 22 X s 2157 1606 m 22 X s 2157 1616 m 22 X s 2157 1625 m 22 X s 2157 1633 m 22 X s 2157 1639 m 22 X s 2136 1645 m 43 X s 2157 1685 m 22 X s 2157 1709 m 22 X s 2157 1725 m 22 X s
 gsave  2263 1770 2 313 C 406.765 1447.41 t 0 r /Helvetica findfont 64.4212 sf 0 0 m (CRT for MB\255C) show NC gr 
 gsave  2263 1770 2 313 C 1464.36 1616.89 t 0 r /Helvetica findfont 64.4212 sf 0 0 m (SM Total) show NC gr  1 1 1 c 1338 1603 m 107 X 74 Y -107 X f 1 0 0 c 6 lw 1338 1640 m 107 X s black
 gsave  2263 1770 2 313 C 1464.36 1511.81 t 0 r /Helvetica findfont 64.4212 sf 0 0 m (Data) show NC gr  1391 1502 m 64 Y s 3 lw 1391 1534 m20 6 lw
 gsave  2263 1770 2 313 C 1498.25 1406.73 t 0 r /Helvetica findfont 64.4212 sf 0 0 m (\(+EW\) & single top) show NC gr 
 gsave  2263 1770 2 313 C 1481.3 1406.73 t 0 r /Helvetica findfont 64.4212 sf 0 0 m (t) show NC gr  3 lw 1481 1458 m 17 X s
 gsave  2263 1770 2 313 C 1464.36 1406.73 t 0 r /Helvetica findfont 64.4212 sf 0 0 m (t) show NC gr  0.6 1 0.6 c 1338 1391 m 107 X 74 Y -107 X f black 1338 1465 m 107 X s 1338 1391 m 107 X s 1445 1391 m 74 Y s 1338 1391 m 74 Y s
 gsave  2263 1770 2 313 C 1464.36 1298.26 t 0 r /Helvetica findfont 64.4212 sf 0 0 m (W+jets) show NC gr  0.4 0.6 1 c 1338 1284 m 107 X 75 Y -107 X f black 1338 1359 m 107 X s 1338 1284 m 107 X s 1445 1284 m 75 Y s 1338 1284 m 75 Y s
 gsave  2263 1770 2 313 C 1464.36 1193.18 t 0 r /Helvetica findfont 64.4212 sf 0 0 m (Z+jets) show NC gr  1 0.8 0.4 c 1338 1178 m 107 X 75 Y -107 X f black 1338 1253 m 107 X s 1338 1178 m 107 X s 1445 1178 m 75 Y s 1338 1178 m 75 Y s
 gsave  2263 1770 2 313 C 1464.36 1088.1 t 0 r /Helvetica findfont 64.4212 sf 0 0 m (Diboson) show NC gr  1 0.4 0.6 c 1338 1072 m 107 X 74 Y -107 X f black 1338 1146 m 107 X s 1338 1072 m 107 X s 1445 1072 m 74 Y s 1338 1072 m 74 Y s
 gsave  2263 1770 2 313 C 911.832 1566.05 t 0 r /Helvetica findfont 44.0776 sf 0 0 m (\2551) show NC gr 
 gsave  2263 1770 2 313 C 471.17 1535.54 t 0 r /Helvetica findfont 64.4212 sf 0 0 m (=13TeV, 139 fb) show NC gr 
 gsave  2263 1770 2 313 C 440.662 1535.54 t 0 r /Helvetica findfont 64.4212 sf 0 0 m (s) show NC gr  6 lw 420 1573 m 7 -41 d s 3 lw 427 1532 m 7 61 d s 434 1593 m 37 X s 1 1 1 c 2254 561 2 2 bf black 1 1 1 c black 1860 358 318 187 bl 1 1 1 c black
 1860 358 318 187 bl 6 lw 1 1 1 c black 3 lw 373 368 m20 6 lw 3 lw 482 371 m20 6 lw 3 lw 591 377 m20 6 lw 3 lw 701 358 m20 6 lw 3 lw 810 336 m20 6 lw 3 lw 920 334 m20 6 lw 3 lw 1029 299 m20 6 lw 3 lw 1139 299 m20 6 lw 3 lw 1248 302 m20 6 lw 3 lw 1358
 303 m20 6 lw 3 lw 318 187 m 1860 X s
 gsave  2254 561 2 2 C 2105.01 64.4045 t 0 r /Helvetica findfont 50.9797 sf 0 0 m (1/2) show NC gr 
 gsave  2254 561 2 2 C 1888.07 23.728 t 0 r /Helvetica findfont 78.1689 sf 0 0 m ( [GeV]) show NC gr 
 gsave  2254 561 2 2 C 1857.56 3.38971 t 0 r /Helvetica findfont 50.9797 sf 0 0 m (T) show NC gr 
 gsave  2254 561 2 2 C 1806.72 23.728 t 0 r /Helvetica findfont 78.1689 sf 0 0 m (H) show NC gr  6 lw 1773 81 m 10 -78 d s 3 lw 1783 3 m 14 99 d s 1797 102 m 91 X s
 gsave  2254 561 2 2 C 1735.53 23.728 t 0 r /Helvetica findfont 78.1689 sf 0 0 m (/) show NC gr 
 gsave  2254 561 2 2 C 1630.45 61.0148 t 0 r /Helvetica findfont 50.9797 sf 0 0 m (miss) show NC gr 
 gsave  2254 561 2 2 C 1630.45 3.38971 t 0 r /Helvetica findfont 50.9797 sf 0 0 m (T) show NC gr 
 gsave  2254 561 2 2 C 1579.61 23.728 t 0 r /Helvetica findfont 78.1689 sf 0 0 m (E) show NC gr  537 201 m -14 Y s 591 194 m -7 Y s 646 194 m -7 Y s 701 194 m -7 Y s 756 194 m -7 Y s 810 201 m -14 Y s 865 194 m -7 Y s 920 194 m -7 Y s 975 194 m -7 Y
 s 1029 194 m -7 Y s 1084 201 m -14 Y s 1139 194 m -7 Y s 1193 194 m -7 Y s 1248 194 m -7 Y s 1303 194 m -7 Y s 1358 201 m -14 Y s 1412 194 m -7 Y s 1467 194 m -7 Y s 1522 194 m -7 Y s 1576 194 m -7 Y s 1631 201 m -14 Y s 1686 194 m -7 Y s 1741 194 m
 -7 Y s 1795 194 m -7 Y s 1850 194 m -7 Y s 1905 201 m -14 Y s 1959 194 m -7 Y s 2014 194 m -7 Y s 2069 194 m -7 Y s 2124 194 m -7 Y s 2178 201 m -14 Y s 537 201 m -14 Y s 482 194 m -7 Y s 427 194 m -7 Y s 373 194 m -7 Y s 318 194 m -7 Y s
 gsave  2254 561 2 2 C 491.508 118.64 t 0 r /Helvetica findfont 78.1689 sf 0 0 m (20) show NC gr 
 gsave  2254 561 2 2 C 766.075 118.64 t 0 r /Helvetica findfont 78.1689 sf 0 0 m (25) show NC gr 
 gsave  2254 561 2 2 C 1037.25 118.64 t 0 r /Helvetica findfont 78.1689 sf 0 0 m (30) show NC gr 
 gsave  2254 561 2 2 C 1311.82 118.64 t 0 r /Helvetica findfont 78.1689 sf 0 0 m (35) show NC gr 
 gsave  2254 561 2 2 C 1586.38 118.64 t 0 r /Helvetica findfont 78.1689 sf 0 0 m (40) show NC gr 
 gsave  2254 561 2 2 C 1857.56 118.64 t 0 r /Helvetica findfont 78.1689 sf 0 0 m (45) show NC gr 
 gsave  2254 561 2 2 C 2132.13 118.64 t 0 r /Helvetica findfont 78.1689 sf 0 0 m (50) show NC gr  318 545 m 1860 X s 537 531 m 14 Y s 591 538 m 7 Y s 646 538 m 7 Y s 701 538 m 7 Y s 756 538 m 7 Y s 810 531 m 14 Y s 865 538 m 7 Y s 920 538 m 7 Y s 975
 538 m 7 Y s 1029 538 m 7 Y s 1084 531 m 14 Y s 1139 538 m 7 Y s 1193 538 m 7 Y s 1248 538 m 7 Y s 1303 538 m 7 Y s 1358 531 m 14 Y s 1412 538 m 7 Y s 1467 538 m 7 Y s 1522 538 m 7 Y s 1576 538 m 7 Y s 1631 531 m 14 Y s 1686 538 m 7 Y s 1741 538 m 7
 Y s 1795 538 m 7 Y s 1850 538 m 7 Y s 1905 531 m 14 Y s 1959 538 m 7 Y s 2014 538 m 7 Y s 2069 538 m 7 Y s 2124 538 m 7 Y s 2178 531 m 14 Y s 537 531 m 14 Y s 482 538 m 7 Y s 427 538 m 7 Y s 373 538 m 7 Y s 318 538 m 7 Y s 318 187 m 358 Y s
 gsave  2254 561 2 2 C 166.096 284.736 t 90 r /Helvetica findfont 67.9729 sf 0 0 m (Data/SM) show NC gr  361 203 m -43 X s 339 220 m -21 X s 339 236 m -21 X s 339 252 m -21 X s 339 268 m -21 X s 361 285 m -43 X s 339 301 m -21 X s 339 317 m -21 X s
 339 334 m -21 X s 339 350 m -21 X s 361 366 m -43 X s 339 382 m -21 X s 339 399 m -21 X s 339 415 m -21 X s 339 431 m -21 X s 361 447 m -43 X s 339 464 m -21 X s 339 480 m -21 X s 339 496 m -21 X s 339 512 m -21 X s 361 529 m -43 X s 361 203 m -43 X
 s 339 187 m -21 X s 361 529 m -43 X s
 gsave  2254 561 2 2 C 261.008 183.044 t 0 r /Helvetica findfont 57.777 sf 0 0 m (0) show NC gr 
 gsave  2254 561 2 2 C 213.552 261.008 t 0 r /Helvetica findfont 57.777 sf 0 0 m (0.5) show NC gr 
 gsave  2254 561 2 2 C 271.177 342.361 t 0 r /Helvetica findfont 57.777 sf 0 0 m (1) show NC gr 
 gsave  2254 561 2 2 C 213.552 423.714 t 0 r /Helvetica findfont 57.777 sf 0 0 m (1.5) show NC gr 
 gsave  2254 561 2 2 C 261.008 505.067 t 0 r /Helvetica findfont 57.777 sf 0 0 m (2) show NC gr  2178 187 m 358 Y s 2135 203 m 43 X s 2157 220 m 21 X s 2157 236 m 21 X s 2157 252 m 21 X s 2157 268 m 21 X s 2135 285 m 43 X s 2157 301 m 21 X s 2157 317
 m 21 X s 2157 334 m 21 X s 2157 350 m 21 X s 2135 366 m 43 X s 2157 382 m 21 X s 2157 399 m 21 X s 2157 415 m 21 X s 2157 431 m 21 X s 2135 447 m 43 X s 2157 464 m 21 X s 2157 480 m 21 X s 2157 496 m 21 X s 2157 512 m 21 X s 2135 529 m 43 X s 2135
 203 m 43 X s 2157 187 m 21 X s 2135 529 m 43 X s 9 lw 591 391 m 2 Y s 591 393 m cl s 591 364 m -3 Y s 591 361 m cl s 701 371 m 5 Y s 701 376 m cl s 701 344 m -4 Y s 701 340 m cl s 810 350 m 7 Y s 810 357 m cl s 810 323 m -6 Y s 810 317 m cl s 920
 348 m 12 Y s 920 360 m cl s 920 321 m -12 Y s 920 309 m cl s 1029 313 m 16 Y s 1029 329 m cl s 1029 285 m -14 Y s 1029 271 m cl s 1139 313 m 32 Y s 1139 345 m cl s 1139 286 m -28 Y s 1139 258 m cl s 1248 316 m 67 Y s 1248 383 m cl s 1248 289 m -50 Y
 s 1248 239 m cl s 1358 317 m 115 Y s 1358 432 m cl s 1358 290 m -69 Y s 1358 221 m cl s 3 lw 373 368 482 371 591 377 701 358 810 336 920 334 1029 299 1139 299 1248 302 1358 303 10 { m20} R 9 lw 1 0 0 c 6 lw black 3 lw 1 0 0 c 2155 203 m cl s 2127
 203 m cl s 2098 203 m cl s 2069 203 m cl s 2040 203 m cl s 2012 203 m cl s 1983 203 m cl s 1959 209 m s 1959 237 m -14 -14 d s 1959 266 m -43 -43 d s 1959 294 m -71 -71 d s 1959 323 m -100 -100 d s 1959 351 m -109 -109 d s 1959 380 m -109 -109 d s
 1959 409 m -137 -138 d s 1959 437 m -166 -166 d s 1959 466 m -195 -195 d s 1959 494 m -218 -218 d s 1946 509 m -205 -204 d s 1917 509 m -197 -197 d s 1888 509 m -38 -38 d s 1840 461 m -149 -149 d s 1860 509 m -10 -9 d s 1811 461 m -149 -149 d s 1782
 461 m -149 -149 d s 1753 461 m -12 -13 d s 1712 420 m -108 -108 d s 1684 420 m -108 -108 d s 1655 420 m -108 -108 d s 1627 420 m -105 -105 d s 1598 420 m -97 -97 d s 1569 420 m -97 -97 d s 1541 420 m -97 -97 d s 1501 409 m -86 -86 d s 1472 409 m -84
 -84 d s 1443 409 m -84 -84 d s 1414 409 m -84 -84 d s 1384 407 m -81 -81 d s 1355 407 m -65 -65 d s 1327 407 m -66 -65 d s 1281 390 m -48 -48 d s 1252 390 m -48 -48 d s 1224 390 m -44 -43 d s 1195 390 m -2 -1 d s 1190 385 m -38 -38 d s 1161 385 m
 -38 -38 d s 1132 385 m -38 -38 d s 1104 385 m -31 -31 d s 1068 378 m -24 -24 d s 1039 378 m -24 -24 d s 1011 378 m -24 -24 d s 982 378 m -21 -21 d s 951 375 m -19 -18 d s 922 375 m -19 -18 d s 893 375 m -18 -18 d s 865 376 m -20 -20 d s 837 376 m
 -21 -20 d s 808 376 m -20 -20 d s 779 376 m -20 -20 d s 748 374 m -15 -16 d s 719 374 m -15 -16 d s 691 374 m -16 -16 d s 662 374 m -15 -16 d s 632 372 m -12 -12 d s 603 372 m -12 -12 d s 574 372 m -12 -12 d s 546 372 m -11 -11 d s 516 371 m -10 -10
 d s 487 371 m -10 -10 d s 459 371 m -10 -10 d s 318 231 m s 430 371 m -9 -9 d s 318 259 m s 400 370 m -8 -8 d s 318 288 m s 371 370 m -7 -8 d s 318 317 m s 343 370 m -8 -8 d s 318 345 m s 6 lw black[ 4 8] 0 sd 3 lw 318 447 m 1860 X s 318 285 m 1860
 X s 1 0 0 c[  12 12 ] 0 sd 6 lw 318 366 m 1860 X s
 gr  gr showpage
end
%%EOF
