%!PS-Adobe-2.0 EPSF-2.0
%%BoundingBox:  0 0 567 521
%%Title: Distributions/metsqrtmeffInc_met_distrVR0LdPhi_MB-SSd_beforeFit_forThesis.eps: canvas
%%Creator: ROOT Version 6.04/16
%%CreationDate: Tue May 19 22:06:13 2020
%%DocumentNeededResources: ProcSet (FontSetInit)
%%EndComments
%%BeginProlog
80 dict begin
/s {stroke} def /l {lineto} def /m {moveto} def /t {translate} def
/r {rotate} def /rl {roll}  def /R {repeat} def
/d {rlineto} def /rm {rmoveto} def /gr {grestore} def /f {eofill} def
/c {setrgbcolor} def /black {0 setgray} def /sd {setdash} def
/cl {closepath} def /sf {scalefont setfont} def /lw {setlinewidth} def
/box {m dup 0 exch d exch 0 d 0 exch neg d cl} def
/NC{systemdict begin initclip end}def/C{NC box clip newpath}def
/bl {box s} def /bf {gsave box gsave f grestore 1 lw [] 0 sd s grestore} def /Y { 0 exch d} def /X { 0 d} def 
/K {{pop pop 0 moveto} exch kshow} bind def
/ita {/ang 15 def gsave [1 0 ang dup sin exch cos div 1 0 0] concat} def 
/mp {newpath /y exch def /x exch def} def
/side {[w .77 mul w .23 mul] .385 w mul sd w 0 l currentpoint t -144 r} def
/mr {mp x y w2 0 360 arc} def /m24 {mr s} def /m20 {mr f} def
/mb {mp x y w2 add m w2 neg 0 d 0 w neg d w 0 d 0 w d cl} def
/mt {mp x y w2 add m w2 neg w neg d w 0 d cl} def
/m21 {mb f} def /m25 {mb s} def /m22 {mt f} def /m26{mt s} def
/m23 {mp x y w2 sub m w2 w d w neg 0 d cl f} def
/m27 {mp x y w2 add m w3 neg w2 neg d w3 w2 neg d w3 w2 d cl s} def
/m28 {mp x w2 sub y w2 sub w3 add m w3 0 d  0 w3 neg d w3 0 d 0 w3 d w3 0 d  0 w3 d w3 neg 0 d 0 w3 d w3 neg 0 d 0 w3 neg d w3 neg 0 d cl s } def
/m29 {mp gsave x w2 sub y w2 add w3 sub m currentpoint t 4 {side} repeat cl fill gr} def
/m30 {mp gsave x w2 sub y w2 add w3 sub m currentpoint t 4 {side} repeat cl s gr} def
/m31 {mp x y w2 sub m 0 w d x w2 sub y m w 0 d x w2 sub y w2 add m w w neg d x w2 sub y w2 sub m w w d s} def
/m32 {mp x y w2 sub m w2 w d w neg 0 d cl s} def
/m33 {mp x y w2 add m w3 neg w2 neg d w3 w2 neg d w3 w2 d cl f} def
/m34 {mp x w2 sub y w2 sub w3 add m w3 0 d  0 w3 neg d w3 0 d 0 w3 d w3 0 d  0 w3 d w3 neg 0 d 0 w3 d w3 neg 0 d 0 w3 neg d w3 neg 0 d cl f } def
/m2 {mp x y w2 sub m 0 w d x w2 sub y m w 0 d s} def
/m5 {mp x w2 sub y w2 sub m w w d x w2 sub y w2 add m w w neg d s} def
%%IncludeResource: ProcSet (FontSetInit)
%%IncludeResource: font Times-Roman
%%IncludeResource: font Times-Italic
%%IncludeResource: font Times-Bold
%%IncludeResource: font Times-BoldItalic
%%IncludeResource: font Helvetica
%%IncludeResource: font Helvetica-Oblique
%%IncludeResource: font Helvetica-Bold
%%IncludeResource: font Helvetica-BoldOblique
%%IncludeResource: font Courier
%%IncludeResource: font Courier-Oblique
%%IncludeResource: font Courier-Bold
%%IncludeResource: font Courier-BoldOblique
%%IncludeResource: font Symbol
%%IncludeResource: font ZapfDingbats
/reEncode {exch findfont dup length dict begin {1 index /FID eq  {pop pop} {def} ifelse } forall /Encoding exch def currentdict end dup /FontName get exch definefont pop } def [/Times-Bold /Times-Italic /Times-BoldItalic /Helvetica /Helvetica-Oblique
 /Helvetica-Bold /Helvetica-BoldOblique /Courier /Courier-Oblique /Courier-Bold /Courier-BoldOblique /Times-Roman /AvantGarde-Book /AvantGarde-BookOblique /AvantGarde-Demi /AvantGarde-DemiOblique /Bookman-Demi /Bookman-DemiItalic /Bookman-Light
 /Bookman-LightItalic /Helvetica-Narrow /Helvetica-Narrow-Bold /Helvetica-Narrow-BoldOblique /Helvetica-Narrow-Oblique /NewCenturySchlbk-Roman /NewCenturySchlbk-Bold /NewCenturySchlbk-BoldItalic /NewCenturySchlbk-Italic /Palatino-Bold
 /Palatino-BoldItalic /Palatino-Italic /Palatino-Roman ] {ISOLatin1Encoding reEncode } forall
%%EndProlog
%%BeginSetup
%%EndSetup
newpath  gsave  .25 .25 scale  gsave  0 0 t black[  ] 0 sd 3 lw 1 1 1 c 2268 2085 0 0 bf black 1 1 1 c 2263 1770 2 313 bf black 1 1 1 c black 1860 1145 319 584 bl 1 1 1 c black 1860 1145 319 584 bl 6 lw 1 1 1 c black 3 lw /w 33 def /w2 {w 2 div} def
 /w3 {w 3 div} def 366 1216 m20 6 lw 3 lw 319 584 m 1860 X s
 gsave  2263 1770 2 313 C 2101.62 396.596 t 0 r /Helvetica findfont 54.2494 sf 0 0 m (1/2) show NC gr 
 gsave  2263 1770 2 313 C 1874.51 355.92 t 0 r /Helvetica findfont 81.3741 sf 0 0 m ( [GeV]) show NC gr 
 gsave  2263 1770 2 313 C 1840.61 332.192 t 0 r /Helvetica findfont 54.2494 sf 0 0 m (T) show NC gr 
 gsave  2263 1770 2 313 C 1786.38 355.92 t 0 r /Helvetica findfont 81.3741 sf 0 0 m (H) show NC gr  6 lw 1749 417 m 14 -85 d s 3 lw 1763 332 m 13 105 d s 1776 437 m 99 X s
 gsave  2263 1770 2 313 C 1711.8 355.92 t 0 r /Helvetica findfont 81.3741 sf 0 0 m (/) show NC gr 
 gsave  2263 1770 2 313 C 1599.94 396.596 t 0 r /Helvetica findfont 54.2494 sf 0 0 m (miss) show NC gr 
 gsave  2263 1770 2 313 C 1599.94 332.192 t 0 r /Helvetica findfont 54.2494 sf 0 0 m (T) show NC gr 
 gsave  2263 1770 2 313 C 1549.1 355.92 t 0 r /Helvetica findfont 81.3741 sf 0 0 m (E) show NC gr  319 584 m cl s 366 584 m cl s 412 584 m cl s 459 584 m cl s 505 584 m cl s 552 584 m cl s 598 584 m cl s 645 584 m cl s 691 584 m cl s 738 584 m cl s
 784 584 m cl s 831 584 m cl s 877 584 m cl s 924 584 m cl s 970 584 m cl s 1017 584 m cl s 1063 584 m cl s 1110 584 m cl s 1156 584 m cl s 1203 584 m cl s 1249 584 m cl s 1296 584 m cl s 1342 584 m cl s 1389 584 m cl s 1435 584 m cl s 1482 584 m cl
 s 1528 584 m cl s 1575 584 m cl s 1621 584 m cl s 1668 584 m cl s 1714 584 m cl s 1761 584 m cl s 1807 584 m cl s 1854 584 m cl s 1900 584 m cl s 1947 584 m cl s 1993 584 m cl s 2040 584 m cl s 2086 584 m cl s 2133 584 m cl s 2179 584 m cl s 319
 1729 m 1860 X s 319 1729 m cl s 366 1729 m cl s 412 1729 m cl s 459 1729 m cl s 505 1729 m cl s 552 1729 m cl s 598 1729 m cl s 645 1729 m cl s 691 1729 m cl s 738 1729 m cl s 784 1729 m cl s 831 1729 m cl s 877 1729 m cl s 924 1729 m cl s 970 1729
 m cl s 1017 1729 m cl s 1063 1729 m cl s 1110 1729 m cl s 1156 1729 m cl s 1203 1729 m cl s 1249 1729 m cl s 1296 1729 m cl s 1342 1729 m cl s 1389 1729 m cl s 1435 1729 m cl s 1482 1729 m cl s 1528 1729 m cl s 1575 1729 m cl s 1621 1729 m cl s 1668
 1729 m cl s 1714 1729 m cl s 1761 1729 m cl s 1807 1729 m cl s 1854 1729 m cl s 1900 1729 m cl s 1947 1729 m cl s 1993 1729 m cl s 2040 1729 m cl s 2086 1729 m cl s 2133 1729 m cl s 2179 1729 m cl s 319 584 m 1145 Y s
 gsave  2263 1770 2 313 C 125.419 1654.18 t 90 r /Helvetica findfont 54.2494 sf 0 0 m (1/2) show NC gr 
 gsave  2263 1770 2 313 C 166.096 1064.37 t 90 r /Helvetica findfont 81.3741 sf 0 0 m (Events / 2 [GeV]) show NC gr  341 629 m -22 X s 341 654 m -22 X s 341 673 m -22 X s 341 687 m -22 X s 341 699 m -22 X s 341 708 m -22 X s 341 717 m -22 X s 341 724
 m -22 X s 363 731 m -44 X s
 gsave  2263 1770 2 313 C 300.555 703.992 t 0 r  -36 0 t /Helvetica findfont 64.4212 sf 0 0 m (1) show NC gr  341 775 m -22 X s 341 801 m -22 X s 341 819 m -22 X s 341 834 m -22 X s 341 845 m -22 X s 341 855 m -22 X s 341 864 m -22 X s 341 871 m -22
 X s 363 878 m -44 X s
 gsave  2263 1770 2 313 C 300.555 850.791 t 0 r  -73 0 t /Helvetica findfont 64.4212 sf 0 0 m (10) show NC gr  341 922 m -22 X s 341 948 m -22 X s 341 966 m -22 X s 341 981 m -22 X s 341 992 m -22 X s 341 1002 m -22 X s 341 1010 m -22 X s 341 1018 m
 -22 X s 363 1025 m -44 X s
 gsave  2263 1770 2 313 C 274.567 1023.69 t 0 r /Helvetica findfont 44.0776 sf 0 0 m (2) show NC gr 
 gsave  2263 1770 2 313 C 203.383 996.575 t 0 r /Helvetica findfont 64.4212 sf 0 0 m (10) show NC gr  341 1069 m -22 X s 341 1095 m -22 X s 341 1113 m -22 X s 341 1127 m -22 X s 341 1139 m -22 X s 341 1149 m -22 X s 341 1157 m -22 X s 341 1165 m -22
 X s 363 1172 m -44 X s
 gsave  2263 1770 2 313 C 274.567 1172.84 t 0 r /Helvetica findfont 44.0776 sf 0 0 m (3) show NC gr 
 gsave  2263 1770 2 313 C 203.383 1142.33 t 0 r /Helvetica findfont 64.4212 sf 0 0 m (10) show NC gr  341 1216 m -22 X s 341 1242 m -22 X s 341 1260 m -22 X s 341 1274 m -22 X s 341 1286 m -22 X s 341 1296 m -22 X s 341 1304 m -22 X s 341 1312 m -22
 X s 363 1318 m -44 X s
 gsave  2263 1770 2 313 C 274.567 1315.21 t 0 r /Helvetica findfont 44.0776 sf 0 0 m (4) show NC gr 
 gsave  2263 1770 2 313 C 203.383 1288.09 t 0 r /Helvetica findfont 64.4212 sf 0 0 m (10) show NC gr  341 1362 m -22 X s 341 1388 m -22 X s 341 1407 m -22 X s 341 1421 m -22 X s 341 1433 m -22 X s 341 1442 m -22 X s 341 1451 m -22 X s 341 1458 m -22
 X s 363 1465 m -44 X s
 gsave  2263 1770 2 313 C 274.567 1467.74 t 0 r /Helvetica findfont 44.0776 sf 0 0 m (5) show NC gr 
 gsave  2263 1770 2 313 C 203.383 1437.24 t 0 r /Helvetica findfont 64.4212 sf 0 0 m (10) show NC gr  341 1509 m -22 X s 341 1535 m -22 X s 341 1553 m -22 X s 341 1568 m -22 X s 341 1579 m -22 X s 341 1589 m -22 X s 341 1598 m -22 X s 341 1605 m -22
 X s 363 1612 m -44 X s
 gsave  2263 1770 2 313 C 274.567 1613.5 t 0 r /Helvetica findfont 44.0776 sf 0 0 m (6) show NC gr 
 gsave  2263 1770 2 313 C 203.383 1582.99 t 0 r /Helvetica findfont 64.4212 sf 0 0 m (10) show NC gr  341 1656 m -22 X s 341 1682 m -22 X s 341 1700 m -22 X s 341 1715 m -22 X s 341 1726 m -22 X s 2179 584 m 1145 Y s 2157 629 m 22 X s 2157 654 m 22 X
 s 2157 673 m 22 X s 2157 687 m 22 X s 2157 699 m 22 X s 2157 708 m 22 X s 2157 717 m 22 X s 2157 724 m 22 X s 2136 731 m 43 X s 2157 775 m 22 X s 2157 801 m 22 X s 2157 819 m 22 X s 2157 834 m 22 X s 2157 845 m 22 X s 2157 855 m 22 X s 2157 864 m 22
 X s 2157 871 m 22 X s 2136 878 m 43 X s 2157 922 m 22 X s 2157 948 m 22 X s 2157 966 m 22 X s 2157 981 m 22 X s 2157 992 m 22 X s 2157 1002 m 22 X s 2157 1010 m 22 X s 2157 1018 m 22 X s 2136 1025 m 43 X s 2157 1069 m 22 X s 2157 1095 m 22 X s 2157
 1113 m 22 X s 2157 1127 m 22 X s 2157 1139 m 22 X s 2157 1149 m 22 X s 2157 1157 m 22 X s 2157 1165 m 22 X s 2136 1172 m 43 X s 2157 1216 m 22 X s 2157 1242 m 22 X s 2157 1260 m 22 X s 2157 1274 m 22 X s 2157 1286 m 22 X s 2157 1296 m 22 X s 2157
 1304 m 22 X s 2157 1312 m 22 X s 2136 1318 m 43 X s 2157 1362 m 22 X s 2157 1388 m 22 X s 2157 1407 m 22 X s 2157 1421 m 22 X s 2157 1433 m 22 X s 2157 1442 m 22 X s 2157 1451 m 22 X s 2157 1458 m 22 X s 2136 1465 m 43 X s 2157 1509 m 22 X s 2157
 1535 m 22 X s 2157 1553 m 22 X s 2157 1568 m 22 X s 2157 1579 m 22 X s 2157 1589 m 22 X s 2157 1598 m 22 X s 2157 1605 m 22 X s 2136 1612 m 43 X s 2157 1656 m 22 X s 2157 1682 m 22 X s 2157 1700 m 22 X s 2157 1715 m 22 X s 2157 1726 m 22 X s 0.4 0.6
 1 c black 0.4 0.6 1 c 319 584 m 634 Y 93 X -634 Y 1767 X f black 0.4 0.6 1 c black 319 1218 m 93 X -634 Y 1767 X s 0.999 0.999 0.999 c black 0.999 0.999 0.999 c 319 584 m 610 Y 93 X -610 Y 1767 X f black 0.999 0.999 0.999 c black 319 1194 m 93 X
 -610 Y 1767 X s 1 1 1 c black 319 1194 m 93 X -610 Y 1767 X s 0.6 1 0.6 c black 0.6 1 0.6 c 319 584 m 610 Y 93 X -610 Y 1767 X f black 0.6 1 0.6 c black 319 1194 m 93 X -610 Y 1767 X s 0.999 0.999 0.999 c black 0.999 0.999 0.999 c 319 584 m 598 Y 93
 X -598 Y 1767 X f black 0.999 0.999 0.999 c black 319 1182 m 93 X -598 Y 1767 X s 1 1 1 c black 319 1182 m 93 X -598 Y 1767 X s 1 0.8 0.4 c black 1 0.8 0.4 c 319 584 m 598 Y 93 X -598 Y 1767 X f black 1 0.8 0.4 c black 319 1182 m 93 X -598 Y 1767 X
 s 0.999 0.999 0.999 c black 0.999 0.999 0.999 c 319 584 m 447 Y 93 X -447 Y 1767 X f black 0.999 0.999 0.999 c black 319 1031 m 93 X -447 Y 1767 X s 1 1 1 c black 319 1031 m 93 X -447 Y 1767 X s 1 0.4 0.6 c black 1 0.4 0.6 c 319 584 m 447 Y 93 X
 -447 Y 1767 X f black 1 0.4 0.6 c black 319 1031 m 93 X -447 Y 1767 X s 0.999 0.999 0.999 c black 0.999 0.999 0.999 c 319 584 m 334 Y 93 X -334 Y 1767 X f black 0.999 0.999 0.999 c black 319 918 m 93 X -334 Y 1767 X s 1 1 1 c black 319 918 m 93 X
 -334 Y 1767 X s 0 0 0.4 c black 0 0 0.4 c 319 584 m 334 Y 93 X -334 Y 1767 X f black 0 0 0.4 c black 319 918 m 93 X -334 Y 1767 X s 1 0 0 c 6 lw 1 1 1 c black 1 0 0 c 319 1218 m 93 X -634 Y 1767 X s black 3 lw 1 0 0 c 1 lw << /PatternType 1
 /PaintType 2 /TilingType 1 /BBox [ 0 0 100 100 ] /XStep 100 /YStep 100 /PaintProc { begin gsave 0 100 m 100 0 l s gr end } >> [ 0.24 0 0 0.24 0 0 ] makepattern /P05 exch def /cs {[/Pattern /DeviceRGB] setcolorspace} def /FA {f [/DeviceRGB]
 setcolorspace} def cs 1 0 0 P05 setcolor 319 584 m 637 Y 93 X -637 Y 631 Y -93 X -631 Y FA 6 lw 1 1 1 c 15 lw black 1 1 1 c 3 lw /w 43 def /w2 {w 2 div} def /w3 {w 3 div} def 366 1216 m20 15 lw black 6 lw 1 1 1 c black 3 lw /w 33 def /w2 {w 2 div}
 def /w3 {w 3 div} def 366 1216 m20 6 lw 3 lw 366 1216 m20 6 lw 3 lw 319 584 m 1860 X s 319 584 m cl s 366 584 m cl s 412 584 m cl s 459 584 m cl s 505 584 m cl s 552 584 m cl s 598 584 m cl s 645 584 m cl s 691 584 m cl s 738 584 m cl s 784 584 m cl
 s 831 584 m cl s 877 584 m cl s 924 584 m cl s 970 584 m cl s 1017 584 m cl s 1063 584 m cl s 1110 584 m cl s 1156 584 m cl s 1203 584 m cl s 1249 584 m cl s 1296 584 m cl s 1342 584 m cl s 1389 584 m cl s 1435 584 m cl s 1482 584 m cl s 1528 584 m
 cl s 1575 584 m cl s 1621 584 m cl s 1668 584 m cl s 1714 584 m cl s 1761 584 m cl s 1807 584 m cl s 1854 584 m cl s 1900 584 m cl s 1947 584 m cl s 1993 584 m cl s 2040 584 m cl s 2086 584 m cl s 2133 584 m cl s 2179 584 m cl s 319 1729 m 1860 X s
 319 1729 m cl s 366 1729 m cl s 412 1729 m cl s 459 1729 m cl s 505 1729 m cl s 552 1729 m cl s 598 1729 m cl s 645 1729 m cl s 691 1729 m cl s 738 1729 m cl s 784 1729 m cl s 831 1729 m cl s 877 1729 m cl s 924 1729 m cl s 970 1729 m cl s 1017 1729
 m cl s 1063 1729 m cl s 1110 1729 m cl s 1156 1729 m cl s 1203 1729 m cl s 1249 1729 m cl s 1296 1729 m cl s 1342 1729 m cl s 1389 1729 m cl s 1435 1729 m cl s 1482 1729 m cl s 1528 1729 m cl s 1575 1729 m cl s 1621 1729 m cl s 1668 1729 m cl s 1714
 1729 m cl s 1761 1729 m cl s 1807 1729 m cl s 1854 1729 m cl s 1900 1729 m cl s 1947 1729 m cl s 1993 1729 m cl s 2040 1729 m cl s 2086 1729 m cl s 2133 1729 m cl s 2179 1729 m cl s 319 584 m 1145 Y s 341 629 m -22 X s 341 654 m -22 X s 341 673 m
 -22 X s 341 687 m -22 X s 341 699 m -22 X s 341 708 m -22 X s 341 717 m -22 X s 341 724 m -22 X s 363 731 m -44 X s 341 775 m -22 X s 341 801 m -22 X s 341 819 m -22 X s 341 834 m -22 X s 341 845 m -22 X s 341 855 m -22 X s 341 864 m -22 X s 341 871
 m -22 X s 363 878 m -44 X s 341 922 m -22 X s 341 948 m -22 X s 341 966 m -22 X s 341 981 m -22 X s 341 992 m -22 X s 341 1002 m -22 X s 341 1010 m -22 X s 341 1018 m -22 X s 363 1025 m -44 X s 341 1069 m -22 X s 341 1095 m -22 X s 341 1113 m -22 X
 s 341 1127 m -22 X s 341 1139 m -22 X s 341 1149 m -22 X s 341 1157 m -22 X s 341 1165 m -22 X s 363 1172 m -44 X s 341 1216 m -22 X s 341 1242 m -22 X s 341 1260 m -22 X s 341 1274 m -22 X s 341 1286 m -22 X s 341 1296 m -22 X s 341 1304 m -22 X s
 341 1312 m -22 X s 363 1318 m -44 X s 341 1362 m -22 X s 341 1388 m -22 X s 341 1407 m -22 X s 341 1421 m -22 X s 341 1433 m -22 X s 341 1442 m -22 X s 341 1451 m -22 X s 341 1458 m -22 X s 363 1465 m -44 X s 341 1509 m -22 X s 341 1535 m -22 X s
 341 1553 m -22 X s 341 1568 m -22 X s 341 1579 m -22 X s 341 1589 m -22 X s 341 1598 m -22 X s 341 1605 m -22 X s 363 1612 m -44 X s 341 1656 m -22 X s 341 1682 m -22 X s 341 1700 m -22 X s 341 1715 m -22 X s 341 1726 m -22 X s 2179 584 m 1145 Y s
 2157 629 m 22 X s 2157 654 m 22 X s 2157 673 m 22 X s 2157 687 m 22 X s 2157 699 m 22 X s 2157 708 m 22 X s 2157 717 m 22 X s 2157 724 m 22 X s 2136 731 m 43 X s 2157 775 m 22 X s 2157 801 m 22 X s 2157 819 m 22 X s 2157 834 m 22 X s 2157 845 m 22 X
 s 2157 855 m 22 X s 2157 864 m 22 X s 2157 871 m 22 X s 2136 878 m 43 X s 2157 922 m 22 X s 2157 948 m 22 X s 2157 966 m 22 X s 2157 981 m 22 X s 2157 992 m 22 X s 2157 1002 m 22 X s 2157 1010 m 22 X s 2157 1018 m 22 X s 2136 1025 m 43 X s 2157 1069
 m 22 X s 2157 1095 m 22 X s 2157 1113 m 22 X s 2157 1127 m 22 X s 2157 1139 m 22 X s 2157 1149 m 22 X s 2157 1157 m 22 X s 2157 1165 m 22 X s 2136 1172 m 43 X s 2157 1216 m 22 X s 2157 1242 m 22 X s 2157 1260 m 22 X s 2157 1274 m 22 X s 2157 1286 m
 22 X s 2157 1296 m 22 X s 2157 1304 m 22 X s 2157 1312 m 22 X s 2136 1318 m 43 X s 2157 1362 m 22 X s 2157 1388 m 22 X s 2157 1407 m 22 X s 2157 1421 m 22 X s 2157 1433 m 22 X s 2157 1442 m 22 X s 2157 1451 m 22 X s 2157 1458 m 22 X s 2136 1465 m 43
 X s 2157 1509 m 22 X s 2157 1535 m 22 X s 2157 1553 m 22 X s 2157 1568 m 22 X s 2157 1579 m 22 X s 2157 1589 m 22 X s 2157 1598 m 22 X s 2157 1605 m 22 X s 2136 1612 m 43 X s 2157 1656 m 22 X s 2157 1682 m 22 X s 2157 1700 m 22 X s 2157 1715 m 22 X
 s 2157 1726 m 22 X s
 gsave  2263 1770 2 313 C 406.765 1447.41 t 0 r /Helvetica findfont 64.4212 sf 0 0 m (VR0LdPhi for MB\255SSd) show NC gr 
 gsave  2263 1770 2 313 C 1464.36 1630.45 t 0 r /Helvetica findfont 64.4212 sf 0 0 m (SM Total) show NC gr  1 1 1 c 1338 1616 m 107 X 64 Y -107 X f 1 0 0 c 6 lw 1338 1648 m 107 X s black
 gsave  2263 1770 2 313 C 1464.36 1538.93 t 0 r /Helvetica findfont 64.4212 sf 0 0 m (Data) show NC gr  1391 1529 m 55 Y s 3 lw 1391 1557 m20 6 lw
 gsave  2263 1770 2 313 C 1464.36 1447.41 t 0 r /Helvetica findfont 64.4212 sf 0 0 m (W+jets) show NC gr  0.4 0.6 1 c 3 lw 1338 1434 m 107 X 64 Y -107 X f 6 lw black 3 lw 1338 1498 m 107 X s 1338 1434 m 107 X s 1445 1434 m 64 Y s 1338 1434 m 64 Y s
 gsave  2263 1770 2 313 C 1498.25 1355.88 t 0 r /Helvetica findfont 64.4212 sf 0 0 m (\(+EW\) & single top) show NC gr 
 gsave  2263 1770 2 313 C 1481.3 1355.88 t 0 r /Helvetica findfont 64.4212 sf 0 0 m (t) show NC gr  1481 1407 m 17 X s
 gsave  2263 1770 2 313 C 1464.36 1355.88 t 0 r /Helvetica findfont 64.4212 sf 0 0 m (t) show NC gr  0.6 1 0.6 c 1338 1343 m 107 X 63 Y -107 X f black 1338 1406 m 107 X s 1338 1343 m 107 X s 1445 1343 m 63 Y s 1338 1343 m 63 Y s
 gsave  2263 1770 2 313 C 1464.36 1264.36 t 0 r /Helvetica findfont 64.4212 sf 0 0 m (Z+jets) show NC gr  1 0.8 0.4 c 1338 1252 m 107 X 63 Y -107 X f black 1338 1315 m 107 X s 1338 1252 m 107 X s 1445 1252 m 63 Y s 1338 1252 m 63 Y s
 gsave  2263 1770 2 313 C 1464.36 1172.84 t 0 r /Helvetica findfont 64.4212 sf 0 0 m (Diboson) show NC gr  1 0.4 0.6 c 1338 1161 m 107 X 63 Y -107 X f black 1338 1224 m 107 X s 1338 1161 m 107 X s 1445 1161 m 63 Y s 1338 1161 m 63 Y s
 gsave  2263 1770 2 313 C 1464.36 1081.32 t 0 r /Helvetica findfont 64.4212 sf 0 0 m (Multi\255jet) show NC gr  0 0 0.4 c 1338 1070 m 107 X 63 Y -107 X f black 1338 1133 m 107 X s 1338 1070 m 107 X s 1445 1070 m 63 Y s 1338 1070 m 63 Y s
 gsave  2263 1770 2 313 C 911.832 1566.05 t 0 r /Helvetica findfont 44.0776 sf 0 0 m (\2551) show NC gr 
 gsave  2263 1770 2 313 C 471.17 1535.54 t 0 r /Helvetica findfont 64.4212 sf 0 0 m (=13TeV, 139 fb) show NC gr 
 gsave  2263 1770 2 313 C 440.662 1535.54 t 0 r /Helvetica findfont 64.4212 sf 0 0 m (s) show NC gr  6 lw 420 1573 m 7 -41 d s 3 lw 427 1532 m 7 61 d s 434 1593 m 37 X s 1 1 1 c 2254 561 2 2 bf black 1 1 1 c black 1860 358 318 187 bl 1 1 1 c black
 1860 358 318 187 bl 6 lw 1 1 1 c black 3 lw 364 360 m20 6 lw 3 lw 318 187 m 1860 X s
 gsave  2254 561 2 2 C 2105.01 64.4045 t 0 r /Helvetica findfont 50.9797 sf 0 0 m (1/2) show NC gr 
 gsave  2254 561 2 2 C 1888.07 23.728 t 0 r /Helvetica findfont 78.1689 sf 0 0 m ( [GeV]) show NC gr 
 gsave  2254 561 2 2 C 1857.56 3.38971 t 0 r /Helvetica findfont 50.9797 sf 0 0 m (T) show NC gr 
 gsave  2254 561 2 2 C 1806.72 23.728 t 0 r /Helvetica findfont 78.1689 sf 0 0 m (H) show NC gr  6 lw 1773 81 m 10 -78 d s 3 lw 1783 3 m 14 99 d s 1797 102 m 91 X s
 gsave  2254 561 2 2 C 1735.53 23.728 t 0 r /Helvetica findfont 78.1689 sf 0 0 m (/) show NC gr 
 gsave  2254 561 2 2 C 1630.45 61.0148 t 0 r /Helvetica findfont 50.9797 sf 0 0 m (miss) show NC gr 
 gsave  2254 561 2 2 C 1630.45 3.38971 t 0 r /Helvetica findfont 50.9797 sf 0 0 m (T) show NC gr 
 gsave  2254 561 2 2 C 1579.61 23.728 t 0 r /Helvetica findfont 78.1689 sf 0 0 m (E) show NC gr  318 201 m -14 Y s 364 194 m -7 Y s 411 194 m -7 Y s 457 194 m -7 Y s 504 194 m -7 Y s 550 201 m -14 Y s 597 194 m -7 Y s 643 194 m -7 Y s 690 194 m -7 Y
 s 736 194 m -7 Y s 783 201 m -14 Y s 829 194 m -7 Y s 876 194 m -7 Y s 923 194 m -7 Y s 969 194 m -7 Y s 1016 201 m -14 Y s 1062 194 m -7 Y s 1109 194 m -7 Y s 1155 194 m -7 Y s 1202 194 m -7 Y s 1248 201 m -14 Y s 1295 194 m -7 Y s 1341 194 m -7 Y
 s 1388 194 m -7 Y s 1434 194 m -7 Y s 1481 201 m -14 Y s 1527 194 m -7 Y s 1574 194 m -7 Y s 1620 194 m -7 Y s 1667 194 m -7 Y s 1713 201 m -14 Y s 1760 194 m -7 Y s 1806 194 m -7 Y s 1853 194 m -7 Y s 1899 194 m -7 Y s 1946 201 m -14 Y s 1992 194 m
 -7 Y s 2039 194 m -7 Y s 2085 194 m -7 Y s 2132 194 m -7 Y s 2178 201 m -14 Y s
 gsave  2254 561 2 2 C 271.177 118.64 t 0 r /Helvetica findfont 78.1689 sf 0 0 m (10) show NC gr 
 gsave  2254 561 2 2 C 505.067 118.64 t 0 r /Helvetica findfont 78.1689 sf 0 0 m (15) show NC gr 
 gsave  2254 561 2 2 C 735.567 118.64 t 0 r /Helvetica findfont 78.1689 sf 0 0 m (20) show NC gr 
 gsave  2254 561 2 2 C 969.457 118.64 t 0 r /Helvetica findfont 78.1689 sf 0 0 m (25) show NC gr 
 gsave  2254 561 2 2 C 1203.35 118.64 t 0 r /Helvetica findfont 78.1689 sf 0 0 m (30) show NC gr 
 gsave  2254 561 2 2 C 1433.85 118.64 t 0 r /Helvetica findfont 78.1689 sf 0 0 m (35) show NC gr 
 gsave  2254 561 2 2 C 1667.74 118.64 t 0 r /Helvetica findfont 78.1689 sf 0 0 m (40) show NC gr 
 gsave  2254 561 2 2 C 1901.63 118.64 t 0 r /Helvetica findfont 78.1689 sf 0 0 m (45) show NC gr 
 gsave  2254 561 2 2 C 2132.13 118.64 t 0 r /Helvetica findfont 78.1689 sf 0 0 m (50) show NC gr  318 545 m 1860 X s 318 531 m 14 Y s 364 538 m 7 Y s 411 538 m 7 Y s 457 538 m 7 Y s 504 538 m 7 Y s 550 531 m 14 Y s 597 538 m 7 Y s 643 538 m 7 Y s 690
 538 m 7 Y s 736 538 m 7 Y s 783 531 m 14 Y s 829 538 m 7 Y s 876 538 m 7 Y s 923 538 m 7 Y s 969 538 m 7 Y s 1016 531 m 14 Y s 1062 538 m 7 Y s 1109 538 m 7 Y s 1155 538 m 7 Y s 1202 538 m 7 Y s 1248 531 m 14 Y s 1295 538 m 7 Y s 1341 538 m 7 Y s
 1388 538 m 7 Y s 1434 538 m 7 Y s 1481 531 m 14 Y s 1527 538 m 7 Y s 1574 538 m 7 Y s 1620 538 m 7 Y s 1667 538 m 7 Y s 1713 531 m 14 Y s 1760 538 m 7 Y s 1806 538 m 7 Y s 1853 538 m 7 Y s 1899 538 m 7 Y s 1946 531 m 14 Y s 1992 538 m 7 Y s 2039 538
 m 7 Y s 2085 538 m 7 Y s 2132 538 m 7 Y s 2178 531 m 14 Y s 318 187 m 358 Y s
 gsave  2254 561 2 2 C 166.096 284.736 t 90 r /Helvetica findfont 67.9729 sf 0 0 m (Data/SM) show NC gr  361 203 m -43 X s 339 220 m -21 X s 339 236 m -21 X s 339 252 m -21 X s 339 268 m -21 X s 361 285 m -43 X s 339 301 m -21 X s 339 317 m -21 X s
 339 334 m -21 X s 339 350 m -21 X s 361 366 m -43 X s 339 382 m -21 X s 339 399 m -21 X s 339 415 m -21 X s 339 431 m -21 X s 361 447 m -43 X s 339 464 m -21 X s 339 480 m -21 X s 339 496 m -21 X s 339 512 m -21 X s 361 529 m -43 X s 361 203 m -43 X
 s 339 187 m -21 X s 361 529 m -43 X s
 gsave  2254 561 2 2 C 261.008 183.044 t 0 r /Helvetica findfont 57.777 sf 0 0 m (0) show NC gr 
 gsave  2254 561 2 2 C 213.552 261.008 t 0 r /Helvetica findfont 57.777 sf 0 0 m (0.5) show NC gr 
 gsave  2254 561 2 2 C 271.177 342.361 t 0 r /Helvetica findfont 57.777 sf 0 0 m (1) show NC gr 
 gsave  2254 561 2 2 C 213.552 423.714 t 0 r /Helvetica findfont 57.777 sf 0 0 m (1.5) show NC gr 
 gsave  2254 561 2 2 C 261.008 505.067 t 0 r /Helvetica findfont 57.777 sf 0 0 m (2) show NC gr  2178 187 m 358 Y s 2135 203 m 43 X s 2157 220 m 21 X s 2157 236 m 21 X s 2157 252 m 21 X s 2157 268 m 21 X s 2135 285 m 43 X s 2157 301 m 21 X s 2157 317
 m 21 X s 2157 334 m 21 X s 2157 350 m 21 X s 2135 366 m 43 X s 2157 382 m 21 X s 2157 399 m 21 X s 2157 415 m 21 X s 2157 431 m 21 X s 2135 447 m 43 X s 2157 464 m 21 X s 2157 480 m 21 X s 2157 496 m 21 X s 2157 512 m 21 X s 2135 529 m 43 X s 2135
 203 m 43 X s 2157 187 m 21 X s 2135 529 m 43 X s 9 lw 3 lw 364 360 m20 9 lw 1 0 0 c 6 lw black 3 lw 1 0 0 c 2155 203 m cl s 2127 203 m cl s 2098 203 m cl s 2069 203 m cl s 2040 203 m cl s 2012 203 m cl s 1983 203 m cl s 1954 203 m cl s 1926 203 m cl
 s 1897 203 m cl s 1868 203 m cl s 1840 203 m cl s 1811 203 m cl s 1782 203 m cl s 1754 203 m cl s 1725 203 m cl s 1696 203 m cl s 1667 203 m cl s 1639 203 m cl s 1610 203 m cl s 1581 203 m cl s 1553 203 m cl s 1524 203 m cl s 1495 203 m cl s 1467
 203 m cl s 1438 203 m cl s 1409 203 m cl s 1381 203 m cl s 1352 203 m cl s 1323 203 m cl s 1294 203 m cl s 1266 203 m cl s 1237 203 m cl s 1208 203 m cl s 1180 203 m cl s 1151 203 m cl s 1122 203 m cl s 1094 203 m cl s 1065 203 m cl s 1036 203 m cl
 s 1008 203 m cl s 979 203 m cl s 950 203 m cl s 922 203 m cl s 893 203 m cl s 864 203 m cl s 835 203 m cl s 807 203 m cl s 778 203 m cl s 749 203 m cl s 721 203 m cl s 692 203 m cl s 663 203 m cl s 635 203 m cl s 606 203 m cl s 577 203 m cl s 549
 203 m cl s 520 203 m cl s 491 203 m cl s 462 203 m cl s 434 203 m cl s 411 209 m s 411 238 m s 411 266 m s 411 295 m s 411 324 m s 318 231 m s 411 352 m s 318 259 m s 405 375 m -18 -18 d s 318 288 m s 376 375 m -17 -18 d s 318 317 m s 347 375 m -17
 -18 d s 318 345 m s 319 375 m -1 -1 d s 6 lw black[ 4 8] 0 sd 3 lw 318 447 m 1860 X s 318 285 m 1860 X s 1 0 0 c[  12 12 ] 0 sd 6 lw 318 366 m 1860 X s
 gr  gr showpage
end
%%EOF
