%!PS-Adobe-2.0 EPSF-2.0
%%BoundingBox:  0 0 567 521
%%Title: Distributions/metsqrtmeffInc_met_distrVR0LdPhi_MB-GGd_afterFit_forThesis.eps: canvas
%%Creator: ROOT Version 6.04/16
%%CreationDate: Tue May 19 22:06:17 2020
%%DocumentNeededResources: ProcSet (FontSetInit)
%%EndComments
%%BeginProlog
80 dict begin
/s {stroke} def /l {lineto} def /m {moveto} def /t {translate} def
/r {rotate} def /rl {roll}  def /R {repeat} def
/d {rlineto} def /rm {rmoveto} def /gr {grestore} def /f {eofill} def
/c {setrgbcolor} def /black {0 setgray} def /sd {setdash} def
/cl {closepath} def /sf {scalefont setfont} def /lw {setlinewidth} def
/box {m dup 0 exch d exch 0 d 0 exch neg d cl} def
/NC{systemdict begin initclip end}def/C{NC box clip newpath}def
/bl {box s} def /bf {gsave box gsave f grestore 1 lw [] 0 sd s grestore} def /Y { 0 exch d} def /X { 0 d} def 
/K {{pop pop 0 moveto} exch kshow} bind def
/ita {/ang 15 def gsave [1 0 ang dup sin exch cos div 1 0 0] concat} def 
/mp {newpath /y exch def /x exch def} def
/side {[w .77 mul w .23 mul] .385 w mul sd w 0 l currentpoint t -144 r} def
/mr {mp x y w2 0 360 arc} def /m24 {mr s} def /m20 {mr f} def
/mb {mp x y w2 add m w2 neg 0 d 0 w neg d w 0 d 0 w d cl} def
/mt {mp x y w2 add m w2 neg w neg d w 0 d cl} def
/m21 {mb f} def /m25 {mb s} def /m22 {mt f} def /m26{mt s} def
/m23 {mp x y w2 sub m w2 w d w neg 0 d cl f} def
/m27 {mp x y w2 add m w3 neg w2 neg d w3 w2 neg d w3 w2 d cl s} def
/m28 {mp x w2 sub y w2 sub w3 add m w3 0 d  0 w3 neg d w3 0 d 0 w3 d w3 0 d  0 w3 d w3 neg 0 d 0 w3 d w3 neg 0 d 0 w3 neg d w3 neg 0 d cl s } def
/m29 {mp gsave x w2 sub y w2 add w3 sub m currentpoint t 4 {side} repeat cl fill gr} def
/m30 {mp gsave x w2 sub y w2 add w3 sub m currentpoint t 4 {side} repeat cl s gr} def
/m31 {mp x y w2 sub m 0 w d x w2 sub y m w 0 d x w2 sub y w2 add m w w neg d x w2 sub y w2 sub m w w d s} def
/m32 {mp x y w2 sub m w2 w d w neg 0 d cl s} def
/m33 {mp x y w2 add m w3 neg w2 neg d w3 w2 neg d w3 w2 d cl f} def
/m34 {mp x w2 sub y w2 sub w3 add m w3 0 d  0 w3 neg d w3 0 d 0 w3 d w3 0 d  0 w3 d w3 neg 0 d 0 w3 d w3 neg 0 d 0 w3 neg d w3 neg 0 d cl f } def
/m2 {mp x y w2 sub m 0 w d x w2 sub y m w 0 d s} def
/m5 {mp x w2 sub y w2 sub m w w d x w2 sub y w2 add m w w neg d s} def
%%IncludeResource: ProcSet (FontSetInit)
%%IncludeResource: font Times-Roman
%%IncludeResource: font Times-Italic
%%IncludeResource: font Times-Bold
%%IncludeResource: font Times-BoldItalic
%%IncludeResource: font Helvetica
%%IncludeResource: font Helvetica-Oblique
%%IncludeResource: font Helvetica-Bold
%%IncludeResource: font Helvetica-BoldOblique
%%IncludeResource: font Courier
%%IncludeResource: font Courier-Oblique
%%IncludeResource: font Courier-Bold
%%IncludeResource: font Courier-BoldOblique
%%IncludeResource: font Symbol
%%IncludeResource: font ZapfDingbats
/reEncode {exch findfont dup length dict begin {1 index /FID eq  {pop pop} {def} ifelse } forall /Encoding exch def currentdict end dup /FontName get exch definefont pop } def [/Times-Bold /Times-Italic /Times-BoldItalic /Helvetica /Helvetica-Oblique
 /Helvetica-Bold /Helvetica-BoldOblique /Courier /Courier-Oblique /Courier-Bold /Courier-BoldOblique /Times-Roman /AvantGarde-Book /AvantGarde-BookOblique /AvantGarde-Demi /AvantGarde-DemiOblique /Bookman-Demi /Bookman-DemiItalic /Bookman-Light
 /Bookman-LightItalic /Helvetica-Narrow /Helvetica-Narrow-Bold /Helvetica-Narrow-BoldOblique /Helvetica-Narrow-Oblique /NewCenturySchlbk-Roman /NewCenturySchlbk-Bold /NewCenturySchlbk-BoldItalic /NewCenturySchlbk-Italic /Palatino-Bold
 /Palatino-BoldItalic /Palatino-Italic /Palatino-Roman ] {ISOLatin1Encoding reEncode } forall
%%EndProlog
%%BeginSetup
%%EndSetup
newpath  gsave  .25 .25 scale  gsave  0 0 t black[  ] 0 sd 3 lw 1 1 1 c 2268 2085 0 0 bf black 1 1 1 c 2263 1770 2 313 bf black 1 1 1 c black 1860 1145 319 584 bl 1 1 1 c black 1860 1145 319 584 bl 6 lw 1 1 1 c black 3 lw /w 33 def /w2 {w 2 div} def
 /w3 {w 3 div} def 391 1160 m20 6 lw 3 lw 319 584 m 1860 X s
 gsave  2263 1770 2 313 C 2101.62 396.596 t 0 r /Helvetica findfont 54.2494 sf 0 0 m (1/2) show NC gr 
 gsave  2263 1770 2 313 C 1874.51 355.92 t 0 r /Helvetica findfont 81.3741 sf 0 0 m ( [GeV]) show NC gr 
 gsave  2263 1770 2 313 C 1840.61 332.192 t 0 r /Helvetica findfont 54.2494 sf 0 0 m (T) show NC gr 
 gsave  2263 1770 2 313 C 1786.38 355.92 t 0 r /Helvetica findfont 81.3741 sf 0 0 m (H) show NC gr  6 lw 1749 417 m 14 -85 d s 3 lw 1763 332 m 13 105 d s 1776 437 m 99 X s
 gsave  2263 1770 2 313 C 1711.8 355.92 t 0 r /Helvetica findfont 81.3741 sf 0 0 m (/) show NC gr 
 gsave  2263 1770 2 313 C 1599.94 396.596 t 0 r /Helvetica findfont 54.2494 sf 0 0 m (miss) show NC gr 
 gsave  2263 1770 2 313 C 1599.94 332.192 t 0 r /Helvetica findfont 54.2494 sf 0 0 m (T) show NC gr 
 gsave  2263 1770 2 313 C 1549.1 355.92 t 0 r /Helvetica findfont 81.3741 sf 0 0 m (E) show NC gr  319 584 m cl s 391 584 m cl s 462 584 m cl s 534 584 m cl s 605 584 m cl s 677 584 m cl s 748 584 m cl s 820 584 m cl s 892 584 m cl s 963 584 m cl s
 1035 584 m cl s 1106 584 m cl s 1178 584 m cl s 1249 584 m cl s 1321 584 m cl s 1392 584 m cl s 1464 584 m cl s 1535 584 m cl s 1607 584 m cl s 1679 584 m cl s 1750 584 m cl s 1822 584 m cl s 1893 584 m cl s 1965 584 m cl s 2036 584 m cl s 2108 584
 m cl s 2108 584 m cl s 2179 584 m cl s 319 1729 m 1860 X s 319 1729 m cl s 391 1729 m cl s 462 1729 m cl s 534 1729 m cl s 605 1729 m cl s 677 1729 m cl s 748 1729 m cl s 820 1729 m cl s 892 1729 m cl s 963 1729 m cl s 1035 1729 m cl s 1106 1729 m
 cl s 1178 1729 m cl s 1249 1729 m cl s 1321 1729 m cl s 1392 1729 m cl s 1464 1729 m cl s 1535 1729 m cl s 1607 1729 m cl s 1679 1729 m cl s 1750 1729 m cl s 1822 1729 m cl s 1893 1729 m cl s 1965 1729 m cl s 2036 1729 m cl s 2108 1729 m cl s 2108
 1729 m cl s 2179 1729 m cl s 319 584 m 1145 Y s
 gsave  2263 1770 2 313 C 125.419 1654.18 t 90 r /Helvetica findfont 54.2494 sf 0 0 m (1/2) show NC gr 
 gsave  2263 1770 2 313 C 166.096 1064.37 t 90 r /Helvetica findfont 81.3741 sf 0 0 m (Events / 2 [GeV]) show NC gr  341 633 m -22 X s 341 662 m -22 X s 341 682 m -22 X s 341 698 m -22 X s 341 711 m -22 X s 341 722 m -22 X s 341 731 m -22 X s 341 740
 m -22 X s 363 747 m -44 X s
 gsave  2263 1770 2 313 C 300.555 720.147 t 0 r  -36 0 t /Helvetica findfont 64.4212 sf 0 0 m (1) show NC gr  341 796 m -22 X s 341 825 m -22 X s 341 845 m -22 X s 341 861 m -22 X s 341 874 m -22 X s 341 885 m -22 X s 341 894 m -22 X s 341 903 m -22
 X s 363 910 m -44 X s
 gsave  2263 1770 2 313 C 300.555 883.102 t 0 r  -73 0 t /Helvetica findfont 64.4212 sf 0 0 m (10) show NC gr  341 959 m -22 X s 341 988 m -22 X s 341 1008 m -22 X s 341 1024 m -22 X s 341 1037 m -22 X s 341 1048 m -22 X s 341 1057 m -22 X s 341 1066
 m -22 X s 363 1073 m -44 X s
 gsave  2263 1770 2 313 C 274.567 1071.15 t 0 r /Helvetica findfont 44.0776 sf 0 0 m (2) show NC gr 
 gsave  2263 1770 2 313 C 203.383 1044.03 t 0 r /Helvetica findfont 64.4212 sf 0 0 m (10) show NC gr  341 1122 m -22 X s 341 1151 m -22 X s 341 1171 m -22 X s 341 1187 m -22 X s 341 1200 m -22 X s 341 1211 m -22 X s 341 1220 m -22 X s 341 1229 m -22
 X s 363 1236 m -44 X s
 gsave  2263 1770 2 313 C 274.567 1237.24 t 0 r /Helvetica findfont 44.0776 sf 0 0 m (3) show NC gr 
 gsave  2263 1770 2 313 C 203.383 1206.74 t 0 r /Helvetica findfont 64.4212 sf 0 0 m (10) show NC gr  341 1285 m -22 X s 341 1314 m -22 X s 341 1334 m -22 X s 341 1350 m -22 X s 341 1363 m -22 X s 341 1374 m -22 X s 341 1383 m -22 X s 341 1392 m -22
 X s 363 1399 m -44 X s
 gsave  2263 1770 2 313 C 274.567 1396.56 t 0 r /Helvetica findfont 44.0776 sf 0 0 m (4) show NC gr 
 gsave  2263 1770 2 313 C 203.383 1369.44 t 0 r /Helvetica findfont 64.4212 sf 0 0 m (10) show NC gr  341 1448 m -22 X s 341 1477 m -22 X s 341 1497 m -22 X s 341 1513 m -22 X s 341 1526 m -22 X s 341 1537 m -22 X s 341 1546 m -22 X s 341 1555 m -22
 X s 363 1562 m -44 X s
 gsave  2263 1770 2 313 C 274.567 1562.66 t 0 r /Helvetica findfont 44.0776 sf 0 0 m (5) show NC gr 
 gsave  2263 1770 2 313 C 203.383 1532.15 t 0 r /Helvetica findfont 64.4212 sf 0 0 m (10) show NC gr  341 1611 m -22 X s 341 1640 m -22 X s 341 1660 m -22 X s 341 1676 m -22 X s 341 1689 m -22 X s 341 1700 m -22 X s 341 1709 m -22 X s 341 1718 m -22
 X s 363 1725 m -44 X s
 gsave  2263 1770 2 313 C 274.567 1725.36 t 0 r /Helvetica findfont 44.0776 sf 0 0 m (6) show NC gr 
 gsave  2263 1770 2 313 C 203.383 1694.86 t 0 r /Helvetica findfont 64.4212 sf 0 0 m (10) show NC gr  2179 584 m 1145 Y s 2157 633 m 22 X s 2157 662 m 22 X s 2157 682 m 22 X s 2157 698 m 22 X s 2157 711 m 22 X s 2157 722 m 22 X s 2157 731 m 22 X s
 2157 740 m 22 X s 2136 747 m 43 X s 2157 796 m 22 X s 2157 825 m 22 X s 2157 845 m 22 X s 2157 861 m 22 X s 2157 874 m 22 X s 2157 885 m 22 X s 2157 894 m 22 X s 2157 903 m 22 X s 2136 910 m 43 X s 2157 959 m 22 X s 2157 988 m 22 X s 2157 1008 m 22
 X s 2157 1024 m 22 X s 2157 1037 m 22 X s 2157 1048 m 22 X s 2157 1057 m 22 X s 2157 1066 m 22 X s 2136 1073 m 43 X s 2157 1122 m 22 X s 2157 1151 m 22 X s 2157 1171 m 22 X s 2157 1187 m 22 X s 2157 1200 m 22 X s 2157 1211 m 22 X s 2157 1220 m 22 X
 s 2157 1229 m 22 X s 2136 1236 m 43 X s 2157 1285 m 22 X s 2157 1314 m 22 X s 2157 1334 m 22 X s 2157 1350 m 22 X s 2157 1363 m 22 X s 2157 1374 m 22 X s 2157 1383 m 22 X s 2157 1392 m 22 X s 2136 1399 m 43 X s 2157 1448 m 22 X s 2157 1477 m 22 X s
 2157 1497 m 22 X s 2157 1513 m 22 X s 2157 1526 m 22 X s 2157 1537 m 22 X s 2157 1546 m 22 X s 2157 1555 m 22 X s 2136 1562 m 43 X s 2157 1611 m 22 X s 2157 1640 m 22 X s 2157 1660 m 22 X s 2157 1676 m 22 X s 2157 1689 m 22 X s 2157 1700 m 22 X s
 2157 1709 m 22 X s 2157 1718 m 22 X s 2136 1725 m 43 X s 0.4 0.6 1 c black 0.4 0.6 1 c 319 584 m 578 Y 143 X -578 Y 1717 X f black 0.4 0.6 1 c black 319 1162 m 143 X -578 Y 1717 X s 0.999 0.999 0.999 c black 0.999 0.999 0.999 c 319 584 m 558 Y 143 X
 -558 Y 1717 X f black 0.999 0.999 0.999 c black 319 1142 m 143 X -558 Y 1717 X s 1 1 1 c black 319 1142 m 143 X -558 Y 1717 X s 0.6 1 0.6 c black 0.6 1 0.6 c 319 584 m 558 Y 143 X -558 Y 1717 X f black 0.6 1 0.6 c black 319 1142 m 143 X -558 Y 1717
 X s 0.999 0.999 0.999 c black 0.999 0.999 0.999 c 319 584 m 519 Y 143 X -519 Y 1717 X f black 0.999 0.999 0.999 c black 319 1103 m 143 X -519 Y 1717 X s 1 1 1 c black 319 1103 m 143 X -519 Y 1717 X s 1 0.8 0.4 c black 1 0.8 0.4 c 319 584 m 519 Y 143
 X -519 Y 1717 X f black 1 0.8 0.4 c black 319 1103 m 143 X -519 Y 1717 X s 0.999 0.999 0.999 c black 0.999 0.999 0.999 c 319 584 m 399 Y 143 X -399 Y 1717 X f black 0.999 0.999 0.999 c black 319 983 m 143 X -399 Y 1717 X s 1 1 1 c black 319 983 m
 143 X -399 Y 1717 X s 1 0.4 0.6 c black 1 0.4 0.6 c 319 584 m 399 Y 143 X -399 Y 1717 X f black 1 0.4 0.6 c black 319 983 m 143 X -399 Y 1717 X s 0.999 0.999 0.999 c black 0.999 0.999 0.999 c 319 584 m 310 Y 143 X -310 Y 1717 X f black 0.999 0.999
 0.999 c black 319 894 m 143 X -310 Y 1717 X s 1 1 1 c black 319 894 m 143 X -310 Y 1717 X s 0 0 0.4 c black 0 0 0.4 c 319 584 m 310 Y 143 X -310 Y 1717 X f black 0 0 0.4 c black 319 894 m 143 X -310 Y 1717 X s 1 0 0 c 6 lw 1 1 1 c black 1 0 0 c 319
 1162 m 143 X -578 Y 1717 X s black 3 lw 1 0 0 c 1 lw << /PatternType 1 /PaintType 2 /TilingType 1 /BBox [ 0 0 100 100 ] /XStep 100 /YStep 100 /PaintProc { begin gsave 0 100 m 100 0 l s gr end } >> [ 0.24 0 0 0.24 0 0 ] makepattern /P05 exch def /cs
 {[/Pattern /DeviceRGB] setcolorspace} def /FA {f [/DeviceRGB] setcolorspace} def cs 1 0 0 P05 setcolor 319 584 m 582 Y 143 X -582 Y 574 Y -143 X -574 Y FA 6 lw 1 1 1 c 15 lw black 1 1 1 c 3 lw /w 43 def /w2 {w 2 div} def /w3 {w 3 div} def 391 1160
 m20 15 lw black 6 lw 1 1 1 c black 3 lw /w 33 def /w2 {w 2 div} def /w3 {w 3 div} def 391 1160 m20 6 lw 3 lw 391 1160 m20 6 lw 3 lw 319 584 m 1860 X s 319 584 m cl s 391 584 m cl s 462 584 m cl s 534 584 m cl s 605 584 m cl s 677 584 m cl s 748 584
 m cl s 820 584 m cl s 892 584 m cl s 963 584 m cl s 1035 584 m cl s 1106 584 m cl s 1178 584 m cl s 1249 584 m cl s 1321 584 m cl s 1392 584 m cl s 1464 584 m cl s 1535 584 m cl s 1607 584 m cl s 1679 584 m cl s 1750 584 m cl s 1822 584 m cl s 1893
 584 m cl s 1965 584 m cl s 2036 584 m cl s 2108 584 m cl s 2108 584 m cl s 2179 584 m cl s 319 1729 m 1860 X s 319 1729 m cl s 391 1729 m cl s 462 1729 m cl s 534 1729 m cl s 605 1729 m cl s 677 1729 m cl s 748 1729 m cl s 820 1729 m cl s 892 1729 m
 cl s 963 1729 m cl s 1035 1729 m cl s 1106 1729 m cl s 1178 1729 m cl s 1249 1729 m cl s 1321 1729 m cl s 1392 1729 m cl s 1464 1729 m cl s 1535 1729 m cl s 1607 1729 m cl s 1679 1729 m cl s 1750 1729 m cl s 1822 1729 m cl s 1893 1729 m cl s 1965
 1729 m cl s 2036 1729 m cl s 2108 1729 m cl s 2108 1729 m cl s 2179 1729 m cl s 319 584 m 1145 Y s 341 633 m -22 X s 341 662 m -22 X s 341 682 m -22 X s 341 698 m -22 X s 341 711 m -22 X s 341 722 m -22 X s 341 731 m -22 X s 341 740 m -22 X s 363
 747 m -44 X s 341 796 m -22 X s 341 825 m -22 X s 341 845 m -22 X s 341 861 m -22 X s 341 874 m -22 X s 341 885 m -22 X s 341 894 m -22 X s 341 903 m -22 X s 363 910 m -44 X s 341 959 m -22 X s 341 988 m -22 X s 341 1008 m -22 X s 341 1024 m -22 X s
 341 1037 m -22 X s 341 1048 m -22 X s 341 1057 m -22 X s 341 1066 m -22 X s 363 1073 m -44 X s 341 1122 m -22 X s 341 1151 m -22 X s 341 1171 m -22 X s 341 1187 m -22 X s 341 1200 m -22 X s 341 1211 m -22 X s 341 1220 m -22 X s 341 1229 m -22 X s
 363 1236 m -44 X s 341 1285 m -22 X s 341 1314 m -22 X s 341 1334 m -22 X s 341 1350 m -22 X s 341 1363 m -22 X s 341 1374 m -22 X s 341 1383 m -22 X s 341 1392 m -22 X s 363 1399 m -44 X s 341 1448 m -22 X s 341 1477 m -22 X s 341 1497 m -22 X s
 341 1513 m -22 X s 341 1526 m -22 X s 341 1537 m -22 X s 341 1546 m -22 X s 341 1555 m -22 X s 363 1562 m -44 X s 341 1611 m -22 X s 341 1640 m -22 X s 341 1660 m -22 X s 341 1676 m -22 X s 341 1689 m -22 X s 341 1700 m -22 X s 341 1709 m -22 X s
 341 1718 m -22 X s 363 1725 m -44 X s 2179 584 m 1145 Y s 2157 633 m 22 X s 2157 662 m 22 X s 2157 682 m 22 X s 2157 698 m 22 X s 2157 711 m 22 X s 2157 722 m 22 X s 2157 731 m 22 X s 2157 740 m 22 X s 2136 747 m 43 X s 2157 796 m 22 X s 2157 825 m
 22 X s 2157 845 m 22 X s 2157 861 m 22 X s 2157 874 m 22 X s 2157 885 m 22 X s 2157 894 m 22 X s 2157 903 m 22 X s 2136 910 m 43 X s 2157 959 m 22 X s 2157 988 m 22 X s 2157 1008 m 22 X s 2157 1024 m 22 X s 2157 1037 m 22 X s 2157 1048 m 22 X s 2157
 1057 m 22 X s 2157 1066 m 22 X s 2136 1073 m 43 X s 2157 1122 m 22 X s 2157 1151 m 22 X s 2157 1171 m 22 X s 2157 1187 m 22 X s 2157 1200 m 22 X s 2157 1211 m 22 X s 2157 1220 m 22 X s 2157 1229 m 22 X s 2136 1236 m 43 X s 2157 1285 m 22 X s 2157
 1314 m 22 X s 2157 1334 m 22 X s 2157 1350 m 22 X s 2157 1363 m 22 X s 2157 1374 m 22 X s 2157 1383 m 22 X s 2157 1392 m 22 X s 2136 1399 m 43 X s 2157 1448 m 22 X s 2157 1477 m 22 X s 2157 1497 m 22 X s 2157 1513 m 22 X s 2157 1526 m 22 X s 2157
 1537 m 22 X s 2157 1546 m 22 X s 2157 1555 m 22 X s 2136 1562 m 43 X s 2157 1611 m 22 X s 2157 1640 m 22 X s 2157 1660 m 22 X s 2157 1676 m 22 X s 2157 1689 m 22 X s 2157 1700 m 22 X s 2157 1709 m 22 X s 2157 1718 m 22 X s 2136 1725 m 43 X s
 gsave  2263 1770 2 313 C 406.765 1447.41 t 0 r /Helvetica findfont 64.4212 sf 0 0 m (VR0LdPhi for MB\255GGd) show NC gr 
 gsave  2263 1770 2 313 C 1464.36 1630.45 t 0 r /Helvetica findfont 64.4212 sf 0 0 m (SM Total) show NC gr  1 1 1 c 1338 1616 m 107 X 64 Y -107 X f 1 0 0 c 6 lw 1338 1648 m 107 X s black
 gsave  2263 1770 2 313 C 1464.36 1538.93 t 0 r /Helvetica findfont 64.4212 sf 0 0 m (Data) show NC gr  1391 1529 m 55 Y s 3 lw 1391 1557 m20 6 lw
 gsave  2263 1770 2 313 C 1464.36 1447.41 t 0 r /Helvetica findfont 64.4212 sf 0 0 m (W+jets) show NC gr  0.4 0.6 1 c 3 lw 1338 1434 m 107 X 64 Y -107 X f 6 lw black 3 lw 1338 1498 m 107 X s 1338 1434 m 107 X s 1445 1434 m 64 Y s 1338 1434 m 64 Y s
 gsave  2263 1770 2 313 C 1498.25 1355.88 t 0 r /Helvetica findfont 64.4212 sf 0 0 m (\(+EW\) & single top) show NC gr 
 gsave  2263 1770 2 313 C 1481.3 1355.88 t 0 r /Helvetica findfont 64.4212 sf 0 0 m (t) show NC gr  1481 1407 m 17 X s
 gsave  2263 1770 2 313 C 1464.36 1355.88 t 0 r /Helvetica findfont 64.4212 sf 0 0 m (t) show NC gr  0.6 1 0.6 c 1338 1343 m 107 X 63 Y -107 X f black 1338 1406 m 107 X s 1338 1343 m 107 X s 1445 1343 m 63 Y s 1338 1343 m 63 Y s
 gsave  2263 1770 2 313 C 1464.36 1264.36 t 0 r /Helvetica findfont 64.4212 sf 0 0 m (Z+jets) show NC gr  1 0.8 0.4 c 1338 1252 m 107 X 63 Y -107 X f black 1338 1315 m 107 X s 1338 1252 m 107 X s 1445 1252 m 63 Y s 1338 1252 m 63 Y s
 gsave  2263 1770 2 313 C 1464.36 1172.84 t 0 r /Helvetica findfont 64.4212 sf 0 0 m (Diboson) show NC gr  1 0.4 0.6 c 1338 1161 m 107 X 63 Y -107 X f black 1338 1224 m 107 X s 1338 1161 m 107 X s 1445 1161 m 63 Y s 1338 1161 m 63 Y s
 gsave  2263 1770 2 313 C 1464.36 1081.32 t 0 r /Helvetica findfont 64.4212 sf 0 0 m (Multi\255jet) show NC gr  0 0 0.4 c 1338 1070 m 107 X 63 Y -107 X f black 1338 1133 m 107 X s 1338 1070 m 107 X s 1445 1070 m 63 Y s 1338 1070 m 63 Y s
 gsave  2263 1770 2 313 C 911.832 1566.05 t 0 r /Helvetica findfont 44.0776 sf 0 0 m (\2551) show NC gr 
 gsave  2263 1770 2 313 C 471.17 1535.54 t 0 r /Helvetica findfont 64.4212 sf 0 0 m (=13TeV, 139 fb) show NC gr 
 gsave  2263 1770 2 313 C 440.662 1535.54 t 0 r /Helvetica findfont 64.4212 sf 0 0 m (s) show NC gr  6 lw 420 1573 m 7 -41 d s 3 lw 427 1532 m 7 61 d s 434 1593 m 37 X s 1 1 1 c 2254 561 2 2 bf black 1 1 1 c black 1860 358 318 187 bl 1 1 1 c black
 1860 358 318 187 bl 6 lw 1 1 1 c black 3 lw 389 362 m20 6 lw 3 lw 318 187 m 1860 X s
 gsave  2254 561 2 2 C 2105.01 64.4045 t 0 r /Helvetica findfont 50.9797 sf 0 0 m (1/2) show NC gr 
 gsave  2254 561 2 2 C 1888.07 23.728 t 0 r /Helvetica findfont 78.1689 sf 0 0 m ( [GeV]) show NC gr 
 gsave  2254 561 2 2 C 1857.56 3.38971 t 0 r /Helvetica findfont 50.9797 sf 0 0 m (T) show NC gr 
 gsave  2254 561 2 2 C 1806.72 23.728 t 0 r /Helvetica findfont 78.1689 sf 0 0 m (H) show NC gr  6 lw 1773 81 m 10 -78 d s 3 lw 1783 3 m 14 99 d s 1797 102 m 91 X s
 gsave  2254 561 2 2 C 1735.53 23.728 t 0 r /Helvetica findfont 78.1689 sf 0 0 m (/) show NC gr 
 gsave  2254 561 2 2 C 1630.45 61.0148 t 0 r /Helvetica findfont 50.9797 sf 0 0 m (miss) show NC gr 
 gsave  2254 561 2 2 C 1630.45 3.38971 t 0 r /Helvetica findfont 50.9797 sf 0 0 m (T) show NC gr 
 gsave  2254 561 2 2 C 1579.61 23.728 t 0 r /Helvetica findfont 78.1689 sf 0 0 m (E) show NC gr  318 201 m -14 Y s 389 194 m -7 Y s 461 194 m -7 Y s 533 194 m -7 Y s 604 194 m -7 Y s 676 201 m -14 Y s 747 194 m -7 Y s 819 194 m -7 Y s 890 194 m -7 Y
 s 962 194 m -7 Y s 1033 201 m -14 Y s 1105 194 m -7 Y s 1177 194 m -7 Y s 1248 194 m -7 Y s 1320 194 m -7 Y s 1391 201 m -14 Y s 1463 194 m -7 Y s 1534 194 m -7 Y s 1606 194 m -7 Y s 1677 194 m -7 Y s 1749 201 m -14 Y s 1821 194 m -7 Y s 1892 194 m
 -7 Y s 1964 194 m -7 Y s 2035 194 m -7 Y s 2107 201 m -14 Y s 2107 201 m -14 Y s 2178 194 m -7 Y s
 gsave  2254 561 2 2 C 271.177 118.64 t 0 r /Helvetica findfont 78.1689 sf 0 0 m (10) show NC gr 
 gsave  2254 561 2 2 C 630.486 118.64 t 0 r /Helvetica findfont 78.1689 sf 0 0 m (15) show NC gr 
 gsave  2254 561 2 2 C 986.406 118.64 t 0 r /Helvetica findfont 78.1689 sf 0 0 m (20) show NC gr 
 gsave  2254 561 2 2 C 1345.72 118.64 t 0 r /Helvetica findfont 78.1689 sf 0 0 m (25) show NC gr 
 gsave  2254 561 2 2 C 1701.63 118.64 t 0 r /Helvetica findfont 78.1689 sf 0 0 m (30) show NC gr 
 gsave  2254 561 2 2 C 2060.94 118.64 t 0 r /Helvetica findfont 78.1689 sf 0 0 m (35) show NC gr  318 545 m 1860 X s 318 531 m 14 Y s 389 538 m 7 Y s 461 538 m 7 Y s 533 538 m 7 Y s 604 538 m 7 Y s 676 531 m 14 Y s 747 538 m 7 Y s 819 538 m 7 Y s 890
 538 m 7 Y s 962 538 m 7 Y s 1033 531 m 14 Y s 1105 538 m 7 Y s 1177 538 m 7 Y s 1248 538 m 7 Y s 1320 538 m 7 Y s 1391 531 m 14 Y s 1463 538 m 7 Y s 1534 538 m 7 Y s 1606 538 m 7 Y s 1677 538 m 7 Y s 1749 531 m 14 Y s 1821 538 m 7 Y s 1892 538 m 7 Y
 s 1964 538 m 7 Y s 2035 538 m 7 Y s 2107 531 m 14 Y s 2107 531 m 14 Y s 2178 538 m 7 Y s 318 187 m 358 Y s
 gsave  2254 561 2 2 C 166.096 284.736 t 90 r /Helvetica findfont 67.9729 sf 0 0 m (Data/SM) show NC gr  361 203 m -43 X s 339 220 m -21 X s 339 236 m -21 X s 339 252 m -21 X s 339 268 m -21 X s 361 285 m -43 X s 339 301 m -21 X s 339 317 m -21 X s
 339 334 m -21 X s 339 350 m -21 X s 361 366 m -43 X s 339 382 m -21 X s 339 399 m -21 X s 339 415 m -21 X s 339 431 m -21 X s 361 447 m -43 X s 339 464 m -21 X s 339 480 m -21 X s 339 496 m -21 X s 339 512 m -21 X s 361 529 m -43 X s 361 203 m -43 X
 s 339 187 m -21 X s 361 529 m -43 X s
 gsave  2254 561 2 2 C 261.008 183.044 t 0 r /Helvetica findfont 57.777 sf 0 0 m (0) show NC gr 
 gsave  2254 561 2 2 C 213.552 261.008 t 0 r /Helvetica findfont 57.777 sf 0 0 m (0.5) show NC gr 
 gsave  2254 561 2 2 C 271.177 342.361 t 0 r /Helvetica findfont 57.777 sf 0 0 m (1) show NC gr 
 gsave  2254 561 2 2 C 213.552 423.714 t 0 r /Helvetica findfont 57.777 sf 0 0 m (1.5) show NC gr 
 gsave  2254 561 2 2 C 261.008 505.067 t 0 r /Helvetica findfont 57.777 sf 0 0 m (2) show NC gr  2178 187 m 358 Y s 2135 203 m 43 X s 2157 220 m 21 X s 2157 236 m 21 X s 2157 252 m 21 X s 2157 268 m 21 X s 2135 285 m 43 X s 2157 301 m 21 X s 2157 317
 m 21 X s 2157 334 m 21 X s 2157 350 m 21 X s 2135 366 m 43 X s 2157 382 m 21 X s 2157 399 m 21 X s 2157 415 m 21 X s 2157 431 m 21 X s 2135 447 m 43 X s 2157 464 m 21 X s 2157 480 m 21 X s 2157 496 m 21 X s 2157 512 m 21 X s 2135 529 m 43 X s 2135
 203 m 43 X s 2157 187 m 21 X s 2135 529 m 43 X s 9 lw 3 lw 389 362 m20 9 lw 1 0 0 c 6 lw black 3 lw 1 0 0 c 2155 203 m cl s 2127 203 m cl s 2098 203 m cl s 2069 203 m cl s 2040 203 m cl s 2012 203 m cl s 1983 203 m cl s 1954 203 m cl s 1926 203 m cl
 s 1897 203 m cl s 1868 203 m cl s 1840 203 m cl s 1811 203 m cl s 1782 203 m cl s 1754 203 m cl s 1725 203 m cl s 1696 203 m cl s 1667 203 m cl s 1639 203 m cl s 1610 203 m cl s 1581 203 m cl s 1553 203 m cl s 1524 203 m cl s 1495 203 m cl s 1467
 203 m cl s 1438 203 m cl s 1409 203 m cl s 1381 203 m cl s 1352 203 m cl s 1323 203 m cl s 1294 203 m cl s 1266 203 m cl s 1237 203 m cl s 1208 203 m cl s 1180 203 m cl s 1151 203 m cl s 1122 203 m cl s 1094 203 m cl s 1065 203 m cl s 1036 203 m cl
 s 1008 203 m cl s 979 203 m cl s 950 203 m cl s 922 203 m cl s 893 203 m cl s 864 203 m cl s 835 203 m cl s 807 203 m cl s 778 203 m cl s 749 203 m cl s 721 203 m cl s 692 203 m cl s 663 203 m cl s 635 203 m cl s 606 203 m cl s 577 203 m cl s 549
 203 m cl s 520 203 m cl s 491 203 m cl s 462 203 m cl s 461 230 m s 461 259 m s 461 288 m s 461 316 m s 461 345 m s 461 373 m -16 -16 d s 318 231 m s 434 375 m -18 -18 d s 318 259 m s 405 375 m -18 -18 d s 318 288 m s 376 375 m -17 -18 d s 318 317 m
 s 347 375 m -17 -18 d s 318 345 m s 319 375 m -1 -1 d s 6 lw black[ 4 8] 0 sd 3 lw 318 447 m 1860 X s 318 285 m 1860 X s 1 0 0 c[  12 12 ] 0 sd 6 lw 318 366 m 1860 X s
 gr  gr showpage
end
%%EOF
