%!PS-Adobe-2.0 EPSF-2.0
%%BoundingBox:  0 0 567 521
%%Title: Distributions/metsqrtmeffInc_met_distrCRW_MB-GGo_beforeFit_forThesis.eps: canvas
%%Creator: ROOT Version 6.04/16
%%CreationDate: Tue May 19 22:05:55 2020
%%DocumentNeededResources: ProcSet (FontSetInit)
%%EndComments
%%BeginProlog
80 dict begin
/s {stroke} def /l {lineto} def /m {moveto} def /t {translate} def
/r {rotate} def /rl {roll}  def /R {repeat} def
/d {rlineto} def /rm {rmoveto} def /gr {grestore} def /f {eofill} def
/c {setrgbcolor} def /black {0 setgray} def /sd {setdash} def
/cl {closepath} def /sf {scalefont setfont} def /lw {setlinewidth} def
/box {m dup 0 exch d exch 0 d 0 exch neg d cl} def
/NC{systemdict begin initclip end}def/C{NC box clip newpath}def
/bl {box s} def /bf {gsave box gsave f grestore 1 lw [] 0 sd s grestore} def /Y { 0 exch d} def /X { 0 d} def 
/K {{pop pop 0 moveto} exch kshow} bind def
/ita {/ang 15 def gsave [1 0 ang dup sin exch cos div 1 0 0] concat} def 
/mp {newpath /y exch def /x exch def} def
/side {[w .77 mul w .23 mul] .385 w mul sd w 0 l currentpoint t -144 r} def
/mr {mp x y w2 0 360 arc} def /m24 {mr s} def /m20 {mr f} def
/mb {mp x y w2 add m w2 neg 0 d 0 w neg d w 0 d 0 w d cl} def
/mt {mp x y w2 add m w2 neg w neg d w 0 d cl} def
/m21 {mb f} def /m25 {mb s} def /m22 {mt f} def /m26{mt s} def
/m23 {mp x y w2 sub m w2 w d w neg 0 d cl f} def
/m27 {mp x y w2 add m w3 neg w2 neg d w3 w2 neg d w3 w2 d cl s} def
/m28 {mp x w2 sub y w2 sub w3 add m w3 0 d  0 w3 neg d w3 0 d 0 w3 d w3 0 d  0 w3 d w3 neg 0 d 0 w3 d w3 neg 0 d 0 w3 neg d w3 neg 0 d cl s } def
/m29 {mp gsave x w2 sub y w2 add w3 sub m currentpoint t 4 {side} repeat cl fill gr} def
/m30 {mp gsave x w2 sub y w2 add w3 sub m currentpoint t 4 {side} repeat cl s gr} def
/m31 {mp x y w2 sub m 0 w d x w2 sub y m w 0 d x w2 sub y w2 add m w w neg d x w2 sub y w2 sub m w w d s} def
/m32 {mp x y w2 sub m w2 w d w neg 0 d cl s} def
/m33 {mp x y w2 add m w3 neg w2 neg d w3 w2 neg d w3 w2 d cl f} def
/m34 {mp x w2 sub y w2 sub w3 add m w3 0 d  0 w3 neg d w3 0 d 0 w3 d w3 0 d  0 w3 d w3 neg 0 d 0 w3 d w3 neg 0 d 0 w3 neg d w3 neg 0 d cl f } def
/m2 {mp x y w2 sub m 0 w d x w2 sub y m w 0 d s} def
/m5 {mp x w2 sub y w2 sub m w w d x w2 sub y w2 add m w w neg d s} def
%%IncludeResource: ProcSet (FontSetInit)
%%IncludeResource: font Times-Roman
%%IncludeResource: font Times-Italic
%%IncludeResource: font Times-Bold
%%IncludeResource: font Times-BoldItalic
%%IncludeResource: font Helvetica
%%IncludeResource: font Helvetica-Oblique
%%IncludeResource: font Helvetica-Bold
%%IncludeResource: font Helvetica-BoldOblique
%%IncludeResource: font Courier
%%IncludeResource: font Courier-Oblique
%%IncludeResource: font Courier-Bold
%%IncludeResource: font Courier-BoldOblique
%%IncludeResource: font Symbol
%%IncludeResource: font ZapfDingbats
/reEncode {exch findfont dup length dict begin {1 index /FID eq  {pop pop} {def} ifelse } forall /Encoding exch def currentdict end dup /FontName get exch definefont pop } def [/Times-Bold /Times-Italic /Times-BoldItalic /Helvetica /Helvetica-Oblique
 /Helvetica-Bold /Helvetica-BoldOblique /Courier /Courier-Oblique /Courier-Bold /Courier-BoldOblique /Times-Roman /AvantGarde-Book /AvantGarde-BookOblique /AvantGarde-Demi /AvantGarde-DemiOblique /Bookman-Demi /Bookman-DemiItalic /Bookman-Light
 /Bookman-LightItalic /Helvetica-Narrow /Helvetica-Narrow-Bold /Helvetica-Narrow-BoldOblique /Helvetica-Narrow-Oblique /NewCenturySchlbk-Roman /NewCenturySchlbk-Bold /NewCenturySchlbk-BoldItalic /NewCenturySchlbk-Italic /Palatino-Bold
 /Palatino-BoldItalic /Palatino-Italic /Palatino-Roman ] {ISOLatin1Encoding reEncode } forall
%%EndProlog
%%BeginSetup
%%EndSetup
newpath  gsave  .25 .25 scale  gsave  0 0 t black[  ] 0 sd 3 lw 1 1 1 c 2268 2085 0 0 bf black 1 1 1 c 2263 1770 2 313 bf black 1 1 1 c black 1860 1145 319 584 bl 1 1 1 c black 1860 1145 319 584 bl 6 lw 1 1 1 c black 3 lw /w 33 def /w2 {w 2 div} def
 /w3 {w 3 div} def 412 1112 m20 6 lw 3 lw 598 1047 m20 6 lw 784 978 m 4 Y s 784 1009 m s 3 lw 784 995 m20 6 lw 970 978 m 4 Y s 970 1009 m s 3 lw 970 995 m20 6 lw 1156 867 m 22 Y s 1156 916 m 11 Y s 3 lw 1156 903 m20 6 lw 1342 880 m 19 Y s 1342 926 m
 10 Y s 3 lw 1342 913 m20 6 lw 1528 717 m 78 Y s 1528 822 m 27 Y s 3 lw 1528 809 m20 6 lw 1714 809 m 38 Y s 1714 874 m 17 Y s 3 lw 1714 861 m20 6 lw 1900 584 m 159 Y s 1900 770 m 39 Y s 3 lw 1900 757 m20 6 lw 2086 584 m 159 Y s 2086 770 m 39 Y s 3 lw
 2086 757 m20 6 lw 3 lw 319 584 m 1860 X s
 gsave  2263 1770 2 313 C 2101.62 396.596 t 0 r /Helvetica findfont 54.2494 sf 0 0 m (1/2) show NC gr 
 gsave  2263 1770 2 313 C 1874.51 355.92 t 0 r /Helvetica findfont 81.3741 sf 0 0 m ( [GeV]) show NC gr 
 gsave  2263 1770 2 313 C 1840.61 332.192 t 0 r /Helvetica findfont 54.2494 sf 0 0 m (T) show NC gr 
 gsave  2263 1770 2 313 C 1786.38 355.92 t 0 r /Helvetica findfont 81.3741 sf 0 0 m (H) show NC gr  6 lw 1749 417 m 14 -85 d s 3 lw 1763 332 m 13 105 d s 1776 437 m 99 X s
 gsave  2263 1770 2 313 C 1711.8 355.92 t 0 r /Helvetica findfont 81.3741 sf 0 0 m (/) show NC gr 
 gsave  2263 1770 2 313 C 1599.94 396.596 t 0 r /Helvetica findfont 54.2494 sf 0 0 m (miss) show NC gr 
 gsave  2263 1770 2 313 C 1599.94 332.192 t 0 r /Helvetica findfont 54.2494 sf 0 0 m (T) show NC gr 
 gsave  2263 1770 2 313 C 1549.1 355.92 t 0 r /Helvetica findfont 81.3741 sf 0 0 m (E) show NC gr  319 584 m cl s 366 584 m cl s 412 584 m cl s 459 584 m cl s 505 584 m cl s 552 584 m cl s 598 584 m cl s 645 584 m cl s 691 584 m cl s 738 584 m cl s
 784 584 m cl s 831 584 m cl s 877 584 m cl s 924 584 m cl s 970 584 m cl s 1017 584 m cl s 1063 584 m cl s 1110 584 m cl s 1156 584 m cl s 1203 584 m cl s 1249 584 m cl s 1296 584 m cl s 1342 584 m cl s 1389 584 m cl s 1435 584 m cl s 1482 584 m cl
 s 1528 584 m cl s 1575 584 m cl s 1621 584 m cl s 1668 584 m cl s 1714 584 m cl s 1761 584 m cl s 1807 584 m cl s 1854 584 m cl s 1900 584 m cl s 1947 584 m cl s 1993 584 m cl s 2040 584 m cl s 2086 584 m cl s 2133 584 m cl s 2179 584 m cl s 319
 1729 m 1860 X s 319 1729 m cl s 366 1729 m cl s 412 1729 m cl s 459 1729 m cl s 505 1729 m cl s 552 1729 m cl s 598 1729 m cl s 645 1729 m cl s 691 1729 m cl s 738 1729 m cl s 784 1729 m cl s 831 1729 m cl s 877 1729 m cl s 924 1729 m cl s 970 1729
 m cl s 1017 1729 m cl s 1063 1729 m cl s 1110 1729 m cl s 1156 1729 m cl s 1203 1729 m cl s 1249 1729 m cl s 1296 1729 m cl s 1342 1729 m cl s 1389 1729 m cl s 1435 1729 m cl s 1482 1729 m cl s 1528 1729 m cl s 1575 1729 m cl s 1621 1729 m cl s 1668
 1729 m cl s 1714 1729 m cl s 1761 1729 m cl s 1807 1729 m cl s 1854 1729 m cl s 1900 1729 m cl s 1947 1729 m cl s 1993 1729 m cl s 2040 1729 m cl s 2086 1729 m cl s 2133 1729 m cl s 2179 1729 m cl s 319 584 m 1145 Y s
 gsave  2263 1770 2 313 C 125.419 1654.18 t 90 r /Helvetica findfont 54.2494 sf 0 0 m (1/2) show NC gr 
 gsave  2263 1770 2 313 C 166.096 1064.37 t 90 r /Helvetica findfont 81.3741 sf 0 0 m (Events / 2 [GeV]) show NC gr  341 636 m -22 X s 341 667 m -22 X s 341 688 m -22 X s 341 705 m -22 X s 341 719 m -22 X s 341 730 m -22 X s 341 740 m -22 X s 341 749
 m -22 X s 363 757 m -44 X s
 gsave  2263 1770 2 313 C 300.555 729.821 t 0 r  -36 0 t /Helvetica findfont 64.4212 sf 0 0 m (1) show NC gr  341 809 m -22 X s 341 839 m -22 X s 341 861 m -22 X s 341 878 m -22 X s 341 891 m -22 X s 341 903 m -22 X s 341 913 m -22 X s 341 922 m -22
 X s 363 930 m -44 X s
 gsave  2263 1770 2 313 C 300.555 902.451 t 0 r  -73 0 t /Helvetica findfont 64.4212 sf 0 0 m (10) show NC gr  341 982 m -22 X s 341 1012 m -22 X s 341 1034 m -22 X s 341 1050 m -22 X s 341 1064 m -22 X s 341 1075 m -22 X s 341 1085 m -22 X s 341
 1094 m -22 X s 363 1102 m -44 X s
 gsave  2263 1770 2 313 C 274.567 1101.66 t 0 r /Helvetica findfont 44.0776 sf 0 0 m (2) show NC gr 
 gsave  2263 1770 2 313 C 203.383 1074.54 t 0 r /Helvetica findfont 64.4212 sf 0 0 m (10) show NC gr  341 1154 m -22 X s 341 1185 m -22 X s 341 1206 m -22 X s 341 1223 m -22 X s 341 1237 m -22 X s 341 1248 m -22 X s 341 1258 m -22 X s 341 1267 m -22
 X s 363 1275 m -44 X s
 gsave  2263 1770 2 313 C 274.567 1277.92 t 0 r /Helvetica findfont 44.0776 sf 0 0 m (3) show NC gr 
 gsave  2263 1770 2 313 C 203.383 1247.41 t 0 r /Helvetica findfont 64.4212 sf 0 0 m (10) show NC gr  341 1327 m -22 X s 341 1357 m -22 X s 341 1379 m -22 X s 341 1395 m -22 X s 341 1409 m -22 X s 341 1421 m -22 X s 341 1431 m -22 X s 341 1440 m -22
 X s 363 1447 m -44 X s
 gsave  2263 1770 2 313 C 274.567 1447.41 t 0 r /Helvetica findfont 44.0776 sf 0 0 m (4) show NC gr 
 gsave  2263 1770 2 313 C 203.383 1420.29 t 0 r /Helvetica findfont 64.4212 sf 0 0 m (10) show NC gr  341 1499 m -22 X s 341 1530 m -22 X s 341 1551 m -22 X s 341 1568 m -22 X s 341 1582 m -22 X s 341 1593 m -22 X s 341 1603 m -22 X s 341 1612 m -22
 X s 363 1620 m -44 X s
 gsave  2263 1770 2 313 C 274.567 1620.28 t 0 r /Helvetica findfont 44.0776 sf 0 0 m (5) show NC gr 
 gsave  2263 1770 2 313 C 203.383 1589.77 t 0 r /Helvetica findfont 64.4212 sf 0 0 m (10) show NC gr  341 1672 m -22 X s 341 1702 m -22 X s 341 1724 m -22 X s 2179 584 m 1145 Y s 2157 636 m 22 X s 2157 667 m 22 X s 2157 688 m 22 X s 2157 705 m 22 X s
 2157 719 m 22 X s 2157 730 m 22 X s 2157 740 m 22 X s 2157 749 m 22 X s 2136 757 m 43 X s 2157 809 m 22 X s 2157 839 m 22 X s 2157 861 m 22 X s 2157 878 m 22 X s 2157 891 m 22 X s 2157 903 m 22 X s 2157 913 m 22 X s 2157 922 m 22 X s 2136 930 m 43 X
 s 2157 982 m 22 X s 2157 1012 m 22 X s 2157 1034 m 22 X s 2157 1050 m 22 X s 2157 1064 m 22 X s 2157 1075 m 22 X s 2157 1085 m 22 X s 2157 1094 m 22 X s 2136 1102 m 43 X s 2157 1154 m 22 X s 2157 1185 m 22 X s 2157 1206 m 22 X s 2157 1223 m 22 X s
 2157 1237 m 22 X s 2157 1248 m 22 X s 2157 1258 m 22 X s 2157 1267 m 22 X s 2136 1275 m 43 X s 2157 1327 m 22 X s 2157 1357 m 22 X s 2157 1379 m 22 X s 2157 1395 m 22 X s 2157 1409 m 22 X s 2157 1421 m 22 X s 2157 1431 m 22 X s 2157 1440 m 22 X s
 2136 1447 m 43 X s 2157 1499 m 22 X s 2157 1530 m 22 X s 2157 1551 m 22 X s 2157 1568 m 22 X s 2157 1582 m 22 X s 2157 1593 m 22 X s 2157 1603 m 22 X s 2157 1612 m 22 X s 2136 1620 m 43 X s 2157 1672 m 22 X s 2157 1702 m 22 X s 2157 1724 m 22 X s
 0.4 0.6 1 c black 0.4 0.6 1 c 319 584 m 544 Y 186 X -45 Y 186 X -47 Y 186 X -40 Y 186 X -48 Y 186 X -58 Y 186 X -42 Y 186 X -44 Y 186 X -27 Y 372 X -193 Y f black 0.4 0.6 1 c black 319 1128 m 186 X -45 Y 186 X -47 Y 186 X -40 Y 186 X -48 Y 186 X -58
 Y 186 X -42 Y 186 X -44 Y 186 X -27 Y 372 X s 0.999 0.999 0.999 c black 0.999 0.999 0.999 c 319 584 m 458 Y 186 X -49 Y 186 X -61 Y 186 X -57 Y 186 X -52 Y 186 X -55 Y 186 X -52 Y 186 X -97 Y 186 X 66 Y 186 X 29 Y 186 X -130 Y f black 0.999 0.999
 0.999 c black 319 1042 m 186 X -49 Y 186 X -61 Y 186 X -57 Y 186 X -52 Y 186 X -55 Y 186 X -52 Y 186 X -97 Y 186 X 66 Y 186 X 29 Y 186 X s 1 1 1 c black 319 1042 m 186 X -49 Y 186 X -61 Y 186 X -57 Y 186 X -52 Y 186 X -55 Y 186 X -52 Y 186 X -97 Y
 186 X 66 Y 186 X 29 Y 186 X s 0.6 1 0.6 c black 0.6 1 0.6 c 319 584 m 458 Y 186 X -49 Y 186 X -61 Y 186 X -57 Y 186 X -52 Y 186 X -55 Y 186 X -52 Y 186 X -97 Y 186 X 66 Y 186 X 29 Y 186 X -130 Y f black 0.6 1 0.6 c black 319 1042 m 186 X -49 Y 186 X
 -61 Y 186 X -57 Y 186 X -52 Y 186 X -55 Y 186 X -52 Y 186 X -97 Y 186 X 66 Y 186 X 29 Y 186 X s 0.999 0.999 0.999 c black 0.999 0.999 0.999 c 319 584 m 343 Y 186 X -40 Y 186 X -49 Y 186 X -39 Y 186 X -53 Y 186 X -19 Y 186 X -36 Y 186 X -98 Y 186 X
 -9 Y 372 X f black 0.999 0.999 0.999 c black 319 927 m 186 X -40 Y 186 X -49 Y 186 X -39 Y 186 X -53 Y 186 X -19 Y 186 X -36 Y 186 X -98 Y 186 X -9 Y 372 X s 1 1 1 c black 319 927 m 186 X -40 Y 186 X -49 Y 186 X -39 Y 186 X -53 Y 186 X -19 Y 186 X
 -36 Y 186 X -98 Y 186 X -9 Y 372 X s 1 0.8 0.4 c black 1 0.8 0.4 c 319 584 m 343 Y 186 X -40 Y 186 X -49 Y 186 X -39 Y 186 X -53 Y 186 X -19 Y 186 X -36 Y 186 X -98 Y 186 X -9 Y 372 X f black 1 0.8 0.4 c black 319 927 m 186 X -40 Y 186 X -49 Y 186 X
 -39 Y 186 X -53 Y 186 X -19 Y 186 X -36 Y 186 X -98 Y 186 X -9 Y 372 X s 0.999 0.999 0.999 c black 0.999 0.999 0.999 c 319 584 m 335 Y 186 X -38 Y 186 X -50 Y 186 X -36 Y 186 X -54 Y 186 X -15 Y 186 X -37 Y 186 X -96 Y 186 X -9 Y 372 X f black 0.999
 0.999 0.999 c black 319 919 m 186 X -38 Y 186 X -50 Y 186 X -36 Y 186 X -54 Y 186 X -15 Y 186 X -37 Y 186 X -96 Y 186 X -9 Y 372 X s 1 1 1 c black 319 919 m 186 X -38 Y 186 X -50 Y 186 X -36 Y 186 X -54 Y 186 X -15 Y 186 X -37 Y 186 X -96 Y 186 X -9
 Y 372 X s 1 0.4 0.6 c black 1 0.4 0.6 c 319 584 m 335 Y 186 X -38 Y 186 X -50 Y 186 X -36 Y 186 X -54 Y 186 X -15 Y 186 X -37 Y 186 X -96 Y 186 X -9 Y 372 X f black 1 0.4 0.6 c black 319 919 m 186 X -38 Y 186 X -50 Y 186 X -36 Y 186 X -54 Y 186 X
 -15 Y 186 X -37 Y 186 X -96 Y 186 X -9 Y 372 X s 1 0 0 c 6 lw 1 1 1 c black 1 0 0 c 319 1128 m 186 X -45 Y 186 X -47 Y 186 X -40 Y 186 X -48 Y 186 X -58 Y 186 X -42 Y 186 X -44 Y 186 X -27 Y 372 X s black 3 lw 1 0 0 c 1 lw << /PatternType 1
 /PaintType 2 /TilingType 1 /BBox [ 0 0 100 100 ] /XStep 100 /YStep 100 /PaintProc { begin gsave 0 100 m 100 0 l s gr end } >> [ 0.24 0 0 0.24 0 0 ] makepattern /P05 exch def /cs {[/Pattern /DeviceRGB] setcolorspace} def /FA {f [/DeviceRGB]
 setcolorspace} def cs 1 0 0 P05 setcolor 319 584 m 548 Y 186 X -44 Y 186 X -47 Y 186 X -39 Y 186 X -47 Y 186 X -57 Y 186 X -39 Y 186 X -44 Y 186 X -19 Y 186 X 1 Y 186 X -49 Y -186 X 5 Y -186 X 39 Y -186 X 43 Y -186 X 46 Y -186 X 59 Y -186 X 49 Y
 -186 X 42 Y -186 X 48 Y -186 X 46 Y -186 X -541 Y FA 6 lw 1 1 1 c 15 lw 1156 923 m 5 Y s 1156 928 m cl s 1156 882 m -13 Y s 1156 869 m cl s 1342 933 m 3 Y s 1342 936 m cl s 1342 893 m -12 Y s 1342 881 m cl s 1528 829 m 24 Y s 1528 853 m cl s 1528
 789 m -58 Y s 1528 731 m cl s 1714 881 m 12 Y s 1714 893 m cl s 1714 841 m -29 Y s 1714 812 m cl s 1900 777 m 42 Y s 1900 819 m cl s 1900 737 m -111 Y s 1900 626 m cl s 2086 777 m 42 Y s 2086 819 m cl s 2086 737 m -111 Y s 2086 626 m cl s black 1 1
 1 c 3 lw /w 43 def /w2 {w 2 div} def /w3 {w 3 div} def 412 1112 598 1047 784 995 970 995 1156 903 1342 913 1528 809 1714 861 1900 757 2086 757 10 { m20} R 15 lw black 6 lw 1 1 1 c black 3 lw /w 33 def /w2 {w 2 div} def /w3 {w 3 div} def 412 1112 m20
 6 lw 3 lw 598 1047 m20 6 lw 784 978 m 4 Y s 784 1009 m s 3 lw 784 995 m20 6 lw 970 978 m 4 Y s 970 1009 m s 3 lw 970 995 m20 6 lw 1156 867 m 22 Y s 1156 916 m 11 Y s 3 lw 1156 903 m20 6 lw 1342 880 m 19 Y s 1342 926 m 10 Y s 3 lw 1342 913 m20 6 lw
 1528 717 m 78 Y s 1528 822 m 27 Y s 3 lw 1528 809 m20 6 lw 1714 809 m 38 Y s 1714 874 m 17 Y s 3 lw 1714 861 m20 6 lw 1900 584 m 159 Y s 1900 770 m 39 Y s 3 lw 1900 757 m20 6 lw 2086 584 m 159 Y s 2086 770 m 39 Y s 3 lw 2086 757 m20 6 lw 784 1009 m
 s 784 1009 m cl s 784 982 m -4 Y s 784 978 m cl s 970 1009 m s 970 1009 m cl s 970 982 m -4 Y s 970 978 m cl s 1156 916 m 12 Y s 1156 928 m cl s 1156 889 m -20 Y s 1156 869 m cl s 1342 926 m 10 Y s 1342 936 m cl s 1342 899 m -18 Y s 1342 881 m cl s
 1528 822 m 31 Y s 1528 853 m cl s 1528 795 m -64 Y s 1528 731 m cl s 1714 874 m 19 Y s 1714 893 m cl s 1714 847 m -35 Y s 1714 812 m cl s 1900 770 m 49 Y s 1900 819 m cl s 1900 743 m -117 Y s 1900 626 m cl s 2086 770 m 49 Y s 2086 819 m cl s 2086
 743 m -117 Y s 2086 626 m cl s 3 lw 412 1112 598 1047 784 995 970 995 1156 903 1342 913 1528 809 1714 861 1900 757 2086 757 10 { m20} R 6 lw 3 lw 319 584 m 1860 X s 319 584 m cl s 366 584 m cl s 412 584 m cl s 459 584 m cl s 505 584 m cl s 552 584 m
 cl s 598 584 m cl s 645 584 m cl s 691 584 m cl s 738 584 m cl s 784 584 m cl s 831 584 m cl s 877 584 m cl s 924 584 m cl s 970 584 m cl s 1017 584 m cl s 1063 584 m cl s 1110 584 m cl s 1156 584 m cl s 1203 584 m cl s 1249 584 m cl s 1296 584 m cl
 s 1342 584 m cl s 1389 584 m cl s 1435 584 m cl s 1482 584 m cl s 1528 584 m cl s 1575 584 m cl s 1621 584 m cl s 1668 584 m cl s 1714 584 m cl s 1761 584 m cl s 1807 584 m cl s 1854 584 m cl s 1900 584 m cl s 1947 584 m cl s 1993 584 m cl s 2040
 584 m cl s 2086 584 m cl s 2133 584 m cl s 2179 584 m cl s 319 1729 m 1860 X s 319 1729 m cl s 366 1729 m cl s 412 1729 m cl s 459 1729 m cl s 505 1729 m cl s 552 1729 m cl s 598 1729 m cl s 645 1729 m cl s 691 1729 m cl s 738 1729 m cl s 784 1729 m
 cl s 831 1729 m cl s 877 1729 m cl s 924 1729 m cl s 970 1729 m cl s 1017 1729 m cl s 1063 1729 m cl s 1110 1729 m cl s 1156 1729 m cl s 1203 1729 m cl s 1249 1729 m cl s 1296 1729 m cl s 1342 1729 m cl s 1389 1729 m cl s 1435 1729 m cl s 1482 1729
 m cl s 1528 1729 m cl s 1575 1729 m cl s 1621 1729 m cl s 1668 1729 m cl s 1714 1729 m cl s 1761 1729 m cl s 1807 1729 m cl s 1854 1729 m cl s 1900 1729 m cl s 1947 1729 m cl s 1993 1729 m cl s 2040 1729 m cl s 2086 1729 m cl s 2133 1729 m cl s 2179
 1729 m cl s 319 584 m 1145 Y s 341 636 m -22 X s 341 667 m -22 X s 341 688 m -22 X s 341 705 m -22 X s 341 719 m -22 X s 341 730 m -22 X s 341 740 m -22 X s 341 749 m -22 X s 363 757 m -44 X s 341 809 m -22 X s 341 839 m -22 X s 341 861 m -22 X s
 341 878 m -22 X s 341 891 m -22 X s 341 903 m -22 X s 341 913 m -22 X s 341 922 m -22 X s 363 930 m -44 X s 341 982 m -22 X s 341 1012 m -22 X s 341 1034 m -22 X s 341 1050 m -22 X s 341 1064 m -22 X s 341 1075 m -22 X s 341 1085 m -22 X s 341 1094
 m -22 X s 363 1102 m -44 X s 341 1154 m -22 X s 341 1185 m -22 X s 341 1206 m -22 X s 341 1223 m -22 X s 341 1237 m -22 X s 341 1248 m -22 X s 341 1258 m -22 X s 341 1267 m -22 X s 363 1275 m -44 X s 341 1327 m -22 X s 341 1357 m -22 X s 341 1379 m
 -22 X s 341 1395 m -22 X s 341 1409 m -22 X s 341 1421 m -22 X s 341 1431 m -22 X s 341 1440 m -22 X s 363 1447 m -44 X s 341 1499 m -22 X s 341 1530 m -22 X s 341 1551 m -22 X s 341 1568 m -22 X s 341 1582 m -22 X s 341 1593 m -22 X s 341 1603 m
 -22 X s 341 1612 m -22 X s 363 1620 m -44 X s 341 1672 m -22 X s 341 1702 m -22 X s 341 1724 m -22 X s 2179 584 m 1145 Y s 2157 636 m 22 X s 2157 667 m 22 X s 2157 688 m 22 X s 2157 705 m 22 X s 2157 719 m 22 X s 2157 730 m 22 X s 2157 740 m 22 X s
 2157 749 m 22 X s 2136 757 m 43 X s 2157 809 m 22 X s 2157 839 m 22 X s 2157 861 m 22 X s 2157 878 m 22 X s 2157 891 m 22 X s 2157 903 m 22 X s 2157 913 m 22 X s 2157 922 m 22 X s 2136 930 m 43 X s 2157 982 m 22 X s 2157 1012 m 22 X s 2157 1034 m 22
 X s 2157 1050 m 22 X s 2157 1064 m 22 X s 2157 1075 m 22 X s 2157 1085 m 22 X s 2157 1094 m 22 X s 2136 1102 m 43 X s 2157 1154 m 22 X s 2157 1185 m 22 X s 2157 1206 m 22 X s 2157 1223 m 22 X s 2157 1237 m 22 X s 2157 1248 m 22 X s 2157 1258 m 22 X
 s 2157 1267 m 22 X s 2136 1275 m 43 X s 2157 1327 m 22 X s 2157 1357 m 22 X s 2157 1379 m 22 X s 2157 1395 m 22 X s 2157 1409 m 22 X s 2157 1421 m 22 X s 2157 1431 m 22 X s 2157 1440 m 22 X s 2136 1447 m 43 X s 2157 1499 m 22 X s 2157 1530 m 22 X s
 2157 1551 m 22 X s 2157 1568 m 22 X s 2157 1582 m 22 X s 2157 1593 m 22 X s 2157 1603 m 22 X s 2157 1612 m 22 X s 2136 1620 m 43 X s 2157 1672 m 22 X s 2157 1702 m 22 X s 2157 1724 m 22 X s
 gsave  2263 1770 2 313 C 406.765 1447.41 t 0 r /Helvetica findfont 64.4212 sf 0 0 m (CRW for MB\255GGo) show NC gr 
 gsave  2263 1770 2 313 C 1464.36 1616.89 t 0 r /Helvetica findfont 64.4212 sf 0 0 m (SM Total) show NC gr  1 1 1 c 1338 1603 m 107 X 74 Y -107 X f 1 0 0 c 6 lw 1338 1640 m 107 X s black
 gsave  2263 1770 2 313 C 1464.36 1511.81 t 0 r /Helvetica findfont 64.4212 sf 0 0 m (Data) show NC gr  1391 1502 m 64 Y s 3 lw 1391 1534 m20 6 lw
 gsave  2263 1770 2 313 C 1464.36 1406.73 t 0 r /Helvetica findfont 64.4212 sf 0 0 m (W+jets) show NC gr  0.4 0.6 1 c 3 lw 1338 1391 m 107 X 74 Y -107 X f 6 lw black 3 lw 1338 1465 m 107 X s 1338 1391 m 107 X s 1445 1391 m 74 Y s 1338 1391 m 74 Y s
 gsave  2263 1770 2 313 C 1498.25 1298.26 t 0 r /Helvetica findfont 64.4212 sf 0 0 m (\(+EW\) & single top) show NC gr 
 gsave  2263 1770 2 313 C 1481.3 1298.26 t 0 r /Helvetica findfont 64.4212 sf 0 0 m (t) show NC gr  1481 1349 m 17 X s
 gsave  2263 1770 2 313 C 1464.36 1298.26 t 0 r /Helvetica findfont 64.4212 sf 0 0 m (t) show NC gr  0.6 1 0.6 c 1338 1284 m 107 X 75 Y -107 X f black 1338 1359 m 107 X s 1338 1284 m 107 X s 1445 1284 m 75 Y s 1338 1284 m 75 Y s
 gsave  2263 1770 2 313 C 1464.36 1193.18 t 0 r /Helvetica findfont 64.4212 sf 0 0 m (Z+jets) show NC gr  1 0.8 0.4 c 1338 1178 m 107 X 75 Y -107 X f black 1338 1253 m 107 X s 1338 1178 m 107 X s 1445 1178 m 75 Y s 1338 1178 m 75 Y s
 gsave  2263 1770 2 313 C 1464.36 1088.1 t 0 r /Helvetica findfont 64.4212 sf 0 0 m (Diboson) show NC gr  1 0.4 0.6 c 1338 1072 m 107 X 74 Y -107 X f black 1338 1146 m 107 X s 1338 1072 m 107 X s 1445 1072 m 74 Y s 1338 1072 m 74 Y s
 gsave  2263 1770 2 313 C 911.832 1566.05 t 0 r /Helvetica findfont 44.0776 sf 0 0 m (\2551) show NC gr 
 gsave  2263 1770 2 313 C 471.17 1535.54 t 0 r /Helvetica findfont 64.4212 sf 0 0 m (=13TeV, 139 fb) show NC gr 
 gsave  2263 1770 2 313 C 440.662 1535.54 t 0 r /Helvetica findfont 64.4212 sf 0 0 m (s) show NC gr  6 lw 420 1573 m 7 -41 d s 3 lw 427 1532 m 7 61 d s 434 1593 m 37 X s 1 1 1 c 2254 561 2 2 bf black 1 1 1 c black 1860 358 318 187 bl 1 1 1 c black
 1860 358 318 187 bl 6 lw 1 1 1 c black 3 lw 411 334 m20 6 lw 3 lw 597 304 m20 6 lw 3 lw 783 297 m20 6 lw 3 lw 969 365 m20 6 lw 3 lw 1155 293 m20 6 lw 3 lw 1341 424 m20 6 lw 3 lw 1527 300 m20 6 lw 3 lw 1899 327 m20 6 lw 3 lw 2085 329 m20 6 lw 3 lw
 318 187 m 1860 X s
 gsave  2254 561 2 2 C 2105.01 64.4045 t 0 r /Helvetica findfont 50.9797 sf 0 0 m (1/2) show NC gr 
 gsave  2254 561 2 2 C 1888.07 23.728 t 0 r /Helvetica findfont 78.1689 sf 0 0 m ( [GeV]) show NC gr 
 gsave  2254 561 2 2 C 1857.56 3.38971 t 0 r /Helvetica findfont 50.9797 sf 0 0 m (T) show NC gr 
 gsave  2254 561 2 2 C 1806.72 23.728 t 0 r /Helvetica findfont 78.1689 sf 0 0 m (H) show NC gr  6 lw 1773 81 m 10 -78 d s 3 lw 1783 3 m 14 99 d s 1797 102 m 91 X s
 gsave  2254 561 2 2 C 1735.53 23.728 t 0 r /Helvetica findfont 78.1689 sf 0 0 m (/) show NC gr 
 gsave  2254 561 2 2 C 1630.45 61.0148 t 0 r /Helvetica findfont 50.9797 sf 0 0 m (miss) show NC gr 
 gsave  2254 561 2 2 C 1630.45 3.38971 t 0 r /Helvetica findfont 50.9797 sf 0 0 m (T) show NC gr 
 gsave  2254 561 2 2 C 1579.61 23.728 t 0 r /Helvetica findfont 78.1689 sf 0 0 m (E) show NC gr  318 201 m -14 Y s 364 194 m -7 Y s 411 194 m -7 Y s 457 194 m -7 Y s 504 201 m -14 Y s 550 194 m -7 Y s 597 194 m -7 Y s 643 194 m -7 Y s 690 201 m -14 Y
 s 736 194 m -7 Y s 783 194 m -7 Y s 829 194 m -7 Y s 876 201 m -14 Y s 923 194 m -7 Y s 969 194 m -7 Y s 1016 194 m -7 Y s 1062 201 m -14 Y s 1109 194 m -7 Y s 1155 194 m -7 Y s 1202 194 m -7 Y s 1248 201 m -14 Y s 1295 194 m -7 Y s 1341 194 m -7 Y
 s 1388 194 m -7 Y s 1434 201 m -14 Y s 1481 194 m -7 Y s 1527 194 m -7 Y s 1574 194 m -7 Y s 1620 201 m -14 Y s 1667 194 m -7 Y s 1713 194 m -7 Y s 1760 194 m -7 Y s 1806 201 m -14 Y s 1853 194 m -7 Y s 1899 194 m -7 Y s 1946 194 m -7 Y s 1992 201 m
 -14 Y s 2039 194 m -7 Y s 2085 194 m -7 Y s 2132 194 m -7 Y s 2178 201 m -14 Y s
 gsave  2254 561 2 2 C 271.177 118.64 t 0 r /Helvetica findfont 78.1689 sf 0 0 m (10) show NC gr 
 gsave  2254 561 2 2 C 457.611 118.64 t 0 r /Helvetica findfont 78.1689 sf 0 0 m (12) show NC gr 
 gsave  2254 561 2 2 C 644.045 118.64 t 0 r /Helvetica findfont 78.1689 sf 0 0 m (14) show NC gr 
 gsave  2254 561 2 2 C 830.479 118.64 t 0 r /Helvetica findfont 78.1689 sf 0 0 m (16) show NC gr 
 gsave  2254 561 2 2 C 1016.91 118.64 t 0 r /Helvetica findfont 78.1689 sf 0 0 m (18) show NC gr 
 gsave  2254 561 2 2 C 1203.35 118.64 t 0 r /Helvetica findfont 78.1689 sf 0 0 m (20) show NC gr 
 gsave  2254 561 2 2 C 1389.78 118.64 t 0 r /Helvetica findfont 78.1689 sf 0 0 m (22) show NC gr 
 gsave  2254 561 2 2 C 1572.83 118.64 t 0 r /Helvetica findfont 78.1689 sf 0 0 m (24) show NC gr 
 gsave  2254 561 2 2 C 1759.26 118.64 t 0 r /Helvetica findfont 78.1689 sf 0 0 m (26) show NC gr 
 gsave  2254 561 2 2 C 1945.69 118.64 t 0 r /Helvetica findfont 78.1689 sf 0 0 m (28) show NC gr 
 gsave  2254 561 2 2 C 2132.13 118.64 t 0 r /Helvetica findfont 78.1689 sf 0 0 m (30) show NC gr  318 545 m 1860 X s 318 531 m 14 Y s 364 538 m 7 Y s 411 538 m 7 Y s 457 538 m 7 Y s 504 531 m 14 Y s 550 538 m 7 Y s 597 538 m 7 Y s 643 538 m 7 Y s 690
 531 m 14 Y s 736 538 m 7 Y s 783 538 m 7 Y s 829 538 m 7 Y s 876 531 m 14 Y s 923 538 m 7 Y s 969 538 m 7 Y s 1016 538 m 7 Y s 1062 531 m 14 Y s 1109 538 m 7 Y s 1155 538 m 7 Y s 1202 538 m 7 Y s 1248 531 m 14 Y s 1295 538 m 7 Y s 1341 538 m 7 Y s
 1388 538 m 7 Y s 1434 531 m 14 Y s 1481 538 m 7 Y s 1527 538 m 7 Y s 1574 538 m 7 Y s 1620 531 m 14 Y s 1667 538 m 7 Y s 1713 538 m 7 Y s 1760 538 m 7 Y s 1806 531 m 14 Y s 1853 538 m 7 Y s 1899 538 m 7 Y s 1946 538 m 7 Y s 1992 531 m 14 Y s 2039
 538 m 7 Y s 2085 538 m 7 Y s 2132 538 m 7 Y s 2178 531 m 14 Y s 318 187 m 358 Y s
 gsave  2254 561 2 2 C 166.096 284.736 t 90 r /Helvetica findfont 67.9729 sf 0 0 m (Data/SM) show NC gr  361 203 m -43 X s 339 220 m -21 X s 339 236 m -21 X s 339 252 m -21 X s 339 268 m -21 X s 361 285 m -43 X s 339 301 m -21 X s 339 317 m -21 X s
 339 334 m -21 X s 339 350 m -21 X s 361 366 m -43 X s 339 382 m -21 X s 339 399 m -21 X s 339 415 m -21 X s 339 431 m -21 X s 361 447 m -43 X s 339 464 m -21 X s 339 480 m -21 X s 339 496 m -21 X s 339 512 m -21 X s 361 529 m -43 X s 361 203 m -43 X
 s 339 187 m -21 X s 361 529 m -43 X s
 gsave  2254 561 2 2 C 261.008 183.044 t 0 r /Helvetica findfont 57.777 sf 0 0 m (0) show NC gr 
 gsave  2254 561 2 2 C 213.552 261.008 t 0 r /Helvetica findfont 57.777 sf 0 0 m (0.5) show NC gr 
 gsave  2254 561 2 2 C 271.177 342.361 t 0 r /Helvetica findfont 57.777 sf 0 0 m (1) show NC gr 
 gsave  2254 561 2 2 C 213.552 423.714 t 0 r /Helvetica findfont 57.777 sf 0 0 m (1.5) show NC gr 
 gsave  2254 561 2 2 C 261.008 505.067 t 0 r /Helvetica findfont 57.777 sf 0 0 m (2) show NC gr  2178 187 m 358 Y s 2135 203 m 43 X s 2157 220 m 21 X s 2157 236 m 21 X s 2157 252 m 21 X s 2157 268 m 21 X s 2135 285 m 43 X s 2157 301 m 21 X s 2157 317
 m 21 X s 2157 334 m 21 X s 2157 350 m 21 X s 2135 366 m 43 X s 2157 382 m 21 X s 2157 399 m 21 X s 2157 415 m 21 X s 2157 431 m 21 X s 2135 447 m 43 X s 2157 464 m 21 X s 2157 480 m 21 X s 2157 496 m 21 X s 2157 512 m 21 X s 2135 529 m 43 X s 2135
 203 m 43 X s 2157 187 m 21 X s 2135 529 m 43 X s 9 lw 597 317 m 1 Y s 597 318 m cl s 597 290 m -1 Y s 597 289 m cl s 783 311 m 5 Y s 783 316 m cl s 783 284 m -6 Y s 783 278 m cl s 969 379 m 20 Y s 969 399 m cl s 969 352 m -19 Y s 969 333 m cl s 1155
 306 m 22 Y s 1155 328 m cl s 1155 279 m -19 Y s 1155 260 m cl s 1341 437 m 67 Y s 1341 504 m cl s 1341 410 m -62 Y s 1341 348 m cl s 1527 314 m 65 Y s 1527 379 m cl s 1527 286 m -48 Y s 1527 238 m cl s 1713 536 m -152 Y s 1713 384 m cl s 1899 341 m
 146 Y s 1899 487 m cl s 1899 314 m -89 Y s 1899 225 m cl s 2085 342 m 148 Y s 2085 490 m cl s 2085 315 m -90 Y s 2085 225 m cl s 3 lw 411 334 597 304 783 297 969 365 1155 293 1341 424 1527 300 7 { m20} R 9 lw 3 lw 1899 327 2085 329 2 { m20} R 9 lw 1
 0 0 c 6 lw black 3 lw 1 0 0 c 2178 341 m -27 -27 d s 2178 369 m -55 -55 d s 2178 398 m -84 -84 d s 2170 418 m -105 -104 d s 2141 418 m -104 -104 d s 2112 418 m -104 -104 d s 2084 418 m -97 -97 d s 2055 418 m -97 -97 d s 2026 418 m -97 -97 d s 1998
 418 m -6 -5 d s 1990 411 m -89 -90 d s 1961 411 m -89 -90 d s 1933 411 m -90 -90 d s 1904 411 m -89 -90 d s 1875 411 m -69 -69 d s 1847 411 m -69 -69 d s 1818 411 m -12 -12 d s 1798 390 m -49 -48 d s 1769 390 m -49 -48 d s 1740 390 m -48 -48 d s
 1712 390 m -49 -48 d s 1683 390 m -49 -48 d s 1654 390 m -51 -50 d s 1625 390 m -50 -50 d s 1599 392 m -53 -52 d s 1570 392 m -53 -52 d s 1542 392 m -53 -52 d s 1513 392 m -53 -52 d s 1484 392 m -50 -49 d s 1455 392 m -44 -44 d s 1418 384 m -36 -36
 d s 1390 384 m -36 -36 d s 1361 384 m -36 -36 d s 1332 384 m -36 -36 d s 1303 384 m -35 -36 d s 1275 384 m -35 -34 d s 1245 382 m -33 -32 d s 1216 382 m -33 -32 d s 1187 382 m -33 -32 d s 1159 382 m -33 -32 d s 1130 382 m -33 -32 d s 1101 382 m -33
 -32 d s 1073 382 m -31 -30 d s 1041 380 m -27 -28 d s 1012 380 m -27 -28 d s 984 380 m -28 -28 d s 955 380 m -27 -28 d s 926 380 m -27 -28 d s 898 380 m -25 -25 d s 866 377 m -22 -22 d s 838 377 m -23 -22 d s 809 377 m -22 -22 d s 780 377 m -22 -22
 d s 751 377 m -22 -22 d s 723 377 m -22 -22 d s 694 377 m -20 -20 d s 664 375 m -19 -18 d s 635 375 m -19 -18 d s 606 375 m -18 -18 d s 578 375 m -19 -18 d s 549 375 m -19 -18 d s 520 375 m -17 -16 d s 490 374 m -15 -15 d s 461 374 m -15 -15 d s 318
 231 m s 432 374 m -15 -15 d s 318 259 m s 404 374 m -15 -15 d s 318 288 m s 375 374 m -15 -15 d s 318 317 m s 346 374 m -15 -15 d s 318 345 m s 6 lw black[ 4 8] 0 sd 3 lw 318 447 m 1860 X s 318 285 m 1860 X s 1 0 0 c[  12 12 ] 0 sd 6 lw 318 366 m
 1860 X s
 gr  gr showpage
end
%%EOF
