%!PS-Adobe-2.0 EPSF-2.0
%%BoundingBox:  0 0 567 521
%%Title: Distributions/metsqrtmeffInc_met_distrVR0LmetSig_MB-SSd_beforeFit_forThesis.eps: canvas
%%Creator: ROOT Version 6.04/16
%%CreationDate: Tue May 19 22:06:32 2020
%%DocumentNeededResources: ProcSet (FontSetInit)
%%EndComments
%%BeginProlog
80 dict begin
/s {stroke} def /l {lineto} def /m {moveto} def /t {translate} def
/r {rotate} def /rl {roll}  def /R {repeat} def
/d {rlineto} def /rm {rmoveto} def /gr {grestore} def /f {eofill} def
/c {setrgbcolor} def /black {0 setgray} def /sd {setdash} def
/cl {closepath} def /sf {scalefont setfont} def /lw {setlinewidth} def
/box {m dup 0 exch d exch 0 d 0 exch neg d cl} def
/NC{systemdict begin initclip end}def/C{NC box clip newpath}def
/bl {box s} def /bf {gsave box gsave f grestore 1 lw [] 0 sd s grestore} def /Y { 0 exch d} def /X { 0 d} def 
/K {{pop pop 0 moveto} exch kshow} bind def
/ita {/ang 15 def gsave [1 0 ang dup sin exch cos div 1 0 0] concat} def 
/mp {newpath /y exch def /x exch def} def
/side {[w .77 mul w .23 mul] .385 w mul sd w 0 l currentpoint t -144 r} def
/mr {mp x y w2 0 360 arc} def /m24 {mr s} def /m20 {mr f} def
/mb {mp x y w2 add m w2 neg 0 d 0 w neg d w 0 d 0 w d cl} def
/mt {mp x y w2 add m w2 neg w neg d w 0 d cl} def
/m21 {mb f} def /m25 {mb s} def /m22 {mt f} def /m26{mt s} def
/m23 {mp x y w2 sub m w2 w d w neg 0 d cl f} def
/m27 {mp x y w2 add m w3 neg w2 neg d w3 w2 neg d w3 w2 d cl s} def
/m28 {mp x w2 sub y w2 sub w3 add m w3 0 d  0 w3 neg d w3 0 d 0 w3 d w3 0 d  0 w3 d w3 neg 0 d 0 w3 d w3 neg 0 d 0 w3 neg d w3 neg 0 d cl s } def
/m29 {mp gsave x w2 sub y w2 add w3 sub m currentpoint t 4 {side} repeat cl fill gr} def
/m30 {mp gsave x w2 sub y w2 add w3 sub m currentpoint t 4 {side} repeat cl s gr} def
/m31 {mp x y w2 sub m 0 w d x w2 sub y m w 0 d x w2 sub y w2 add m w w neg d x w2 sub y w2 sub m w w d s} def
/m32 {mp x y w2 sub m w2 w d w neg 0 d cl s} def
/m33 {mp x y w2 add m w3 neg w2 neg d w3 w2 neg d w3 w2 d cl f} def
/m34 {mp x w2 sub y w2 sub w3 add m w3 0 d  0 w3 neg d w3 0 d 0 w3 d w3 0 d  0 w3 d w3 neg 0 d 0 w3 d w3 neg 0 d 0 w3 neg d w3 neg 0 d cl f } def
/m2 {mp x y w2 sub m 0 w d x w2 sub y m w 0 d s} def
/m5 {mp x w2 sub y w2 sub m w w d x w2 sub y w2 add m w w neg d s} def
%%IncludeResource: ProcSet (FontSetInit)
%%IncludeResource: font Times-Roman
%%IncludeResource: font Times-Italic
%%IncludeResource: font Times-Bold
%%IncludeResource: font Times-BoldItalic
%%IncludeResource: font Helvetica
%%IncludeResource: font Helvetica-Oblique
%%IncludeResource: font Helvetica-Bold
%%IncludeResource: font Helvetica-BoldOblique
%%IncludeResource: font Courier
%%IncludeResource: font Courier-Oblique
%%IncludeResource: font Courier-Bold
%%IncludeResource: font Courier-BoldOblique
%%IncludeResource: font Symbol
%%IncludeResource: font ZapfDingbats
/reEncode {exch findfont dup length dict begin {1 index /FID eq  {pop pop} {def} ifelse } forall /Encoding exch def currentdict end dup /FontName get exch definefont pop } def [/Times-Bold /Times-Italic /Times-BoldItalic /Helvetica /Helvetica-Oblique
 /Helvetica-Bold /Helvetica-BoldOblique /Courier /Courier-Oblique /Courier-Bold /Courier-BoldOblique /Times-Roman /AvantGarde-Book /AvantGarde-BookOblique /AvantGarde-Demi /AvantGarde-DemiOblique /Bookman-Demi /Bookman-DemiItalic /Bookman-Light
 /Bookman-LightItalic /Helvetica-Narrow /Helvetica-Narrow-Bold /Helvetica-Narrow-BoldOblique /Helvetica-Narrow-Oblique /NewCenturySchlbk-Roman /NewCenturySchlbk-Bold /NewCenturySchlbk-BoldItalic /NewCenturySchlbk-Italic /Palatino-Bold
 /Palatino-BoldItalic /Palatino-Italic /Palatino-Roman ] {ISOLatin1Encoding reEncode } forall
%%EndProlog
%%BeginSetup
%%EndSetup
newpath  gsave  .25 .25 scale  gsave  0 0 t black[  ] 0 sd 3 lw 1 1 1 c 2268 2085 0 0 bf black 1 1 1 c 2263 1770 2 313 bf black 1 1 1 c black 1860 1145 319 584 bl 1 1 1 c black 1860 1145 319 584 bl 6 lw 1 1 1 c black 3 lw /w 33 def /w2 {w 2 div} def
 /w3 {w 3 div} def 366 1233 m20 6 lw 3 lw 459 1209 m20 6 lw 3 lw 552 1175 m20 6 lw 3 lw 645 1136 m20 6 lw 3 lw 738 1097 m20 6 lw 3 lw 831 1041 m20 6 lw 3 lw 924 996 m20 6 lw 3 lw 1017 959 m20 6 lw 3 lw 1110 925 m20 6 lw 1203 815 m 16 Y s 1203 858 m 6
 Y s 3 lw 1203 845 m20 6 lw 1296 815 m 16 Y s 1296 858 m 6 Y s 3 lw 1296 845 m20 6 lw 1389 693 m 61 Y s 1389 781 m 20 Y s 3 lw 1389 768 m20 6 lw 1482 584 m 128 Y s 1482 739 m 29 Y s 3 lw 1482 725 m20 6 lw 1668 584 m 128 Y s 1668 739 m 29 Y s 3 lw
 1668 725 m20 6 lw 3 lw 319 584 m 1860 X s
 gsave  2263 1770 2 313 C 2101.62 396.596 t 0 r /Helvetica findfont 54.2494 sf 0 0 m (1/2) show NC gr 
 gsave  2263 1770 2 313 C 1874.51 355.92 t 0 r /Helvetica findfont 81.3741 sf 0 0 m ( [GeV]) show NC gr 
 gsave  2263 1770 2 313 C 1840.61 332.192 t 0 r /Helvetica findfont 54.2494 sf 0 0 m (T) show NC gr 
 gsave  2263 1770 2 313 C 1786.38 355.92 t 0 r /Helvetica findfont 81.3741 sf 0 0 m (H) show NC gr  6 lw 1749 417 m 14 -85 d s 3 lw 1763 332 m 13 105 d s 1776 437 m 99 X s
 gsave  2263 1770 2 313 C 1711.8 355.92 t 0 r /Helvetica findfont 81.3741 sf 0 0 m (/) show NC gr 
 gsave  2263 1770 2 313 C 1599.94 396.596 t 0 r /Helvetica findfont 54.2494 sf 0 0 m (miss) show NC gr 
 gsave  2263 1770 2 313 C 1599.94 332.192 t 0 r /Helvetica findfont 54.2494 sf 0 0 m (T) show NC gr 
 gsave  2263 1770 2 313 C 1549.1 355.92 t 0 r /Helvetica findfont 81.3741 sf 0 0 m (E) show NC gr  319 584 m cl s 366 584 m cl s 412 584 m cl s 459 584 m cl s 505 584 m cl s 552 584 m cl s 598 584 m cl s 645 584 m cl s 691 584 m cl s 738 584 m cl s
 784 584 m cl s 831 584 m cl s 877 584 m cl s 924 584 m cl s 970 584 m cl s 1017 584 m cl s 1063 584 m cl s 1110 584 m cl s 1156 584 m cl s 1203 584 m cl s 1249 584 m cl s 1296 584 m cl s 1342 584 m cl s 1389 584 m cl s 1435 584 m cl s 1482 584 m cl
 s 1528 584 m cl s 1575 584 m cl s 1621 584 m cl s 1668 584 m cl s 1714 584 m cl s 1761 584 m cl s 1807 584 m cl s 1854 584 m cl s 1900 584 m cl s 1947 584 m cl s 1993 584 m cl s 2040 584 m cl s 2086 584 m cl s 2133 584 m cl s 2179 584 m cl s 319
 1729 m 1860 X s 319 1729 m cl s 366 1729 m cl s 412 1729 m cl s 459 1729 m cl s 505 1729 m cl s 552 1729 m cl s 598 1729 m cl s 645 1729 m cl s 691 1729 m cl s 738 1729 m cl s 784 1729 m cl s 831 1729 m cl s 877 1729 m cl s 924 1729 m cl s 970 1729
 m cl s 1017 1729 m cl s 1063 1729 m cl s 1110 1729 m cl s 1156 1729 m cl s 1203 1729 m cl s 1249 1729 m cl s 1296 1729 m cl s 1342 1729 m cl s 1389 1729 m cl s 1435 1729 m cl s 1482 1729 m cl s 1528 1729 m cl s 1575 1729 m cl s 1621 1729 m cl s 1668
 1729 m cl s 1714 1729 m cl s 1761 1729 m cl s 1807 1729 m cl s 1854 1729 m cl s 1900 1729 m cl s 1947 1729 m cl s 1993 1729 m cl s 2040 1729 m cl s 2086 1729 m cl s 2133 1729 m cl s 2179 1729 m cl s 319 584 m 1145 Y s
 gsave  2263 1770 2 313 C 125.419 1654.18 t 90 r /Helvetica findfont 54.2494 sf 0 0 m (1/2) show NC gr 
 gsave  2263 1770 2 313 C 166.096 1064.37 t 90 r /Helvetica findfont 81.3741 sf 0 0 m (Events / 2 [GeV]) show NC gr  341 627 m -22 X s 341 652 m -22 X s 341 669 m -22 X s 341 683 m -22 X s 341 694 m -22 X s 341 704 m -22 X s 341 712 m -22 X s 341 719
 m -22 X s 363 725 m -44 X s
 gsave  2263 1770 2 313 C 300.555 698.254 t 0 r  -36 0 t /Helvetica findfont 64.4212 sf 0 0 m (1) show NC gr  341 768 m -22 X s 341 793 m -22 X s 341 810 m -22 X s 341 824 m -22 X s 341 835 m -22 X s 341 845 m -22 X s 341 853 m -22 X s 341 860 m -22
 X s 363 866 m -44 X s
 gsave  2263 1770 2 313 C 300.555 839.316 t 0 r  -73 0 t /Helvetica findfont 64.4212 sf 0 0 m (10) show NC gr  341 909 m -22 X s 341 934 m -22 X s 341 951 m -22 X s 341 965 m -22 X s 341 976 m -22 X s 341 986 m -22 X s 341 994 m -22 X s 341 1001 m
 -22 X s 363 1007 m -44 X s
 gsave  2263 1770 2 313 C 274.567 1006.74 t 0 r /Helvetica findfont 44.0776 sf 0 0 m (2) show NC gr 
 gsave  2263 1770 2 313 C 203.383 979.626 t 0 r /Helvetica findfont 64.4212 sf 0 0 m (10) show NC gr  341 1050 m -22 X s 341 1075 m -22 X s 341 1092 m -22 X s 341 1106 m -22 X s 341 1117 m -22 X s 341 1127 m -22 X s 341 1135 m -22 X s 341 1142 m -22
 X s 363 1149 m -44 X s
 gsave  2263 1770 2 313 C 274.567 1149.11 t 0 r /Helvetica findfont 44.0776 sf 0 0 m (3) show NC gr 
 gsave  2263 1770 2 313 C 203.383 1118.6 t 0 r /Helvetica findfont 64.4212 sf 0 0 m (10) show NC gr  341 1191 m -22 X s 341 1216 m -22 X s 341 1233 m -22 X s 341 1247 m -22 X s 341 1258 m -22 X s 341 1268 m -22 X s 341 1276 m -22 X s 341 1283 m -22 X
 s 363 1290 m -44 X s
 gsave  2263 1770 2 313 C 274.567 1288.09 t 0 r /Helvetica findfont 44.0776 sf 0 0 m (4) show NC gr 
 gsave  2263 1770 2 313 C 203.383 1260.97 t 0 r /Helvetica findfont 64.4212 sf 0 0 m (10) show NC gr  341 1332 m -22 X s 341 1357 m -22 X s 341 1375 m -22 X s 341 1388 m -22 X s 341 1399 m -22 X s 341 1409 m -22 X s 341 1417 m -22 X s 341 1424 m -22
 X s 363 1431 m -44 X s
 gsave  2263 1770 2 313 C 274.567 1433.85 t 0 r /Helvetica findfont 44.0776 sf 0 0 m (5) show NC gr 
 gsave  2263 1770 2 313 C 203.383 1403.34 t 0 r /Helvetica findfont 64.4212 sf 0 0 m (10) show NC gr  341 1473 m -22 X s 341 1498 m -22 X s 341 1516 m -22 X s 341 1529 m -22 X s 341 1540 m -22 X s 341 1550 m -22 X s 341 1558 m -22 X s 341 1565 m -22
 X s 363 1572 m -44 X s
 gsave  2263 1770 2 313 C 274.567 1572.83 t 0 r /Helvetica findfont 44.0776 sf 0 0 m (6) show NC gr 
 gsave  2263 1770 2 313 C 203.383 1542.32 t 0 r /Helvetica findfont 64.4212 sf 0 0 m (10) show NC gr  341 1614 m -22 X s 341 1639 m -22 X s 341 1657 m -22 X s 341 1670 m -22 X s 341 1682 m -22 X s 341 1691 m -22 X s 341 1699 m -22 X s 341 1706 m -22
 X s 363 1713 m -44 X s
 gsave  2263 1770 2 313 C 274.567 1711.8 t 0 r /Helvetica findfont 44.0776 sf 0 0 m (7) show NC gr 
 gsave  2263 1770 2 313 C 203.383 1684.69 t 0 r /Helvetica findfont 64.4212 sf 0 0 m (10) show NC gr  2179 584 m 1145 Y s 2157 627 m 22 X s 2157 652 m 22 X s 2157 669 m 22 X s 2157 683 m 22 X s 2157 694 m 22 X s 2157 704 m 22 X s 2157 712 m 22 X s
 2157 719 m 22 X s 2136 725 m 43 X s 2157 768 m 22 X s 2157 793 m 22 X s 2157 810 m 22 X s 2157 824 m 22 X s 2157 835 m 22 X s 2157 845 m 22 X s 2157 853 m 22 X s 2157 860 m 22 X s 2136 866 m 43 X s 2157 909 m 22 X s 2157 934 m 22 X s 2157 951 m 22 X
 s 2157 965 m 22 X s 2157 976 m 22 X s 2157 986 m 22 X s 2157 994 m 22 X s 2157 1001 m 22 X s 2136 1007 m 43 X s 2157 1050 m 22 X s 2157 1075 m 22 X s 2157 1092 m 22 X s 2157 1106 m 22 X s 2157 1117 m 22 X s 2157 1127 m 22 X s 2157 1135 m 22 X s 2157
 1142 m 22 X s 2136 1149 m 43 X s 2157 1191 m 22 X s 2157 1216 m 22 X s 2157 1233 m 22 X s 2157 1247 m 22 X s 2157 1258 m 22 X s 2157 1268 m 22 X s 2157 1276 m 22 X s 2157 1283 m 22 X s 2136 1290 m 43 X s 2157 1332 m 22 X s 2157 1357 m 22 X s 2157
 1375 m 22 X s 2157 1388 m 22 X s 2157 1399 m 22 X s 2157 1409 m 22 X s 2157 1417 m 22 X s 2157 1424 m 22 X s 2136 1431 m 43 X s 2157 1473 m 22 X s 2157 1498 m 22 X s 2157 1516 m 22 X s 2157 1529 m 22 X s 2157 1540 m 22 X s 2157 1550 m 22 X s 2157
 1558 m 22 X s 2157 1565 m 22 X s 2136 1572 m 43 X s 2157 1614 m 22 X s 2157 1639 m 22 X s 2157 1657 m 22 X s 2157 1670 m 22 X s 2157 1682 m 22 X s 2157 1691 m 22 X s 2157 1699 m 22 X s 2157 1706 m 22 X s 2136 1713 m 43 X s 0.4 0.6 1 c black 0.4 0.6
 1 c 319 584 m 654 Y 93 X -22 Y 93 X -36 Y 93 X -37 Y 93 X -44 Y 93 X -46 Y 93 X -46 Y 93 X -47 Y 93 X -58 Y 93 X -44 Y 93 X -28 Y 93 X -68 Y 93 X -21 Y 93 X -66 Y 93 X -43 Y 93 X -48 Y 465 X f black 0.4 0.6 1 c black 319 1238 m 93 X -22 Y 93 X -36 Y
 93 X -37 Y 93 X -44 Y 93 X -46 Y 93 X -46 Y 93 X -47 Y 93 X -58 Y 93 X -44 Y 93 X -28 Y 93 X -68 Y 93 X -21 Y 93 X -66 Y 93 X -43 Y 93 X -48 Y 465 X s 0.999 0.999 0.999 c black 0.999 0.999 0.999 c 319 584 m 635 Y 93 X -21 Y 93 X -35 Y 93 X -37 Y 93
 X -44 Y 93 X -46 Y 93 X -45 Y 93 X -46 Y 93 X -57 Y 93 X -45 Y 93 X -25 Y 93 X -67 Y 93 X -13 Y 93 X -79 Y 93 X -30 Y 93 X -45 Y 465 X f black 0.999 0.999 0.999 c black 319 1219 m 93 X -21 Y 93 X -35 Y 93 X -37 Y 93 X -44 Y 93 X -46 Y 93 X -45 Y 93
 X -46 Y 93 X -57 Y 93 X -45 Y 93 X -25 Y 93 X -67 Y 93 X -13 Y 93 X -79 Y 93 X -30 Y 93 X -45 Y 465 X s 1 1 1 c black 319 1219 m 93 X -21 Y 93 X -35 Y 93 X -37 Y 93 X -44 Y 93 X -46 Y 93 X -45 Y 93 X -46 Y 93 X -57 Y 93 X -45 Y 93 X -25 Y 93 X -67 Y
 93 X -13 Y 93 X -79 Y 93 X -30 Y 93 X -45 Y 465 X s 0.6 1 0.6 c black 0.6 1 0.6 c 319 584 m 635 Y 93 X -21 Y 93 X -35 Y 93 X -37 Y 93 X -44 Y 93 X -46 Y 93 X -45 Y 93 X -46 Y 93 X -57 Y 93 X -45 Y 93 X -25 Y 93 X -67 Y 93 X -13 Y 93 X -79 Y 93 X -30
 Y 93 X -45 Y 465 X f black 0.6 1 0.6 c black 319 1219 m 93 X -21 Y 93 X -35 Y 93 X -37 Y 93 X -44 Y 93 X -46 Y 93 X -45 Y 93 X -46 Y 93 X -57 Y 93 X -45 Y 93 X -25 Y 93 X -67 Y 93 X -13 Y 93 X -79 Y 93 X -30 Y 93 X -45 Y 465 X s 0.999 0.999 0.999 c
 black 0.999 0.999 0.999 c 319 584 m 605 Y 93 X -23 Y 93 X -31 Y 93 X -35 Y 93 X -38 Y 93 X -37 Y 93 X -44 Y 93 X -42 Y 93 X -57 Y 93 X -42 Y 93 X -23 Y 93 X -67 Y 93 X -12 Y 93 X -79 Y 93 X -30 Y 93 X -45 Y 465 X f black 0.999 0.999 0.999 c black
 319 1189 m 93 X -23 Y 93 X -31 Y 93 X -35 Y 93 X -38 Y 93 X -37 Y 93 X -44 Y 93 X -42 Y 93 X -57 Y 93 X -42 Y 93 X -23 Y 93 X -67 Y 93 X -12 Y 93 X -79 Y 93 X -30 Y 93 X -45 Y 465 X s 1 1 1 c black 319 1189 m 93 X -23 Y 93 X -31 Y 93 X -35 Y 93 X
 -38 Y 93 X -37 Y 93 X -44 Y 93 X -42 Y 93 X -57 Y 93 X -42 Y 93 X -23 Y 93 X -67 Y 93 X -12 Y 93 X -79 Y 93 X -30 Y 93 X -45 Y 465 X s 1 0.8 0.4 c black 1 0.8 0.4 c 319 584 m 605 Y 93 X -23 Y 93 X -31 Y 93 X -35 Y 93 X -38 Y 93 X -37 Y 93 X -44 Y 93
 X -42 Y 93 X -57 Y 93 X -42 Y 93 X -23 Y 93 X -67 Y 93 X -12 Y 93 X -79 Y 93 X -30 Y 93 X -45 Y 465 X f black 1 0.8 0.4 c black 319 1189 m 93 X -23 Y 93 X -31 Y 93 X -35 Y 93 X -38 Y 93 X -37 Y 93 X -44 Y 93 X -42 Y 93 X -57 Y 93 X -42 Y 93 X -23 Y
 93 X -67 Y 93 X -12 Y 93 X -79 Y 93 X -30 Y 93 X -45 Y 465 X s 0.999 0.999 0.999 c black 0.999 0.999 0.999 c 319 584 m 470 Y 93 X -32 Y 93 X -29 Y 93 X -35 Y 93 X -34 Y 93 X -39 Y 93 X -53 Y 93 X -18 Y 93 X -48 Y 93 X -48 Y 93 X -94 Y 93 X 32 Y 93 X
 -72 Y 744 X f black 0.999 0.999 0.999 c black 319 1054 m 93 X -32 Y 93 X -29 Y 93 X -35 Y 93 X -34 Y 93 X -39 Y 93 X -53 Y 93 X -18 Y 93 X -48 Y 93 X -48 Y 93 X -94 Y 93 X 32 Y 93 X -72 Y 744 X s 1 1 1 c black 319 1054 m 93 X -32 Y 93 X -29 Y 93 X
 -35 Y 93 X -34 Y 93 X -39 Y 93 X -53 Y 93 X -18 Y 93 X -48 Y 93 X -48 Y 93 X -94 Y 93 X 32 Y 93 X -72 Y 744 X s 1 0.4 0.6 c black 1 0.4 0.6 c 319 584 m 470 Y 93 X -32 Y 93 X -29 Y 93 X -35 Y 93 X -34 Y 93 X -39 Y 93 X -53 Y 93 X -18 Y 93 X -48 Y 93
 X -48 Y 93 X -94 Y 93 X 32 Y 93 X -72 Y 744 X f black 1 0.4 0.6 c black 319 1054 m 93 X -32 Y 93 X -29 Y 93 X -35 Y 93 X -34 Y 93 X -39 Y 93 X -53 Y 93 X -18 Y 93 X -48 Y 93 X -48 Y 93 X -94 Y 93 X 32 Y 93 X -72 Y 744 X s 0.999 0.999 0.999 c black
 0.999 0.999 0.999 c 319 584 m 394 Y 93 X -100 Y 93 X -99 Y 93 X -79 Y 93 X -66 Y 93 X -50 Y 1395 X f black 0.999 0.999 0.999 c black 319 978 m 93 X -100 Y 93 X -99 Y 93 X -79 Y 93 X -66 Y 93 X -50 Y 1395 X s 1 1 1 c black 319 978 m 93 X -100 Y 93 X
 -99 Y 93 X -79 Y 93 X -66 Y 93 X -50 Y 1395 X s 0 0 0.4 c black 0 0 0.4 c 319 584 m 394 Y 93 X -100 Y 93 X -99 Y 93 X -79 Y 93 X -66 Y 93 X -50 Y 1395 X f black 0 0 0.4 c black 319 978 m 93 X -100 Y 93 X -99 Y 93 X -79 Y 93 X -66 Y 93 X -50 Y 1395 X
 s 1 0 0 c 6 lw 1 1 1 c black 1 0 0 c 319 1238 m 93 X -22 Y 93 X -36 Y 93 X -37 Y 93 X -44 Y 93 X -46 Y 93 X -46 Y 93 X -47 Y 93 X -58 Y 93 X -44 Y 93 X -28 Y 93 X -68 Y 93 X -21 Y 93 X -66 Y 93 X -43 Y 93 X -48 Y 465 X s black 3 lw 1 0 0 c 1 lw <<
 /PatternType 1 /PaintType 2 /TilingType 1 /BBox [ 0 0 100 100 ] /XStep 100 /YStep 100 /PaintProc { begin gsave 0 100 m 100 0 l s gr end } >> [ 0.24 0 0 0.24 0 0 ] makepattern /P05 exch def /cs {[/Pattern /DeviceRGB] setcolorspace} def /FA {f
 [/DeviceRGB] setcolorspace} def cs 1 0 0 P05 setcolor 319 584 m 658 Y 93 X -22 Y 93 X -36 Y 93 X -38 Y 93 X -44 Y 93 X -45 Y 93 X -45 Y 93 X -48 Y 93 X -42 Y 93 X -59 Y 93 X -23 Y 93 X -70 Y 93 X -6 Y 93 X -69 Y 93 X -34 Y 93 X -77 Y -93 X 63 Y -93
 X 56 Y -93 X 50 Y -93 X 64 Y -93 X 35 Y -93 X 22 Y -93 X 81 Y -93 X 47 Y -93 X 47 Y -93 X 46 Y -93 X 43 Y -93 X 37 Y -93 X 37 Y -93 X 22 Y -93 X -650 Y FA 6 lw 1 1 1 c 15 lw 1203 824 m -7 Y s 1203 817 m cl s 1296 824 m -7 Y s 1296 817 m cl s 1389
 788 m 16 Y s 1389 804 m cl s 1389 747 m -42 Y s 1389 705 m cl s 1482 746 m 30 Y s 1482 776 m cl s 1482 705 m -87 Y s 1482 618 m cl s 1668 746 m 30 Y s 1668 776 m cl s 1668 705 m -87 Y s 1668 618 m cl s black 1 1 1 c 3 lw /w 43 def /w2 {w 2 div} def
 /w3 {w 3 div} def 366 1233 459 1209 552 1175 645 1136 738 1097 831 1041 924 996 1017 959 1110 925 1203 845 1296 845 1389 768 1482 725 13 { m20} R 15 lw 3 lw 1668 725 m20 15 lw black 6 lw 1 1 1 c black 3 lw /w 33 def /w2 {w 2 div} def /w3 {w 3 div}
 def 366 1233 m20 6 lw 3 lw 459 1209 m20 6 lw 3 lw 552 1175 m20 6 lw 3 lw 645 1136 m20 6 lw 3 lw 738 1097 m20 6 lw 3 lw 831 1041 m20 6 lw 3 lw 924 996 m20 6 lw 3 lw 1017 959 m20 6 lw 3 lw 1110 925 m20 6 lw 1203 815 m 16 Y s 1203 858 m 6 Y s 3 lw 1203
 845 m20 6 lw 1296 815 m 16 Y s 1296 858 m 6 Y s 3 lw 1296 845 m20 6 lw 1389 693 m 61 Y s 1389 781 m 20 Y s 3 lw 1389 768 m20 6 lw 1482 584 m 128 Y s 1482 739 m 29 Y s 3 lw 1482 725 m20 6 lw 1668 584 m 128 Y s 1668 739 m 29 Y s 3 lw 1668 725 m20 6 lw
 1203 858 m 7 Y s 1203 865 m cl s 1203 831 m -14 Y s 1203 817 m cl s 1296 858 m 7 Y s 1296 865 m cl s 1296 831 m -14 Y s 1296 817 m cl s 1389 781 m 23 Y s 1389 804 m cl s 1389 754 m -49 Y s 1389 705 m cl s 1482 739 m 37 Y s 1482 776 m cl s 1482 712 m
 -94 Y s 1482 618 m cl s 1668 739 m 37 Y s 1668 776 m cl s 1668 712 m -94 Y s 1668 618 m cl s 3 lw 366 1233 459 1209 552 1175 645 1136 738 1097 831 1041 924 996 1017 959 1110 925 1203 845 1296 845 1389 768 1482 725 13 { m20} R 6 lw 3 lw 1668 725 m20
 6 lw 3 lw 319 584 m 1860 X s 319 584 m cl s 366 584 m cl s 412 584 m cl s 459 584 m cl s 505 584 m cl s 552 584 m cl s 598 584 m cl s 645 584 m cl s 691 584 m cl s 738 584 m cl s 784 584 m cl s 831 584 m cl s 877 584 m cl s 924 584 m cl s 970 584 m
 cl s 1017 584 m cl s 1063 584 m cl s 1110 584 m cl s 1156 584 m cl s 1203 584 m cl s 1249 584 m cl s 1296 584 m cl s 1342 584 m cl s 1389 584 m cl s 1435 584 m cl s 1482 584 m cl s 1528 584 m cl s 1575 584 m cl s 1621 584 m cl s 1668 584 m cl s 1714
 584 m cl s 1761 584 m cl s 1807 584 m cl s 1854 584 m cl s 1900 584 m cl s 1947 584 m cl s 1993 584 m cl s 2040 584 m cl s 2086 584 m cl s 2133 584 m cl s 2179 584 m cl s 319 1729 m 1860 X s 319 1729 m cl s 366 1729 m cl s 412 1729 m cl s 459 1729 m
 cl s 505 1729 m cl s 552 1729 m cl s 598 1729 m cl s 645 1729 m cl s 691 1729 m cl s 738 1729 m cl s 784 1729 m cl s 831 1729 m cl s 877 1729 m cl s 924 1729 m cl s 970 1729 m cl s 1017 1729 m cl s 1063 1729 m cl s 1110 1729 m cl s 1156 1729 m cl s
 1203 1729 m cl s 1249 1729 m cl s 1296 1729 m cl s 1342 1729 m cl s 1389 1729 m cl s 1435 1729 m cl s 1482 1729 m cl s 1528 1729 m cl s 1575 1729 m cl s 1621 1729 m cl s 1668 1729 m cl s 1714 1729 m cl s 1761 1729 m cl s 1807 1729 m cl s 1854 1729 m
 cl s 1900 1729 m cl s 1947 1729 m cl s 1993 1729 m cl s 2040 1729 m cl s 2086 1729 m cl s 2133 1729 m cl s 2179 1729 m cl s 319 584 m 1145 Y s 341 627 m -22 X s 341 652 m -22 X s 341 669 m -22 X s 341 683 m -22 X s 341 694 m -22 X s 341 704 m -22 X
 s 341 712 m -22 X s 341 719 m -22 X s 363 725 m -44 X s 341 768 m -22 X s 341 793 m -22 X s 341 810 m -22 X s 341 824 m -22 X s 341 835 m -22 X s 341 845 m -22 X s 341 853 m -22 X s 341 860 m -22 X s 363 866 m -44 X s 341 909 m -22 X s 341 934 m -22
 X s 341 951 m -22 X s 341 965 m -22 X s 341 976 m -22 X s 341 986 m -22 X s 341 994 m -22 X s 341 1001 m -22 X s 363 1007 m -44 X s 341 1050 m -22 X s 341 1075 m -22 X s 341 1092 m -22 X s 341 1106 m -22 X s 341 1117 m -22 X s 341 1127 m -22 X s 341
 1135 m -22 X s 341 1142 m -22 X s 363 1149 m -44 X s 341 1191 m -22 X s 341 1216 m -22 X s 341 1233 m -22 X s 341 1247 m -22 X s 341 1258 m -22 X s 341 1268 m -22 X s 341 1276 m -22 X s 341 1283 m -22 X s 363 1290 m -44 X s 341 1332 m -22 X s 341
 1357 m -22 X s 341 1375 m -22 X s 341 1388 m -22 X s 341 1399 m -22 X s 341 1409 m -22 X s 341 1417 m -22 X s 341 1424 m -22 X s 363 1431 m -44 X s 341 1473 m -22 X s 341 1498 m -22 X s 341 1516 m -22 X s 341 1529 m -22 X s 341 1540 m -22 X s 341
 1550 m -22 X s 341 1558 m -22 X s 341 1565 m -22 X s 363 1572 m -44 X s 341 1614 m -22 X s 341 1639 m -22 X s 341 1657 m -22 X s 341 1670 m -22 X s 341 1682 m -22 X s 341 1691 m -22 X s 341 1699 m -22 X s 341 1706 m -22 X s 363 1713 m -44 X s 2179
 584 m 1145 Y s 2157 627 m 22 X s 2157 652 m 22 X s 2157 669 m 22 X s 2157 683 m 22 X s 2157 694 m 22 X s 2157 704 m 22 X s 2157 712 m 22 X s 2157 719 m 22 X s 2136 725 m 43 X s 2157 768 m 22 X s 2157 793 m 22 X s 2157 810 m 22 X s 2157 824 m 22 X s
 2157 835 m 22 X s 2157 845 m 22 X s 2157 853 m 22 X s 2157 860 m 22 X s 2136 866 m 43 X s 2157 909 m 22 X s 2157 934 m 22 X s 2157 951 m 22 X s 2157 965 m 22 X s 2157 976 m 22 X s 2157 986 m 22 X s 2157 994 m 22 X s 2157 1001 m 22 X s 2136 1007 m 43
 X s 2157 1050 m 22 X s 2157 1075 m 22 X s 2157 1092 m 22 X s 2157 1106 m 22 X s 2157 1117 m 22 X s 2157 1127 m 22 X s 2157 1135 m 22 X s 2157 1142 m 22 X s 2136 1149 m 43 X s 2157 1191 m 22 X s 2157 1216 m 22 X s 2157 1233 m 22 X s 2157 1247 m 22 X
 s 2157 1258 m 22 X s 2157 1268 m 22 X s 2157 1276 m 22 X s 2157 1283 m 22 X s 2136 1290 m 43 X s 2157 1332 m 22 X s 2157 1357 m 22 X s 2157 1375 m 22 X s 2157 1388 m 22 X s 2157 1399 m 22 X s 2157 1409 m 22 X s 2157 1417 m 22 X s 2157 1424 m 22 X s
 2136 1431 m 43 X s 2157 1473 m 22 X s 2157 1498 m 22 X s 2157 1516 m 22 X s 2157 1529 m 22 X s 2157 1540 m 22 X s 2157 1550 m 22 X s 2157 1558 m 22 X s 2157 1565 m 22 X s 2136 1572 m 43 X s 2157 1614 m 22 X s 2157 1639 m 22 X s 2157 1657 m 22 X s
 2157 1670 m 22 X s 2157 1682 m 22 X s 2157 1691 m 22 X s 2157 1699 m 22 X s 2157 1706 m 22 X s 2136 1713 m 43 X s
 gsave  2263 1770 2 313 C 406.765 1447.41 t 0 r /Helvetica findfont 64.4212 sf 0 0 m (VR0LmetSig for MB\255SSd) show NC gr 
 gsave  2263 1770 2 313 C 1464.36 1630.45 t 0 r /Helvetica findfont 64.4212 sf 0 0 m (SM Total) show NC gr  1 1 1 c 1338 1616 m 107 X 64 Y -107 X f 1 0 0 c 6 lw 1338 1648 m 107 X s black
 gsave  2263 1770 2 313 C 1464.36 1538.93 t 0 r /Helvetica findfont 64.4212 sf 0 0 m (Data) show NC gr  1391 1529 m 55 Y s 3 lw 1391 1557 m20 6 lw
 gsave  2263 1770 2 313 C 1464.36 1447.41 t 0 r /Helvetica findfont 64.4212 sf 0 0 m (W+jets) show NC gr  0.4 0.6 1 c 3 lw 1338 1434 m 107 X 64 Y -107 X f 6 lw black 3 lw 1338 1498 m 107 X s 1338 1434 m 107 X s 1445 1434 m 64 Y s 1338 1434 m 64 Y s
 gsave  2263 1770 2 313 C 1498.25 1355.88 t 0 r /Helvetica findfont 64.4212 sf 0 0 m (\(+EW\) & single top) show NC gr 
 gsave  2263 1770 2 313 C 1481.3 1355.88 t 0 r /Helvetica findfont 64.4212 sf 0 0 m (t) show NC gr  1481 1407 m 17 X s
 gsave  2263 1770 2 313 C 1464.36 1355.88 t 0 r /Helvetica findfont 64.4212 sf 0 0 m (t) show NC gr  0.6 1 0.6 c 1338 1343 m 107 X 63 Y -107 X f black 1338 1406 m 107 X s 1338 1343 m 107 X s 1445 1343 m 63 Y s 1338 1343 m 63 Y s
 gsave  2263 1770 2 313 C 1464.36 1264.36 t 0 r /Helvetica findfont 64.4212 sf 0 0 m (Z+jets) show NC gr  1 0.8 0.4 c 1338 1252 m 107 X 63 Y -107 X f black 1338 1315 m 107 X s 1338 1252 m 107 X s 1445 1252 m 63 Y s 1338 1252 m 63 Y s
 gsave  2263 1770 2 313 C 1464.36 1172.84 t 0 r /Helvetica findfont 64.4212 sf 0 0 m (Diboson) show NC gr  1 0.4 0.6 c 1338 1161 m 107 X 63 Y -107 X f black 1338 1224 m 107 X s 1338 1161 m 107 X s 1445 1161 m 63 Y s 1338 1161 m 63 Y s
 gsave  2263 1770 2 313 C 1464.36 1081.32 t 0 r /Helvetica findfont 64.4212 sf 0 0 m (Multi\255jet) show NC gr  0 0 0.4 c 1338 1070 m 107 X 63 Y -107 X f black 1338 1133 m 107 X s 1338 1070 m 107 X s 1445 1070 m 63 Y s 1338 1070 m 63 Y s
 gsave  2263 1770 2 313 C 911.832 1566.05 t 0 r /Helvetica findfont 44.0776 sf 0 0 m (\2551) show NC gr 
 gsave  2263 1770 2 313 C 471.17 1535.54 t 0 r /Helvetica findfont 64.4212 sf 0 0 m (=13TeV, 139 fb) show NC gr 
 gsave  2263 1770 2 313 C 440.662 1535.54 t 0 r /Helvetica findfont 64.4212 sf 0 0 m (s) show NC gr  6 lw 420 1573 m 7 -41 d s 3 lw 427 1532 m 7 61 d s 434 1593 m 37 X s 1 1 1 c 2254 561 2 2 bf black 1 1 1 c black 1860 358 318 187 bl 1 1 1 c black
 1860 358 318 187 bl 6 lw 1 1 1 c black 3 lw 364 353 m20 6 lw 3 lw 457 349 m20 6 lw 3 lw 550 353 m20 6 lw 3 lw 643 351 m20 6 lw 3 lw 736 362 m20 6 lw 3 lw 829 337 m20 6 lw 3 lw 923 339 m20 6 lw 3 lw 1016 363 m20 6 lw 3 lw 1109 439 m20 6 lw 3 lw 1202
 335 m20 6 lw 3 lw 1295 411 m20 6 lw 3 lw 1388 381 m20 6 lw 3 lw 1481 330 m20 6 lw 3 lw 318 187 m 1860 X s
 gsave  2254 561 2 2 C 2105.01 64.4045 t 0 r /Helvetica findfont 50.9797 sf 0 0 m (1/2) show NC gr 
 gsave  2254 561 2 2 C 1888.07 23.728 t 0 r /Helvetica findfont 78.1689 sf 0 0 m ( [GeV]) show NC gr 
 gsave  2254 561 2 2 C 1857.56 3.38971 t 0 r /Helvetica findfont 50.9797 sf 0 0 m (T) show NC gr 
 gsave  2254 561 2 2 C 1806.72 23.728 t 0 r /Helvetica findfont 78.1689 sf 0 0 m (H) show NC gr  6 lw 1773 81 m 10 -78 d s 3 lw 1783 3 m 14 99 d s 1797 102 m 91 X s
 gsave  2254 561 2 2 C 1735.53 23.728 t 0 r /Helvetica findfont 78.1689 sf 0 0 m (/) show NC gr 
 gsave  2254 561 2 2 C 1630.45 61.0148 t 0 r /Helvetica findfont 50.9797 sf 0 0 m (miss) show NC gr 
 gsave  2254 561 2 2 C 1630.45 3.38971 t 0 r /Helvetica findfont 50.9797 sf 0 0 m (T) show NC gr 
 gsave  2254 561 2 2 C 1579.61 23.728 t 0 r /Helvetica findfont 78.1689 sf 0 0 m (E) show NC gr  318 201 m -14 Y s 364 194 m -7 Y s 411 194 m -7 Y s 457 194 m -7 Y s 504 194 m -7 Y s 550 201 m -14 Y s 597 194 m -7 Y s 643 194 m -7 Y s 690 194 m -7 Y
 s 736 194 m -7 Y s 783 201 m -14 Y s 829 194 m -7 Y s 876 194 m -7 Y s 923 194 m -7 Y s 969 194 m -7 Y s 1016 201 m -14 Y s 1062 194 m -7 Y s 1109 194 m -7 Y s 1155 194 m -7 Y s 1202 194 m -7 Y s 1248 201 m -14 Y s 1295 194 m -7 Y s 1341 194 m -7 Y
 s 1388 194 m -7 Y s 1434 194 m -7 Y s 1481 201 m -14 Y s 1527 194 m -7 Y s 1574 194 m -7 Y s 1620 194 m -7 Y s 1667 194 m -7 Y s 1713 201 m -14 Y s 1760 194 m -7 Y s 1806 194 m -7 Y s 1853 194 m -7 Y s 1899 194 m -7 Y s 1946 201 m -14 Y s 1992 194 m
 -7 Y s 2039 194 m -7 Y s 2085 194 m -7 Y s 2132 194 m -7 Y s 2178 201 m -14 Y s
 gsave  2254 561 2 2 C 271.177 118.64 t 0 r /Helvetica findfont 78.1689 sf 0 0 m (10) show NC gr 
 gsave  2254 561 2 2 C 505.067 118.64 t 0 r /Helvetica findfont 78.1689 sf 0 0 m (15) show NC gr 
 gsave  2254 561 2 2 C 735.567 118.64 t 0 r /Helvetica findfont 78.1689 sf 0 0 m (20) show NC gr 
 gsave  2254 561 2 2 C 969.457 118.64 t 0 r /Helvetica findfont 78.1689 sf 0 0 m (25) show NC gr 
 gsave  2254 561 2 2 C 1203.35 118.64 t 0 r /Helvetica findfont 78.1689 sf 0 0 m (30) show NC gr 
 gsave  2254 561 2 2 C 1433.85 118.64 t 0 r /Helvetica findfont 78.1689 sf 0 0 m (35) show NC gr 
 gsave  2254 561 2 2 C 1667.74 118.64 t 0 r /Helvetica findfont 78.1689 sf 0 0 m (40) show NC gr 
 gsave  2254 561 2 2 C 1901.63 118.64 t 0 r /Helvetica findfont 78.1689 sf 0 0 m (45) show NC gr 
 gsave  2254 561 2 2 C 2132.13 118.64 t 0 r /Helvetica findfont 78.1689 sf 0 0 m (50) show NC gr  318 545 m 1860 X s 318 531 m 14 Y s 364 538 m 7 Y s 411 538 m 7 Y s 457 538 m 7 Y s 504 538 m 7 Y s 550 531 m 14 Y s 597 538 m 7 Y s 643 538 m 7 Y s 690
 538 m 7 Y s 736 538 m 7 Y s 783 531 m 14 Y s 829 538 m 7 Y s 876 538 m 7 Y s 923 538 m 7 Y s 969 538 m 7 Y s 1016 531 m 14 Y s 1062 538 m 7 Y s 1109 538 m 7 Y s 1155 538 m 7 Y s 1202 538 m 7 Y s 1248 531 m 14 Y s 1295 538 m 7 Y s 1341 538 m 7 Y s
 1388 538 m 7 Y s 1434 538 m 7 Y s 1481 531 m 14 Y s 1527 538 m 7 Y s 1574 538 m 7 Y s 1620 538 m 7 Y s 1667 538 m 7 Y s 1713 531 m 14 Y s 1760 538 m 7 Y s 1806 538 m 7 Y s 1853 538 m 7 Y s 1899 538 m 7 Y s 1946 531 m 14 Y s 1992 538 m 7 Y s 2039 538
 m 7 Y s 2085 538 m 7 Y s 2132 538 m 7 Y s 2178 531 m 14 Y s 318 187 m 358 Y s
 gsave  2254 561 2 2 C 166.096 284.736 t 90 r /Helvetica findfont 67.9729 sf 0 0 m (Data/SM) show NC gr  361 203 m -43 X s 339 220 m -21 X s 339 236 m -21 X s 339 252 m -21 X s 339 268 m -21 X s 361 285 m -43 X s 339 301 m -21 X s 339 317 m -21 X s
 339 334 m -21 X s 339 350 m -21 X s 361 366 m -43 X s 339 382 m -21 X s 339 399 m -21 X s 339 415 m -21 X s 339 431 m -21 X s 361 447 m -43 X s 339 464 m -21 X s 339 480 m -21 X s 339 496 m -21 X s 339 512 m -21 X s 361 529 m -43 X s 361 203 m -43 X
 s 339 187 m -21 X s 361 529 m -43 X s
 gsave  2254 561 2 2 C 261.008 183.044 t 0 r /Helvetica findfont 57.777 sf 0 0 m (0) show NC gr 
 gsave  2254 561 2 2 C 213.552 261.008 t 0 r /Helvetica findfont 57.777 sf 0 0 m (0.5) show NC gr 
 gsave  2254 561 2 2 C 271.177 342.361 t 0 r /Helvetica findfont 57.777 sf 0 0 m (1) show NC gr 
 gsave  2254 561 2 2 C 213.552 423.714 t 0 r /Helvetica findfont 57.777 sf 0 0 m (1.5) show NC gr 
 gsave  2254 561 2 2 C 261.008 505.067 t 0 r /Helvetica findfont 57.777 sf 0 0 m (2) show NC gr  2178 187 m 358 Y s 2135 203 m 43 X s 2157 220 m 21 X s 2157 236 m 21 X s 2157 252 m 21 X s 2157 268 m 21 X s 2135 285 m 43 X s 2157 301 m 21 X s 2157 317
 m 21 X s 2157 334 m 21 X s 2157 350 m 21 X s 2135 366 m 43 X s 2157 382 m 21 X s 2157 399 m 21 X s 2157 415 m 21 X s 2157 431 m 21 X s 2135 447 m 43 X s 2157 464 m 21 X s 2157 480 m 21 X s 2157 496 m 21 X s 2157 512 m 21 X s 2135 529 m 43 X s 2135
 203 m 43 X s 2157 187 m 21 X s 2135 529 m 43 X s 9 lw 923 352 m 2 Y s 923 354 m cl s 923 325 m -1 Y s 923 324 m cl s 1016 377 m 10 Y s 1016 387 m cl s 1016 349 m -10 Y s 1016 339 m cl s 1109 453 m 32 Y s 1109 485 m cl s 1109 425 m -32 Y s 1109 393 m
 cl s 1202 348 m 38 Y s 1202 386 m cl s 1202 321 m -35 Y s 1202 286 m cl s 1295 425 m 68 Y s 1295 493 m cl s 1295 398 m -63 Y s 1295 335 m cl s 1388 395 m 131 Y s 1388 526 m cl s 1388 368 m -101 Y s 1388 267 m cl s 1481 343 m 149 Y s 1481 492 m cl s
 1481 316 m -91 Y s 1481 225 m cl s 1667 545 m -212 Y s 1667 333 m cl s 3 lw 364 353 457 349 550 353 643 351 736 362 829 337 923 339 1016 363 1109 439 1202 335 1295 411 1388 381 1481 330 13 { m20} R 9 lw 1 0 0 c 6 lw black 3 lw 1 0 0 c 2178 312 m -18
 -19 d s 2178 341 m -47 -48 d s 2178 369 m -76 -76 d s 2178 398 m -101 -101 d s 2178 427 m -130 -130 d s 2162 439 m -143 -142 d s 2133 439 m -153 -153 d s 2104 439 m -153 -153 d s 2072 435 m -149 -149 d s 2044 435 m -145 -144 d s 2015 435 m -133 -132
 d s 1992 441 m -139 -138 d s 1968 446 m -143 -143 d s 1940 446 m -154 -153 d s 1911 446 m -12 -12 d s 1894 429 m -136 -136 d s 1865 429 m -136 -136 d s 1713 278 m -7 -8 d s 1837 429 m -160 -159 d s 1808 429 m -160 -159 d s 1789 439 m -169 -168 d s
 1760 439 m -140 -140 d s 1732 439 m -135 -134 d s 1713 449 m -145 -144 d s 1697 462 m -157 -157 d s 1527 292 m -1 -1 d s 1669 462 m -172 -171 d s 1640 462 m -20 -20 d s 1605 427 m -136 -136 d s 1576 427 m -136 -136 d s 1548 427 m -114 -113 d s 1527
 435 m -93 -92 d s 1504 441 m -97 -97 d s 1475 441 m -41 -41 d s 1423 388 m -45 -44 d s 1447 441 m -13 -13 d s 1394 388 m -45 -44 d s 1341 336 m s 1365 388 m -53 -52 d s 1341 393 m -57 -57 d s 1316 396 m -61 -60 d s 1287 396 m -45 -45 d s 1259 396 m
 -11 -10 d s 1243 381 m -30 -30 d s 1214 381 m -29 -30 d s 1155 322 m -16 -16 d s 1185 381 m -29 -30 d s 1155 350 m -45 -44 d s 1157 381 m -76 -75 d s 1155 408 m -93 -93 d s 1145 426 m -83 -83 d s 1117 426 m -73 -72 d s 1088 426 m -26 -25 d s 1040
 378 m -25 -24 d s 1011 378 m -25 -24 d s 982 378 m -25 -25 d s 954 379 m -26 -26 d s 925 379 m -25 -26 d s 897 379 m -23 -23 d s 865 376 m -20 -20 d s 836 376 m -19 -20 d s 808 376 m -20 -20 d s 779 376 m -20 -20 d s 750 376 m -20 -20 d s 722 376 m
 -20 -20 d s 693 376 m -20 -20 d s 665 376 m -21 -20 d s 636 376 m -21 -20 d s 607 376 m -21 -21 d s 579 377 m -22 -22 d s 551 377 m -22 -22 d s 522 377 m -22 -21 d s 493 377 m -21 -21 d s 464 377 m -21 -21 d s 318 231 m s 435 377 m -21 -21 d s 318
 259 m s 406 376 m -20 -20 d s 318 288 m s 377 376 m -20 -20 d s 318 317 m s 349 376 m -20 -20 d s 318 345 m s 320 376 m -2 -2 d s 6 lw black[ 4 8] 0 sd 3 lw 318 447 m 1860 X s 318 285 m 1860 X s 1 0 0 c[  12 12 ] 0 sd 6 lw 318 366 m 1860 X s
 gr  gr showpage
end
%%EOF
