%!PS-Adobe-2.0 EPSF-2.0
%%BoundingBox:  0 0 567 521
%%Title: Distributions/metsqrtmeffInc_met_distrCRY_MB-GGo_beforeFit_forThesis.eps: canvas
%%Creator: ROOT Version 6.04/16
%%CreationDate: Tue May 19 22:06:10 2020
%%DocumentNeededResources: ProcSet (FontSetInit)
%%EndComments
%%BeginProlog
80 dict begin
/s {stroke} def /l {lineto} def /m {moveto} def /t {translate} def
/r {rotate} def /rl {roll}  def /R {repeat} def
/d {rlineto} def /rm {rmoveto} def /gr {grestore} def /f {eofill} def
/c {setrgbcolor} def /black {0 setgray} def /sd {setdash} def
/cl {closepath} def /sf {scalefont setfont} def /lw {setlinewidth} def
/box {m dup 0 exch d exch 0 d 0 exch neg d cl} def
/NC{systemdict begin initclip end}def/C{NC box clip newpath}def
/bl {box s} def /bf {gsave box gsave f grestore 1 lw [] 0 sd s grestore} def /Y { 0 exch d} def /X { 0 d} def 
/K {{pop pop 0 moveto} exch kshow} bind def
/ita {/ang 15 def gsave [1 0 ang dup sin exch cos div 1 0 0] concat} def 
/mp {newpath /y exch def /x exch def} def
/side {[w .77 mul w .23 mul] .385 w mul sd w 0 l currentpoint t -144 r} def
/mr {mp x y w2 0 360 arc} def /m24 {mr s} def /m20 {mr f} def
/mb {mp x y w2 add m w2 neg 0 d 0 w neg d w 0 d 0 w d cl} def
/mt {mp x y w2 add m w2 neg w neg d w 0 d cl} def
/m21 {mb f} def /m25 {mb s} def /m22 {mt f} def /m26{mt s} def
/m23 {mp x y w2 sub m w2 w d w neg 0 d cl f} def
/m27 {mp x y w2 add m w3 neg w2 neg d w3 w2 neg d w3 w2 d cl s} def
/m28 {mp x w2 sub y w2 sub w3 add m w3 0 d  0 w3 neg d w3 0 d 0 w3 d w3 0 d  0 w3 d w3 neg 0 d 0 w3 d w3 neg 0 d 0 w3 neg d w3 neg 0 d cl s } def
/m29 {mp gsave x w2 sub y w2 add w3 sub m currentpoint t 4 {side} repeat cl fill gr} def
/m30 {mp gsave x w2 sub y w2 add w3 sub m currentpoint t 4 {side} repeat cl s gr} def
/m31 {mp x y w2 sub m 0 w d x w2 sub y m w 0 d x w2 sub y w2 add m w w neg d x w2 sub y w2 sub m w w d s} def
/m32 {mp x y w2 sub m w2 w d w neg 0 d cl s} def
/m33 {mp x y w2 add m w3 neg w2 neg d w3 w2 neg d w3 w2 d cl f} def
/m34 {mp x w2 sub y w2 sub w3 add m w3 0 d  0 w3 neg d w3 0 d 0 w3 d w3 0 d  0 w3 d w3 neg 0 d 0 w3 d w3 neg 0 d 0 w3 neg d w3 neg 0 d cl f } def
/m2 {mp x y w2 sub m 0 w d x w2 sub y m w 0 d s} def
/m5 {mp x w2 sub y w2 sub m w w d x w2 sub y w2 add m w w neg d s} def
%%IncludeResource: ProcSet (FontSetInit)
%%IncludeResource: font Times-Roman
%%IncludeResource: font Times-Italic
%%IncludeResource: font Times-Bold
%%IncludeResource: font Times-BoldItalic
%%IncludeResource: font Helvetica
%%IncludeResource: font Helvetica-Oblique
%%IncludeResource: font Helvetica-Bold
%%IncludeResource: font Helvetica-BoldOblique
%%IncludeResource: font Courier
%%IncludeResource: font Courier-Oblique
%%IncludeResource: font Courier-Bold
%%IncludeResource: font Courier-BoldOblique
%%IncludeResource: font Symbol
%%IncludeResource: font ZapfDingbats
/reEncode {exch findfont dup length dict begin {1 index /FID eq  {pop pop} {def} ifelse } forall /Encoding exch def currentdict end dup /FontName get exch definefont pop } def [/Times-Bold /Times-Italic /Times-BoldItalic /Helvetica /Helvetica-Oblique
 /Helvetica-Bold /Helvetica-BoldOblique /Courier /Courier-Oblique /Courier-Bold /Courier-BoldOblique /Times-Roman /AvantGarde-Book /AvantGarde-BookOblique /AvantGarde-Demi /AvantGarde-DemiOblique /Bookman-Demi /Bookman-DemiItalic /Bookman-Light
 /Bookman-LightItalic /Helvetica-Narrow /Helvetica-Narrow-Bold /Helvetica-Narrow-BoldOblique /Helvetica-Narrow-Oblique /NewCenturySchlbk-Roman /NewCenturySchlbk-Bold /NewCenturySchlbk-BoldItalic /NewCenturySchlbk-Italic /Palatino-Bold
 /Palatino-BoldItalic /Palatino-Italic /Palatino-Roman ] {ISOLatin1Encoding reEncode } forall
%%EndProlog
%%BeginSetup
%%EndSetup
newpath  gsave  .25 .25 scale  gsave  0 0 t black[  ] 0 sd 3 lw 1 1 1 c 2268 2085 0 0 bf black 1 1 1 c 2263 1770 2 313 bf black 1 1 1 c black 1860 1145 319 584 bl 1 1 1 c black 1860 1145 319 584 bl 6 lw 1 1 1 c black 3 lw /w 33 def /w2 {w 2 div} def
 /w3 {w 3 div} def 412 1103 m20 6 lw 3 lw 598 1076 m20 6 lw 3 lw 784 1028 m20 6 lw 970 991 m 2 Y s 3 lw 970 1006 m20 6 lw 1156 951 m 6 Y s 1156 984 m 2 Y s 3 lw 1156 971 m20 6 lw 1342 929 m 9 Y s 1342 965 m 5 Y s 3 lw 1342 952 m20 6 lw 1528 831 m 31
 Y s 1528 889 m 14 Y s 3 lw 1528 875 m20 6 lw 1714 773 m 51 Y s 1714 851 m 20 Y s 3 lw 1714 837 m20 6 lw 1900 716 m 78 Y s 1900 821 m 26 Y s 3 lw 1900 807 m20 6 lw 2086 907 m 13 Y s 2086 948 m 6 Y s 3 lw 2086 934 m20 6 lw 3 lw 319 584 m 1860 X s
 gsave  2263 1770 2 313 C 2101.62 396.596 t 0 r /Helvetica findfont 54.2494 sf 0 0 m (1/2) show NC gr 
 gsave  2263 1770 2 313 C 1874.51 355.92 t 0 r /Helvetica findfont 81.3741 sf 0 0 m ( [GeV]) show NC gr 
 gsave  2263 1770 2 313 C 1840.61 332.192 t 0 r /Helvetica findfont 54.2494 sf 0 0 m (T) show NC gr 
 gsave  2263 1770 2 313 C 1786.38 355.92 t 0 r /Helvetica findfont 81.3741 sf 0 0 m (H) show NC gr  6 lw 1749 417 m 14 -85 d s 3 lw 1763 332 m 13 105 d s 1776 437 m 99 X s
 gsave  2263 1770 2 313 C 1711.8 355.92 t 0 r /Helvetica findfont 81.3741 sf 0 0 m (/) show NC gr 
 gsave  2263 1770 2 313 C 1599.94 396.596 t 0 r /Helvetica findfont 54.2494 sf 0 0 m (miss) show NC gr 
 gsave  2263 1770 2 313 C 1599.94 332.192 t 0 r /Helvetica findfont 54.2494 sf 0 0 m (T) show NC gr 
 gsave  2263 1770 2 313 C 1549.1 355.92 t 0 r /Helvetica findfont 81.3741 sf 0 0 m (E) show NC gr  319 584 m cl s 366 584 m cl s 412 584 m cl s 459 584 m cl s 505 584 m cl s 552 584 m cl s 598 584 m cl s 645 584 m cl s 691 584 m cl s 738 584 m cl s
 784 584 m cl s 831 584 m cl s 877 584 m cl s 924 584 m cl s 970 584 m cl s 1017 584 m cl s 1063 584 m cl s 1110 584 m cl s 1156 584 m cl s 1203 584 m cl s 1249 584 m cl s 1296 584 m cl s 1342 584 m cl s 1389 584 m cl s 1435 584 m cl s 1482 584 m cl
 s 1528 584 m cl s 1575 584 m cl s 1621 584 m cl s 1668 584 m cl s 1714 584 m cl s 1761 584 m cl s 1807 584 m cl s 1854 584 m cl s 1900 584 m cl s 1947 584 m cl s 1993 584 m cl s 2040 584 m cl s 2086 584 m cl s 2133 584 m cl s 2179 584 m cl s 319
 1729 m 1860 X s 319 1729 m cl s 366 1729 m cl s 412 1729 m cl s 459 1729 m cl s 505 1729 m cl s 552 1729 m cl s 598 1729 m cl s 645 1729 m cl s 691 1729 m cl s 738 1729 m cl s 784 1729 m cl s 831 1729 m cl s 877 1729 m cl s 924 1729 m cl s 970 1729
 m cl s 1017 1729 m cl s 1063 1729 m cl s 1110 1729 m cl s 1156 1729 m cl s 1203 1729 m cl s 1249 1729 m cl s 1296 1729 m cl s 1342 1729 m cl s 1389 1729 m cl s 1435 1729 m cl s 1482 1729 m cl s 1528 1729 m cl s 1575 1729 m cl s 1621 1729 m cl s 1668
 1729 m cl s 1714 1729 m cl s 1761 1729 m cl s 1807 1729 m cl s 1854 1729 m cl s 1900 1729 m cl s 1947 1729 m cl s 1993 1729 m cl s 2040 1729 m cl s 2086 1729 m cl s 2133 1729 m cl s 2179 1729 m cl s 319 584 m 1145 Y s
 gsave  2263 1770 2 313 C 125.419 1654.18 t 90 r /Helvetica findfont 54.2494 sf 0 0 m (1/2) show NC gr 
 gsave  2263 1770 2 313 C 166.096 1064.37 t 90 r /Helvetica findfont 81.3741 sf 0 0 m (Events / 2 [GeV]) show NC gr  341 636 m -22 X s 341 666 m -22 X s 341 687 m -22 X s 341 704 m -22 X s 341 718 m -22 X s 341 729 m -22 X s 341 739 m -22 X s 341 748
 m -22 X s 363 756 m -44 X s
 gsave  2263 1770 2 313 C 300.555 728.481 t 0 r  -36 0 t /Helvetica findfont 64.4212 sf 0 0 m (1) show NC gr  341 807 m -22 X s 341 837 m -22 X s 341 859 m -22 X s 341 875 m -22 X s 341 889 m -22 X s 341 900 m -22 X s 341 910 m -22 X s 341 919 m -22
 X s 363 927 m -44 X s
 gsave  2263 1770 2 313 C 300.555 899.769 t 0 r  -73 0 t /Helvetica findfont 64.4212 sf 0 0 m (10) show NC gr  341 978 m -22 X s 341 1009 m -22 X s 341 1030 m -22 X s 341 1047 m -22 X s 341 1060 m -22 X s 341 1072 m -22 X s 341 1082 m -22 X s 341
 1090 m -22 X s 363 1098 m -44 X s
 gsave  2263 1770 2 313 C 274.567 1094.88 t 0 r /Helvetica findfont 44.0776 sf 0 0 m (2) show NC gr 
 gsave  2263 1770 2 313 C 203.383 1067.76 t 0 r /Helvetica findfont 64.4212 sf 0 0 m (10) show NC gr  341 1150 m -22 X s 341 1180 m -22 X s 341 1201 m -22 X s 341 1218 m -22 X s 341 1231 m -22 X s 341 1243 m -22 X s 341 1253 m -22 X s 341 1262 m -22
 X s 363 1269 m -44 X s
 gsave  2263 1770 2 313 C 274.567 1271.14 t 0 r /Helvetica findfont 44.0776 sf 0 0 m (3) show NC gr 
 gsave  2263 1770 2 313 C 203.383 1240.63 t 0 r /Helvetica findfont 64.4212 sf 0 0 m (10) show NC gr  341 1321 m -22 X s 341 1351 m -22 X s 341 1373 m -22 X s 341 1389 m -22 X s 341 1403 m -22 X s 341 1414 m -22 X s 341 1424 m -22 X s 341 1433 m -22
 X s 363 1441 m -44 X s
 gsave  2263 1770 2 313 C 274.567 1440.63 t 0 r /Helvetica findfont 44.0776 sf 0 0 m (4) show NC gr 
 gsave  2263 1770 2 313 C 203.383 1413.51 t 0 r /Helvetica findfont 64.4212 sf 0 0 m (10) show NC gr  341 1492 m -22 X s 341 1522 m -22 X s 341 1544 m -22 X s 341 1560 m -22 X s 341 1574 m -22 X s 341 1586 m -22 X s 341 1595 m -22 X s 341 1604 m -22
 X s 363 1612 m -44 X s
 gsave  2263 1770 2 313 C 274.567 1613.5 t 0 r /Helvetica findfont 44.0776 sf 0 0 m (5) show NC gr 
 gsave  2263 1770 2 313 C 203.383 1582.99 t 0 r /Helvetica findfont 64.4212 sf 0 0 m (10) show NC gr  341 1664 m -22 X s 341 1694 m -22 X s 341 1715 m -22 X s 2179 584 m 1145 Y s 2157 636 m 22 X s 2157 666 m 22 X s 2157 687 m 22 X s 2157 704 m 22 X s
 2157 718 m 22 X s 2157 729 m 22 X s 2157 739 m 22 X s 2157 748 m 22 X s 2136 756 m 43 X s 2157 807 m 22 X s 2157 837 m 22 X s 2157 859 m 22 X s 2157 875 m 22 X s 2157 889 m 22 X s 2157 900 m 22 X s 2157 910 m 22 X s 2157 919 m 22 X s 2136 927 m 43 X
 s 2157 978 m 22 X s 2157 1009 m 22 X s 2157 1030 m 22 X s 2157 1047 m 22 X s 2157 1060 m 22 X s 2157 1072 m 22 X s 2157 1082 m 22 X s 2157 1090 m 22 X s 2136 1098 m 43 X s 2157 1150 m 22 X s 2157 1180 m 22 X s 2157 1201 m 22 X s 2157 1218 m 22 X s
 2157 1231 m 22 X s 2157 1243 m 22 X s 2157 1253 m 22 X s 2157 1262 m 22 X s 2136 1269 m 43 X s 2157 1321 m 22 X s 2157 1351 m 22 X s 2157 1373 m 22 X s 2157 1389 m 22 X s 2157 1403 m 22 X s 2157 1414 m 22 X s 2157 1424 m 22 X s 2157 1433 m 22 X s
 2136 1441 m 43 X s 2157 1492 m 22 X s 2157 1522 m 22 X s 2157 1544 m 22 X s 2157 1560 m 22 X s 2157 1574 m 22 X s 2157 1586 m 22 X s 2157 1595 m 22 X s 2157 1604 m 22 X s 2136 1612 m 43 X s 2157 1664 m 22 X s 2157 1694 m 22 X s 2157 1715 m 22 X s 1
 1 0 c black 1 1 0 c 319 584 m 549 Y 186 X -32 Y 186 X -33 Y 186 X -34 Y 186 X -31 Y 186 X -40 Y 186 X -20 Y 186 X -53 Y 186 X -27 Y 186 X 6 Y 186 X -285 Y f black 1 1 0 c black 319 1133 m 186 X -32 Y 186 X -33 Y 186 X -34 Y 186 X -31 Y 186 X -40 Y
 186 X -20 Y 186 X -53 Y 186 X -27 Y 186 X 6 Y 186 X s 0.999 0.999 0.999 c black 0.999 0.999 0.999 c 319 584 m 257 Y 186 X -31 Y 186 X -29 Y 186 X -42 Y 186 X -36 Y 186 X -15 Y 186 X -103 Y 186 X 22 Y 186 X -23 Y 186 X 71 Y 186 X -71 Y f black 0.999
 0.999 0.999 c black 319 841 m 186 X -31 Y 186 X -29 Y 186 X -42 Y 186 X -36 Y 186 X -15 Y 186 X -103 Y 186 X 22 Y 186 X -23 Y 186 X 71 Y 186 X s 1 1 1 c black 319 841 m 186 X -31 Y 186 X -29 Y 186 X -42 Y 186 X -36 Y 186 X -15 Y 186 X -103 Y 186 X
 22 Y 186 X -23 Y 186 X 71 Y 186 X s 0.4 0.6 1 c black 0.4 0.6 1 c 319 584 m 257 Y 186 X -31 Y 186 X -29 Y 186 X -42 Y 186 X -36 Y 186 X -15 Y 186 X -103 Y 186 X 22 Y 186 X -23 Y 186 X 71 Y 186 X -71 Y f black 0.4 0.6 1 c black 319 841 m 186 X -31 Y
 186 X -29 Y 186 X -42 Y 186 X -36 Y 186 X -15 Y 186 X -103 Y 186 X 22 Y 186 X -23 Y 186 X 71 Y 186 X s 0.999 0.999 0.999 c black 0.999 0.999 0.999 c 319 584 m 249 Y 186 X -38 Y 186 X -26 Y 186 X -54 Y 186 X -12 Y 186 X -21 Y 186 X -97 Y 186 X -1 Y
 372 X 71 Y 186 X -71 Y f black 0.999 0.999 0.999 c black 319 833 m 186 X -38 Y 186 X -26 Y 186 X -54 Y 186 X -12 Y 186 X -21 Y 186 X -97 Y 186 X -1 Y 372 X 71 Y 186 X s 1 1 1 c black 319 833 m 186 X -38 Y 186 X -26 Y 186 X -54 Y 186 X -12 Y 186 X
 -21 Y 186 X -97 Y 186 X -1 Y 372 X 71 Y 186 X s 0.6 1 0.6 c black 0.6 1 0.6 c 319 584 m 249 Y 186 X -38 Y 186 X -26 Y 186 X -54 Y 186 X -12 Y 186 X -21 Y 186 X -97 Y 186 X -1 Y 372 X 71 Y 186 X -71 Y f black 0.6 1 0.6 c black 319 833 m 186 X -38 Y
 186 X -26 Y 186 X -54 Y 186 X -12 Y 186 X -21 Y 186 X -97 Y 186 X -1 Y 372 X 71 Y 186 X s 0.999 0.999 0.999 c black 0.999 0.999 0.999 c 319 584 m 372 X 8 Y 186 X -8 Y 186 X 77 Y 186 X -77 Y 930 X f black 0.999 0.999 0.999 c black 319 584 m 372 X 8 Y
 186 X -8 Y 186 X 77 Y 186 X -77 Y 930 X s 1 1 1 c black 319 584 m 372 X 8 Y 186 X -8 Y 186 X 77 Y 186 X -77 Y 930 X s 1 0.4 0.6 c black 1 0.4 0.6 c 319 584 m 372 X 8 Y 186 X -8 Y 186 X 77 Y 186 X -77 Y 930 X f black 1 0.4 0.6 c black 319 584 m 372 X
 8 Y 186 X -8 Y 186 X 77 Y 186 X -77 Y 930 X s 1 0 0 c 6 lw 1 1 1 c black 1 0 0 c 319 1133 m 186 X -32 Y 186 X -33 Y 186 X -34 Y 186 X -31 Y 186 X -40 Y 186 X -20 Y 186 X -52 Y 186 X -28 Y 186 X 6 Y 186 X s black 3 lw 1 0 0 c 1 lw << /PatternType 1
 /PaintType 2 /TilingType 1 /BBox [ 0 0 100 100 ] /XStep 100 /YStep 100 /PaintProc { begin gsave 0 100 m 100 0 l s gr end } >> [ 0.24 0 0 0.24 0 0 ] makepattern /P05 exch def /cs {[/Pattern /DeviceRGB] setcolorspace} def /FA {f [/DeviceRGB]
 setcolorspace} def cs 1 0 0 P05 setcolor 319 584 m 555 Y 186 X -31 Y 186 X -32 Y 186 X -34 Y 186 X -28 Y 186 X -43 Y 186 X -13 Y 186 X -57 Y 186 X -28 Y 186 X 3 Y 186 X -15 Y -186 X -9 Y -186 X 27 Y -186 X 45 Y -186 X 30 Y -186 X 36 Y -186 X 36 Y
 -186 X 34 Y -186 X 35 Y -186 X 32 Y -186 X -543 Y FA 6 lw 1 1 1 c 15 lw 1342 932 m -3 Y s 1342 929 m cl s 1528 896 m 8 Y s 1528 904 m cl s 1528 855 m -22 Y s 1528 833 m cl s 1714 858 m 16 Y s 1714 874 m cl s 1714 817 m -38 Y s 1714 779 m cl s 1900
 827 m 24 Y s 1900 851 m cl s 1900 787 m -57 Y s 1900 730 m cl s 2086 914 m -6 Y s 2086 908 m cl s black 1 1 1 c 3 lw /w 43 def /w2 {w 2 div} def /w3 {w 3 div} def 412 1103 598 1076 784 1028 970 1006 1156 971 1342 952 1528 875 1714 837 1900 807 2086
 934 10 { m20} R 15 lw black 6 lw 1 1 1 c black 3 lw /w 33 def /w2 {w 2 div} def /w3 {w 3 div} def 412 1103 m20 6 lw 3 lw 598 1076 m20 6 lw 3 lw 784 1028 m20 6 lw 970 991 m 2 Y s 3 lw 970 1006 m20 6 lw 1156 951 m 6 Y s 1156 984 m 2 Y s 3 lw 1156 971
 m20 6 lw 1342 929 m 9 Y s 1342 965 m 5 Y s 3 lw 1342 952 m20 6 lw 1528 831 m 31 Y s 1528 889 m 14 Y s 3 lw 1528 875 m20 6 lw 1714 773 m 51 Y s 1714 851 m 20 Y s 3 lw 1714 837 m20 6 lw 1900 716 m 78 Y s 1900 821 m 26 Y s 3 lw 1900 807 m20 6 lw 2086
 907 m 13 Y s 2086 948 m 6 Y s 3 lw 2086 934 m20 6 lw 970 993 m -2 Y s 970 991 m cl s 1156 984 m 3 Y s 1156 987 m cl s 1156 957 m -6 Y s 1156 951 m cl s 1342 965 m 5 Y s 1342 970 m cl s 1342 938 m -9 Y s 1342 929 m cl s 1528 889 m 15 Y s 1528 904 m
 cl s 1528 862 m -29 Y s 1528 833 m cl s 1714 851 m 23 Y s 1714 874 m cl s 1714 824 m -45 Y s 1714 779 m cl s 1900 821 m 30 Y s 1900 851 m cl s 1900 794 m -64 Y s 1900 730 m cl s 2086 948 m 6 Y s 2086 954 m cl s 2086 920 m -12 Y s 2086 908 m cl s 3
 lw 412 1103 598 1076 784 1028 970 1006 1156 971 1342 952 1528 875 1714 837 1900 807 2086 934 10 { m20} R 6 lw 3 lw 319 584 m 1860 X s 319 584 m cl s 366 584 m cl s 412 584 m cl s 459 584 m cl s 505 584 m cl s 552 584 m cl s 598 584 m cl s 645 584 m
 cl s 691 584 m cl s 738 584 m cl s 784 584 m cl s 831 584 m cl s 877 584 m cl s 924 584 m cl s 970 584 m cl s 1017 584 m cl s 1063 584 m cl s 1110 584 m cl s 1156 584 m cl s 1203 584 m cl s 1249 584 m cl s 1296 584 m cl s 1342 584 m cl s 1389 584 m
 cl s 1435 584 m cl s 1482 584 m cl s 1528 584 m cl s 1575 584 m cl s 1621 584 m cl s 1668 584 m cl s 1714 584 m cl s 1761 584 m cl s 1807 584 m cl s 1854 584 m cl s 1900 584 m cl s 1947 584 m cl s 1993 584 m cl s 2040 584 m cl s 2086 584 m cl s 2133
 584 m cl s 2179 584 m cl s 319 1729 m 1860 X s 319 1729 m cl s 366 1729 m cl s 412 1729 m cl s 459 1729 m cl s 505 1729 m cl s 552 1729 m cl s 598 1729 m cl s 645 1729 m cl s 691 1729 m cl s 738 1729 m cl s 784 1729 m cl s 831 1729 m cl s 877 1729 m
 cl s 924 1729 m cl s 970 1729 m cl s 1017 1729 m cl s 1063 1729 m cl s 1110 1729 m cl s 1156 1729 m cl s 1203 1729 m cl s 1249 1729 m cl s 1296 1729 m cl s 1342 1729 m cl s 1389 1729 m cl s 1435 1729 m cl s 1482 1729 m cl s 1528 1729 m cl s 1575
 1729 m cl s 1621 1729 m cl s 1668 1729 m cl s 1714 1729 m cl s 1761 1729 m cl s 1807 1729 m cl s 1854 1729 m cl s 1900 1729 m cl s 1947 1729 m cl s 1993 1729 m cl s 2040 1729 m cl s 2086 1729 m cl s 2133 1729 m cl s 2179 1729 m cl s 319 584 m 1145 Y
 s 341 636 m -22 X s 341 666 m -22 X s 341 687 m -22 X s 341 704 m -22 X s 341 718 m -22 X s 341 729 m -22 X s 341 739 m -22 X s 341 748 m -22 X s 363 756 m -44 X s 341 807 m -22 X s 341 837 m -22 X s 341 859 m -22 X s 341 875 m -22 X s 341 889 m -22
 X s 341 900 m -22 X s 341 910 m -22 X s 341 919 m -22 X s 363 927 m -44 X s 341 978 m -22 X s 341 1009 m -22 X s 341 1030 m -22 X s 341 1047 m -22 X s 341 1060 m -22 X s 341 1072 m -22 X s 341 1082 m -22 X s 341 1090 m -22 X s 363 1098 m -44 X s 341
 1150 m -22 X s 341 1180 m -22 X s 341 1201 m -22 X s 341 1218 m -22 X s 341 1231 m -22 X s 341 1243 m -22 X s 341 1253 m -22 X s 341 1262 m -22 X s 363 1269 m -44 X s 341 1321 m -22 X s 341 1351 m -22 X s 341 1373 m -22 X s 341 1389 m -22 X s 341
 1403 m -22 X s 341 1414 m -22 X s 341 1424 m -22 X s 341 1433 m -22 X s 363 1441 m -44 X s 341 1492 m -22 X s 341 1522 m -22 X s 341 1544 m -22 X s 341 1560 m -22 X s 341 1574 m -22 X s 341 1586 m -22 X s 341 1595 m -22 X s 341 1604 m -22 X s 363
 1612 m -44 X s 341 1664 m -22 X s 341 1694 m -22 X s 341 1715 m -22 X s 2179 584 m 1145 Y s 2157 636 m 22 X s 2157 666 m 22 X s 2157 687 m 22 X s 2157 704 m 22 X s 2157 718 m 22 X s 2157 729 m 22 X s 2157 739 m 22 X s 2157 748 m 22 X s 2136 756 m 43
 X s 2157 807 m 22 X s 2157 837 m 22 X s 2157 859 m 22 X s 2157 875 m 22 X s 2157 889 m 22 X s 2157 900 m 22 X s 2157 910 m 22 X s 2157 919 m 22 X s 2136 927 m 43 X s 2157 978 m 22 X s 2157 1009 m 22 X s 2157 1030 m 22 X s 2157 1047 m 22 X s 2157
 1060 m 22 X s 2157 1072 m 22 X s 2157 1082 m 22 X s 2157 1090 m 22 X s 2136 1098 m 43 X s 2157 1150 m 22 X s 2157 1180 m 22 X s 2157 1201 m 22 X s 2157 1218 m 22 X s 2157 1231 m 22 X s 2157 1243 m 22 X s 2157 1253 m 22 X s 2157 1262 m 22 X s 2136
 1269 m 43 X s 2157 1321 m 22 X s 2157 1351 m 22 X s 2157 1373 m 22 X s 2157 1389 m 22 X s 2157 1403 m 22 X s 2157 1414 m 22 X s 2157 1424 m 22 X s 2157 1433 m 22 X s 2136 1441 m 43 X s 2157 1492 m 22 X s 2157 1522 m 22 X s 2157 1544 m 22 X s 2157
 1560 m 22 X s 2157 1574 m 22 X s 2157 1586 m 22 X s 2157 1595 m 22 X s 2157 1604 m 22 X s 2136 1612 m 43 X s 2157 1664 m 22 X s 2157 1694 m 22 X s 2157 1715 m 22 X s
 gsave  2263 1770 2 313 C 406.765 1447.41 t 0 r /Helvetica findfont 64.4212 sf 0 0 m (CRY for MB\255GGo) show NC gr 
 gsave  2263 1770 2 313 C 1464.36 1616.89 t 0 r /Helvetica findfont 64.4212 sf 0 0 m (SM Total) show NC gr  1 1 1 c 1338 1603 m 107 X 74 Y -107 X f 1 0 0 c 6 lw 1338 1640 m 107 X s black
 gsave  2263 1770 2 313 C 1464.36 1511.81 t 0 r /Helvetica findfont 64.4212 sf 0 0 m (Data) show NC gr  1391 1502 m 64 Y s 3 lw 1391 1534 m20 6 lw
 gsave  2263 1770 2 313 C 1464.36 1406.73 t 0 r /Helvetica findfont 64.4212 sf 0 0 m (GAMMAjets) show NC gr  1 1 0 c 3 lw 1338 1391 m 107 X 74 Y -107 X f 6 lw black 3 lw 1338 1465 m 107 X s 1338 1391 m 107 X s 1445 1391 m 74 Y s 1338 1391 m 74 Y s
 gsave  2263 1770 2 313 C 1464.36 1298.26 t 0 r /Helvetica findfont 64.4212 sf 0 0 m (W+jets) show NC gr  0.4 0.6 1 c 1338 1284 m 107 X 75 Y -107 X f black 1338 1359 m 107 X s 1338 1284 m 107 X s 1445 1284 m 75 Y s 1338 1284 m 75 Y s
 gsave  2263 1770 2 313 C 1498.25 1193.18 t 0 r /Helvetica findfont 64.4212 sf 0 0 m (\(+EW\) & single top) show NC gr 
 gsave  2263 1770 2 313 C 1481.3 1193.18 t 0 r /Helvetica findfont 64.4212 sf 0 0 m (t) show NC gr  1481 1244 m 17 X s
 gsave  2263 1770 2 313 C 1464.36 1193.18 t 0 r /Helvetica findfont 64.4212 sf 0 0 m (t) show NC gr  0.6 1 0.6 c 1338 1178 m 107 X 75 Y -107 X f black 1338 1253 m 107 X s 1338 1178 m 107 X s 1445 1178 m 75 Y s 1338 1178 m 75 Y s
 gsave  2263 1770 2 313 C 1464.36 1088.1 t 0 r /Helvetica findfont 64.4212 sf 0 0 m (Diboson) show NC gr  1 0.4 0.6 c 1338 1072 m 107 X 74 Y -107 X f black 1338 1146 m 107 X s 1338 1072 m 107 X s 1445 1072 m 74 Y s 1338 1072 m 74 Y s
 gsave  2263 1770 2 313 C 911.832 1566.05 t 0 r /Helvetica findfont 44.0776 sf 0 0 m (\2551) show NC gr 
 gsave  2263 1770 2 313 C 471.17 1535.54 t 0 r /Helvetica findfont 64.4212 sf 0 0 m (=13TeV, 139 fb) show NC gr 
 gsave  2263 1770 2 313 C 440.662 1535.54 t 0 r /Helvetica findfont 64.4212 sf 0 0 m (s) show NC gr  6 lw 420 1573 m 7 -41 d s 3 lw 427 1532 m 7 61 d s 434 1593 m 37 X s 1 1 1 c 2254 561 2 2 bf black 1 1 1 c black 1860 358 318 187 bl 1 1 1 c black
 1860 358 318 187 bl 6 lw 1 1 1 c black 3 lw 411 312 m20 6 lw 3 lw 597 319 m20 6 lw 3 lw 783 298 m20 6 lw 3 lw 969 315 m20 6 lw 3 lw 1155 308 m20 6 lw 3 lw 1341 343 m20 6 lw 3 lw 1527 269 m20 6 lw 3 lw 1713 283 m20 6 lw 3 lw 1899 280 m20 6 lw 3 lw
 318 187 m 1860 X s
 gsave  2254 561 2 2 C 2105.01 64.4045 t 0 r /Helvetica findfont 50.9797 sf 0 0 m (1/2) show NC gr 
 gsave  2254 561 2 2 C 1888.07 23.728 t 0 r /Helvetica findfont 78.1689 sf 0 0 m ( [GeV]) show NC gr 
 gsave  2254 561 2 2 C 1857.56 3.38971 t 0 r /Helvetica findfont 50.9797 sf 0 0 m (T) show NC gr 
 gsave  2254 561 2 2 C 1806.72 23.728 t 0 r /Helvetica findfont 78.1689 sf 0 0 m (H) show NC gr  6 lw 1773 81 m 10 -78 d s 3 lw 1783 3 m 14 99 d s 1797 102 m 91 X s
 gsave  2254 561 2 2 C 1735.53 23.728 t 0 r /Helvetica findfont 78.1689 sf 0 0 m (/) show NC gr 
 gsave  2254 561 2 2 C 1630.45 61.0148 t 0 r /Helvetica findfont 50.9797 sf 0 0 m (miss) show NC gr 
 gsave  2254 561 2 2 C 1630.45 3.38971 t 0 r /Helvetica findfont 50.9797 sf 0 0 m (T) show NC gr 
 gsave  2254 561 2 2 C 1579.61 23.728 t 0 r /Helvetica findfont 78.1689 sf 0 0 m (E) show NC gr  318 201 m -14 Y s 364 194 m -7 Y s 411 194 m -7 Y s 457 194 m -7 Y s 504 201 m -14 Y s 550 194 m -7 Y s 597 194 m -7 Y s 643 194 m -7 Y s 690 201 m -14 Y
 s 736 194 m -7 Y s 783 194 m -7 Y s 829 194 m -7 Y s 876 201 m -14 Y s 923 194 m -7 Y s 969 194 m -7 Y s 1016 194 m -7 Y s 1062 201 m -14 Y s 1109 194 m -7 Y s 1155 194 m -7 Y s 1202 194 m -7 Y s 1248 201 m -14 Y s 1295 194 m -7 Y s 1341 194 m -7 Y
 s 1388 194 m -7 Y s 1434 201 m -14 Y s 1481 194 m -7 Y s 1527 194 m -7 Y s 1574 194 m -7 Y s 1620 201 m -14 Y s 1667 194 m -7 Y s 1713 194 m -7 Y s 1760 194 m -7 Y s 1806 201 m -14 Y s 1853 194 m -7 Y s 1899 194 m -7 Y s 1946 194 m -7 Y s 1992 201 m
 -14 Y s 2039 194 m -7 Y s 2085 194 m -7 Y s 2132 194 m -7 Y s 2178 201 m -14 Y s
 gsave  2254 561 2 2 C 271.177 118.64 t 0 r /Helvetica findfont 78.1689 sf 0 0 m (10) show NC gr 
 gsave  2254 561 2 2 C 457.611 118.64 t 0 r /Helvetica findfont 78.1689 sf 0 0 m (12) show NC gr 
 gsave  2254 561 2 2 C 644.045 118.64 t 0 r /Helvetica findfont 78.1689 sf 0 0 m (14) show NC gr 
 gsave  2254 561 2 2 C 830.479 118.64 t 0 r /Helvetica findfont 78.1689 sf 0 0 m (16) show NC gr 
 gsave  2254 561 2 2 C 1016.91 118.64 t 0 r /Helvetica findfont 78.1689 sf 0 0 m (18) show NC gr 
 gsave  2254 561 2 2 C 1203.35 118.64 t 0 r /Helvetica findfont 78.1689 sf 0 0 m (20) show NC gr 
 gsave  2254 561 2 2 C 1389.78 118.64 t 0 r /Helvetica findfont 78.1689 sf 0 0 m (22) show NC gr 
 gsave  2254 561 2 2 C 1572.83 118.64 t 0 r /Helvetica findfont 78.1689 sf 0 0 m (24) show NC gr 
 gsave  2254 561 2 2 C 1759.26 118.64 t 0 r /Helvetica findfont 78.1689 sf 0 0 m (26) show NC gr 
 gsave  2254 561 2 2 C 1945.69 118.64 t 0 r /Helvetica findfont 78.1689 sf 0 0 m (28) show NC gr 
 gsave  2254 561 2 2 C 2132.13 118.64 t 0 r /Helvetica findfont 78.1689 sf 0 0 m (30) show NC gr  318 545 m 1860 X s 318 531 m 14 Y s 364 538 m 7 Y s 411 538 m 7 Y s 457 538 m 7 Y s 504 531 m 14 Y s 550 538 m 7 Y s 597 538 m 7 Y s 643 538 m 7 Y s 690
 531 m 14 Y s 736 538 m 7 Y s 783 538 m 7 Y s 829 538 m 7 Y s 876 531 m 14 Y s 923 538 m 7 Y s 969 538 m 7 Y s 1016 538 m 7 Y s 1062 531 m 14 Y s 1109 538 m 7 Y s 1155 538 m 7 Y s 1202 538 m 7 Y s 1248 531 m 14 Y s 1295 538 m 7 Y s 1341 538 m 7 Y s
 1388 538 m 7 Y s 1434 531 m 14 Y s 1481 538 m 7 Y s 1527 538 m 7 Y s 1574 538 m 7 Y s 1620 531 m 14 Y s 1667 538 m 7 Y s 1713 538 m 7 Y s 1760 538 m 7 Y s 1806 531 m 14 Y s 1853 538 m 7 Y s 1899 538 m 7 Y s 1946 538 m 7 Y s 1992 531 m 14 Y s 2039
 538 m 7 Y s 2085 538 m 7 Y s 2132 538 m 7 Y s 2178 531 m 14 Y s 318 187 m 358 Y s
 gsave  2254 561 2 2 C 166.096 284.736 t 90 r /Helvetica findfont 67.9729 sf 0 0 m (Data/SM) show NC gr  361 203 m -43 X s 339 220 m -21 X s 339 236 m -21 X s 339 252 m -21 X s 339 268 m -21 X s 361 285 m -43 X s 339 301 m -21 X s 339 317 m -21 X s
 339 334 m -21 X s 339 350 m -21 X s 361 366 m -43 X s 339 382 m -21 X s 339 399 m -21 X s 339 415 m -21 X s 339 431 m -21 X s 361 447 m -43 X s 339 464 m -21 X s 339 480 m -21 X s 339 496 m -21 X s 339 512 m -21 X s 361 529 m -43 X s 361 203 m -43 X
 s 339 187 m -21 X s 361 529 m -43 X s
 gsave  2254 561 2 2 C 261.008 183.044 t 0 r /Helvetica findfont 57.777 sf 0 0 m (0) show NC gr 
 gsave  2254 561 2 2 C 213.552 261.008 t 0 r /Helvetica findfont 57.777 sf 0 0 m (0.5) show NC gr 
 gsave  2254 561 2 2 C 271.177 342.361 t 0 r /Helvetica findfont 57.777 sf 0 0 m (1) show NC gr 
 gsave  2254 561 2 2 C 213.552 423.714 t 0 r /Helvetica findfont 57.777 sf 0 0 m (1.5) show NC gr 
 gsave  2254 561 2 2 C 261.008 505.067 t 0 r /Helvetica findfont 57.777 sf 0 0 m (2) show NC gr  2178 187 m 358 Y s 2135 203 m 43 X s 2157 220 m 21 X s 2157 236 m 21 X s 2157 252 m 21 X s 2157 268 m 21 X s 2135 285 m 43 X s 2157 301 m 21 X s 2157 317
 m 21 X s 2157 334 m 21 X s 2157 350 m 21 X s 2135 366 m 43 X s 2157 382 m 21 X s 2157 399 m 21 X s 2157 415 m 21 X s 2157 431 m 21 X s 2135 447 m 43 X s 2157 464 m 21 X s 2157 480 m 21 X s 2157 496 m 21 X s 2157 512 m 21 X s 2135 529 m 43 X s 2135
 203 m 43 X s 2157 187 m 21 X s 2135 529 m 43 X s 9 lw 783 312 m 1 Y s 783 313 m cl s 783 285 m -2 Y s 783 283 m cl s 969 329 m 7 Y s 969 336 m cl s 969 301 m -7 Y s 969 294 m cl s 1155 322 m 11 Y s 1155 333 m cl s 1155 295 m -11 Y s 1155 284 m cl s
 1341 356 m 25 Y s 1341 381 m cl s 1341 329 m -23 Y s 1341 306 m cl s 1527 282 m 18 Y s 1527 300 m cl s 1527 255 m -14 Y s 1527 241 m cl s 1713 296 m 37 Y s 1713 333 m cl s 1713 269 m -29 Y s 1713 240 m cl s 1899 293 m 49 Y s 1899 342 m cl s 1899 266
 m -35 Y s 1899 231 m cl s 2085 545 m -66 Y s 2085 479 m cl s 3 lw 411 312 597 319 783 298 969 315 1155 308 1341 343 1527 269 1713 283 1899 280 9 { m20} R 9 lw 1 0 0 c 6 lw black 3 lw 1 0 0 c 2178 369 m -19 -19 d s 2163 382 m -33 -32 d s 2134 382 m
 -33 -32 d s 2105 382 m -32 -32 d s 2076 382 m -32 -32 d s 2048 382 m -33 -32 d s 2019 382 m -39 -39 d s 1992 384 m -41 -41 d s 1969 389 m -47 -46 d s 1940 389 m -47 -46 d s 1911 389 m -46 -46 d s 1883 389 m -47 -46 d s 1854 389 m -47 -46 d s 1825
 389 m -47 -46 d s 1797 389 m -47 -46 d s 1768 389 m -47 -46 d s 1739 389 m -47 -46 d s 1711 389 m -47 -46 d s 1682 389 m -47 -46 d s 1653 389 m -60 -60 d s 1625 389 m -61 -60 d s 1610 403 m -75 -74 d s 1581 403 m -74 -74 d s 1552 403 m -74 -74 d s
 1524 403 m -75 -74 d s 1495 403 m -61 -60 d s 1466 403 m -56 -56 d s 1437 403 m -3 -3 d s 1419 385 m -38 -38 d s 1391 385 m -38 -38 d s 1362 385 m -38 -38 d s 1333 385 m -38 -38 d s 1304 385 m -37 -38 d s 1276 385 m -45 -45 d s 1248 386 m -46 -46 d
 s 1225 392 m -52 -52 d s 1197 392 m -52 -52 d s 1168 392 m -52 -52 d s 1139 392 m -52 -52 d s 1111 392 m -49 -49 d s 1082 392 m -43 -43 d s 1045 383 m -35 -34 d s 1016 383 m -35 -34 d s 987 383 m -34 -34 d s 959 383 m -35 -34 d s 930 383 m -35 -34 d
 s 901 383 m -34 -34 d s 872 383 m -34 -34 d s 844 383 m -35 -34 d s 815 383 m -34 -34 d s 786 383 m -34 -34 d s 758 383 m -35 -34 d s 729 383 m -34 -34 d s 700 383 m -31 -31 d s 668 380 m -28 -28 d s 640 380 m -28 -28 d s 611 380 m -28 -28 d s 582
 380 m -28 -28 d s 554 380 m -28 -28 d s 525 380 m -28 -27 d s 496 379 m -27 -26 d s 467 379 m -27 -26 d s 318 231 m s 438 379 m -27 -26 d s 318 259 m s 410 379 m -27 -26 d s 318 288 m s 381 379 m -27 -26 d s 318 317 m s 352 379 m -27 -26 d s 318 345
 m s 323 379 m -5 -5 d s 6 lw black[ 4 8] 0 sd 3 lw 318 447 m 1860 X s 318 285 m 1860 X s 1 0 0 c[  12 12 ] 0 sd 6 lw 318 366 m 1860 X s
 gr  gr showpage
end
%%EOF
