%!PS-Adobe-2.0 EPSF-2.0
%%BoundingBox:  0 0 567 521
%%Title: Distributions/metsqrtmeffInc_met_distrCRT_MB-C_beforeFit_forThesis.eps: canvas
%%Creator: ROOT Version 6.04/16
%%CreationDate: Tue May 19 22:05:36 2020
%%DocumentNeededResources: ProcSet (FontSetInit)
%%EndComments
%%BeginProlog
80 dict begin
/s {stroke} def /l {lineto} def /m {moveto} def /t {translate} def
/r {rotate} def /rl {roll}  def /R {repeat} def
/d {rlineto} def /rm {rmoveto} def /gr {grestore} def /f {eofill} def
/c {setrgbcolor} def /black {0 setgray} def /sd {setdash} def
/cl {closepath} def /sf {scalefont setfont} def /lw {setlinewidth} def
/box {m dup 0 exch d exch 0 d 0 exch neg d cl} def
/NC{systemdict begin initclip end}def/C{NC box clip newpath}def
/bl {box s} def /bf {gsave box gsave f grestore 1 lw [] 0 sd s grestore} def /Y { 0 exch d} def /X { 0 d} def 
/K {{pop pop 0 moveto} exch kshow} bind def
/ita {/ang 15 def gsave [1 0 ang dup sin exch cos div 1 0 0] concat} def 
/mp {newpath /y exch def /x exch def} def
/side {[w .77 mul w .23 mul] .385 w mul sd w 0 l currentpoint t -144 r} def
/mr {mp x y w2 0 360 arc} def /m24 {mr s} def /m20 {mr f} def
/mb {mp x y w2 add m w2 neg 0 d 0 w neg d w 0 d 0 w d cl} def
/mt {mp x y w2 add m w2 neg w neg d w 0 d cl} def
/m21 {mb f} def /m25 {mb s} def /m22 {mt f} def /m26{mt s} def
/m23 {mp x y w2 sub m w2 w d w neg 0 d cl f} def
/m27 {mp x y w2 add m w3 neg w2 neg d w3 w2 neg d w3 w2 d cl s} def
/m28 {mp x w2 sub y w2 sub w3 add m w3 0 d  0 w3 neg d w3 0 d 0 w3 d w3 0 d  0 w3 d w3 neg 0 d 0 w3 d w3 neg 0 d 0 w3 neg d w3 neg 0 d cl s } def
/m29 {mp gsave x w2 sub y w2 add w3 sub m currentpoint t 4 {side} repeat cl fill gr} def
/m30 {mp gsave x w2 sub y w2 add w3 sub m currentpoint t 4 {side} repeat cl s gr} def
/m31 {mp x y w2 sub m 0 w d x w2 sub y m w 0 d x w2 sub y w2 add m w w neg d x w2 sub y w2 sub m w w d s} def
/m32 {mp x y w2 sub m w2 w d w neg 0 d cl s} def
/m33 {mp x y w2 add m w3 neg w2 neg d w3 w2 neg d w3 w2 d cl f} def
/m34 {mp x w2 sub y w2 sub w3 add m w3 0 d  0 w3 neg d w3 0 d 0 w3 d w3 0 d  0 w3 d w3 neg 0 d 0 w3 d w3 neg 0 d 0 w3 neg d w3 neg 0 d cl f } def
/m2 {mp x y w2 sub m 0 w d x w2 sub y m w 0 d s} def
/m5 {mp x w2 sub y w2 sub m w w d x w2 sub y w2 add m w w neg d s} def
%%IncludeResource: ProcSet (FontSetInit)
%%IncludeResource: font Times-Roman
%%IncludeResource: font Times-Italic
%%IncludeResource: font Times-Bold
%%IncludeResource: font Times-BoldItalic
%%IncludeResource: font Helvetica
%%IncludeResource: font Helvetica-Oblique
%%IncludeResource: font Helvetica-Bold
%%IncludeResource: font Helvetica-BoldOblique
%%IncludeResource: font Courier
%%IncludeResource: font Courier-Oblique
%%IncludeResource: font Courier-Bold
%%IncludeResource: font Courier-BoldOblique
%%IncludeResource: font Symbol
%%IncludeResource: font ZapfDingbats
/reEncode {exch findfont dup length dict begin {1 index /FID eq  {pop pop} {def} ifelse } forall /Encoding exch def currentdict end dup /FontName get exch definefont pop } def [/Times-Bold /Times-Italic /Times-BoldItalic /Helvetica /Helvetica-Oblique
 /Helvetica-Bold /Helvetica-BoldOblique /Courier /Courier-Oblique /Courier-Bold /Courier-BoldOblique /Times-Roman /AvantGarde-Book /AvantGarde-BookOblique /AvantGarde-Demi /AvantGarde-DemiOblique /Bookman-Demi /Bookman-DemiItalic /Bookman-Light
 /Bookman-LightItalic /Helvetica-Narrow /Helvetica-Narrow-Bold /Helvetica-Narrow-BoldOblique /Helvetica-Narrow-Oblique /NewCenturySchlbk-Roman /NewCenturySchlbk-Bold /NewCenturySchlbk-BoldItalic /NewCenturySchlbk-Italic /Palatino-Bold
 /Palatino-BoldItalic /Palatino-Italic /Palatino-Roman ] {ISOLatin1Encoding reEncode } forall
%%EndProlog
%%BeginSetup
%%EndSetup
newpath  gsave  .25 .25 scale  gsave  0 0 t black[  ] 0 sd 3 lw 1 1 1 c 2268 2085 0 0 bf black 1 1 1 c 2263 1770 2 313 bf black 1 1 1 c black 1860 1145 319 584 bl 1 1 1 c black 1860 1145 319 584 bl 6 lw 1 1 1 c black 3 lw /w 33 def /w2 {w 2 div} def
 /w3 {w 3 div} def 374 1136 m20 6 lw 3 lw 483 1002 m20 6 lw 3 lw 593 985 m20 6 lw 3 lw 702 957 m20 6 lw 3 lw 812 929 m20 6 lw 3 lw 921 900 m20 6 lw 1030 830 m 7 Y s 1030 864 m 2 Y s 3 lw 1030 851 m20 6 lw 1140 772 m 21 Y s 1140 820 m 7 Y s 3 lw 1140
 806 m20 6 lw 1249 685 m 56 Y s 1249 768 m 16 Y s 3 lw 1249 754 m20 6 lw 1359 584 m 117 Y s 1359 728 m 26 Y s 3 lw 1359 715 m20 6 lw 3 lw 319 584 m 1860 X s
 gsave  2263 1770 2 313 C 2101.62 396.596 t 0 r /Helvetica findfont 54.2494 sf 0 0 m (1/2) show NC gr 
 gsave  2263 1770 2 313 C 1874.51 355.92 t 0 r /Helvetica findfont 81.3741 sf 0 0 m ( [GeV]) show NC gr 
 gsave  2263 1770 2 313 C 1840.61 332.192 t 0 r /Helvetica findfont 54.2494 sf 0 0 m (T) show NC gr 
 gsave  2263 1770 2 313 C 1786.38 355.92 t 0 r /Helvetica findfont 81.3741 sf 0 0 m (H) show NC gr  6 lw 1749 417 m 14 -85 d s 3 lw 1763 332 m 13 105 d s 1776 437 m 99 X s
 gsave  2263 1770 2 313 C 1711.8 355.92 t 0 r /Helvetica findfont 81.3741 sf 0 0 m (/) show NC gr 
 gsave  2263 1770 2 313 C 1599.94 396.596 t 0 r /Helvetica findfont 54.2494 sf 0 0 m (miss) show NC gr 
 gsave  2263 1770 2 313 C 1599.94 332.192 t 0 r /Helvetica findfont 54.2494 sf 0 0 m (T) show NC gr 
 gsave  2263 1770 2 313 C 1549.1 355.92 t 0 r /Helvetica findfont 81.3741 sf 0 0 m (E) show NC gr  538 584 m cl s 593 584 m cl s 647 584 m cl s 702 584 m cl s 757 584 m cl s 812 584 m cl s 866 584 m cl s 921 584 m cl s 976 584 m cl s 1030 584 m cl s
 1085 584 m cl s 1140 584 m cl s 1195 584 m cl s 1249 584 m cl s 1304 584 m cl s 1359 584 m cl s 1413 584 m cl s 1468 584 m cl s 1523 584 m cl s 1578 584 m cl s 1632 584 m cl s 1687 584 m cl s 1742 584 m cl s 1796 584 m cl s 1851 584 m cl s 1906 584
 m cl s 1961 584 m cl s 2015 584 m cl s 2070 584 m cl s 2125 584 m cl s 2179 584 m cl s 538 584 m cl s 483 584 m cl s 429 584 m cl s 374 584 m cl s 319 1729 m 1860 X s 538 1729 m cl s 593 1729 m cl s 647 1729 m cl s 702 1729 m cl s 757 1729 m cl s
 812 1729 m cl s 866 1729 m cl s 921 1729 m cl s 976 1729 m cl s 1030 1729 m cl s 1085 1729 m cl s 1140 1729 m cl s 1195 1729 m cl s 1249 1729 m cl s 1304 1729 m cl s 1359 1729 m cl s 1413 1729 m cl s 1468 1729 m cl s 1523 1729 m cl s 1578 1729 m cl
 s 1632 1729 m cl s 1687 1729 m cl s 1742 1729 m cl s 1796 1729 m cl s 1851 1729 m cl s 1906 1729 m cl s 1961 1729 m cl s 2015 1729 m cl s 2070 1729 m cl s 2125 1729 m cl s 2179 1729 m cl s 538 1729 m cl s 483 1729 m cl s 429 1729 m cl s 374 1729 m
 cl s 319 584 m 1145 Y s
 gsave  2263 1770 2 313 C 125.419 1654.18 t 90 r /Helvetica findfont 54.2494 sf 0 0 m (1/2) show NC gr 
 gsave  2263 1770 2 313 C 166.096 1064.37 t 90 r /Helvetica findfont 81.3741 sf 0 0 m (Events / 2 [GeV]) show NC gr  341 624 m -22 X s 341 647 m -22 X s 341 663 m -22 X s 341 676 m -22 X s 341 686 m -22 X s 341 695 m -22 X s 341 702 m -22 X s 341 709
 m -22 X s 363 715 m -44 X s
 gsave  2263 1770 2 313 C 300.555 687.738 t 0 r  -36 0 t /Helvetica findfont 64.4212 sf 0 0 m (1) show NC gr  341 754 m -22 X s 341 777 m -22 X s 341 793 m -22 X s 341 806 m -22 X s 341 816 m -22 X s 341 825 m -22 X s 341 833 m -22 X s 341 839 m -22
 X s 363 845 m -44 X s
 gsave  2263 1770 2 313 C 300.555 818.284 t 0 r  -73 0 t /Helvetica findfont 64.4212 sf 0 0 m (10) show NC gr  341 885 m -22 X s 341 908 m -22 X s 341 924 m -22 X s 341 937 m -22 X s 341 947 m -22 X s 341 956 m -22 X s 341 963 m -22 X s 341 970 m -22
 X s 363 976 m -44 X s
 gsave  2263 1770 2 313 C 274.567 972.847 t 0 r /Helvetica findfont 44.0776 sf 0 0 m (2) show NC gr 
 gsave  2263 1770 2 313 C 203.383 945.729 t 0 r /Helvetica findfont 64.4212 sf 0 0 m (10) show NC gr  341 1015 m -22 X s 341 1038 m -22 X s 341 1055 m -22 X s 341 1067 m -22 X s 341 1078 m -22 X s 341 1086 m -22 X s 341 1094 m -22 X s 341 1101 m -22
 X s 363 1106 m -44 X s
 gsave  2263 1770 2 313 C 274.567 1108.44 t 0 r /Helvetica findfont 44.0776 sf 0 0 m (3) show NC gr 
 gsave  2263 1770 2 313 C 203.383 1077.93 t 0 r /Helvetica findfont 64.4212 sf 0 0 m (10) show NC gr  341 1146 m -22 X s 341 1169 m -22 X s 341 1185 m -22 X s 341 1198 m -22 X s 341 1208 m -22 X s 341 1217 m -22 X s 341 1224 m -22 X s 341 1231 m -22
 X s 363 1237 m -44 X s
 gsave  2263 1770 2 313 C 274.567 1233.85 t 0 r /Helvetica findfont 44.0776 sf 0 0 m (4) show NC gr 
 gsave  2263 1770 2 313 C 203.383 1206.74 t 0 r /Helvetica findfont 64.4212 sf 0 0 m (10) show NC gr  341 1276 m -22 X s 341 1299 m -22 X s 341 1316 m -22 X s 341 1328 m -22 X s 341 1339 m -22 X s 341 1347 m -22 X s 341 1355 m -22 X s 341 1362 m -22
 X s 363 1368 m -44 X s
 gsave  2263 1770 2 313 C 274.567 1369.44 t 0 r /Helvetica findfont 44.0776 sf 0 0 m (5) show NC gr 
 gsave  2263 1770 2 313 C 203.383 1338.94 t 0 r /Helvetica findfont 64.4212 sf 0 0 m (10) show NC gr  341 1407 m -22 X s 341 1430 m -22 X s 341 1446 m -22 X s 341 1459 m -22 X s 341 1469 m -22 X s 341 1478 m -22 X s 341 1485 m -22 X s 341 1492 m -22
 X s 363 1498 m -44 X s
 gsave  2263 1770 2 313 C 274.567 1498.25 t 0 r /Helvetica findfont 44.0776 sf 0 0 m (6) show NC gr 
 gsave  2263 1770 2 313 C 203.383 1467.74 t 0 r /Helvetica findfont 64.4212 sf 0 0 m (10) show NC gr  341 1537 m -22 X s 341 1560 m -22 X s 341 1577 m -22 X s 341 1589 m -22 X s 341 1600 m -22 X s 341 1608 m -22 X s 341 1616 m -22 X s 341 1623 m -22
 X s 363 1629 m -44 X s
 gsave  2263 1770 2 313 C 274.567 1627.06 t 0 r /Helvetica findfont 44.0776 sf 0 0 m (7) show NC gr 
 gsave  2263 1770 2 313 C 203.383 1599.94 t 0 r /Helvetica findfont 64.4212 sf 0 0 m (10) show NC gr  341 1668 m -22 X s 341 1691 m -22 X s 341 1707 m -22 X s 341 1720 m -22 X s 2179 584 m 1145 Y s 2157 624 m 22 X s 2157 647 m 22 X s 2157 663 m 22 X
 s 2157 676 m 22 X s 2157 686 m 22 X s 2157 695 m 22 X s 2157 702 m 22 X s 2157 709 m 22 X s 2136 715 m 43 X s 2157 754 m 22 X s 2157 777 m 22 X s 2157 793 m 22 X s 2157 806 m 22 X s 2157 816 m 22 X s 2157 825 m 22 X s 2157 833 m 22 X s 2157 839 m 22
 X s 2136 845 m 43 X s 2157 885 m 22 X s 2157 908 m 22 X s 2157 924 m 22 X s 2157 937 m 22 X s 2157 947 m 22 X s 2157 956 m 22 X s 2157 963 m 22 X s 2157 970 m 22 X s 2136 976 m 43 X s 2157 1015 m 22 X s 2157 1038 m 22 X s 2157 1055 m 22 X s 2157
 1067 m 22 X s 2157 1078 m 22 X s 2157 1086 m 22 X s 2157 1094 m 22 X s 2157 1101 m 22 X s 2136 1106 m 43 X s 2157 1146 m 22 X s 2157 1169 m 22 X s 2157 1185 m 22 X s 2157 1198 m 22 X s 2157 1208 m 22 X s 2157 1217 m 22 X s 2157 1224 m 22 X s 2157
 1231 m 22 X s 2136 1237 m 43 X s 2157 1276 m 22 X s 2157 1299 m 22 X s 2157 1316 m 22 X s 2157 1328 m 22 X s 2157 1339 m 22 X s 2157 1347 m 22 X s 2157 1355 m 22 X s 2157 1362 m 22 X s 2136 1368 m 43 X s 2157 1407 m 22 X s 2157 1430 m 22 X s 2157
 1446 m 22 X s 2157 1459 m 22 X s 2157 1469 m 22 X s 2157 1478 m 22 X s 2157 1485 m 22 X s 2157 1492 m 22 X s 2136 1498 m 43 X s 2157 1537 m 22 X s 2157 1560 m 22 X s 2157 1577 m 22 X s 2157 1589 m 22 X s 2157 1600 m 22 X s 2157 1608 m 22 X s 2157
 1616 m 22 X s 2157 1623 m 22 X s 2136 1629 m 43 X s 2157 1668 m 22 X s 2157 1691 m 22 X s 2157 1707 m 22 X s 2157 1720 m 22 X s 0.6 1 0.6 c black 0.6 1 0.6 c 319 584 m 570 Y 110 X -136 Y 109 X -21 Y 109 X -23 Y 110 X -23 Y 109 X -31 Y 110 X -32 Y
 109 X -46 Y 110 X -54 Y 109 X -33 Y 109 X -34 Y 110 X -83 Y 109 X -23 Y 110 X -31 Y 437 X f black 0.6 1 0.6 c black 319 1154 m 110 X -136 Y 109 X -21 Y 109 X -23 Y 110 X -23 Y 109 X -31 Y 110 X -32 Y 109 X -46 Y 110 X -54 Y 109 X -33 Y 109 X -34 Y
 110 X -83 Y 109 X -23 Y 110 X -31 Y 437 X s 0.999 0.999 0.999 c black 0.999 0.999 0.999 c 319 584 m 485 Y 110 X -116 Y 109 X -8 Y 109 X -16 Y 110 X -7 Y 109 X -23 Y 110 X -29 Y 109 X -38 Y 110 X -57 Y 109 X -35 Y 109 X -38 Y 110 X -67 Y 109 X -20 Y
 110 X -31 Y 437 X f black 0.999 0.999 0.999 c black 319 1069 m 110 X -116 Y 109 X -8 Y 109 X -16 Y 110 X -7 Y 109 X -23 Y 110 X -29 Y 109 X -38 Y 110 X -57 Y 109 X -35 Y 109 X -38 Y 110 X -67 Y 109 X -20 Y 110 X -31 Y 437 X s 1 1 1 c black 319 1069
 m 110 X -116 Y 109 X -8 Y 109 X -16 Y 110 X -7 Y 109 X -23 Y 110 X -29 Y 109 X -38 Y 110 X -57 Y 109 X -35 Y 109 X -38 Y 110 X -67 Y 109 X -20 Y 110 X -31 Y 437 X s 0.4 0.6 1 c black 0.4 0.6 1 c 319 584 m 485 Y 110 X -116 Y 109 X -8 Y 109 X -16 Y
 110 X -7 Y 109 X -23 Y 110 X -29 Y 109 X -38 Y 110 X -57 Y 109 X -35 Y 109 X -38 Y 110 X -67 Y 109 X -20 Y 110 X -31 Y 437 X f black 0.4 0.6 1 c black 319 1069 m 110 X -116 Y 109 X -8 Y 109 X -16 Y 110 X -7 Y 109 X -23 Y 110 X -29 Y 109 X -38 Y 110
 X -57 Y 109 X -35 Y 109 X -38 Y 110 X -67 Y 109 X -20 Y 110 X -31 Y 437 X s 0.999 0.999 0.999 c black 0.999 0.999 0.999 c 319 584 m 355 Y 110 X -118 Y 109 X -9 Y 109 X -31 Y 110 X 11 Y 109 X -27 Y 110 X -21 Y 109 X -73 Y 110 X -9 Y 109 X 7 Y 109 X
 -69 Y 110 X -16 Y 656 X f black 0.999 0.999 0.999 c black 319 939 m 110 X -118 Y 109 X -9 Y 109 X -31 Y 110 X 11 Y 109 X -27 Y 110 X -21 Y 109 X -73 Y 110 X -9 Y 109 X 7 Y 109 X -69 Y 110 X -16 Y 656 X s 1 1 1 c black 319 939 m 110 X -118 Y 109 X -9
 Y 109 X -31 Y 110 X 11 Y 109 X -27 Y 110 X -21 Y 109 X -73 Y 110 X -9 Y 109 X 7 Y 109 X -69 Y 110 X -16 Y 656 X s 1 0.8 0.4 c black 1 0.8 0.4 c 319 584 m 355 Y 110 X -118 Y 109 X -9 Y 109 X -31 Y 110 X 11 Y 109 X -27 Y 110 X -21 Y 109 X -73 Y 110 X
 -9 Y 109 X 7 Y 109 X -69 Y 110 X -16 Y 656 X f black 1 0.8 0.4 c black 319 939 m 110 X -118 Y 109 X -9 Y 109 X -31 Y 110 X 11 Y 109 X -27 Y 110 X -21 Y 109 X -73 Y 110 X -9 Y 109 X 7 Y 109 X -69 Y 110 X -16 Y 656 X s 0.999 0.999 0.999 c black 0.999
 0.999 0.999 c 319 584 m 349 Y 110 X -117 Y 109 X -7 Y 109 X -33 Y 110 X 12 Y 109 X -33 Y 110 X -12 Y 109 X -95 Y 110 X 11 Y 109 X 10 Y 109 X -73 Y 110 X -12 Y 656 X f black 0.999 0.999 0.999 c black 319 933 m 110 X -117 Y 109 X -7 Y 109 X -33 Y 110
 X 12 Y 109 X -33 Y 110 X -12 Y 109 X -95 Y 110 X 11 Y 109 X 10 Y 109 X -73 Y 110 X -12 Y 656 X s 1 1 1 c black 319 933 m 110 X -117 Y 109 X -7 Y 109 X -33 Y 110 X 12 Y 109 X -33 Y 110 X -12 Y 109 X -95 Y 110 X 11 Y 109 X 10 Y 109 X -73 Y 110 X -12 Y
 656 X s 1 0.4 0.6 c black 1 0.4 0.6 c 319 584 m 349 Y 110 X -117 Y 109 X -7 Y 109 X -33 Y 110 X 12 Y 109 X -33 Y 110 X -12 Y 109 X -95 Y 110 X 11 Y 109 X 10 Y 109 X -73 Y 110 X -12 Y 656 X f black 1 0.4 0.6 c black 319 933 m 110 X -117 Y 109 X -7 Y
 109 X -33 Y 110 X 12 Y 109 X -33 Y 110 X -12 Y 109 X -95 Y 110 X 11 Y 109 X 10 Y 109 X -73 Y 110 X -12 Y 656 X s 1 0 0 c 6 lw 1 1 1 c black 1 0 0 c 319 1154 m 110 X -136 Y 109 X -21 Y 109 X -23 Y 110 X -23 Y 109 X -31 Y 110 X -32 Y 109 X -46 Y 110 X
 -54 Y 109 X -33 Y 109 X -34 Y 110 X -83 Y 109 X -23 Y 110 X -31 Y 437 X s black 3 lw 1 0 0 c 1 lw << /PatternType 1 /PaintType 2 /TilingType 1 /BBox [ 0 0 100 100 ] /XStep 100 /YStep 100 /PaintProc { begin gsave 0 100 m 100 0 l s gr end } >> [ 0.24
 0 0 0.24 0 0 ] makepattern /P05 exch def /cs {[/Pattern /DeviceRGB] setcolorspace} def /FA {f [/DeviceRGB] setcolorspace} def cs 1 0 0 P05 setcolor 319 584 m 573 Y 110 X -137 Y 109 X -20 Y 109 X -23 Y 110 X -22 Y 109 X -32 Y 110 X -30 Y 109 X -45 Y
 110 X -52 Y 109 X -28 Y 109 X -34 Y 110 X -80 Y 109 X -23 Y 110 X -32 Y 109 X -15 Y -109 X 9 Y -110 X 22 Y -109 X 89 Y -110 X 35 Y -109 X 40 Y -109 X 55 Y -110 X 50 Y -109 X 32 Y -110 X 31 Y -109 X 24 Y -110 X 24 Y -109 X 20 Y -109 X 137 Y -110 X
 -568 Y FA 6 lw 1 1 1 c 15 lw 1140 826 m 2 Y s 1140 828 m cl s 1140 786 m -12 Y s 1140 774 m cl s 1249 774 m 14 Y s 1249 788 m cl s 1249 734 m -38 Y s 1249 696 m cl s 1359 735 m 27 Y s 1359 762 m cl s 1359 695 m -79 Y s 1359 616 m cl s black 1 1 1 c
 3 lw /w 43 def /w2 {w 2 div} def /w3 {w 3 div} def 374 1136 483 1002 593 985 702 957 812 929 921 900 1030 851 1140 806 1249 754 1359 715 10 { m20} R 15 lw black 6 lw 1 1 1 c black 3 lw /w 33 def /w2 {w 2 div} def /w3 {w 3 div} def 374 1136 m20 6 lw
 3 lw 483 1002 m20 6 lw 3 lw 593 985 m20 6 lw 3 lw 702 957 m20 6 lw 3 lw 812 929 m20 6 lw 3 lw 921 900 m20 6 lw 1030 830 m 7 Y s 1030 864 m 2 Y s 3 lw 1030 851 m20 6 lw 1140 772 m 21 Y s 1140 820 m 7 Y s 3 lw 1140 806 m20 6 lw 1249 685 m 56 Y s 1249
 768 m 16 Y s 3 lw 1249 754 m20 6 lw 1359 584 m 117 Y s 1359 728 m 26 Y s 3 lw 1359 715 m20 6 lw 1030 864 m 2 Y s 1030 866 m cl s 1030 837 m -6 Y s 1030 831 m cl s 1140 820 m 8 Y s 1140 828 m cl s 1140 793 m -19 Y s 1140 774 m cl s 1249 768 m 20 Y s
 1249 788 m cl s 1249 741 m -45 Y s 1249 696 m cl s 1359 728 m 34 Y s 1359 762 m cl s 1359 701 m -85 Y s 1359 616 m cl s 3 lw 374 1136 483 1002 593 985 702 957 812 929 921 900 1030 851 1140 806 1249 754 1359 715 10 { m20} R 6 lw 3 lw 319 584 m 1860 X
 s 538 584 m cl s 593 584 m cl s 647 584 m cl s 702 584 m cl s 757 584 m cl s 812 584 m cl s 866 584 m cl s 921 584 m cl s 976 584 m cl s 1030 584 m cl s 1085 584 m cl s 1140 584 m cl s 1195 584 m cl s 1249 584 m cl s 1304 584 m cl s 1359 584 m cl s
 1413 584 m cl s 1468 584 m cl s 1523 584 m cl s 1578 584 m cl s 1632 584 m cl s 1687 584 m cl s 1742 584 m cl s 1796 584 m cl s 1851 584 m cl s 1906 584 m cl s 1961 584 m cl s 2015 584 m cl s 2070 584 m cl s 2125 584 m cl s 2179 584 m cl s 538 584 m
 cl s 483 584 m cl s 429 584 m cl s 374 584 m cl s 319 1729 m 1860 X s 538 1729 m cl s 593 1729 m cl s 647 1729 m cl s 702 1729 m cl s 757 1729 m cl s 812 1729 m cl s 866 1729 m cl s 921 1729 m cl s 976 1729 m cl s 1030 1729 m cl s 1085 1729 m cl s
 1140 1729 m cl s 1195 1729 m cl s 1249 1729 m cl s 1304 1729 m cl s 1359 1729 m cl s 1413 1729 m cl s 1468 1729 m cl s 1523 1729 m cl s 1578 1729 m cl s 1632 1729 m cl s 1687 1729 m cl s 1742 1729 m cl s 1796 1729 m cl s 1851 1729 m cl s 1906 1729 m
 cl s 1961 1729 m cl s 2015 1729 m cl s 2070 1729 m cl s 2125 1729 m cl s 2179 1729 m cl s 538 1729 m cl s 483 1729 m cl s 429 1729 m cl s 374 1729 m cl s 319 584 m 1145 Y s 341 624 m -22 X s 341 647 m -22 X s 341 663 m -22 X s 341 676 m -22 X s 341
 686 m -22 X s 341 695 m -22 X s 341 702 m -22 X s 341 709 m -22 X s 363 715 m -44 X s 341 754 m -22 X s 341 777 m -22 X s 341 793 m -22 X s 341 806 m -22 X s 341 816 m -22 X s 341 825 m -22 X s 341 833 m -22 X s 341 839 m -22 X s 363 845 m -44 X s
 341 885 m -22 X s 341 908 m -22 X s 341 924 m -22 X s 341 937 m -22 X s 341 947 m -22 X s 341 956 m -22 X s 341 963 m -22 X s 341 970 m -22 X s 363 976 m -44 X s 341 1015 m -22 X s 341 1038 m -22 X s 341 1055 m -22 X s 341 1067 m -22 X s 341 1078 m
 -22 X s 341 1086 m -22 X s 341 1094 m -22 X s 341 1101 m -22 X s 363 1106 m -44 X s 341 1146 m -22 X s 341 1169 m -22 X s 341 1185 m -22 X s 341 1198 m -22 X s 341 1208 m -22 X s 341 1217 m -22 X s 341 1224 m -22 X s 341 1231 m -22 X s 363 1237 m
 -44 X s 341 1276 m -22 X s 341 1299 m -22 X s 341 1316 m -22 X s 341 1328 m -22 X s 341 1339 m -22 X s 341 1347 m -22 X s 341 1355 m -22 X s 341 1362 m -22 X s 363 1368 m -44 X s 341 1407 m -22 X s 341 1430 m -22 X s 341 1446 m -22 X s 341 1459 m
 -22 X s 341 1469 m -22 X s 341 1478 m -22 X s 341 1485 m -22 X s 341 1492 m -22 X s 363 1498 m -44 X s 341 1537 m -22 X s 341 1560 m -22 X s 341 1577 m -22 X s 341 1589 m -22 X s 341 1600 m -22 X s 341 1608 m -22 X s 341 1616 m -22 X s 341 1623 m
 -22 X s 363 1629 m -44 X s 341 1668 m -22 X s 341 1691 m -22 X s 341 1707 m -22 X s 341 1720 m -22 X s 2179 584 m 1145 Y s 2157 624 m 22 X s 2157 647 m 22 X s 2157 663 m 22 X s 2157 676 m 22 X s 2157 686 m 22 X s 2157 695 m 22 X s 2157 702 m 22 X s
 2157 709 m 22 X s 2136 715 m 43 X s 2157 754 m 22 X s 2157 777 m 22 X s 2157 793 m 22 X s 2157 806 m 22 X s 2157 816 m 22 X s 2157 825 m 22 X s 2157 833 m 22 X s 2157 839 m 22 X s 2136 845 m 43 X s 2157 885 m 22 X s 2157 908 m 22 X s 2157 924 m 22 X
 s 2157 937 m 22 X s 2157 947 m 22 X s 2157 956 m 22 X s 2157 963 m 22 X s 2157 970 m 22 X s 2136 976 m 43 X s 2157 1015 m 22 X s 2157 1038 m 22 X s 2157 1055 m 22 X s 2157 1067 m 22 X s 2157 1078 m 22 X s 2157 1086 m 22 X s 2157 1094 m 22 X s 2157
 1101 m 22 X s 2136 1106 m 43 X s 2157 1146 m 22 X s 2157 1169 m 22 X s 2157 1185 m 22 X s 2157 1198 m 22 X s 2157 1208 m 22 X s 2157 1217 m 22 X s 2157 1224 m 22 X s 2157 1231 m 22 X s 2136 1237 m 43 X s 2157 1276 m 22 X s 2157 1299 m 22 X s 2157
 1316 m 22 X s 2157 1328 m 22 X s 2157 1339 m 22 X s 2157 1347 m 22 X s 2157 1355 m 22 X s 2157 1362 m 22 X s 2136 1368 m 43 X s 2157 1407 m 22 X s 2157 1430 m 22 X s 2157 1446 m 22 X s 2157 1459 m 22 X s 2157 1469 m 22 X s 2157 1478 m 22 X s 2157
 1485 m 22 X s 2157 1492 m 22 X s 2136 1498 m 43 X s 2157 1537 m 22 X s 2157 1560 m 22 X s 2157 1577 m 22 X s 2157 1589 m 22 X s 2157 1600 m 22 X s 2157 1608 m 22 X s 2157 1616 m 22 X s 2157 1623 m 22 X s 2136 1629 m 43 X s 2157 1668 m 22 X s 2157
 1691 m 22 X s 2157 1707 m 22 X s 2157 1720 m 22 X s
 gsave  2263 1770 2 313 C 406.765 1447.41 t 0 r /Helvetica findfont 64.4212 sf 0 0 m (CRT for MB\255C) show NC gr 
 gsave  2263 1770 2 313 C 1464.36 1616.89 t 0 r /Helvetica findfont 64.4212 sf 0 0 m (SM Total) show NC gr  1 1 1 c 1338 1603 m 107 X 74 Y -107 X f 1 0 0 c 6 lw 1338 1640 m 107 X s black
 gsave  2263 1770 2 313 C 1464.36 1511.81 t 0 r /Helvetica findfont 64.4212 sf 0 0 m (Data) show NC gr  1391 1502 m 64 Y s 3 lw 1391 1534 m20 6 lw
 gsave  2263 1770 2 313 C 1498.25 1406.73 t 0 r /Helvetica findfont 64.4212 sf 0 0 m (\(+EW\) & single top) show NC gr 
 gsave  2263 1770 2 313 C 1481.3 1406.73 t 0 r /Helvetica findfont 64.4212 sf 0 0 m (t) show NC gr  3 lw 1481 1458 m 17 X s
 gsave  2263 1770 2 313 C 1464.36 1406.73 t 0 r /Helvetica findfont 64.4212 sf 0 0 m (t) show NC gr  0.6 1 0.6 c 1338 1391 m 107 X 74 Y -107 X f black 1338 1465 m 107 X s 1338 1391 m 107 X s 1445 1391 m 74 Y s 1338 1391 m 74 Y s
 gsave  2263 1770 2 313 C 1464.36 1298.26 t 0 r /Helvetica findfont 64.4212 sf 0 0 m (W+jets) show NC gr  0.4 0.6 1 c 1338 1284 m 107 X 75 Y -107 X f black 1338 1359 m 107 X s 1338 1284 m 107 X s 1445 1284 m 75 Y s 1338 1284 m 75 Y s
 gsave  2263 1770 2 313 C 1464.36 1193.18 t 0 r /Helvetica findfont 64.4212 sf 0 0 m (Z+jets) show NC gr  1 0.8 0.4 c 1338 1178 m 107 X 75 Y -107 X f black 1338 1253 m 107 X s 1338 1178 m 107 X s 1445 1178 m 75 Y s 1338 1178 m 75 Y s
 gsave  2263 1770 2 313 C 1464.36 1088.1 t 0 r /Helvetica findfont 64.4212 sf 0 0 m (Diboson) show NC gr  1 0.4 0.6 c 1338 1072 m 107 X 74 Y -107 X f black 1338 1146 m 107 X s 1338 1072 m 107 X s 1445 1072 m 74 Y s 1338 1072 m 74 Y s
 gsave  2263 1770 2 313 C 911.832 1566.05 t 0 r /Helvetica findfont 44.0776 sf 0 0 m (\2551) show NC gr 
 gsave  2263 1770 2 313 C 471.17 1535.54 t 0 r /Helvetica findfont 64.4212 sf 0 0 m (=13TeV, 139 fb) show NC gr 
 gsave  2263 1770 2 313 C 440.662 1535.54 t 0 r /Helvetica findfont 64.4212 sf 0 0 m (s) show NC gr  6 lw 420 1573 m 7 -41 d s 3 lw 427 1532 m 7 61 d s 434 1593 m 37 X s 1 1 1 c 2254 561 2 2 bf black 1 1 1 c black 1860 358 318 187 bl 1 1 1 c black
 1860 358 318 187 bl 6 lw 1 1 1 c black 3 lw 373 322 m20 6 lw 3 lw 482 327 m20 6 lw 3 lw 591 335 m20 6 lw 3 lw 701 323 m20 6 lw 3 lw 810 314 m20 6 lw 3 lw 920 318 m20 6 lw 3 lw 1029 287 m20 6 lw 3 lw 1139 290 m20 6 lw 3 lw 1248 293 m20 6 lw 3 lw 1358
 284 m20 6 lw 3 lw 318 187 m 1860 X s
 gsave  2254 561 2 2 C 2105.01 64.4045 t 0 r /Helvetica findfont 50.9797 sf 0 0 m (1/2) show NC gr 
 gsave  2254 561 2 2 C 1888.07 23.728 t 0 r /Helvetica findfont 78.1689 sf 0 0 m ( [GeV]) show NC gr 
 gsave  2254 561 2 2 C 1857.56 3.38971 t 0 r /Helvetica findfont 50.9797 sf 0 0 m (T) show NC gr 
 gsave  2254 561 2 2 C 1806.72 23.728 t 0 r /Helvetica findfont 78.1689 sf 0 0 m (H) show NC gr  6 lw 1773 81 m 10 -78 d s 3 lw 1783 3 m 14 99 d s 1797 102 m 91 X s
 gsave  2254 561 2 2 C 1735.53 23.728 t 0 r /Helvetica findfont 78.1689 sf 0 0 m (/) show NC gr 
 gsave  2254 561 2 2 C 1630.45 61.0148 t 0 r /Helvetica findfont 50.9797 sf 0 0 m (miss) show NC gr 
 gsave  2254 561 2 2 C 1630.45 3.38971 t 0 r /Helvetica findfont 50.9797 sf 0 0 m (T) show NC gr 
 gsave  2254 561 2 2 C 1579.61 23.728 t 0 r /Helvetica findfont 78.1689 sf 0 0 m (E) show NC gr  537 201 m -14 Y s 591 194 m -7 Y s 646 194 m -7 Y s 701 194 m -7 Y s 756 194 m -7 Y s 810 201 m -14 Y s 865 194 m -7 Y s 920 194 m -7 Y s 975 194 m -7 Y
 s 1029 194 m -7 Y s 1084 201 m -14 Y s 1139 194 m -7 Y s 1193 194 m -7 Y s 1248 194 m -7 Y s 1303 194 m -7 Y s 1358 201 m -14 Y s 1412 194 m -7 Y s 1467 194 m -7 Y s 1522 194 m -7 Y s 1576 194 m -7 Y s 1631 201 m -14 Y s 1686 194 m -7 Y s 1741 194 m
 -7 Y s 1795 194 m -7 Y s 1850 194 m -7 Y s 1905 201 m -14 Y s 1959 194 m -7 Y s 2014 194 m -7 Y s 2069 194 m -7 Y s 2124 194 m -7 Y s 2178 201 m -14 Y s 537 201 m -14 Y s 482 194 m -7 Y s 427 194 m -7 Y s 373 194 m -7 Y s 318 194 m -7 Y s
 gsave  2254 561 2 2 C 491.508 118.64 t 0 r /Helvetica findfont 78.1689 sf 0 0 m (20) show NC gr 
 gsave  2254 561 2 2 C 766.075 118.64 t 0 r /Helvetica findfont 78.1689 sf 0 0 m (25) show NC gr 
 gsave  2254 561 2 2 C 1037.25 118.64 t 0 r /Helvetica findfont 78.1689 sf 0 0 m (30) show NC gr 
 gsave  2254 561 2 2 C 1311.82 118.64 t 0 r /Helvetica findfont 78.1689 sf 0 0 m (35) show NC gr 
 gsave  2254 561 2 2 C 1586.38 118.64 t 0 r /Helvetica findfont 78.1689 sf 0 0 m (40) show NC gr 
 gsave  2254 561 2 2 C 1857.56 118.64 t 0 r /Helvetica findfont 78.1689 sf 0 0 m (45) show NC gr 
 gsave  2254 561 2 2 C 2132.13 118.64 t 0 r /Helvetica findfont 78.1689 sf 0 0 m (50) show NC gr  318 545 m 1860 X s 537 531 m 14 Y s 591 538 m 7 Y s 646 538 m 7 Y s 701 538 m 7 Y s 756 538 m 7 Y s 810 531 m 14 Y s 865 538 m 7 Y s 920 538 m 7 Y s 975
 538 m 7 Y s 1029 538 m 7 Y s 1084 531 m 14 Y s 1139 538 m 7 Y s 1193 538 m 7 Y s 1248 538 m 7 Y s 1303 538 m 7 Y s 1358 531 m 14 Y s 1412 538 m 7 Y s 1467 538 m 7 Y s 1522 538 m 7 Y s 1576 538 m 7 Y s 1631 531 m 14 Y s 1686 538 m 7 Y s 1741 538 m 7
 Y s 1795 538 m 7 Y s 1850 538 m 7 Y s 1905 531 m 14 Y s 1959 538 m 7 Y s 2014 538 m 7 Y s 2069 538 m 7 Y s 2124 538 m 7 Y s 2178 531 m 14 Y s 537 531 m 14 Y s 482 538 m 7 Y s 427 538 m 7 Y s 373 538 m 7 Y s 318 538 m 7 Y s 318 187 m 358 Y s
 gsave  2254 561 2 2 C 166.096 284.736 t 90 r /Helvetica findfont 67.9729 sf 0 0 m (Data/SM) show NC gr  361 203 m -43 X s 339 220 m -21 X s 339 236 m -21 X s 339 252 m -21 X s 339 268 m -21 X s 361 285 m -43 X s 339 301 m -21 X s 339 317 m -21 X s
 339 334 m -21 X s 339 350 m -21 X s 361 366 m -43 X s 339 382 m -21 X s 339 399 m -21 X s 339 415 m -21 X s 339 431 m -21 X s 361 447 m -43 X s 339 464 m -21 X s 339 480 m -21 X s 339 496 m -21 X s 339 512 m -21 X s 361 529 m -43 X s 361 203 m -43 X
 s 339 187 m -21 X s 361 529 m -43 X s
 gsave  2254 561 2 2 C 261.008 183.044 t 0 r /Helvetica findfont 57.777 sf 0 0 m (0) show NC gr 
 gsave  2254 561 2 2 C 213.552 261.008 t 0 r /Helvetica findfont 57.777 sf 0 0 m (0.5) show NC gr 
 gsave  2254 561 2 2 C 271.177 342.361 t 0 r /Helvetica findfont 57.777 sf 0 0 m (1) show NC gr 
 gsave  2254 561 2 2 C 213.552 423.714 t 0 r /Helvetica findfont 57.777 sf 0 0 m (1.5) show NC gr 
 gsave  2254 561 2 2 C 261.008 505.067 t 0 r /Helvetica findfont 57.777 sf 0 0 m (2) show NC gr  2178 187 m 358 Y s 2135 203 m 43 X s 2157 220 m 21 X s 2157 236 m 21 X s 2157 252 m 21 X s 2157 268 m 21 X s 2135 285 m 43 X s 2157 301 m 21 X s 2157 317
 m 21 X s 2157 334 m 21 X s 2157 350 m 21 X s 2135 366 m 43 X s 2157 382 m 21 X s 2157 399 m 21 X s 2157 415 m 21 X s 2157 431 m 21 X s 2135 447 m 43 X s 2157 464 m 21 X s 2157 480 m 21 X s 2157 496 m 21 X s 2157 512 m 21 X s 2135 529 m 43 X s 2135
 203 m 43 X s 2157 187 m 21 X s 2135 529 m 43 X s 9 lw 701 336 m 1 Y s 701 337 m cl s 701 309 m s 701 309 m cl s 810 328 m 3 Y s 810 331 m cl s 810 301 m -3 Y s 810 298 m cl s 920 331 m 9 Y s 920 340 m cl s 920 304 m -8 Y s 920 296 m cl s 1029 301 m
 12 Y s 1029 313 m cl s 1029 274 m -12 Y s 1029 262 m cl s 1139 304 m 27 Y s 1139 331 m cl s 1139 277 m -24 Y s 1139 253 m cl s 1248 307 m 59 Y s 1248 366 m cl s 1248 280 m -45 Y s 1248 235 m cl s 1358 297 m 90 Y s 1358 387 m cl s 1358 270 m -53 Y s
 1358 217 m cl s 3 lw 373 322 482 327 591 335 701 323 810 314 920 318 1029 287 1139 290 1248 293 1358 284 10 { m20} R 9 lw 1 0 0 c 6 lw black 3 lw 1 0 0 c 2155 203 m cl s 2127 203 m cl s 2098 203 m cl s 2069 203 m cl s 2040 203 m cl s 2012 203 m cl s
 1983 203 m cl s 1959 209 m s 1959 237 m -14 -14 d s 1959 266 m -42 -43 d s 1959 294 m -71 -71 d s 1959 323 m -100 -100 d s 1959 351 m -109 -109 d s 1959 380 m -109 -109 d s 1959 409 m -137 -138 d s 1959 437 m -166 -166 d s 1959 466 m -195 -195 d s
 1959 494 m -218 -218 d s 1946 509 m -205 -204 d s 1917 509 m -198 -197 d s 1888 509 m -38 -38 d s 1840 461 m -149 -149 d s 1860 509 m -10 -9 d s 1811 461 m -149 -149 d s 1782 461 m -149 -149 d s 1754 461 m -13 -13 d s 1712 420 m -108 -108 d s 1684
 420 m -109 -108 d s 1655 420 m -108 -108 d s 1627 420 m -105 -105 d s 1598 420 m -97 -96 d s 1570 420 m -97 -96 d s 1541 420 m -97 -96 d s 1500 408 m -85 -84 d s 1471 408 m -83 -83 d s 1443 408 m -84 -83 d s 1414 408 m -83 -83 d s 1384 407 m -81 -81
 d s 1355 407 m -65 -65 d s 1326 407 m -65 -65 d s 1281 390 m -49 -48 d s 1253 390 m -49 -48 d s 1224 390 m -44 -44 d s 1195 390 m -2 -1 d s 1191 386 m -40 -40 d s 1162 386 m -40 -40 d s 1133 386 m -40 -40 d s 1105 386 m -34 -33 d s 1069 379 m -26
 -26 d s 1041 379 m -27 -26 d s 1012 379 m -27 -26 d s 983 379 m -24 -24 d s 952 377 m -22 -22 d s 923 377 m -21 -22 d s 895 377 m -22 -22 d s 866 377 m -22 -22 d s 838 377 m -23 -22 d s 809 377 m -22 -22 d s 780 377 m -22 -22 d s 749 375 m -17 -18 d
 s 721 375 m -18 -18 d s 692 375 m -18 -18 d s 663 375 m -17 -17 d s 633 374 m -15 -16 d s 605 374 m -16 -16 d s 576 374 m -15 -16 d s 547 374 m -14 -15 d s 518 373 m -14 -14 d s 489 373 m -14 -14 d s 460 373 m -13 -14 d s 318 231 m s 432 373 m -14
 -14 d s 318 259 m s 403 373 m -14 -14 d s 318 288 m s 374 373 m -14 -14 d s 318 317 m s 346 373 m -14 -14 d s 318 345 m s 6 lw black[ 4 8] 0 sd 3 lw 318 447 m 1860 X s 318 285 m 1860 X s 1 0 0 c[  12 12 ] 0 sd 6 lw 318 366 m 1860 X s
 gr  gr showpage
end
%%EOF
