%!PS-Adobe-2.0 EPSF-2.0
%%BoundingBox:  0 0 567 521
%%Title: Distributions/metsqrtmeffInc_met_distrSR_MB-SSd_afterFit_forThesis.eps: canvas
%%Creator: ROOT Version 6.04/16
%%CreationDate: Tue May 19 22:06:47 2020
%%DocumentNeededResources: ProcSet (FontSetInit)
%%EndComments
%%BeginProlog
80 dict begin
/s {stroke} def /l {lineto} def /m {moveto} def /t {translate} def
/r {rotate} def /rl {roll}  def /R {repeat} def
/d {rlineto} def /rm {rmoveto} def /gr {grestore} def /f {eofill} def
/c {setrgbcolor} def /black {0 setgray} def /sd {setdash} def
/cl {closepath} def /sf {scalefont setfont} def /lw {setlinewidth} def
/box {m dup 0 exch d exch 0 d 0 exch neg d cl} def
/NC{systemdict begin initclip end}def/C{NC box clip newpath}def
/bl {box s} def /bf {gsave box gsave f grestore 1 lw [] 0 sd s grestore} def /Y { 0 exch d} def /X { 0 d} def 
/K {{pop pop 0 moveto} exch kshow} bind def
/ita {/ang 15 def gsave [1 0 ang dup sin exch cos div 1 0 0] concat} def 
/mp {newpath /y exch def /x exch def} def
/side {[w .77 mul w .23 mul] .385 w mul sd w 0 l currentpoint t -144 r} def
/mr {mp x y w2 0 360 arc} def /m24 {mr s} def /m20 {mr f} def
/mb {mp x y w2 add m w2 neg 0 d 0 w neg d w 0 d 0 w d cl} def
/mt {mp x y w2 add m w2 neg w neg d w 0 d cl} def
/m21 {mb f} def /m25 {mb s} def /m22 {mt f} def /m26{mt s} def
/m23 {mp x y w2 sub m w2 w d w neg 0 d cl f} def
/m27 {mp x y w2 add m w3 neg w2 neg d w3 w2 neg d w3 w2 d cl s} def
/m28 {mp x w2 sub y w2 sub w3 add m w3 0 d  0 w3 neg d w3 0 d 0 w3 d w3 0 d  0 w3 d w3 neg 0 d 0 w3 d w3 neg 0 d 0 w3 neg d w3 neg 0 d cl s } def
/m29 {mp gsave x w2 sub y w2 add w3 sub m currentpoint t 4 {side} repeat cl fill gr} def
/m30 {mp gsave x w2 sub y w2 add w3 sub m currentpoint t 4 {side} repeat cl s gr} def
/m31 {mp x y w2 sub m 0 w d x w2 sub y m w 0 d x w2 sub y w2 add m w w neg d x w2 sub y w2 sub m w w d s} def
/m32 {mp x y w2 sub m w2 w d w neg 0 d cl s} def
/m33 {mp x y w2 add m w3 neg w2 neg d w3 w2 neg d w3 w2 d cl f} def
/m34 {mp x w2 sub y w2 sub w3 add m w3 0 d  0 w3 neg d w3 0 d 0 w3 d w3 0 d  0 w3 d w3 neg 0 d 0 w3 d w3 neg 0 d 0 w3 neg d w3 neg 0 d cl f } def
/m2 {mp x y w2 sub m 0 w d x w2 sub y m w 0 d s} def
/m5 {mp x w2 sub y w2 sub m w w d x w2 sub y w2 add m w w neg d s} def
%%IncludeResource: ProcSet (FontSetInit)
%%IncludeResource: font Times-Roman
%%IncludeResource: font Times-Italic
%%IncludeResource: font Times-Bold
%%IncludeResource: font Times-BoldItalic
%%IncludeResource: font Helvetica
%%IncludeResource: font Helvetica-Oblique
%%IncludeResource: font Helvetica-Bold
%%IncludeResource: font Helvetica-BoldOblique
%%IncludeResource: font Courier
%%IncludeResource: font Courier-Oblique
%%IncludeResource: font Courier-Bold
%%IncludeResource: font Courier-BoldOblique
%%IncludeResource: font Symbol
%%IncludeResource: font ZapfDingbats
/reEncode {exch findfont dup length dict begin {1 index /FID eq  {pop pop} {def} ifelse } forall /Encoding exch def currentdict end dup /FontName get exch definefont pop } def [/Times-Bold /Times-Italic /Times-BoldItalic /Helvetica /Helvetica-Oblique
 /Helvetica-Bold /Helvetica-BoldOblique /Courier /Courier-Oblique /Courier-Bold /Courier-BoldOblique /Times-Roman /AvantGarde-Book /AvantGarde-BookOblique /AvantGarde-Demi /AvantGarde-DemiOblique /Bookman-Demi /Bookman-DemiItalic /Bookman-Light
 /Bookman-LightItalic /Helvetica-Narrow /Helvetica-Narrow-Bold /Helvetica-Narrow-BoldOblique /Helvetica-Narrow-Oblique /NewCenturySchlbk-Roman /NewCenturySchlbk-Bold /NewCenturySchlbk-BoldItalic /NewCenturySchlbk-Italic /Palatino-Bold
 /Palatino-BoldItalic /Palatino-Italic /Palatino-Roman ] {ISOLatin1Encoding reEncode } forall
%%EndProlog
%%BeginSetup
%%EndSetup
newpath  gsave  .25 .25 scale  gsave  0 0 t black[  ] 0 sd 3 lw 1 1 1 c 2268 2085 0 0 bf black 1 1 1 c 2263 1770 2 313 bf black 1 1 1 c black 1860 1145 319 584 bl 1 1 1 c black 1860 1145 319 584 bl 6 lw 1 1 1 c black 3 lw /w 33 def /w2 {w 2 div} def
 /w3 {w 3 div} def 366 1248 m20 6 lw 3 lw 459 1244 m20 6 lw 3 lw 552 1226 m20 6 lw 3 lw 645 1211 m20 6 lw 3 lw 738 1192 m20 6 lw 3 lw 831 1182 m20 6 lw 3 lw 924 1161 m20 6 lw 3 lw 1017 1139 m20 6 lw 3 lw 1110 1103 m20 6 lw 3 lw 1203 1060 m20 6 lw 3
 lw 1296 1026 m20 6 lw 3 lw 1389 971 m20 6 lw 3 lw 1482 933 m20 6 lw 1575 845 m 8 Y s 1575 880 m 2 Y s 3 lw 1575 867 m20 6 lw 1668 764 m 28 Y s 1668 819 m 11 Y s 3 lw 1668 806 m20 6 lw 1761 764 m 28 Y s 1761 819 m 11 Y s 3 lw 1761 806 m20 6 lw 1947
 584 m 125 Y s 1947 736 m 28 Y s 3 lw 1947 723 m20 6 lw 2133 584 m 125 Y s 2133 736 m 28 Y s 3 lw 2133 723 m20 6 lw 3 lw 319 584 m 1860 X s
 gsave  2263 1770 2 313 C 2101.62 396.596 t 0 r /Helvetica findfont 54.2494 sf 0 0 m (1/2) show NC gr 
 gsave  2263 1770 2 313 C 1874.51 355.92 t 0 r /Helvetica findfont 81.3741 sf 0 0 m ( [GeV]) show NC gr 
 gsave  2263 1770 2 313 C 1840.61 332.192 t 0 r /Helvetica findfont 54.2494 sf 0 0 m (T) show NC gr 
 gsave  2263 1770 2 313 C 1786.38 355.92 t 0 r /Helvetica findfont 81.3741 sf 0 0 m (H) show NC gr  6 lw 1749 417 m 14 -85 d s 3 lw 1763 332 m 13 105 d s 1776 437 m 99 X s
 gsave  2263 1770 2 313 C 1711.8 355.92 t 0 r /Helvetica findfont 81.3741 sf 0 0 m (/) show NC gr 
 gsave  2263 1770 2 313 C 1599.94 396.596 t 0 r /Helvetica findfont 54.2494 sf 0 0 m (miss) show NC gr 
 gsave  2263 1770 2 313 C 1599.94 332.192 t 0 r /Helvetica findfont 54.2494 sf 0 0 m (T) show NC gr 
 gsave  2263 1770 2 313 C 1549.1 355.92 t 0 r /Helvetica findfont 81.3741 sf 0 0 m (E) show NC gr  319 584 m cl s 366 584 m cl s 412 584 m cl s 459 584 m cl s 505 584 m cl s 552 584 m cl s 598 584 m cl s 645 584 m cl s 691 584 m cl s 738 584 m cl s
 784 584 m cl s 831 584 m cl s 877 584 m cl s 924 584 m cl s 970 584 m cl s 1017 584 m cl s 1063 584 m cl s 1110 584 m cl s 1156 584 m cl s 1203 584 m cl s 1249 584 m cl s 1296 584 m cl s 1342 584 m cl s 1389 584 m cl s 1435 584 m cl s 1482 584 m cl
 s 1528 584 m cl s 1575 584 m cl s 1621 584 m cl s 1668 584 m cl s 1714 584 m cl s 1761 584 m cl s 1807 584 m cl s 1854 584 m cl s 1900 584 m cl s 1947 584 m cl s 1993 584 m cl s 2040 584 m cl s 2086 584 m cl s 2133 584 m cl s 2179 584 m cl s 319
 1729 m 1860 X s 319 1729 m cl s 366 1729 m cl s 412 1729 m cl s 459 1729 m cl s 505 1729 m cl s 552 1729 m cl s 598 1729 m cl s 645 1729 m cl s 691 1729 m cl s 738 1729 m cl s 784 1729 m cl s 831 1729 m cl s 877 1729 m cl s 924 1729 m cl s 970 1729
 m cl s 1017 1729 m cl s 1063 1729 m cl s 1110 1729 m cl s 1156 1729 m cl s 1203 1729 m cl s 1249 1729 m cl s 1296 1729 m cl s 1342 1729 m cl s 1389 1729 m cl s 1435 1729 m cl s 1482 1729 m cl s 1528 1729 m cl s 1575 1729 m cl s 1621 1729 m cl s 1668
 1729 m cl s 1714 1729 m cl s 1761 1729 m cl s 1807 1729 m cl s 1854 1729 m cl s 1900 1729 m cl s 1947 1729 m cl s 1993 1729 m cl s 2040 1729 m cl s 2086 1729 m cl s 2133 1729 m cl s 2179 1729 m cl s 319 584 m 1145 Y s
 gsave  2263 1770 2 313 C 125.419 1654.18 t 90 r /Helvetica findfont 54.2494 sf 0 0 m (1/2) show NC gr 
 gsave  2263 1770 2 313 C 166.096 1064.37 t 90 r /Helvetica findfont 81.3741 sf 0 0 m (Events / 2 [GeV]) show NC gr  341 626 m -22 X s 341 650 m -22 X s 341 668 m -22 X s 341 681 m -22 X s 341 692 m -22 X s 341 701 m -22 X s 341 709 m -22 X s 341 716
 m -22 X s 363 723 m -44 X s
 gsave  2263 1770 2 313 C 300.555 695.505 t 0 r  -36 0 t /Helvetica findfont 64.4212 sf 0 0 m (1) show NC gr  341 764 m -22 X s 341 789 m -22 X s 341 806 m -22 X s 341 819 m -22 X s 341 830 m -22 X s 341 840 m -22 X s 341 848 m -22 X s 341 855 m -22
 X s 363 861 m -44 X s
 gsave  2263 1770 2 313 C 300.555 833.818 t 0 r  -73 0 t /Helvetica findfont 64.4212 sf 0 0 m (10) show NC gr  341 903 m -22 X s 341 927 m -22 X s 341 944 m -22 X s 341 958 m -22 X s 341 969 m -22 X s 341 978 m -22 X s 341 986 m -22 X s 341 993 m -22
 X s 363 999 m -44 X s
 gsave  2263 1770 2 313 C 274.567 996.575 t 0 r /Helvetica findfont 44.0776 sf 0 0 m (2) show NC gr 
 gsave  2263 1770 2 313 C 203.383 969.457 t 0 r /Helvetica findfont 64.4212 sf 0 0 m (10) show NC gr  341 1041 m -22 X s 341 1065 m -22 X s 341 1083 m -22 X s 341 1096 m -22 X s 341 1107 m -22 X s 341 1116 m -22 X s 341 1124 m -22 X s 341 1131 m -22
 X s 363 1138 m -44 X s
 gsave  2263 1770 2 313 C 274.567 1138.94 t 0 r /Helvetica findfont 44.0776 sf 0 0 m (3) show NC gr 
 gsave  2263 1770 2 313 C 203.383 1108.44 t 0 r /Helvetica findfont 64.4212 sf 0 0 m (10) show NC gr  341 1179 m -22 X s 341 1204 m -22 X s 341 1221 m -22 X s 341 1234 m -22 X s 341 1245 m -22 X s 341 1254 m -22 X s 341 1262 m -22 X s 341 1270 m -22
 X s 363 1276 m -44 X s
 gsave  2263 1770 2 313 C 274.567 1274.53 t 0 r /Helvetica findfont 44.0776 sf 0 0 m (4) show NC gr 
 gsave  2263 1770 2 313 C 203.383 1247.41 t 0 r /Helvetica findfont 64.4212 sf 0 0 m (10) show NC gr  341 1318 m -22 X s 341 1342 m -22 X s 341 1359 m -22 X s 341 1373 m -22 X s 341 1384 m -22 X s 341 1393 m -22 X s 341 1401 m -22 X s 341 1408 m -22
 X s 363 1414 m -44 X s
 gsave  2263 1770 2 313 C 274.567 1416.9 t 0 r /Helvetica findfont 44.0776 sf 0 0 m (5) show NC gr 
 gsave  2263 1770 2 313 C 203.383 1386.39 t 0 r /Helvetica findfont 64.4212 sf 0 0 m (10) show NC gr  341 1456 m -22 X s 341 1480 m -22 X s 341 1497 m -22 X s 341 1511 m -22 X s 341 1522 m -22 X s 341 1531 m -22 X s 341 1539 m -22 X s 341 1546 m -22
 X s 363 1552 m -44 X s
 gsave  2263 1770 2 313 C 274.567 1555.88 t 0 r /Helvetica findfont 44.0776 sf 0 0 m (6) show NC gr 
 gsave  2263 1770 2 313 C 203.383 1525.37 t 0 r /Helvetica findfont 64.4212 sf 0 0 m (10) show NC gr  341 1594 m -22 X s 341 1618 m -22 X s 341 1636 m -22 X s 341 1649 m -22 X s 341 1660 m -22 X s 341 1669 m -22 X s 341 1677 m -22 X s 341 1684 m -22
 X s 363 1691 m -44 X s
 gsave  2263 1770 2 313 C 274.567 1688.08 t 0 r /Helvetica findfont 44.0776 sf 0 0 m (7) show NC gr 
 gsave  2263 1770 2 313 C 203.383 1660.96 t 0 r /Helvetica findfont 64.4212 sf 0 0 m (10) show NC gr  2179 584 m 1145 Y s 2157 626 m 22 X s 2157 650 m 22 X s 2157 668 m 22 X s 2157 681 m 22 X s 2157 692 m 22 X s 2157 701 m 22 X s 2157 709 m 22 X s
 2157 716 m 22 X s 2136 723 m 43 X s 2157 764 m 22 X s 2157 789 m 22 X s 2157 806 m 22 X s 2157 819 m 22 X s 2157 830 m 22 X s 2157 840 m 22 X s 2157 848 m 22 X s 2157 855 m 22 X s 2136 861 m 43 X s 2157 903 m 22 X s 2157 927 m 22 X s 2157 944 m 22 X
 s 2157 958 m 22 X s 2157 969 m 22 X s 2157 978 m 22 X s 2157 986 m 22 X s 2157 993 m 22 X s 2136 999 m 43 X s 2157 1041 m 22 X s 2157 1065 m 22 X s 2157 1083 m 22 X s 2157 1096 m 22 X s 2157 1107 m 22 X s 2157 1116 m 22 X s 2157 1124 m 22 X s 2157
 1131 m 22 X s 2136 1138 m 43 X s 2157 1179 m 22 X s 2157 1204 m 22 X s 2157 1221 m 22 X s 2157 1234 m 22 X s 2157 1245 m 22 X s 2157 1254 m 22 X s 2157 1262 m 22 X s 2157 1270 m 22 X s 2136 1276 m 43 X s 2157 1318 m 22 X s 2157 1342 m 22 X s 2157
 1359 m 22 X s 2157 1373 m 22 X s 2157 1384 m 22 X s 2157 1393 m 22 X s 2157 1401 m 22 X s 2157 1408 m 22 X s 2136 1414 m 43 X s 2157 1456 m 22 X s 2157 1480 m 22 X s 2157 1497 m 22 X s 2157 1511 m 22 X s 2157 1522 m 22 X s 2157 1531 m 22 X s 2157
 1539 m 22 X s 2157 1546 m 22 X s 2136 1552 m 43 X s 2157 1594 m 22 X s 2157 1618 m 22 X s 2157 1636 m 22 X s 2157 1649 m 22 X s 2157 1660 m 22 X s 2157 1669 m 22 X s 2157 1677 m 22 X s 2157 1684 m 22 X s 2136 1691 m 43 X s 0.4 0.6 1 c black 0.4 0.6
 1 c 319 584 m 663 Y 93 X -4 Y 93 X -18 Y 93 X -15 Y 93 X -17 Y 93 X -15 Y 93 X -18 Y 93 X -25 Y 93 X -33 Y 93 X -39 Y 93 X -44 Y 93 X -43 Y 93 X -47 Y 93 X -45 Y 93 X -35 Y 93 X -70 Y 93 X -52 Y 93 X -23 Y 93 X -98 Y 93 X 17 Y 93 X -39 Y f black 0.4
 0.6 1 c black 319 1247 m 93 X -4 Y 93 X -18 Y 93 X -15 Y 93 X -17 Y 93 X -15 Y 93 X -18 Y 93 X -25 Y 93 X -33 Y 93 X -39 Y 93 X -44 Y 93 X -43 Y 93 X -47 Y 93 X -45 Y 93 X -35 Y 93 X -70 Y 93 X -52 Y 93 X -23 Y 93 X -98 Y 93 X 17 Y 93 X s 0.999
 0.999 0.999 c black 0.999 0.999 0.999 c 319 584 m 641 Y 93 X -3 Y 93 X -16 Y 93 X -14 Y 93 X -16 Y 93 X -15 Y 93 X -18 Y 93 X -22 Y 93 X -32 Y 93 X -38 Y 93 X -44 Y 93 X -43 Y 93 X -44 Y 93 X -43 Y 93 X -35 Y 93 X -70 Y 93 X -66 Y 93 X -50 Y 93 X
 -69 Y 93 X 32 Y 93 X -35 Y f black 0.999 0.999 0.999 c black 319 1225 m 93 X -3 Y 93 X -16 Y 93 X -14 Y 93 X -16 Y 93 X -15 Y 93 X -18 Y 93 X -22 Y 93 X -32 Y 93 X -38 Y 93 X -44 Y 93 X -43 Y 93 X -44 Y 93 X -43 Y 93 X -35 Y 93 X -70 Y 93 X -66 Y 93
 X -50 Y 93 X -69 Y 93 X 32 Y 93 X s 1 1 1 c black 319 1225 m 93 X -3 Y 93 X -16 Y 93 X -14 Y 93 X -16 Y 93 X -15 Y 93 X -18 Y 93 X -22 Y 93 X -32 Y 93 X -38 Y 93 X -44 Y 93 X -43 Y 93 X -44 Y 93 X -43 Y 93 X -35 Y 93 X -70 Y 93 X -66 Y 93 X -50 Y 93
 X -69 Y 93 X 32 Y 93 X s 0.6 1 0.6 c black 0.6 1 0.6 c 319 584 m 641 Y 93 X -3 Y 93 X -16 Y 93 X -14 Y 93 X -16 Y 93 X -15 Y 93 X -18 Y 93 X -22 Y 93 X -32 Y 93 X -38 Y 93 X -44 Y 93 X -43 Y 93 X -44 Y 93 X -43 Y 93 X -35 Y 93 X -70 Y 93 X -66 Y 93
 X -50 Y 93 X -69 Y 93 X 32 Y 93 X -35 Y f black 0.6 1 0.6 c black 319 1225 m 93 X -3 Y 93 X -16 Y 93 X -14 Y 93 X -16 Y 93 X -15 Y 93 X -18 Y 93 X -22 Y 93 X -32 Y 93 X -38 Y 93 X -44 Y 93 X -43 Y 93 X -44 Y 93 X -43 Y 93 X -35 Y 93 X -70 Y 93 X -66
 Y 93 X -50 Y 93 X -69 Y 93 X 32 Y 93 X s 0.999 0.999 0.999 c black 0.999 0.999 0.999 c 319 584 m 630 Y 93 X -2 Y 93 X -15 Y 93 X -14 Y 93 X -14 Y 93 X -13 Y 93 X -16 Y 93 X -21 Y 93 X -32 Y 93 X -38 Y 93 X -43 Y 93 X -42 Y 93 X -45 Y 93 X -42 Y 93 X
 -36 Y 93 X -69 Y 93 X -66 Y 93 X -50 Y 93 X -69 Y 93 X 32 Y 93 X -35 Y f black 0.999 0.999 0.999 c black 319 1214 m 93 X -2 Y 93 X -15 Y 93 X -14 Y 93 X -14 Y 93 X -13 Y 93 X -16 Y 93 X -21 Y 93 X -32 Y 93 X -38 Y 93 X -43 Y 93 X -42 Y 93 X -45 Y 93
 X -42 Y 93 X -36 Y 93 X -69 Y 93 X -66 Y 93 X -50 Y 93 X -69 Y 93 X 32 Y 93 X s 1 1 1 c black 319 1214 m 93 X -2 Y 93 X -15 Y 93 X -14 Y 93 X -14 Y 93 X -13 Y 93 X -16 Y 93 X -21 Y 93 X -32 Y 93 X -38 Y 93 X -43 Y 93 X -42 Y 93 X -45 Y 93 X -42 Y 93
 X -36 Y 93 X -69 Y 93 X -66 Y 93 X -50 Y 93 X -69 Y 93 X 32 Y 93 X s 1 0.8 0.4 c black 1 0.8 0.4 c 319 584 m 630 Y 93 X -2 Y 93 X -15 Y 93 X -14 Y 93 X -14 Y 93 X -13 Y 93 X -16 Y 93 X -21 Y 93 X -32 Y 93 X -38 Y 93 X -43 Y 93 X -42 Y 93 X -45 Y 93
 X -42 Y 93 X -36 Y 93 X -69 Y 93 X -66 Y 93 X -50 Y 93 X -69 Y 93 X 32 Y 93 X -35 Y f black 1 0.8 0.4 c black 319 1214 m 93 X -2 Y 93 X -15 Y 93 X -14 Y 93 X -14 Y 93 X -13 Y 93 X -16 Y 93 X -21 Y 93 X -32 Y 93 X -38 Y 93 X -43 Y 93 X -42 Y 93 X -45
 Y 93 X -42 Y 93 X -36 Y 93 X -69 Y 93 X -66 Y 93 X -50 Y 93 X -69 Y 93 X 32 Y 93 X s 0.999 0.999 0.999 c black 0.999 0.999 0.999 c 319 584 m 479 Y 93 X -3 Y 93 X -14 Y 93 X -8 Y 93 X -15 Y 93 X -19 Y 93 X -15 Y 93 X -28 Y 93 X -30 Y 93 X -33 Y 93 X
 -46 Y 93 X -41 Y 93 X -29 Y 93 X -49 Y 93 X -46 Y 93 X -103 Y 372 X 15 Y 93 X -15 Y f black 0.999 0.999 0.999 c black 319 1063 m 93 X -3 Y 93 X -14 Y 93 X -8 Y 93 X -15 Y 93 X -19 Y 93 X -15 Y 93 X -28 Y 93 X -30 Y 93 X -33 Y 93 X -46 Y 93 X -41 Y
 93 X -29 Y 93 X -49 Y 93 X -46 Y 93 X -103 Y 372 X 15 Y 93 X s 1 1 1 c black 319 1063 m 93 X -3 Y 93 X -14 Y 93 X -8 Y 93 X -15 Y 93 X -19 Y 93 X -15 Y 93 X -28 Y 93 X -30 Y 93 X -33 Y 93 X -46 Y 93 X -41 Y 93 X -29 Y 93 X -49 Y 93 X -46 Y 93 X -103
 Y 372 X 15 Y 93 X s 1 0.4 0.6 c black 1 0.4 0.6 c 319 584 m 479 Y 93 X -3 Y 93 X -14 Y 93 X -8 Y 93 X -15 Y 93 X -19 Y 93 X -15 Y 93 X -28 Y 93 X -30 Y 93 X -33 Y 93 X -46 Y 93 X -41 Y 93 X -29 Y 93 X -49 Y 93 X -46 Y 93 X -103 Y 372 X 15 Y 93 X -15
 Y f black 1 0.4 0.6 c black 319 1063 m 93 X -3 Y 93 X -14 Y 93 X -8 Y 93 X -15 Y 93 X -19 Y 93 X -15 Y 93 X -28 Y 93 X -30 Y 93 X -33 Y 93 X -46 Y 93 X -41 Y 93 X -29 Y 93 X -49 Y 93 X -46 Y 93 X -103 Y 372 X 15 Y 93 X s 0.999 0.999 0.999 c black
 0.999 0.999 0.999 c 319 584 m 337 Y 93 X -48 Y 93 X -60 Y 93 X -24 Y 93 X -33 Y 93 X -37 Y 93 X -50 Y 93 X -55 Y 93 X -30 Y 1116 X f black 0.999 0.999 0.999 c black 319 921 m 93 X -48 Y 93 X -60 Y 93 X -24 Y 93 X -33 Y 93 X -37 Y 93 X -50 Y 93 X -55
 Y 93 X -30 Y 1116 X s 1 1 1 c black 319 921 m 93 X -48 Y 93 X -60 Y 93 X -24 Y 93 X -33 Y 93 X -37 Y 93 X -50 Y 93 X -55 Y 93 X -30 Y 1116 X s 0 0 0.4 c black 0 0 0.4 c 319 584 m 337 Y 93 X -48 Y 93 X -60 Y 93 X -24 Y 93 X -33 Y 93 X -37 Y 93 X -50
 Y 93 X -55 Y 93 X -30 Y 1116 X f black 0 0 0.4 c black 319 921 m 93 X -48 Y 93 X -60 Y 93 X -24 Y 93 X -33 Y 93 X -37 Y 93 X -50 Y 93 X -55 Y 93 X -30 Y 1116 X s 1 0 0 c 6 lw 1 1 1 c black 1 0 0 c 319 1247 m 93 X -4 Y 93 X -18 Y 93 X -15 Y 93 X -17
 Y 93 X -15 Y 93 X -18 Y 93 X -25 Y 93 X -33 Y 93 X -39 Y 93 X -44 Y 93 X -43 Y 93 X -47 Y 93 X -45 Y 93 X -35 Y 93 X -70 Y 93 X -52 Y 93 X -23 Y 93 X -98 Y 93 X 17 Y 93 X s black 3 lw 1 0 0 c 1 lw << /PatternType 1 /PaintType 2 /TilingType 1 /BBox [
 0 0 100 100 ] /XStep 100 /YStep 100 /PaintProc { begin gsave 0 100 m 100 0 l s gr end } >> [ 0.24 0 0 0.24 0 0 ] makepattern /P05 exch def /cs {[/Pattern /DeviceRGB] setcolorspace} def /FA {f [/DeviceRGB] setcolorspace} def cs 1 0 0 P05 setcolor 319
 584 m 665 Y 93 X -4 Y 93 X -18 Y 93 X -16 Y 93 X -16 Y 93 X -16 Y 93 X -18 Y 93 X -24 Y 93 X -33 Y 93 X -39 Y 93 X -43 Y 93 X -43 Y 93 X -45 Y 93 X -44 Y 93 X -34 Y 93 X -68 Y 93 X -52 Y 93 X -11 Y 93 X -100 Y 93 X 25 Y 93 X -66 Y -186 X 86 Y -93 X
 47 Y -93 X 53 Y -93 X 71 Y -93 X 38 Y -93 X 45 Y -93 X 48 Y -93 X 44 Y -93 X 44 Y -93 X 39 Y -93 X 34 Y -93 X 25 Y -93 X 18 Y -93 X 15 Y -93 X 17 Y -93 X 15 Y -93 X 18 Y -93 X 4 Y -93 X -661 Y FA 6 lw 1 1 1 c 15 lw 1575 846 m s 1575 846 m cl s 1668
 826 m 6 Y s 1668 832 m cl s 1668 786 m -19 Y s 1668 767 m cl s 1761 826 m 6 Y s 1761 832 m cl s 1761 786 m -19 Y s 1761 767 m cl s 1947 743 m 29 Y s 1947 772 m cl s 1947 702 m -84 Y s 1947 618 m cl s 2133 743 m 29 Y s 2133 772 m cl s 2133 702 m -84
 Y s 2133 618 m cl s black 1 1 1 c 3 lw /w 43 def /w2 {w 2 div} def /w3 {w 3 div} def 366 1248 459 1244 552 1226 645 1211 738 1192 831 1182 924 1161 1017 1139 1110 1103 1203 1060 1296 1026 1389 971 1482 933 1575 867 1668 806 1761 806 16 { m20} R 15
 lw 3 lw 1947 723 m20 15 lw 3 lw 2133 723 m20 15 lw black 6 lw 1 1 1 c black 3 lw /w 33 def /w2 {w 2 div} def /w3 {w 3 div} def 366 1248 m20 6 lw 3 lw 459 1244 m20 6 lw 3 lw 552 1226 m20 6 lw 3 lw 645 1211 m20 6 lw 3 lw 738 1192 m20 6 lw 3 lw 831
 1182 m20 6 lw 3 lw 924 1161 m20 6 lw 3 lw 1017 1139 m20 6 lw 3 lw 1110 1103 m20 6 lw 3 lw 1203 1060 m20 6 lw 3 lw 1296 1026 m20 6 lw 3 lw 1389 971 m20 6 lw 3 lw 1482 933 m20 6 lw 1575 845 m 8 Y s 1575 880 m 2 Y s 3 lw 1575 867 m20 6 lw 1668 764 m 28
 Y s 1668 819 m 11 Y s 3 lw 1668 806 m20 6 lw 1761 764 m 28 Y s 1761 819 m 11 Y s 3 lw 1761 806 m20 6 lw 1947 584 m 125 Y s 1947 736 m 28 Y s 3 lw 1947 723 m20 6 lw 2133 584 m 125 Y s 2133 736 m 28 Y s 3 lw 2133 723 m20 6 lw 1575 880 m 3 Y s 1575 883
 m cl s 1575 853 m -7 Y s 1575 846 m cl s 1668 819 m 13 Y s 1668 832 m cl s 1668 792 m -25 Y s 1668 767 m cl s 1761 819 m 13 Y s 1761 832 m cl s 1761 792 m -25 Y s 1761 767 m cl s 1947 736 m 36 Y s 1947 772 m cl s 1947 709 m -91 Y s 1947 618 m cl s
 2133 736 m 36 Y s 2133 772 m cl s 2133 709 m -91 Y s 2133 618 m cl s 3 lw 366 1248 459 1244 552 1226 645 1211 738 1192 831 1182 924 1161 1017 1139 1110 1103 1203 1060 1296 1026 1389 971 1482 933 1575 867 1668 806 1761 806 16 { m20} R 6 lw 3 lw 1947
 723 m20 6 lw 3 lw 2133 723 m20 6 lw 3 lw 319 584 m 1860 X s 319 584 m cl s 366 584 m cl s 412 584 m cl s 459 584 m cl s 505 584 m cl s 552 584 m cl s 598 584 m cl s 645 584 m cl s 691 584 m cl s 738 584 m cl s 784 584 m cl s 831 584 m cl s 877 584 m
 cl s 924 584 m cl s 970 584 m cl s 1017 584 m cl s 1063 584 m cl s 1110 584 m cl s 1156 584 m cl s 1203 584 m cl s 1249 584 m cl s 1296 584 m cl s 1342 584 m cl s 1389 584 m cl s 1435 584 m cl s 1482 584 m cl s 1528 584 m cl s 1575 584 m cl s 1621
 584 m cl s 1668 584 m cl s 1714 584 m cl s 1761 584 m cl s 1807 584 m cl s 1854 584 m cl s 1900 584 m cl s 1947 584 m cl s 1993 584 m cl s 2040 584 m cl s 2086 584 m cl s 2133 584 m cl s 2179 584 m cl s 319 1729 m 1860 X s 319 1729 m cl s 366 1729 m
 cl s 412 1729 m cl s 459 1729 m cl s 505 1729 m cl s 552 1729 m cl s 598 1729 m cl s 645 1729 m cl s 691 1729 m cl s 738 1729 m cl s 784 1729 m cl s 831 1729 m cl s 877 1729 m cl s 924 1729 m cl s 970 1729 m cl s 1017 1729 m cl s 1063 1729 m cl s
 1110 1729 m cl s 1156 1729 m cl s 1203 1729 m cl s 1249 1729 m cl s 1296 1729 m cl s 1342 1729 m cl s 1389 1729 m cl s 1435 1729 m cl s 1482 1729 m cl s 1528 1729 m cl s 1575 1729 m cl s 1621 1729 m cl s 1668 1729 m cl s 1714 1729 m cl s 1761 1729 m
 cl s 1807 1729 m cl s 1854 1729 m cl s 1900 1729 m cl s 1947 1729 m cl s 1993 1729 m cl s 2040 1729 m cl s 2086 1729 m cl s 2133 1729 m cl s 2179 1729 m cl s 319 584 m 1145 Y s 341 626 m -22 X s 341 650 m -22 X s 341 668 m -22 X s 341 681 m -22 X s
 341 692 m -22 X s 341 701 m -22 X s 341 709 m -22 X s 341 716 m -22 X s 363 723 m -44 X s 341 764 m -22 X s 341 789 m -22 X s 341 806 m -22 X s 341 819 m -22 X s 341 830 m -22 X s 341 840 m -22 X s 341 848 m -22 X s 341 855 m -22 X s 363 861 m -44 X
 s 341 903 m -22 X s 341 927 m -22 X s 341 944 m -22 X s 341 958 m -22 X s 341 969 m -22 X s 341 978 m -22 X s 341 986 m -22 X s 341 993 m -22 X s 363 999 m -44 X s 341 1041 m -22 X s 341 1065 m -22 X s 341 1083 m -22 X s 341 1096 m -22 X s 341 1107
 m -22 X s 341 1116 m -22 X s 341 1124 m -22 X s 341 1131 m -22 X s 363 1138 m -44 X s 341 1179 m -22 X s 341 1204 m -22 X s 341 1221 m -22 X s 341 1234 m -22 X s 341 1245 m -22 X s 341 1254 m -22 X s 341 1262 m -22 X s 341 1270 m -22 X s 363 1276 m
 -44 X s 341 1318 m -22 X s 341 1342 m -22 X s 341 1359 m -22 X s 341 1373 m -22 X s 341 1384 m -22 X s 341 1393 m -22 X s 341 1401 m -22 X s 341 1408 m -22 X s 363 1414 m -44 X s 341 1456 m -22 X s 341 1480 m -22 X s 341 1497 m -22 X s 341 1511 m
 -22 X s 341 1522 m -22 X s 341 1531 m -22 X s 341 1539 m -22 X s 341 1546 m -22 X s 363 1552 m -44 X s 341 1594 m -22 X s 341 1618 m -22 X s 341 1636 m -22 X s 341 1649 m -22 X s 341 1660 m -22 X s 341 1669 m -22 X s 341 1677 m -22 X s 341 1684 m
 -22 X s 363 1691 m -44 X s 2179 584 m 1145 Y s 2157 626 m 22 X s 2157 650 m 22 X s 2157 668 m 22 X s 2157 681 m 22 X s 2157 692 m 22 X s 2157 701 m 22 X s 2157 709 m 22 X s 2157 716 m 22 X s 2136 723 m 43 X s 2157 764 m 22 X s 2157 789 m 22 X s 2157
 806 m 22 X s 2157 819 m 22 X s 2157 830 m 22 X s 2157 840 m 22 X s 2157 848 m 22 X s 2157 855 m 22 X s 2136 861 m 43 X s 2157 903 m 22 X s 2157 927 m 22 X s 2157 944 m 22 X s 2157 958 m 22 X s 2157 969 m 22 X s 2157 978 m 22 X s 2157 986 m 22 X s
 2157 993 m 22 X s 2136 999 m 43 X s 2157 1041 m 22 X s 2157 1065 m 22 X s 2157 1083 m 22 X s 2157 1096 m 22 X s 2157 1107 m 22 X s 2157 1116 m 22 X s 2157 1124 m 22 X s 2157 1131 m 22 X s 2136 1138 m 43 X s 2157 1179 m 22 X s 2157 1204 m 22 X s 2157
 1221 m 22 X s 2157 1234 m 22 X s 2157 1245 m 22 X s 2157 1254 m 22 X s 2157 1262 m 22 X s 2157 1270 m 22 X s 2136 1276 m 43 X s 2157 1318 m 22 X s 2157 1342 m 22 X s 2157 1359 m 22 X s 2157 1373 m 22 X s 2157 1384 m 22 X s 2157 1393 m 22 X s 2157
 1401 m 22 X s 2157 1408 m 22 X s 2136 1414 m 43 X s 2157 1456 m 22 X s 2157 1480 m 22 X s 2157 1497 m 22 X s 2157 1511 m 22 X s 2157 1522 m 22 X s 2157 1531 m 22 X s 2157 1539 m 22 X s 2157 1546 m 22 X s 2136 1552 m 43 X s 2157 1594 m 22 X s 2157
 1618 m 22 X s 2157 1636 m 22 X s 2157 1649 m 22 X s 2157 1660 m 22 X s 2157 1669 m 22 X s 2157 1677 m 22 X s 2157 1684 m 22 X s 2136 1691 m 43 X s
 gsave  2263 1770 2 313 C 406.765 1447.41 t 0 r /Helvetica findfont 64.4212 sf 0 0 m (SR for MB\255SSd) show NC gr 
 gsave  2263 1770 2 313 C 1464.36 1630.45 t 0 r /Helvetica findfont 64.4212 sf 0 0 m (SM Total) show NC gr  1 1 1 c 1338 1616 m 107 X 64 Y -107 X f 1 0 0 c 6 lw 1338 1648 m 107 X s black
 gsave  2263 1770 2 313 C 1464.36 1538.93 t 0 r /Helvetica findfont 64.4212 sf 0 0 m (Data) show NC gr  1391 1529 m 55 Y s 3 lw 1391 1557 m20 6 lw
 gsave  2263 1770 2 313 C 1464.36 1447.41 t 0 r /Helvetica findfont 64.4212 sf 0 0 m (W+jets) show NC gr  0.4 0.6 1 c 3 lw 1338 1434 m 107 X 64 Y -107 X f 6 lw black 3 lw 1338 1498 m 107 X s 1338 1434 m 107 X s 1445 1434 m 64 Y s 1338 1434 m 64 Y s
 gsave  2263 1770 2 313 C 1498.25 1355.88 t 0 r /Helvetica findfont 64.4212 sf 0 0 m (\(+EW\) & single top) show NC gr 
 gsave  2263 1770 2 313 C 1481.3 1355.88 t 0 r /Helvetica findfont 64.4212 sf 0 0 m (t) show NC gr  1481 1407 m 17 X s
 gsave  2263 1770 2 313 C 1464.36 1355.88 t 0 r /Helvetica findfont 64.4212 sf 0 0 m (t) show NC gr  0.6 1 0.6 c 1338 1343 m 107 X 63 Y -107 X f black 1338 1406 m 107 X s 1338 1343 m 107 X s 1445 1343 m 63 Y s 1338 1343 m 63 Y s
 gsave  2263 1770 2 313 C 1464.36 1264.36 t 0 r /Helvetica findfont 64.4212 sf 0 0 m (Z+jets) show NC gr  1 0.8 0.4 c 1338 1252 m 107 X 63 Y -107 X f black 1338 1315 m 107 X s 1338 1252 m 107 X s 1445 1252 m 63 Y s 1338 1252 m 63 Y s
 gsave  2263 1770 2 313 C 1464.36 1172.84 t 0 r /Helvetica findfont 64.4212 sf 0 0 m (Diboson) show NC gr  1 0.4 0.6 c 1338 1161 m 107 X 63 Y -107 X f black 1338 1224 m 107 X s 1338 1161 m 107 X s 1445 1161 m 63 Y s 1338 1161 m 63 Y s
 gsave  2263 1770 2 313 C 1464.36 1081.32 t 0 r /Helvetica findfont 64.4212 sf 0 0 m (Multi\255jet) show NC gr  0 0 0.4 c 1338 1070 m 107 X 63 Y -107 X f black 1338 1133 m 107 X s 1338 1070 m 107 X s 1445 1070 m 63 Y s 1338 1070 m 63 Y s
 gsave  2263 1770 2 313 C 911.832 1566.05 t 0 r /Helvetica findfont 44.0776 sf 0 0 m (\2551) show NC gr 
 gsave  2263 1770 2 313 C 471.17 1535.54 t 0 r /Helvetica findfont 64.4212 sf 0 0 m (=13TeV, 139 fb) show NC gr 
 gsave  2263 1770 2 313 C 440.662 1535.54 t 0 r /Helvetica findfont 64.4212 sf 0 0 m (s) show NC gr  6 lw 420 1573 m 7 -41 d s 3 lw 427 1532 m 7 61 d s 434 1593 m 37 X s 1 1 1 c 2254 561 2 2 bf black 1 1 1 c black 1860 358 318 187 bl 1 1 1 c black
 1860 358 318 187 bl 6 lw 1 1 1 c black 3 lw 364 369 m20 6 lw 3 lw 457 368 m20 6 lw 3 lw 550 370 m20 6 lw 3 lw 643 370 m20 6 lw 3 lw 736 363 m20 6 lw 3 lw 829 378 m20 6 lw 3 lw 923 370 m20 6 lw 3 lw 1016 375 m20 6 lw 3 lw 1109 369 m20 6 lw 3 lw 1202
 359 m20 6 lw 3 lw 1295 385 m20 6 lw 3 lw 1388 353 m20 6 lw 3 lw 1481 375 m20 6 lw 3 lw 1574 324 m20 6 lw 3 lw 1667 283 m20 6 lw 3 lw 1760 456 m20 6 lw 3 lw 1946 426 m20 6 lw 3 lw 318 187 m 1860 X s
 gsave  2254 561 2 2 C 2105.01 64.4045 t 0 r /Helvetica findfont 50.9797 sf 0 0 m (1/2) show NC gr 
 gsave  2254 561 2 2 C 1888.07 23.728 t 0 r /Helvetica findfont 78.1689 sf 0 0 m ( [GeV]) show NC gr 
 gsave  2254 561 2 2 C 1857.56 3.38971 t 0 r /Helvetica findfont 50.9797 sf 0 0 m (T) show NC gr 
 gsave  2254 561 2 2 C 1806.72 23.728 t 0 r /Helvetica findfont 78.1689 sf 0 0 m (H) show NC gr  6 lw 1773 81 m 10 -78 d s 3 lw 1783 3 m 14 99 d s 1797 102 m 91 X s
 gsave  2254 561 2 2 C 1735.53 23.728 t 0 r /Helvetica findfont 78.1689 sf 0 0 m (/) show NC gr 
 gsave  2254 561 2 2 C 1630.45 61.0148 t 0 r /Helvetica findfont 50.9797 sf 0 0 m (miss) show NC gr 
 gsave  2254 561 2 2 C 1630.45 3.38971 t 0 r /Helvetica findfont 50.9797 sf 0 0 m (T) show NC gr 
 gsave  2254 561 2 2 C 1579.61 23.728 t 0 r /Helvetica findfont 78.1689 sf 0 0 m (E) show NC gr  318 201 m -14 Y s 364 194 m -7 Y s 411 194 m -7 Y s 457 194 m -7 Y s 504 194 m -7 Y s 550 201 m -14 Y s 597 194 m -7 Y s 643 194 m -7 Y s 690 194 m -7 Y
 s 736 194 m -7 Y s 783 201 m -14 Y s 829 194 m -7 Y s 876 194 m -7 Y s 923 194 m -7 Y s 969 194 m -7 Y s 1016 201 m -14 Y s 1062 194 m -7 Y s 1109 194 m -7 Y s 1155 194 m -7 Y s 1202 194 m -7 Y s 1248 201 m -14 Y s 1295 194 m -7 Y s 1341 194 m -7 Y
 s 1388 194 m -7 Y s 1434 194 m -7 Y s 1481 201 m -14 Y s 1527 194 m -7 Y s 1574 194 m -7 Y s 1620 194 m -7 Y s 1667 194 m -7 Y s 1713 201 m -14 Y s 1760 194 m -7 Y s 1806 194 m -7 Y s 1853 194 m -7 Y s 1899 194 m -7 Y s 1946 201 m -14 Y s 1992 194 m
 -7 Y s 2039 194 m -7 Y s 2085 194 m -7 Y s 2132 194 m -7 Y s 2178 201 m -14 Y s
 gsave  2254 561 2 2 C 271.177 118.64 t 0 r /Helvetica findfont 78.1689 sf 0 0 m (10) show NC gr 
 gsave  2254 561 2 2 C 505.067 118.64 t 0 r /Helvetica findfont 78.1689 sf 0 0 m (15) show NC gr 
 gsave  2254 561 2 2 C 735.567 118.64 t 0 r /Helvetica findfont 78.1689 sf 0 0 m (20) show NC gr 
 gsave  2254 561 2 2 C 969.457 118.64 t 0 r /Helvetica findfont 78.1689 sf 0 0 m (25) show NC gr 
 gsave  2254 561 2 2 C 1203.35 118.64 t 0 r /Helvetica findfont 78.1689 sf 0 0 m (30) show NC gr 
 gsave  2254 561 2 2 C 1433.85 118.64 t 0 r /Helvetica findfont 78.1689 sf 0 0 m (35) show NC gr 
 gsave  2254 561 2 2 C 1667.74 118.64 t 0 r /Helvetica findfont 78.1689 sf 0 0 m (40) show NC gr 
 gsave  2254 561 2 2 C 1901.63 118.64 t 0 r /Helvetica findfont 78.1689 sf 0 0 m (45) show NC gr 
 gsave  2254 561 2 2 C 2132.13 118.64 t 0 r /Helvetica findfont 78.1689 sf 0 0 m (50) show NC gr  318 545 m 1860 X s 318 531 m 14 Y s 364 538 m 7 Y s 411 538 m 7 Y s 457 538 m 7 Y s 504 538 m 7 Y s 550 531 m 14 Y s 597 538 m 7 Y s 643 538 m 7 Y s 690
 538 m 7 Y s 736 538 m 7 Y s 783 531 m 14 Y s 829 538 m 7 Y s 876 538 m 7 Y s 923 538 m 7 Y s 969 538 m 7 Y s 1016 531 m 14 Y s 1062 538 m 7 Y s 1109 538 m 7 Y s 1155 538 m 7 Y s 1202 538 m 7 Y s 1248 531 m 14 Y s 1295 538 m 7 Y s 1341 538 m 7 Y s
 1388 538 m 7 Y s 1434 538 m 7 Y s 1481 531 m 14 Y s 1527 538 m 7 Y s 1574 538 m 7 Y s 1620 538 m 7 Y s 1667 538 m 7 Y s 1713 531 m 14 Y s 1760 538 m 7 Y s 1806 538 m 7 Y s 1853 538 m 7 Y s 1899 538 m 7 Y s 1946 531 m 14 Y s 1992 538 m 7 Y s 2039 538
 m 7 Y s 2085 538 m 7 Y s 2132 538 m 7 Y s 2178 531 m 14 Y s 318 187 m 358 Y s
 gsave  2254 561 2 2 C 166.096 284.736 t 90 r /Helvetica findfont 67.9729 sf 0 0 m (Data/SM) show NC gr  361 203 m -43 X s 339 220 m -21 X s 339 236 m -21 X s 339 252 m -21 X s 339 268 m -21 X s 361 285 m -43 X s 339 301 m -21 X s 339 317 m -21 X s
 339 334 m -21 X s 339 350 m -21 X s 361 366 m -43 X s 339 382 m -21 X s 339 399 m -21 X s 339 415 m -21 X s 339 431 m -21 X s 361 447 m -43 X s 339 464 m -21 X s 339 480 m -21 X s 339 496 m -21 X s 339 512 m -21 X s 361 529 m -43 X s 361 203 m -43 X
 s 339 187 m -21 X s 361 529 m -43 X s
 gsave  2254 561 2 2 C 261.008 183.044 t 0 r /Helvetica findfont 57.777 sf 0 0 m (0) show NC gr 
 gsave  2254 561 2 2 C 213.552 261.008 t 0 r /Helvetica findfont 57.777 sf 0 0 m (0.5) show NC gr 
 gsave  2254 561 2 2 C 271.177 342.361 t 0 r /Helvetica findfont 57.777 sf 0 0 m (1) show NC gr 
 gsave  2254 561 2 2 C 213.552 423.714 t 0 r /Helvetica findfont 57.777 sf 0 0 m (1.5) show NC gr 
 gsave  2254 561 2 2 C 261.008 505.067 t 0 r /Helvetica findfont 57.777 sf 0 0 m (2) show NC gr  2178 187 m 358 Y s 2135 203 m 43 X s 2157 220 m 21 X s 2157 236 m 21 X s 2157 252 m 21 X s 2157 268 m 21 X s 2135 285 m 43 X s 2157 301 m 21 X s 2157 317
 m 21 X s 2157 334 m 21 X s 2157 350 m 21 X s 2135 366 m 43 X s 2157 382 m 21 X s 2157 399 m 21 X s 2157 415 m 21 X s 2157 431 m 21 X s 2135 447 m 43 X s 2157 464 m 21 X s 2157 480 m 21 X s 2157 496 m 21 X s 2157 512 m 21 X s 2135 529 m 43 X s 2135
 203 m 43 X s 2157 187 m 21 X s 2135 529 m 43 X s 9 lw 1295 398 m 1 Y s 1295 399 m cl s 1295 371 m -1 Y s 1295 370 m cl s 1388 366 m 6 Y s 1388 372 m cl s 1388 339 m -5 Y s 1388 334 m cl s 1481 389 m 17 Y s 1481 406 m cl s 1481 362 m -16 Y s 1481 346
 m cl s 1574 338 m 24 Y s 1574 362 m cl s 1574 311 m -22 Y s 1574 289 m cl s 1667 296 m 29 Y s 1667 325 m cl s 1667 269 m -24 Y s 1667 245 m cl s 1760 469 m 76 Y s 1760 545 m cl s 1760 442 m -106 Y s 1760 336 m cl s 1946 440 m 105 Y s 1946 545 m cl s
 1946 413 m -171 Y s 1946 242 m cl s 2132 545 m -192 Y s 2132 353 m cl s 3 lw 364 369 457 368 550 370 643 370 736 363 829 378 923 370 1016 375 1109 369 1202 359 1295 385 1388 353 1481 375 1574 324 1667 283 1760 456 16 { m20} R 9 lw 3 lw 1946 426 m20
 9 lw 1 0 0 c 6 lw black 3 lw 1 0 0 c 2178 284 m -12 -12 d s 2178 312 m -40 -40 d s 2178 341 m -69 -69 d s 2178 369 m -93 -92 d s 2178 398 m -93 -93 d s 2178 427 m -119 -120 d s 2178 455 m -148 -148 d s 2155 460 m -154 -153 d s 1992 298 m -2 -2 d s
 2126 460 m -165 -164 d s 2097 460 m -12 -12 d s 2062 425 m -130 -129 d s 2033 425 m -129 -129 d s 2004 425 m -105 -105 d s 1987 436 m -96 -96 d s 1958 436 m -96 -96 d s 1930 436 m -31 -30 d s 1885 392 m -52 -52 d s 1901 436 m -2 -2 d s 1857 392 m
 -51 -50 d s 1828 392 m -50 -50 d s 1797 390 m -48 -48 d s 1768 390 m -47 -48 d s 1740 390 m -45 -44 d s 1708 386 m -41 -40 d s 1679 386 m -41 -40 d s 1650 386 m -36 -35 d s 1622 386 m -2 -1 d s 1617 381 m -31 -30 d s 1588 381 m -31 -30 d s 1559 381
 m -31 -30 d s 1530 381 m -28 -28 d s 1499 379 m -26 -26 d s 1471 379 m -26 -26 d s 1442 379 m -22 -22 d s 1409 375 m -18 -18 d s 1380 375 m -17 -18 d s 1352 375 m -17 -17 d s 1322 374 m -15 -16 d s 1293 374 m -15 -16 d s 1265 374 m -16 -16 d s 1235
 373 m -14 -14 d s 1207 373 m -15 -14 d s 1178 373 m -14 -14 d s 1148 372 m -12 -12 d s 1120 372 m -13 -12 d s 1091 372 m -12 -12 d s 1062 372 m s 1061 371 m -10 -10 d s 1033 371 m -11 -10 d s 1004 371 m -11 -10 d s 975 371 m -10 -10 d s 946 371 m
 -10 -10 d s 918 371 m -11 -10 d s 889 371 m -10 -10 d s 860 371 m -10 -10 d s 832 371 m -11 -10 d s 803 371 m -10 -10 d s 774 371 m -10 -10 d s 746 371 m -11 -10 d s 717 371 m -10 -10 d s 688 371 m -10 -10 d s 659 371 m -10 -10 d s 631 371 m -10 -10
 d s 602 371 m -11 -11 d s 574 372 m -11 -12 d s 545 372 m -11 -12 d s 517 372 m -12 -12 d s 488 372 m -11 -11 d s 459 372 m -11 -11 d s 318 231 m s 430 372 m -11 -11 d s 318 259 m s 402 372 m -11 -11 d s 318 288 m s 373 372 m -11 -11 d s 318 317 m s
 344 372 m -11 -11 d s 318 345 m s 6 lw black[ 4 8] 0 sd 3 lw 318 447 m 1860 X s 318 285 m 1860 X s 1 0 0 c[  12 12 ] 0 sd 6 lw 318 366 m 1860 X s
 gr  gr showpage
end
%%EOF
