%!PS-Adobe-2.0 EPSF-2.0
%%BoundingBox:  0 0 567 521
%%Title: Distributions/metsqrtmeffInc_met_distrCRT_MB-SSd_beforeFit_forThesis.eps: canvas
%%Creator: ROOT Version 6.04/16
%%CreationDate: Tue May 19 22:05:28 2020
%%DocumentNeededResources: ProcSet (FontSetInit)
%%EndComments
%%BeginProlog
80 dict begin
/s {stroke} def /l {lineto} def /m {moveto} def /t {translate} def
/r {rotate} def /rl {roll}  def /R {repeat} def
/d {rlineto} def /rm {rmoveto} def /gr {grestore} def /f {eofill} def
/c {setrgbcolor} def /black {0 setgray} def /sd {setdash} def
/cl {closepath} def /sf {scalefont setfont} def /lw {setlinewidth} def
/box {m dup 0 exch d exch 0 d 0 exch neg d cl} def
/NC{systemdict begin initclip end}def/C{NC box clip newpath}def
/bl {box s} def /bf {gsave box gsave f grestore 1 lw [] 0 sd s grestore} def /Y { 0 exch d} def /X { 0 d} def 
/K {{pop pop 0 moveto} exch kshow} bind def
/ita {/ang 15 def gsave [1 0 ang dup sin exch cos div 1 0 0] concat} def 
/mp {newpath /y exch def /x exch def} def
/side {[w .77 mul w .23 mul] .385 w mul sd w 0 l currentpoint t -144 r} def
/mr {mp x y w2 0 360 arc} def /m24 {mr s} def /m20 {mr f} def
/mb {mp x y w2 add m w2 neg 0 d 0 w neg d w 0 d 0 w d cl} def
/mt {mp x y w2 add m w2 neg w neg d w 0 d cl} def
/m21 {mb f} def /m25 {mb s} def /m22 {mt f} def /m26{mt s} def
/m23 {mp x y w2 sub m w2 w d w neg 0 d cl f} def
/m27 {mp x y w2 add m w3 neg w2 neg d w3 w2 neg d w3 w2 d cl s} def
/m28 {mp x w2 sub y w2 sub w3 add m w3 0 d  0 w3 neg d w3 0 d 0 w3 d w3 0 d  0 w3 d w3 neg 0 d 0 w3 d w3 neg 0 d 0 w3 neg d w3 neg 0 d cl s } def
/m29 {mp gsave x w2 sub y w2 add w3 sub m currentpoint t 4 {side} repeat cl fill gr} def
/m30 {mp gsave x w2 sub y w2 add w3 sub m currentpoint t 4 {side} repeat cl s gr} def
/m31 {mp x y w2 sub m 0 w d x w2 sub y m w 0 d x w2 sub y w2 add m w w neg d x w2 sub y w2 sub m w w d s} def
/m32 {mp x y w2 sub m w2 w d w neg 0 d cl s} def
/m33 {mp x y w2 add m w3 neg w2 neg d w3 w2 neg d w3 w2 d cl f} def
/m34 {mp x w2 sub y w2 sub w3 add m w3 0 d  0 w3 neg d w3 0 d 0 w3 d w3 0 d  0 w3 d w3 neg 0 d 0 w3 d w3 neg 0 d 0 w3 neg d w3 neg 0 d cl f } def
/m2 {mp x y w2 sub m 0 w d x w2 sub y m w 0 d s} def
/m5 {mp x w2 sub y w2 sub m w w d x w2 sub y w2 add m w w neg d s} def
%%IncludeResource: ProcSet (FontSetInit)
%%IncludeResource: font Times-Roman
%%IncludeResource: font Times-Italic
%%IncludeResource: font Times-Bold
%%IncludeResource: font Times-BoldItalic
%%IncludeResource: font Helvetica
%%IncludeResource: font Helvetica-Oblique
%%IncludeResource: font Helvetica-Bold
%%IncludeResource: font Helvetica-BoldOblique
%%IncludeResource: font Courier
%%IncludeResource: font Courier-Oblique
%%IncludeResource: font Courier-Bold
%%IncludeResource: font Courier-BoldOblique
%%IncludeResource: font Symbol
%%IncludeResource: font ZapfDingbats
/reEncode {exch findfont dup length dict begin {1 index /FID eq  {pop pop} {def} ifelse } forall /Encoding exch def currentdict end dup /FontName get exch definefont pop } def [/Times-Bold /Times-Italic /Times-BoldItalic /Helvetica /Helvetica-Oblique
 /Helvetica-Bold /Helvetica-BoldOblique /Courier /Courier-Oblique /Courier-Bold /Courier-BoldOblique /Times-Roman /AvantGarde-Book /AvantGarde-BookOblique /AvantGarde-Demi /AvantGarde-DemiOblique /Bookman-Demi /Bookman-DemiItalic /Bookman-Light
 /Bookman-LightItalic /Helvetica-Narrow /Helvetica-Narrow-Bold /Helvetica-Narrow-BoldOblique /Helvetica-Narrow-Oblique /NewCenturySchlbk-Roman /NewCenturySchlbk-Bold /NewCenturySchlbk-BoldItalic /NewCenturySchlbk-Italic /Palatino-Bold
 /Palatino-BoldItalic /Palatino-Italic /Palatino-Roman ] {ISOLatin1Encoding reEncode } forall
%%EndProlog
%%BeginSetup
%%EndSetup
newpath  gsave  .25 .25 scale  gsave  0 0 t black[  ] 0 sd 3 lw 1 1 1 c 2268 2085 0 0 bf black 1 1 1 c 2263 1770 2 313 bf black 1 1 1 c black 1860 1145 319 584 bl 1 1 1 c black 1860 1145 319 584 bl 6 lw 1 1 1 c black 3 lw /w 33 def /w2 {w 2 div} def
 /w3 {w 3 div} def 366 1240 m20 6 lw 3 lw 459 1219 m20 6 lw 3 lw 552 1186 m20 6 lw 3 lw 645 1140 m20 6 lw 3 lw 738 1100 m20 6 lw 3 lw 831 1058 m20 6 lw 3 lw 924 1001 m20 6 lw 3 lw 1017 953 m20 6 lw 3 lw 1110 917 m20 6 lw 1203 810 m 15 Y s 1203 852 m
 6 Y s 3 lw 1203 839 m20 6 lw 1296 764 m 28 Y s 1296 819 m 10 Y s 3 lw 1296 805 m20 6 lw 1482 584 m 125 Y s 1482 736 m 28 Y s 3 lw 1482 722 m20 6 lw 3 lw 319 584 m 1860 X s
 gsave  2263 1770 2 313 C 2101.62 396.596 t 0 r /Helvetica findfont 54.2494 sf 0 0 m (1/2) show NC gr 
 gsave  2263 1770 2 313 C 1874.51 355.92 t 0 r /Helvetica findfont 81.3741 sf 0 0 m ( [GeV]) show NC gr 
 gsave  2263 1770 2 313 C 1840.61 332.192 t 0 r /Helvetica findfont 54.2494 sf 0 0 m (T) show NC gr 
 gsave  2263 1770 2 313 C 1786.38 355.92 t 0 r /Helvetica findfont 81.3741 sf 0 0 m (H) show NC gr  6 lw 1749 417 m 14 -85 d s 3 lw 1763 332 m 13 105 d s 1776 437 m 99 X s
 gsave  2263 1770 2 313 C 1711.8 355.92 t 0 r /Helvetica findfont 81.3741 sf 0 0 m (/) show NC gr 
 gsave  2263 1770 2 313 C 1599.94 396.596 t 0 r /Helvetica findfont 54.2494 sf 0 0 m (miss) show NC gr 
 gsave  2263 1770 2 313 C 1599.94 332.192 t 0 r /Helvetica findfont 54.2494 sf 0 0 m (T) show NC gr 
 gsave  2263 1770 2 313 C 1549.1 355.92 t 0 r /Helvetica findfont 81.3741 sf 0 0 m (E) show NC gr  319 584 m cl s 366 584 m cl s 412 584 m cl s 459 584 m cl s 505 584 m cl s 552 584 m cl s 598 584 m cl s 645 584 m cl s 691 584 m cl s 738 584 m cl s
 784 584 m cl s 831 584 m cl s 877 584 m cl s 924 584 m cl s 970 584 m cl s 1017 584 m cl s 1063 584 m cl s 1110 584 m cl s 1156 584 m cl s 1203 584 m cl s 1249 584 m cl s 1296 584 m cl s 1342 584 m cl s 1389 584 m cl s 1435 584 m cl s 1482 584 m cl
 s 1528 584 m cl s 1575 584 m cl s 1621 584 m cl s 1668 584 m cl s 1714 584 m cl s 1761 584 m cl s 1807 584 m cl s 1854 584 m cl s 1900 584 m cl s 1947 584 m cl s 1993 584 m cl s 2040 584 m cl s 2086 584 m cl s 2133 584 m cl s 2179 584 m cl s 319
 1729 m 1860 X s 319 1729 m cl s 366 1729 m cl s 412 1729 m cl s 459 1729 m cl s 505 1729 m cl s 552 1729 m cl s 598 1729 m cl s 645 1729 m cl s 691 1729 m cl s 738 1729 m cl s 784 1729 m cl s 831 1729 m cl s 877 1729 m cl s 924 1729 m cl s 970 1729
 m cl s 1017 1729 m cl s 1063 1729 m cl s 1110 1729 m cl s 1156 1729 m cl s 1203 1729 m cl s 1249 1729 m cl s 1296 1729 m cl s 1342 1729 m cl s 1389 1729 m cl s 1435 1729 m cl s 1482 1729 m cl s 1528 1729 m cl s 1575 1729 m cl s 1621 1729 m cl s 1668
 1729 m cl s 1714 1729 m cl s 1761 1729 m cl s 1807 1729 m cl s 1854 1729 m cl s 1900 1729 m cl s 1947 1729 m cl s 1993 1729 m cl s 2040 1729 m cl s 2086 1729 m cl s 2133 1729 m cl s 2179 1729 m cl s 319 584 m 1145 Y s
 gsave  2263 1770 2 313 C 125.419 1654.18 t 90 r /Helvetica findfont 54.2494 sf 0 0 m (1/2) show NC gr 
 gsave  2263 1770 2 313 C 166.096 1064.37 t 90 r /Helvetica findfont 81.3741 sf 0 0 m (Events / 2 [GeV]) show NC gr  341 626 m -22 X s 341 650 m -22 X s 341 667 m -22 X s 341 681 m -22 X s 341 692 m -22 X s 341 701 m -22 X s 341 709 m -22 X s 341 716
 m -22 X s 363 722 m -44 X s
 gsave  2263 1770 2 313 C 300.555 695.078 t 0 r  -36 0 t /Helvetica findfont 64.4212 sf 0 0 m (1) show NC gr  341 764 m -22 X s 341 788 m -22 X s 341 805 m -22 X s 341 819 m -22 X s 341 829 m -22 X s 341 839 m -22 X s 341 847 m -22 X s 341 854 m -22
 X s 363 860 m -44 X s
 gsave  2263 1770 2 313 C 300.555 832.964 t 0 r  -73 0 t /Helvetica findfont 64.4212 sf 0 0 m (10) show NC gr  341 902 m -22 X s 341 926 m -22 X s 341 943 m -22 X s 341 956 m -22 X s 341 967 m -22 X s 341 977 m -22 X s 341 985 m -22 X s 341 992 m -22
 X s 363 998 m -44 X s
 gsave  2263 1770 2 313 C 274.567 996.575 t 0 r /Helvetica findfont 44.0776 sf 0 0 m (2) show NC gr 
 gsave  2263 1770 2 313 C 203.383 969.457 t 0 r /Helvetica findfont 64.4212 sf 0 0 m (10) show NC gr  341 1039 m -22 X s 341 1064 m -22 X s 341 1081 m -22 X s 341 1094 m -22 X s 341 1105 m -22 X s 341 1114 m -22 X s 341 1122 m -22 X s 341 1130 m -22
 X s 363 1136 m -44 X s
 gsave  2263 1770 2 313 C 274.567 1138.94 t 0 r /Helvetica findfont 44.0776 sf 0 0 m (3) show NC gr 
 gsave  2263 1770 2 313 C 203.383 1108.44 t 0 r /Helvetica findfont 64.4212 sf 0 0 m (10) show NC gr  341 1177 m -22 X s 341 1202 m -22 X s 341 1219 m -22 X s 341 1232 m -22 X s 341 1243 m -22 X s 341 1252 m -22 X s 341 1260 m -22 X s 341 1267 m -22
 X s 363 1274 m -44 X s
 gsave  2263 1770 2 313 C 274.567 1271.14 t 0 r /Helvetica findfont 44.0776 sf 0 0 m (4) show NC gr 
 gsave  2263 1770 2 313 C 203.383 1244.02 t 0 r /Helvetica findfont 64.4212 sf 0 0 m (10) show NC gr  341 1315 m -22 X s 341 1340 m -22 X s 341 1357 m -22 X s 341 1370 m -22 X s 341 1381 m -22 X s 341 1390 m -22 X s 341 1398 m -22 X s 341 1405 m -22
 X s 363 1412 m -44 X s
 gsave  2263 1770 2 313 C 274.567 1413.51 t 0 r /Helvetica findfont 44.0776 sf 0 0 m (5) show NC gr 
 gsave  2263 1770 2 313 C 203.383 1383 t 0 r /Helvetica findfont 64.4212 sf 0 0 m (10) show NC gr  341 1453 m -22 X s 341 1477 m -22 X s 341 1495 m -22 X s 341 1508 m -22 X s 341 1519 m -22 X s 341 1528 m -22 X s 341 1536 m -22 X s 341 1543 m -22 X s
 363 1550 m -44 X s
 gsave  2263 1770 2 313 C 274.567 1552.49 t 0 r /Helvetica findfont 44.0776 sf 0 0 m (6) show NC gr 
 gsave  2263 1770 2 313 C 203.383 1521.98 t 0 r /Helvetica findfont 64.4212 sf 0 0 m (10) show NC gr  341 1591 m -22 X s 341 1615 m -22 X s 341 1633 m -22 X s 341 1646 m -22 X s 341 1657 m -22 X s 341 1666 m -22 X s 341 1674 m -22 X s 341 1681 m -22
 X s 363 1687 m -44 X s
 gsave  2263 1770 2 313 C 274.567 1684.69 t 0 r /Helvetica findfont 44.0776 sf 0 0 m (7) show NC gr 
 gsave  2263 1770 2 313 C 203.383 1657.57 t 0 r /Helvetica findfont 64.4212 sf 0 0 m (10) show NC gr  2179 584 m 1145 Y s 2157 626 m 22 X s 2157 650 m 22 X s 2157 667 m 22 X s 2157 681 m 22 X s 2157 692 m 22 X s 2157 701 m 22 X s 2157 709 m 22 X s
 2157 716 m 22 X s 2136 722 m 43 X s 2157 764 m 22 X s 2157 788 m 22 X s 2157 805 m 22 X s 2157 819 m 22 X s 2157 829 m 22 X s 2157 839 m 22 X s 2157 847 m 22 X s 2157 854 m 22 X s 2136 860 m 43 X s 2157 902 m 22 X s 2157 926 m 22 X s 2157 943 m 22 X
 s 2157 956 m 22 X s 2157 967 m 22 X s 2157 977 m 22 X s 2157 985 m 22 X s 2157 992 m 22 X s 2136 998 m 43 X s 2157 1039 m 22 X s 2157 1064 m 22 X s 2157 1081 m 22 X s 2157 1094 m 22 X s 2157 1105 m 22 X s 2157 1114 m 22 X s 2157 1122 m 22 X s 2157
 1130 m 22 X s 2136 1136 m 43 X s 2157 1177 m 22 X s 2157 1202 m 22 X s 2157 1219 m 22 X s 2157 1232 m 22 X s 2157 1243 m 22 X s 2157 1252 m 22 X s 2157 1260 m 22 X s 2157 1267 m 22 X s 2136 1274 m 43 X s 2157 1315 m 22 X s 2157 1340 m 22 X s 2157
 1357 m 22 X s 2157 1370 m 22 X s 2157 1381 m 22 X s 2157 1390 m 22 X s 2157 1398 m 22 X s 2157 1405 m 22 X s 2136 1412 m 43 X s 2157 1453 m 22 X s 2157 1477 m 22 X s 2157 1495 m 22 X s 2157 1508 m 22 X s 2157 1519 m 22 X s 2157 1528 m 22 X s 2157
 1536 m 22 X s 2157 1543 m 22 X s 2136 1550 m 43 X s 2157 1591 m 22 X s 2157 1615 m 22 X s 2157 1633 m 22 X s 2157 1646 m 22 X s 2157 1657 m 22 X s 2157 1666 m 22 X s 2157 1674 m 22 X s 2157 1681 m 22 X s 2136 1687 m 43 X s 0.6 1 0.6 c black 0.6 1
 0.6 c 319 584 m 665 Y 93 X -22 Y 93 X -35 Y 93 X -42 Y 93 X -43 Y 93 X -45 Y 93 X -49 Y 93 X -47 Y 93 X -54 Y 93 X -53 Y 93 X -47 Y 93 X -40 Y 93 X -54 Y 93 X -59 Y 93 X -75 Y 558 X f black 0.6 1 0.6 c black 319 1249 m 93 X -22 Y 93 X -35 Y 93 X -42
 Y 93 X -43 Y 93 X -45 Y 93 X -49 Y 93 X -47 Y 93 X -54 Y 93 X -53 Y 93 X -47 Y 93 X -40 Y 93 X -54 Y 93 X -59 Y 93 X -75 Y 558 X s 0.999 0.999 0.999 c black 0.999 0.999 0.999 c 319 584 m 559 Y 93 X -16 Y 93 X -25 Y 93 X -29 Y 93 X -32 Y 93 X -30 Y
 93 X -43 Y 93 X -43 Y 93 X -35 Y 93 X -53 Y 93 X -40 Y 93 X -47 Y 93 X -34 Y 93 X -63 Y 93 X -69 Y 558 X f black 0.999 0.999 0.999 c black 319 1143 m 93 X -16 Y 93 X -25 Y 93 X -29 Y 93 X -32 Y 93 X -30 Y 93 X -43 Y 93 X -43 Y 93 X -35 Y 93 X -53 Y
 93 X -40 Y 93 X -47 Y 93 X -34 Y 93 X -63 Y 93 X -69 Y 558 X s 1 1 1 c black 319 1143 m 93 X -16 Y 93 X -25 Y 93 X -29 Y 93 X -32 Y 93 X -30 Y 93 X -43 Y 93 X -43 Y 93 X -35 Y 93 X -53 Y 93 X -40 Y 93 X -47 Y 93 X -34 Y 93 X -63 Y 93 X -69 Y 558 X s
 0.4 0.6 1 c black 0.4 0.6 1 c 319 584 m 559 Y 93 X -16 Y 93 X -25 Y 93 X -29 Y 93 X -32 Y 93 X -30 Y 93 X -43 Y 93 X -43 Y 93 X -35 Y 93 X -53 Y 93 X -40 Y 93 X -47 Y 93 X -34 Y 93 X -63 Y 93 X -69 Y 558 X f black 0.4 0.6 1 c black 319 1143 m 93 X
 -16 Y 93 X -25 Y 93 X -29 Y 93 X -32 Y 93 X -30 Y 93 X -43 Y 93 X -43 Y 93 X -35 Y 93 X -53 Y 93 X -40 Y 93 X -47 Y 93 X -34 Y 93 X -63 Y 93 X -69 Y 558 X s 0.999 0.999 0.999 c black 0.999 0.999 0.999 c 319 584 m 412 Y 93 X -13 Y 93 X -28 Y 93 X -28
 Y 93 X -32 Y 93 X -39 Y 93 X -53 Y 93 X -33 Y 93 X -6 Y 93 X -51 Y 93 X -59 Y 93 X -24 Y 93 X 39 Y 93 X -85 Y 651 X f black 0.999 0.999 0.999 c black 319 996 m 93 X -13 Y 93 X -28 Y 93 X -28 Y 93 X -32 Y 93 X -39 Y 93 X -53 Y 93 X -33 Y 93 X -6 Y 93
 X -51 Y 93 X -59 Y 93 X -24 Y 93 X 39 Y 93 X -85 Y 651 X s 1 1 1 c black 319 996 m 93 X -13 Y 93 X -28 Y 93 X -28 Y 93 X -32 Y 93 X -39 Y 93 X -53 Y 93 X -33 Y 93 X -6 Y 93 X -51 Y 93 X -59 Y 93 X -24 Y 93 X 39 Y 93 X -85 Y 651 X s 1 0.8 0.4 c black
 1 0.8 0.4 c 319 584 m 412 Y 93 X -13 Y 93 X -28 Y 93 X -28 Y 93 X -32 Y 93 X -39 Y 93 X -53 Y 93 X -33 Y 93 X -6 Y 93 X -51 Y 93 X -59 Y 93 X -24 Y 93 X 39 Y 93 X -85 Y 651 X f black 1 0.8 0.4 c black 319 996 m 93 X -13 Y 93 X -28 Y 93 X -28 Y 93 X
 -32 Y 93 X -39 Y 93 X -53 Y 93 X -33 Y 93 X -6 Y 93 X -51 Y 93 X -59 Y 93 X -24 Y 93 X 39 Y 93 X -85 Y 651 X s 0.999 0.999 0.999 c black 0.999 0.999 0.999 c 319 584 m 403 Y 93 X -10 Y 93 X -27 Y 93 X -29 Y 93 X -31 Y 93 X -38 Y 93 X -58 Y 93 X -26 Y
 93 X -6 Y 93 X -50 Y 93 X -66 Y 93 X -17 Y 93 X 40 Y 93 X -85 Y 651 X f black 0.999 0.999 0.999 c black 319 987 m 93 X -10 Y 93 X -27 Y 93 X -29 Y 93 X -31 Y 93 X -38 Y 93 X -58 Y 93 X -26 Y 93 X -6 Y 93 X -50 Y 93 X -66 Y 93 X -17 Y 93 X 40 Y 93 X
 -85 Y 651 X s 1 1 1 c black 319 987 m 93 X -10 Y 93 X -27 Y 93 X -29 Y 93 X -31 Y 93 X -38 Y 93 X -58 Y 93 X -26 Y 93 X -6 Y 93 X -50 Y 93 X -66 Y 93 X -17 Y 93 X 40 Y 93 X -85 Y 651 X s 1 0.4 0.6 c black 1 0.4 0.6 c 319 584 m 403 Y 93 X -10 Y 93 X
 -27 Y 93 X -29 Y 93 X -31 Y 93 X -38 Y 93 X -58 Y 93 X -26 Y 93 X -6 Y 93 X -50 Y 93 X -66 Y 93 X -17 Y 93 X 40 Y 93 X -85 Y 651 X f black 1 0.4 0.6 c black 319 987 m 93 X -10 Y 93 X -27 Y 93 X -29 Y 93 X -31 Y 93 X -38 Y 93 X -58 Y 93 X -26 Y 93 X
 -6 Y 93 X -50 Y 93 X -66 Y 93 X -17 Y 93 X 40 Y 93 X -85 Y 651 X s 1 0 0 c 6 lw 1 1 1 c black 1 0 0 c 319 1249 m 93 X -22 Y 93 X -35 Y 93 X -42 Y 93 X -43 Y 93 X -45 Y 93 X -49 Y 93 X -47 Y 93 X -54 Y 93 X -53 Y 93 X -47 Y 93 X -40 Y 93 X -54 Y 93 X
 -59 Y 93 X -75 Y 558 X s black 3 lw 1 0 0 c 1 lw << /PatternType 1 /PaintType 2 /TilingType 1 /BBox [ 0 0 100 100 ] /XStep 100 /YStep 100 /PaintProc { begin gsave 0 100 m 100 0 l s gr end } >> [ 0.24 0 0 0.24 0 0 ] makepattern /P05 exch def /cs
 {[/Pattern /DeviceRGB] setcolorspace} def /FA {f [/DeviceRGB] setcolorspace} def cs 1 0 0 P05 setcolor 319 584 m 669 Y 93 X -22 Y 93 X -36 Y 93 X -42 Y 93 X -43 Y 93 X -44 Y 93 X -49 Y 93 X -47 Y 93 X -53 Y 93 X -53 Y 93 X -43 Y 93 X -37 Y 93 X -51
 Y 93 X -60 Y 93 X -89 Y 93 X 9 Y 93 X -9 Y -186 X 58 Y -93 X 56 Y -93 X 59 Y -93 X 45 Y -93 X 51 Y -93 X 54 Y -93 X 54 Y -93 X 48 Y -93 X 49 Y -93 X 45 Y -93 X 43 Y -93 X 42 Y -93 X 35 Y -93 X 22 Y -93 X -661 Y FA 6 lw 1 1 1 c 15 lw 1203 818 m -7 Y
 s 1203 811 m cl s 1296 826 m 5 Y s 1296 831 m cl s 1296 785 m -19 Y s 1296 766 m cl s 1482 743 m 29 Y s 1482 772 m cl s 1482 702 m -84 Y s 1482 618 m cl s black 1 1 1 c 3 lw /w 43 def /w2 {w 2 div} def /w3 {w 3 div} def 366 1240 459 1219 552 1186
 645 1140 738 1100 831 1058 924 1001 1017 953 1110 917 1203 839 1296 805 11 { m20} R 15 lw 3 lw 1482 722 m20 15 lw black 6 lw 1 1 1 c black 3 lw /w 33 def /w2 {w 2 div} def /w3 {w 3 div} def 366 1240 m20 6 lw 3 lw 459 1219 m20 6 lw 3 lw 552 1186 m20
 6 lw 3 lw 645 1140 m20 6 lw 3 lw 738 1100 m20 6 lw 3 lw 831 1058 m20 6 lw 3 lw 924 1001 m20 6 lw 3 lw 1017 953 m20 6 lw 3 lw 1110 917 m20 6 lw 1203 810 m 15 Y s 1203 852 m 6 Y s 3 lw 1203 839 m20 6 lw 1296 764 m 28 Y s 1296 819 m 10 Y s 3 lw 1296
 805 m20 6 lw 1482 584 m 125 Y s 1482 736 m 28 Y s 3 lw 1482 722 m20 6 lw 1203 852 m 7 Y s 1203 859 m cl s 1203 825 m -14 Y s 1203 811 m cl s 1296 819 m 12 Y s 1296 831 m cl s 1296 792 m -26 Y s 1296 766 m cl s 1482 736 m 36 Y s 1482 772 m cl s 1482
 709 m -91 Y s 1482 618 m cl s 3 lw 366 1240 459 1219 552 1186 645 1140 738 1100 831 1058 924 1001 1017 953 1110 917 1203 839 1296 805 11 { m20} R 6 lw 3 lw 1482 722 m20 6 lw 3 lw 319 584 m 1860 X s 319 584 m cl s 366 584 m cl s 412 584 m cl s 459
 584 m cl s 505 584 m cl s 552 584 m cl s 598 584 m cl s 645 584 m cl s 691 584 m cl s 738 584 m cl s 784 584 m cl s 831 584 m cl s 877 584 m cl s 924 584 m cl s 970 584 m cl s 1017 584 m cl s 1063 584 m cl s 1110 584 m cl s 1156 584 m cl s 1203 584
 m cl s 1249 584 m cl s 1296 584 m cl s 1342 584 m cl s 1389 584 m cl s 1435 584 m cl s 1482 584 m cl s 1528 584 m cl s 1575 584 m cl s 1621 584 m cl s 1668 584 m cl s 1714 584 m cl s 1761 584 m cl s 1807 584 m cl s 1854 584 m cl s 1900 584 m cl s
 1947 584 m cl s 1993 584 m cl s 2040 584 m cl s 2086 584 m cl s 2133 584 m cl s 2179 584 m cl s 319 1729 m 1860 X s 319 1729 m cl s 366 1729 m cl s 412 1729 m cl s 459 1729 m cl s 505 1729 m cl s 552 1729 m cl s 598 1729 m cl s 645 1729 m cl s 691
 1729 m cl s 738 1729 m cl s 784 1729 m cl s 831 1729 m cl s 877 1729 m cl s 924 1729 m cl s 970 1729 m cl s 1017 1729 m cl s 1063 1729 m cl s 1110 1729 m cl s 1156 1729 m cl s 1203 1729 m cl s 1249 1729 m cl s 1296 1729 m cl s 1342 1729 m cl s 1389
 1729 m cl s 1435 1729 m cl s 1482 1729 m cl s 1528 1729 m cl s 1575 1729 m cl s 1621 1729 m cl s 1668 1729 m cl s 1714 1729 m cl s 1761 1729 m cl s 1807 1729 m cl s 1854 1729 m cl s 1900 1729 m cl s 1947 1729 m cl s 1993 1729 m cl s 2040 1729 m cl s
 2086 1729 m cl s 2133 1729 m cl s 2179 1729 m cl s 319 584 m 1145 Y s 341 626 m -22 X s 341 650 m -22 X s 341 667 m -22 X s 341 681 m -22 X s 341 692 m -22 X s 341 701 m -22 X s 341 709 m -22 X s 341 716 m -22 X s 363 722 m -44 X s 341 764 m -22 X s
 341 788 m -22 X s 341 805 m -22 X s 341 819 m -22 X s 341 829 m -22 X s 341 839 m -22 X s 341 847 m -22 X s 341 854 m -22 X s 363 860 m -44 X s 341 902 m -22 X s 341 926 m -22 X s 341 943 m -22 X s 341 956 m -22 X s 341 967 m -22 X s 341 977 m -22 X
 s 341 985 m -22 X s 341 992 m -22 X s 363 998 m -44 X s 341 1039 m -22 X s 341 1064 m -22 X s 341 1081 m -22 X s 341 1094 m -22 X s 341 1105 m -22 X s 341 1114 m -22 X s 341 1122 m -22 X s 341 1130 m -22 X s 363 1136 m -44 X s 341 1177 m -22 X s 341
 1202 m -22 X s 341 1219 m -22 X s 341 1232 m -22 X s 341 1243 m -22 X s 341 1252 m -22 X s 341 1260 m -22 X s 341 1267 m -22 X s 363 1274 m -44 X s 341 1315 m -22 X s 341 1340 m -22 X s 341 1357 m -22 X s 341 1370 m -22 X s 341 1381 m -22 X s 341
 1390 m -22 X s 341 1398 m -22 X s 341 1405 m -22 X s 363 1412 m -44 X s 341 1453 m -22 X s 341 1477 m -22 X s 341 1495 m -22 X s 341 1508 m -22 X s 341 1519 m -22 X s 341 1528 m -22 X s 341 1536 m -22 X s 341 1543 m -22 X s 363 1550 m -44 X s 341
 1591 m -22 X s 341 1615 m -22 X s 341 1633 m -22 X s 341 1646 m -22 X s 341 1657 m -22 X s 341 1666 m -22 X s 341 1674 m -22 X s 341 1681 m -22 X s 363 1687 m -44 X s 2179 584 m 1145 Y s 2157 626 m 22 X s 2157 650 m 22 X s 2157 667 m 22 X s 2157 681
 m 22 X s 2157 692 m 22 X s 2157 701 m 22 X s 2157 709 m 22 X s 2157 716 m 22 X s 2136 722 m 43 X s 2157 764 m 22 X s 2157 788 m 22 X s 2157 805 m 22 X s 2157 819 m 22 X s 2157 829 m 22 X s 2157 839 m 22 X s 2157 847 m 22 X s 2157 854 m 22 X s 2136
 860 m 43 X s 2157 902 m 22 X s 2157 926 m 22 X s 2157 943 m 22 X s 2157 956 m 22 X s 2157 967 m 22 X s 2157 977 m 22 X s 2157 985 m 22 X s 2157 992 m 22 X s 2136 998 m 43 X s 2157 1039 m 22 X s 2157 1064 m 22 X s 2157 1081 m 22 X s 2157 1094 m 22 X
 s 2157 1105 m 22 X s 2157 1114 m 22 X s 2157 1122 m 22 X s 2157 1130 m 22 X s 2136 1136 m 43 X s 2157 1177 m 22 X s 2157 1202 m 22 X s 2157 1219 m 22 X s 2157 1232 m 22 X s 2157 1243 m 22 X s 2157 1252 m 22 X s 2157 1260 m 22 X s 2157 1267 m 22 X s
 2136 1274 m 43 X s 2157 1315 m 22 X s 2157 1340 m 22 X s 2157 1357 m 22 X s 2157 1370 m 22 X s 2157 1381 m 22 X s 2157 1390 m 22 X s 2157 1398 m 22 X s 2157 1405 m 22 X s 2136 1412 m 43 X s 2157 1453 m 22 X s 2157 1477 m 22 X s 2157 1495 m 22 X s
 2157 1508 m 22 X s 2157 1519 m 22 X s 2157 1528 m 22 X s 2157 1536 m 22 X s 2157 1543 m 22 X s 2136 1550 m 43 X s 2157 1591 m 22 X s 2157 1615 m 22 X s 2157 1633 m 22 X s 2157 1646 m 22 X s 2157 1657 m 22 X s 2157 1666 m 22 X s 2157 1674 m 22 X s
 2157 1681 m 22 X s 2136 1687 m 43 X s
 gsave  2263 1770 2 313 C 406.765 1447.41 t 0 r /Helvetica findfont 64.4212 sf 0 0 m (CRT for MB\255SSd) show NC gr 
 gsave  2263 1770 2 313 C 1464.36 1616.89 t 0 r /Helvetica findfont 64.4212 sf 0 0 m (SM Total) show NC gr  1 1 1 c 1338 1603 m 107 X 74 Y -107 X f 1 0 0 c 6 lw 1338 1640 m 107 X s black
 gsave  2263 1770 2 313 C 1464.36 1511.81 t 0 r /Helvetica findfont 64.4212 sf 0 0 m (Data) show NC gr  1391 1502 m 64 Y s 3 lw 1391 1534 m20 6 lw
 gsave  2263 1770 2 313 C 1498.25 1406.73 t 0 r /Helvetica findfont 64.4212 sf 0 0 m (\(+EW\) & single top) show NC gr 
 gsave  2263 1770 2 313 C 1481.3 1406.73 t 0 r /Helvetica findfont 64.4212 sf 0 0 m (t) show NC gr  3 lw 1481 1458 m 17 X s
 gsave  2263 1770 2 313 C 1464.36 1406.73 t 0 r /Helvetica findfont 64.4212 sf 0 0 m (t) show NC gr  0.6 1 0.6 c 1338 1391 m 107 X 74 Y -107 X f black 1338 1465 m 107 X s 1338 1391 m 107 X s 1445 1391 m 74 Y s 1338 1391 m 74 Y s
 gsave  2263 1770 2 313 C 1464.36 1298.26 t 0 r /Helvetica findfont 64.4212 sf 0 0 m (W+jets) show NC gr  0.4 0.6 1 c 1338 1284 m 107 X 75 Y -107 X f black 1338 1359 m 107 X s 1338 1284 m 107 X s 1445 1284 m 75 Y s 1338 1284 m 75 Y s
 gsave  2263 1770 2 313 C 1464.36 1193.18 t 0 r /Helvetica findfont 64.4212 sf 0 0 m (Z+jets) show NC gr  1 0.8 0.4 c 1338 1178 m 107 X 75 Y -107 X f black 1338 1253 m 107 X s 1338 1178 m 107 X s 1445 1178 m 75 Y s 1338 1178 m 75 Y s
 gsave  2263 1770 2 313 C 1464.36 1088.1 t 0 r /Helvetica findfont 64.4212 sf 0 0 m (Diboson) show NC gr  1 0.4 0.6 c 1338 1072 m 107 X 74 Y -107 X f black 1338 1146 m 107 X s 1338 1072 m 107 X s 1445 1072 m 74 Y s 1338 1072 m 74 Y s
 gsave  2263 1770 2 313 C 911.832 1566.05 t 0 r /Helvetica findfont 44.0776 sf 0 0 m (\2551) show NC gr 
 gsave  2263 1770 2 313 C 471.17 1535.54 t 0 r /Helvetica findfont 64.4212 sf 0 0 m (=13TeV, 139 fb) show NC gr 
 gsave  2263 1770 2 313 C 440.662 1535.54 t 0 r /Helvetica findfont 64.4212 sf 0 0 m (s) show NC gr  6 lw 420 1573 m 7 -41 d s 3 lw 427 1532 m 7 61 d s 434 1593 m 37 X s 1 1 1 c 2254 561 2 2 bf black 1 1 1 c black 1860 358 318 187 bl 1 1 1 c black
 1860 358 318 187 bl 6 lw 1 1 1 c black 3 lw 364 342 m20 6 lw 3 lw 457 346 m20 6 lw 3 lw 550 352 m20 6 lw 3 lw 643 342 m20 6 lw 3 lw 736 348 m20 6 lw 3 lw 829 355 m20 6 lw 3 lw 923 336 m20 6 lw 3 lw 1016 335 m20 6 lw 3 lw 1109 380 m20 6 lw 3 lw 1202
 320 m20 6 lw 3 lw 1295 348 m20 6 lw 3 lw 1481 378 m20 6 lw 3 lw 318 187 m 1860 X s
 gsave  2254 561 2 2 C 2105.01 64.4045 t 0 r /Helvetica findfont 50.9797 sf 0 0 m (1/2) show NC gr 
 gsave  2254 561 2 2 C 1888.07 23.728 t 0 r /Helvetica findfont 78.1689 sf 0 0 m ( [GeV]) show NC gr 
 gsave  2254 561 2 2 C 1857.56 3.38971 t 0 r /Helvetica findfont 50.9797 sf 0 0 m (T) show NC gr 
 gsave  2254 561 2 2 C 1806.72 23.728 t 0 r /Helvetica findfont 78.1689 sf 0 0 m (H) show NC gr  6 lw 1773 81 m 10 -78 d s 3 lw 1783 3 m 14 99 d s 1797 102 m 91 X s
 gsave  2254 561 2 2 C 1735.53 23.728 t 0 r /Helvetica findfont 78.1689 sf 0 0 m (/) show NC gr 
 gsave  2254 561 2 2 C 1630.45 61.0148 t 0 r /Helvetica findfont 50.9797 sf 0 0 m (miss) show NC gr 
 gsave  2254 561 2 2 C 1630.45 3.38971 t 0 r /Helvetica findfont 50.9797 sf 0 0 m (T) show NC gr 
 gsave  2254 561 2 2 C 1579.61 23.728 t 0 r /Helvetica findfont 78.1689 sf 0 0 m (E) show NC gr  318 201 m -14 Y s 364 194 m -7 Y s 411 194 m -7 Y s 457 194 m -7 Y s 504 194 m -7 Y s 550 201 m -14 Y s 597 194 m -7 Y s 643 194 m -7 Y s 690 194 m -7 Y
 s 736 194 m -7 Y s 783 201 m -14 Y s 829 194 m -7 Y s 876 194 m -7 Y s 923 194 m -7 Y s 969 194 m -7 Y s 1016 201 m -14 Y s 1062 194 m -7 Y s 1109 194 m -7 Y s 1155 194 m -7 Y s 1202 194 m -7 Y s 1248 201 m -14 Y s 1295 194 m -7 Y s 1341 194 m -7 Y
 s 1388 194 m -7 Y s 1434 194 m -7 Y s 1481 201 m -14 Y s 1527 194 m -7 Y s 1574 194 m -7 Y s 1620 194 m -7 Y s 1667 194 m -7 Y s 1713 201 m -14 Y s 1760 194 m -7 Y s 1806 194 m -7 Y s 1853 194 m -7 Y s 1899 194 m -7 Y s 1946 201 m -14 Y s 1992 194 m
 -7 Y s 2039 194 m -7 Y s 2085 194 m -7 Y s 2132 194 m -7 Y s 2178 201 m -14 Y s
 gsave  2254 561 2 2 C 271.177 118.64 t 0 r /Helvetica findfont 78.1689 sf 0 0 m (10) show NC gr 
 gsave  2254 561 2 2 C 505.067 118.64 t 0 r /Helvetica findfont 78.1689 sf 0 0 m (15) show NC gr 
 gsave  2254 561 2 2 C 735.567 118.64 t 0 r /Helvetica findfont 78.1689 sf 0 0 m (20) show NC gr 
 gsave  2254 561 2 2 C 969.457 118.64 t 0 r /Helvetica findfont 78.1689 sf 0 0 m (25) show NC gr 
 gsave  2254 561 2 2 C 1203.35 118.64 t 0 r /Helvetica findfont 78.1689 sf 0 0 m (30) show NC gr 
 gsave  2254 561 2 2 C 1433.85 118.64 t 0 r /Helvetica findfont 78.1689 sf 0 0 m (35) show NC gr 
 gsave  2254 561 2 2 C 1667.74 118.64 t 0 r /Helvetica findfont 78.1689 sf 0 0 m (40) show NC gr 
 gsave  2254 561 2 2 C 1901.63 118.64 t 0 r /Helvetica findfont 78.1689 sf 0 0 m (45) show NC gr 
 gsave  2254 561 2 2 C 2132.13 118.64 t 0 r /Helvetica findfont 78.1689 sf 0 0 m (50) show NC gr  318 545 m 1860 X s 318 531 m 14 Y s 364 538 m 7 Y s 411 538 m 7 Y s 457 538 m 7 Y s 504 538 m 7 Y s 550 531 m 14 Y s 597 538 m 7 Y s 643 538 m 7 Y s 690
 538 m 7 Y s 736 538 m 7 Y s 783 531 m 14 Y s 829 538 m 7 Y s 876 538 m 7 Y s 923 538 m 7 Y s 969 538 m 7 Y s 1016 531 m 14 Y s 1062 538 m 7 Y s 1109 538 m 7 Y s 1155 538 m 7 Y s 1202 538 m 7 Y s 1248 531 m 14 Y s 1295 538 m 7 Y s 1341 538 m 7 Y s
 1388 538 m 7 Y s 1434 538 m 7 Y s 1481 531 m 14 Y s 1527 538 m 7 Y s 1574 538 m 7 Y s 1620 538 m 7 Y s 1667 538 m 7 Y s 1713 531 m 14 Y s 1760 538 m 7 Y s 1806 538 m 7 Y s 1853 538 m 7 Y s 1899 538 m 7 Y s 1946 531 m 14 Y s 1992 538 m 7 Y s 2039 538
 m 7 Y s 2085 538 m 7 Y s 2132 538 m 7 Y s 2178 531 m 14 Y s 318 187 m 358 Y s
 gsave  2254 561 2 2 C 166.096 284.736 t 90 r /Helvetica findfont 67.9729 sf 0 0 m (Data/SM) show NC gr  361 203 m -43 X s 339 220 m -21 X s 339 236 m -21 X s 339 252 m -21 X s 339 268 m -21 X s 361 285 m -43 X s 339 301 m -21 X s 339 317 m -21 X s
 339 334 m -21 X s 339 350 m -21 X s 361 366 m -43 X s 339 382 m -21 X s 339 399 m -21 X s 339 415 m -21 X s 339 431 m -21 X s 361 447 m -43 X s 339 464 m -21 X s 339 480 m -21 X s 339 496 m -21 X s 339 512 m -21 X s 361 529 m -43 X s 361 203 m -43 X
 s 339 187 m -21 X s 361 529 m -43 X s
 gsave  2254 561 2 2 C 261.008 183.044 t 0 r /Helvetica findfont 57.777 sf 0 0 m (0) show NC gr 
 gsave  2254 561 2 2 C 213.552 261.008 t 0 r /Helvetica findfont 57.777 sf 0 0 m (0.5) show NC gr 
 gsave  2254 561 2 2 C 271.177 342.361 t 0 r /Helvetica findfont 57.777 sf 0 0 m (1) show NC gr 
 gsave  2254 561 2 2 C 213.552 423.714 t 0 r /Helvetica findfont 57.777 sf 0 0 m (1.5) show NC gr 
 gsave  2254 561 2 2 C 261.008 505.067 t 0 r /Helvetica findfont 57.777 sf 0 0 m (2) show NC gr  2178 187 m 358 Y s 2135 203 m 43 X s 2157 220 m 21 X s 2157 236 m 21 X s 2157 252 m 21 X s 2157 268 m 21 X s 2135 285 m 43 X s 2157 301 m 21 X s 2157 317
 m 21 X s 2157 334 m 21 X s 2157 350 m 21 X s 2135 366 m 43 X s 2157 382 m 21 X s 2157 399 m 21 X s 2157 415 m 21 X s 2157 431 m 21 X s 2135 447 m 43 X s 2157 464 m 21 X s 2157 480 m 21 X s 2157 496 m 21 X s 2157 512 m 21 X s 2135 529 m 43 X s 2135
 203 m 43 X s 2157 187 m 21 X s 2135 529 m 43 X s 9 lw 1016 348 m 6 Y s 1016 354 m cl s 1016 321 m -5 Y s 1016 316 m cl s 1109 394 m 21 Y s 1109 415 m cl s 1109 367 m -21 Y s 1109 346 m cl s 1202 333 m 32 Y s 1202 365 m cl s 1202 306 m -29 Y s 1202
 277 m cl s 1295 361 m 64 Y s 1295 425 m cl s 1295 334 m -55 Y s 1295 279 m cl s 1481 391 m 154 Y s 1481 545 m cl s 1481 364 m -130 Y s 1481 234 m cl s 3 lw 364 342 457 346 550 352 643 342 736 348 829 355 923 336 1016 335 1109 380 1202 320 1295 348
 11 { m20} R 9 lw 3 lw 1481 378 m20 9 lw 1 0 0 c 6 lw black 3 lw 1 0 0 c 2155 203 m cl s 2127 203 m cl s 2098 203 m cl s 2069 203 m cl s 2040 203 m cl s 2012 203 m cl s 1992 213 m s 1992 241 m -3 -3 d s 1992 270 m -31 -32 d s 1992 298 m -60 -60 d s
 1899 206 m -18 -19 d s 1992 327 m -89 -89 d s 1899 234 m -47 -47 d s 1992 356 m -169 -169 d s 1992 384 m -186 -185 d s 1992 413 m -186 -186 d s 1992 441 m -186 -185 d s 1992 470 m -189 -189 d s 1988 494 m -214 -213 d s 1959 494 m -213 -213 d s 1930
 494 m -213 -213 d s 1713 278 m -5 -6 d s 1901 494 m -222 -222 d s 1899 520 m -249 -248 d s 1895 545 m -89 -89 d s 1801 451 m -179 -179 d s 1867 545 m -61 -60 d s 1772 451 m -152 -152 d s 1838 545 m -32 -32 d s 1743 451 m -126 -126 d s 1809 545 m -3
 -3 d s 1715 451 m -127 -126 d s 1695 460 m -136 -135 d s 1667 460 m -47 -46 d s 1614 408 m -83 -83 d s 1527 321 m -1 -2 d s 1638 460 m -18 -18 d s 1585 408 m -88 -89 d s 1557 408 m -89 -89 d s 1528 408 m -88 -89 d s 1504 413 m -82 -82 d s 1476 413 m
 -82 -82 d s 1447 413 m -82 -82 d s 1407 401 m -66 -65 d s 1378 401 m -61 -61 d s 1350 401 m -9 -8 d s 1340 392 m -51 -52 d s 1311 392 m -51 -52 d s 1282 392 m -40 -41 d s 1254 392 m -6 -6 d s 1243 381 m -30 -30 d s 1215 381 m -31 -30 d s 1186 381 m
 -30 -30 d s 1157 381 m -2 -2 d s 1155 379 m -26 -26 d s 1126 379 m -26 -26 d s 1098 379 m -26 -26 d s 1069 379 m -25 -25 d s 1040 378 m -25 -24 d s 1011 378 m -25 -24 d s 982 378 m -22 -22 d s 952 376 m -21 -20 d s 923 376 m -21 -20 d s 894 376 m
 -20 -20 d s 865 376 m -20 -20 d s 836 376 m -19 -20 d s 808 376 m -20 -20 d s 779 376 m -20 -20 d s 750 376 m -19 -20 d s 722 376 m -20 -20 d s 693 376 m -20 -20 d s 664 376 m -20 -20 d s 636 376 m -20 -20 d s 607 376 m -20 -20 d s 579 376 m -21 -20
 d s 550 376 m -21 -20 d s 521 376 m -20 -20 d s 493 376 m -21 -20 d s 464 376 m -21 -20 d s 318 231 m s 435 376 m -21 -20 d s 318 259 m s 406 376 m -20 -20 d s 318 288 m s 378 376 m -21 -20 d s 318 317 m s 349 376 m -20 -20 d s 318 345 m s 320 376 m
 -2 -2 d s 6 lw black[ 4 8] 0 sd 3 lw 318 447 m 1860 X s 318 285 m 1860 X s 1 0 0 c[  12 12 ] 0 sd 6 lw 318 366 m 1860 X s
 gr  gr showpage
end
%%EOF
